series,2021-12-01,2021-12-02,2021-12-03,2021-12-04,2021-12-05,2021-12-06,2021-12-07,2021-12-08,2021-12-09,2021-12-10,2021-12-11,2021-12-12,2021-12-13,2021-12-14,2021-12-15,2021-12-16,2021-12-17,2021-12-18,2021-12-19,2021-12-20,2021-12-21,2021-12-22,2021-12-23,2021-12-24,2021-12-25,2021-12-26,2021-12-27,2021-12-28,2021-12-29,2021-12-30,2021-12-31,2022-01-01,2022-01-02,2022-01-03,2022-01-04,2022-01-05,2022-01-06,2022-01-07,2022-01-08,2022-01-09,2022-01-10,2022-01-11,2022-01-12,2022-01-13
S,130495.11476967213,129870.39445903247,129349.30948370387,128903.83566376717,128515.48975419877,128171.79149397102,127864.07695860199,127586.16571581745,127333.52563835663,127102.73851431809,126891.15242475511,126696.65246966295,126517.50768105024,126352.26760594404,126199.69161402047,126058.69996349738,130977.15434284692,135893.63373698332,140808.1755463576,145720.5792099515,150630.41793068853,155537.03708567683,160439.5366775986,165336.7335888518,170227.09666426436,175108.6429983609,179978.77573608188,184834.02921641033,189669.66019316338,194478.97067519187,199252.13766506308,203974.08198751256,208620.33434181195,213148.39907147575,217478.18631599782,220378.71200398885,218835.97114923195,217522.37490474156,216212.03119344034,214885.38488591954,213546.8306796539,212204.87061643848,210868.04786567655,209543.96955376578
E,872.4050699973504,1315.5398605273451,1562.6436533640128,1682.7311113796666,1720.7123827153764,1706.1512377209724,1658.644149077515,1591.226729151231,1512.5739141340885,1428.441642468073,1342.621833093011,1257.5803273999459,1174.8859112966575,1095.5003998215884,1019.9756365754013,948.5877421890996,881.4288390487523,830.2174474553079,791.5963717716265,763.1448210070095,743.1717499657693,730.5654995728569,724.6906521364731,725.3264965881572,732.6453906623085,747.234295296854,770.1701096685979,803.1716427364797,848.8732833785571,911.3090075950465,996.7866645557683,1115.5369392796274,1285.01250207748,1536.9802988402046,1934.010144624702,2609.990614264757,3603.31351969075,4160.560269702818,4597.16183313776,4957.670556697658,5253.452711058408,5489.413747305004,5669.409129066439,5797.440096258621
I,7436.537396954285,6470.953405391451,5734.861381210503,5156.743548136612,4688.852446241189,4299.092192387452,3965.770979005065,3674.156670315146,3414.1926667865764,3178.9721964314745,2963.7139731889697,2765.0720442683687,2580.6697732489492,2408.7848423953938,2248.1363517421737,2097.7410987272783,1956.816794923403,1824.7171378510457,1703.0867394544157,1592.6923576438055,1493.7313735755047,1406.0547728374636,1329.3281433356026,1263.1489336707368,1207.1343976559099,1160.9921403288236,1124.5839850010193,1097.994242533855,1081.6160550839147,1076.2758433468312,1083.4294323439262,1105.49200557049,1146.4265330757173,1212.8602268208328,1316.3586564758498,1478.4400659845574,1742.4100095892302,2152.1844667592272,2604.030968953177,3068.9876466811074,3530.825690097664,3977.906640872913,4401.276628261683,4794.062384185179
A,835.3729855808668,687.5565276389187,578.4553735079267,496.2484803458765,432.91670031902026,382.97990588828014,342.66939739176564,309.37798725001073,281.29106584657745,257.13729632953715,236.0192003230796,217.2975137953987,200.51195408887457,185.32676443296918,171.49318723177802,158.82354234182932,147.1732830821648,136.42854935670357,126.74445378896019,118.17468824656491,110.71137974917812,104.31267506884201,98.92167819231095,94.47945301931378,90.934146365397,88.24784157899937,86.40250164107633,85.40631375020652,85.3019664559059,86.17903309224498,88.19406610917807,91.60507236826929,96.83379293493248,104.58494440768328,116.09082493269605,133.65386256428354,161.9329051333966,205.46716662769916,252.05597867499824,298.55580447102705,343.38485362385416,385.51487355224884,424.22524355281803,459.0197162253854
IH,0.0,314.4946611195816,560.2109538886145,752.9652725349739,904.1441782943629,1022.1032552017953,1113.0983299356694,1181.9120319552403,1232.2790172857085,1267.1768133055245,1289.026298558177,1299.8310497148482,1301.2751204502106,1294.792424430678,1281.6166321099981,1262.8176304327665,1239.3286650315274,1211.9669777851282,1181.4498648525532,1148.5004408619538,1113.8099970704814,1078.0167497126192,1041.695906571827,1005.357424829888,969.4489270468933,934.3620772665738,900.4413740182114,867.9948630133977,837.3067851418402,808.6527521895185,782.3188371017582,758.627262296733,737.9737594460696,720.8864946775518,708.126973598449,700.8781541673613,701.1279032320656,712.5188746425165,740.227293875323,784.5825754240586,844.6600536924739,918.9308971478249,1005.509917580142,1102.300765449278
IN,814.3366878967297,1475.474657512306,1906.4986231201551,2175.8297185511487,2331.18567376896,2406.078648343473,2424.2016058925087,2402.4148663815986,2352.7936284836924,2284.0401738481987,2202.463325160339,2112.661471349802,2018.0015222734442,1920.9567279935854,1823.3464513641586,1726.5075192430722,1631.4175998421947,1538.7847712321668,1449.1131296436808,1362.9920301303769,1280.9839178344027,1203.567040968474,1131.1133585473308,1063.8882343159428,1002.0630286155206,945.7349517280751,894.9509073992,849.7338445001556,810.1116270455757,776.1499280376357,747.9925626630029,725.9157104453682,710.4080683166376,702.3003604421637,702.9927409939066,714.8884429626568,742.2949377521294,793.4515120076595,879.8564315138069,999.4856225257768,1147.524329919884,1318.2864511124085,1505.8811256591246,1704.5452310171913
D,497.0,497.0,497.5950617183583,498.6550482112207,500.0797490546109,501.7904985677001,503.7244408394537,505.83055673520624,508.0668764303638,510.3984965186428,512.7961474336217,515.235140202206,517.694576859303,520.1567458718879,522.6066488440279,525.0316216326435,527.4210244494144,529.7659833189829,532.0591705859047,534.2946158053261,536.4677167522281,538.5751792077812,540.6149165350203,542.5859304592781,544.4881876062001,546.3225015571444,548.0904269689391,549.7941703310576,551.4365209925033,553.0208061202247,554.5508743718129,556.0311156892732,557.4665296981747,558.8628647959979,560.226868734052,561.5667301238298,562.8928758755379,564.2194941825101,565.5676655772107,566.9682646331727,568.4527892157641,570.0509876118501,571.7897153751853,573.6922610567287
R,0.0,319.3533388792795,761.032381788965,1283.465961815018,1856.9789704765205,2460.268464359664,3077.972649335596,3698.9814316023253,4315.253927673165,4920.984765336913,5512.011763609247,6085.391612533856,6639.093164542364,7171.773573589862,7682.613189602586,8171.1924356093505,8637.39893538351,9081.356642931532,9503.371141199843,9903.936074681627,10283.729522415839,10643.593922991415,10984.50886082495,11307.562599117051,11613.92594647206,11904.830560513605,12181.552904089078,12445.404633794726,12697.730139460753,12939.912261041192,13173.38797644638,13399.677333955804,13620.431676217668,13837.512579365242,14053.123997483826,14270.044614156148,14492.066045440086,14724.889761908435,14976.986873726326,15257.015050043141,15572.654577355695,15930.284932152794,16334.878416913492,16789.99183860602
G,135175.0,135338.24735745348,135584.41558049744,135876.82269254452,136191.70097178046,136513.68643366758,136832.94716535357,137143.3182115619,137441.07388444457,137724.1117792567,137991.40656172522,138242.64245414437,138477.9650953048,138697.81368046845,138902.8073829473,139093.66863887556,139271.1715530042,139436.10746833356,139591.46053661557,139739.58669991474,139882.38891378092,140021.45369972533,140158.1595618913,140293.76610293638,140429.49162532398,140566.586683674,140706.41166670184,140850.52847610263,141000.820642858,141159.6646536165,141330.19184612107,141516.71390396988,141725.45691079315,141965.91275232035,142253.51765154966,142615.4161047523,143103.80628657277,143778.07037603718,144556.60834298987,145416.84465620614,146344.5405687348,147327.58422824688,148354.78170684364,149415.66052388848
H,99910.19374964795,99910.19374964795,99910.19374964797,99910.19374964795,99910.19374964795,99910.19374964797,99910.19374964797,99910.19374964795,99910.19374964797,99910.19374964795,99910.19374964795,99910.19374964795,99910.19374964795,99910.19374964797,99910.19374964797,99910.19374964797,96304.90629959173,92750.17852312201,89248.70973026304,85803.37806002161,82417.2516426625,79093.5987663299,75835.89641658709,72647.83636140474,69533.32771694196,66496.49464993372,63541.66755437131,60673.365695532004,57896.26896835517,55215.17611355729,52634.946542898964,50160.42294483547,47796.33220666091,45547.16305942565,43417.02039378523,41833.3738122217,41833.37381222169,41833.37381222169,41833.3738122217,41833.3738122217,41833.37381222169,41833.37381222169,41833.37381222169,41833.3738122217
S0,45673.29016938525,45226.96598858405,44777.27676281992,44370.614522714306,43996.75478779557,43648.78033103772,43321.877766757345,43012.60340422007,42718.42284787237,42437.41624791144,42168.086531437635,41909.23296149777,41659.86678501492,41419.15433018951,41186.378184829606,40960.910385768824,42412.45722835017,43826.83590291557,45202.97403013276,46539.59399325487,47835.21860567323,49088.17062256737,50296.56511290787,51458.293032399546,52570.99310385356,53632.00694133731,54638.30850861342,55586.39200486775,56472.08906841734,57290.26016380333,58034.25101022012,58694.88597180212,59258.49020455564,59702.72402002308,59987.11589575572,59860.83268362619,58877.616207427796,58016.65102417972,57164.81433993267,56312.541305973515,55462.1310925141,54617.80135148813,53783.67381487193,52963.30845504613
E0,872.4050699973504,1035.1535793741161,1107.5332638797543,1123.301972073038,1104.3442418669322,1064.709118932644,1013.4360820065872,956.3264993551959,897.0744734385139,837.9978292007202,780.5147262493659,725.4562328509397,673.2720774154537,624.166343444338,578.1869877998872,535.2848170059635,495.35221931833075,464.71643277506985,441.39333914423634,423.94158746345454,411.3418953393944,402.90837657901756,398.22656918707014,397.1147148201234,399.6069040252801,405.959290983783,416.68432706861597,432.624098157406,455.0849298805892,486.0770376959184,528.7481249383812,588.200576831165,673.1230921088811,799.2873857884366,997.6413218925001,1334.0499394913716,1824.6969698075172,2094.0349425964455,2300.792072051005,2467.5290536886014,2600.2521839348947,2701.7887028404266,2774.4629507565182,2820.6687204389186
I0,7436.537396954285,6470.953405391451,5682.394561566033,5027.079164822752,4474.188252085092,4001.676141709268,3593.472487145963,3237.637842281678,2925.1306841379615,2648.9732031567287,2403.680507567169,2184.865657107822,1988.9631406617818,1813.0328295910372,1654.619081724174,1511.647983653376,1382.3512270095614,1265.2087876350674,1160.1153478445617,1066.6103018350136,984.0332511771012,911.6333112785106,848.6452329704543,794.3423727873192,748.0743770891727,709.2959919926125,677.5926630134442,652.7086547020916,634.5846249743206,623.414683620229,619.7396337246065,624.6071957976308,639.8608267164623,668.6900136838444,716.7513508850218,794.6338560791714,923.644070629105,1124.8826572460139,1345.9735974899036,1572.193060668126,1795.273857111431,2009.3276358978117,2209.8889126633767,2393.6049808854714
A0,835.3729855808668,687.5565276389187,572.5615870007432,481.96043151314706,409.7111922199948,351.4337383957463,303.91445601652936,264.76892678522563,232.20893630533982,204.87959465626247,181.7442190264415,162.00213154557366,145.02937740299524,130.33555900194168,117.53210808560044,106.30875019217132,96.41588999568332,87.65131433739712,79.98603005047501,73.35510403347303,67.67622075492852,62.862011578497146,58.82806788671564,55.49805773840154,52.807010914315185,50.703596280329826,49.15207682136695,48.13459541912328,47.65454755933489,47.74211264629349,48.46372264769262,49.93876177252967,52.37012221741447,56.10297969983171,61.74538013912845,70.43496138077474,84.46758538610275,106.02265599309162,128.951998998448,151.66680912261498,173.36852362917853,193.5436666742273,211.84032136403727,228.02542481445778
IH0,0.0,314.4946611195816,560.2109538886145,750.7464260768269,896.6389122886309,1006.1865947710197,1086.0180264015544,1141.4931797314164,1176.990860153296,1196.118438747419,1201.8676708986036,1196.7325309575065,1182.7998737890296,1161.8203466323707,1135.26470942013,1104.3691923859137,1070.1724779023998,1033.546177114202,995.2201745470858,955.8550493525372,916.0332079027341,876.2573802464323,836.9538727789164,798.4787511245449,761.1257137980349,725.1348599572492,690.7018965122506,657.9876097885007,627.1276848098094,598.2432411579579,571.4528457350337,546.887401395569,524.7104886530203,505.14911428095365,488.54500004057564,475.44872517915763,466.80976360988814,464.3942905747275,470.7039106839545,485.8029504336255,509.1273430858206,539.8135168234217,576.8256084772083,619.0309455910808
IN0,814.3366878967297,1475.474657512306,1906.4986231201551,2170.0843489183335,2312.3222883558287,2367.25721113508,2360.115038163788,2309.6162331172723,2229.6520081008075,2130.510172811729,2019.7790183914042,1903.0186514466004,1784.2627813041408,1666.3958270028452,1551.4376122235035,1440.7590726232445,1335.2461303324076,1235.4244033191223,1141.554176648362,1053.83523594246,972.3793431984499,897.2049181530956,828.2446898113358,765.3602441962513,708.3596357754017,657.0158122954003,611.0847282339187,570.3228539065605,534.5044698735917,503.4398223721289,476.9961114030787,455.12474077717883,437.90098700618705,425.5878324707344,418.7480496865896,418.4579627914819,426.75095877383654,447.6110586009912,486.5834055955179,542.434525437523,612.5506632034177,693.9044847274307,783.3933763322514,878.0094176838193
D0,497.0,497.0,497.5950617183583,498.6550482112207,500.07555073028493,501.7720993775464,503.67592541370874,505.7308021186359,507.89064448482145,510.1176527311348,512.380852656333,514.6549308201345,516.9192926816418,519.1572922803161,521.3555960907195,523.503653442072,525.5932527598591,527.6181477815212,529.5737414376003,531.4568176879334,533.2654103875497,534.9986553743719,536.6566397120307,538.2402570871221,539.751074905222,541.1912162848149,542.5632586408649,543.8701496893448,545.1151413732905,546.3017423681198,547.4336905220642,548.5149480261925,549.5497247555159,550.5425400990481,551.4983429699175,552.4227288599183,553.3223350229902,554.2055952318956,555.0842850753461,555.9749134788059,556.8941110812054,557.8574412393751,558.8788333284188,559.9702567457562
R0,0.0,319.3533388792795,761.032381788965,1282.293695201313,1851.6910202015783,2446.163601674445,3048.9058284661805,3647.7949983239514,4234.222076572473,4802.216445868999,5347.787113042588,5868.424614106388,6362.723112265234,6830.09298844871,7270.541956681301,7684.50832521019,8072.7341010929,8436.168636392227,8775.895741053233,9093.105895376164,9389.071693268344,9665.121027412812,9922.611595397668,10162.908721955238,10387.367473382938,10597.319423230167,10794.064099598301,10978.86502956964,11152.950355861702,11317.518231733704,11473.747647784785,11622.816135103512,11765.927211139797,11904.353134770343,12039.504034368743,12173.046566532605,12307.124026315285,12444.801453577456,12590.480456492436,12748.600508755888,12923.058616699025,13117.052184696133,13333.031868342452,13572.704563840585
G0,135175.0,135338.24735745348,135531.948760853,135739.1940931397,135949.39011889612,136156.03871070713,136355.27064561885,136544.90819820217,136723.8592144806,136891.72279329755,137048.53175265994,137194.5842813484,137330.33408041985,137456.31900561706,137573.1151014708,137681.30738636042,137781.47167341743,137874.16363910335,137961.1229338447,138043.7179332216,138123.0473023967,138200.0189749986,138275.41253933517,138349.93002819817,138424.2394631496,138499.0152448888,138574.97970654306,138652.95107285623,138733.90514250085,138819.06215817493,138910.01852082298,139008.95964017586,139119.0257013699,139244.98274793773,139394.54807952876,139581.2300637197,139830.86195470998,140172.30536066744,140564.1481898192,140994.68010524398,141456.41240289737,141942.98029703088,142448.54804451967,142967.7148405872
H0,34968.56781237678,34889.888534798934,34764.28493607366,34639.13351030379,34514.4326296667,34390.1806721999,34266.37602177998,34143.01706810157,34020.10220665641,33897.62983871245,33775.59837129308,33654.00621715643,33532.851794774666,33412.133528313476,33291.84984761155,33171.999188160145,31382.316410543954,29630.035120599652,27916.27558801989,26242.233698283857,24609.183440989917,23018.478634483672,21471.55355674054,19969.922064930397,18515.174683426536,17108.973023370258,15753.040770155016,14449.150346531578,13199.104242943382,12004.709926329719,10867.747228155957,9789.927218605453,8772.841855429428,7817.904218686964,6926.2799674845,6268.274204799566,6245.7084176622875,6223.2238673587035,6200.820261436213,6178.4973084950425,6156.25471818446,6134.092201198996,6112.00946927468,6090.006235185291
S1,13049.511476967215,12128.039739451198,11351.841040457457,10643.313247041147,9994.1706881517,9397.870523255717,8849.052575188985,8343.197371612197,7876.409496630598,7445.275449720933,7046.7670891658745,6678.17368233317,6337.052352387659,6021.190654863395,5728.577367330265,5457.379000736406,5419.341899121764,5377.19686363479,5331.817526569144,5283.934902933447,5234.154015517739,5182.96785814912,5130.768999331041,5077.859015889961,5024.455803269338,4970.698610410522,4916.650341535423,4862.296152429834,4807.5364347194845,4752.170474063061,4695.86334995393,4638.080494103469,4577.955191371923,4514.006112521747,4443.4937327494,4348.569015350479,4198.708112485525,4065.283341361068,3939.455806770241,3820.0049850938526,3706.587223025267,3599.0146930595315,3497.1146381302574,3400.699601118084
E1,0.0,98.38115128183463,155.09084124529852,185.24978002167197,198.2280334619362,200.1795446384722,195.18864005227232,185.98326939522448,174.3894224843328,161.62627980484564,148.5010470183541,135.53937572104977,123.07373175621561,111.30390149620249,100.33878912703791,90.22549619678598,80.96965888692418,73.37617325953573,67.10954802802249,61.919343640265055,57.61923469314599,54.07174524250696,51.177372081362634,48.86717282778103,47.09821943513645,45.851637117771126,45.13331699133251,44.97790281846264,45.45749492248877,46.698087078382045,48.90997250831335,52.44547790948419,57.91433529971027,66.4303018260613,80.17906215254723,103.79117194917205,138.0021102041245,155.56941351266465,168.21744308735785,177.69714903103488,184.55448228952224,189.09707149383442,191.58301550852872,192.25988348805555
I1,0.0,0.0,18.40941040156847,44.636066063160605,72.52508052304907,98.60920818584106,121.0990614366877,139.24114612116324,152.9068080276935,162.32860737588302,167.93193997355047,170.2286755744712,169.75134620135123,167.01386014587018,162.48950153652584,156.6000907162832,149.71223148628502,142.1379335785984,134.29245996347865,126.46526039553144,118.8549844325418,111.5952617318724,104.773712639394,98.44603777196525,92.64658192584692,87.39644367919455,82.70998703229512,78.60049796313287,75.08572835766476,72.1942271030633,69.9737858768917,68.50429257694984,67.91943704558965,68.44671073332157,70.48748292615316,74.79118957487987,82.85999086275716,96.10565142335615,110.62793571032061,125.31254728469972,139.54197830368597,152.89461587519415,165.07041045761775,175.86315494009642
A1,0.0,0.0,2.0679952656783844,4.916720121860678,7.832785326684521,10.441654867077428,12.572644816136805,14.17487357940609,15.264921999813287,15.894455753277054,16.13049174331679,16.04368495241957,15.701686499166385,15.165680292324511,14.488880396499491,13.716205858732922,12.884631470717459,12.0238962591501,11.174743303483085,10.362759829803105,9.603179498466593,8.90428940981307,8.269838593365042,7.700738820313896,7.196271326412543,6.754957950926031,6.375217784906417,6.05590819283375,5.796842028088504,5.599384933268516,5.467279345603716,5.407943750024559,5.434727095489112,5.571139954492614,5.859428117552078,6.379378354335307,7.292243332516686,8.742662713743233,10.273864436970376,11.766376690257546,13.161295841366172,14.422910134428616,15.529077263437443,16.467484298482997
IH1,0.0,0.0,0.0,0.7785426168936896,2.5970480349784673,5.433415784671459,9.120877613871542,13.431808860698258,18.12694406676634,22.982836055900023,27.805726381794734,32.43706254321019,36.7540269016916,40.66723539733413,44.11697931403482,47.0688705614652,49.50941546817573,51.44182314463167,52.882212604748155,53.86283232771189,54.42530642846628,54.615961634070366,54.48265972673915,54.07271539626585,53.43159494974313,52.60217739571568,51.62442414112072,50.53535341652393,49.36925619210816,48.15812736458824,46.932326377367986,45.72153631990347,44.556181387099606,43.46963634039071,42.501931259142886,41.70651358008844,41.16377584588736,41.010494649687544,41.43099794928148,42.42829306635225,43.95799599707091,45.953551632452076,48.33648818701292,51.02261698628538
IN1,0.0,0.0,0.0,2.015919169408707,6.524534716008898,13.238939448564096,21.546521060803947,30.753969593557855,40.215894168880126,49.394231102416384,57.87760748163916,65.37862363733208,71.71999974308844,76.81612191765302,80.6537579973256,83.27399203889448,84.7563704394484,85.205619654209,84.74093083402981,83.50454535284348,81.64364128482556,79.29946161859239,76.60131081456159,73.6637625230835,70.58593548337547,67.45206244430503,64.33284009637302,61.2872381010329,58.36458721284918,55.60688165658404,53.05134165021412,50.73341870280126,48.6906430472095,46.96812414827714,45.62739657284352,44.76237044563138,44.531355710081485,45.22737371510675,47.242915614099765,50.469539786301326,54.69718457696991,59.687686515259195,65.20151846586987,71.01135794394597
D1,0.0,0.0,0.0,0.0,0.001473096254717547,0.006387023444615678,0.01666769950401715,0.03392549677957203,0.05934009438467449,0.09363845241261304,0.1371247420287366,0.18973652011758577,0.25111134316464134,0.3206543819140063,0.3976016817195737,0.48107631186410493,0.5701362752281238,0.6638140430430919,0.7611481585633819,0.8612076641560846,0.9631226201889491,1.0661018448607005,1.169441812108675,1.272529556117773,1.3748416361558062,1.4759406392111514,1.5754702845127622,1.6731499030770718,1.768768868864367,1.8621814384741773,1.953302406698159,2.0421040120457605,2.128614657001217,2.212920310284183,2.295170089676423,2.3755888546836768,2.454502593789296,2.532389407834942,2.6099861954245647,2.6883786258245963,2.7686580585157374,2.851831873106052,2.938781518933826,3.030239967282596
R1,0.0,0.0,0.0,0.4113216188438149,1.836201496664943,4.847411704476971,9.88733274279534,17.234645293698136,27.00768530007523,39.18586475320575,53.63821671451765,70.15286432782935,88.46412863519497,108.27575511454296,129.27977956724442,151.17114043543484,173.65844915078532,196.47146280566636,219.3658344834847,242.1291457895824,264.5836313512842,286.5858635343144,308.02466316794204,328.8180844566554,348.91003181509586,368.2668673360908,386.8742343007025,404.73423653043847,421.8630634512656,438.2891296392308,454.05180380345587,469.2008411897398,483.7967231844349,497.9122923864226,511.63645617910015,525.0815818897763,538.3982211260982,551.8057717174693,565.6194193921286,580.1533657530669,595.677910330814,612.408258917833,630.5019217040231,650.060119412365
G1,0.0,0.0,18.40941040156847,47.430527849463004,82.09508689136285,119.18818016735545,156.64644674823427,193.1707985537186,227.97261058287245,260.604943162613,290.84899375399425,318.6370068439394,343.9995886058984,367.02955733499044,387.85711602120074,406.63284617040813,423.5161430878582,438.66745673994416,452.39785193893596,464.9556152443523,476.54217012826393,487.32407422950484,497.4421602279777,507.01864143036363,516.1628304140222,524.9760069165079,533.5559187622915,542.0014161411267,550.4178318996179,558.9239905382577,567.6622929345303,576.8144907377007,586.6282641481807,597.4653884628997,609.8960489449328,624.8994234892156,644.3211750704544,670.1445919539616,699.2552614467546,730.7326725783466,763.9839580235599,798.5184106260082,833.9028877286613,869.7525429981233
H1,9991.019374964795,9356.05441147373,8813.368409379455,8308.993520193644,7840.194863674049,7404.432902306989,6999.349488276409,6622.75490707793,6272.6158465889575,5947.044225490852,5644.286819660871,5362.715629536035,5100.818935522367,4857.192992303387,4630.534316412216,4419.632524691317,4009.94220399649,3635.3646946545364,3292.802977023536,2979.447018583684,2692.749402654416,2430.402954376411,2190.320176121294,1970.6143136185974,1769.5818814552474,1585.686482436473,1417.5437599901948,1263.907326988741,1123.6555190429265,995.7788269504094,879.3678735730344,773.6018175948162,677.7370934783034,591.0964367124512,513.0581987016759,455.3565622913226,445.39688069350655,436.0673680904117,427.32330486358796,419.1231646002163,411.428386010783,404.203161138334,397.4142386956265,391.03074144961346
S2,13049.511476967215,13785.21740592445,14451.52633207193,15058.36680704781,15610.427582517217,16112.019079005437,16567.110404570078,16979.358573362817,17352.133210999484,17688.538538246394,17991.4335417668,18263.450758847986,18507.013859222327,18724.354095865925,18917.525654858146,19088.41992610654,20006.219485984326,20904.6058809517,21781.95347790777,22636.723242205957,23467.445721196364,24272.705125767025,25051.124138929918,25801.349021299888,26522.03441401538,27211.826886102815,27869.345590432466,28493.157090556062,29081.73890081466,29633.421247217782,30146.286039468687,30617.978815160674,31045.334616789936,31423.579885108702,31744.49863300677,31905.207156362634,31689.604601451014,31487.314034408602,31278.026357817227,31060.53372905884,30835.82362280043,30605.240557321,30370.10740759465,30131.63284974828
E2,0.0,34.433402948642126,57.97319525729738,73.72785225658977,83.90221997556633,90.0614793589001,93.3227605345522,94.4879435658027,94.13631934518696,92.68945222802162,90.45665812857925,87.6669279960752,84.49136756663535,81.05900433576146,77.46795892443738,73.79337839054683,70.0931077235072,67.46803809746338,65.67943927914723,64.5601940618179,63.99945577956772,63.93146780357096,64.32800444939753,65.19413302861355,66.56729587300524,68.5201281305108,71.16807579675378,74.68398639682248,79.32388799377694,85.47219868295582,93.72306075974141,105.03343251167838,121.02907571686842,144.6620526066901,181.73926375349603,244.6802598244256,337.0791395852506,389.2026549848377,430.2610217048836,464.34628859196897,492.4689159690312,515.0416717082774,532.3841864771028,544.8353017893486
I2,0.0,0.0,6.443293640548965,16.31337040238506,27.63328016543601,39.138742696592885,50.050271445566736,59.91574337846063,68.50171609040069,75.71858148524376,81.56921808730294,86.11394770390747,89.44678512922789,91.67949203270626,92.93100924572109,93.32058360078686,92.96342259198173,91.96806990651822,90.63259525337456,89.16515076318207,87.71102052236485,86.37269317811797,85.22479548320315,84.32534451625412,83.7244988489474,83.47180955251604,83.62289781103702,84.24654441604015,85.43343336645154,87.3083920856284,90.0492333830355,93.91795681666281,99.31586088427665,106.88754684875609,117.73216830554723,133.86863918780455,159.33339970387442,198.22271724492032,240.96234626879234,284.8972799619551,328.5412469195472,370.8226654538606,410.9098534361471,448.15718452796943
A2,0.0,0.0,0.7237983429874346,1.7984461683857134,2.9905145608500447,4.159349707786507,5.2251741371834655,6.147560356133941,6.910977558663706,7.515160829016706,7.968759326142329,8.28520379660995,8.48006707300983,8.569421254791775,8.568853910069668,8.492914778411507,8.35483928383656,8.166446256894444,7.960344772887046,7.757639837214622,7.571725853094579,7.411003070684044,7.2808187210835165,7.184863167333505,7.126199280073752,7.108067775627908,7.134591604113653,7.21150036849664,7.347017357230378,7.553112028143795,7.847453689235831,8.256686258459695,8.822269703951386,9.61159155945248,10.7406891164792,12.424582432454798,15.096586267140413,19.17937844096081,23.54575718863459,27.906725438092238,32.1167831088204,36.080610017611534,39.730521523162146,43.01901408580076
IH2,0.0,0.0,0.0,0.2724899159127914,0.9381788393237152,2.023444511020111,3.498853960988515,5.304624534471518,7.367164868289095,9.609549923844789,11.95790001017357,14.345021502439657,16.712242077403268,19.010078474013415,21.198170553822642,23.244774306679346,25.126009234497605,26.824988839763694,28.33091738156491,29.646563846376935,30.783254043095464,31.757451596166046,32.588491602991546,33.2971472062313,33.90479939019213,34.43305063314668,34.903679535751245,35.33888188020714,35.76179008897786,36.197316299695785,36.67343817600795,37.2231673074282,37.88766223390577,38.72139559351035,39.80126053119905,41.24380183167433,43.24058990291305,46.13687676047427,50.42047128372412,56.1309403881133,63.19205391782185,71.47149977553393,80.80340431813629,91.00145982031258
IN2,0.0,0.0,0.0,0.7055717092930476,2.3592273070859324,4.941370317055286,8.297646110028236,12.217380795933568,16.48002428029552,20.880954827826137,25.244233058057063,29.42733375067823,33.32115005617944,36.8473961424528,39.95475229762375,42.61457802757785,44.81667899135503,46.56539445466288,47.87613340708128,48.794046060985494,49.378582316300715,49.69391724932419,49.80337587260592,49.7665420431611,49.63814343546532,49.46810457611975,49.302383921425914,49.18438468890728,49.15687660715877,49.264513598998484,49.55721818320168,50.09499246450781,50.955240746079696,52.24474961142077,54.12080314957493,56.83145868217569,60.79918805757476,66.8089944204219,75.9467616512745,88.04566352041967,102.67952227350841,119.3395818162627,137.49545345261825,156.62545571918986
D2,0.0,0.0,0.0,0.0,0.0005155836891511415,0.0022907308737422413,0.006119331217684008,0.012739583666163186,0.022776571192409088,0.03671613306079333,0.054898557112051175,0.07752434192721816,0.1046668476687787,0.13628841940801395,0.1722577739356926,0.2123672618071369,0.2563491700930898,0.30389060109016913,0.35464670581101293,0.4082522084282118,0.4643470723697524,0.5225926908560361,0.5826816082647462,0.6443429533029926,0.7073451599618684,0.771497117625943,0.8366485901664813,0.9026905491861731,0.9695559633767843,1.0372215707551686,1.105711246098387,1.1751018012875702,1.2455325101010155,1.3172205232241188,1.3904860601241051,1.4657948313452351,1.543833064179506,1.6256494601680849,1.7129459791838193,1.8083475741607193,1.9145540633949425,2.0341210285607865,2.16935370093325,2.3222434589074474
R2,0.0,0.0,0.0,0.14396256659533524,0.6581038964035351,1.7783313666030058,3.7111836600358616,6.615734071777865,10.59818280202495,15.713750095933916,21.972419269309118,29.346370454034897,37.77779917259116,47.18637030240692,57.47591472141922,68.54019933311106,80.26773647135445,92.54567651144664,105.26286847025935,118.31660732262173,131.6171205657585,145.08946884488094,158.67388833776602,172.3252732951402,186.01226773109917,199.71627989423644,213.43063330013123,227.16001139713453,240.9203326960719,254.73920903452336,268.6571999161208,282.73020394530636,297.0335778558632,311.6690656827015,326.7766411094537,342.5556334640345,359.3049402480904,377.5057819488346,397.90115237002374,421.2565500277875,448.2520484914413,479.45197706947334,515.2944894527851,556.0900722161913
G2,0.0,0.0,6.443293640548965,17.2914320275909,31.08763457790991,46.787698878926825,63.64030441655396,81.10317180632691,98.78407214586464,116.39917538402568,133.7435360032055,150.67008871524786,167.07461778506058,182.88492535574625,198.05295762734139,212.5490214589825,226.35748547886482,239.47354246326455,252.09838763067614,264.38854419909165,276.46926385528013,288.44505628677854,300.4081265805891,312.4453981391457,324.6447425771875,337.101037843932,349.9227536206566,363.23996222984556,377.21507980155997,392.058431294186,408.0522752671165,425.59004817520605,445.24425571190886,467.89162155754246,494.96126916047285,528.9689286452909,574.7543180372726,637.8296951555544,710.6585989815549,791.1704818489583,878.0605139715351,970.2129462816397,1066.5892682177937,1166.2107795791046
H2,9991.019374964795,10585.722909188891,11127.991999184767,11625.042218912053,12080.14839631979,12496.35102472127,12876.473005544136,13223.135195116925,13538.770840918718,13825.638986616515,14085.836919549,14321.311729053956,14533.871039151125,14725.192974555684,14896.835414785026,15050.244587209885,14419.32228281545,13772.134003311992,13112.95871933239,12445.775609911138,11774.294587536257,11101.98395645913,10432.095233071668,9767.685094831206,9111.634355318442,8466.663788061594,7835.346542709385,7220.1168182103975,6623.2743863992555,6046.984507901885,5493.272768446751,4964.01441201353,4460.917888557693,3985.502602810551,3539.071278815815,3209.445101578359,3203.7628905327583,3197.436919028333,3190.5198629511206,3183.060576834816,3175.1043674391785,3166.6932477799587,3157.866173006745,3148.6592594254
S3,39148.534430901644,38918.701264607844,38708.962129868676,38515.84074574049,38336.823262432554,38170.00913472418,38013.90861729481,37867.316440323826,37729.23060581975,37598.79887712213,37475.28272797773,37358.032533877915,37246.47012956701,37140.07626739915,37038.38138331322,36940.958627125976,38290.94590403571,39690.97411953131,41143.07608888213,42649.403917961645,44212.240727511155,45834.00946538238,47517.277923043264,49264.75865025479,51079.30186430586,52963.87857323486,54921.549782223374,56955.41544835468,59068.533001728436,61263.78802727705,63543.68506621833,65909.99444498731,68363.11505134247,70900.81796135243,73515.50100470363,75545.45118142871,75100.07348373499,74684.13280577358,74269.02638582766,73852.16440118827,73433.99369730348,73015.50425540858,72597.71598879305,72181.55270892203
E3,0.0,59.02869076910077,96.28069844362162,118.82374113277983,131.39144545141286,137.19424349272145,138.42982890978402,136.61308687519787,132.7935077885178,127.70055682117548,121.84199509489747,115.57101203700736,109.13243575607436,102.69477096952161,96.37255619952774,90.24205948311975,84.35235938021636,79.8802220926872,76.54918276341414,74.16341953330044,72.59043647425366,71.74896106692893,71.60125658143293,72.14944413015195,73.43587703183216,75.54820267333608,78.63065012527494,82.90461966980602,88.70449749498317,96.5402613784567,107.21036013455488,122.01522814797883,143.18687348260175,174.81965031823694,225.05785846999527,311.5652643823504,440.64193871819896,514.5236709946978,572.8755050436076,621.3973149569711,661.5841179921819,694.0880349591454,719.4064606521312,738.0398205275101
I3,0.0,0.0,11.04564624094108,27.385335803461864,45.46306707481505,63.14839479750704,79.23501207083127,93.11096349371884,104.5406559977628,113.52064258983204,120.18449947919697,124.74054059678492,127.43154878811214,128.50926666165395,128.21875465055317,126.78930700023142,124.42968370011413,121.32613970098444,117.85685776083204,114.2908812466632,110.81977116775717,107.5812173928296,104.67680113116188,102.18562261970013,100.17517196165382,98.71061987525947,97.86364534316218,97.72203544262875,98.40168074812574,100.06345165379945,102.93922793482862,107.37509952402013,113.907963168381,123.41087803916281,137.3905262994941,158.64887150495903,192.86785545554585,246.04581826395676,304.97661389359604,365.88098286995955,426.6199190284831,485.658859899585,541.8182093976235,594.1905027457312
A3,0.0,0.0,1.2407971594070304,3.017847434122823,4.915304811608702,6.699536480953952,8.250862947486038,9.519604860047579,10.49780727467411,11.201158014123967,11.657558145126622,11.900032507739922,11.962461469490282,11.877132981284724,11.673454971157549,11.377393794847805,11.011354305410027,10.594316702258432,10.166221953613173,9.753255462855705,9.37227816787146,9.034012291509782,8.745339052439023,8.510977768654023,8.334753678112262,8.22062146068595,8.17359158444567,8.200709671223484,8.312273864400806,8.523562897214813,8.857536436888312,9.349371086660291,10.054582309227602,11.064560954492269,12.538584650397421,14.775446032663968,18.385804846933546,23.991290382877438,30.034863634940283,36.10294735062875,41.98403697803904,47.54012157002561,52.67434811564611,57.3195829014291
IH3,0.0,0.0,0.0,0.46712557013621375,1.5837594155197552,3.3656942588664687,5.7372220824339895,8.578346364600193,11.753852590452269,15.130576935415174,18.58704162465853,22.018211383987605,25.337193190004054,28.47508200789669,31.379741441673385,34.014031220703295,36.35380800984074,38.385902207007774,40.106191160313024,41.52691204881462,42.670592728516766,43.56586062348848,44.24462253336508,44.74024620326277,45.08647978548683,45.31692704171596,45.464962084466364,45.564025019357565,45.64829730040779,45.75382437011322,45.920252258719096,46.19351068617248,46.630084747199454,47.30414635874249,48.32019922362536,49.83718001559983,52.1183999791734,55.644066710754814,61.105393194587876,68.57368288330842,77.95407714144028,89.06968610332665,101.69443949067502,115.57246806824494
IN3,0.0,0.0,0.0,1.209551501645224,3.9808284694544858,8.21035212047894,13.580816800690982,19.70251419707989,26.1920385865861,32.71231463819317,38.989302529402586,44.81514396620063,50.04389579137846,54.58365658785765,58.38738110546018,61.44370987438123,63.76852927283024,65.39759724737152,66.38034052417746,66.79830016247459,66.74713869205414,66.32549879175187,65.628543493406,64.74465672516268,63.75425686909254,62.73002392987593,61.7381013486945,60.8400383936357,60.09541836169507,59.56530589941811,59.316893828103645,59.43012613814756,60.00780571258608,61.192188218007956,63.1943713764379,66.35072868752965,71.24118122784235,78.9587512745814,91.04768125613218,107.31556326264561,127.19233937928622,149.98096349201074,174.94748069447456,201.36684135833292
D3,0.0,0.0,0.0,0.0,0.0008838577528305282,0.0038805210218039966,0.010248819300763285,0.021104333409723577,0.037335596319622806,0.05957529887897761,0.08820416996660793,0.12337308790305848,0.1650341916390925,0.21297520807589282,0.2668534875026123,0.32622773187753024,0.39058636930059343,0.4593721457782988,0.532002888846303,0.607888625487115,0.6864625368976024,0.7672004296872775,0.849632276994579,0.933348423459804,1.018002349509644,1.1033113911333323,1.189056466678215,1.275081642325919,1.3612942569592392,1.44766632488246,1.5342380627117094,1.621124702119968,1.7085283793336299,1.7967581071709193,1.8862632406364512,1.9776908683076644,2.0719888060616474,2.1706030863145616,2.2758883520022835,2.3915071041486184,2.521256758484348,2.6687552467947175,2.8372858039672795,3.029703912737001
R3,0.0,0.0,0.0,0.2467929713062889,1.1152092867465515,2.9794814226642905,6.149278762129148,10.84418929547299,17.19017035725135,25.227709895474753,34.925423312463025,46.19535755792648,58.90789060538711,72.90512716594151,88.0123128960029,104.0471584133907,120.82717228772253,138.17520854904893,155.92347817775882,173.92107635972374,192.03871073825474,210.1703982920768,228.23333541477604,246.16676450135552,263.9303956596318,281.502763424596,298.87978415038026,316.073716330918,333.1127068401556,350.04113246949686,366.92103133416487,383.8350965816968,400.8920515907784,418.2359136096932,436.06208949650113,454.6464669995703,474.4014653360169,495.992959399814,520.4578509832096,548.8739700550387,582.2068899878512,621.2646240215539,666.6812197419202,718.9137250959417
G3,0.0,0.0,11.04564624094108,29.062012875243305,51.29670913018515,75.88311629308828,101.55536245287243,127.45881549255715,153.02231368039565,177.8710794418316,201.76683516738905,224.56631720864078,246.19235190525572,266.6135786522468,285.8301680114941,303.86372337661527,320.75011967165693,336.5344155651095,351.4818701568941,365.80600951728155,379.68371687466964,393.2670823758037,406.692988181514,420.0912550293933,433.5921005666853,447.33366773543355,461.4705003501492,476.18413085190576,491.6975208438077,508.29620339197146,526.3611403116399,546.4227018333478,569.2545998234651,596.0482069698921,628.7610452222876,670.8746251783017,729.175760549818,811.6301553633897,907.909547271786,1015.1079297255689,1131.3858756982117,1255.1837107976125,1385.0637876608769,1519.6815331042592
H3,29973.058124894385,29842.223347365085,29719.558663627387,29604.371769992216,29496.0620316579,29394.072805159798,29297.888282077765,29207.030558364546,29121.056913177184,29039.55728224498,28962.151911876466,28888.4891807007,28818.24357715979,28751.11382162573,28686.821122809273,28625.107558866635,28565.734574295246,28499.345384781067,28425.8048161378,28345.029760757276,28256.985174773716,28161.680471978416,28059.16627705073,27949.53150132616,27832.900704229767,27709.43170259117,27579.313388260784,27442.7637117242,27300.02778577186,27151.376058823753,26997.10250247524,26837.522752674216,26672.972139402093,26503.803536913714,26330.384966996702,26153.096893210015,25973.362098880625,25795.05744913439,25618.1633622848,25442.661046919937,25268.53244982459,25095.760207593186,24924.327601670146,24754.218516572975
S4,19574.267215450822,19811.47006046494,20059.703218485894,20315.700341223408,20577.313433301737,20843.112425947962,21112.127594790785,21383.68992629854,21657.32947703443,21932.709401317206,22209.582534407076,22487.762533106114,22767.10455485832,23047.492257626058,23328.829023689235,23611.032023759635,24848.189825354955,26094.02096994995,27348.354422865814,28610.923153595588,29881.358860790075,31159.184013810944,32443.80050338649,33734.4738690076,35030.311478820215,36330.231987275416,37632.9215132772,38936.768520202,40239.76278748344,41539.33076283066,42832.052199202,44113.14226145899,45375.43927775197,46607.27109246977,47787.577049782296,48718.65196722081,48969.9687441326,49268.99369901859,49560.70830309254,49840.14046460507,50108.29504401062,50367.30975916123,50619.43601628667,50866.775938931256
E4,0.0,88.54303615365116,145.76565453804116,181.6277658955869,202.84644195952887,214.0068512982348,218.26683757431942,217.81592995981018,214.18019107753727,208.42752441331035,201.30740660181428,193.34677879487379,184.91629880227865,176.2763795757649,167.60934452451107,159.04199111268338,150.66149373977373,144.7765812305519,140.86486255680637,138.56027630817144,137.6207276794076,137.9049488808325,139.3574498372098,142.00103178148726,145.93709429705456,151.35503639145298,158.5537396866207,167.98103569398262,180.30247308671886,196.52142275933355,218.19514621477737,247.8422238793209,289.75912546941834,351.7809083007797,449.39263835616316,615.9039786174374,862.8933613756585,1007.2295876141727,1125.0157912509064,1226.700750429082,1314.5930108727778,1389.3982663033205,1451.5725156721583,1501.6363700147886
I4,0.0,0.0,16.56846936141162,41.329611044851916,69.04276639279698,96.51970499824367,121.91414690601619,144.2509750401255,163.11280253275814,178.43116182378702,190.34780808175032,199.12322328538363,205.0769524684762,208.54939396412658,209.87800458519965,209.38313375660087,207.36023013546074,204.0762070298772,200.18947863216866,196.16076340341516,192.31234627573974,188.87228925613292,186.00760111138896,183.84955597549808,182.51376783028897,182.11727522924093,182.79479180108098,184.71651000996158,188.1105876373521,193.29508888411095,200.72755142456379,211.08746085522628,225.42244526100777,245.42507751574797,273.9971280596335,316.4975096377424,383.7046929379478,486.92762258098,601.4904755905642,720.7037758963672,840.8486887345173,959.202863746462,1073.5892423069176,1182.2465610859103
A4,0.0,0.0,1.8611957391105456,4.555035108360215,7.466903399882172,10.245626436715934,12.706259474430011,14.767021669197476,16.408422708086494,17.646927076856986,18.518172082052345,19.066460993055586,19.33836164421284,19.378970902626516,19.22988986845088,18.9282777176658,18.506568026517446,17.99257580100347,17.45711370850188,16.94592908321844,16.48797547481697,16.10135871833796,15.79761393870773,15.58481552461081,15.469911166483255,15.46059811142966,15.567023846243647,15.80360009852937,16.19128564685132,16.760860587324363,17.558073989757595,18.652309500595077,20.1520916088499,22.23467223941421,25.20674290913889,29.639494364054755,36.6906853007032,47.531179097026055,59.24949441600501,71.11294586943356,82.75421406645003,93.92756515595579,104.450975286535,114.18821012521477
IH4,0.0,0.0,0.0,0.7006883552043206,2.3862797159099745,5.094105876217542,8.72334987682094,13.104072464053779,18.040195606904895,23.335411642945722,28.80795964294655,34.29822332770418,39.671784492082125,44.819681919063314,49.657031380337514,54.12076195800476,58.166954416613436,61.768086479523106,64.91036915884133,67.6090832865132,69.89763596766869,71.82009561246217,73.42625992981478,74.76856489958317,75.90033912343634,76.87506223874635,77.7464117446224,78.5689929088084,79.39975675053716,80.30024299716342,81.33997455462944,82.6016465876598,84.18934242484438,86.24220210395464,88.95858254390615,92.6419335608411,97.79537389420359,105.33314594687234,116.56652076377483,131.6467086526592,150.4285835503202,172.62264281309064,197.8499771071094,225.6732749833543
IN4,0.0,0.0,0.0,1.814327252467836,5.9987949205818545,12.43077532229453,20.661583757197086,30.12476867775504,40.25366334712372,50.54250046803402,60.57316369983597,70.02171854899065,78.65369537865695,86.3137263427768,92.9129477402454,98.41616667897418,102.8298908061536,106.19175655680098,108.56154823003052,110.05990261161331,110.83521234277258,111.04324515570994,110.83543855542153,110.35302882828415,109.7250570521856,109.06894848237391,108.49285379878789,108.09932941001922,107.990274990281,108.27340451050614,109.07099759840474,110.53243236273276,112.85339180457524,116.30746599372341,121.30212020846078,128.48592235583803,138.9722539827942,154.84533399655822,179.03566739678257,211.22033051888715,250.40462048670184,295.37373456144525,344.8432967139106,397.5321583119032
D4,0.0,0.0,0.0,0.0,0.0013257866292457922,0.0058409148135458696,0.015479575722477715,0.031985202714879625,0.05677968364562727,0.09091390315558168,0.13506730818133322,0.18957543212372954,0.2544717951887282,0.32953558217372236,0.41433981015039006,0.5082968850227031,0.6106998749333803,0.7207587475501633,0.837631395083702,0.9604496193213604,1.0883741352221374,1.2206288680053055,1.3565211256215908,1.4954524392754163,1.6369235553507764,1.7805361243590485,1.9259929867167056,2.073098547123517,2.2217605300123733,2.371994417993193,2.5239321342405012,2.677837147627337,2.834129396222894,2.993425756270588,3.1566063736975685,3.324926709574961,3.500216388517356,3.6852569962968595,3.8845599752539415,4.105117850232826,4.354209254163775,4.638838224013349,4.965461022932181,5.33981697204554
R4,0.0,0.0,0.0,0.37018945695943334,1.6784355951272387,4.499638191474532,9.31902570445515,16.491864617425158,26.23581264133967,38.640994723300416,53.68859127036952,71.27240608767674,91.22023386395637,113.31333255825993,137.30322573661968,162.92561221722374,189.9114763807477,217.99565867314226,246.92321901510618,276.46334983353455,306.4183664921968,336.627164907331,366.9653785067978,397.3437549086617,427.7057778832955,458.0252266285139,488.3041527395622,518.5716399665941,548.8836806115578,579.3245581642383,610.0102936078553,641.0950571355472,672.7821124467954,705.3421729160823,739.144776330027,774.7143652701631,812.8373924145956,854.7837952648619,902.5279944885281,958.1306554513595,1023.4591118465627,1100.1078874478003,1189.3689176723133,1292.2233580409386
G4,0.0,0.0,16.56846936141162,43.84462665252407,77.83142228488259,115.78872762107673,155.83440611705592,196.6772275071737,237.4356735548551,277.5137879706677,316.5154441407154,354.18476002818346,390.3644565887514,424.9666135084049,457.95203981650417,489.31566150914176,519.0761313484147,547.2684144619074,574.3594930443692,600.7185977324194,626.6464605260198,652.398511834658,678.2037475660611,704.2807801393004,730.8524886164938,758.160726289282,786.4827874256927,816.1518940234868,847.5850678121537,881.3238702171225,918.0976167848222,958.9270230477244,1005.3040897397086,1059.5247873922988,1125.3512086931983,1209.4430637198004,1324.6930782052561,1486.160572896859,1674.636745470534,1885.1534668092822,2114.697818144097,2360.688863510721,2620.677718716651,2892.30082761983
H4,14986.529062447193,15236.304546821313,15484.98974138269,15732.652730246251,15979.355828329519,16225.156345260002,16470.10695196967,16714.256020986984,16957.64794230669,17200.323416583164,17442.31972726854,17683.67099320084,17924.408403040015,18164.56043284968,18404.153048029897,18643.209890719976,17927.590827940603,17213.299319774753,16500.86762974943,15790.891972485646,15084.03903670819,14381.052749032266,13682.761173602856,12990.083386698388,12304.036092511971,11625.739653474224,10956.423093255935,10297.427492077088,9650.207034197756,9016.32679355152,8397.456170247986,7795.356743947451,7211.8632297933955,6648.856264301966,6108.225981786532,5747.201050342431,5965.143524452515,6181.588208609854,6396.547020685974,6610.031715371681,6822.05389076268,7032.624994511218,7241.756329574494,7449.459059588412
E_Om,0.0,0.0,0.17133641437825547,0.27679855300339445,0.34167408529216414,0.3812661727681928,0.4049421237754777,0.418490703576102,0.4255199206461893,0.42829716807337603,0.4282595194631331,0.4263263106772054,0.4230919729938721,0.4189457295142036,0.41414631088648934,0.40886884087347214,0.40323441146651773,0.4048995207167057,0.41278118282684356,0.42636791294155474,0.4456266161454402,0.47096120381372053,0.5032218192622853,0.5437703527627865,0.5946176755208237,0.6586635807552386,0.7400973991945944,0.8450671947455326,0.9828232855053547,1.167744535149396,1.423101739612018,1.7884614480533496,2.335297618048388,3.2027457930485674,4.687625224369084,7.4925243440685305,12.328452614050736,16.326489100807557,20.92593008247088,26.111746771098666,31.833283728466483,38.037209125121244,44.668293458506426,51.66983350435521
I_Om,0.0,1.0,0.8482047102353527,0.751512273947097,0.6892317225032005,0.64854479221338,0.6214425502567912,0.6028846241893058,0.5896789594987238,0.5797931831379012,0.5719277089009374,0.5652491316709162,0.5592225825064612,0.5535056150230474,0.547880597314084,0.5422113475164237,0.5364151252770843,0.5304444089777726,0.5256916001067902,0.523135088236917,0.5235090372536736,0.5274299755914743,0.5354964268211836,0.5483751431182897,0.5668865082857533,0.5921026566817039,0.625475596734142,0.669020850422535,0.7255984392849801,0.7993651975532976,0.8965375927130161,1.0267429710107396,1.2055511180249858,1.4595428454524155,1.8372996316834191,2.435570327556618,3.467888463690481,5.248420657473769,7.5068024235351425,10.283035270136873,13.608236427888414,17.499320863170507,21.960656299662006,26.98561273173715
A_Om,0.0,0.0,0.0,0.0036015322971521815,0.00870356372582249,0.014154506778073186,0.019353499336774212,0.024016093048646346,0.028036097201357222,0.03140428347846538,0.03416092020740847,0.03636847402664935,0.03809631169908287,0.039412498114253215,0.040379741704470715,0.04105371685483663,0.0414827055295791,0.041707931854407486,0.0419233619442951,0.042261617681747805,0.04281819109245519,0.043668885297063614,0.04488291658572225,0.04653360443208924,0.048708312418440196,0.051519296614415115,0.05511743984579602,0.05971167526804491,0.06559861326842081,0.07321031269951571,0.08319514360368428,0.09656167373046613,0.11494956629201339,0.14117475721647083,0.18041775867977766,0.24306789705781728,0.3522166513930752,0.5413082234976487,0.7768294038166015,1.0621870684659267,1.3997945615433478,1.790520426692098,2.233939407557606,2.728549893414443
IH_Om,0.0,0.0,0.04229046992332565,0.07440386794192398,0.09957476919091379,0.11987532070114809,0.13665146543859535,0.15079085559170108,0.1628891142736218,0.17335394901950188,0.18247089186858792,0.1904451447577375,0.19742843200038296,0.20353637709643044,0.20885984798923593,0.2134724351004224,0.2174354310266985,0.22080118328839504,0.22361537853104532,0.22597852937989082,0.22802359430300176,0.22990276632572687,0.2317807891501549,0.2338330805727156,0.23624766949310338,0.2392305725507437,0.24301484253383143,0.24787423122599833,0.2541434044865683,0.26224824421798815,0.272752586488678,0.28643306693678894,0.30440446084429645,0.3283409474256609,0.36089206733776996,0.4065264787456145,0.4734073465572932,0.5780029584147082,0.7486046214163171,0.999556072383586,1.3456182661256633,1.8015565846584969,2.3815398234120253,3.098662570138891
IN_Om,0.0,0.0,0.2190096396826432,0.3635730211107951,0.4573652164276304,0.5163472377834826,0.5514024836992149,0.5700236473086886,0.5774091038781446,0.5771859973360443,0.5718938049580033,0.5633120315627147,0.552685067943006,0.5408782834130856,0.5284875246266063,0.5159166380792626,0.5034327793222941,0.49120611508231093,0.47933844632466527,0.4680814196440235,0.45775347949087136,0.44869575325521044,0.44125349793776747,0.4357745161009413,0.4326194453883069,0.43218151217384854,0.43491563743502426,0.44137913778628474,0.4522892668267984,0.4686074514074565,0.4916681020653382,0.5233850736071609,0.5665996488188694,0.6257006523448452,0.7078030059697223,0.8251661330989832,1.0006309337490547,1.28111921158973,1.7462614516373087,2.424437964027438,3.3437974966904283,4.531077527081836,6.00994624349585,7.799890506169634
D_Om,0.0,0.0,0.0,8.001865473062844e-05,0.00022079972030550585,0.0004092071579673659,0.0006360256803271243,0.0008945866859435284,0.001179901118060378,0.0014881069104781572,0.0018161134286826643,0.002161370299114578,0.0025217154149556453,0.002895273750034218,0.0032803890517447624,0.0036755770005578877,0.004079492518871521,0.004490906502047296,0.004908688893250361,0.005331796080273252,0.005759374632882598,0.006190822694255523,0.006625826375075063,0.007064383500919844,0.007506823808934182,0.007953832809552013,0.00840648582146357,0.008866299127260092,0.009335306980827433,0.009816176864102497,0.010312382078795992,0.010828462772264132,0.011370428579884732,0.011946398425926288,0.012567658983059282,0.013250510173497241,0.014019707158079847,0.014915450787313373,0.016009101892314647,0.017425551859398734,0.019316832149851353,0.021862903726534114,0.025271665430692116,0.029777825168390833
R_Om,0.0,0.0,0.0,0.04487918565131584,0.12046355256274047,0.2168964009434215,0.32727487197213845,0.4467410997946553,0.5718674098366878,0.7002347561738911,0.8301400751412555,0.9603908863648278,1.0901597511714254,1.2188803252294538,1.3461726561246175,1.4717892607463794,1.5955761033661344,1.7174443406237936,1.8373498936564983,1.9553103876132474,2.0714259080151725,2.1858870036296763,2.298976710273654,2.4110711089934624,2.52264154928592,2.634260953734439,2.7466164641183557,2.8605310816967275,2.976998015894087,3.0972335087140994,3.2227576429514695,3.355519530942056,3.4980964714885348,3.6540233526483874,3.8283663907827665,4.028791111197794,4.267724383890011,4.5671927994982395,4.966134290331775,5.514261896953048,6.268552710366736,7.293042977743779,8.658255730489543,10.440314154027554
G_Om,0.0,0.0,0.0,0.03206104348165828,0.08385651542325037,0.14779171416579004,0.21913551686858435,0.29490964278940973,0.37321902432229404,0.4528437364866958,0.5329881364877169,0.6131254915547443,0.6929010981214911,0.77207148459258,0.8504660121023994,0.9279624563304585,1.0044713627010546,1.0799259357773174,1.1556920896711531,1.232933086566331,1.312716477888065,1.3961036222301983,1.4842314594353763,1.5783960110097373,1.6801481399265714,1.7914149901114274,1.9146663245052822,2.0531558276406496,2.2112876303515745,2.3951968139639312,2.613709080914027,2.8800046428825223,3.214667536695158,3.651656245409285,4.250964760789656,5.128128886638718,6.530155126386214,8.837096454386876,11.892163754956242,15.807893850644444,20.694011326886496,26.650761953925745,33.768411871526745,42.12689249003091
beta,1.0,0.9999999999999993,0.9754828318383562,0.9559339854860878,0.9398325126851673,0.9262320385436011,0.9145193902941986,0.9042815197268045,0.8952302486956036,0.8871578437415305,0.8799098849043876,0.873368228228173,0.867440047806629,0.8620506347113941,0.8571385681107145,0.8526524127017651,0.8485484151189807,0.8910476492172985,0.9370478732042183,0.9872069690982751,1.0423336497990774,1.1034360595529875,1.1717895511159702,1.2490330562696506,1.337309093923757,1.4394721108426212,1.5594069510800066,1.7025306726191645,1.8766110493980876,2.0931554258450182,2.3698767482601384,2.7353057135309125,3.2379356976688958,3.965506343933374,5.0877015447301925,6.947022099804293,8.735701063479315,6.352272613010719,5.154756361628738,4.338834288642604,3.7395536688830333,3.2821529936070175,2.9236402545069358,2.6367302399710852
