series,2021-12-01,2021-12-02,2021-12-03,2021-12-04,2021-12-05,2021-12-06,2021-12-07,2021-12-08,2021-12-09,2021-12-10,2021-12-11,2021-12-12,2021-12-13,2021-12-14,2021-12-15,2021-12-16,2021-12-17,2021-12-18,2021-12-19,2021-12-20,2021-12-21,2021-12-22,2021-12-23,2021-12-24,2021-12-25,2021-12-26,2021-12-27,2021-12-28,2021-12-29,2021-12-30,2021-12-31,2022-01-01,2022-01-02,2022-01-03,2022-01-04,2022-01-05,2022-01-06,2022-01-07,2022-01-08,2022-01-09,2022-01-10,2022-01-11,2022-01-12,2022-01-13,2022-01-14,2022-01-15,2022-01-16,2022-01-17,2022-01-18,2022-01-19
S,3444013.7763504544,3442679.148001587,3441850.0868566395,3441321.308497976,3440974.0128925,3440738.6235639323,3485742.7220312045,3530786.829608708,3575858.4056010256,3620949.377940305,3666054.4487637584,3711170.0597866643,3756293.75728055,3801423.7997167283,3846558.913205578,3891694.4835155443,3936834.705592938,3981978.443493171,4027124.897896152,4072273.4751669657,4117423.7067746874,4162575.1965442244,4207727.581449248,4252880.495078996,4298033.521663919,4343186.1191005,4388337.456619158,4433485.9884604495,4478627.955401564,4523748.254560542,4532478.743496246,4532646.413514535,4531302.295328248,4528823.44602481,4525514.096184254,4523656.139080509,4516097.844826608,4508963.562673815,4502003.219076734,4494465.489910233,4486863.521936813,4479327.555471724,4471965.95347027,4464856.600438903,4458053.219619567,4451590.610546658,4445488.8969970215,4439756.957892417,4434395.180288591,4429397.6528109955
E,0.00034440137763504545,1334.6286074915272,1831.2858167192544,1903.9622984339908,1777.055149743841,1569.8493455152097,1343.6039699053551,1133.6983835770782,948.6036776896715,790.2124973973428,657.1718986998036,546.7263251132066,455.70196555817154,381.0032817330116,319.83807413483373,269.7961725427663,228.85274310895667,195.33800331465477,167.8919181498812,145.41811861925476,127.04191228914968,112.0753139872541,99.99095661267218,90.40730283394458,83.09058491269683,77.98784498266012,75.33359059909534,75.97962781842241,82.65409787997312,108.1008571860915,-3176.7739339981526,-2541.8800333786603,-744.7663143298082,1592.2502071340164,4263.928481428437,-6185.517674494108,627.0106493053474,-620.4799335894081,-754.6451929949857,-768.6732567276772,-741.6049035022277,-695.8232503667145,-640.8923643548018,-582.2742391892334,-523.4164824591966,-466.52123270075435,-412.9435113476686,-363.4460400071,-318.37864038967825,-277.80880548835404
I,57170.148649721465,34590.0178422929,21227.351625695865,13253.769932237255,8445.752372916872,5508.282985076208,3684.56568583002,2530.4414921413236,1785.1077415532216,1292.6679914558033,959.2234313799031,727.6586295251054,562.7990640021497,442.65151639918963,353.21547945333225,285.3943147275655,233.14402783820648,192.35395141191987,160.16272973039102,134.53431052080023,113.9910762173957,97.44296747378499,84.07625892013881,73.28041701812535,64.60053186549126,57.70897148653576,52.395637048484595,48.5859718898224,46.425783954838614,46.614757508113,52.43253955369137,-680.2947413084005,-981.3210098869727,-760.6612243812167,-103.35264233461619,893.1529120333726,-845.9856636403633,-371.31859944991004,-363.7309765382604,-389.21098600621553,-407.7714630113686,-412.9343280723794,-405.79689199057333,-389.166686086001,-365.96657923956224,-338.7377343168356,-309.5112180591353,-279.8196040261401,-250.76110563491594,-223.07858833704904
A,6358.582815891327,5271.139934297481,4402.941461942476,3695.60293855707,3111.044947844523,2623.2942831957967,2213.7932615019977,1868.6850250764064,1577.3644656421986,1331.251328763787,1123.2799332726051,947.5592417909837,799.1370085064631,673.8288008719943,568.0886396376304,478.9073725392817,403.7303897226534,340.3894938910052,287.0456670391746,242.14049584767866,204.35475554926154,172.5730300365067,145.85351089617197,123.40231103947852,104.55180255754325,88.74270758701915,75.51007563450361,64.47431781584818,55.341996655922514,47.93786669342204,42.43433791859638,-44.014929238510895,-99.85272640613528,-101.3418391427805,-44.31800423149578,69.5545222062545,-96.5362521656829,-64.39622659021177,-68.85082797979587,-75.88814138535899,-82.07163397148946,-86.52285452223956,-89.07156146572837,-89.81504558811942,-88.9701182607047,-86.80245547252706,-83.58719336244536,-79.5861930016815,-75.0355455548069,-70.13968647264834
IH,0.0,11355.97122642694,12209.632475929022,9956.68159408712,7313.657602366563,5116.036639469243,3499.371560839473,2377.0648097206486,1620.178355005195,1116.2892756138326,781.5770153108276,557.9829116174867,406.86636266787843,303.0741311132546,230.41214595005556,178.48599694312733,140.6019845260803,112.41260929733171,91.05743199947482,74.62329125778913,61.806309496746195,51.699980194868594,43.66159797011653,37.22736949486497,32.05797547150386,27.90352863661882,24.581468798481072,21.964234834752048,19.97704606465927,18.6137078637212,18.010289436369316,18.882213352572393,-126.25287441855906,-254.28042489535903,-270.6401813641061,-147.76725496839245,107.94030917162843,-117.29536323073512,-128.9015694307488,-132.85090652057139,-139.76884644602046,-146.70797630951668,-150.9958386688672,-151.5939775241605,-148.57184969399685,-142.54269234118058,-134.29957361126336,-124.61878401365065,-114.16970826992551,-103.48519181788998
IN,11224.159658193168,22336.077719804405,28903.74148970691,32782.24936539879,35056.52662670347,36364.10770614556,37081.9024680183,37434.47063937715,37556.925049031306,37531.82426454117,37410.29427090019,37224.51473115545,36995.13009457113,36735.6725862609,36455.221201915716,36160.01544130112,35854.44647501164,35541.67495039928,35224.02286501676,34903.22722925721,34580.607947248114,34257.18162485677,33933.74069160091,33610.90989479302,33289.18786881686,32968.97894969391,32650.61910641844,32334.39969979535,32020.59453938467,31709.503322982673,31401.560119738537,31097.838548015185,30653.2985578966,30154.10377326589,29703.222857469213,29385.899505186455,29267.392352321756,28808.62688659493,28447.639998389714,28091.752649690086,27734.42170901051,27377.020117346536,27022.178921325205,26672.28742314535,26329.159832091453,25994.01837135169,25667.574137849497,25350.132360181986,25041.69432598449,24742.04569884437
D,9663.0,9663.0,10084.991246263478,10538.704796800315,10908.69802686061,11180.475704421537,11370.58913764292,11500.626818846365,11588.959249556361,11649.165555962518,11690.647195288144,11719.690828119335,11740.425637989163,11755.544912247744,11766.807236512981,11775.369419939214,11782.002012325087,11787.226823615487,11791.40410939292,11794.787830471889,11797.560854024894,11799.85759474847,11801.778781288944,11803.401259170747,11804.784639221207,11805.975923062297,11807.012826431435,11807.926281075377,11808.742478531882,11809.484831466509,11810.176522350746,11810.845790027926,11811.54745865547,11806.855864536574,11797.406728812075,11787.349659703179,11781.858584845933,11785.86967862921,11781.510948272844,11776.720927864653,11771.784148923245,11766.590297290079,11761.138585540793,11755.52753555925,11749.894258561102,11744.373284726109,11739.076356159856,11734.085744321304,11729.454873484701,11725.212293390252
R,0.0,1199.6844867611826,7919.636845765191,14977.388395170676,20842.920199725784,25328.997590905743,28661.961043353647,31135.53372048339,33000.647698062174,34444.244323160296,35597.2320082249,36548.52340248424,37357.73978225972,38064.82359038472,38696.743892191094,39271.97524081886,39803.41860139732,40300.28395527622,40769.30005917211,41215.495034035586,41642.70523090789,42053.912161860986,42451.47010828127,42837.26354509446,43212.81891193665,43579.386273578624,43938.00097037928,44289.532238713866,44634.724461623366,44974.23773197977,45308.702117096764,45638.848552209565,45951.60284401591,46178.85385739875,46337.77867740054,46493.8863834539,46726.83517904643,47056.18203300454,47275.46348345341,47484.65482605007,47687.137925130824,47881.58172497117,48068.27133134609,48248.86400336941,48425.53590508292,48600.410042013216,48775.274062207965,48951.48492380899,49129.975373061214,49311.30798488348
G,726223.0,726223.0000771915,726522.1337444072,726932.5844413278,727359.3243009219,727757.6201420297,728109.4744249845,728410.6197627565,728664.7184334222,728877.3313620292,729054.4436769453,729201.7372677957,729324.2764143992,729426.4140423128,729511.809266307,729583.495378454,729643.9654733108,729695.2588143303,729739.0404124095,729776.6704503767,729809.2633791195,729837.73760251,729862.8573245729,729885.2685492177,729905.5317654322,729924.1550672532,729941.634679137,729958.5193863086,729975.5488914275,729994.0743623116,730018.3032793733,729306.28494599,728736.5669797044,728569.6406321245,728926.515676546,729882.2006935128,728495.8250567158,728636.3585308652,728497.2888024581,728328.1482769513,728155.863606231,727989.645833613,727833.6892180813,727690.0444002168,727559.5378102064,727442.2231572758,727337.6605798004,727245.106511793,727163.6464365541,727092.2874309638
H,1089325.2457451187,1089325.2457451187,1089325.2457451187,1089325.2457451187,1089325.2457451187,1089325.2457451187,1057401.816287234,1025832.994935418,994635.2219834446,963825.5915248932,933421.9031542111,903442.7102722223,873907.3637627903,844836.0494743707,816249.8175499984,788170.6011979826,760621.2219821785,733625.3781389055,707207.6118082022,681393.250421539,656208.3168521157,631679.4023624891,607833.4959567058,584697.7635684251,562299.2707324228,540664.6431649898,519819.6612131618,499788.7866237463,480594.6237065444,462257.32182676636,460218.6290789084,460218.62907890836,460218.62907890836,460218.62907890836,460218.62907890836,460218.6290789084,460218.6290789085,460218.6290789085,460218.6290789085,460218.6290789085,460218.6290789085,460218.6290789085,460218.6290789084,460218.6290789085,460218.6290789085,460218.6290789085,460218.6290789085,460218.62907890853,460218.62907890853,460218.6290789086
S0,1205404.821722659,1201958.694098541,1197174.646506128,1192572.77418813,1188087.3894541468,1183679.8876618901,1194818.9307837083,1205690.8818308872,1216282.6899217626,1226583.4337516134,1236583.3778828727,1246273.3950179452,1255644.6122493923,1264688.1957484419,1273395.222536828,1281755.0996734255,1289760.5992341244,1297402.0174135691,1304669.5674834508,1311553.376454183,1318043.5200823625,1324130.0886076733,1329803.2792307602,1335053.5126061963,1339871.5694098866,1344248.7373831982,1348176.941201644,1351648.7617263035,1354656.9235087452,1357189.8501439684,1354908.7384247514,1350117.3901819221,1344579.8772355882,1338493.9561440663,1331990.0312905435,1327845.916890634,1319488.1804522618,1312240.6986749936,1304978.9453529206,1297527.6208544034,1290084.831868153,1282700.1837297357,1275413.5073522257,1268252.6880925086,1261236.3292036168,1254375.8561392582,1247677.193306042,1241142.1042472809,1234769.2578965842,1228555.0711214817
E0,0.00034440137763504545,735.622183196844,1011.0548109532713,1052.3392346612036,983.059460152537,869.0759678966643,744.2998341056314,628.3867549588109,526.0682996428886,438.4316566439127,364.7596229150175,303.55062831892997,253.06497224779042,211.60122821506462,177.62215384030017,149.79926160053617,127.01538139426609,108.34841977381944,93.04663569986485,80.50337181169024,70.2339533179086,61.856380088162034,55.0768230346643,49.681206200021606,45.53573177951384,42.60392504062547,41.00263811059053,41.17598451948165,44.56003534566756,57.880861528808836,-1676.8033803510998,-1341.4824671148644,-396.28229115924637,828.3832368010774,2222.529003352387,-3211.068820826943,322.06995051050126,-321.84454471122183,-390.30183654970904,-396.7058996988056,-381.927639120745,-357.56489339802215,-328.58524316240164,-297.8231132077166,-267.0603871692019,-237.42726836994956,-209.61138587244324,-183.9919846210728,-160.7343947214867,-139.85865030012278
I0,57170.148649721465,34590.0178422929,21093.094808946087,12988.699239867688,8094.498550474439,5117.801404983384,3291.2440379319205,2158.144056426533,1446.5974954120823,993.1530722662499,699.1604947046951,504.7720019568056,373.44097291507893,282.6654500597551,218.44958626586754,171.98083934606902,137.62954373730298,111.73915302017633,91.89065259080283,76.451961085226,64.29963832036543,54.64533077410745,46.92643726291511,40.73670697056824,35.78236200532433,31.855667626852814,28.822761593641196,26.62884274562365,25.34029467194462,25.31915208013234,28.29199032623045,-358.70847742707434,-517.701506010853,-402.0479736567867,-57.58601761441747,463.2993829566596,-439.3919674744354,-193.66176167861812,-189.30823183933063,-202.01769309111722,-211.1427378538278,-213.35143286245068,-209.22729013078254,-200.2367519782838,-187.902356065015,-173.54467107319806,-158.21600436521925,-142.7071601727079,-127.58160492076615,-113.21731212808697
A0,6358.582815891327,5271.139934297481,4388.009139601811,3662.777221537746,3062.60340260654,2563.344087011245,2146.6265112945807,1798.065368128,1506.225507763358,1261.7453671171456,1056.8914967250607,885.2351405020636,741.4095543965047,620.9224451849584,520.0073762746246,435.5037247850971,364.7582794146101,305.5437308899661,255.99069729708748,214.5307580807959,179.8486004414066,150.84177376431006,126.58684551781694,106.31098360578441,89.36818885181985,75.21960528478309,63.41762265725711,53.5940938359999,45.45490317523537,38.7920336726185,33.60071408489107,-13.94583678342832,-45.001948875673094,-47.18444626794474,-18.464638038196227,40.0974584432541,-46.807075853498645,-30.773428286911972,-33.533662716743756,-37.52837923373757,-40.99956414136798,-43.50870842759119,-44.98141329650419,-45.479837868137935,-45.1261687432414,-44.06611586595413,-42.44864416627216,-40.4143841877826,-38.08936988318435,-35.58220234606772
IH0,0.0,11355.97122642694,12209.632475929022,9930.013541196382,7248.467757523836,5015.6173382346315,3374.5976134435186,2240.2767171785417,1481.9181102798266,984.0482241813006,659.9116289235304,449.12606179521214,311.41577638310116,220.58624770332008,159.85280417192246,118.54429829897175,89.89335757268984,69.6001462983643,54.91683781620321,44.071078312506756,35.90543160408251,29.652590513242906,24.79522158151928,20.978355364354808,17.954412271703028,15.54864162681506,13.63762343640937,12.136743774004874,10.995337132027466,10.20276988307467,9.825955399799504,10.239309758464534,-66.43805131019374,-134.06840247310674,-142.8911060636707,-78.61690889607974,55.066618367272554,-61.38963013046747,-67.32944098731582,-69.2572013923989,-72.6880511308456,-76.1135688665228,-78.16275327027145,-78.306952198525,-76.58891318116511,-73.33116209659642,-68.94764081804463,-63.84198323164456,-58.36103348486307,-52.77977963263346
IN0,11224.159658193168,22336.077719804405,28903.74148970691,32755.89085519737,34978.39063048332,36217.791748695316,36860.386801459135,37137.949673051306,37190.27649905798,37102.3828128111,36926.34376102913,36694.345823065305,36426.50376083874,36135.55602608698,35829.69589860458,35514.286934339994,35192.9088958491,34868.000481299845,34541.25811567778,34213.88633693511,33886.75721269833,33560.513525999624,33235.636855360935,32912.493508576015,32591.36637153322,32272.47782413437,31956.007238122835,31642.105910480914,31330.912866162653,31022.578772898018,30717.323869661548,30415.70516989775,30041.12323184668,29639.072166573515,29263.747757429974,28959.80447304828,28761.165545386197,28387.28849248379,28065.394182320302,27747.573539535842,27430.43586701789,27114.67806006547,26801.64420024058,26492.550367943677,26188.312577577486,25889.538765063317,25596.57152099879,25309.543411594987,25028.43041957553,24753.098143021805
D0,9663.0,9663.0,10084.991246263478,10538.704796800315,10907.70703413525,11177.062237799371,11363.44406011474,11488.845104564449,11572.09444933711,11627.162964195804,11663.730486975297,11688.252998098356,11704.942655263507,11716.51495753178,11724.712007675786,11730.652185112502,11735.057326265043,11738.397789994347,11740.984151996412,11743.02487791662,11744.66257220894,11745.99682865677,11747.09872768206,11748.02012544258,11748.799687326653,11749.466878591882,11750.044670709085,11750.55144882566,11751.002453810495,11751.41104378725,11751.790181730843,11752.155317136896,11752.535812913056,11750.066955295095,11745.084933844342,11739.775058121211,11736.853630556721,11738.899922366465,11736.618665571263,11734.11668364951,11731.543065581485,11728.841956123424,11726.013553414125,11723.109002406885,11720.199092924864,11717.353026280378,11714.628018628802,11712.06590392319,11709.693516962121,11707.524803713166
R0,0.0,1199.6844867611826,7919.636845765191,14974.834673966849,20821.349615553325,25266.241946338534,28538.012668530257,30936.40683446862,32719.082325595482,34078.725043694794,35150.37584278007,36025.52908219283,36765.1510108783,37409.647219182225,37985.876286274084,38511.86472865644,38999.89446160612,39458.49514085803,39893.721352768625,40309.971083958335,40710.51289130887,41097.82883552701,41473.840809716035,41840.06270578834,42197.70501466039,42547.74859428088,42890.99827120439,43228.123306115245,43559.68982270888,43886.19007230703,44208.07699868279,44525.837900452185,44832.654879619535,45092.635654960824,45314.900982282496,45533.977744453645,45791.69844529707,46098.43666549561,46346.79982372494,46588.545420860064,46825.47982273737,47056.95881641997,47283.16335555119,47504.97605492847,47723.541528298076,47939.97159139239,48155.20031051529,48369.93575147331,48584.6643834537,48799.67998997743
G0,726223.0,726223.0000771915,726387.8769276574,726614.4871858662,726850.3506258166,727070.6862156248,727265.4743985744,727432.2961927681,727573.1380969394,727691.0471083263,727789.3138984574,727871.068390338,727939.1039562812,727995.8240451264,728043.2507607146,728083.0616608848,728116.6365462253,728145.1048231797,728169.389227067,728190.2440035964,728208.2874268364,728224.0291394755,728237.8931655518,728250.237672451,728261.3728461756,728271.57888429,728281.1278091846,728290.3178336114,728299.5467106049,728309.534063423,728322.5070465237,727946.6808866854,727646.0110466706,727557.1912998573,727742.8589186191,728240.9999351791,727521.2950025379,727593.4813507515,727521.3455233068,727433.8661908297,727344.9514995689,727259.3490970279,727179.2071779731,727105.5605408275,727038.8086972544,726978.9517808557,726925.7366099191,726878.7558827009,726837.5172963338,726801.4914920982
H0,381263.83601079154,380405.99237976724,379036.53080720006,377671.9992962941,376312.3800988275,374957.6555304717,358116.1704937055,341584.44016676635,325368.4478158288,309474.5296275347,293909.38052206335,278680.0577531032,263793.981545768,249258.93187155048,235083.04028573015,221274.77555761806,207842.92160990692,194796.54605527854,182144.95738539752,169897.64864405908,158064.22522432465,146654.3142997741,135677.45337410568,125142.95556474477,115059.74959029212,105436.193083568,96279.85888056342,87597.29541291174,79393.76430627033,71672.96076155736,70600.29487654517,70346.1338149896,70092.88773325564,69840.55333741593,69589.12734540123,69338.60648695778,69088.98750360473,68840.26714859175,68592.44218685682,68345.50939498414,68099.4655611622,67854.30748514201,67610.0319781955,67366.635863074,67124.11597396694,66882.46915646066,66641.6922674974,66401.78217533442,66162.73575950321,65924.549910769
S1,344401.37763504544,322316.6199316911,303505.1987817123,286066.0313613492,269882.36336783326,254854.09307801942,244057.1849923188,233869.05697694415,224257.82345951739,215193.3914401476,206647.15350026838,198591.80422717534,191001.22630925133,183850.41579678535,177115.42925077755,170773.14198257792,164801.90283796436,159180.69181091833,153889.43350613464,148908.9626332125,144220.99416198838,139808.0963747836,135653.66591077505,131741.90429158934,128057.79547017206,124587.0835724156,121316.24860539565,118232.47267070036,115323.562909514,112577.55707709595,109632.95255039397,106686.52010263718,103874.16905082873,101200.9083133524,98666.00965463284,96460.89692517254,94095.95843818752,91949.98604721497,89931.3142768711,88018.7941266826,86217.6021769675,84522.93380183275,82929.76157752167,81432.72269657874,80026.3139432381,78705.03109514088,77463.46778940357,76296.38433663332,75198.75381114808,74165.79099146761
E1,0.0,210.17769273497652,280.82128180207036,285.1854302411681,260.4084306853815,225.27622041186117,188.907318965613,156.04658360924404,127.69240016426753,103.8887841159208,84.24655025175812,68.2169344009307,55.22910767554121,44.75401142545593,36.32926796150553,29.564331645089915,24.136267496141148,19.78182931901335,16.28842772337678,13.485574742704426,11.237323799775403,9.435908861157507,7.996615030674743,6.853886947519081,5.9588002151114425,5.278418138525288,4.7988021836224775,4.5381515419379275,4.600949682302409,5.533850624195884,-138.5389778496809,-110.69409511958074,-34.83613321688617,60.825644532412056,166.68427840321272,-236.31594537792478,21.107054558173843,-24.348687123289416,-28.698062011662653,-28.69088188163609,-27.245051292078426,-25.188365681546106,-22.87359441619559,-20.497707307228726,-18.18004099444545,-15.992239877354159,-13.974224404045204,-12.144450865742769,-10.507035926720407,-9.056820025775513
I1,0.0,0.0,47.10765499992168,91.44302371860174,119.2456807173649,130.51396744094507,129.4574197833359,120.66671667908491,107.98286252497796,93.95357530696617,80.1301823040336,67.36406384178575,56.04734006628372,46.289316602751285,38.037548080964164,31.15666927118518,25.477245313170485,20.82438172894868,17.03325897080184,13.956507027194505,11.46674978820791,9.45645002955197,7.836389949951248,6.533602174249273,5.489245700568583,4.656754036134164,4.000570576081731,3.496058203453741,3.132389597643179,2.926431978876815,3.0109135689858304,-29.229377476895205,-42.494981709981474,-33.51891857436655,-6.647159249336642,33.33759369796435,-32.79563148652072,-15.111771761346052,-14.600503645446688,-15.266004188546269,-15.667046903935148,-15.585634675325355,-15.07540719838494,-14.247885523982186,-13.214691280377664,-12.070106830807855,-10.887234271187143,-9.719250496872798,-8.602466117235478,-7.55977304896231
A1,0.0,0.0,5.2394113476019175,11.343817779944445,16.513042096107355,20.18057420084056,22.345093327792416,23.232815460463225,23.149551294525264,22.373700119362283,21.137146702298033,19.622417151084367,17.96714215519369,16.27118494657829,14.60414154743787,13.012179314481996,11.523834366299596,10.154712303565455,8.911187533197726,7.793244781677629,6.796621380934374,5.914394720950179,5.138139650467214,4.458760071048264,3.8670813004380435,3.3542780966771217,2.9122134461015317,2.5337944581060015,2.2135949443325957,1.949721316027553,1.7542310816378497,-1.9993437386093231,-4.4168526135956725,-4.529895834890965,-2.2389032987927515,2.2991797034576957,-3.985023679341819,-2.7773392658140015,-2.9093354218699785,-3.1271809599755813,-3.307591630961703,-3.4211061587374667,-3.4639374113743306,-3.441739936751836,-3.364111402577054,-3.2419829679295558,-3.0862023347032954,-2.906757190398996,-2.7123872186219566,-2.510440067159265
IH1,0.0,0.0,0.0,9.35721154060991,22.562918181607703,34.29397398632099,42.04744404011859,45.48276675386029,45.351699480588536,42.7706273096488,38.77046869103343,34.1440433860203,29.433198556803916,24.97056499853929,20.93423648806516,17.397523952658066,14.368005316684414,11.815587608881058,9.6913829239239,7.939668401049752,6.504973899256404,5.3359195715540295,4.386989257342621,3.6190624010953414,2.999253152344117,2.5004128102555576,2.100528060287878,1.782186865688253,1.5323094069926393,1.3425957021937458,1.2124940404020637,1.1681094631704365,-5.256795576781173,-10.912386635034029,-11.788329741357792,-6.862480686665807,3.3956975348926424,-4.917906544550668,-5.313808784856615,-5.398381346263891,-5.570333451551857,-5.730835391872178,-5.7901219326639755,-5.716645857212633,-5.517727608362096,-5.218980714497531,-4.851174773674332,-4.443296306229803,-4.019535707687406,-3.598478311547559
IN1,0.0,0.0,0.0,9.248600070673048,27.109033943133923,50.24933207362133,75.37051899126996,100.03306306613814,122.72311151310066,142.69605073083062,159.7149042472821,173.84963593038057,185.33666068031047,194.48701381500013,201.630080166245,207.08165416901548,211.12779619008757,214.01844101131684,215.9666872040515,217.15114349249123,217.71969950261902,217.79375833643394,217.47239638630322,216.8361832365544,215.95055716190407,214.868749857675,213.63431834801915,212.28340329321026,210.84694696571887,209.35345649797097,207.83446547600363,206.347250552642,198.54520280708311,188.21675236725017,179.75384817357602,176.65127938406349,181.42990392366843,173.17687046463294,168.4782223137435,163.92693741609668,159.29050829332758,154.621707135686,150.01557757325017,145.5556817705382,141.30285145101527,137.29539545524275,133.5527291707383,130.07972176778142,126.87075355682414,123.91313221860622
D1,0.0,0.0,0.0,0.0,0.34771674574024,1.1861614523136417,2.460535658910528,4.023031103720351,5.713184155650161,7.398466708977122,8.987835857770603,10.428557930319933,11.697360671507793,12.79110702687031,13.719020600578112,14.496943014172723,15.143440144915354,15.677359467975815,16.116430194819834,16.47656484790578,16.77160527172094,17.013332023922505,17.21161637187169,17.374638188952584,17.509123617146475,17.620576750514054,17.713492829371088,17.791549072760425,17.857775663294223,17.914716733628506,17.964607986635404,18.009664623447375,18.053071916254556,17.857727839330877,17.452220327554993,17.01416251112236,16.759150701063703,16.885335824829117,16.702584964478863,16.5051222598967,16.304516813942943,16.097521576947866,15.88456204042499,15.669399398528164,15.456967149305994,15.25192676098795,15.057987895520355,14.877716807493929,14.712602603838643,14.563235469238984
R1,0.0,0.0,0.0,0.8960425276580323,7.538872418245077,21.75083912447146,42.601357227581545,67.89342175014767,95.27652401768685,122.80770969854184,149.1342365411347,173.44858616313212,195.36578017705492,214.793711708728,231.82435105848722,246.65261203100758,259.5205824276489,270.6818245589567,280.3802420464968,288.83887242152207,296.2550818612023,302.79965612534687,308.61809608946703,313.83302657031464,318.54704764741206,322.84564176942257,326.79993816124977,330.4692639989417,333.9035158757381,337.1455273542237,340.23400380002374,343.20975615633847,345.5068327234475,344.1468762061461,339.8777750146732,335.4842696934439,334.2628216184486,337.0686740115059,335.9023949375953,334.47149315739364,332.9161534831015,331.19887439513104,329.3364142634982,327.3913571828602,325.44169924364667,323.56079665804504,321.8078994169401,320.2254362164169,318.83989460300273,317.66429258413694
G1,0.0,0.0,47.10765499992168,110.0488353298847,173.96816322804227,232.33415988624296,282.8258858765447,325.16615849535884,360.1412718336232,388.76129070801073,412.046145236627,430.9285364768699,446.2181695920428,458.596808430816,468.62763759569475,476.7702078145442,483.39653583878555,488.8062581903757,493.24000935921384,496.8907756403507,499.9133314320161,502.4319810840975,504.5468750743109,506.3391765175816,507.8753554409049,509.21091632319553,510.393981459078,511.4695490644566,512.4866963858165,513.5179188123525,514.7582346738194,483.70714505693115,458.8969990534873,451.0890888811092,464.7220936043736,502.0814602372091,449.11537291850937,453.8461501539639,448.38881765697397,441.95664882487796,435.5260892933873,429.41958740909473,423.77405564453045,418.6473393867543,414.05313668354034,409.9783983613785,406.3940174072668,403.2619393377482,400.5399730143844,398.1850046204176
H1,108932.52457451187,102009.47359307103,96092.54419470455,90593.32254884586,85481.99013568067,80730.85826577355,73149.84908516218,66257.47287604028,59991.33304632737,54294.61360912177,49115.60187384665,44407.25100332045,40126.77908758027,36235.301649611094,32697.49473917222,29481.285990663928,26557.57122139903,23899.95432970904,21484.50842009345,19289.55623735735,17295.46813588678,15484.475946740302,13840.50123735772,12348.996590101704,10996.79866061506,9771.991919316359,8663.782133253266,7662.378814083891,6758.886042439499,5945.201277597793,5712.649537741516,5558.764203744113,5414.955699496353,5280.507545372048,5154.754427003028,5037.078540660541,4926.906199680693,4823.704683287907,4726.979310502273,4636.270723053367,4551.1523623714975,4471.228126793718,4396.130196112106,4325.517011511317,4259.071399796147,4196.498831602703,4137.525804022911,4081.8983387556937,4029.3805875329194,3979.753537157637
S2,344401.37763504544,364813.7604927224,383436.4278258081,400512.8785670827,416152.45776829193,430457.5987059754,449345.4091834817,467321.888957329,484419.452413566,500669.2449287085,516101.08174899966,530743.4121022755,544623.3031123694,557766.4393496832,570197.1350594622,581937.8897576798,593010.9762169899,603436.7103803505,613234.2120027634,622421.4535050928,631015.323408967,639031.7031558107,646485.5569272344,653391.0343738782,659761.5858801912,665610.0887484943,670948.9789472593,675790.3701337673,680146.079115872,684026.9150085114,684672.9123225039,684369.3131069797,683708.4238550449,682741.6760588353,681520.0240866531,679878.8633346711,677879.8210904595,675566.3997181465,673179.978428501,670608.0807098685,667925.4005074637,665157.720936192,662327.4935668157,659452.5814110606,656547.0910234073,653622.0937251662,650686.2232653147,647746.1663245613,644807.0621802678,641872.8263845177
E2,0.0,73.56219245724178,103.96311906368157,110.92620079086606,105.96323541888982,95.6144733814752,83.46936675231409,71.82363355913154,61.28627452682023,52.07021839937845,44.17667505524007,37.50345277352063,31.9065526269755,27.233616282471864,23.340810282817223,20.100250361289845,17.402211483410795,15.154804064577098,13.282292636525044,11.723107734595013,10.427923720937297,9.35806581620173,8.484445943231579,7.787292349075934,7.25722005822395,6.8990194669766,6.742156944803334,6.871947242452081,7.547185044110481,9.958575981912066,-295.9784917193508,-236.81871435603585,-69.42083862851544,148.2601121266719,397.0630091678225,-575.7468999013709,57.48777930570532,-58.18930718415946,-70.47527647701297,-71.62989008809112,-68.98928622426996,-64.62913131209649,-59.43606790547616,-53.916187930594745,-48.38854133427519,-43.05643005029606,-38.044394393044534,-33.42191062642733,-29.22009616505064,-25.443878233209407
I2,0.0,0.0,16.487679249972587,33.27716059347995,44.996060038981526,50.974058209662346,52.27147030248703,50.33433847143354,46.552115832338245,41.90196888402635,37.02284312815255,32.30159498859881,27.949382174517794,24.06168793260097,20.662134640926077,17.73277694218755,15.234094220588275,13.117582119201733,11.333298295454622,9.834051035926922,8.57748791983121,7.52692871400916,6.6515122686810315,5.9260468826830985,5.330859168499326,4.851942533488824,4.481896163612174,4.2228466689105275,4.095202535454423,4.16931594265297,4.754628364670811,-63.461680952328024,-91.47539766658498,-70.90540743262584,-9.670436635575626,83.14376547081486,-78.73860109014845,-34.75483479733603,-34.07005400788168,-36.40942194654676,-38.08361102629006,-38.504711080683634,-37.78223942938892,-36.181183457238134,-33.97530181949334,-31.401737919454753,-28.649538708873568,-25.860997998374113,-23.13778060481556,-20.548371861790468
A2,0.0,0.0,1.833793971660671,4.11182208517993,6.173841601466734,7.7594959650094975,8.815993250177584,9.389049590576168,9.573791531794026,9.464258571769028,9.143715593123668,8.68121770413336,8.131462744831241,7.536204472341655,6.926257866664097,6.323582389231953,5.743194040138528,5.194805508912512,4.684177755805315,4.214198532962697,3.7857268965977586,3.3982453739958256,3.050360886831661,2.7401934789300944,2.465691823810352,2.224921459003378,2.016398170540217,1.8396261262048226,1.6963210582936235,1.5943566343536086,1.5699424565632922,-6.076843854540957,-10.94111551657495,-10.800525581300626,-5.257523095223712,5.539795952451408,-9.760115906772725,-6.6578606536217535,-6.969806599078884,-7.534674238882824,-8.031721154997676,-8.377937007011825,-8.55625107582781,-8.574614726640286,-8.45223558931629,-8.212989842374252,-7.881738376675527,-7.482194982415203,-7.035749862600715,-6.560910784243886
IH2,0.0,0.0,0.0,3.275024039213468,8.149704929477231,12.7692498230377,16.128504168432418,17.965523387205337,18.44439180458606,17.918244962411393,16.747203890429414,15.227491349524449,13.575215568618708,11.933920158046524,10.390056494821934,8.988960753403408,7.748382557082751,6.668816489697149,5.740860428277084,4.950173812509838,4.280640712385065,3.7162717828002982,3.2422638837263094,2.8455274249590103,2.5149045675165653,2.2412417874532693,2.017453484274119,1.838738400258864,1.7032617070602085,1.6142146168529377,1.5870718141270572,1.6905743058665221,-11.810886634329368,-23.722911113178082,-25.23727684625664,-13.785849865367176,10.03399904857881,-10.922863060007462,-12.038750851205084,-12.42734931045517,-13.07472313052546,-13.711629150679478,-14.094707002723299,-14.131298014724418,-13.830475628980892,-13.250883551084947,-12.467197222254761,-11.552075567817575,-10.567942682466544,-9.564340567851843
IN2,0.0,0.0,0.0,3.2370100247355666,9.737912485331426,18.474566047038824,28.29750763742308,38.276939465713696,47.77626176814815,56.43803075690429,64.10022322997547,70.7278797660249,76.36234168322095,81.08599327413309,84.9991411213234,88.20572650003194,90.80512807820728,92.88797169307234,94.53445411027694,95.81416499629051,96.78673301773934,97.50287554501887,98.00560138033427,98.33143029836012,98.51157101384615,98.57305769736564,98.53990427708129,98.43443154725477,98.27915460948533,98.1003701925691,97.93792423294543,97.89201655122734,84.45372631217379,65.64991323017655,51.072624447157196,48.66331078729905,64.50021225593342,48.39653719352483,41.08918892207131,33.98935647943836,26.501236530024382,18.75930586705433,11.012120346762675,3.4842488380121086,-3.654010194456303,-10.287808040971,-16.350002612587986,-21.811238645348475,-26.67039083332214,-30.94630487821267
D2,0.0,0.0,0.0,0.0,0.12170086100908398,0.4245463042827011,0.8990554007951645,1.498395381382979,2.1659995389472133,2.8513985883984976,3.5172458657274475,4.139576910799539,4.705434988803317,5.209894010570251,5.653362009906441,6.03945957933269,6.373492017008716,6.661424202340463,6.9092393936154055,7.122571463453308,7.306521385015334,7.465591258741487,7.603689016283193,7.724172500234325,7.82991314014903,7.9233677369879425,8.006652944057173,8.081622111654765,8.149950173923191,8.213243882241379,8.273228574375617,8.332204631940343,8.39502687268127,7.956130835440647,7.074580448772613,6.136755783994982,5.624469529522151,5.997335899037302,5.591439080213805,5.144075541344219,4.682271568904901,4.196410994024212,3.6868828032400893,3.1631193262812616,2.6379961165044725,2.1240515554696286,1.6316448073086471,1.1683600746925005,0.7390815331575679,0.34637366043621093
R2,0.0,0.0,0.0,0.3136148846803113,2.662802215305227,7.831415167904882,15.634637120335126,25.371885542890425,36.21203736715672,47.41471690441742,58.42604762956149,68.88220548744947,78.57677650084374,87.41959171959023,95.39917114080562,102.55290266202528,108.94530637007091,114.65320946557091,119.75625015173773,124.33122138145998,128.4490402274831,132.17342659520276,135.56064106492934,138.65984250738302,141.51378419912086,144.15968318416043,146.63018604692564,148.95443458359014,151.15934340637375,153.27144167681143,155.3204403962479,157.350266006349,158.1228774854747,151.277007418971,138.39805083716445,125.57515118579488,120.21686679426512,124.13647985616001,118.1000908522656,111.38747803105922,104.31579970772938,96.76527225017428,88.76431015178642,80.46663731467254,72.07251670949653,63.77615889494042,55.73994568131616,48.085885772445955,40.8964266179576,34.21961222620993
G2,0.0,0.0,16.487679249972587,39.789194657428986,64.6513630888677,88.40116960654986,109.83148205523233,128.5396812026464,144.6376928732318,158.37393975591294,170.0445687946544,179.9459981065177,188.35174132108702,195.5030372261366,201.60697615295993,206.83841067825958,211.34353035632958,215.2439317934597,218.6406161521833,221.61760981401017,224.24513944145056,226.5823762177189,228.6798230504428,230.58146326334216,232.3268486874098,233.9534276754683,235.4997222639139,237.0108588606583,238.55108568331778,240.24265525310477,242.47469593992477,176.13629202141954,123.05751782687997,107.49805062861282,140.72796252568398,229.72269363016048,100.67909259478418,113.56397318798585,100.52185738660862,84.72605638079264,68.6714689217565,53.208726649474784,38.72323686615191,25.401681447929604,13.317310614398567,2.4718651179595934,-7.178480862834741,-15.70546668339158,-23.19640358892336,-29.74557724905781
H2,108932.52457451187,115416.60341823281,121328.98720561607,126748.34765755192,131710.39036749862,136248.26596805322,134571.37105132092,132291.0984657345,129484.88005959085,126223.66644929333,122572.50212562142,118591.05135953632,114334.07847786568,109851.8856729075,105190.71111919741,100393.08979335698,95498.17902824629,90542.05048142179,85557.9498632787,80576.5254584165,75626.0261948381,70732.46978462306,65919.781297566,61209.902463239385,56622.872060703805,52176.87798749396,47888.28204149609,43771.61913830643,39839.57364763388,36102.936765678685,35686.02297676397,35669.23576545069,35641.65659231991,35604.13370666108,35557.45408244169,35502.34780243665,35439.492129121485,35369.51528470437,35292.99996107369,35210.48657895393,35122.47631418448,35029.433907756444,34931.79027505413,34829.94492864483,34724.26822793558,34615.10346806464,34502.76881951168,34387.55912909056,34269.74759222679,34149.587305714536
S3,1033204.1329051363,1028568.1833971136,1024261.3800407924,1020240.4616778578,1016473.4826082124,1012934.6705128176,1022847.7567106246,1033261.4927377144,1044176.106677649,1055593.2888894589,1067516.0554082822,1079948.6710969214,1092896.6063449213,1106366.5107815885,1120366.1930788134,1134903.8007763722,1149990.466508741,1165637.1906826792,1181856.0277141745,1198659.9797696641,1216062.8707214703,1234079.1902795325,1252723.8996341042,1272012.1906750377,1291959.1912396455,1312579.6087205107,1333887.3022045046,1355894.7613880113,1378612.4007461178,1402046.911499251,1402144.0267417023,1398630.111039732,1394952.8004276992,1391156.4813143136,1387301.4410034653,1382235.7361521358,1377706.3957921693,1372493.4987521963,1367441.0608602155,1362282.146739959,1357128.7967027384,1352008.335885871,1346943.8619042851,1341951.5979660011,1337042.2648226582,1332222.2903000803,1327494.802532658,1322860.432395948,1318317.9551298849,1313864.7989637577
E3,0.0,126.1066156409859,173.19527434266558,180.21212384396628,168.3191021804717,148.7886556696855,127.42169730656789,107.57894663119065,90.07294019693887,75.08871932720473,62.501446351660256,52.05201365504191,43.44087017689553,36.375399804813426,30.59145295393214,25.86093492261,21.992205827381166,18.827270653608068,16.23753000566701,14.11945159404086,12.390634052457651,10.986553443505784,9.858189538462607,8.970801230284009,8.304452784654874,7.857869093371312,7.660266390914973,7.807478002812305,8.599385475891237,11.42777665984804,-346.843577107091,-277.4933234968049,-81.77115769317027,172.22483758515833,462.01701688963556,-669.5931289270276,66.2461764795313,-67.96733730694908,-82.12733894923977,-83.38710393793306,-80.26244879344694,-75.15977569564672,-69.10478621284821,-62.68151265108208,-56.25722730163828,-50.06533273391176,-44.24832721612994,-38.88528359939555,-34.01117976289102,-29.630950817924518
I3,0.0,0.0,28.264592999953003,55.91979856512068,74.2249071827083,82.63455032630428,83.34528196650783,78.9862703110849,71.90150420687905,63.691297959550496,55.36537366427581,47.50666970559081,40.40981055123622,34.18591557949742,28.836631267452848,24.303749282620224,20.500928029004694,17.33297497379545,14.706883354811554,12.537557394582107,10.750306102459154,9.281469888965809,8.078070476369962,7.097067053984094,6.304631755319582,5.675829245404303,5.195286947103376,4.8602522006697795,4.690538911242453,4.765348417039529,5.44454531819395,-74.44477566580652,-107.23707161413007,-83.20990110490648,-11.743828307306089,96.44759330291363,-91.72329312105158,-40.64800380942602,-39.82720993489819,-42.50431659857159,-44.40641772474407,-44.856921219398146,-43.98581724928211,-42.10164766251468,-39.521992121023295,-36.52131552517663,-33.31799222007346,-30.07608511657836,-26.912581035616938,-23.906100935752555
A3,0.0,0.0,3.14364680856115,6.923516997308511,10.231874365157953,12.677962461149157,14.218856886036017,14.963582127675318,15.08629498416104,14.751623316040149,14.100653177209272,13.247230113814313,12.279270681326043,11.262188618807212,10.242916151443074,9.253774320786889,8.315870578516089,7.441925294514768,6.638544828628946,5.907999935026858,5.249592121122217,4.660688209138648,4.137496862587279,3.6756531381770077,3.270672540737438,2.9183405444487738,2.6151316038940364,2.358851427803472,2.1500699714960962,1.996735309186968,1.94013139965313,-7.037954002125926,-12.751813262370117,-12.60943308880941,-6.15966750731901,6.4111409742816,-11.377232306401666,-7.780084732869298,-8.143859731196821,-8.798409421390904,-9.372422255525391,-9.770374672949094,-9.973067482514306,-9.990154118485103,-9.84419612801371,-9.563052130959264,-9.17563474684991,-8.7094642337223,-8.189325509833113,-7.636636729810017
IH3,0.0,0.0,0.0,5.614326924365945,13.747108695366123,21.20665510871071,26.38410686717598,28.9593920921049,29.30427714424114,28.059140331305038,25.842924739115738,23.147183908008518,20.318806873119406,17.5794014704459,15.055225799954677,12.805965456590853,10.848118629586402,9.172291289888687,7.75515842771319,6.5672797397865486,5.577911295356964,4.7577630317099056,4.0804196209058246,3.522938931283787,3.0659856327728283,2.693750094306016,2.393846609476392,2.1573986788540287,1.9796863620713507,1.8624263703279755,1.8221579206825578,1.9381382746727287,-13.876120699929064,-27.824667378445195,-29.609760914442028,-16.25336182602782,11.516532383527526,-12.805079427054206,-14.094236997355834,-14.537279004251891,-15.27733533210762,-16.003086011383125,-16.433773526417426,-16.46322405574297,-16.102808500502185,-15.42095505503349,-14.504352548039453,-13.437133273274608,-12.291439472420851,-11.124425483812669
IN3,0.0,0.0,0.0,5.549160042403828,16.472348084646306,30.880128410598072,46.79488798914093,62.69003722328196,77.5704344480642,90.91108246479419,102.50642219729957,112.35118791666227,120.55461427709383,127.2826869213474,132.7215475951689,137.05579987808952,140.45677332856533,143.07713284793599,145.04932763118273,146.48622245421308,147.4828466739822,148.1186153443558,148.45965114339919,148.5610143486775,148.46876447449637,148.22185904790499,147.85397049062885,147.39541641706478,146.87567083845582,146.32780307064968,145.80010125800555,145.41102253023706,129.3412419327805,106.99407958446847,89.58761986742478,86.38608928385058,104.45769054125189,85.40516874358921,76.570734018509,67.9857893034382,58.961100289047586,49.65322050143226,40.34997259892481,31.31078017031645,22.731896847678684,14.74526362073916,7.427616642491543,0.8120514817032323,-5.100877560203881,-10.333589633546982
D3,0.0,0.0,0.0,0.0,0.20863004744414396,0.7194766685924026,1.5075222386251055,2.487963445848168,3.5641030129810067,4.653058610558686,5.6957445562516655,6.656075275686224,7.51623146929291,8.271284336547527,8.924540089592757,9.483996728873088,9.95987018917721,10.362989482880597,10.70383453746336,10.992018516149884,11.236060571795827,11.44333740370582,11.620137283799325,11.771766882604304,11.902680334257203,12.016613266315787,12.1167138157759,12.205669863123546,12.285839435503068,12.359405165680085,12.428613479915658,12.496325406663788,12.568347197636344,12.052706452277752,11.018733590795671,9.918426126052253,9.314446398014955,9.742404144319284,9.26656360913455,8.742817597714057,8.202608014406195,7.634897719281607,7.040218314468601,6.429534434336346,5.817756163832241,5.219371041857332,4.64632379539172,4.107337768925902,3.608009926054841,3.1512564033558412
R3,0.0,0.0,0.0,0.5376255165948193,4.543371461970195,13.23119078392947,26.156759193762767,42.05594530458704,59.51029674400006,77.30436442386359,94.56112030247854,110.73056445179128,125.52430409669736,138.840987592815,150.70129706962163,161.19801017294446,170.4606853999389,178.6323330431523,185.85503701017217,192.26184321228817,197.972809221953,203.09367581754995,207.71609629645945,211.91872187424283,215.76870421733844,219.3233620722228,222.63189353863348,225.73712802621307,228.6774493744594,231.489308107061,234.21169054711112,236.89927519357244,238.1046835170034,230.38047629347298,215.58465431684323,200.83828346641187,194.79049309346655,199.5635710358567,192.77797198763616,185.20664390211095,177.21923728723968,168.67878819579786,159.619622956897,150.22055967953418,140.71367195793457,131.3235349748866,122.23756416324161,113.59628583069843,105.49439848803034,97.98682276985873
G3,0.0,0.0,28.264592999953003,67.08328553189045,107.47468219428217,145.20046599291032,178.5488416838919,207.1081872457977,231.22012718200847,251.40840185764847,268.23822541514755,282.2468318158408,293.91338057943784,303.64989209291224,311.80280195785247,318.6593412648916,324.45561766538424,329.3847860815105,333.60458961536443,337.24394806299165,340.4085762679405,343.18572024824607,345.64816410953387,347.8577049302494,349.868353177121,351.7296510705941,353.49085503790496,355.20776981442094,356.95767949983997,358.88508139933856,361.44641773005515,283.7074942663638,221.5122176032388,203.18464232429952,241.78582842452664,345.3388646793014,195.2612722509433,210.1091944355147,194.87550414490735,176.46809706502847,157.7783356891436,139.78891113123774,122.94316153112892,107.45453195585307,93.40556684249204,80.79649296556329,69.5752239945536,59.65773510362043,50.94227866988634,43.31926739042166
H3,326797.5737235356,325371.076377917,324033.65792498476,322777.77014710533,321596.8642965646,320484.8712651349,319436.16717087844,318376.23924268445,317297.9979450161,316195.334629517,315063.0362034293,313896.7073556105,312692.6996914511,311448.0471759017,310160.4073264943,308828.0076359068,307449.5967364809,306024.3998473465,304552.0780686355,303032.6911069121,301466.6630317166,299854.75067543844,298198.01429819816,296497.7901468747,294755.6645440226,292973.4491497355,291153.1570495293,289296.97933651536,287407.2618794052,285486.48200240574,283537.2248519771,281599.2482517435,279677.22160875815,277770.8835309747,275879.9849028197,274004.2880534205,272143.56598395674,270297.60164991335,268466.1872943153,266649.123828304,264846.22025567474,263057.2931382368,261282.16609908195,259520.66936105455,257772.63931791057,256037.91813583198,254316.35338312938,252607.7976861213,250912.1084093214,249229.14735819882
S4,516602.06645256816,525021.8900815191,533472.4337021987,541929.1627035566,550378.3196940155,558812.3736052298,574673.4403610709,590643.5091058337,606722.3331285304,622910.018930377,639206.7802233356,655612.7773423465,672128.0092646154,688752.2380402292,705484.9332796967,722324.5513254888,739270.7607951179,756321.8332056537,773475.6571896292,790729.7028048137,808080.9983998996,825526.1181264241,843061.1797463744,860681.8531322948,878383.3796640236,896160.6006758808,914007.9856603551,931919.6225416665,949888.9891213152,967907.0208317165,981120.113456894,992843.0790832642,1004187.0247590863,1015230.4241942423,1026036.5901489592,1037234.7257778951,1046927.4890535296,1056712.9794812626,1066471.9201582265,1076028.8474793192,1085506.8906814912,1094938.3811180932,1104351.3290694219,1113767.0102727537,1123201.2206266467,1132665.3392870121,1142167.2101036026,1151711.8705879934,1161302.1512707062,1170939.1653497706
E4,0.0,189.15992346147885,262.2513305575658,275.29930889678695,259.30492130656114,231.09402815552355,199.50575277522884,169.86246481870103,143.4837631587564,120.73311891092608,101.4876041261276,85.40329596478341,72.06046283096882,61.039026005205784,51.95438909627864,44.4713940132404,38.30667690775746,33.22567950363681,29.037032084447528,25.586612736224193,22.752077398070725,20.438405778227043,18.574883065638943,17.11411610704395,16.03438007519271,15.348613243161452,15.12972696916403,15.586066511738458,17.34654233200143,23.299792391326683,-718.6095069709303,-575.3914332913747,-162.45589363198997,382.55637608869665,1015.6351736153795,-1492.7928794608413,160.09968845143567,-148.13005726378833,-183.04267900736122,-188.25948112121137,-183.18047807168733,-173.28108427940316,-160.89267265788018,-147.35571809261137,-133.53028565963575,-119.97996166924278,-107.06517946200572,-95.0024102944616,-83.90593381352951,-73.81850611132184
I4,0.0,0.0,42.39688949992951,84.43070949236417,112.78717450337797,126.35900411591341,128.24747584576883,122.31011025318737,112.07376357694405,99.96807703901075,87.54453757874606,75.71429903232462,64.95155829503308,55.449146224584894,47.22957919812167,40.22027988550354,34.30221653814004,29.339859569797696,25.19863651852018,21.75423397787069,18.896894086531997,16.532788067150584,14.583848962221465,12.98699393664064,11.693433235779452,10.668778044655655,9.895121768046112,9.377972071164706,9.167358238553936,9.434509089411346,10.930461975610324,-154.45042978629638,-222.41205288542312,-170.97902361253108,-17.705200527980367,216.92457660502004,-203.33617046820711,-87.14222740318385,-85.92497711070321,-93.01355018143369,-98.47164950257152,-100.63562823452156,-99.72613798273483,-96.39921746398221,-91.35223795365293,-85.19990296819833,-78.44044849378187,-71.45611024160695,-64.5266729564818,-57.84703036245672
A4,0.0,0.0,4.715470212841725,10.446560156891408,15.5227871752507,19.33216355755266,21.786806743411226,23.034209769691568,23.329320068360083,22.916379639469728,22.006921074913418,20.77323631988799,19.34957852860749,17.836777649308857,16.307947797460855,14.81411172968374,13.389211323089123,12.05431989404635,10.821059624455145,9.6942945172156,8.67421470920058,7.757927968111992,6.940667978468865,6.216720745538743,5.580168040737577,5.025562202106803,4.5487097567107115,4.147951967733994,3.827107506564831,3.6050197612354022,3.569318895851042,-14.954950859806372,-26.740996137921435,-26.21753836983476,-12.197272291964072,15.206947132809699,-24.60680441966804,-16.407513650994737,-17.294163510906426,-18.899497531372123,-20.360334788636703,-21.444728255949983,-22.096892199507725,-22.328698938104257,-22.18340639755624,-21.718314665309848,-20.994973737944466,-20.073392407362395,-19.008713080566764,-17.849496545367455
IH4,0.0,0.0,0.0,8.421490386548918,20.7301130362753,32.14942231654139,40.21389232022763,44.38041030893634,45.15987629595267,43.493038829166885,40.30478906671857,36.33813117872127,32.12336528623525,28.00399678290279,24.179822995291353,20.74924848150325,17.744120450036903,15.155767610500515,12.953192403357438,11.095090991936235,9.537351985665257,8.237435295561454,7.156703626622499,6.261485373172031,5.52341984716732,4.919482317788919,4.4320172080333124,4.04916711594603,3.7664514565076064,3.591701291271872,3.5626102613581336,3.8460815503981713,-28.871020197325716,-57.752057295594994,-61.113707798379,-32.24865369425191,27.927461837356894,-27.259884068655317,-30.125331810015446,-31.230695467201546,-33.15840340098994,-35.14885688905911,-36.51448293679106,-36.97585739795548,-36.53192477498659,-35.32071092396819,-33.529208249250175,-31.344295634684116,-28.929756922487638,-26.41816782204444
IN4,0.0,0.0,0.0,8.323740063605742,24.81670170703913,46.711930918982674,71.05275194132825,95.52092657070139,118.57874224400987,139.39628777754143,157.62896019650452,173.2402044770725,186.37271709176596,197.26086616344128,206.17453442839786,213.38532641398803,219.14788156568153,223.69092354710986,227.21428039347236,229.88936137909874,231.86145535544586,233.2528496313373,234.16618732994544,234.68775833340266,234.89060463338325,234.83745895659064,234.58367517987588,234.18053805690437,233.67990080835736,233.14292032346532,232.66375911003487,232.48308848333312,199.83515499788427,154.17086151048397,119.06100755108015,114.3943526829633,155.8390002147046,114.35981770939064,96.1076708150865,78.27702695527097,59.232996880215545,39.3078237768891,19.157050565690305,-0.6136555771916896,-19.53348359027158,-37.27324474663807,-53.62772634993108,-68.49158601713704,-81.83557875434005,-93.6856818842827
D4,0.0,0.0,0.0,0.0,0.31294507116621595,1.0832821969774313,2.2779642298480667,3.7723243509645075,5.421513511674033,7.099667858779553,8.715882033098206,10.213619904172637,11.563955596051558,12.757669341976625,13.798306137117029,14.696835504333805,15.467883708943878,16.127260467942268,16.690453270610814,17.17179772775975,17.58409458742404,17.938505405330865,18.24461093493095,18.510556156376094,18.743234803001794,18.9484867165958,19.1312961331452,19.29599120217873,19.44645944866484,19.586421897708718,19.71989057897684,19.852278228977482,19.995199755839625,18.92234411442912,16.776260600609227,14.505257160797374,13.306887660609892,14.344680394559083,13.331695047752312,12.21222881618727,11.051686944505704,9.819510876400823,8.51336896853535,7.156479993217717,5.782446206595189,4.424909087416454,3.1123810328339196,1.8664257470013885,0.7016624595293208,-0.37337585594387024
R4,0.0,0.0,0.0,0.806438274892229,6.825538076940532,19.942199490907146,39.555621281708596,63.80563341714403,90.56651433784235,117.99248843867915,144.73476097165423,169.93296418904657,193.1219106068296,214.12208018136928,232.9427866480894,249.70698729644002,264.5975655935441,277.82144735050724,289.58717719507143,300.09201306197514,309.5154082883861,318.0165677958707,325.73446511438283,332.78924835417814,339.28436121238065,345.3089922719364,350.9406814280783,356.2481059898709,361.29433025791,366.14138253464085,370.85898367059167,375.5513544011252,377.2135706704493,360.4138425193345,329.0172149493592,298.0109346546001,285.8665522431731,296.9766426054023,281.8832019509651,265.04379009944597,247.20691191538583,227.97997371009623,207.38762842272297,185.8093942638758,163.76648887376882,141.777960092956,120.2883424311769,99.64156451611467,80.08026989852297,61.757267325850265
G4,0.0,0.0,42.39688949992951,101.17593994251884,162.87946659403457,220.99813091914984,272.7938167944328,317.5095430446294,355.581244593878,387.74062138129074,414.80083904145897,437.54751105850625,456.6891666253423,472.84025943639705,486.5210898859454,498.16575781160054,508.1332432249214,516.719015085304,524.1659702156418,530.674113262871,536.4089051416386,541.5083854844517,546.0892967867903,550.2525320556415,554.088361951328,557.68218789399,561.12231119146,564.5133749577042,568.0067192536026,571.8946434237848,577.1168845058793,416.05312795995474,287.08919855009583,250.67755043304425,336.4208733723183,564.0577397870047,229.4743164136525,265.3578623362693,232.15709996278486,191.13128385101993,148.93621275798543,107.87951139528299,69.04158606635934,32.9803065987051,-0.04690118840025548,-29.97538002476687,-56.86679065769913,-80.86357866583745,-102.15670787510936,-120.96275589619053
H4,163398.7868617678,166122.0999761306,168833.52561261322,171533.80609532143,174223.6208465473,176903.59471568535,172128.2584861668,167323.74418419244,162492.5631166816,157637.44720942638,152761.38242925034,147867.6428006518,142959.82496012535,138041.88310439975,133118.16407940432,128193.44222043676,123272.95338614547,118362.42742514974,113468.11807079703,108596.8289747939,103755.93426534969,98953.39165591328,94197.74574947821,89498.11880346455,84864.18587678926,80306.13102487594,75834.58110831972,71460.51392192884,67195.13783079547,63049.741019526766,64682.43683588067,67045.24704298048,69391.90744507834,71722.55095848466,74037.30832124277,76336.30819543294,78619.67726254478,80887.54031241109,83140.02032616036,85377.23855361299,87599.31458551552,89806.36642097947,91998.51053046477,94175.86191462379,96338.53415929925,98486.63948694851,100620.2888047471,102739.59174960652,104844.6567303242,106935.59096706855
E_Om,0.0,0.0,0.0,0.0,0.0,0.0,0.0,0.0,0.0,0.0,0.0,0.0,0.0,0.0,0.0,3.7819923257086447,5.285635884050491,5.639991932229297,5.452420943695451,5.0430141451606945,4.575529739544836,4.130175606954093,3.7439398518971716,3.433076760798572,3.2062278284257486,3.0736339541684172,3.0576082073756914,3.214907393406933,3.7154700419841387,5.3476017351949725,-199.23111055644978,-161.14403529147074,61.35480638326732,376.4985950551599,525.3614993669564,11676.594744825321,11054.459448301239,16501.430344801076,19595.681874112837,22383.00336488124,24478.643940607864,25938.496882092815,26819.96484927421,27195.227374466194,27142.08988216804,26737.465286308958,26053.340309428866,25154.55606254532,24097.834002174306,22931.618807055245
I_Om,0.0,0.0,0.0,0.0,0.0,0.0,0.0,0.0,0.0,0.0,0.0,0.0,0.0,0.0,50.0,30.251817235103413,19.151116374539043,12.77180431555921,8.991511378183747,6.662255999933608,5.161210464331939,4.14824490439629,3.435545582624365,2.9177685987044937,2.5348201783613797,2.2522782440290925,2.051611506262521,1.9266089457976014,1.8862337158056857,1.9739975998859483,2.3929117217293867,-43.20637143749629,-62.25904304943639,-23.91737673121296,69.91469504483626,160.05152599395848,2713.941544285676,4119.697076657988,6191.073555051298,8137.85398726626,9940.45628147904,11500.797378594298,12772.060964691775,13738.787270899946,14407.800355324707,14800.66774666039,14947.677268515103,14883.28872018779,14642.88453401342,14260.585490257177
A_Om,0.0,0.0,0.0,0.0,0.0,0.0,0.0,0.0,0.0,0.0,0.0,0.0,0.0,0.0,0.0,0.0,0.094279336926814,0.20991860554188013,0.31461484101537085,0.39673009781706514,0.45459613747661387,0.4909122669741135,0.5099156195277098,0.516040752515848,0.5133690213957547,0.5054992088295416,0.49566992486944117,0.4871221444687448,0.4839574331750915,0.49381221804714903,0.542668210175854,-4.516668385157653,-7.7613057179946825,-4.904487248134249,5.319816039171376,17.506488699630232,305.5923450170794,528.9009561449598,849.8041261925819,1192.961535327113,1546.915969683398,1892.578368363986,2215.517610615012,2505.2015428605578,2754.698543560714,2960.2020062889155,3120.473651666294,3236.28149036928,3309.878578751603,3344.546636105263
IH_Om,0.0,0.0,0.0,0.0,0.0,0.0,0.0,0.0,0.0,0.0,0.0,0.0,0.0,0.0,0.0,9.931731414592242,10.678328418738154,8.824347369614294,6.685570835016578,4.929156730442371,3.640731485929233,2.736836063968739,2.1106717508651474,1.6747222558339108,1.3669180253376094,1.1461411890733701,0.986223316753479,0.8711807170415057,0.7922651489265138,0.7471441371557727,0.7433640468215288,0.8247977390700357,-8.194513966474544,-16.21934240261001,-12.376124924186865,8.0690107827748,35.58531226817869,555.8127258108487,1079.6223750968322,1737.3315335341645,2433.2426559894097,3118.475147177957,3750.5657606644195,4300.251631135906,4750.704370595133,5095.367833005005,5335.443792528871,5477.51345771046,5531.515804656957,5509.151685605159
IN_Om,0.0,0.0,0.0,0.0,0.0,0.0,0.0,0.0,0.0,0.0,0.0,0.0,0.0,0.0,0.0,19.63290270060869,31.31519335947025,38.401961512311544,42.79249781401889,45.57037098811092,47.360522505356236,48.52874148650848,49.29335102059493,49.78798179138708,50.09707460526835,50.27617339820731,50.36376399468055,50.38851578837091,50.37432008800424,50.345219031255056,50.33457390127669,50.42447660572998,39.341069032029026,23.699976427356866,17.60018224207813,34.52466474376685,73.33260303395573,736.1280133837347,1735.9795754574484,3231.9899668563776,5188.541237807778,7565.565713291004,10299.452567452972,13315.83273915021,16537.359884632908,19889.186984165703,23302.539124453593,26716.77495504092,30080.31445690827,33350.763288740454
D_Om,0.0,0.0,0.0,0.0,0.0,0.0,0.0,0.0,0.0,0.0,0.0,0.0,0.0,0.0,0.0,0.0,0.3690660740179256,0.7658759133161761,1.0937912690102434,1.3422290567078696,1.525397977290091,1.6606886350792407,1.7623902719031646,1.8408234578316345,1.9030566317093478,1.953851709431091,1.9964426546815885,2.0330910045437647,2.0654643374075827,2.094905144442087,2.1226692413467263,2.1502928689775955,2.1809425966746407,1.8764320363459221,1.2737164801349707,0.8138160210252865,1.1136628459637423,2.436023564682175,23.090188688682723,63.20927515667446,127.76902829366773,218.1890443705756,334.07250229418014,473.444634186583,633.243255448198,809.7808336089674,999.1262078748692,1197.3928757348947,1400.9388943321517,1606.4916560986826
R_Om,0.0,0.0,0.0,0.0,0.0,0.0,0.0,0.0,0.0,0.0,0.0,0.0,0.0,0.0,0.0,0.0,5.089724420489842,10.680246069732833,15.447949682371748,19.223681831749417,22.175845269793086,24.520995273656684,26.438686115339404,28.058759867868933,29.470033755255173,30.732285536934572,31.88620497002702,32.96052726785848,33.97695339310257,34.95381438406801,35.909838461948546,36.87224896294381,37.010434929452536,32.039046610039826,23.445961304870735,18.434000655249232,25.748828713643633,96.2774598024313,467.9419029266958,1162.5682900975278,2254.896833265743,3770.2016733448645,5706.008045666352,8035.8152959901745,10716.159967741432,13693.328297265663,16908.97681221205,20304.454638856623,23823.87841712922,27416.131268655015
G_Om,0.0,0.0,0.0,0.0,0.0,0.0,0.0,0.0,0.0,0.0,0.0,0.0,0.0,0.0,0.0,0.0,0.8476674540170447,2.032350321361227,3.296455901208928,4.518520723539186,5.6488241702018716,6.674349161020702,7.600055809760155,8.439194467096264,9.208658597811002,9.92727850664728,10.616179816890446,11.301489236190267,12.022054517760267,12.854812164981345,14.053383594425082,-30.600786404381086,-66.71840441143488,-52.96679731136814,31.418779925783525,149.16937438885446,2766.2739284231584,5243.937733391454,8942.444827901805,13334.47430163819,18351.233152942503,23837.693198320005,29651.353755907956,35662.57994641882,41757.91467071892,47841.33955519649,53834.0749111224,59673.47561498161,65311.42954458708,70712.53770049034
beta,1.00000000000784,1.00000000000784,0.996524430924796,0.9943775722213798,0.9930131222710338,0.9921190025520569,0.9915139027990125,1.026050113676416,1.0635320098901162,1.1043566958612867,1.1490134007460049,1.1981028730196073,1.2523652738058637,1.3127192332712978,1.3803164201952267,1.4566185229233761,1.543486713888337,1.6434090908806123,1.7596721461878733,1.8967630064357397,2.06097009538148,2.261385226776093,2.5116588271976936,2.833262802612741,3.262023940698798,3.8625191147889604,4.764137231302818,6.269590897859355,9.291144489238501,18.43896636058527,-1395.5019875850971,-66.65798714244497,-65.05148942113497,-80.62914150288941,-144.40061882573755,2582.722755765877,222.5909595572456,47.1844696847943,27.05819371348381,19.106936490884454,14.494341356180183,11.656395751372528,9.76168363636398,8.42406041985834,7.439563681478353,6.691232828592706,6.107648862649309,5.642973991419045,5.266571197450843,4.957261291463498
