series,2021-12-01,2021-12-02,2021-12-03,2021-12-04,2021-12-05,2021-12-06,2021-12-07,2021-12-08,2021-12-09,2021-12-10,2021-12-11,2021-12-12,2021-12-13,2021-12-14,2021-12-15,2021-12-16,2021-12-17,2021-12-18,2021-12-19,2021-12-20,2021-12-21,2021-12-22,2021-12-23,2021-12-24,2021-12-25,2021-12-26,2021-12-27,2021-12-28,2021-12-29,2021-12-30,2021-12-31,2022-01-01,2022-01-02,2022-01-03,2022-01-04,2022-01-05,2022-01-06,2022-01-07,2022-01-08,2022-01-09,2022-01-10,2022-01-11,2022-01-12,2022-01-13
S,3937629.279180127,3937119.897299372,3936652.7455531787,3936204.732097581,3935761.0486730044,3935312.1636242303,3934851.728599533,3934375.329126752,3933879.732050781,3933362.4277391545,3932821.348576327,3932254.6938159526,3931660.8192191096,3931038.16657268,3930385.218040295,3929700.4661707366,3928982.3939141096,4016477.518604802,4103870.77786342,4191145.7290843613,4278280.189204085,4365244.441776146,4451998.467148951,4538487.644594584,4624635.949957892,4710334.866189324,4795424.618923828,4879660.988653967,4962653.5481479615,5043744.119906552,5121754.413298162,5194449.480722984,5257534.784470256,5304354.524481083,5331140.697015675,5262821.905706787,5215142.083149817,5166594.337402387,5117648.397012098,5068537.104913348,5019437.987333887,4970500.245919614,4921851.716921138,4873601.955351868
E,0.0,509.38188075518485,874.3581461261713,1147.3211138069526,1361.4143178637746,1537.908522387673,1690.6537980099831,1828.8048025531132,1958.5081014592793,2083.9593374654014,2208.0737658806893,2332.9168885534013,2459.984463013093,2590.3867733509046,2724.971283299776,2864.4051318606503,3009.2311332451236,3159.9060855553353,3382.221185566365,3678.2697733381037,4055.4582973671186,4527.233244556792,5114.637543500173,5849.080393299062,6777.051858644964,7968.171327245106,9529.281748017338,11630.109724844207,14552.286783704229,18788.16292827094,25250.237721284087,35721.78749893111,53681.259229685464,84258.81060613168,126595.45683379423,169315.76746633832,182893.9331244158,194572.09191705723,204268.94178019708,212148.80164401315,218397.4447179297,223191.7449502776,226694.67729658657,229055.04660413286
I,378.7215659464664,227.23293956787984,146.72926532379847,105.87122326156155,86.92383042019446,79.92210222207888,79.32089263626126,82.07560412908691,86.546199254535,91.87402268859401,97.62945679127714,103.61419137715468,109.75136891380723,116.02538278912803,122.44951471438688,129.0490188341082,135.85265479687934,142.88874978901805,150.18361710979454,159.09494119970012,170.48002909816148,185.00432911510705,203.34136870984662,226.32446207423698,255.0942289199854,291.283266008999,337.2911087594624,396.73667840732776,475.2531210683488,581.9645632542749,732.3875953168381,954.4437790051793,1301.2582762512309,1875.6536043147723,2843.9594678927197,4288.453585105339,6026.4859857335,7346.249657794976,8376.29899787328,9192.108383279052,9842.313937280895,10359.886418466507,10768.215854687134,11084.660347436367
A,3334.909968769465,3201.5135700186866,3164.9399017859055,3195.380270872421,3273.628186335657,3387.198118485024,3527.9242669201435,3690.4549872980047,3871.2969115396245,4068.2003522340224,4279.759162459622,4505.147031834986,4743.941674184753,4996.0063383791385,5261.409154473243,5540.3677349487925,5833.2108084265565,6140.3514458276295,6462.268237869207,6811.236974533888,7199.418385841813,7639.816998225354,8147.332195966916,8740.046775979943,9440.961431925116,10280.506617720097,11300.399469306252,12559.877826985816,14146.293544851273,16194.086469184802,18920.746738707327,22698.953191600776,28206.76055487484,36719.8433400529,50384.24442237327,71105.88810786749,98671.39224215018,127572.96511099243,157415.9156867679,187806.73843078152,218397.18031503947,248886.28398992584,279016.8976167771,308571.4263367993
IH,0.0,75.74431318929328,83.19604220053023,70.80910039866474,56.4640873619507,45.525340537433536,38.67334175288433,35.13820036669812,33.927298738812276,34.21792855496764,35.42833734290642,37.18266775078183,39.25393793722778,41.51365317523285,43.89465293442471,46.366122088845025,48.91775382350796,51.550163357204795,54.26932273996857,57.083470982223176,60.26825113046039,64.13249958673912,68.96322391329099,75.03816844402806,82.66241825121627,92.21614558952848,104.21534007709504,119.39706772714104,138.8524517803887,164.25191551082582,198.25278984883113,245.28275357591025,313.1327857964246,416.3107874207079,582.6117102228974,859.1539444844638,1285.875899342546,1846.1520869338465,2389.3352934568375,2866.0568328931236,3266.807212698999,3596.57431619739,3864.4381566254556,4079.6020369677167
IN,75.74431318929328,145.4216207647249,179.22015547922376,194.21074352636748,199.82899959506068,201.2077632307605,201.0757443324254,200.83405803220867,201.1626727398577,202.3590849285469,204.52523098639793,207.66895882209565,211.75782570155184,216.74661599842096,222.5906144676302,229.25134383026688,236.69845960851805,244.90979980134176,253.87064298792512,263.5727095709845,274.2799200246296,286.4065165976524,300.4666510194662,317.06799773078706,336.9362202015669,360.96698129110564,390.3107219625771,426.50564167119387,471.69051665549694,528.9594396158676,602.9834963813382,701.1629438988064,835.8896020089608,1029.1877567992701,1321.8820856044576,1784.7932114191847,2499.5246754307077,3504.6137038146153,4693.1493464695395,5992.494938985986,7350.926780035173,8730.591383658015,10103.26142293006,11447.648542947309
D,5140.0,5140.0,5140.122702307693,5140.257476074053,5140.372183563747,5140.463652791326,5140.537401751574,5140.600050788571,5140.6569730589235,5140.71193372427,5140.767365196567,5140.824757475494,5140.884991689088,5140.948581265229,5141.0158314762475,5141.086938797491,5141.162049785228,5141.241294299152,5141.32480319559,5141.41271700531,5141.505189605901,5141.602821404024,5141.7067131071235,5141.818430361712,5141.939988747357,5142.073898067433,5142.223283986902,5142.392108050201,5142.585525814847,5142.810460407887,5143.076540965323,5143.397701377196,5143.795048169763,5144.302308897514,5144.976713247925,5145.920517453454,5147.312307374206,5149.395367258335,5152.386048827415,5156.256662237366,5160.899542640739,5166.191620249029,5172.017905415569,5178.278117698008
R,0.0,139.46340436464027,317.0441569591115,499.5950391484288,678.3707887662772,853.553962349018,1027.9209966998867,1204.4805030806035,1385.7543088740413,1573.6826623672498,1769.7282992139624,1975.0149979063583,2190.4461844511234,2416.79230387302,2654.750462084418,2904.983328310801,3168.1437867417458,3444.890286757114,3735.8963330400416,4041.856380763694,4363.959373022456,4704.039643267968,5064.639304391559,5449.08113121753,5861.598756422809,6307.556507519881,6793.797757553778,7329.184708407851,7925.440816048016,8598.500484985561,9370.75875739375,10275.013093412359,11361.774695555227,12713.565011108369,14472.950530478605,16885.5069302488,20302.278679815274,25092.28048793535,31398.98942474604,39266.20790600339,48691.49569528783,59649.58469807225,72102.63046018923,86004.78149409323
G,349244.0,349244.0,349254.38950158306,349272.2231656503,349295.6242621136,349323.39206608356,349354.7596973866,349389.24276593386,349426.543602711,349466.4899058469,349508.9949490249,349554.0314663274,349601.6143204149,349651.78888185567,349704.62316689664,349760.2024769021,349818.62572039856,349880.00287730945,349944.45324454585,350013.4380154796,350088.46107985795,350171.1773915141,350263.51616275497,350367.8358036033,350487.1353552787,350625.36208393576,350787.8832330899,350982.24524624145,351219.4563602654,351516.2690508787,351899.47790824296,352414.489130058,353143.0811389061,354237.97977747023,355956.54708277405,358538.62498714373,361992.03882181406,365722.39688816894,369690.9460913652,373857.27507592033,378184.3239832338,382638.8220393317,387191.1060429389,391814.836877563
H,1586389.3910484647,1586389.391048465,1586389.391048465,1586389.3910484647,1586389.3910484647,1586389.3910484647,1586389.3910484647,1586389.3910484645,1586389.3910484647,1586389.3910484647,1586389.3910484645,1586389.3910484645,1586389.3910484645,1586389.3910484647,1586389.3910484645,1586389.3910484647,1586389.391048465,1523322.1287159633,1461237.153848917,1400193.053356218,1340252.8105728307,1281484.08768329,1223959.4746016595,1167756.6817013281,1112958.6461985416,1059653.5127453718,1007934.4379308287,957899.156301585,909649.2331251837,863288.9182014869,818923.5085383891,776657.1300845905,736589.865959378,698814.1978608326,664243.5031753088,664243.5031753088,664243.5031753088,664243.5031753088,664243.5031753088,664243.5031753089,664243.5031753088,664243.5031753089,664243.5031753089,664243.5031753089
S0,1378170.2477130445,1374789.234702882,1369582.5088426333,1364404.5714892887,1359247.2584521591,1354105.3068647531,1348975.2134958478,1343854.550564465,1338741.552184459,1333634.8620474823,1328533.377911656,1323436.154703763,1318342.3434433155,1313251.152286448,1308161.8213848579,1303073.606481211,1297985.7681052235,1321986.9425459579,1345262.3802306945,1367778.6353295688,1389497.3988561458,1410374.502163972,1430358.4353002016,1449388.1065948987,1467389.353232979,1484269.3002042286,1499906.8420119793,1514135.797289392,1526713.4922050077,1537258.8137989747,1545123.5429313432,1549119.6338941893,1547015.7596141668,1535428.9674318575,1513336.6563207246,1473134.3594888316,1443804.9882161429,1414335.9223912202,1384970.522034841,1355829.1417058343,1327001.4886872827,1298560.6140472256,1270566.7649210368,1243069.2630002627
E0,0.0,280.7616665579759,482.8961815474687,634.5748064561627,753.9494836408838,852.6734529474578,938.3295318443522,1015.920938155331,1088.796517164395,1159.2314922551084,1228.7962894382174,1298.593575662439,1369.412411809937,1441.8296576860048,1516.2774014549368,1593.0882392861968,1672.5259424877158,1754.80637353144,1876.2834924712904,2037.876079465608,2243.380231058295,2499.834832835103,2818.327519091137,3215.4405050324203,3715.717198941,4355.873136358052,5192.162146819396,6313.764186461129,7868.304076090537,10113.142232421264,13523.65579810458,19024.755957597787,28408.028901001948,44270.4858294265,66002.51438075167,87579.88152815588,94090.80621419061,99527.87841338706,103865.49815922478,107203.03204824486,109649.94030325388,111310.15913212387,112279.46040689167,112645.25415194746
I0,378.7215659464664,227.23293956787984,142.0662606762786,95.08904793378171,69.99640181317517,57.375614914938645,51.81674568208561,50.22849053974848,50.85811443471591,52.7222803613606,55.277392236819,58.22932327886389,61.42408773523168,64.78538807072832,68.27921156527336,71.89396358319034,75.62947107166627,79.49101015563302,83.48614930406094,88.3609155832109,94.58166494123935,102.50563724063726,112.49074356471155,124.97787719019867,140.56978978660908,160.12872687782226,184.9208965622651,216.85339323273098,258.88941395143877,315.8178759084192,395.7613276280823,513.2892292401483,696.0080154213856,997.0232620672625,1501.167713518914,2246.907184632014,3134.449148385364,3799.7730477707673,4309.863499641167,4704.389129715805,5009.17782354504,5241.958895126626,5415.489846105098,5539.378568535317
A0,3334.909968769465,3201.5135700186866,3123.8788635939836,3085.6536538317037,3076.199495916762,3088.563638981235,3118.1644072783547,3161.965294225594,3217.9498499767697,3284.783747710047,3361.5946722326644,3447.827255294229,3543.1463864470343,3647.372077921551,3760.4351476190536,3882.3467853612524,4013.1774688822898,4153.042231111908,4302.090273363039,4466.994134922002,4654.32446982693,4871.070898969619,5125.207668357525,5426.381434390079,5786.831214548471,6222.714552748875,6756.136937474958,7418.423034044467,8255.661571963114,9338.61169676514,10781.425073295755,12779.066797321542,15684.82083907094,20159.615332894064,27304.374129185046,38066.49548364732,52273.50713232645,67081.62453113197,82273.9355615854,97637.60674103584,112986.16453532783,128160.25381356588,143025.56097841891,157470.34595978825
IH0,0.0,75.74431318929328,83.19604220053023,69.87649946916076,53.8428626023051,40.83348869989911,31.825718957123414,26.224652412333633,23.11554158196232,21.6919475624836,21.35528989498519,21.698528806283043,22.459978439072955,23.47842263331715,24.658254964730965,25.94502455517118,27.309275246352037,28.736292066191268,30.219796591212877,31.758173474230546,33.49982307169152,35.61197634969075,38.249425857291364,41.56089932886797,45.70869835485799,50.89426114326179,57.39042958221253,65.58642424413767,76.05764377436299,89.68349478862338,107.86003943447464,132.9075569340324,168.89632017855172,223.37615889391725,310.7308727448463,455.0956093372557,676.1920076148796,963.8904334962635,1240.3383680809,1480.132592793218,1678.5463755363558,1838.389584460806,1964.6084645840465,2062.2196260540245
IN0,75.74431318929328,145.4216207647249,179.22015547922376,193.27814259686352,196.814663532399,195.04938523361702,190.9013456930334,185.97378403699392,181.12326163313065,176.78718356062456,173.1712520082755,170.3559735122366,168.35658079970173,167.1562893288644,166.72439946744447,167.02586803353805,168.02613982429318,169.69339284609416,171.9994092241596,174.91974498685,178.5811195011577,183.19337329291784,189.02098694981467,196.37883877873563,205.6447644629159,217.28688594929685,231.90827842541162,250.31695328260943,273.6376202931005,303.4975410796526,342.3514194934511,394.08185100243975,465.1743330405464,567.1161713827719,721.0956710604364,963.5705345941847,1335.7714203137289,1855.667967397741,2466.986362540266,3131.357163650733,3821.417988409965,4517.163717296521,5203.737473586853,5870.023894376322
D0,5140.0,5140.0,5140.122702307693,5140.257476074053,5140.370672793084,5140.457895756972,5140.524044132786,5140.575600335431,5140.618083067585,5140.6555291830255,5140.690669141554,5140.725263730128,5140.760414349969,5140.796798483235,5140.834832449308,5140.874777689557,5140.916807437428,5140.961047208746,5141.007598681756,5141.056553363944,5141.1080001460095,5141.162268320412,5141.219958086093,5141.281920398814,5141.34924714643,5141.423293137918,5141.505739502901,5141.598709362323,5141.704956356574,5141.82816624542,5141.973449386941,5142.148177695763,5142.363481832257,5142.637086111893,5142.998945227458,5143.5023149664075,5144.239548946559,5145.334948934808,5146.896407156194,5148.90569833166,5151.303445135074,5154.022613151455,5157.000719823136,5160.183295282154
R0,0.0,139.46340436464027,317.0441569591115,497.95259762075193,671.7982821598214,837.5322519590615,997.1147043918318,1153.0450509539842,1307.5322094409878,1462.315675190489,1618.7133865047538,1777.7255752849555,1940.133187268174,2106.5741409634757,2277.597202872562,2453.6981100066505,2635.343014624569,2822.983392195569,3017.065413126202,3218.035816454452,3426.6054771907816,3643.8324467161924,3871.154784641053,4110.428101188021,4363.993457981918,4634.792892212227,4926.552957793263,5244.069154538623,5593.649299658526,5983.822546427968,6426.5184584607705,6939.127315126466,7548.309129296267,8297.409887690432,9260.90773318894,10566.2068138988,12393.594989120178,14929.624560813736,18243.470973218777,22352.19947854041,27248.587045762382,32913.396650766124,39320.81961827415,46440.95783813448
G0,349244.0,349244.0,349249.72649693553,349259.5757884635,349272.51876151643,349287.8965353435,349305.28791207663,349324.4263552071,349345.147375318,349367.3547870185,349390.9988110385,349416.0616989753,349442.5481927432,349470.4791281728,349499.8871068956,349530.81354353967,349563.3066364614,349597.41996397404,349633.2115071847,349671.4807331855,349713.0458487768,349758.8024870527,349809.78984827304,349867.2732793244,349932.8563427969,350008.64319580275,350097.48685623833,350203.3877115337,350332.1650895455,350492.64931708307,350698.9199191661,350974.7523518294,351362.7868297067,351942.20528252114,352845.1590387997,354191.36559532036,355977.6704329265,357896.77399166604,359926.77366264473,362045.2446925758,364231.7890382914,366468.241239291,368738.55574832007,371028.6404091923
H0,555236.2868669627,553987.005221512,551992.6520027146,550005.4784555048,548025.4587330649,546052.5670816259,544086.7778401321,542128.0654399076,540176.4044043239,538231.7693484683,536294.1349788138,534363.4760928901,532439.7675789557,530522.9844156716,528613.1016717751,526710.0945057567,524813.938165536,493835.2298564778,463551.88836277416,433988.7338463619,405172.42720757687,377131.53862038616,349896.5920339381,323500.07415082026,297976.3930317378,273361.7675142712,249694.02416879823,227012.27381746582,205356.43525157348,184766.57063001016,165281.99657776207,146940.13928897073,129775.11360278494,113816.02795442159,99421.89522727573,99063.97640445754,98707.3460894015,98351.99964347965,97997.93244476312,97645.13988796198,97293.61738436532,96943.36036178161,96594.3642644792,96246.62455312707
S1,393762.9279180128,368662.7680498153,347213.67747584684,327283.8432882514,308762.5251883667,291547.81078085286,275545.5950252324,260668.80092634645,246836.75033393316,233974.63312302265,222013.044802179,210887.57474302908,200538.43407331308,190910.11618922075,181951.08511753287,173613.48830994582,165852.89127870725,162197.06247950633,158677.46958345588,155292.5724223562,152039.51401848072,148914.20111932885,145911.33015336905,143024.34128474994,140245.26675655736,137564.40917957915,134969.72524116418,132445.66513278612,129970.94423514474,127514.0996923641,125024.25533370806,122411.71335521633,119513.14998766874,116090.77907409832,112099.10407406092,107015.32444391739,102961.29679423763,99103.89798248206,95443.85350035921,91973.7230843532,88684.77763141127,85568.04950291247,82614.61735807508,79815.73036426102
E1,0.0,80.21761901656454,133.43616247559882,169.68674088220965,194.82763176099132,212.54092588633537,225.1923044500574,234.3360726521212,241.01644504162368,245.95032732638384,249.64021613279823,252.44526213855664,254.62687486018822,256.378564814617,257.8458483357538,259.1397708858644,260.34625597138836,261.53267347771134,267.19049318370764,277.07527298381444,291.26700242122536,310.1693570524327,334.5524374242881,365.65127680730234,405.34725197500285,456.48619585034584,523.4393674972555,613.1230713699429,736.9348796142576,914.6212847986509,1182.3707894485283,1609.8745734908416,2330.0355126972254,3528.393353978263,5135.271785259597,6684.358074085465,7092.912182620052,7404.030300964174,7621.968597384206,7759.134988360316,7827.736104644041,7838.744954006991,7801.813885232297,7725.359623716885
I1,0.0,0.0,1.6361419815859168,3.7032881231269523,5.682953190663496,7.383533182870751,8.765166697585428,9.852188017893816,10.69089977637449,11.33038165743617,11.814703689882403,12.18055695891995,12.457281457769618,12.667812967196486,12.829859852669253,12.957015127107404,13.05969951393708,13.14591796814159,13.221847558565742,13.382803855667945,13.680990489159331,14.149361126947081,14.815921454301899,15.71318207801471,16.885839461384045,18.39908459243749,20.350076503291973,22.886268089524677,26.237198053740837,30.773057827163726,37.11871749707187,46.38721038064464,60.6677981243076,83.92476357875387,122.3209993113336,178.13310245540197,243.21598063311887,290.59869643817063,325.37398191168575,350.6842863291343,368.66815474352893,380.8576841919099,388.39594156720875,392.1656391295206
A1,0.0,0.0,14.407381821726993,37.796716109802276,66.7612153250648,99.08253179578782,133.2923689133604,168.40604704749492,203.75743273038117,238.89458263787918,273.5123901022201,307.40820297970043,340.4519800058061,372.5658316850768,403.70973930824573,433.87142018756083,463.05902711955866,491.29581896927465,518.6162241283652,545.8599784794436,573.7893257612702,603.150386381613,634.7319375587014,669.4295183357774,708.3246627492316,752.7935457186559,804.6684173121494,866.493331931565,941.9527757282649,1036.6309016270666,1159.4350397209405,1325.415816139407,1561.5386262960783,1917.560099079511,2474.570224747902,3297.901269941304,4366.520714800867,5465.773214674543,6576.9335822316125,7682.790061237067,8769.047873513598,9824.176388156071,10839.076992379163,11806.74861554126
IH1,0.0,0.0,0.0,0.32722839631718337,0.9037417278147367,1.5869974819586705,2.267634514538969,2.8831771330475635,3.407355555599424,3.836337973607577,4.1780306270141585,4.44518783380545,4.651504308606737,4.809673222566261,4.9306077550570215,5.023288490010021,5.094909773841257,5.151141269933266,5.196409616379764,5.234156375046217,5.285159865784921,5.370216314540641,5.506280878936537,5.707404808261899,5.987093086141217,6.361015619593385,6.850020175203872,7.483928670264666,8.3070943324012,9.387529665756055,10.833169031512947,12.822778779012797,15.668059153088485,19.942207665364368,26.72375108815496,37.78278415726364,54.45680619510884,75.78338169987379,95.8886645406863,112.86379342122498,126.38591981603062,136.7218514727558,144.3109794563407,149.60090088450212
IN1,0.0,0.0,0.0,0.32722839631718337,1.0416755183466915,2.0948295134955455,3.403743455366682,4.884142061233908,6.463367228436755,8.08384118562072,9.702413991237188,11.28820595494547,12.820149020218562,14.284730648828107,15.674107792696358,16.98460729319924,18.2155688087802,19.36846903493386,20.446267377062405,21.452921610413394,22.411135612478784,23.352235440238235,24.311628714183794,25.327488094691397,26.441430790787123,27.700679828280315,29.16171393721272,30.895919792682218,32.998456683548184,35.60276952321413,38.905652774383206,43.213111976608914,49.029248749205465,57.23563925892216,69.43610331703564,88.3385756925624,116.8894090772508,156.16993926616436,201.7807012015795,250.69316677104752,300.7498782659877,350.3938961073972,398.49940864328505,444.25939342104664
D1,0.0,0.0,0.0,0.0,0.0005300949692454683,0.0019941150506427945,0.004564978065159671,0.008238441804166403,0.012909056307287472,0.018428815774320637,0.02464350705118505,0.03141172472929551,0.03861272480927449,0.04614794810030576,0.05393939776571223,0.06192675581805242,0.07006425240328733,0.07831777217806549,0.08666238439325223,0.09508032925006611,0.10355942212184326,0.11212113830552986,0.12082064202872934,0.1297405640954791,0.13898629768815435,0.14868511344218652,0.15898966652250618,0.17008638451817132,0.1822100051542417,0.1956671163469545,0.2108744831447808,0.2284237193028326,0.24919603184967404,0.27457756789106946,0.30688302816906843,0.3501742772496274,0.4113806518530075,0.49959817615741264,0.6223637730421432,0.7776990044974671,0.9605331649062087,1.1652725488715265,1.386755667290697,1.6205328244006874
R1,0.0,0.0,0.0,0.5762952728690798,2.2779886180156446,5.48374473790945,10.40833744542331,17.146484192877068,25.715527077676562,36.08720816278245,48.208663980972176,62.01532367283626,77.4384140354379,94.4091200529179,112.86077538117515,132.72994130106446,153.95688386341243,176.48573951174916,200.26452815698656,225.2450972086732,251.41492130444226,278.80417253785794,307.4857751018366,337.5755179540057,369.235094811075,402.67954671889845,438.1905791669965,476.1381353922733,517.0145497317071,561.4893346981205,610.5000639103448,665.4103343121276,728.2996616507427,802.5224053942749,893.7804018477748,1011.6868138685084,1169.5700438511844,1380.8219414784837,1649.8535382676214,1977.037544640098,2360.86118957108,2798.9056775269355,3288.2996830920506,3825.937456051068
G1,0.0,0.0,1.6361419815859168,4.3577449157613195,7.818725232548644,11.792486501021298,16.127533288884276,20.720621288226834,25.500208253865033,30.41605004547651,35.432524740897215,40.524259485887725,45.67320676830538,50.866650860840096,56.09582293319146,61.35492214869731,66.64041258636995,71.95051084614929,77.28480762383008,82.73450294435858,88.38581112011715,94.32657795356863,100.65288273170228,107.47651193713585,114.93444215171107,123.20202306731812,132.5126488151476,143.18887100269708,155.6943082027231,170.72504719764234,189.37992999841597,213.4959098808175,246.3313817767383,293.85546648090764,365.82160764498894,470.56211051359077,606.8982296734684,751.5673377317678,902.5821017805512,1058.041998962674,1216.2995819087223,1375.9563732545148,1535.8377043065775,1694.9657784957728
H1,158638.9391048465,148556.86795709384,139940.01632181316,131931.47441746487,124487.81739580004,117568.72209039622,111136.74546829033,105157.11890649407,99597.55716304245,94428.08099296642,89620.85243455187,85150.02186086474,80991.58595616595,77123.25583686691,73524.3345924157,70175.60357326154,67059.21680110644,60589.57244869153,54677.24493524001,49273.48997894228,44334.1736206488,39819.38251463715,35693.06538824832,31922.702277231238,28478.998185328837,25335.597815849145,22468.817990867024,19857.394332057956,17482.238763647725,15326.204472301899,13373.855208367244,11611.236354806699,10025.64616442215,8605.407112025554,7364.590908290772,7196.46752337391,7039.064443903249,6891.620572403434,6753.42915880543,6623.833918549047,6502.225427963635,6388.037777121377,6280.745461772263,6179.860497283512
S2,393762.9279180128,417167.7256804358,438502.4177867026,458051.1259347404,475942.72629715153,492296.932903549,507224.9358812567,520829.99559723306,533207.9974067196,544447.9697569612,554632.5677016361,563838.5236840481,572137.0674123622,579594.3166457039,586271.6406907728,592225.9983653926,597510.2521214917,615694.2948674087,633259.5531014377,650192.1780861351,666477.9460554546,682101.8721733561,697047.7599719191,711297.635496931,724830.9758198573,737623.5649903257,749645.6561433934,760858.7931146788,771209.9258204305,780619.794761171,788958.6809176028,795994.569543458,801295.6074442976,804197.5057183175,804330.0206351635,796148.573063073,789667.7252126789,782871.5048161906,775824.032764509,768565.8783349773,761131.4201415522,753551.4144172736,745853.655330365,738063.274026965
E2,0.0,28.076166655797593,49.892140251259605,67.73356612478014,83.12594984992528,97.07945563884392,110.26270971487628,123.11873593868728,135.94180354513705,148.928204613477,162.20977219933764,175.87601400729505,189.988743604923,204.5917621890494,219.71726727607756,235.39008994894135,251.63048642133774,268.4559637970046,291.7754925500428,321.86985212534677,359.49834733772826,405.9752284313009,463.3217553708476,534.530995108501,624.0148692504749,738.3647707620302,887.6816522034227,1087.9962282385645,1365.8919585123097,1767.8255071118367,2379.8924499045083,3370.4126480333034,5068.138013228266,7960.163567426285,11975.065649744734,16049.5381288971,17384.45968706127,18550.681820143072,19537.27789794143,20356.972117984715,21024.888012820964,21555.652410934992,21962.901113162443,22259.23090497278
I2,0.0,0.0,0.572649693555071,1.3612044775629968,2.198236279909279,3.014402914462316,3.7887026737893827,4.522172029125775,5.2244689072409605,5.907390065439568,6.58201718867149,7.257688193405509,7.9418314548023226,8.640164765532592,9.357012183199481,10.09562485231136,10.858459921591624,11.647404831923833,12.463949127838163,13.429507623304533,14.622656066252585,16.106026908165497,17.944005451682674,20.216449086851988,23.032319715255014,26.54698131923401,30.988092263848138,36.69826954610297,44.21005050157146,54.38516153707599,68.68818218311353,89.75389066390288,122.59625495246257,176.92897582218205,268.51520603978395,405.3560594217149,570.564701911054,696.9173373117094,796.5155257237241,876.3973404668878,941.0451519814209,993.4568465174857,1035.7294888900956,1069.3994377638546
A2,0.0,0.0,5.042583637604448,13.801693680922238,25.414825565269897,39.32796136612741,55.19067311413911,72.78663770769666,91.98775369736074,112.72389553739873,134.96299748919043,158.69795414928774,183.93802024601624,210.703182264509,239.0204940878586,268.9217102371681,300.44177480726484,333.61787222027294,368.48884386217907,406.15325047109883,447.71613938505436,494.3747300087839,547.5143971879094,608.8281265587201,680.4787502549277,765.3349846047446,867.3346359006531,992.0721667175175,1147.79743692262,1347.2047999120439,1610.8246240770616,1973.829147740846,2500.214590883752,3310.4623870433506,4607.718784500399,6574.176227271486,9193.765737702022,11948.328529441118,14802.16662895539,17719.047518352807,20666.47329351435,23615.962209009336,26542.79882185636,29425.705347184798
IH2,0.0,0.0,0.0,0.1145299387110142,0.3293203316288706,0.6037739379879437,0.9037894658441141,1.2081711702651219,1.5065628091649592,1.7957346234909326,2.0764363172389113,2.351257864910777,2.6233576414115167,2.8957953928035116,3.171239594004028,3.4518849711855557,3.739475560980437,4.035371986190301,4.34062984224624,4.656073125753732,5.006395462972854,5.419618814079449,5.922235255169911,6.54032496887408,7.302857275818709,8.246062287664916,9.419069165595225,10.89189457622859,12.767956828492235,15.205305011054906,18.455052917352546,22.935266557393255,29.381257333294478,39.162283370027225,54.903495749495804,81.06584794184299,121.4728129057429,174.65256645860472,226.4268215574753,272.1497148745493,310.91345549504337,343.1620926291881,369.7165087928102,391.4052284148612
IN2,0.0,0.0,0.0,0.1145299387110142,0.37759715831505475,0.7869994495884647,1.3268425597293212,1.9783050002034641,2.724280149659501,3.5509631867524014,4.448014387033883,5.4081385594294,6.426492429995778,7.500106338783542,8.627392049674771,9.807753353397498,11.041292025047781,12.328593117434174,13.670572309691531,15.068369845338658,16.54731759889671,18.146433549407096,19.91413688474555,21.907845549159358,24.196349873892245,26.864722568389745,30.022294942435995,33.81517270527992,38.446282117913356,44.20880282001286,51.54477648424224,61.1537538159416,74.20620820548865,92.78165347896365,120.73577768595837,164.76806461320695,232.64160223129556,328.1203000238653,441.22182474429115,565.183725051756,695.192826455256,827.7179565925227,960.110361948839,1090.3528631469321
D2,0.0,0.0,0.0,0.0,0.00018553323923591397,0.0007190170475833454,0.0016971030899043844,0.003161200504716229,0.005118382297472888,0.0075589448372121336,0.010467952431680676,0.013831683874657327,0.017640613599631177,0.021890332462342475,0.02658138796658857,0.031718650422943744,0.03731054549755654,0.04336832411579931,0.04990544134947639,0.056937062286496684,0.06447968685141581,0.07258981750891183,0.08136935101182606,0.0909631000592368,0.10155812604796581,0.11338841934340704,0.12674666142744348,0.14200512076609273,0.15964948960874745,0.18033299311425188,0.2049648887043592,0.23486122661008565,0.27201530479281566,0.3196115919053472,0.38305269185956525,0.47199383272127404,0.6033167822428541,0.8000971587203737,1.0830262928893282,1.4498273418224894,1.8906973774313507,2.3943628920491378,2.9502697173301433,3.5491934768931674
R2,0.0,0.0,0.0,0.20170334550417793,0.8202097380051334,2.0317078911388107,3.9697507875294855,6.73555053930084,10.409560889110386,15.060563185942588,20.751813131990435,27.54483045551629,35.50156132205791,44.68551333477702,55.16228556397442,66.99976625740796,80.26816345129944,95.03996311601219,111.38986577204567,129.39472673757646,149.17584709040014,170.91310566002886,194.8514063137146,221.30819225473866,250.686265294162,283.494935190822,320.3831896086448,362.1908503173942,410.0282287707964,465.40359406016205,530.435497205357,608.224667732039,703.5437906636031,824.1868086826179,983.6181168068072,1205.0493703422792,1521.7470176703146,1968.868296220908,2560.409663369771,3301.050944144004,4191.158069005269,5228.957628752381,6411.47612737453,7734.949731225115
G2,0.0,0.0,0.572649693555071,1.5902643549850253,2.971777948356506,4.667239094873255,6.6473000199852486,8.896250444837394,11.40741613460289,14.180124855697882,17.21770800510563,20.526185885308248,24.113404424067266,27.988470316718463,32.16138364059839,36.642801182990056,41.443886193194864,46.57621507216372,52.05172130084758,58.00285944744922,64.56781093971908,71.90024420813303,80.18063351491641,89.6306793307588,100.53312959390261,113.26071908398362,128.32062255629134,146.42603674408542,168.6171255179951,196.47625675412823,232.53334201499615,281.07432336903094,349.8182439231518,453.18946677385634,615.5472873203311,859.7942231181756,1187.1452893762007,1541.7238055412777,1920.088928877976,2318.5769539106295,2733.783701611918,3162.6134569405513,3602.2688379201554,4050.230582349953
H2,158638.9391048465,168081.7330991826,176691.9649401752,184584.20461863597,191810.45035537588,198418.97956989284,204454.61472432717,209958.97017772496,214970.6814070254,219525.61785430196,223657.08056981978,227395.98573693275,230771.03508726912,233808.874142623,236534.23915308228,238970.09353881338,241137.75458525095,229536.17616239088,217741.6810922372,205825.71060002767,193855.25440649074,181893.3543664316,169999.55593242942,158230.30466447485,146639.28297971573,135277.68001575064,124194.38491600717,113436.09117633081,103047.29719906322,93070.18637137735,83544.36957853212,74506.47516025444,65989.57730008369,58022.46522407396,50800.888144300094,50722.15787412681,50632.356055866294,50532.38022976574,50423.06288696401,50305.176125843405,50179.435975670196,50046.506411290575,49907.00308095055,49761.49676773249
S3,1181288.7837540382,1176084.3007364797,1171205.665800251,1166623.4092013193,1162312.3984109086,1158249.7420318816,1154414.4650921216,1150787.2738835067,1147350.376564085,1144087.3396207045,1140982.968318354,1138023.2039410712,1135195.0333764697,1132486.4082232022,1129886.1715747006,1127383.9912232356,1124970.2983925124,1147817.0264776812,1171662.2812134833,1196547.270396881,1222516.4925678389,1249617.7951760094,1277902.2885344643,1307424.0329485992,1338239.3618545705,1370405.6050066997,1403978.785500111,1439009.4741905336,1475535.133010223,1513565.312858949,1553051.4218300486,1593822.8105453753,1635464.6753003711,1677256.4470004267,1717713.4497613653,1704999.0645599028,1694639.6228892307,1684143.8125539667,1673563.4422537223,1662922.8348408788,1652240.5754922223,1641532.671815792,1630813.2983400524,1620095.0755869872
E3,0.0,48.13057140993872,82.69553743405534,108.61623237037857,129.0105899697268,145.8810701015825,160.53200765718006,173.8255327760678,186.34025514985154,198.4708073750222,210.4910436485578,222.59465601859122,234.92159558748835,247.57546278944028,260.6350811368246,274.1622783420195,288.20716439435125,302.81173825952993,324.28845086406835,352.9450175004738,389.6216818143866,435.7758571911623,493.65475226959177,566.5983975726006,659.5537115532646,779.9530560953498,939.2580235387784,1155.7838755489186,1460.1287288751032,1906.2020981797739,2594.8420676672695,3725.4605827324444,5694.128203900595,9110.466698125769,13970.646213331787,19071.444360946225,20818.880860403144,22348.931761753614,23652.742322424892,24749.130126707918,25658.905784433653,26401.52602639984,26994.64588621374,27454.190228636915
I3,0.0,0.0,0.98168518895155,2.275693442570062,3.5807844576925323,4.779808339662024,5.843317907915081,6.780248449430455,7.613545394469851,8.368777493418493,9.069335038181114,9.734837814069518,10.381008291843983,11.020134437511265,11.661702095383252,12.313010479422566,12.979700174082584,13.66617758801011,14.375943189561848,15.239847852130238,16.342678350711804,17.75244460505816,19.539678396003218,21.79253351564525,24.632026477101846,28.231665981548414,32.847149872974825,38.8656708420078,46.893107928138896,57.917076679153496,73.6297006267456,97.10297690081211,134.2473680472928,196.68752240168948,303.8322525380564,467.2487312195361,669.3359869170639,826.2295654425814,951.5730775277489,1053.3720856964003,1136.8137364069044,1205.4347768092432,1261.7541003562626,1307.6431403405209
A3,0.0,0.0,8.644429093036194,23.151077086926684,41.732912085374835,63.234375930858704,86.90578200982299,112.26169455618468,138.9909370043393,166.89870029739944,195.86884521837788,225.8390633481935,256.78432641458176,288.7057430130913,321.62298441757923,355.56909204604835,390.5868901461813,426.72648993564377,464.04354135336825,503.7252079336541,546.966433476969,595.0652749061364,649.5296237151551,712.210662742424,785.4854093795325,872.5242852197168,977.7057747459523,1107.291767545647,1270.5831665306705,1482.0043737221943,1765.0851637900078,2160.525014247097,2743.210548316896,3656.1686655910257,5146.195519495496,7449.527561685332,10576.848583221823,13892.922838681236,17351.15693922251,20905.230886958838,24514.057191833002,28141.929526081312,31758.064316047312,35336.080240521405
IH3,0.0,0.0,0.0,0.19633703779031,0.5529891504276201,0.9917556497328031,1.4502328942072387,1.891430718021346,2.2987010180254104,2.668335797859208,3.003600816203431,3.310801720400338,3.597005076324404,3.868877213552841,4.132198090927942,4.391745493465436,4.651360416673476,4.914085252960545,5.182317551724312,5.457952297415067,5.768104087148695,6.143243650080747,6.612158973557908,7.203303772203316,7.948489568037662,8.887773891490546,10.07582235665279,11.591018783584271,13.549866642252713,16.131604745271076,19.623085249860672,24.505694253654173,31.633744408083885,42.61510060080549,60.5760202754941,90.95633027535884,138.780566305051,203.03266239406764,266.43334069974003,323.09967608336535,371.7008485488237,412.611033256985,446.72406107170957,474.9891781505596
IN3,0.0,0.0,0.0,0.19633703779031,0.635749424746793,1.3009837431370181,2.152738569119066,3.1489710277030287,4.252792872374959,5.434859635761911,6.673291048288624,7.952637475459372,9.262610732337201,10.596891196283595,11.952123030133933,13.327116363097751,14.722236474038597,16.13894750042288,17.579477586236465,19.046576498153037,20.568943925348165,22.189938110040334,23.963046348380633,25.951578040677045,28.23140235787072,30.89651476699425,34.06808357971705,37.90871127690397,42.64541466328153,48.608202646708804,56.298174027211736,66.51471505061568,80.60758175221724,101.00050924727203,132.2480247792026,182.42160732123637,261.259657067986,374.20034869319363,509.4733764172744,658.9799404046598,816.8710550157915,978.8036588592563,1141.4899126618116,1302.4091068236937
D3,0.0,0.0,0.0,0.0,0.000318056981547281,0.0012138740010606752,0.002820472592628332,0.005169783257917877,0.008233814129271719,0.011957604176739307,0.016280185586610926,0.021145880924211467,0.026509227613880467,0.03233621059203789,0.038603613942769316,0.04529758501795502,0.052412010961710546,0.059947001154420296,0.06790759351240369,0.07630270987186157,0.08514434185674913,0.09448840549271172,0.10444017798680919,0.1151515717630903,0.12682059295613696,0.13969678090479143,0.15409456630695934,0.17041693564404914,0.18919385358503377,0.21114401506809444,0.2372764736736604,0.26906497029894505,0.3087630692045733,0.3600082818995868,0.42904278714613003,0.5271731571456383,0.6745182336812994,0.8993363755519581,1.2282399613620543,1.659849733416484,2.183256365555513,2.785394664363221,3.4538055829947862,4.177478039542481
R3,0.0,0.0,0.0,0.3457771637214478,1.3857150676511996,3.3824486994282843,6.511908403479391,10.885687253974982,16.574098240447203,23.623728545140498,32.069168542123066,41.94024333942537,53.26620103948935,66.07799782865723,80.40946120960922,96.2978267178892,113.7839451314075,132.91232995402373,153.7311376097182,176.29212776571086,200.69571437499548,227.10596524309878,255.75757874705596,286.96424716934536,321.1330079510793,358.7879619965763,400.6075847346971,447.48252918026964,500.6061400559116,561.6202336404654,632.8596549173164,717.7840031957923,821.7855795710641,953.7874198221857,1129.4317056946368,1376.1604045777813,1734.2313686800317,2247.622100919635,2934.828231028354,3802.899230465289,4853.441606513474,6085.284461899122,7495.66786113016,9080.784090217277
G3,0.0,0.0,0.98168518895155,2.668367518150682,4.883735910301177,7.515073575347682,10.490506479465548,13.764764184146955,17.310160508958532,21.110810765695113,25.15887930782513,29.452116098985982,33.99222170238826,38.78375116479313,43.83337259766962,49.149361819862236,54.74125570629128,60.61961318985183,66.79584982660762,73.41013176500076,80.60890140443442,88.5557389990655,97.44395063203382,107.51267711007714,119.06918347779184,132.52163357307916,148.42978385712493,167.58716477534784,191.16087019828205,220.94208212055221,259.8215367398057,312.74669326457047,388.732275171376,504.87137674468977,690.6911158417325,975.6404955384348,1364.6272437237772,1789.2552170161202,2245.0905552783206,2727.5187944580716,3232.309279447136,3755.6558144122364,4294.149048682953,4844.739728809717
H3,475916.81731453945,473839.4026357855,471891.71396023943,470062.75878366805,468343.0001345022,466723.5995423739,465196.3669220195,463753.7140396256,462388.61130569683,461094.54765680444,459865.49330554897,458695.8651538339,457580.49467918207,456514.5981174183,455493.74877766153,454513.85133728915,453571.11797541665,452662.0462135412,451622.43602083775,450451.0785908098,449147.6256811248,447712.52944814507,446146.9887785347,444452.901442671,442632.8213671306,440689.92027216306,438627.9528415111,436451.2244834986,434164.5606029972,431773.27613605635,429283.1439107722,426700.3602064983,424031.50571859005,421283.5000435552,418463.54784347885,415581.1240893582,412721.7832680674,409885.2012176891,407071.0671626579,404279.0828278139,401508.96161527076,398760.4278396158,396033.2160172772,393327.07020619215
S4,590644.3918770191,600415.8681297594,610148.4756477447,619841.7821839813,629496.1403244179,639112.3710431935,648691.5191050746,658234.7081552008,667743.0555615844,677217.6231909842,686659.389842502,696069.236744041,705447.9409136494,714796.1732281051,724114.4992724307,733403.3817909515,742663.1840161745,768782.1922342479,795009.0937343485,821335.072849421,847748.8377061641,874236.0711434803,900778.6531889972,927353.5282694042,953930.9922939283,980471.9868084908,1006923.6100271803,1033211.2589265762,1059224.052877156,1084786.0987950931,1109596.5122854586,1133100.7533847443,1154245.592123752,1171380.8252563835,1183661.46622436,1181524.5841510613,1184068.4500375264,1186139.1996585273,1187846.5464586667,1189245.5269473041,1190379.7253814184,1191287.4961364102,1192003.380971609,1192558.612373392
E4,0.0,72.1958571149081,125.43812441778884,166.70976797342135,200.50066264224733,229.73361781345324,256.3372443435171,281.603523030906,306.41308055827204,331.37850589541,356.93644446177836,383.4073807265194,411.0348371505563,440.0113258717932,470.49568509618365,502.6247533976283,536.5212839703303,572.299336489649,622.6832564972561,688.5035512628608,771.6910347354833,875.4779690467926,1004.781079344308,1166.8592187782378,1372.4188269252218,1637.494168179328,1986.7405579584852,2459.4423632256526,3121.0271406120232,4086.3718057594137,5569.476616159201,7991.283737076734,12180.928598857427,19389.301157174858,29511.958804706446,39930.545374253656,43506.874180140716,46740.5696208093,49591.4548032218,52080.53236271535,54235.97451277719,56085.662426811934,57655.8560050864,58971.011694858826
I4,0.0,0.0,1.4725277834273254,3.441989284519832,5.465454678753989,7.368742870145132,9.106959674885758,10.692505092888387,12.159170741733792,13.54519311093916,14.88600863772314,16.211785131895812,17.547159974159634,18.911882548159376,20.321729017861536,21.789404792076546,23.325324115601788,24.938239245309482,26.63572792976784,28.681866285386512,31.252039250798404,34.49085923429908,38.551019843147294,43.624420203526356,49.97425347963543,57.97680723795684,68.1848935570824,81.43307669696142,99.02335063345886,123.07139130246256,157.18966738182468,207.91047181967127,287.7388397057823,421.08908044488425,648.123296484632,990.8085073766715,1408.920167886899,1732.731010831747,1992.9729130689539,2207.265541070825,2386.609070604001,2538.178215821242,2666.846477768468,2776.073561667154
A4,0.0,0.0,12.966643639554295,34.97713016306646,63.51973744318599,96.98961041101529,134.37103560446664,175.03531376103447,218.61093813077355,264.8994260512981,313.82025741716853,365.37455606357554,419.62096107131424,476.65950349490936,536.6207890405058,599.6587271167626,665.945647471262,735.6690335905291,809.0293551622556,888.5044027276908,976.6220173915889,1076.155707959202,1190.3485691476244,1323.197033952943,1479.8413949929532,1667.1392494281038,1894.553703872537,2175.5975267466206,2530.298593706604,2989.6346971583575,3603.976837823559,4460.116416151881,5716.975950307173,7676.036855444956,10851.385764444429,15717.78756532205,22260.750074099004,29184.315997063582,36411.722974772994,43862.06322319699,51461.43742085067,59143.96205311324,66851.39650807537,74532.54617376356
IH4,0.0,0.0,0.0,0.2945055566854651,0.8351735497743781,1.5093247678550106,2.2259659211705984,2.9307689330304565,3.5991377740601673,4.2255725975263285,4.814979687464723,5.376891525382225,5.92209247181217,6.4608847129930815,7.0023525297047495,7.554178579012835,8.122732825660748,8.713272781929419,9.330169138405392,9.977115709777618,10.708768642862402,11.587444458347523,12.673122948335273,14.026235565820802,15.715279966360697,17.82703264751785,20.47999879743061,23.843801452925828,28.169890202879564,33.843981300120404,41.48144321563032,52.11145705181761,67.55340472340606,91.21503689059361,129.67757036490625,194.25337277274264,294.97370632176376,428.7930428850367,560.2480985780361,677.811055720766,779.2606133027459,865.6897543776549,939.0781427205487,1001.3871034637691
IN4,0.0,0.0,0.0,0.2945055566854651,0.9593139612531374,1.9755652909224408,3.291074055176931,4.848855906074328,6.598970856255817,8.502237359787324,10.530259551562722,12.664003320024793,14.891992719298539,17.208598485661312,19.612592127680678,22.105998787034338,24.69322247635827,27.380397302456686,30.174916490775132,33.08509663022945,36.17140338674826,39.52453620504883,43.25685212234158,47.5022472675236,52.42227271610096,58.218178178144434,65.15035107779967,73.56888461371827,83.96274289765334,97.04212354627919,113.88347360205,136.19951205320046,166.87223026150292,211.05378343134026,278.36650876182466,385.69442919799417,552.9625867404466,790.4551484336512,1073.6870815661282,1386.2809431077894,1716.6950318881727,2056.5121548023176,2399.4242660892705,2740.603285179315
D4,0.0,0.0,0.0,0.0,0.0004770854723209216,0.0018300282552973315,0.0042750650412307885,0.007881027573225223,0.012628738605963528,0.0184591764564773,0.025304409942751575,0.03310445583751592,0.0418147730956213,0.051408290840551936,0.061874627264218655,0.07321811667606604,0.08545553893704573,0.09861399295835918,0.11272909457957415,0.12784353995822026,0.14400600906193026,0.16135372230529002,0.1801248500035947,0.20065472697988895,0.2233765842348641,0.2488346158244485,0.2777135897441324,0.3108902469500924,0.34951610992572574,0.3951500379368796,0.4499757328592779,0.5171737652217661,0.6015919316587759,0.7110253439246544,0.8587895132920804,1.068861219928997,1.383542759870854,1.8613866130959056,2.5560116439275538,3.4635878259704107,4.561610597772475,5.8239769922907625,7.22635462481789,8.747618075016819
R4,0.0,0.0,0.0,0.5186657455821718,2.088593182783857,5.12380906147998,9.916295671622633,16.667730140466354,25.52291322581915,36.59548728289543,49.98526705412295,65.7890251536246,84.10682078596416,105.04553169319198,128.7207370570974,155.25768402778866,184.79177967105696,217.46886197975977,253.4453883750891,292.8886125972813,336.0674130618362,383.38395311079006,435.389759587899,492.80507265141904,556.550930384575,627.8011714013571,708.0634462501763,799.3040389792909,904.1425978310758,1026.1647761588456,1170.4450828999618,1344.466773045934,1559.8365343735497,1835.658489518859,2205.2125729404465,2726.4035275614337,3483.135260493569,4565.3435885025865,6010.427018861521,7833.0207082135885,10037.447784435633,12623.040279127688,15586.36717031834,18922.152378465278
G4,0.0,0.0,1.4725277834273254,4.031000397890763,7.431261505932853,11.520731568825592,16.20644552162427,21.434774809581207,27.17844249558197,33.42813316148086,40.1870259326405,47.46720588190243,55.287294776924576,63.67088134058817,72.64548082955407,82.2418482109137,92.49352945126957,103.43657422721797,115.10935860980013,127.80978813732594,141.85270761689245,157.59234330071249,175.44884760328034,195.9426559009183,219.74225725843792,247.7345124086135,281.1333216229218,321.6554621856338,371.8189668009158,435.47634772330304,518.8231803236501,632.4198517142266,795.4124083282062,1043.858184949621,1439.3280331673225,2041.262562653215,2855.6976261141112,3743.076536213719,4696.4108427836245,5707.892636013077,6770.142381974583,7876.355155433424,9020.294703709147,10196.26037871522
H4,237958.40865726973,241924.38213489088,245873.04382352243,249805.4747731911,253722.66442972166,257625.52276417584,261514.88609369562,265391.5224847124,269256.136768376,273109.37519592344,276951.82975973014,280784.04220394307,284606.5077468917,288419.6785358849,292223.96685353003,296019.74809334386,299807.3635211546,286699.1040348617,273643.903437828,260654.04034007626,247743.32965698963,234927.28273368994,222223.272468509,209650.69916613068,197231.1506346286,184988.54712733784,172949.25801364513,161142.17249223177,149598.70130790205,138352.68059174126,127440.14326295532,116898.91907406042,106768.02317349707,97086.79752675627,88192.58105196343,91679.77728399241,95142.9533180704,98582.30151197096,101998.01152211837,105390.27041514052,108759.26277203897,112105.17078549956,115428.1743508297,118728.45115097368
E_Om,0.0,0.0,0.3200928805300609,0.4469143827753502,0.4915738290149129,0.507798974200887,0.5205156421627221,0.5405535733614615,0.5721190411887895,0.6165230603462022,0.6739916016239436,0.7445084469472221,0.8281812772450939,0.9253810733892072,1.0367800521012638,1.1633491939577736,1.3063439225501317,1.4672903805062223,1.6872716564414316,1.9758107564907896,2.349291768745576,2.8329787080669506,3.4646912993313546,4.301123128968813,5.428704241568071,6.982738799080577,9.182420159449284,12.398014583544905,17.287221673423158,25.090211504264552,38.31232390674844,62.38719928488143,109.5551538161896,203.77028602850567,364.1602143107208,576.3578698712948,704.1300316338802,859.1043323271856,1027.1058202973713,1204.4668845242427,1389.2684005839574,1580.043565760931,1775.5051948140042,1974.4764950635017
I_Om,0.0,1.0,0.6,0.36652870786072383,0.22903262096974764,0.14744585594154486,0.09882472972369587,0.06991142686609496,0.05297214464748452,0.043452393815469004,0.03864622065728855,0.036934661911510173,0.037346008832684824,0.03929943246521572,0.04245400206993204,0.0466188699318792,0.05169933182545635,0.0576641712014658,0.06452578578107195,0.07312955686893138,0.08417694726175473,0.09842300928255014,0.1168360665495055,0.14076849538574623,0.17218806052891103,0.21403827324921243,0.27084494350573196,0.3497942890085668,0.462750099160916,0.6302452807412614,0.8898944488086915,1.3153660151625197,2.061687143224691,3.471531194065914,6.239076972672055,11.170964252097155,18.458141965813553,25.436526915747056,32.78445897626281,40.61982561885992,48.938553661101075,57.699056171377,66.84646365421807,76.32160060629646
A_Om,0.0,0.0,0.0,0.05748986824528833,0.13545775381723352,0.21832792610783053,0.30079738774492576,0.38225203163579574,0.46404737651482864,0.5482401826650152,0.6370404030596478,0.7326101777449137,0.8370222483387827,0.9522857866886454,1.0803962273081384,1.2233899199461455,1.3833961520735258,1.5626845183944194,1.7637079306996948,1.996199859359705,2.2712148031430788,2.6023077238409735,3.0070288955207496,3.5090191441101477,4.141156040842041,4.950525210590108,6.006629982426415,7.4155614921140875,9.34566842338273,12.076690799887341,16.099918188380823,22.33695689631797,32.64845094331436,51.01902476068861,85.5761627197297,147.55764100459078,245.17134592411082,361.82885667766357,501.65402604917955,666.0598788335844,855.7442022953045,1071.0321903455674,1311.972585932539,1578.3809990442726
IH_Om,0.0,0.0,0.2,0.21967600918794855,0.18278788112309394,0.1369043567853053,0.09771957081232036,0.06846643013539536,0.04810458796942752,0.034568795691612586,0.02591887674796127,0.020646695115813178,0.01767683324262487,0.01627898273006552,0.01597300665390548,0.016451428203955638,0.01752283753043763,0.019072898938505424,0.021038386489469568,0.0233902691813343,0.026283154802922613,0.029934389350472893,0.03460330419617686,0.04061280964485862,0.04839431301369592,0.058556372048770275,0.07199098204157328,0.09004785763827289,0.11483691322825121,0.1497824459224573,0.2006976384280536,0.27800258802150957,0.40162414562203136,0.6124988887905561,0.9995634631466618,1.7459778792171328,3.10435338607344,5.238776176327187,7.698206894575386,10.39352450102469,13.30389034206851,16.418104212077623,19.722266765734133,23.19847694758605
IN_Om,0.0,0.0,0.4,0.6079606013526082,0.7049850074596453,0.7383493507561683,0.7357446023420252,0.7134537739951943,0.6810752438703136,0.6442680897117492,0.6063580543005342,0.5692832333648989,0.5341547211785403,0.5015912649047576,0.4719204029590191,0.44530019769486917,0.4217934339562894,0.4014131847188692,0.3841510320102997,0.3699947332400745,0.35914410340127084,0.3519580611919716,0.3489556474238946,0.3508570390885109,0.3586640374481327,0.3737919534238233,0.39828096104758415,0.43514194359820224,0.488943539172383,0.5668547651355277,0.6805974978201765,0.8503333121485117,1.112946126879093,1.5408762887041423,2.2856551933245104,3.657869034095305,6.139658604220509,10.215506431177282,15.674299305738995,22.488027976148977,30.65918161388562,40.1882283307668,51.06455933711193,63.264192186125015
D_Om,0.0,0.0,0.0,0.00032399081205143696,0.0006798558550765489,0.0009759638252677125,0.0011977425939089662,0.001356043809412974,0.0014669562809021227,0.0015448835035001957,0.0016008833644390245,0.0016428707540641898,0.0016763174516479437,0.0017049531094318227,0.001731324313602249,0.0017571998505857582,0.0017838504085017856,0.001812236600306445,0.001843133820382752,0.0018772150399976278,0.0019151062015284389,0.0019576837048678013,0.0020061760404374196,0.0020622318035683307,0.002128022689450972,0.002206419253310865,0.002301277885965201,0.0024178999696253495,0.002563773362223931,0.0027498038860754386,0.0029924445675027756,0.00331756552175833,0.0037679169429857794,0.004418529608383513,0.005410749670182787,0.007029996560791956,0.009858400515348979,0.014887310387591788,0.023373887125211625,0.03584462864077887,0.05268166085659635,0.07423335203344658,0.1008299266135273,0.13277909273815364
R_Om,0.0,0.0,0.0,0.13203939864739175,0.29287372814278817,0.44615421809310946,0.5824801865048748,0.7023039039635892,0.8089737750005143,0.9061410671638972,0.996959977721475,1.0839694007798208,1.169195886590159,1.254300183273087,1.3407078123414982,1.4297102795613807,1.5225394668404753,1.6204217516320796,1.7246181744559266,1.8364556050671115,1.9576347559214522,2.0903918282004703,2.2376426434035768,2.403176274067677,2.5919465660135135,2.810518414344753,3.0677577823100752,3.3759201788395927,3.7524207828411527,4.222829618809613,4.826192688254712,5.625053071381667,6.725643061172849,8.321538483296814,10.791970792319898,14.897876577455936,21.96616096770645,33.81696892165638,51.72775798426022,76.89851028345286,110.53892492011242,153.87639253778403,208.14574892870013,274.57598018225656
G_Om,0.0,0.0,0.0,0.006528707860723877,0.015644104114037206,0.02567038747373348,0.036027603632502445,0.046644192664379885,0.057669481192207425,0.06933858821918573,0.08191337258719288,0.09566030210432992,0.11084551379010865,0.12773734095571349,0.14661168354651608,0.1677581522364361,0.19148616210276487,0.21813073420895684,0.24805801726914933,0.28247210266943756,0.3227713158098334,0.37068815673533073,0.4284704177153062,0.49913727317134904,0.5868642364688125,0.6975896734006782,0.8400116529568827,1.0272989758620104,1.2801725016177863,1.632767722862498,2.1445150032264326,2.9259443491037382,4.198411883230917,6.432930791362017,10.589089047594523,18.016607116088444,29.772170530643702,44.13381226690264,61.65635509371721,82.60550532681944,107.17216361660456,135.50808759132093,167.73511754271277,203.9488399564784
beta,1.809647056188257,1.8096470561882572,1.8075426008273103,1.8056169127772623,1.8037739668649664,1.8019525369309122,1.800113492684702,1.79823102500281,1.7962874272344365,1.7942699615560211,1.7921689587198837,1.7899766539437383,1.7876864663186849,1.7852925481751625,1.7827895006167813,1.7801721926103284,1.7774356455062916,1.774574959541146,1.8762560532448098,1.9908594869752132,2.1213150636405524,2.271475733855973,2.446505225173726,2.653472755307657,2.9022923455180156,3.207254829879278,3.589615947937243,4.082134775878022,4.7373269556387765,5.6428638219747125,6.949796316583512,8.914260119915465,11.873140050155666,15.568635995207636,17.026126367203727,14.242406155582763,7.136321316617104,5.293181554371605,4.1910344957974885,3.4638709934991105,2.9502584882385454,2.56937381228385,2.2764457543056653,2.044710888959616
