series,2021-12-01,2021-12-02,2021-12-03,2021-12-04,2021-12-05,2021-12-06,2021-12-07,2021-12-08,2021-12-09,2021-12-10,2021-12-11,2021-12-12,2021-12-13,2021-12-14,2021-12-15,2021-12-16,2021-12-17,2021-12-18,2021-12-19,2021-12-20,2021-12-21,2021-12-22,2021-12-23,2021-12-24,2021-12-25,2021-12-26,2021-12-27,2021-12-28,2021-12-29,2021-12-30,2021-12-31,2022-01-01,2022-01-02,2022-01-03,2022-01-04,2022-01-05,2022-01-06,2022-01-07,2022-01-08,2022-01-09,2022-01-10,2022-01-11,2022-01-12,2022-01-13
S,992000.2285902998,991996.4923272654,991984.4016497377,991968.3754792706,991949.6203795456,991928.6670265635,991905.697762488,991880.7154496434,991853.6261601658,991824.2777516992,998702.6396359317,1005577.7969270298,1012449.3791139746,1019316.9023135027,1026179.7681574228,1033037.2481907338,1039888.45734892,1046732.3167575657,1053567.5041427163,1060392.3886034642,1067204.94490046,1074002.640444134,1080782.2855426942,1087539.8338643024,1094270.1150478888,1100966.474367384,1107620.2844870256,1114220.2804986655,1120751.6500618495,1121677.8571404612,1121107.722623045,1120409.1275073153,1119548.3764685546,1118484.0599896882,1117164.734509987,1115526.6516748995,1113491.3879740771,1110963.467938306,1107828.2340301895,1103950.3802717908,1099173.7414086051,1093323.080933371,1086208.6793458187,1077634.3909272347
E,89.7945239958888,74.19735677301686,69.36931352451063,69.74350597104161,72.73428740814751,77.14424137919511,82.4243807006786,88.32976447727658,94.75881666313289,101.67820523376153,109.08766980343691,117.47849052754106,126.85423610583914,137.28276488625292,148.87308561187967,161.76589249358733,176.13110264781113,192.16921961585652,210.1150742650322,230.24335961000634,252.87582488026632,278.3902459058514,307.23145152444096,339.92481194568865,377.09270930999935,419.4746211987266,467.9515499490671,523.5756044854045,587.6055436892638,661.5489379317006,742.9230620117173,832.271949294824,930.9482578664126,1039.981488647792,1160.2206063444492,1292.3564705839058,1436.87967185021,1593.9953729372312,1763.5037798194198,1944.6522529729523,2135.968782394544,2335.0949247061812,2538.647719798442,2742.1514283829474
I,7.781924823560277,23.321018750582635,32.12167851315029,37.88215925660651,42.33757079617703,46.30704537307314,50.18179402017273,54.153091438375775,58.31900647128649,62.73447240754278,67.43482665114988,72.44690545454617,77.8863260177588,83.84174802086036,90.39377816410459,97.62486997024997,105.62502203540446,114.49563639553799,124.35271840970712,135.33003631292368,147.58259770334666,161.2906886944011,176.66468538351933,193.95085135239452,213.4383624661242,235.46784335105446,260.441754149688,288.8370271874666,321.22041393829386,358.26704934699364,400.782746545853,448.8995197343818,502.82323382709524,562.972636203646,629.8658270136475,704.061515937855,786.1186736191946,876.5576617601926,975.8141569449766,1084.1809312982746,1201.7348985143933,1328.2493376593616,1463.0947351436735,1605.136582310713
A,0.8646583137289197,2.6329069406992742,3.7277146150515277,4.509532723123936,5.150130252118838,5.732808405469687,6.299181919383057,6.8710996756210845,7.460965057852844,8.076626189326001,8.723715040707667,9.406782630421723,10.140088651541483,10.935246945166549,11.80311489285212,12.754823850645282,13.802409049228086,14.959266202648138,16.240550291591937,17.663578748965133,19.248276831660238,21.017692848455184,22.99860815144896,25.222268064935847,27.725263668182,30.550599837532957,33.748991773777334,37.380439957120394,41.516141305432825,46.24080069883623,51.65540892024849,57.78821905262355,64.6738030921315,72.36925573304138,80.94293615927177,90.4684301685278,101.0201481034129,112.66885547220495,125.47622340803925,139.48784609037216,154.7244072385745,171.17094783293686,188.76458602543647,207.38160872402426
IH,0.0,0.3112769930133979,1.084406995830939,1.812883989940492,2.3980114875366443,2.861136824520419,3.24541968405768,3.5875237167030645,3.9129520871379357,4.238045488782635,4.572957824364886,4.924046703966646,5.295481209912637,5.693916029754332,6.126137835170118,6.59867544403953,7.11800599359008,7.690883259764395,8.324651856358235,9.027528219438913,9.80886380571802,10.679412307958458,11.651621332943233,12.73996688336096,13.961348122932133,15.335560586461838,16.885868053255514,18.63969647254512,20.62947731466182,22.893672092183973,25.47801379021152,28.43700312927463,31.802458037257434,35.598105819745186,39.85224961455849,44.59939472355592,49.87869077265475,55.731559229371754,62.198983403260925,69.3183458523169,77.1195596868586,85.62026667446926,94.8199880648752,104.69331020255737
IN,1.5497163114023103,2.9340530487335865,7.265161556747983,12.886661657650048,19.05541733344019,25.453132168186247,31.95860157611337,38.54146240544832,45.21268276844253,52.00159003341117,58.94532145144047,66.0840883322928,73.4591550477404,81.13040676241833,89.16899389373742,97.65452623378663,106.67453798032412,116.32514462464002,126.71239810586201,137.9541345831046,150.1822542237305,163.54545001994956,178.21244976604805,194.37587023527672,212.25681458621122,232.11037809213994,254.2322663011713,278.9667753827032,306.71643734746345,337.953692209605,373.2350114979422,413.2179544001677,458.51619770872907,509.7189256331518,567.4358376165168,632.3147444456522,705.0455882660294,786.35599845919,876.9995811080072,977.7362824127201,1089.303253667636,1212.3742971349543,1347.5061596734643,1495.0708110651997
D,3384.0,3384.0,3384.0040777748673,3384.018283667666,3384.042032717346,3384.0734470242,3384.110928341794,3384.153443821956,3384.2004409157853,3384.2517011696295,3384.3072201953473,3384.3671266224324,3384.431632366015,3384.501003956825,3384.5755951029855,3384.6558484190305,3384.742292047974,3384.835538984295,3384.936290697938,3385.0453448743797,3385.1636068356324,3385.2921044091795,3385.432006297478,3385.5846442684833,3385.751539727938,3385.93443546314,3386.1353335858357,3386.3565409667367,3386.6007237605663,3386.870972979129,3387.1708834857577,3387.50464925269,3387.8771782196973,3388.293795146139,3388.760135622601,3389.282206014982,3389.8664647137625,3390.519882975341,3391.2499746834965,3392.0647906094505,3392.9728712414935,3393.983148934106,3395.1047871515434,3396.346943086362
R,0.0,0.3304739728160201,1.3019341581876454,3.331182531908593,6.473837875940308,10.689664836550747,15.931039217385278,22.166927176633802,29.385557550139417,37.591449029361286,46.80191855208488,57.04439831325333,68.35465934465905,80.77768340399227,94.37038768206541,109.20274854024119,125.35862765059348,142.93676439982644,162.05208973056048,182.8374178353829,205.44555250767286,230.05185341440077,256.857325555919,286.0923169998279,318.02093471294415,352.9463167498618,391.2169325154173,433.23412277124066,479.46113893920824,530.4339982740263,586.7745382382758,649.2061291844811,718.5549574955871,795.7352081441185,881.7467061672232,977.6815446024722,1084.7322504998808,1204.1987605282025,1337.4928827575864,1486.1391132752365,1651.7704427964861,1836.1174331880452,2040.9885161751376,2268.2392915229793
G,178928.0,178945.40008723145,178959.77780674864,178973.21996394038,178986.73463091248,179000.828841665,179015.77759877924,179031.7495239075,179048.8657748618,179067.22782638247,179086.9306942398,179108.06934374743,179130.83393887006,179155.4153351033,179182.01753731002,179210.86567370835,179242.21213577758,179276.3422409762,179313.58015967897,179354.29556701292,179398.91136721315,179447.91281202107,179501.85835733477,179561.39265652,179627.2621674521,179700.33395116837,179781.61836223744,179872.29647296024,179973.75322984124,180087.6174975369,180215.81027272667,180359.77145777445,180521.04637603863,180701.44246450803,180902.9666534706,181127.7903827999,181378.2189648736,181656.6527770782,181965.53195257098,182307.25790908068,182684.0862203271,183097.98721877765,183550.47422550686,184042.40502271682
H,132686.33860218292,132686.33860218292,132686.33860218292,132686.33860218292,132686.33860218292,132686.33860218292,132686.33860218295,132686.33860218295,132686.33860218292,132686.33860218295,127779.30626582104,122943.28132107347,118182.29026731987,113500.61761841593,108902.82241729918,104393.75286080649,99978.5579544284,95662.69478440152,91451.92959547287,87352.33039792455,83370.2483085426,79512.28428573557,75785.23740338486,72196.03041199113,68751.60819691913,65458.80505363589,62324.17770128112,59353.80291915914,56553.04185938255,56023.42995416972,56023.42995416971,56023.42995416971,56023.42995416971,56023.42995416971,56023.42995416971,56023.42995416971,56023.429954169704,56023.42995416971,56023.429954169704,56023.429954169704,56023.429954169704,56023.4299541697,56023.4299541697,56023.4299541697
S0,347200.0800066049,346416.8251025666,345163.17680813844,343911.8271726974,342663.46289928374,341418.3795141455,340176.6753033606,338938.34902218083,337703.3473467497,336471.58713278396,337579.0121674725,338635.8642161507,339640.2846557898,340590.2450607579,341483.5453683194,342317.80631619494,343090.45881949377,343798.7314490426,344439.6364211933,345009.95403834234,345506.21509015455,345924.68018135097,346261.3141500604,346511.75251362455,346671.2550076666,346734.6384776243,346696.1772582311,346549.45325526706,346287.1296548734,345045.4603398515,343549.6047096544,342006.53011179075,340403.33523971256,338724.35436196235,336950.317830084,335057.5677666729,333017.2698646497,330794.65972879564,328348.423912544,325630.37586505257,322585.64772542554,319153.6666085589,315270.19180091453,310870.62130269525
E0,89.7945239958888,72.52045131668581,63.073668993440805,57.98105889051959,55.49683297172653,54.708042661874025,55.11341973009107,56.4220294857823,58.455405414262785,61.09881662173848,64.27615337727534,68.20104338310463,72.82673584753377,78.15164849988217,84.20421444309686,91.03577625532972,98.71770788750145,107.34090782843184,117.01678312556932,127.87933602556899,140.088221482168,153.83278700232106,169.3371965541995,186.8668069298397,206.73602154304982,229.3178974654435,255.05582376484801,284.47761190256654,318.212318654681,357.0100146773421,399.5890112525457,446.2212458871915,497.5736287140858,554.1346030249092,616.2902625477674,684.3362152536874,758.4554125946102,838.6738517136505,924.7991225166155,1016.3454000325743,1112.4504431990172,1211.7944979501906,1312.536785267177,1412.2907702018865
I0,7.781924823560277,23.321018750582635,31.796733294660463,36.414973161334636,38.94196380129866,40.3832570506833,41.327025834685685,42.123651498697754,42.98334775497803,44.031474512013006,45.341180551469385,46.95337333854421,48.940573674902794,51.348900301387545,54.21313637489196,57.56525657486027,61.43953805385563,65.87589143056232,70.92229698614068,76.63684894143161,83.08971520179902,90.3652209164065,98.5642165968395,107.80687281061975,118.23604213372593,130.02133899860698,143.36410549467635,158.5034526220559,175.72358721221332,195.36264655669234,217.8232509832048,243.16337554272263,271.4798261099969,302.97548975667837,337.8993834525156,376.51578945896296,419.0830707085281,465.83325616183,516.9479243049548,572.5279457948575,632.5559272076654,696.8515524017346,765.0218889911911,836.411271544827
A0,0.8646583137289197,2.6329069406992742,3.6916095907748794,4.344771528805346,4.763573648774568,5.048924132140156,5.2628076927002505,5.444581252407033,5.6198230392875255,5.80538495978039,6.0124310430842804,6.2483550041004845,6.523738395037139,6.846135789474133,7.221625253472414,7.655736517376578,8.15404893091819,8.72261327947372,9.368282147881471,10.098998392612863,10.92407346114838,11.854478400588828,12.903166283144941,14.085443390552179,15.419406813858684,16.926467597783052,18.631980844627577,20.566006952001317,22.76423087961285,25.2690681049736,28.130985044288607,31.36321654483495,34.982325462305255,39.01607127920676,43.497429741636154,48.46139322439599,53.94263745818942,59.9731564095584,66.57939498295494,73.77860606585483,81.57428817472096,89.95070714057482,98.86671772505528,108.24939745276866
IH0,0.0,0.3112769930133979,1.084406995830939,1.7998861811979343,2.3329951819067034,2.693654961358697,2.9269182846726327,3.0782490530140683,3.183799693730357,3.2695820083815006,3.3532759972303268,3.4464163147959352,3.5562556859530052,3.6892264221401136,3.8503052786234164,4.043306851396509,4.271367521554087,4.5373855343464555,4.844368521135598,5.195700161805304,5.59535179846946,6.048063863704205,6.559517563517932,7.136513197555487,7.7871687740841775,8.52115119722645,9.349952030012368,10.287220400282418,11.349166748579705,12.555052496929186,13.927781862332504,15.49461212421685,17.271134333634684,19.268812282697894,21.501343376387698,23.985357801021756,26.7395243774284,29.78326780029618,33.13532745372187,36.81209101303361,40.82557275200987,45.18092689501951,49.873450478941784,54.88513625283427
IN0,1.5497163114023103,2.9340530487335865,7.265161556747983,12.82195107295238,18.70543247891739,24.464284745410577,29.8955987004468,34.93524938887515,39.59573102906103,43.9300671075997,48.010587210648055,51.91646927011408,55.72658810100267,59.525843325366324,63.399258641662485,67.42971118095309,71.69760129126817,76.28157537160018,81.25983491205808,86.71179099004522,92.71994930878678,99.37198434160925,106.76300705814162,114.99806224216245,124.19491584941225,134.48721441915097,146.02811979926545,158.99454489263837,173.59214045522452,190.0612088282145,208.68374593516032,229.79183325739612,253.69365918754383,280.6838016941276,311.06580610602896,345.16041460038144,383.30677100005926,425.8592782298067,473.1807256977407,525.6313474613227,583.5530225202898,647.2476821247835,716.9491279123002,792.7879613803617
D0,3384.0,3384.0,3384.0040777748673,3384.018283667666,3384.04186244412,3384.0724250277085,3384.1077123080054,3384.146055372503,3384.186380892555,3384.2280891416863,3384.2709211518877,3384.3148495657806,3384.359998131675,3384.4065856096554,3384.45491502404,3384.505354595383,3384.558322516011,3384.61427806531,3384.6737184901094,3384.737180437656,3384.805244881907,3384.8785448219905,3384.957775357406,3385.043706012296,3385.1371953957387,3385.2392084639278,3385.350836810937,3385.473322572024,3385.608086688048,3385.7567624590506,3385.921235512563,3386.103691524763,3386.3066732462394,3386.532927672668,3386.7853519771033,3387.067022770642,3387.381234522292,3387.7315262653888,3388.121691499655,3388.5557692135294,3389.038013076434,3389.572834146561,3390.1647110032095,3390.818060616162
R0,0.0,0.3304739728160201,1.3019341581876454,3.3242887830369487,6.422080953390095,10.494244349206216,15.415776771511545,21.074383056112865,27.381170675087027,34.271539810530854,41.70277217534439,49.65083951023864,58.10734195947165,67.0779435074812,76.5820267710344,86.65169656947563,97.33086509553337,108.67465798157866,120.74919807548461,133.63176574521185,147.41132415085457,162.18940462480353,178.0813596712708,195.21800536962542,213.74769031098265,233.83884484807717,255.68308298160247,279.4989503161402,305.53643583285964,334.08239322141935,365.46704929435214,400.0718119075598,438.32968249941786,480.71750884463125,527.7546068866897,580.0058304382691,638.0852577462639,702.6591140647056,774.4472659237504,854.2227139430523,942.8083892352909,1041.0703817995286,1149.9065753409539,1270.2295964422883
G0,178928.0,178945.40008723145,178959.45286153015,178971.67506945168,178982.91044815377,178993.66444173607,179004.26558612904,179014.94528315566,179025.87855827244,179037.2058542822,179049.0453818129,179061.5006031994,179074.71637684942,179088.82850195613,179103.97247110552,179120.28928655665,179137.9298995644,179157.05909199273,179177.85925971568,179200.53438669804,179225.31442341884,179252.46025776837,179282.26946877348,179315.08307321672,179351.29350784622,179391.3541334685,179435.79060066122,179485.21447847583,179540.33961353108,179602.00174899676,179671.1819742649,179748.61301730754,179835.0803012514,179931.49848087318,180038.8768598825,180158.29955796048,180290.90797672764,180437.8789695346,180600.39442737267,180779.59895663866,180976.54302216595,181192.11000655356,181426.92755480265,181681.26661181648
H0,46440.21851076402,46335.7280191148,46168.91939824599,46002.711288412305,45837.10152777402,45672.08796227404,45507.66844560985,45343.84083920566,45180.60301218452,45017.95284134065,42519.841308409705,40075.62192424315,37686.96396365002,35355.65269932679,33083.59279578241,30872.810349653668,28725.453003570346,26643.78740991844,24630.193145542766,22687.1519822147,20817.231209872225,19023.05950828709,17307.29369856861,15672.574626182197,14121.470499722054,12656.406323780515,11279.578726026295,9992.856596355081,8797.669610632118,8550.039479757248,8519.259337630121,8488.590004014653,8458.0310800002,8427.5821681122,8397.242872306995,8367.01279796669,8336.89155189401,8306.878742307192,8276.973978834885,8247.17687251108,8217.48703577004,8187.904082441268,8158.427627744479,8129.057288284599
S1,99200.02285902998,92894.9561268144,87505.0427228916,82495.16814980046,77838.4031578291,73509.63075254933,69485.47569473804,65744.20795052341,62265.637979150204,59031.01245782471,56413.29423760715,53961.119221152745,51664.069785690626,49512.32911104406,47496.64805518624,45608.31266136151,43839.11284976307,42181.31248544979,40627.62085280936,39171.16548689438,37805.46626133719,36524.410585718506,35322.22950653984,34193.47442219443,33132.99399935163,32135.910698756834,31197.596061323722,30313.64354502789,29479.837210791033,28621.1800077063,27798.44608252331,27025.417800957457,26297.51804917161,25610.285479387596,24959.303396545398,24340.13848837405,23748.283348504356,23179.10454786873,22627.80208703557,22089.389508168682,21558.70711487643,21030.482865395155,20499.455029943427,19960.56569541369
E1,0.0,0.5883878794144055,2.1155534100239066,3.8118228004085175,5.389725955467525,6.764370645298403,7.931338660184894,8.914813799557955,9.746179699228438,10.455727361385321,11.069903083005878,11.655041138836426,12.222625317550804,12.786167121647717,13.359207820684341,13.954724119252463,14.585135020624621,15.262553604011378,15.999131906793885,16.807440140549375,17.70086348371906,18.694018618163028,19.80320086178626,21.046877038370354,22.446241677646988,24.0258557044665,25.81438749148571,27.845475315360463,30.158726282669168,32.80085673529169,35.64650832232872,38.70632774457975,42.02228635937542,45.62045811601631,49.51824465498715,53.726079378667514,58.24647435316392,63.07155383756012,68.17956740857437,73.53070743133864,79.06264022094315,84.68639772238059,90.28358860109785,95.70615915829457
I1,0.0,0.0,0.11401586613678423,0.4966947379809767,1.1165561118145886,1.8939428192689824,2.75179701404009,3.6306325527483936,4.4898752473228285,5.304735362753284,6.062221147760649,6.757572414563504,7.400021378615687,7.998817725890774,8.563617358637742,9.10439101974099,9.63123960122751,10.154254950477307,10.68346275223041,11.228845900108992,11.80043576223515,12.408458510486533,13.063527171208461,13.776874392219527,14.560625051896842,15.428111454309906,16.39423691071044,17.475895971782748,18.692461288189982,20.0663476103769,21.62366189573458,23.359976275488982,25.273984857577005,27.37282711639994,29.666987694666457,32.167815938161226,34.885968825767876,37.83004157374362,41.005047776894635,44.41058733821525,48.03864204869454,51.87103238210723,55.876686382942395,60.00902125513536
A1,0.0,0.0,0.012668429570753805,0.0557990119626204,0.1272163577358578,0.21897099220646013,0.3228034885988848,0.43193631469032673,0.5414067083682769,0.6478751905302514,0.7492920967047306,0.8445685256376633,0.9342517128979149,1.01903166161348,1.099757541194894,1.1774079376690572,1.2530539878838516,1.3278297004996393,1.4029133647238898,1.4795199343591396,1.5589030308140206,1.642365106909248,1.7312746383896322,1.827089660056263,1.9313874198585985,2.0459003463549856,2.172558900143995,2.3135421988315934,2.4713375451942614,2.6488100968924644,2.849283787505553,3.072748833310234,3.3194265500514177,3.5903996709358994,3.887105587985631,4.211081913630321,4.563797313663931,4.946494119365685,5.360007885679442,5.80454632720741,6.27942041030932,6.782730571977652,7.31102439563257,7.858959601631867
IH1,0.0,0.0,0.0,0.004560634646511423,0.022088442788921463,0.055417495978051796,0.10274146678909757,0.16009850875921,0.2231800833913142,0.2882653199484684,0.3525508715902048,0.41415206935672255,0.47196082725473354,0.5258068873328012,0.5759773354372841,0.6229981948088146,0.6675244251354169,0.7102789734960144,0.7520175294406883,0.793509078899312,0.8355273703983478,0.8788504104363452,0.9242660709436157,0.9725825016815137,1.0246425109031037,1.0813414719133152,1.1436486498935512,1.2126321295674851,1.28948776221022,1.3755727348782985,1.472444475850644,1.5819056026589888,1.704656726750092,1.8409867524838546,1.9913219314532231,2.1562891987682073,2.3366477939978525,2.5331936834044866,2.7466582456186193,2.977598145558174,3.2262684292873667,3.4924725548625286,3.775387641503463,4.073370135856927
IN1,0.0,0.0,0.0,0.022705468314971344,0.11919574017990085,0.3288300431050385,0.6709041719030666,1.1473092155429674,1.7478882009457375,2.455487998973318,3.2498492906974974,4.110287534212006,5.017377601473312,5.955605868629559,6.912956274950367,7.8806179719235665,8.852705974055581,9.825974840680905,10.799535193035487,11.774589108851119,12.754198408864902,13.743095845787048,14.7475455828882,15.775256807324393,16.83535291623854,17.93839827940595,19.096484914799515,20.323382319212577,21.634754995888038,23.04845372336054,24.584888057889646,26.267488548240955,28.116303548678633,30.148981873330158,32.38271070169514,34.83493100950899,37.52348268423129,40.46642407470747,43.68159809212115,47.18594194559577,50.99450569597788,55.11913655068561,59.56679710372494,64.33751916444533
D1,0.0,0.0,0.0,0.0,5.9744991623809476e-05,0.00034910687471535875,0.0010750843076048422,0.0024210127909197483,0.004518327047855465,0.007442019307005119,0.011218337837350446,0.015836806647658547,0.021262260303243054,0.027445017278233206,0.03433316564229244,0.04187855433233524,0.050039923267900514,0.05878459243777365,0.06808935254491087,0.07794089393767727,0.08833598079439801,0.09928151351408149,0.11079458449648635,0.12290260738074378,0.13564358268795756,0.1490665518525961,0.16323228583248353,0.17821425310336259,0.19409991420958383,0.2109923955249168,0.22901260277526286,0.24830184422842624,0.2690250427097633,0.29135629915870054,0.3154734992047132,0.34156011243648915,0.3698078213858262,0.40041825473570686,0.4336034684454385,0.46958509964307815,0.5085920778498333,0.5508566737282552,0.5966085832122248,0.6460667223751144
R1,0.0,0.0,0.0,0.002418859253208434,0.01777617318624583,0.0658302812387182,0.17043892798997523,0.35503887510058685,0.639993765931968,1.0414815692611774,1.5713517438874873,2.237498776096737,3.0444595684746902,3.9942485146763422,5.087271076473478,6.322956084165443,7.700241958853716,9.217971086149785,10.875217494904339,12.671563112187417,14.60733460376986,16.683811602767452,18.903416477454243,21.26989529601328,23.78849927235404,26.466175775701693,29.31177801663501,32.33630282771126,35.55316656293968,38.9785300500004,42.63168471199373,46.5355133439394,50.71629856473916,55.20285502452481,60.02623196462458,65.2198003420621,70.81939938756423,76.86343216132386,83.39286401362023,90.45108963325109,98.08362916352499,106.33760478769143,115.26094201351101,124.90123875274767
G1,0.0,0.0,0.11401586613678423,0.5239608409424594,1.2626033136274244,2.30700666480477,3.617784138265847,5.1546928316691645,6.882176099707182,8.770758714696154,10.796835139630128,12.941924513862862,15.200400014117623,17.568860107879072,20.046521477102452,22.635224786376188,25.33932528338158,28.165584729367282,31.123112118191756,34.2233712255093,37.48026164118902,40.91027669091064,44.53274207284258,48.370141138208155,52.448535678545184,56.79809449158461,61.4537457102135,66.45597273018812,71.85177726176859,77.69583594993017,84.05187797857447,90.95934100308028,98.45972576145547,106.60266606315004,115.44284824166678,125.03833066311063,135.44919344394992,146.73600348055277,158.9578015341416,172.16941364052374,186.4179520430796,201.73845016894748,218.148701508474,235.6435580689731
H1,13268.633860218293,12425.36479042335,11704.64735483335,11034.809225036082,10412.218326743217,9833.502011761546,9295.52852758562,8795.389810590843,8330.385508284066,7898.0081428219255,7105.549315008053,6385.990501985313,5732.717890641511,5139.726512344949,4601.568024976209,4113.302788173735,3670.4558331848734,3268.9763507758626,2905.2003394432927,2575.816072317996,2277.8320556517997,2008.5471661431666,1765.5226708144355,1546.5558548096371,1349.655013418878,1173.0156097872484,1014.9974644063199,874.1029310912191,748.9561284424364,709.2173268475956,689.3390884856077,670.7699157806755,653.4167029536515,637.1929932021056,622.0185037785877,607.818684991851,594.5243107079702,582.0710981013623,570.399354566428,559.4536498497744,549.1825116015447,539.5381426730636,530.4761586074904,521.9553438811213
S2,99200.02285902998,105104.54061260114,110487.7953422143,115421.66041708826,119938.6961539563,124069.11451822236,127840.95217525217,131280.23001171814,134411.09951406848,137255.97738556235,140809.89895238797,144134.9429947791,147242.63540181014,150143.69324370407,152848.06350532587,155364.95904777793,157702.89235359206,159869.70742650717,161872.61012975403,163718.19718469228,165412.48397087457,166960.93113015775,168368.46973444364,169639.52436538023,170778.032786788,171787.45984694932,172670.80167124746,173430.57390004658,174068.7744631889,174156.05246562226,174059.27679927053,173888.6774995323,173644.33058420874,173324.973121589,172927.72887609352,172447.83791344185,171878.37225332655,171209.95055478535,170430.48517223485,169525.01574353734,168475.70556081666,167262.09589664367,165861.72023111267,164251.16259550134
E2,0.0,0.20593575779504195,0.8165241074307279,1.5916401354146172,2.4235421021134522,3.26892054013335,4.114805741704396,4.961791896948123,5.815986614193476,6.68528379461869,7.577739379951119,8.53958163764172,9.577576494552934,10.702629903872602,11.928347327964245,13.270532127342554,14.74717469519492,16.378714746320917,18.188477817561342,20.20324861222774,22.45397681151549,24.976630068826786,27.813221614531678,31.013050008728634,34.634197847741376,38.74534516210151,43.427961274921465,48.77894411313159,54.91377436090235,61.97023581433297,69.72851208906461,78.24088513486251,87.63011981706987,97.98827642191745,109.39008660264659,121.89512262460954,135.54398985344787,150.35059940782128,166.2913620576706,183.29189069445184,201.21212420538328,219.83152872977558,238.8370388391383,257.8173841596713
I2,0.0,0.0,0.03990555314787448,0.18858577042538677,0.45190957778954693,0.8134645487026375,1.2523708085040768,1.7502285323518647,2.293153226000676,2.8717642878607297,3.480454076279717,4.116517032047353,4.7868525731285985,5.498021248605529,6.257128017489688,7.072215158866933,7.952464019775578,8.908346411003242,9.95179062311694,11.096392324528011,12.357686125544683,13.753488969578392,15.30432669515832,17.033957714468524,18.97001169300627,21.14476590784419,23.596087339493874,26.368574200139015,29.514935910357508,33.09765426545519,37.19096826348474,41.80876786616959,46.97175237140106,52.71945995509124,59.09981265200933,66.16375352868133,73.96158668833921,82.53945473117581,91.93516122561482,102.17289823576101,113.25665797252364,125.16233735596961,137.82886306495794,151.14910225113198
A2,0.0,0.0,0.004433950349763832,0.0211677222015888,0.05139524038975279,0.09376270656332646,0.14624232610003218,0.20691423589449845,0.27423793717708833,0.3470985692087201,0.42476409987475366,0.5068157187730084,0.5939099105360108,0.6867234886952958,0.7860388520151271,0.8927819469151332,1.0080421814406488,1.133088302997391,1.2693868917313584,1.418626721036329,1.582750811296412,1.763997560061016,1.964952384592294,2.1886116290875894,2.438460962513465,2.7185710757388515,3.0337141504505936,3.389505282304647,3.792573727644667,4.250769364331324,4.773409833776197,5.363300893636619,6.023838250773564,6.760412468414709,7.579366983789116,8.487443071794722,9.491377490546089,10.597494972304109,11.811212147011085,13.13640352125692,14.574602208958096,16.124032977248106,17.778511290735814,19.526292932468202
IH2,0.0,0.0,0.0,0.0015962221262789981,0.008320659461538793,0.02212785863032673,0.043313025717609414,0.07118470677443223,0.10467022771134094,0.14269190486785902,0.18434977104148617,0.22898131069800923,0.27615571099676706,0.3259391783030745,0.37862637162461255,0.43464496397800956,0.49452488804454486,0.55889143125384,0.6284679294904729,0.7040837193483367,0.7866864461458257,0.877358919477125,0.977341056125004,1.088057626931783,1.21115271438057,1.3485320377842736,1.502414616495443,1.6753956093068356,1.8705225731907036,2.0913877940898162,2.3422396910577596,2.6281164540160606,2.952026864766119,3.316263924029914,3.7235256612469,4.177042675820923,4.6804257261136915,5.2374451180415775,5.8517823839113525,6.526742269326238,7.264901595640113,8.0676747509522,8.934786302520159,9.863659204448622
IN2,0.0,0.0,0.0,0.00794691391023997,0.04465439793515502,0.1298837133624937,0.27801885728572673,0.49775074161352834,0.7931786212317957,1.1651992941630072,1.6127457740116011,2.1337482160250305,2.725818867731272,3.3881987593216634,4.1215164030437474,4.927748142081525,5.810260976173847,6.773890993742314,7.825043583475819,8.971816012672532,10.224148923393447,11.594015741643725,13.095660257533103,14.745893798688773,16.564464977446725,18.57451716871097,20.80315177395022,23.282118986951634,26.04866217121876,29.146546941550092,32.627311235860525,36.551777249021946,40.97704256212911,45.95823365053097,51.55246786420303,57.82031055680468,64.82600874591515,72.63697097536746,81.3226011952707,90.95242515987928,101.59336679253536,113.30600318218809,126.13964691021857,140.12618578706724
D2,0.0,0.0,0.0,0.0,2.0910747068333317e-05,0.00012991262254513075,0.00041979085901666506,0.0009871979326527569,0.001919728170135163,0.003290923708164024,0.005160208867333,0.007575218264139151,0.010574907463125113,0.014192588316597898,0.01846243999008905,0.02342250172591992,0.02911641534648604,0.03559476487106084,0.04291632567716957,0.051149348949920154,0.06037295030704799,0.07067865966078872,0.08217219188997779,0.09497550496756861,0.1092292215762837,0.12509550212370094,0.1427614722236056,0.16244332697306924,0.18439125843501414,0.2088953821215957,0.2362928730246681,0.26697656105704365,0.3014052771682306,0.34007726779646974,0.38352081803022176,0.43229955754455757,0.4870194373468369,0.5483337099155515,0.6169450192970016,0.6936042381578177,0.7791055318231493,0.8742768223608228,0.979964560532956,1.09701158889181
R2,0.0,0.0,0.0,0.0008466007386229521,0.0065344267676553675,0.02527315051446081,0.06810003756677838,0.1473477754055738,0.275564225453848,0.4649042506663053,0.7268667269690237,1.0722469268214274,1.5112080250734952,2.053568332882085,2.709227497233747,3.4884489498118794,4.402097655223793,5.46187085507524,6.68053676130585,8.072188821564609,9.65252169294337,11.439135656781136,13.451877527171973,15.713227744573091,18.248745257712518,21.087584060597425,24.263097983614994,27.813553662728268,31.782975645807443,36.22215243274539,41.18983791963657,46.754189134063544,52.99290853254108,59.99194449901094,67.84530400831527,76.65564952955539,86.53500922042396,97.6053590300823,109.99896118507253,123.85835935650314,139.33590882497612,156.5926878181629,175.7966073233319,197.11952220879422
G2,0.0,0.0,0.03990555314787448,0.19812890646190573,0.5065516917816455,0.9761777013562112,1.609618361429916,2.406971870975295,3.3684515691703956,4.495454307427307,5.790906591339524,7.259295980366072,8.914067995436342,10.769979236511821,12.843899623257311,15.15533549704146,17.726855522404406,20.58451448304878,23.75832790331785,27.282831253289764,31.197750254667707,35.548807956481966,40.388697101223606,45.778251616845594,51.787858343972246,58.499159177519466,66.00710460260585,74.42243196156312,83.87465515798868,94.51566556226406,106.52405383515641,120.03581534216832,135.19707647290124,152.17775258838682,171.16559818883448,192.36284902818144,215.98328457781645,242.24855268319814,271.38299684055977,303.606389502796,339.12408863381086,378.11431161619356,420.7125415070676,466.9935965755219
H2,13268.633860218293,14058.433494755096,14778.597247704918,15438.707805815575,16043.1143242013,16595.854748442467,17100.67804989636,17561.06487270133,17980.24670592566,18361.22368620874,17732.551883504424,17054.001553616203,16334.354067379902,15581.72896375458,14803.648312257901,14007.095087071946,13198.565687750983,12384.116625972047,11569.405272144853,10759.724421517521,9960.030301274792,9174.963507248656,8408.862247116193,7665.767201096141,6949.4173267541055,6263.236078645562,5610.307842383549,4993.344954060019,4414.646533552099,4306.805961437232,4306.192842385427,4304.167148201239,4300.839199945082,4296.3113549186155,4290.678576398306,4284.028962663464,4276.444238226412,4268.000209964763,4258.767190662898,4248.810392290704,4238.190291181275,4226.962967114941,4215.180418173554,4202.890853095832
S3,297600.0685770899,296300.66811629344,295081.4798003377,293936.19135779503,292858.91820946813,291844.1684169857,290886.82795109495,289982.1430483069,289125.69946112647,288313.40033078624,289544.5748985504,290878.4212364126,292315.33016728156,293856.06744018436,295501.77599600254,297253.97464827256,299114.55239600036,301085.7567847919,303170.17403966485,305370.6979634464,307690.4837652149,310132.8820263365,312701.34692154854,315399.31160165,318230.0223407649,321196.3216903549,324300.3694842527,327543.2890605872,330924.7243164515,331022.5166724234,330236.60194511607,329430.5414509105,328596.5292049229,327725.12447673286,326804.7467731689,325821.17272601585,324757.00380358245,323591.12446021434,322298.2037220842,320848.327936324,319206.89009037096,317334.8947185529,315189.85231087886,312727.4127486711
E3,0.0,0.35303272764864324,1.3320564145878104,2.4964754441800006,3.668254510247226,4.7860567603545,5.838630732691871,6.834721800411606,7.789773548210013,8.720298368830967,9.641705883994288,10.613047739336988,11.645306169003714,12.753632976573632,13.955645399258751,15.270938181735753,16.721199515068374,18.330648383780634,20.126673109950616,22.140631916463555,24.408818650252087,26.973621324161336,29.884918179123858,33.20177064811721,36.994487383356336,41.34714932686717,46.36070237704062,52.15673971986236,58.88210607014567,66.71445228193913,75.2686392993163,84.56788334051801,94.76100189353735,105.96118359390546,118.26142034446937,131.73758012058957,146.44488439438305,162.41005057074563,179.6200091370573,198.0078047614606,217.4366184398396,237.6836300624119,258.42651769249073,279.23646300582965
I3,0.0,0.0,0.06840951968207053,0.3101713644247289,0.7197548281169641,1.2584527391340443,1.8849288239379773,2.565551820650844,3.2764277998433973,4.002369506450924,4.735021329139766,5.471011868791525,6.219218806462013,6.9885248885817095,7.788624681044212,8.630308171829242,9.525582003300471,10.487784178903508,11.531756086229274,12.674097116928062,13.933513526550078,15.331271001646735,16.891763497019483,18.643216563821124,20.61855053860573,22.856437267102997,25.402593419699535,28.311363806243143,31.64765897979518,35.48932167060286,39.93000365793078,44.96632956983031,50.60022999346111,56.86201119233938,63.796665218572905,71.45644425209247,79.89580617318651,89.16688627314667,99.31452926100155,110.37032297777182,122.34532686778877,135.221443249868,148.94172503036984,163.40038513409036
A3,0.0,0.0,0.0076010577424522816,0.034829909581588124,0.0819306029504216,0.14526735500941965,0.2205779565994684,0.30417175536579566,0.39325107174909574,0.48588491581967075,0.5808665172612087,0.677551302293512,0.7766891954168039,0.8791233892340604,0.9858623101501717,1.0981011519145483,1.217228792221209,1.3448358849323323,1.4827308236134618,1.6329664053854231,1.7978786404105422,1.9801389439919699,2.182821307592211,2.4094867027452573,2.664287819999232,2.9520982494681833,3.2786713628175903,3.6508354463751536,4.076733012716539,4.566113551799773,5.130689980271332,5.77164646641984,6.490440940660825,7.291457113440298,8.180678722754609,9.16494918058466,10.251438739263747,11.447137551285705,12.758276343036206,14.189614774587834,15.743562117366439,17.41912181102165,19.210690091416954,21.10679332319402
IH3,0.0,0.0,0.0,0.0027363807879068535,0.01373924653890947,0.03548007404742094,0.06761398199110989,0.10831959064318755,0.15536478768752843,0.20670696118042814,0.2607440372189077,0.3163617133736897,0.37288256021825594,0.4303318326860843,0.48907713770600914,0.5496852521964748,0.6128637493322157,0.6794374246381847,0.7503414057077662,0.8266246781258586,0.9094619870994349,1.0001735869645274,1.1002529602527753,1.2114030680826722,1.3355821342370393,1.4750604657980375,1.632490389065238,1.8109920352040945,2.01425844337998,2.2466842414738153,2.513522960345881,2.8210787077924904,3.1722860499582266,3.5686511022263163,4.012119469221641,4.505438182158555,5.052034906073913,5.655756946604528,6.320563036220065,7.050174539785348,7.8476669689808904,8.714980222338601,9.652334963343492,10.657560753183429
IN3,0.0,0.0,0.0,0.013623280988982803,0.0739379327227618,0.20938174793128622,0.43764948642304047,0.7663157615238512,1.1954494215323606,1.720353657340772,2.333808448242269,3.027700303486548,3.7941101811221736,4.627732056483824,5.525595080092545,6.4869760452389045,7.513377674172033,8.608533364070997,9.778434269587612,11.031387752446786,12.378120299325959,13.831938929762599,15.408965504847218,17.12845931141221,19.013245284225682,21.090268428119906,23.391299513595232,25.95382301819071,28.822145616428706,32.048772236449764,35.69610652824415,39.838542773718544,44.54186401038474,49.86521763411006,55.86747434743774,62.61018226005887,70.15872697060865,78.58236129499262,87.95333004483138,98.3450988647018,109.8295839364463,122.47322924398073,136.3317841053823,151.44370787435938
D3,0.0,0.0,0.0,0.0,3.5846994974285676e-05,0.00021583316641919526,0.0006806274091232835,0.001566380621299857,0.0029853833560666097,0.005020685163486468,0.007728577073607898,0.011144362710266633,0.01528874816987873,0.020173565122700285,0.025810976082369073,0.03221795926792056,0.03941891776025037,0.047447523953995374,0.056348255187741954,0.06617783911051883,0.07700674523840634,0.08892083242427466,0.1020232550489986,0.11643673233656343,0.13230629255468318,0.14980261699363792,0.1691261283038736,0.19051199500452204,0.2142362597966641,0.24062334474326857,0.27005524218562854,0.30298276650003236,0.33993931681175166,0.38149673549865704,0.4282465952739627,0.4808059565606045,0.5398278662986619,0.6060102743495811,0.6801015308503979,0.7629018459218064,0.8552601801172609,0.9580657836502812,1.0722333196934428,1.198680342143768
R3,0.0,0.0,0.0,0.0014513155519250602,0.010923563437128248,0.04132680712162735,0.10914737115484635,0.23177365092037616,0.4257870385384538,0.7061260790587868,1.0858381274899822,1.5761686224698472,2.1868169593263938,2.9264419295524733,3.803309709588163,4.825745780451825,6.002510029325563,7.343141668726143,8.85829442070924,10.560074194210094,12.46238985388168,14.581328332652614,16.93556680884994,19.54683657222259,22.440455555166707,25.645949451784876,29.197785077201203,33.136244338919,37.50847311499465,42.36974666875736,47.785002145635985,53.83069925055108,60.59461479330387,68.17329129076724,76.67117327424677,86.20110300154744,96.8851710210214,108.85552840357931,122.25497486207897,137.2371887548897,153.96645780923419,172.61674207974056,193.36987189488482,216.41266729662843
G3,0.0,0.0,0.06840951968207053,0.3265310262016186,0.8102898186850436,1.5211121007691957,2.448538422764009,3.5799290637528185,4.904338952436212,6.41381562451266,8.103606332783166,9.971944355812848,12.028505805643967,14.285094895494765,16.75645190519712,19.460730924809024,22.41988304950057,25.660062040702645,29.212114734931586,33.11219518758607,37.40253394725549,42.13239446469845,47.35925400024957,53.15025505555838,59.58398486231018,66.75265483134089,74.76476930161442,83.74839357594298,93.85515488440058,105.26513554244418,118.19284246315242,132.7781515813311,149.1654375941225,167.5279125615438,188.06072186475689,210.97703054970236,236.50470510880766,264.8823126695626,296.3535975702168,331.1597715818925,369.5290720919405,411.6632241515399,457.72077546458183,507.7978152512395
H3,39805.90158065488,39632.14566105678,39469.24008405696,39316.26543154345,39172.42402682601,39036.97661617629,38909.238177094376,38788.57402621259,38674.39620543107,38566.16012640873,38463.36145495305,38353.93525096539,38237.34295189325,38113.15502333438,37981.042171517955,37840.767395234565,37692.1787989299,37535.20309093585,37369.83969167772,37196.15537605832,37014.27937199018,36824.39883319115,36626.75459895323,36421.63714690381,36209.38263735933,35990.36894069984,35765.01153379693,35533.75915009128,35297.08907329362,35055.501980225126,34814.6442965975,34575.78646129711,34338.8949925506,34103.93800094536,33870.88508135318,33639.70721253712,33410.37666389292,33182.86690881556,32957.15254421786,32733.20921576203,32511.013548396044,32290.54308181633,32071.77621050494,31854.692128014703
S4,148800.03428854496,151279.50236898984,153746.90697615567,156203.52838188945,158650.13995900835,161087.37382466072,163515.7666380423,165935.78541691418,168347.84185907093,170752.30044474197,174355.85937991363,177967.44925853473,181587.0591034025,185214.56745781234,188849.73523258857,192492.19551712697,196141.44093007085,199796.8086117742,203457.4626992947,207122.37393008894,210790.29581287885,214459.7365205702,218128.92523010162,221795.7709614533,225457.81091331763,229112.14365369864,232755.34001197063,236383.32073773685,239991.18441654465,242832.6476548577,245463.7930864807,248057.9606441243,250606.66339053898,253099.32255001646,255522.6376340952,257859.93478039498,260090.45870401405,262188.6286466419,264123.3191362909,265857.2712187082,267346.79091711564,268541.94084422046,269387.45997296926,269824.6285849532
E4,0.0,0.529549091472965,2.031510599027385,3.862508700518892,5.7559318685927625,7.616850771534821,9.426185836006368,11.196407494576608,12.951471387238186,14.718079087188068,16.52216807921027,18.469776628621297,20.58199227719791,22.888686384276784,25.425670620875476,28.233921809926834,31.359885529421785,34.85639505331176,38.78400830515706,43.21270291519669,48.22394445261168,53.91318889237919,60.39291431479967,67.79630732063276,76.28176085820483,86.03837353984792,97.29267504077127,110.3168334344835,125.43861832086557,143.0533784227947,162.69039104846212,184.53560718767216,208.96122108234414,236.27696749104356,266.7605921945787,300.6614732063519,338.188910654605,379.4893174074537,424.61371869950204,473.476450053127,525.8069563293609,581.0988702414224,638.5637893985378,697.1006518572653
I4,0.0,0.0,0.10261427952310581,0.4717342224407909,1.1073864771572666,1.9579282152841708,2.965671539004899,4.083027033926918,5.276202443141566,6.524128738464842,7.81594954650037,9.148430800599574,10.53965958464971,12.007483856394815,13.57127173204099,15.252699044952532,17.07619835724528,19.069359424591617,21.263411961989814,23.69385202992701,26.401247087217715,29.432249296282908,32.84085142329355,36.6899298712656,41.05313304888943,46.01718972319037,51.6847309851078,58.177740587245765,65.64177054773785,74.25107924386634,84.21486174549804,95.60107048017028,108.49744049465912,123.04284818313704,139.40297799588325,157.75771275995692,178.29224122337286,201.1880230202965,226.61149437651082,254.69917695166885,285.538344417721,319.1429722696821,355.42557167421216,394.16680212552836
A4,0.0,0.0,0.011401586613678426,0.05296455057279302,0.12601440226823712,0.22588321955032375,0.34675045538442106,0.48349611726343,0.6322463012708578,0.7903825539869688,0.9563612837826929,1.129492079617055,1.3114994376536138,1.504232616149579,1.709830936019515,1.9307962967699643,2.170035156764186,2.4308990347450554,2.717237063641755,3.0334672955713793,3.3846708879908824,3.77671283690412,4.216393537729881,4.7116366824945555,5.271720651952024,5.9075625681878865,6.632066515737582,7.460550077607681,8.41126614026451,9.50603958083907,10.771040274406797,12.217306314421911,13.857771888340428,15.710915201043719,17.798355123106266,20.143562778122106,22.77089710174971,25.704572419691058,28.967332049357577,32.578675401465176,36.55253432721971,40.894355332114635,45.597642522595876,50.64016541396152
IH4,0.0,0.0,0.0,0.004104571181860281,0.02086795684057119,0.05445643450592286,0.10483292488723059,0.16967185751216676,0.24593729461739483,0.3307992944043787,0.42203714728396013,0.5181352957422882,0.6182264254898743,0.7226117092922588,0.8321517117787951,0.9480401816597219,1.0717254095238158,1.2048898960299013,1.3494564705837113,1.5076105812601022,1.6818362036049517,1.8749655273762564,2.0902436821039068,2.331410489109502,2.602801989327244,2.9094754137397603,3.257362367788914,3.6534562981842837,4.106041787301212,4.624974824812856,5.2220248006247285,5.911290240590235,6.702354062148313,7.603391758307204,8.623939176249023,9.775266865786481,11.070057969040892,12.52189568102499,14.14465228378901,15.951739884613527,17.955149940940363,20.164212251296423,22.5840286785663,25.21358385623413
IN4,0.0,0.0,0.0,0.02043492148347421,0.11219678368498343,0.32075191837685235,0.6764303600547338,1.1948372978928221,1.8804354956716054,2.730481975334374,3.738330727841052,4.895883008455123,6.195260296410963,7.633026752616956,9.209667493988285,10.929472893589535,12.800592064654484,14.835170054545632,17.049550147705013,19.464550719088948,22.10583728335941,25.004415161146927,28.197271362637895,31.728198075688912,35.64883555888802,40.01997979675212,44.9132102995609,50.41290616570984,56.61873410870343,63.64871048003007,71.64295974078752,80.76831257179016,91.18732839999272,103.06269078105291,116.56737859715194,131.8889060188982,149.2305988652151,168.81096388431575,190.8613260780431,215.62146898122054,243.33277472238666,274.22824603331617,308.5188036418383,346.37543685896594
D4,0.0,0.0,0.0,0.0,5.3770492461428524e-05,0.00032714382825354844,0.0010405312130350934,0.002413858108246486,0.004636584656538345,0.007858399764691805,0.012191919681370398,0.01772066902960072,0.024508318403751374,0.03260717645210736,0.042073497230939456,0.0529748083210512,0.0653942755887529,0.07943403772229783,0.0952182744186058,0.11289635472556278,0.13264627738561416,0.15467858158999911,0.17924090863667747,0.2066234115027083,0.23716523538023732,0.271262328242026,0.3093768885382618,0.35204881963191453,0.3999096400771436,0.4536993976883945,0.5142872552095268,0.5826965561412076,0.6601353367679613,0.7479371710168766,0.8475427329884079,0.9605176177982143,1.0885750664394147,1.2335944709517548,1.3976331652482417,1.582930212198296,1.7919003752698832,2.027115507805503,2.291269684894857,2.58712381678962
R4,0.0,0.0,0.0,0.002176973327887591,0.016522759159184094,0.06299024846972372,0.1675761091621344,0.3583838190943986,0.6630418451281217,1.1073973198441605,1.7150897783939896,2.50764447762668,3.5048328323128346,4.725481119400184,6.188552627735623,7.913901156336409,9.922912911657036,12.239122808296624,14.888842978156452,17.901825962208896,21.31198220622337,25.158173197396035,29.48510507117203,34.34435201739351,39.79554431672822,45.90776261370061,52.7611884563636,60.4490716257419,69.08008778260685,78.78117590110378,89.70096416665741,102.01391554836736,115.92145310558523,131.64960848518422,149.44939003334707,169.5991612910383,192.40741312460742,218.2153268685115,247.39881677306425,280.3697615875402,317.5760577634598,359.50001670292187,406.6545196024559,459.57626682252055
G4,0.0,0.0,0.10261427952310581,0.4962737151061254,1.2447379346424334,2.360103462013722,3.836071727735808,5.662646985418182,7.832249968037473,10.341943453619471,13.193964363135088,16.395575697963285,19.97458820542867,23.96289890727531,28.398193198914733,33.325095943466295,38.7961723578902,44.87298773033802,51.62734520684582,59.14278264850371,67.51639795120374,76.86107514062661,87.30819538701653,99.01093549270928,112.14828072104864,126.92990919943148,143.60214196178734,162.45519621670923,183.83202900602186,208.13911148550642,235.8595241848656,267.385132540333,303.1438349587444,343.63565242176776,389.42062529285334,441.1126145984402,499.3738050153828,564.9069387103124,638.4431292534117,720.7233777168359,812.4720853922977,914.361226287423,1026.964652224107,1150.7034410046
H4,19902.95079032744,20234.666636832895,20564.934517341702,20893.84485137551,21221.480396638373,21547.91726352859,21873.225401996726,22197.469053472512,22520.70717035762,22842.99380540288,21958.002303945825,21073.732090263427,20190.911393755192,19310.354419655243,18432.971112764706,17559.777240672574,16691.904630992296,15830.611306799328,14977.291146664245,14133.482545816012,13300.87536975361,12481.315270865509,11676.804187932394,10889.495582999338,10121.682719664754,9375.778100722733,8654.282134668028,7959.739287561541,7294.680513462286,7401.86520590251,7693.994389071053,7984.116424876032,8272.247978720176,8558.40543699143,8842.604920332642,9124.862296010586,9405.193189448395,9683.612994980836,9960.136885887632,10234.779823756115,10507.556567220798,10778.481680124098,11047.569539139235,11314.834340893442
E_Om,0.0,0.0,1.0096631061278796,1.5564784061799002,2.017101497518264,2.519562757662995,3.1186551209858147,3.850115644803777,4.747989826993238,5.850883813456331,7.204993143790389,8.914955848405725,11.06270226969796,13.761539345475498,17.159746477183347,21.44929555682637,26.878687531097892,33.77042546605337,42.544457143331464,53.74962165059267,68.10597360201217,86.56199001340877,110.37224326020612,141.20334899299525,181.2791492521611,233.58056270269935,302.1218810170017,392.33428279031466,511.6000134454694,669.9983805475684,873.7696906817893,1135.830647637701,1473.637734053077,1908.3465518527755,2466.162731235066,3179.4126145354553,4087.5124761772167,5237.758266618814,6685.728534116715,8494.983858183972,10735.647523837402,13481.395322733666,16804.42584002492,20768.19861004983
I_Om,0.0,1.0,0.7608569413596195,0.7745524778295132,0.890932890394682,1.0687397612737248,1.3013906419524546,1.5944948252167206,1.959245189729346,2.4107551394059916,2.968004784374231,3.654386892747039,4.507976427556271,5.5736191807287305,6.9073926297133355,8.580696806716112,10.6850566030623,13.338263062940058,16.692431902320603,20.94467751813186,26.351327998994662,33.24694216291692,42.06986416234892,53.39671809289611,67.98918369406557,86.85771907183505,111.34877089498241,143.264668681732,185.02916326388225,239.91688949956944,312.3725110871133,406.98700731864466,529.7564129911899,688.625512534664,893.7386132210621,1157.8921223971818,1497.0863676077865,1931.1332650177678,2484.271702131269,3185.713832857791,4070.00248711042,5177.008076107982,6551.3429313272645,8240.94105897563
A_Om,0.0,0.0,0.0,0.021738799179377537,0.051100219977852336,0.08477304703030006,0.1228348846339167,0.1665282523462373,0.21762787349101567,0.27830263776507963,0.35113853483925533,0.43922242026088787,0.5473046925119863,0.680992749330408,0.8472629171852727,1.0549520567095454,1.3153430516370541,1.6429148876173487,2.0563257220880162,2.5797129872875075,3.2444223253300484,4.091317679346733,5.173882011725245,6.562398340290274,8.349613601750132,10.658446980382443,13.652529363787682,17.550679304177475,22.64687233796954,29.33789873487508,38.16180222215717,49.68825306231559,64.65625721673916,84.03956888701781,109.08151342044903,141.35224734661227,182.81813803324056,235.9187642960995,303.6462185962978,389.61794279919957,498.1291855433118,634.1648844677633,803.3444678697643,1011.7689022400739
IH_Om,0.0,0.0,0.04000000000912201,0.04991098156574015,0.055284634353069496,0.06255637696173985,0.07320939123917078,0.08770256658653494,0.10648371604005434,0.1302186027940701,0.1598359348204386,0.1965471207788707,0.24187772758827508,0.2980935791492527,0.368091776669322,0.4555260688066285,0.5650315313685552,0.7025260599853049,0.8756028239479882,1.094043699645475,1.370496230706984,1.7213718522378947,2.1680439335146016,2.738453310257643,3.469269830897666,4.408815879520415,5.62103879953869,7.190933544536912,9.231978833859388,11.896379486190597,15.38923210052753,19.98818836808241,26.01208095500905,33.855996489051094,44.030100979062695,57.18857552337323,74.1618087046994,95.99414443866496,123.98656880240483,159.7421103113645,205.20979791565418,262.72036130595654,335.00349023279597,425.1728119308949
IN_Om,0.0,0.0,0.398286117262517,0.6588213605556668,0.8704422020110307,1.071113399336963,1.282438171326062,1.5208317406356553,1.8015131101344406,2.1402727408172013,2.554563535496154,3.064418460769217,3.693377308716059,4.47192580812105,5.438495307012069,6.641475797245951,8.142034752493165,10.017832514991156,12.367873212836376,15.318848669537509,19.033467791203634,23.72144054402924,29.65402617203052,37.18338709367614,46.7684503901974,59.00962074900487,74.69558716746339,94.86672738225082,120.90139041532044,154.63384286738116,198.51619793419292,255.841618786413,330.69792843095547,428.2342637551009,555.0310897149756,719.4927987374946,932.3104521489826,1207.01136059819,1560.5993962422588,2014.2772517171697,2594.2233156535326,3332.36849059078,4267.080931224354,5443.620861102981
D_Om,0.0,0.0,0.0,0.0005240059445071769,0.0011778472202739673,0.0019020841461316576,0.002721581980814358,0.0036806358856725733,0.004829552541407583,0.006224505046044532,0.007930388094393295,0.010024262593710075,0.012599059084720348,0.015767693261501334,0.019672763447951512,0.02449482042432516,0.030462279621280747,0.03786427665137063,0.04706747243935948,0.05853799955614404,0.07287013460699693,0.09082383889828105,0.11337406597513813,0.14177576369652045,0.17764990902159838,0.22309785937347865,0.2808540025879657,0.3544904462027669,0.44869274427861916,0.5696330389637075,0.7254773781500948,0.927078605656047,1.1889268437164422,1.5296889698743978,1.9732075552101755,2.550008421335639,3.299187259468419,4.270717974663526,5.5282555324702685,7.152498009387566,9.245143393692242,11.933422242552162,15.375098018452146,19.763693525267254
R_Om,0.0,0.0,0.0,0.06250280383340769,0.16191492902137597,0.2922032737440851,0.4539715493244334,0.6508852589106713,0.8888283513323476,1.1758716441439037,1.5225180391292499,1.9420910386170855,2.4512470583015546,3.0708243655256666,3.8271180694416786,4.753305051186649,5.891240264073547,7.293777975761458,9.02778345978824,11.1780462811262,13.852375522661166,17.188252474816963,21.361545667399934,26.597969468320663,33.188209101313944,41.50796766924754,52.0446511120078,65.43304669289256,82.50324296537723,104.34528827855183,132.39683788785518,168.5625034130555,215.34592125615217,275.98747758263625,354.6605150438367,456.7330869119131,589.0970082077926,760.5756314578468,982.4238469348168,1268.9328987749097,1638.1488840067404,2112.706150870184,2720.763714324301,3497.012834106017
G_Om,0.0,0.0,0.0,0.19564919261439784,0.49725845380520184,0.888125741136544,1.3763583172168623,1.9806810390836067,2.726743773084818,3.6467936100597913,4.780558612698597,6.176718463265941,7.904229257062015,10.047923281399019,12.714589068959782,16.039748246662228,20.196122122632254,25.404585700311927,31.948507565513964,40.19263240259244,50.6080571273777,63.80540846821545,80.57910590692723,101.96667582984387,129.32859591710664,164.45627263793764,209.7187450664505,268.2629285008732,344.2881741466736,443.42434042295594,573.254420784913,742.5706347529928,962.6681581826136,1248.2248266631577,1618.0179386748948,2095.902833441711,2711.99894237798,3504.063652786504,4519.019205538539,5814.557669606478,7460.687673801688,9541.006106240791,12153.386507386489,15409.692821834493
beta,1.0005234150876816,1.0005234150876816,1.0005083418559402,1.0004595674648573,1.0003949244293828,1.000319284613844,1.0002347927111663,1.0001421882844488,1.0000414873804135,0.9999323164031073,0.9998140679781333,1.0077832785182201,1.0160809889308522,1.024734545549272,1.0337737403297673,1.0432311487824064,1.0531424437839176,1.0635466970468308,1.0744866643790398,1.086009038776104,1.098164642536304,1.1110085131357714,1.124599814902337,1.139001476435219,1.1542794080453411,1.170501088437356,1.1877332172964448,1.2060379990436643,1.225467437194593,1.2460547577860184,1.2482105734643454,1.244896285278088,1.2408591517901513,1.2359207935875345,1.2298686106292702,1.222448113397107,1.2133584600199747,1.2022514535237259,1.1887358356793136,1.172389547690486,1.1527829243746803,1.1295151990954622,1.1022646804490746,1.0708491449007127
