series,2021-12-01,2021-12-02,2021-12-03,2021-12-04,2021-12-05,2021-12-06,2021-12-07,2021-12-08,2021-12-09,2021-12-10,2021-12-11,2021-12-12,2021-12-13,2021-12-14,2021-12-15,2021-12-16,2021-12-17,2021-12-18,2021-12-19,2021-12-20,2021-12-21,2021-12-22,2021-12-23,2021-12-24,2021-12-25,2021-12-26,2021-12-27,2021-12-28,2021-12-29,2021-12-30,2021-12-31,2022-01-01,2022-01-02,2022-01-03,2022-01-04,2022-01-05,2022-01-06,2022-01-07,2022-01-08,2022-01-09,2022-01-10,2022-01-11,2022-01-12,2022-01-13
S,4844.272209614601,4844.272209614601,4843.985411417552,4843.781166377808,4843.615467790116,4843.472021479547,5011.622308066173,5179.776244980724,5347.9330500656415,5516.091573479176,5684.250441544138,5852.40809957878,6020.562789047707,6188.712474297758,6356.854719134055,6524.986499741524,6693.103923756395,6861.201799675418,7029.272955726602,7197.307121465575,7365.289011444383,7533.19487564745,7700.985915423186,7868.594784303512,8035.89529227431,8202.625815664542,8199.882586080075,8196.051354498513,8190.229169061937,8181.575576126538,8168.866306370646,8150.560259603741,8124.854340140517,8089.886476564821,8044.0527647363615,7986.354722737118,7916.641701335352,7835.658064832132,7744.902921433629,7646.3814628056125,7542.336289886189,7435.017889636006,7326.518879574745,7218.672742889686
E,1.3867273099025188,0.9707091169317632,0.725162944741701,0.5675374417650914,0.4579968308723972,0.3767745931687392,0.3136492406953464,0.26639531294945334,0.2299875958601051,0.20133884231125448,0.1784707153412939,0.16006092536311245,0.14519272230928645,0.13321372580970534,0.12365469436609487,0.11618223600374251,0.11057206180361027,0.10669637910927854,0.10452335366473954,0.10413010931965899,0.10573515575072925,0.10976398081565017,0.11697847720311344,0.1287422445674799,0.14760748100248142,0.17876917250760196,0.2343139199698444,0.2866088544967631,0.34681302598142877,0.41643843653585705,0.4952782595443893,0.5816057631337797,0.6717658427153621,0.7600348838726768,0.8392096974147992,0.9019899715003192,0.9426721893650539,0.9583801135457131,0.9493539835979469,0.9183911484814605,0.8698693816229034,0.8087680248529815,0.7399178821128203,0.6675387368931872
I,0.0,0.3744163736736801,0.4867412857757841,0.4878387665457298,0.44593836920401253,0.3912221658579548,0.3364624396703324,0.286562758789943,0.24386438977031819,0.2084152847444193,0.17941065827069028,0.15583348810456354,0.13671654271077846,0.12123196064997442,0.1087068823586051,0.09861089689400868,0.09053574185741567,0.08417590180142419,0.07931356344035971,0.0758094435536955,0.07360079564852523,0.07270896944181204,0.07326165648531277,0.07554118273602828,0.08008511567483656,0.08790508927557192,0.10101073014239567,0.12387119647729541,0.1517071086005033,0.18466378217528776,0.22323664716985409,0.26766711837889745,0.317633827073459,0.3719570737772232,0.4283836629119566,0.4836168160491698,0.5337073819345881,0.5747459202893175,0.603610182830933,0.6184916852700053,0.6190606212519975,0.6063011057893825,0.5821480301839345,0.5490666462808222
A,0.0,0.041601819297075564,0.06240272894561334,0.07167707149874171,0.0743677804519461,0.07323412928772881,0.06989054122524521,0.06532191020105656,0.06024938754932885,0.05509913791526623,0.050119475601550625,0.04544970194147932,0.04116158931407682,0.03728505312054005,0.0338244542707232,0.030769204247561403,0.028100830478161396,0.025797826236637424,0.023839152362588302,0.022207022500012823,0.02088952127960003,0.0198836716962019,0.019199856781431025,0.01886923974123822,0.018957659130014973,0.01959435173408642,0.021038556562497195,0.02386026284909309,0.027686475914177364,0.03255357151078475,0.038536010304703515,0.04568715603009449,0.05399789771808898,0.06335129345593205,0.07348208128092593,0.08396195594718472,0.09422926390275735,0.10366357680315749,0.11168226484889739,0.11782643138705631,0.12181287956408886,0.12354638509995819,0.12310014882555598,0.12067765552382939
IH,0.0,0.0,0.07488327473473602,0.13471501124779012,0.1647905439217932,0.17141815525777732,0.16378209264522184,0.14901975216403218,0.13167340808784064,0.11447790858989611,0.09880753333524202,0.08518709078842383,0.0736750559243362,0.06410716144839947,0.05623586569274621,0.04980307345240137,0.044573913031550026,0.040349530974226604,0.03696959631642391,0.03431054124996748,0.03228284879447287,0.030829300678147008,0.029925614926757764,0.02958521314551468,0.029871257906817484,0.030922780830469232,0.03301148548951853,0.03667487728774888,0.04307500306204577,0.0518358482480615,0.06279884471084024,0.07598395294468009,0.09144941619517488,0.10916002409608407,0.12886226677939058,0.14997900370530723,0.17156288605878225,0.19235135653024998,0.21093251096645826,0.22597735953844925,0.2364610394636873,0.24180618294277945,0.24192150644632343,0.23714843775350228
IN,0.0,0.0,0.07488327473473602,0.16974119651314823,0.2616639976208172,0.3421497134822998,0.409015537229472,0.4627057105531136,0.5046304149701036,0.5366211879877438,0.5604582475080897,0.5777016510096215,0.5896561698922332,0.5973897374715355,0.6017691993397393,0.6034980011603163,0.6031501124577198,0.6011987622143686,0.5980403385115152,0.5940144844002413,0.5894216910402399,0.5845399070896263,0.5796421076255223,0.5750177279135635,0.5710030428851425,0.5680306577315046,0.5667211176211019,0.5680762560506277,0.5739584209524001,0.5852121496523769,0.6026829564819634,0.6272873231474823,0.6599595355881583,0.7015385351697307,0.7525994233360067,0.8132475367094966,0.8829253531281107,0.9603040612639262,1.0433171529878396,1.1293423947830457,1.2154830618747166,1.2988728023612774,1.3769374114005606,1.4475752707579872
D,129.0,129.0,129.0,129.00007488327472,129.00020959828598,129.00037438882987,129.00054580698512,129.0007095890778,129.00085860882996,129.00099028223804,129.00110476014663,129.00120356767997,129.00128875477077,129.0013624298267,129.00142653698816,129.00148277285385,129.00153257592729,129.0015771498403,129.00161749937135,129.0016544689676,129.00168877950887,129.00172106235766,129.00175189165833,129.00178181727327,129.00181140248642,129.00184127374433,129.00187219652514,129.00190520801064,129.0019418828879,129.00198495789098,129.00203679373925,129.00209959258396,129.0021755765369,129.00226702595307,129.00237618597717,129.00250504824393,129.00265502724767,129.00282659013374,129.00301894149024,129.0032298740012,129.00345585136074,129.0036923124002,129.00393411858315,129.00417604008956
R,0.0,0.0,0.008320363859415113,0.06073288239265041,0.14807075451777077,0.2540415405483765,0.3657760534592297,0.4752475226373145,0.5782096281005406,0.6728783145907501,0.7589830938972894,0.837049483837827,0.9079451483586355,0.9726247351464723,1.0320022567565712,1.086897655108233,1.138023100765344,1.1859887219915857,1.231316656789165,1.2744578522192402,1.315809209414967,1.355730481148442,1.3945614591792224,1.4326409490079084,1.4703303251045399,1.5080468941725569,1.5463177129001262,1.585878174556338,1.627879740163718,1.6740422298977,1.725932817929359,1.7850824051141716,1.8530730240276339,1.9315450775019585,2.0221258748303557,2.1262820436851375,2.245109483518448,2.379099547579493,2.5279440335391996,2.6904435367631887,2.8645551727721545,3.0475706521806556,3.2363786327906294,3.4277511624582626
G,7683.0,7683.374416373674,7683.6365078352455,7683.832301830325,7683.985536939602,7684.109196083937,7684.210925224093,7684.295610519082,7684.367537253578,7684.42963390446,7684.483995391884,7684.532182485026,7684.575398934873,7684.614600969898,7684.650568675866,7684.6839554433445,7684.715324647065,7684.745179103752,7684.773987126112,7684.802208431601,7684.8303235611165,7684.85887205317,7684.88850832799,7684.920092516834,7684.954852922868,7684.994706942737,7685.042974619315,7685.1062393777065,7685.183623768421,7685.277263285436,7685.3897016633,7685.5234267933765,7685.680460349421,7685.861837126955,7686.0670465456005,7686.293633163903,7686.537170456208,7686.791691947337,7687.050454577994,7687.3067801535635,7687.554745763655,7687.789610496694,7688.0079778634035,7688.207755691575
H,3365.5607262155386,3365.5607262155386,3365.5607262155386,3365.5607262155386,3365.560726215538,3365.560726215539,3246.6289169825964,3129.3327592832898,3013.7636264023577,2900.0180296549975,2788.197963173612,2678.411210370533,2570.771592784507,2465.3991363671244,2362.420123540076,2261.9669915655722,2164.1780290768334,2069.1968134045746,1977.1713223523511,1888.2526465559522,1802.5932243916272,1720.3445232216843,1641.6541020173681,1566.6620151102059,1495.496559085436,1428.2694277544629,1428.2694277544626,1428.2694277544626,1428.2694277544626,1428.2694277544626,1428.2694277544626,1428.2694277544626,1428.2694277544626,1428.2694277544626,1428.2694277544629,1428.2694277544626,1428.2694277544624,1428.2694277544629,1428.2694277544626,1428.2694277544626,1428.2694277544629,1428.2694277544626,1428.2694277544629,1428.2694277544626
S0,1695.4952733651103,1691.6804090000387,1685.462310391437,1679.3000620142534,1673.1763333722981,1667.0847185695368,1718.7371584389161,1769.123810591327,1818.2076001821854,1865.9487648678612,1912.304891306777,1957.2309193833435,2000.6791477214415,2042.5992647254632,2082.938424244914,2121.641381739058,2158.6507033348007,2193.9070536596246,2227.3495542797805,2258.916174305258,2288.5440497429945,2316.1694855851074,2341.7270657662248,2365.1464769922104,2386.343384157339,2405.1934615344708,2395.489715991645,2385.4158146168534,2374.638157754204,2362.8521870465947,2349.616379150932,2334.3799751014517,2316.506149355056,2295.349317596568,2270.372465635659,2241.2722788807496,2208.0622521968344,2171.081904238039,2130.9371542540202,2088.402835514121,2044.3207969730906,1999.5153492579543,1954.7344868087484,1910.616285056123
E0,1.3867273099025188,0.9707091169317632,0.7047623451072029,0.5265542576404076,0.40230660492669623,0.31285170434335646,0.24677546662070451,0.1988346600982499,0.1634285475727802,0.13687904390261668,0.11671572649682004,0.10124594813006514,0.08929093288851017,0.08002015836257423,0.07284528317115581,0.0673512436603366,0.06325151118968769,0.060360038420097545,0.058575963468187636,0.057879856997290195,0.05834319038547973,0.060157174922260886,0.06369615299527555,0.06965226512428024,0.07933685212620606,0.09542957861139559,0.12416745426634329,0.1511434273570341,0.1821586051511641,0.2179412296086372,0.2583201646954871,0.30233674170169067,0.34804373684678835,0.3924485312091971,0.4318347770457494,0.46248729497438784,0.4815634825774866,0.48771065902310506,0.48119014344659417,0.46356552011590296,0.4371837031532866,0.40466425835080577,0.3685142511790723,0.3308960747488249
I0,0.0,0.3744163736736801,0.4867412857757841,0.48233060464441524,0.4315680123495592,0.3675635907399435,0.3050081146166723,0.2496342447575936,0.20346590508108364,0.16620525089330085,0.13668049238968702,0.11352154158795362,0.09544933094788977,0.0813781504486316,0.07043233302707401,0.061927626272456474,0.055341411551764766,0.050282754952274536,0.046466863344791054,0.043695628143285294,0.04184493827523953,0.040859624369223246,0.04075821185054439,0.04165288841905103,0.04379784463498628,0.0476996568550674,0.05438578033811725,0.06615668085478305,0.08050273389926904,0.09748446373037573,0.11733481023255748,0.140147330607316,0.16571931862384606,0.1934034001229405,0.22200314350024752,0.24979727590250084,0.27474993518458524,0.2948721014066725,0.30860513878024187,0.31508442199872555,0.3142133436305291,0.30656760602970484,0.2931999133725405,0.2754187958418738
A0,0.0,0.041601819297075564,0.06240272894561334,0.07106505350970677,0.07264867053697764,0.070188134577383,0.06553605879220709,0.0598321110323868,0.05383072862885694,0.04796743933026896,0.04248032278129367,0.03748573001993954,0.033025962459853585,0.029099497954538173,0.025680203114507763,0.022729520986740883,0.020204154099202804,0.018060868615052874,0.016259496044645227,0.014764875739761811,0.013548296301728154,0.012588932752946915,0.011875861450025359,0.011411573749878553,0.01121882695363125,0.011355167126691181,0.011947021059694812,0.01328264047574615,0.015160415201307943,0.017593090315581275,0.020612709140724137,0.024239772253443922,0.028461920053805857,0.03321084814844834,0.03834213445503458,0.04362875087540014,0.048777619549551746,0.053469000116965995,0.05740651986426595,0.06036092019481058,0.06219570175932555,0.06287207250205903,0.0624375857521714,0.06100549613710929
IH0,0.0,0.0,0.07488327473473602,0.13471501124779012,0.1636889115415303,0.16799436932913547,0.1573419084432273,0.1395152352365049,0.11954495133453466,0.10034611173214952,0.08331375993300277,0.0689096646845058,0.057090230995159114,0.047577891456162355,0.040016997926351335,0.034054948570664115,0.02937894459125269,0.025728375661388046,0.022895010445487543,0.020717982881256494,0.01907739908640405,0.017888609799163527,0.01709834116362725,0.016683714610758876,0.016655751274578884,0.01707078881301212,0.01805825498870653,0.019888225306988007,0.023155560599143626,0.02765517151882648,0.033296823333969564,0.04008207689016231,0.048030422489654195,0.05711104454710665,0.06717909125359432,0.07792299523559307,0.08884302980306111,0.09928265890864454,0.10851646707674814,0.11587074482734569,0.12083638606859061,0.12314002537433252,0.1227603938677329,0.1198974192145068
IN0,0.0,0.0,0.07488327473473602,0.16974119651314823,0.2605623652405543,0.33821064587050387,0.40047575313092726,0.4481590624644346,0.48318183074350146,0.5078062058646335,0.5241595362757641,0.5340640648755203,0.5390074160378733,0.5401719278510331,0.538483476292127,0.5346620127815975,0.5292666953880061,0.5227335629642079,0.5154059665723145,0.5075588800868482,0.49941851107082424,0.49117872206210433,0.483015894587197,0.47510424947313196,0.46763465115908603,0.4608424547646758,0.45505650365696876,0.45080019616428413,0.4490396175140988,0.45020679968060584,0.45473151173523596,0.4630758182274022,0.47570512862207903,0.4930288333740612,0.5153132333233469,0.5425764868271898,0.574491893793693,0.6103364465151981,0.6490133778063998,0.6891506676656056,0.7292489992419827,0.767839595823793,0.8036176671456455,0.8355323561820344
D0,129.0,129.0,129.0,129.00007488327472,129.00020959828598,129.0003732871975,129.00054128156683,129.00069862347527,129.00083813871052,129.00095768366185,129.0010580297736,129.00114134353353,129.00121025319822,129.00126734342922,129.00131492132067,129.0013549383186,129.00138899326717,129.00141837221176,129.00144410058743,129.00146699559787,129.00148771358076,129.00150679097985,129.00152467958964,129.0015417779308,129.00155846164543,129.0015751173967,129.0015921881855,129.0016102464405,129.0016301346658,129.0016532902264,129.0016809453979,129.00171424222125,129.00175432429813,129.0018023547206,129.00185946576516,129.0019266448564,129.00200456785166,129.00209341088146,129.00219269354037,129.00230121000743,129.00241708075225,129.0025379171383,129.0026610571637,129.00278381755757
R0,0.0,0.0,0.008320363859415113,0.06073288239265041,0.14794835091996378,0.25298786263808676,0.3622702851056964,0.4673667646755786,0.5639948851727603,0.6506023124608837,0.7272565759605419,0.7948410903614832,0.8545540258629617,0.9076296882289301,0.9552026151965513,0.9982550848985727,1.0376093060293357,1.0739410238789537,1.1078015328150066,1.1396413964011038,1.1698328576343655,1.198689993101681,1.2264868369006041,1.2534744672565967,1.2798988153098079,1.306022221659231,1.3321545319697958,1.358706527236396,1.3862990828061812,1.4158423107593614,1.448160695273336,1.4840543043228107,1.524343452945367,1.5698712071737424,1.6214651791522878,1.6798605268662985,1.7455918228731722,1.818874296000025,1.8995069144678733,1.9868301898759433,2.0797562991519465,2.1768657046824025,2.276545581754069,2.377138589476489
G0,7683.0,7683.374416373674,7683.6365078352455,7683.826793668424,7683.968963317987,7684.077586101317,7684.16205606149,7684.228685437478,7684.282370795704,7684.326496503549,7684.363453845403,7684.394967091556,7684.422303497551,7684.446412049431,7684.46801749219,7684.4876857186455,7684.505870554433,7684.522948462454,7684.539245672828,7684.555061182964,7684.570688744353,7684.586441405757,7684.602683842986,7684.619881804295,7684.638687915878,7684.660108865952,7684.685874852177,7684.719400064829,7684.760208790215,7684.809391613606,7684.8682357456,7684.9379821900675,7685.019613110327,7685.113584919275,7685.219546022701,7685.336141412504,7685.461012982147,7685.591035122443,7685.722717000379,7685.852638339109,7685.97780102954,7686.095840629392,7686.205099979147,7686.304598826966
H0,1177.9462541754385,1175.2958751035437,1171.0648099531709,1166.8489766373395,1162.6483203214452,1158.462786368288,1096.5777043204941,1035.9972403484733,976.7580619783354,918.8993133166482,862.4626743877948,807.4923937297604,754.035283708177,702.1406654139797,651.8602470196189,603.2479161374441,556.3594231889945,511.25192931693636,467.983389389896,426.61173883659967,387.19385336055416,349.7842543086775,314.43354116132105,281.186547983228,250.08024425522913,221.14143310454634,220.34532394536998,219.55208077916666,218.76169328836167,217.97415119252358,217.1894442482305,216.40756224893687,215.6284950248407,214.85223244275127,214.07876440595737,213.30808085409592,212.54017176302116,211.77502714467428,211.01263704695344,210.25299155358442,209.49608078399152,208.74189489316916,207.99042407155375,207.24165854489615
S1,484.4272209614601,453.6401409721416,427.2948604845173,402.8187751748079,380.07371106691573,358.934344043382,351.0742438230027,343.1587013664455,335.24055089581003,327.3644759226241,319.56790741417825,311.88182394277516,304.3314700180828,296.93700422636147,289.7140860777861,282.67440871672846,275.82618331133216,269.1745795698652,262.7221249510786,256.46906197639726,250.41365706711474,244.55244197457395,238.88034117153563,233.39057038937386,228.07400349916233,222.91710638564734,215.55911322580963,208.65894905251477,202.15578440612555,195.99625426299906,190.1200971709496,184.46312739316443,178.95935781822695,173.54686942807825,168.17587695981632,162.81643187985114,157.46236835591031,152.12982725167834,146.85139527032953,141.66842869337572,136.6239125068176,131.75713673764298,127.1004768288381,122.67798647803373
E1,0.0,0.0,0.006775307600539042,0.013164736043916016,0.017303503494703394,0.019208173932267168,0.019426782720575533,0.018928341587921105,0.017952527232808012,0.016711451253805222,0.015364808468651743,0.014021547733710206,0.012750086777378124,0.011589567857142219,0.01055948085679492,0.009667071485772623,0.008912766237138875,0.00829410118307457,0.00780868528509748,0.007456731727347071,0.0072437574220134155,0.007184299802546323,0.00730817853728883,0.007672609513421709,0.008388460416828135,0.009684757721891342,0.012096170795705316,0.014246741044532541,0.016651983167219688,0.019354819731266956,0.022321169477065788,0.025457058716404433,0.028598927301945742,0.03151602781932661,0.03394081603659608,0.035625466279577786,0.036402777079647036,0.036222758388110676,0.03515134049765074,0.03333957585721384,0.030981970203467043,0.02827929497148617,0.025412967617452823,0.022531518320375525
I1,0.0,0.0,0.0,0.0018293330521455414,0.004652078563144649,0.007463193081456707,0.00966412281058616,0.01104370502090709,0.011736875241282953,0.011889307497627935,0.011645676337104172,0.011135904088798474,0.010467360341380839,0.009722939634720597,0.008962947102260758,0.008228828092691083,0.007547406156773257,0.0069348905780914506,0.006400341666285004,0.005948550026747322,0.005582447582432102,0.005305283053402884,0.005122930778729238,0.005046966672305527,0.005099784572007177,0.005324755055747903,0.005809737618359404,0.006751808685856078,0.007897705293537434,0.009234658631271776,0.010766596506205144,0.01248667366253085,0.014365410050947706,0.016340956402093973,0.018313901352474567,0.020152361141365684,0.021710292580305414,0.022854925359687948,0.02349309998060265,0.02358672192272729,0.023153718635084107,0.022257363135986565,0.020989827523893206,0.019455397771048186
A1,0.0,0.0,0.0,0.00020325922801617125,0.0005575494637304175,0.0009651446758254358,0.0013483609586283636,0.0016614922485199569,0.0018970440464535986,0.002056211054147119,0.002146312380931852,0.002177994158805034,0.0021630417590553334,0.0021129360105656106,0.0020380358441667553,0.0019472131010372516,0.00184778262540298,0.0017456090874365502,0.0016453103054414773,0.001550508802906106,0.0014641089941452969,0.00138859991797664,0.0013264089284577016,0.0012803724988848261,0.0012544762845105122,0.0012552348401132537,0.0012947306037473434,0.0013986696068690341,0.0015463379168312035,0.0017366298284815533,0.0019699484547232513,0.0022455938480905745,0.0025601868399645926,0.002906117291030046,0.0032703746674038353,0.0036345242150209504,0.003976383360404094,0.004273190000712686,0.004505234752213469,0.004658728016700297,0.004727169689076653,0.004711194857365333,0.0046173347350368515,0.004456256816553066
IH1,0.0,0.0,0.0,0.0,0.0003658666104291083,0.001112983151233055,0.002048017208756636,0.0029547851492867936,0.0036831787936755277,0.0041852812663006785,0.0044663168514096265,0.004557827376274238,0.00450153667852054,0.004339738870857917,0.00411011762350222,0.0038435381145797594,0.0035636911377135167,0.0032877631090736962,0.0030275719070460647,0.002790826714872987,0.0025823325360710848,0.0024050734519858916,0.0022611882632215365,0.002152919099093394,0.002083699964908709,0.0020597231968908815,0.002092752886398131,0.0022062312139845483,0.0024512711129495053,0.0028027253440692903,0.003245491672944931,0.0037728196460405494,0.004379971735880404,0.005058687906393864,0.005792476545709333,0.006553226066803871,0.007300532035608268,0.00798502400182961,0.008555512048850565,0.008967820508496963,0.009192286818285444,0.009217694849341259,0.0090511023570186,0.008714465580930923
IN1,0.0,0.0,0.0,0.0,0.0003658666104291083,0.0012841149790636843,0.00273404877279621,0.004575949181225472,0.006632511368861288,0.008759314096301969,0.01084587383522333,0.012814316232317055,0.014615341207464688,0.01622276213306481,0.01762784215798947,0.01883419601252629,0.019853607284400505,0.02070283239379095,0.021401312362236777,0.021969653738129324,0.022428735894834316,0.022799330221073957,0.023102167071510988,0.023358462255187996,0.023591041206110063,0.023826449037983678,0.024099022189702262,0.024459527098630557,0.024996457187039918,0.025744710326693673,0.026735470055693378,0.027999668426667384,0.029565839757638924,0.03145567341293973,0.03367776759654938,0.036220552295902875,0.03904646552128462,0.04208998581544035,0.0452612166558199,0.048454619239483895,0.051560545682089336,0.05447658006431302,0.05711636703782071,0.05941485752726012
D1,0.0,0.0,0.0,0.0,0.0,3.6586661042910834e-07,1.4788497616621635e-06,3.5268669704187997e-06,6.4816521197055935e-06,1.0164830913381121e-05,1.43501121796818e-05,1.8816429031091426e-05,2.3374256407365663e-05,2.7875793085886203e-05,3.221553195674412e-05,3.632564958024634e-05,4.01691876948261e-05,4.373287883253961e-05,4.702064194161331e-05,5.0048213848659374e-05,5.2839040563532364e-05,5.542137309960345e-05,5.782644655158934e-05,6.0087634814810876e-05,6.224055391390427e-05,6.432425387881298e-05,6.638397707570386e-05,6.8476729962102e-05,7.068296117608654e-05,7.313423228903605e-05,7.593695763310534e-05,7.918244930605027e-05,8.295526895209082e-05,8.733524068797123e-05,9.239392859436509e-05,9.818640514007443e-05,0.0001047396312068783,0.00011204016324248656,0.00012002518724431617,0.00012858069929316674,0.0001375485198016637,0.00014674080661994916,0.00015595850146929042,0.00016500960382630903
R1,0.0,0.0,0.0,0.0,4.065184560323425e-05,0.0003472623875582259,0.0011394877208986565,0.002524092670690617,0.004485962511583608,0.006927533038528002,0.009722717643111991,0.012745831415330285,0.01588649977784047,0.019055927611587854,0.022187892151149392,0.02523679369764919,0.02817435972181052,0.030986017937712083,0.0336675194569087,0.03622209442888448,0.03865823739554666,0.04098812065265804,0.043226597122489864,0.04539076401186101,0.04750011244472371,0.04957740676660799,0.05165069319250708,0.0537574583711992,0.055953739548327136,0.05831993060722186,0.06092479124220747,0.06383064769989161,0.06709733969406463,0.07078261128488648,0.07493927579309857,0.07960958457057543,0.08481766144987295,0.09056174236166326,0.09680864659427864,0.10349266698160314,0.11051974078113169,0.11777602747288289,0.1251387995227162,0.13248729266357212
G1,0.0,0.0,0.0,0.0018293330521455414,0.005383811784002866,0.010055757727572782,0.015241964689284918,0.02048719602384031,0.02559784825257901,0.030445030605437174,0.03495712244396458,0.03910562073050055,0.042891438618602305,0.0463339620484944,0.0494631453699228,0.05231420520125743,0.05492431450241604,0.05733076138644354,0.05957016870587367,0.06167851373284999,0.0636918312992337,0.06564764580317732,0.06758740674986483,0.0695606149549328,0.07163221952355667,0.07389710383610026,0.07651198842101092,0.07977795453585136,0.08362457461787515,0.08812061007302446,0.09334641140046654,0.09937312715927431,0.10624653301270351,0.11396824338422885,0.12247757089544704,0.13164159122532798,0.14126046712081397,0.15108921693231867,0.16086936169710855,0.17036022363147427,0.179361909112922,0.1877270410678581,0.19536245071015937,0.20222395196687162
H1,336.5560726215539,315.16673222048047,296.8858879265332,279.89558639046936,264.1037008213303,249.42468471582103,223.99014674655024,200.9534129204751,180.09434717835867,161.2128895462283,144.12732683468747,128.67270697711135,114.6993842554719,102.07168353287034,90.66667238816237,80.3730307447045,71.09000822154488,62.726460037864186,55.19995290639399,48.43593300720551,42.36694890133884,36.93192319811316,32.07546801096285,27.74724079799171,23.901339129146002,20.495735232121643,19.82786330328932,19.2048305192577,18.623444401544294,18.08074046870066,17.5739659509437,17.100564668027065,16.658162987264163,16.244556784549008,15.857699336732269,15.495690078827126,15.156764164271362,14.83928277088457,14.541724099256498,14.26267501410721,14.000823282692457,13.754950367608222,13.523924734394473,13.306695637166747
S2,484.4272209614601,513.2621745901184,539.5287724198629,563.6083016396864,585.6561582827807,605.818609826744,645.919950913966,685.2278101561676,723.6599391405633,761.1423313433943,797.608150047102,832.9967667522457,867.2529066554746,900.3258995062015,932.1690356950035,962.7390287059823,991.9955857411136,1019.9010876553087,1046.4203758537099,1071.5206345101785,1095.1713349689282,1117.3441607489426,1138.0127191222923,1157.1515655409926,1174.7332952989238,1190.7200019557495,1192.1232809867038,1192.8462617556113,1192.8153467765846,1191.9612049079237,1190.162901674812,1187.2566684137582,1183.043235653989,1177.313985622325,1169.8915518825472,1160.67414876017,1149.6665139000338,1136.986053548233,1122.8452151038694,1107.5200909159194,1091.3164028668803,1074.5403295545284,1057.4773020497937,1040.3789030139
E2,0.0,0.0,0.002683025771906093,0.00560007452253853,0.00788088918755043,0.009343455234110036,0.010073664605277526,0.010483522517219807,0.010625121279230567,0.010568975650213048,0.010382213537986594,0.01012076661307257,0.009828194141907259,0.009537300489808838,0.009272674052802101,0.009053334333245622,0.00889522865756417,0.008813615514315434,0.008825559620968603,0.00895295529364382,0.009226810391041555,0.009694176385816164,0.010430604040962172,0.011564722557249977,0.013331810706644865,0.016205793767637616,0.021284090773897556,0.02608569754280041,0.031624224405455655,0.03803550062108864,0.0452981217469073,0.0532513240401981,0.06155773425020931,0.06969095197902768,0.07698991019812534,0.08278556539540159,0.08655557827889353,0.08803625100778067,0.08724846039011208,0.08444641440519172,0.08002867314860089,0.0744491515055668,0.06814895296315468,0.06151427266383827
I2,0.0,0.0,0.0,0.0007244169584146453,0.0019466702961341903,0.00329584225831913,0.004500238268201188,0.0054200324043456455,0.006082570522256735,0.0065183250587462944,0.0067646184608053,0.006861968731739561,0.00684978822457333,0.0067634853530589584,0.006633162344083761,0.006483519400706824,0.006334511910400412,0.006202418883782573,0.0061011275191347105,0.006043577609142349,0.006043444494769241,0.0061173055024427644,0.006287810925636023,0.006588949646441401,0.0070758448783223345,0.007845095817787515,0.009082621807934666,0.01119627759371314,0.013760904892783995,0.016795083525143424,0.02034663528277999,0.024438474041332963,0.029040941915653262,0.03404515339694847,0.039243649072506555,0.04433346519699778,0.048952181774957096,0.052741315200275515,0.05541457689226609,0.05680583044068992,0.05688403015381571,0.055738159842411664,0.05354416681195003,0.05052671738722178
A2,0.0,0.0,0.0,8.049077315718279e-05,0.0002323948542019021,0.0004223425589880346,0.0006181777042137287,0.0007967521015293087,0.0009519073567400411,0.0010802795237689498,0.0011812928885215513,0.0012565007169568388,0.001308823571957648,0.0013419046818233362,0.001359642760152934,0.00136589442970641,0.0013643155737624968,0.0013583093187369225,0.001351055920419001,0.001345611524964259,0.0013450778787807217,0.0013528666147558238,0.001373118583379144,0.0014114129879321804,0.0014760720670632436,0.0015808119748499407,0.001750823392909081,0.0020391814375441916,0.0024139160763193656,0.002879859593219162,0.0034449526932079887,0.00411490580697361,0.00488946436678483,0.005758303520934143,0.006697371376118145,0.007667594406838276,0.008617642487332669,0.009490781338232942,0.010233712600819773,0.01080442389235918,0.011176931546043095,0.011342405431292503,0.011307398890201006,0.011090387701055445
IH2,0.0,0.0,0.0,0.0,0.00014488339168292907,0.00046163087167661965,0.0008895222566304593,0.0013439192596988367,0.0017546221914588487,0.0020920705779893124,0.0023476082301659255,0.002524380199013857,0.0026320594656558272,0.002683355318276924,0.002691691374431977,0.0026697864646583087,0.002628927326005861,0.002578737117757007,0.002527273598517261,0.0024813350294870555,0.0024469017015425103,0.002429692848023561,0.00243587783165231,0.0024730652231217073,0.0025518494756260122,0.002688541864001847,0.002910601553694425,0.003268914536880451,0.003870443872645973,0.00468353247100714,0.005696099408061248,0.006911680661178561,0.008336623458194695,0.009968163488769805,0.011783144260285826,0.013728518800383938,0.01571722392079114,0.017633331091466198,0.019347295254696736,0.02073721571054689,0.02170903672770088,0.022209615357885883,0.022230230032067387,0.021801718148391633
IN2,0.0,0.0,0.0,0.0,0.00014488339168292907,0.0005293991755727328,0.0011709618067109687,0.0020320676856705588,0.0030484952570503368,0.004163627903340786,0.0053288263496250494,0.006504533369278005,0.007660610860546131,0.008775805471911964,0.00983665234094605,0.010836154841152702,0.011772489068065117,0.012647882850896635,0.013467745731784412,0.014240084791546613,0.014975228784220503,0.015685898036620495,0.016387705310737525,0.017100274205659908,0.017849373489977845,0.018670939602889836,0.019619033712423625,0.020783102984610866,0.022331190858983708,0.02434072062740097,0.02689025673895134,0.030065315243765,0.033953151025703565,0.038632185623148615,0.044156455468038314,0.05053670806178188,0.05772274073534822,0.0655935363721004,0.0739604057071944,0.08258367685316091,0.0911984212237979,0.09954231162044375,0.10737954162013588,0.1145173362935461
D2,0.0,0.0,0.0,0.0,0.0,1.4488339168292908e-07,6.065142633595488e-07,1.496036519990008e-06,2.839955779688845e-06,4.594577971147694e-06,6.686648549137005e-06,9.034256779302931e-06,1.155863697831679e-05,1.4190696443972616e-05,1.687405176224954e-05,1.9565743136681518e-05,2.2235529601339826e-05,2.4864456927345686e-05,2.7443194045102694e-05,2.9970467643619954e-05,3.245180267310701e-05,3.489870437464952e-05,3.732839722267308e-05,3.976427505432539e-05,4.22373402774471e-05,4.478918975307311e-05,4.747773161707496e-05,5.038833317076939e-05,5.365724770764984e-05,5.752769158029581e-05,6.221122405130295e-05,6.790732345936419e-05,7.481900412054275e-05,8.315562757873744e-05,9.312379106750724e-05,0.00010490693532779307,0.000118635454128177,0.00013435267804896815,0.00015198600914043435,0.00017133330439513108,0.00019207052010567798,0.00021377955683337885,0.00023598917219126473,0.00025821940222333213
R2,0.0,0.0,0.0,0.0,1.609815463143656e-05,0.00013983709665031587,0.0004727268648118226,0.0010800653086504455,0.001978954268295077,0.003148028293533407,0.004548586052746849,0.006135865418042227,0.00786567191602031,0.009698229396788586,0.01160013819386942,0.013545042401726095,0.015513484173225482,0.017492319550229476,0.0194739708687241,0.02145570529613127,0.02343906664502223,0.025429552718103487,0.027436626291437956,0.02947418221414476,0.03156168806826239,0.03372643008224052,0.03600778846323515,0.03846570900806387,0.04119917020838272,0.04435982657010912,0.04808704531773484,0.0525183541121494,0.05779703463046142,0.06407239301860135,0.07149289630167308,0.08019241992779737,0.09027085857519021,0.10177263975129155,0.11466885526963236,0.12884888964963137,0.14412480400087763,0.16024762430805398,0.17693131504204562,0.19387894852509932
G2,0.0,0.0,0.0,0.0007244169584146453,0.0022364370795000484,0.004364277160138664,0.006887010073348374,0.009606899516773307,0.012437450596422655,0.015306233341814909,0.01815985676737243,0.020963054422628812,0.023695661408158406,0.026349273826473365,0.028924344958721752,0.03142796695297832,0.03387236722295464,0.03627407896049697,0.03865375514936213,0.041036656247023656,0.043453954176307485,0.045945192981888705,0.04856262060605907,0.051378883697118856,0.05450135878757635,0.058100947678370464,0.06247651199563262,0.06822321650458496,0.07526635484114107,0.08380489543061409,0.09407448059830803,0.106304973469973,0.12068283096082649,0.13730341920838302,0.1561199762427205,0.17690725199621435,0.1992593546529728,0.22262936078827406,0.24639914856037484,0.2699562328657051,0.29275676475510687,0.3143645065052291,0.33446577741173217,0.3528659947117839
H2,336.5560726215539,356.5891721823607,374.8559724340336,391.5995361855237,406.93017883025334,420.95032199808344,412.0673046717745,401.227915610728,388.7143985580715,374.7863856975894,359.6830009368527,343.62477426382895,326.8153761408416,309.44317832150335,291.68264478367644,273.6955536835334,255.63204841526758,237.63151313680052,219.82326571659394,202.32705931818424,185.25338326979832,168.70355514023584,152.76959988938995,137.5339194951629,123.06876840768064,109.43556700620016,109.59674372508742,109.708296535738,109.77401899502144,109.79743146423864,109.7818006469525,109.73015773098476,109.6453152342845,109.52988264725236,109.38628095749095,109.21675613681123,109.02339166462257,108.80812015653929,108.57273416211986,108.31889619108912,108.04814802315525,107.76191935259573,107.46153581513208,107.14822644121821
S3,1453.2816628843802,1446.9379730860753,1440.9333071130795,1435.31126726468,1430.0312893250632,1425.062101791077,1469.7232482641,1516.12570361222,1564.3366542929061,1614.4268608597927,1666.471069767897,1720.5483642756262,1776.742436920348,1835.1417595481166,1895.8396188258039,1958.9339754039577,2024.5270929816686,2092.724868577603,2163.635775503082,2237.3693016273937,2314.0337170935923,2393.732910796314,2476.5618206453623,2562.5994359269353,2651.896784282033,2744.4521848677673,2735.066816023919,2725.5012237526958,2715.5208741646343,2704.9091560913525,2693.354157399782,2680.4664860430294,2665.7933906270546,2648.8697444709087,2629.296894324937,2606.8282824528665,2581.4284982053805,2553.2839072981583,2522.767354436124,2490.376697864713,2456.6688209761837,2422.2033792802804,2387.502086220369,2353.0236149669377
E3,0.0,0.0,0.004322126267552094,0.008705673803035559,0.011857887577903634,0.013640066476860228,0.014297318067958902,0.014470442443618323,0.014284743513218394,0.01386739563941836,0.013323799328753133,0.012733132684310476,0.012151480492484271,0.011617211709430655,0.011156389555686179,0.010787484331679403,0.010525340771735498,0.010384665216838215,0.010383482178394724,0.010547221863791086,0.010914503963205037,0.01154657129390113,0.012544400428976395,0.014082715917403536,0.01648454981246123,0.020405821013992104,0.02737577006020107,0.03382918206883268,0.04112932525666564,0.04947284605762998,0.05884534818146955,0.06904961366997385,0.07966100238260315,0.0900140949079832,0.09927384978041119,0.10659759953928208,0.11133102410758078,0.11314856869726533,0.11208441636663223,0.10846620926749827,0.10280192468372598,0.0956675254879917,0.08762137992526821,0.07915171697097977
I3,0.0,0.0,0.0,0.0011669740922390654,0.00305071638216304,0.005032059475331805,0.006702053633951345,0.00788150805871971,0.008635924295008774,0.009038435325574232,0.009167258017987496,0.009097780629555845,0.008896614202497335,0.008618868254469154,0.008307968114227769,0.007997006048571929,0.007710824398696596,0.0074683366475865424,0.007284861597098244,0.007174457146425521,0.007152424191078906,0.007238370584712704,0.007460596600180927,0.007863346075932183,0.008520340943258264,0.00956303301531949,0.011247391482969563,0.014139892806036027,0.01761781484220644,0.021675606724623587,0.026363032470334245,0.031706063491197325,0.037667033785611335,0.04410869091466965,0.050769020173957256,0.05726535154508537,0.06314056280265738,0.06794371419064124,0.07131634206264639,0.07305259765657854,0.07311743509617166,0.07162698072230901,0.06880642031514317,0.06494162476890832
A3,0.0,0.0,0.0,0.0001296637880265628,0.00036490124451231696,0.0006476576229469625,0.0009273280926633768,0.0011707820161694685,0.0013707388862441243,0.0015251334143918513,0.0016361286006960317,0.0017086168604194193,0.0017488874688648497,0.0017636543898664077,0.0017594398631760458,0.001742243577211422,0.0017174193917195196,0.0016896957365276806,0.001663296545727291,0.0016421417019336743,0.001630130017460672,0.0016315391328646889,0.001651628445108785,0.0016976347689563198,0.0017805892926871618,0.0019190079285235663,0.0021473809732386164,0.002539177880396925,0.0030462177663825203,0.0036708539708059855,0.004420868558373687,0.005302055292143036,0.006313132643813644,0.00744033618652901,0.008652691796462704,0.009900368930582498,0.01111822313064446,0.012234509227742992,0.013182064443112353,0.01390818404548885,0.014380533514416028,0.014588484552044602,0.014540813406275433,0.014261292122778393
IH3,0.0,0.0,0.0,0.0,0.0002333948184478131,0.0007266072908380667,0.0013689889331945564,0.0020235362044543526,0.002586046177766664,0.00301762190170732,0.003313480394066799,0.003486878320236832,0.0035595084077093483,0.003555517535946432,0.0034979769013311003,0.0034070840966097726,0.0032995361739226623,0.0031886334305267277,0.0030847954113501458,0.0029962852296833717,0.002930037758897107,0.002892573679905438,0.0028910683832153545,0.0029347624432606474,0.0030371156743734997,0.003219588910164029,0.003519181469235749,0.004005549849742551,0.004826747936228739,0.005932110188619428,0.0072952443290458125,0.00891293341426071,0.01078876647195556,0.012917001226628092,0.015267321795021348,0.017772197610507103,0.02032139691666012,0.02276848962194488,0.024950219159478745,0.026713427773109172,0.027940519990097185,0.028565806494292828,0.028579733585113926,0.028022571122000482
IN3,0.0,0.0,0.0,0.0,0.0002333948184478131,0.000835776263213892,0.0018143933909881185,0.003094464234608009,0.004567855633319553,0.0061431308366630315,0.007746520532295768,0.009322352070577054,0.010831881915745757,0.012250977204404613,0.013567329544733503,0.01477772494136781,0.015885674737670406,0.016899541971202116,0.017831194253023562,0.01869516828256859,0.019508328903296013,0.02029004027666075,0.021062944155849483,0.021854589369277498,0.02270045734288719,0.023649593910432126,0.024775704188790375,0.026201235978722183,0.028157860220778888,0.030744998925061922,0.03405765752710741,0.03819763474328472,0.043268538130851825,0.04936299645003538,0.05654310748996433,0.06481650096055253,0.07411401883265153,0.08427737856732866,0.09506337355489902,0.10616519259124821,0.11724505810368659,0.12796941655277777,0.13803903240034876,0.14720965871001496
D3,0.0,0.0,0.0,0.0,0.0,2.333948184478131e-07,9.600021092858798e-07,2.328991042480436e-06,4.352527246934788e-06,6.938573424701452e-06,9.956195326408772e-06,1.326967572047557e-05,1.6756554040712404e-05,2.0316062448421752e-05,2.3871579984368185e-05,2.7369556885699286e-05,3.077664098230906e-05,3.407617715623172e-05,3.726481058675845e-05,4.0349605998108596e-05,4.334589122779197e-05,4.6275928986689075e-05,4.916850266659451e-05,5.205957104980987e-05,5.4994333493070516e-05,5.8031449167444016e-05,6.125103807760804e-05,6.477021954684379e-05,6.877576939658634e-05,7.360251733281507e-05,7.95346275214345e-05,8.682987185048031e-05,9.574280526474102e-05,0.00010653157173669657,0.00011944857296332467,0.00013471589475834601,0.00015248809236885312,0.00017280948928551323,0.0001955779789074581,0.00022052819806693685,0.000247241625840046,0.0002751821458301432,0.00030374795232443604,0.00033232768590954996
R3,0.0,0.0,0.0,0.0,2.5932757605312562e-05,0.00022337224739821167,0.0007440021846987722,0.0016743021529991046,0.0030231368714925726,0.004742217393283006,0.006760352396497147,0.009001938378985967,0.011397127191930732,0.013886886441398988,0.016424797397910425,0.01897687204742243,0.02152031422458139,0.024041863836094236,0.026536134746359,0.02900419005105415,0.03145249181484025,0.033892310162631986,0.03633967506691145,0.03881600905414905,0.041349718471147386,0.043979325787978286,0.046759418153470664,0.04977243158939837,0.05315439640949953,0.05711343819504866,0.0618361268263988,0.06750055198048599,0.0742877390567173,0.08238369725939652,0.09197189225302135,0.10321650207402781,0.11623822710231593,0.13108732301262924,0.14772121751970815,0.1659941893642501,0.18566319407877976,0.20640868934685472,0.22786506980130086,0.24965375702847534
G3,0.0,0.0,0.0,0.0011669740922390654,0.003517506019058666,0.006719135665092647,0.01040195361384491,0.014262229492193813,0.01816924895197076,0.02202612970053973,0.025770326523182688,0.029367752341946034,0.03280569816670986,0.03608659789968061,0.03922324506122689,0.04223547024126216,0.0451480910108156,0.04798993301918419,0.050793792627730504,0.05359733281589708,0.05644508271912067,0.05939199878918603,0.06250957303853934,0.06589656115436296,0.06969889445206191,0.07414972290142645,0.07965929457520432,0.0870507524914586,0.09618463165004343,0.10728954946934316,0.12064721790490325,0.13653546191390004,0.15517885760479297,0.17668732824809583,0.2009911338732513,0.22779507331396232,0.25657642518956847,0.2866358016986153,0.31718591524687695,0.34744870766586766,0.3767345841680922,0.4044911038326982,0.43032133571445597,0.4539791082942784
H3,1009.6682178646615,1005.2609359612841,1001.1288706875872,997.2487011989291,993.6001945959085,990.1645998651123,986.9245415566897,983.6057335279052,980.1855418867289,976.6448814014593,972.9679167433233,969.1417912578057,965.1563807861792,961.0040701860663,956.679550295486,952.1796331475912,947.5030832723556,942.6504629166964,937.6239889773525,932.4273993753578,927.0658265153036,921.5456753808879,915.8745037424785,910.0609019242601,904.1143696403099,898.0451876124463,891.8642820847973,885.736802873675,879.6617139989627,873.6380332751025,867.6648286104795,861.7412145702368,855.8663491837109,850.0394309790167,844.2596962285636,838.5264163904385,832.8388957316707,827.1964691203905,821.5984999748222,816.0443783579144,810.5335192072066,805.0653606902794,799.6393626768198,794.2550053189788
S4,726.6408314421901,738.7515119662266,750.7661610086553,762.7427602843812,774.6779757430575,786.5722472488073,826.1677066261881,866.1402192545646,906.4883055541754,947.2091404855039,988.2984230081836,1029.7502252247893,1071.5568277323603,1113.708546291615,1156.193554290547,1198.9977051757983,1242.1043583874794,1285.4942102130174,1329.1451251389508,1373.0319490463469,1417.126252571753,1461.395876542512,1505.8039687177704,1550.306735454,1594.8478250368512,1639.3430609209065,1661.6436598519986,1683.629105320839,1705.0990059603878,1725.856773817668,1745.6127709741702,1763.994002652336,1780.5522066861904,1794.806559446941,1806.315975933402,1814.763580763482,1820.0220686771925,1822.1763724960233,1821.5018023692858,1818.4134098174839,1813.4063565632173,1807.001694805599,1799.7045276669958,1791.975953374692
E4,0.0,0.0,0.006620139994500877,0.013512699755193657,0.0186479456855435,0.021731193182145354,0.02307600868082988,0.02367834630244418,0.023696656262067906,0.023311975865201163,0.022684167509082385,0.021939530201954046,0.021172028009006624,0.0204494873907494,0.019820866729655856,0.01932310219270827,0.018987214947484024,0.01884395877495278,0.018929663112091082,0.019293343437586815,0.020006893588989515,0.021181758411125663,0.02299914120061048,0.02576993145512444,0.03006580794034112,0.03704322139268532,0.04939043407369717,0.061303806483563344,0.07524888800092366,0.0916340405172343,0.11049345544345954,0.13151102500551265,0.15390444193381553,0.17636527795714216,0.1971703443539172,0.21449404531166996,0.22681932732144602,0.23326187642945123,0.23367962289695757,0.22857342883565365,0.21887311043382296,0.20570779453713092,0.1902203304278723,0.1734451541891687
I4,0.0,0.0,0.0,0.001787437798515237,0.0047208916130114294,0.007867480302903603,0.010587910340921408,0.012583268548376911,0.013943114630686076,0.01476396596916998,0.015152613065106303,0.015216293066516026,0.015053448994437208,0.014748516959094113,0.014370471770958806,0.013973917079582364,0.013601587839780651,0.013287500739689078,0.013060369313050699,0.01294723062809501,0.012977541105005447,0.013188385932030438,0.013632106330222191,0.014389031922298144,0.015591300646262485,0.017472548531649597,0.020485198895014795,0.025626536536907114,0.031927949672706374,0.03947396956387322,0.04842557267797719,0.058888576576520385,0.07084112269740064,0.08405887294057059,0.09805394881277074,0.11206836226322009,0.12515440959208296,0.1363338641320402,0.14478102511517596,0.1499621132512841,0.15169209373639694,0.15011099605897038,0.14560770216040758,0.13872411051177008
A4,0.0,0.0,0.0,0.0001986041998350263,0.0005642643525238307,0.0010108498525853696,0.0014606156775326562,0.0018607728024510213,0.0021989686310341424,0.002470074592689351,0.002675418950107516,0.0028208601853584843,0.002914874054345409,0.002967060083746526,0.0029871326887197028,0.002984332152865438,0.0029671587880735983,0.0029433434788833993,0.0029199935463553026,0.0029038847304469744,0.002901908087485184,0.0029217332776578326,0.002972839374460036,0.0030682457355863434,0.0032276945321228078,0.0034841298639084798,0.0038986005329073436,0.00460059344853679,0.005519588953336332,0.006673137802696775,0.008087531457674449,0.009784828829443344,0.011773193813720054,0.014035688308990508,0.01651950898590667,0.019130717519342852,0.02173939537482438,0.024196096119502887,0.026354733188485847,0.028094175237697402,0.02933254305522753,0.030032227757196713,0.030197016041871298,0.029864222746333206
IH4,0.0,0.0,0.0,0.0,0.00035748755970304745,0.0011225646148941067,0.00213365580341288,0.0031822763140873086,0.004104609590404949,0.004836823111749285,0.00536636792659689,0.005708340208393109,0.005891720377291366,0.005950658267155833,0.005919081867129583,0.005827716205889424,0.005702813802655296,0.005566021655481123,0.005434944954022896,0.005324111394667565,0.005246177711558117,0.005213350899068591,0.005239139285041315,0.005340751769280054,0.005542841517330376,0.005884138046400355,0.006430694591483696,0.007305956380153323,0.00877097954107793,0.010762308725539162,0.013265185966818685,0.01630444233303796,0.01991363203949002,0.02410512692718565,0.028840232924779757,0.03400206599201924,0.03938070338266162,0.04468185290636474,0.04956301742668405,0.053688150718950535,0.05678280985901314,0.05867304086692695,0.05930004660439063,0.05871226368767244
IN4,0.0,0.0,0.0,0.0,0.00035748755970304745,0.0012897771939456397,0.0028203801280494638,0.004844166987174986,0.007199721967371004,0.009748909286804545,0.012377490515181565,0.014996384461928977,0.0175409198706034,0.01996826481112098,0.022253899003943194,0.02438791258367179,0.02637164597957758,0.02821494203427098,0.029934119592155854,0.03155069750114859,0.033090886387064755,0.03458591649316687,0.03607339650022717,0.03760015261030616,0.039227519687081415,0.041041220415523286,0.04317085387321686,0.045832193824379974,0.049433295171498755,0.054174920092614445,0.06026806042497525,0.06794888650636294,0.07746687805188499,0.08905884630954573,0.1029088594581078,0.11909728856406947,0.1375502342451333,0.15800671399385863,0.1800187792635264,0.2029882384335469,0.22623003762316007,0.24904489829994975,0.2707848031966097,0.29090106204513166
D4,0.0,0.0,0.0,0.0,0.0,3.5748755970304745e-07,1.4800521745971544e-06,3.6137079780100345e-06,6.795984292097344e-06,1.0900593882502292e-05,1.5737416994251576e-05,2.1103784920848466e-05,2.6812125129241577e-05,3.270384550653294e-05,3.865450377368877e-05,4.457358564081836e-05,5.0401301846707786e-05,5.610411564936308e-05,6.167013730484421e-05,6.71050822588671e-05,7.242919365353468e-05,7.767537136509279e-05,8.288872226416139e-05,8.81278615492027e-05,9.346861331848276e-05,9.901145483581314e-05,0.0001048955928822135,0.0001113262874736972,0.00011863224385385052,0.00012740322339492845,0.0001381655321204676,0.00015143071808728628,0.00016773516042032423,0.00018764879245981424,0.0002117539193869999,0.00024059415231177965,0.00027459621830379886,0.0003139769216864605,0.00035865877459282525,0.0004082217920195093,0.0004619099427384598,0.0005186927525974729,0.0005773657934643999,0.0006366658400687906
R4,0.0,0.0,0.0,0.0,3.9720839967005265e-05,0.00034320617868298885,0.0011495515831240126,0.0026022978293957434,0.004726689276408968,0.007458223404521944,0.010694861844391432,0.01432475826398523,0.018241823609882264,0.022354003467766892,0.026586813817090722,0.030883862062862623,0.0352056366163911,0.0395274967885962,0.043837498902166386,0.048134466042066296,0.05242655592519231,0.05673050451336738,0.06107172379777902,0.06548552647115714,0.07001999081059881,0.07474150987649919,0.07974528112111741,0.08517604835128056,0.09127335119132722,0.09840672376595903,0.10692415926968181,0.11717854699883379,0.12954745770102347,0.14443516876533186,0.16225663133027485,0.18340301024643854,0.20819091351789693,0.23680354645388388,0.2692383996877071,0.3052776008917609,0.34449113475941934,0.3862726063704611,0.42989786667049806,0.47459257476462713
G4,0.0,0.0,0.0,0.001787437798515237,0.005435866732417524,0.01047081206751427,0.016338234226693515,0.022568756570517583,0.028961910072177514,0.03536000726293585,0.041654240746540165,0.04777896597399241,0.05370263912852,0.059419086690951785,0.06494044828645412,0.0702920823034612,0.07550931989549244,0.08063586793131312,0.08572373680055037,0.09083474584081497,0.09604394856896341,0.10144580983799058,0.10716488460899451,0.11337465273315935,0.12033253422604294,0.12845030236993504,0.13845197214596008,0.1517873893458583,0.16833941709642042,0.18865661685666982,0.21339780779632309,0.24323104076605717,0.2787390175175456,0.3202932168396758,0.3679118418881042,0.42114783486366186,0.47906122709781274,0.5403024454746032,0.6032831521105549,0.6663766502927335,0.72809147607836,0.7871872158954922,0.8427283204205176,0.8940878096360432
H4,504.83410893233076,513.2480107478696,521.6251852142136,529.9679258032769,538.2783316466013,546.5583332682338,527.0692196870876,507.54845687570827,488.01127680086336,468.47455969307197,448.9570442709539,429.4795441420263,410.06516789383693,390.7395389127046,371.53100905313244,352.4708578522992,333.5934659786707,314.9364479962772,296.5407253621146,278.4505160186049,260.71321234463227,243.37911519377016,226.50098921321577,210.1334049095633,194.33183765307038,179.15150479914826,186.63521469591865,194.06741704662528,201.44855707057258,208.77907135389728,216.05938829785646,223.28992853627713,230.47110532436244,237.60332490089337,244.68698682571852,251.72248429428987,258.71020443087684,265.6505285619741,272.5438324713107,279.39048663776754,286.1908564574168,292.94530245081023,299.6541804565626,306.31784181220274
E_Om,0.0,0.0,0.2580472244607656,0.33461788097704337,0.3459082763942681,0.33470140009259813,0.3166180367210632,0.3031065854396102,0.2939278309269264,0.28883866273357217,0.2877049053375422,0.2905513235384234,0.2975951882539323,0.3092864864839986,0.326370066745725,0.34998581630408254,0.3818306535732158,0.4244228364837085,0.48154191135831576,0.5589831448365014,0.6659021193422501,0.8173281191218811,1.0391445096570147,1.3786965416377353,1.9295526511812409,2.8967208037868826,4.799932000662678,7.249625471776357,11.007252359768318,16.53779081690636,24.557773817262067,35.885754155326694,51.35220628410757,71.58534197180464,96.74733827645643,126.32323194929691,159.08421671267607,193.2627973411902,226.8651505662349,257.9968905066006,285.10785206035183,307.12080567225667,323.4551055557658,333.97712099214243
I_Om,0.0,1.0,0.6,0.4296727506044067,0.34815047822644574,0.30228552156231986,0.27174069096239334,0.24853128449212308,0.23095754876396857,0.2179350436086513,0.20874746510325526,0.2029288035030896,0.20020613945722804,0.20047438450289856,0.20379198205241877,0.210395107252797,0.2207332347537805,0.23553421731703655,0.25591469624082325,0.28356513381123927,0.3210645293925989,0.37243228985796684,0.444137966077688,0.5470517972540069,0.7004791445945925,0.9412667025756906,1.3468746385678725,2.1041064233196467,3.2198627313714043,4.903875775960289,7.407528986140889,11.075116322345291,16.33422341534538,23.66562974591627,33.52742017993701,46.23823344260545,61.85021269187344,80.06286612754661,100.21867495864933,121.38479562807302,142.490037813626,162.47314274447058,180.40650317819166,195.57678040697175
A_Om,0.0,0.0,0.0,0.007741416733822968,0.016231669816369674,0.023362584144923784,0.028731109318716967,0.03248342855660547,0.03507994040847268,0.036881787254585935,0.03817058968567591,0.039167618908667,0.040050634833086296,0.040968363514087,0.042053285405789564,0.0434337303270034,0.045246558750725197,0.04765216660777663,0.050854418380732555,0.055129792045335524,0.060873327981363454,0.06867572596535826,0.07946042434594304,0.09474267476646488,0.11715503606230393,0.15161060838528037,0.20819011082183078,0.3105500486773449,0.46592880309516665,0.7029606132691828,1.0585022151225367,1.5835349866158914,2.3434006139525136,3.415286679685238,4.879789602902329,6.806251830615556,9.234698422971352,12.16028523975736,15.526112112041597,19.226844206620324,23.121382080494275,27.050341226205976,30.85389715113248,34.386770887578955
IH_Om,0.0,0.0,0.2,0.2198,0.1956147501208813,0.16724185595560895,0.14391079043431282,0.12615962261920077,0.11265990858540581,0.10240880413691122,0.09468900198604896,0.08899930501168948,0.08499641390145096,0.08245443842826965,0.08123964167628625,0.0812969776069506,0.08264621327642774,0.08538710737569355,0.0897150100438784,0.09595072926005999,0.10459244066301777,0.11640453376936563,0.13257232032250682,0.15498118105646852,0.18674596879797917,0.23328206734911014,0.30466109212234405,0.4214008126826242,0.6311002901925589,0.9588915910803677,1.4592620591411616,2.2096775647396174,3.3176523692741275,4.922353215336866,7.18938020363635,10.292984757601943,14.383846082564459,19.54758173357435,25.766816510562926,32.90137643050077,40.69474596443449,48.804685798978014,56.84816676258414,64.44853585016783
IN_Om,0.0,0.0,0.4,0.6266975081655214,0.7682239337572607,0.8638814201199314,0.9324270031202344,0.9835014081847828,1.022441858219406,1.0528280909022611,1.0771556388977779,1.0972400899058161,1.1144679599223402,1.1299587747998858,1.1446757848031195,1.1595081023619034,1.175339316010969,1.193114033433972,1.2139131585675589,1.2390508918979726,1.270212426521478,1.309663781933074,1.3605903881405585,1.4276733810409112,1.5181278068151731,1.6437007966453416,1.8248461530858675,2.100437619029389,2.5540561566556046,3.268323026667807,4.3749953708167455,6.063503975966473,8.601871494153073,12.354505374633963,17.791881433705125,25.481060036843623,36.047602900326034,50.10738503778367,68.17955233640207,90.60159647868127,117.46783271287032,148.60413460011165,183.58038102647077,221.75310213538103
D_Om,0.0,0.0,0.0,0.0002,0.0004198,0.0006154147501208814,0.0007826566060764903,0.000926567396510803,0.0010527270191300038,0.00116538692771541,0.0012677957318523209,0.0013624847338383702,0.0014514840388500593,0.0015364804527515103,0.00161893489117978,0.001700174532856066,0.0017814715104630169,0.0018641177237394444,0.0019495048311151384,0.0020392198411590162,0.0021351705704190766,0.0022397630110820945,0.0023561675448514597,0.0024887398651739666,0.002643721046230435,0.002830467015028414,0.0030637490823775247,0.003368410174499868,0.003789810987182493,0.004420911277375051,0.00537980286845542,0.006839064927596582,0.009048742492336198,0.012366394861610324,0.01728874807694719,0.024478128280583544,0.03477111303818548,0.04915495912074994,0.0687025408543243,0.09446935736488724,0.127370733795388,0.1680654797598225,0.21687016555880048,0.27371833232138465
R_Om,0.0,0.0,0.0,0.11330249183447866,0.24559237139389317,0.37219431193225033,0.48921719558179755,0.5979278191508332,0.7002118648006955,0.7975603683505748,0.8911542205757904,0.9819549747332008,1.0707782193618658,1.1583495556208458,1.2453486159754807,1.3324466945959539,1.4203427971240328,1.5098025696473356,1.601705030875131,1.6971035942722448,1.7973110782412824,1.904024440248702,2.0195163317391494,2.146942683090366,2.2908608423058916,2.458152040801977,2.6597784872178396,2.9144345580698894,3.2570976098365954,3.750771793473686,4.479501812604424,5.566329135689941,7.189524195704484,9.603096316412566,13.158194527180772,18.320533443309102,25.675680170918113,35.9133502548799,49.785580870399045,68.04160639367232,91.35073094361773,120.22891755562597,154.98334191807555,195.6833960285319
G_Om,0.0,0.0,0.0,0.06967275060440672,0.16001957846820844,0.2534148130946608,0.3437841911196623,0.4292710610343494,0.5111098391030441,0.5904703534533142,0.6684567923913787,0.746137116832515,0.8245859741878894,0.9049366750164514,0.9884440263671308,1.0765639443884765,1.1710601147905788,1.274154391255347,1.3887485571059486,1.5187648731726937,1.6696903222785493,1.8494838945009564,2.0701624866638646,2.3507315042712587,2.722979570513447,3.243958786332382,4.02607340335484,5.322055043533762,7.2794539209133795,10.251412058050825,14.716615578615542,21.347214509276302,31.03636813121451,44.90146382792355,64.2295061603108,90.35128749495405,124.45856012126421,167.41129863368678,219.5922539158081,280.8458445686915,350.5050050054738,427.48412506176874,510.40674259327807,597.7396210933348
beta,13.663196680037466,13.663196680037464,13.663196680037464,13.659961806150756,13.657659005196145,13.655791374180312,13.65417496669888,14.218008989801119,14.821696603410286,15.471972924930459,16.176982216988026,16.946678457510167,17.79336690326438,18.73244917675312,19.78346758521744,20.971599045513635,22.329841649771918,23.90229922721556,25.74926456726218,27.955363188450416,30.643141659618095,33.99686644607054,38.30673120532985,44.057191822428884,52.12071752999546,64.23867557226201,84.4405635562393,83.6045353032721,82.46425449058047,80.78975167503972,78.42288715015984,75.18778103389792,70.97082083635627,65.78942358633263,59.84598178195076,53.50975351647265,47.216622390114495,41.3420214706473,36.121303476012756,31.643211102134693,27.889735362924597,24.7849459806204,22.232121730274237,20.135382549570476
