series,2021-11-01,2021-11-02,2021-11-03,2021-11-04,2021-11-05,2021-11-06,2021-11-07,2021-11-08,2021-11-09,2021-11-10,2021-11-11,2021-11-12,2021-11-13,2021-11-14,2021-11-15,2021-11-16,2021-11-17,2021-11-18,2021-11-19,2021-11-20,2021-11-21,2021-11-22,2021-11-23,2021-11-24,2021-11-25,2021-11-26,2021-11-27,2021-11-28,2021-11-29,2021-11-30,2021-12-01,2021-12-02,2021-12-03,2021-12-04,2021-12-05,2021-12-06,2021-12-07,2021-12-08,2021-12-09,2021-12-10,2021-12-11,2021-12-12,2021-12-13,2021-12-14,2021-12-15,2021-12-16,2021-12-17,2021-12-18,2021-12-19,2021-12-20,2021-12-21,2021-12-22,2021-12-23,2021-12-24,2021-12-25,2021-12-26,2021-12-27,2021-12-28,2021-12-29,2021-12-30,2021-12-31,2022-01-01,2022-01-02,2022-01-03,2022-01-04,2022-01-05,2022-01-06,2022-01-07,2022-01-08,2022-01-09,2022-01-10,2022-01-11,2022-01-12
S,7959722.683738402,7958047.337936943,7956780.671030529,7955778.201771304,7954950.931629669,7954243.530030514,7953621.254373349,7953062.019142726,7952551.559010474,7952080.465869752,7951642.3672229005,7951232.80261352,7950848.528358363,7950487.085778598,7950146.531930845,7949825.270782849,7949521.946624326,7949235.376140902,7948964.504582509,7948708.377005948,7948466.118995969,7948236.923386394,7948020.04081347,7947814.772746528,7947620.466145654,7947436.509210138,7947262.32787726,7947097.382853216,7946941.167034755,7946793.203228294,7946653.042103813,7946520.011773022,7946394.024842797,7946274.676896268,7946161.597349468,7946054.44255374,7945952.891480828,7945856.642870685,7945765.41322024,7945678.935266799,7945596.956772114,7945519.239497689,7945445.558308804,7945375.700370919,7945309.4644167265,8021780.23802136,8098251.19378724,8174722.163519936,8251192.8770110905,8327662.971679911,8404131.988850582,8480599.356635192,8557064.35679865,8633526.069299828,8709983.282003425,8786434.341311168,8862876.895078601,8939307.423895745,9015720.318103455,9092105.862576779,9168445.152143812,9244694.11240914,9320709.450262085,9318730.228859073,9316531.357211515,9313145.991810849,9308377.338665847,9302009.72002529,9293947.910520893,9284203.609352527,9272873.312002433,9260109.088069187,9246093.538411634
E,0.0,1675.3458014586263,2606.9435475806995,3088.0240972887314,3297.689419466605,3345.553134728473,3298.7181649472013,3198.209762580853,3069.027942318147,2926.315494575811,2779.1510425123206,2632.8854433891256,2490.582609867248,2353.9086676605934,2223.6807818800135,2100.2057735007224,1983.4887773240282,1873.36150528334,1769.5607626195945,1671.7761866579758,1579.6789593029805,1492.9387770179708,1411.2335945386549,1334.25494257206,1261.7105549331047,1193.325379462778,1128.8416364496013,1068.0183332034608,1010.6304850214046,956.4681944792652,905.3356800644452,857.0503075080446,811.4415896064479,768.3504631857437,727.6283409410942,689.1363483788183,652.7446139776172,618.3316124495119,585.7835590088322,554.9938516160021,525.8625577900724,498.2959425212528,472.20603391669846,447.51022339750205,424.13089748613345,401.9950984557164,384.0976341732575,369.7582897743099,358.53444827362335,350.16391866269527,344.5324937806394,341.6613145395573,341.71267685357316,345.01684527042585,352.12807626705273,363.9280652478897,381.81557117533606,408.0680487333577,446.5814832560249,504.5453266710174,596.8255477215539,760.2707260166085,1122.7129376681955,2860.7989234836073,4465.366165250404,6911.892917952734,10220.33125654416,14416.05212685527,19398.554116898653,24978.785245984887,30921.08596680765,36982.606126115556,42940.524058052426
I,12521.545405357852,9354.61007488203,7290.2147484207235,5915.631585057985,4975.300964742264,4310.537476548583,3822.520698815229,3449.5022869010904,3152.7357642231873,2907.7743725844302,2699.0801029426284,2516.6789543810273,2354.0826935031505,2206.995587962311,2072.5082798853396,1948.5943326748911,1833.7950615984255,1727.0216351070305,1627.430315863552,1534.3433885826435,1447.1986796933265,1365.517012681442,1288.88094918699,1216.9206607479005,1149.3043310324665,1085.7314584130497,1025.9280344106676,969.6429521178698,916.6452356225966,866.7218299369158,819.6757841670133,775.3247193477126,733.4995094303642,694.0431158416957,656.8095866583367,621.6631382400961,588.4773317851028,557.1343303787253,527.5242257358207,499.5444261910021,473.09909908160967,448.09866178881344,424.4593165282922,402.1026246173764,380.9551164535309,360.9479338583842,342.0165017965785,324.6516428949035,309.09760279194734,295.4571817338279,283.7599854612761,274.00757457506165,266.20492033472254,260.3849499389085,256.6317102944198,255.10775742376134,256.09323903391004,260.04922479876257,267.7301130064666,280.40077772972637,300.30028384525895,331.7772688064782,384.71326185067613,489.5003405363603,880.6402653302741,1461.6756191073362,2336.1309732451437,3584.9389532178866,5273.129565172741,7431.1952443070495,10047.886956514643,13072.382042362897,16422.99882530432
A,1391.2828228175392,1265.8677240766776,1185.264896921903,1130.5598453844143,1090.4077094814352,1058.0683339578638,1029.6014171348158,1002.7639083427978,976.3354583924138,949.7057249313389,922.62223980949,895.0368657018429,867.0128216954083,838.6689063408471,810.1465317863228,781.5907060966847,753.1395022222505,724.9186494308046,697.0391775529455,669.5968439069075,642.6725666579143,616.3333933629094,590.6337216068654,565.6166044809404,541.3150447342463,517.7532248089828,494.9476462142677,472.9081673612543,451.6389381356387,431.1392346438501,411.40420029813197,392.425500670279,374.1918999412104,356.689765383795,339.9035119091183,323.8159875765824,308.408809091619,293.6626528636893,279.55750669251785,266.07288665182796,253.18802326729505,240.88202064801868,229.13399183157782,217.92317324152566,207.22902083122494,197.03129019669097,187.3101026807682,178.10726771530952,169.4472215864909,161.34334546849766,153.80257048951214,146.82891883836757,140.42647294797288,134.6021931647414,129.36901769607638,124.74980358366162,120.78298136360493,117.53149248835186,115.09815374140778,113.6544333485605,113.50013182868216,115.20534400838396,120.025745965256,131.66046426659761,177.00810809182735,250.35930156457562,366.02889701442007,537.4403974242871,777.3146831950046,1095.2159018454506,1496.0650155790781,1979.6262029123823,2540.827897069983
IH,0.0,662.6262494042519,1129.0423467692858,1466.067985461922,1715.7957546200505,1904.976293676883,2050.8074011202166,2164.5146194015942,2253.5709954224385,2323.076387650518,2376.6166915719946,2416.8006702855473,2445.5965988988037,2464.5443907526274,2474.890123489364,2477.672095490767,2473.776523273453,2463.9741548463285,2448.9448291242525,2429.2943724912916,2405.5665811746057,2378.2520147249224,2347.7946874711474,2314.597345967215,2279.025770849391,2241.412384989074,2202.05935138571,2161.241282107402,2119.2076401675445,2076.1848910463027,2032.378444331328,1987.974415352535,1943.141229649707,1898.0310883409616,1852.781308526712,1807.5155528377354,1762.3449572789411,1717.3691667847106,1672.677286731472,1628.3487577254896,1584.4541602208592,1541.0559548768194,1498.2091640047834,1455.9619989646653,1414.3564379340537,1373.4287580834837,1333.2100258397875,1293.726548602241,1255.0294713157498,1217.1806551337772,1180.244729442325,1144.2850989255553,1109.3625123442307,1075.5353577358405,1042.8612437736747,1011.3997386263779,981.2164399405208,952.3889372428014,925.0158681884955,899.2315320966127,875.2313634991814,853.3208447465207,834.0223891705436,818.3587661056279,808.9168854305276,820.5814981444171,862.4900495033764,948.8637349256181,1097.5923873455574,1329.234476348751,1665.0741573922796,2124.881016633872,2724.881294405057
IN,2504.3090810715707,4983.575071332426,6804.661335595508,8194.657671923698,9295.837412216057,10197.939231042352,10958.067334041643,11612.990800464271,12186.76134983985,12695.44088918609,13150.041354811114,13558.356961851528,13926.10918310922,14257.664629978759,14556.48710127143,14825.423886235785,15066.888513908405,15282.978641089006,15475.55318169952,15646.283713055236,15796.689553641214,15928.162394043466,16041.98417263932,16139.340520750326,16221.331247692402,16288.97880142197,16343.235305090362,16384.988558921592,16415.06726375595,16434.245638242908,16443.247547847863,16442.750229202786,16433.387670780303,16415.753695958574,16390.404782167327,16357.862651677322,16318.616652808567,16273.125952637503,16221.821559186872,16165.108188742166,16103.365992092946,16036.95215198834,15966.202362826218,15891.432202503616,15812.938405402057,15731.000044638738,15645.87963096403,15557.824135013703,15467.176222242546,15374.323980578512,15279.672177119493,15183.627452440556,15086.592692831162,14988.967749969795,14891.15506245788,14793.569853892184,14696.655706838013,14600.907797576416,14506.908564560403,14415.385501516093,14327.31180204688,14244.09874079546,14168.013207148802,14103.275727447448,14060.143038280245,14095.669660963496,14247.048088175328,14571.803801942604,15143.073554566756,16046.268732055636,17372.04509359649,19207.902033963455,21630.299422096403
D,8333.0,8333.0,8333.662626249405,8334.791668596174,8336.257736581636,8337.973532336255,8339.878508629934,8341.929316031055,8344.093830650456,8346.347401645879,8348.670478033531,8351.047094725103,8353.463895395387,8355.909491994287,8358.374036385037,8360.848926508526,8363.326598604019,8365.800375127294,8368.264349282137,8370.713294111261,8373.142588483754,8375.548155064927,8377.926407079653,8380.274201767124,8382.58879911309,8384.867824883942,8387.10923726893,8389.311296620317,8391.472537902424,8393.591745542592,8395.667930433638,8397.700308877967,8399.688283293322,8401.631424522971,8403.529455611313,8405.382236919839,8407.189752472676,8408.952097429956,8410.669466596739,8412.342143883472,8413.970492641198,8415.554946801418,8417.096002756296,8418.5942119203,8420.050173919264,8421.464530357198,8422.837959115283,8424.171169141122,8425.464895689725,8426.71992516104,8427.937105816172,8429.117350545617,8430.261635644543,8431.370998156886,8432.446533514623,8433.489394758395,8434.500794497022,8435.482010936963,8436.434399874204,8437.359415742392,8438.258647274486,8439.13387863799,8439.987199482735,8440.821221871905,8441.63958063801,8442.448497523443,8443.269079021586,8444.131569071089,8445.080432806015,8446.17802519336,8447.507259669708,8449.172333827099,8451.297214843735
R,0.0,150.45818955157733,342.3605155818649,564.886422630636,810.600420871132,1074.2430148439607,1351.9731496097543,1640.8912112002236,1938.73669632886,2243.694907322581,2554.2719150672415,2869.2124437934144,3187.444886814319,3508.043594360909,3830.2022621043584,4153.214544291203,4476.45944639145,4799.389945862347,5121.523848997066,5442.436242896055,5761.753122724177,6079.1459143579195,6394.326701655205,6707.044024833407,7017.079153639727,7324.242763530927,7628.371959570565,7929.327604101989,8226.991912286961,8521.266285462825,8812.069356693275,9099.335226332852,9383.011868190843,9663.059689159041,9939.45022697138,10212.16497278083,10481.194306271262,10746.53653240911,11008.197010050173,11266.187363601402,11520.524769814658,11771.231312573169,12018.333399233663,12261.861232716688,12501.84833410354,12738.3311110064,12971.348467435593,13200.941451299412,13427.158458995094,13650.055674200623,13869.696977680036,14086.153649439791,14299.504073570231,14509.833594077403,14717.234644360991,14921.807279066692,15123.660278727579,15322.913091592422,15519.699065011411,15714.170800600208,15906.509297873308,16096.940558917277,16285.768977497417,16473.45684842113,16660.885275574903,16851.571809092602,17049.71788302656,17261.57276471376,17495.771023580226,17763.580090295785,18078.85103649081,18457.683082904834,18917.863284108156
G,1041457.0,1041457.0,1041758.5622442625,1042227.8120828272,1042783.6564203391,1043377.240515843,1043979.4400800942,1044573.2093497847,1045148.8871070492,1045701.3121366665,1046228.0489256901,1046728.2961133424,1047202.2154931524,1047650.5203629286,1048074.2239231073,1048474.4864638458,1048852.523503076,1049209.551482994,1049546.7565539451,1049865.2774912165,1050166.1972048152,1050450.53941749,1050719.2683973531,1050973.29044437,1051213.456334033,1051440.564233921,1051655.362802224,1051858.554296785,1052050.7975967617,1052232.7110840655,1052404.875359072,1052567.8357814834,1052722.1048368348,1052868.164322964,1053006.4674063374,1053137.440507707,1053261.485050415,1053378.979080931,1053490.2787711718,1053595.7198117934,1053695.6187050845,1053790.2739654863,1053879.9672351403,1053964.9643212452,1054045.516161457,1054121.8597230045,1054194.2188407264,1054263.3564148776,1054329.9129070367,1054394.4491077259,1054457.4786130853,1054519.4944619657,1054580.993498583,1054642.5017804168,1054704.6048125655,1054767.9878662932,1054833.494918038,1054902.2217208494,1054975.6739696213,1055056.0586366076,1055146.8767954083,1055254.305393998,1055391.1541246814,1055593.2424534613,1056108.1862596886,1056911.9521694335,1058156.0928946652,1059995.7525208432,1062590.641903677,1066082.3816447188,1070578.5629889963,1076144.3584630215,1082801.227565722
H,1377604.40311716,1377604.40311716,1377604.40311716,1377604.4031171603,1377604.40311716,1377604.40311716,1377604.40311716,1377604.4031171603,1377604.40311716,1377604.4031171603,1377604.4031171603,1377604.40311716,1377604.40311716,1377604.40311716,1377604.40311716,1377604.40311716,1377604.4031171603,1377604.40311716,1377604.40311716,1377604.4031171598,1377604.4031171598,1377604.40311716,1377604.4031171598,1377604.4031171598,1377604.4031171598,1377604.4031171598,1377604.4031171598,1377604.4031171598,1377604.4031171598,1377604.4031171598,1377604.4031171598,1377604.40311716,1377604.4031171598,1377604.40311716,1377604.4031171598,1377604.40311716,1377604.4031171598,1377604.4031171598,1377604.4031171598,1377604.4031171598,1377604.4031171598,1377604.4031171598,1377604.4031171598,1377604.4031171598,1377604.4031171598,1321938.0273916079,1267107.4362839824,1213162.7777248393,1160158.462977476,1108153.4783719527,1057211.6820744288,1007402.0672013629,958798.9652574012,911482.1545467268,865536.8266912821,821053.3507436181,778126.7591447318,736855.8643094776,697341.9015680896,659686.5880012836,623989.4940556706,590344.6546002048,558836.408334713,558836.408334713,558836.408334713,558836.408334713,558836.408334713,558836.408334713,558836.408334713,558836.408334713,558836.408334713,558836.408334713,558836.4083347131
S0,2785902.939308441,2778713.3164419387,2768011.701358835,2757493.157694112,2747108.5030311234,2736827.0364693725,2726629.3936909745,2716503.1973358123,2706440.3949132264,2696435.6232263935,2686485.2004490267,2676586.503380938,2666737.5817235,2656936.9185171467,2647183.2808742314,2637475.6265855595,2627813.0453569726,2618194.7215469917,2608619.9102814337,2599087.9219120364,2589598.111697523,2580149.872768661,2570742.631171909,2561375.8422408435,2552048.987826704,2542761.5740946922,2533513.1297016437,2524303.2042385605,2515131.3668637844,2505997.2050789953,2496900.3236167748,2487840.245182839,2478816.729737603,2469829.416552325,2460877.9635077664,2451962.0440700147,2443081.3453253987,2434235.566617257,2425424.4185314653,2416647.6220901017,2407904.908074674,2399196.016434607,2390520.695755659,2381878.7027734667,2373269.801923293,2387498.520820095,2401235.431673584,2414460.8210034827,2427153.38927861,2439290.1726757963,2450846.4716478777,2461795.795108988,2472109.8307077424,2481758.4535177033,2490709.786854859,2498930.328277019,2506385.147424474,2513038.1408525673,2518852.2662069937,2523789.4897187934,2527809.537443295,2530863.7421157435,2532861.520078006,2522798.526968187,2512671.273561355,2502023.996141291,2490770.8426254652,2478819.7799442057,2466137.021157053,2452739.8075026674,2438684.8283969164,2424053.7236054437,2408940.846129691
E0,0.0,923.4189456858571,1439.5050721573152,1707.3061249994469,1825.1777937069282,1853.4340362891126,1829.0593999547502,1774.699284189774,1704.1742328283572,1625.870764369231,1544.830025537758,1464.0357852556715,1385.2092035421367,1309.2993501369267,1236.7858633427047,1167.865540859643,1102.5671947102448,1040.8221687505759,982.5074620064765,927.471939481154,875.5521156455632,826.5815226557387,780.3961442432515,736.8374481594992,695.7539630162273,657.0019819704361,620.4457508793286,585.9573595924846,553.4164692853593,522.709955917193,493.7315174600219,466.3812727086749,440.5653325874955,416.1955109201605,393.1889025073571,371.4675515120815,350.95813900588615,331.5916902618062,313.3033013614576,296.0318841942244,279.71992872150713,264.31328132458793,249.76093807726005,236.01485184380843,223.029752177584,210.76297707386584,200.74979205978565,192.62389406235764,186.14322065623466,181.1594383258127,177.60032517823925,175.46233821961889,174.8124831175279,175.80056829235514,178.68568329052016,183.8855789915597,192.06750273497997,204.32163376178835,222.51598883797897,250.09980184910523,294.20528706218136,372.5056740734294,546.283723417057,1379.3730113981023,2144.7964278369095,3307.5198555465845,4873.287718502037,6850.007018200015,9185.839397299078,11787.721642797384,14541.771961880002,17332.155358392127,20053.906344272425
I0,12521.545405357852,9354.61007488203,7154.867914381624,5604.377596099602,4494.239753308861,3686.0936387695597,3087.4290639134415,2635.7906326210737,2288.59526996929,2016.5176628499933,1799.1589970441876,1622.187110136771,1475.4317926883555,1351.6048821174331,1245.4323623658104,1153.060450542509,1071.6454818230407,999.0681940900673,933.7329685368343,874.4256083143055,820.211805589973,770.3641292334406,724.3091649744434,681.5890029135635,641.8330114088525,604.7370337109345,570.0479728252931,537.5523090219258,507.06750191627094,478.43551804628896,451.5179312699696,426.19219166607155,402.3487658861347,379.8889236006892,358.7230317335937,338.7692041707081,319.9522332921008,302.2027354982646,285.45646016161896,269.65372414650653,254.73894344961664,240.66024050495653,227.36911091142792,214.82013724036744,202.97074050420198,191.7809620651185,181.21327041866553,171.51597428161773,162.8086458532731,155.13704402877568,148.50865438161944,142.91606930166645,138.35311696439086,134.82724753642185,132.37099241220497,131.05529130045767,131.00833707602396,132.44600473560098,135.7258026753192,141.4510616834589,150.69338089608928,165.53713035627766,190.7206848825178,240.8148917030309,428.19539931380723,705.9600524077723,1122.7629955137368,1715.986817382047,2514.982604283494,3532.34709408845,4760.739693401901,6174.177660835308,7732.39948173176
A0,1391.2828228175392,1265.8677240766776,1170.2263598064478,1093.528165083422,1029.0998348908138,972.836733051417,922.2105088064782,875.6604167200481,832.2193103971687,791.2836362775618,752.4719775993769,715.5381227759375,680.3177299723866,646.6956949019216,614.5862705754488,583.9210323033684,554.6416593908743,526.6956646149788,500.0339190116346,474.6092622539268,450.37576251178456,427.28835870033515,405.30272234158826,384.3752405562006,364.463061237308,345.52416568904096,327.51744879084816,310.4027956986269,294.14114945758865,278.6945670669345,264.0262633598229,250.10064307242396,236.88332199835688,224.34113766232693,212.44215324699982,201.15565272744746,190.45212981189766,180.30327163032842,170.6819380392877,161.56213732439133,152.91899899306623,144.72874426513596,136.9686547904454,129.61704005184072,122.65320384851823,116.05741019865305,109.81084895074108,103.92711087665351,98.41123556710063,93.2629670779565,88.47910586648162,84.05529637005026,79.98750479180455,76.2734010687925,72.91386134649217,69.91486458249295,67.29020578783037,65.06578138979643,63.2869570059915,62.03236917392911,61.44255053636306,61.78800991754957,63.668336122325044,68.85472413467653,90.23537875525149,124.99717473239622,179.8798894179494,261.13064154483664,374.59155274816385,524.5413482430607,713.011789731715,939.5738529554369,1201.5204874793476
IH0,0.0,662.6262494042519,1129.0423467692858,1458.9055816128177,1692.471487064807,1857.2021994323477,1972.0518424357424,2050.260356914167,2101.1907679956066,2131.548253900996,2146.196526884381,2148.7097482888707,2141.7492659405875,2127.3232853534887,2106.967594280172,2081.8725532773788,2052.973172194188,2021.0135933361764,1986.5936698014627,1950.2029080902175,1912.2454185048248,1873.0584149082492,1832.9260517297964,1792.0898660534085,1750.7567306641483,1709.1049699005275,1667.2891104664286,1625.4436112990047,1583.6858246994227,1542.1183745772412,1500.8310894627323,1459.9025927490488,1419.4016268046976,1379.388168566946,1339.914379812884,1301.025426120153,1262.760189000068,1225.1518907309048,1188.2286469862418,1152.0139590252393,1116.5271547001805,1081.7837856314095,1047.7959864469203,1014.5728008696424,982.1204785757179,950.4427460791859,919.5410543757484,889.4148056657702,860.0765681901353,831.5446949831737,803.8391679040076,776.9795019044647,750.983977064544,725.8697573241047,701.6536595506352,678.3534958003054,655.990062860073,634.590043108162,614.1903903500945,594.8453812678628,576.6388758758596,559.7078200284911,544.2935473016499,530.877717367122,520.6922595785312,520.8626893597282,535.7247544734136,572.0016607979496,638.1044775497385,743.6342186850865,898.4438265805101,1111.572229619345,1390.2929785032475
IN0,2504.3090810715707,4983.575071332426,6804.661335595508,8167.588305115878,9206.78794128464,10013.568012533566,10650.651060162141,11161.630362343209,11577.172185243991,11919.11951738541,12203.231854781556,12441.031335642578,12641.058444313507,12809.734218408043,12951.957852647449,13071.524746594136,13171.421589236696,13254.036469708937,13321.309743829861,13374.84324009893,13415.979929360801,13445.862491185188,13465.476692120024,13475.683758193712,13477.244721194487,13470.838876264314,13457.077894243857,13436.516709866477,13409.662004572197,13376.97888490973,13338.89619966989,13295.810823927186,13248.09115402113,13196.079995658145,13140.096980421702,13080.440616964204,13017.390051628703,12951.206597770837,12882.135078892781,12810.405020136177,12736.231714764117,12659.8171863064,12581.351062544327,12501.01137410117,12418.965287808232,12335.36978303099,12250.372277613704,12164.1112089213,12076.77329168841,11988.567287942182,11899.709023868516,11810.413664506155,11720.892741721427,11631.354437697091,11542.006342827404,11453.06047788157,11364.740931362847,11277.295189464423,11191.011438516898,11106.246484666794,11023.474232156817,10943.378166014467,10867.051810425577,10796.525429297824,10736.723153345452,10714.995001674759,10749.037062139565,10866.099290620918,11100.635661191118,11492.625825435905,12084.168985999237,12915.475234819625,14021.15601463849
D0,8333.0,8333.0,8333.662626249405,8334.791668596174,8336.250574177786,8337.943045664852,8339.800247864285,8341.772299706721,8343.822560063636,8345.923750831631,8348.055299085532,8350.201495612417,8352.350205360706,8354.491954626646,8356.619277912,8358.72624550628,8360.808118059556,8362.86109123175,8364.882104825087,8366.868698494887,8368.818901402978,8370.731146821483,8372.604205236392,8374.437131288121,8376.229221154175,8377.97997788484,8379.68908285474,8381.356371965207,8382.981815576506,8384.565501401206,8386.107619775783,8387.608450865246,8389.068353457995,8390.4877550848,8391.867143253367,8393.207057633179,8394.5080830593,8395.7708432483,8396.99599513903,8398.184223786016,8399.336237745041,8400.452764899741,8401.534548685373,8402.58234467182,8403.59691747269,8404.579037951265,8405.529480697345,8406.449021751721,8407.338436557387,8408.198513125577,8409.03005782056,8409.833896988464,8410.61087649037,8411.361860467434,8412.087730224757,8412.789383884308,8413.467737380108,8414.123727442968,8414.758317486076,8415.372507876426,8415.967353257693,8416.54399213357,8417.103699953597,8417.6479935009,8418.178871218266,8418.699563477845,8419.220426167205,8419.756150921678,8420.328152582475,8420.966257060025,8421.70989127871,8422.60833510529,8423.71990733491
R0,0.0,150.45818955157733,342.3605155818649,563.5307963077053,805.3337470885804,1061.5752671051323,1327.7629806326086,1600.603515500429,1877.6573469739108,2157.099465963683,2437.551784688089,2717.9646327341006,2997.532163966267,3275.631407542704,3551.777955196742,3825.5934574224902,4096.781573113734,4365.110019778229,4630.397060505375,4892.501241659283,5151.313529437419,5406.751229088198,5658.753238065798,5907.276304311686,6152.29204728962,6393.784562102182,6631.748472764758,6866.187334270549,7097.112307818302,7324.54105189596,7548.4967855426,7769.007490292827,7986.105224946226,8199.825533059133,8410.206927347526,8617.290438701852,8821.11921982789,9021.738195542503,9219.193753254538,9413.53346832746,9604.805859932614,9793.060173721295,9978.346188215362,10160.714042274469,10340.214081368711,10516.896720688375,10690.812323372158,10862.011092343257,11030.545814796484,11196.472129626372,11359.848514608017,11520.73616041405,11679.19884009624,11835.302849658437,11989.117081049259,12140.713290619722,12290.166645400286,12437.556674273214,12582.968841132142,12726.497140265648,12868.248512581116,13008.35084426602,13146.969018845393,13284.343086210918,13420.913382282783,13558.383248408973,13698.77657345892,13845.084683603767,14001.41820015621,14173.113784458486,14366.698669538418,14589.719935571487,14850.469450897164
G0,1041457.0,1041457.0,1041623.2154102235,1041882.3263232118,1042189.6414257117,1042518.1734285789,1042851.791555111,1043181.0222471028,1043500.468118257,1043807.2194801661,1044099.8762177526,1044377.9456223494,1044641.4720636954,1044890.809720333,1045126.4836033576,1045349.1050587592,1045559.3208561139,1045757.7829511617,1045945.1309415369,1046121.982284698,1046288.9272338047,1046446.5266146209,1046595.3112886989,1046735.7825946627,1046868.4133353315,1046993.6490486744,1047111.909405429,1047223.5896405873,1047329.061965314,1047428.6769297853,1047522.7647218504,1047611.6363949932,1047695.5850240807,1047774.8867839464,1047849.8019759121,1047920.5759783634,1047987.4401376356,1048050.6126026566,1048110.2991069037,1048166.6937011487,1048219.9794403036,1048270.3290274735,1048317.905418112,1048362.8623869659,1048405.3450602978,1048445.4904156898,1048483.427751563,1048519.5627141338,1048554.235015065,1048587.740794783,1048620.3494936817,1048652.3175522138,1048683.9007730933,1048715.3670200545,1048747.011122347,1048779.1745453393,1048812.2739495577,1048846.84610005,1048883.6239941271,1048923.676872118,1048968.6948364507,1049021.651788122,1049088.7028094553,1049187.0338796703,1049435.321021722,1049821.3843787326,1050416.737952731,1051293.9297420615,1052526.9310053375,1054180.3820968512,1056302.1719925548,1058919.6909456933,1062039.4789102038
H0,482161.541091006,481076.6776235513,479344.8015841065,477619.16029840376,475899.7313213295,474186.4922885727,472479.42091633385,470778.49500103504,469083.69241903134,467394.9911263228,465712.3691582681,464035.80462929833,462365.27573263284,460700.76073999534,459042.23800133134,457389.6859445266,455743.0830751263,454102.4079760558,452467.639307342,450838.7558058356,449215.73628493457,447598.5596343088,445987.2048196253,444381.65088227467,442781.87693909847,441187.8621821177,439599.58587826206,438017.0273691003,436440.1660705716,434868.98147271754,433303.45313941577,431743.5607081139,430189.2838895647,428640.60246756225,427097.49629867903,425559.9453120038,424027.92950888054,422501.42896264856,420980.423818383,419464.89429263683,417954.82067318336,416450.1833187599,414950.96265881235,413457.1391932406,411968.6934921449,387680.8502958191,363921.2246804654,340709.31468560797,318066.1542136328,296014.3970936127,274578.38752232323,253784.2082270453,233659.6947441464,214234.40056207575,195539.4935270905,177607.5589680297,160472.2797949613,144167.95905062836,128728.8472488705,114188.23721789564,100577.29576661099,87923.61766945818,76249.51669115754,75975.01843106937,75701.50836471752,75428.98293460453,75157.43859603995,74886.87181709422,74617.27907855267,74348.65687386988,74081.00170912396,73814.31010297111,73548.57858660042
S1,795972.2683738403,745138.3215680778,701740.5055334329,661448.207774691,624024.9175328224,589256.9262696125,556949.2390826505,526922.8212716049,499012.63687736815,473066.1694878385,448942.24645317264,426510.0619185354,405648.33662742656,386244.57700905914,368194.4103445554,351400.9811774832,335774.3990895802,321231.2309351786,307694.0324440623,295090.9152403478,283355.1460620106,272424.7754635126,262242.293637077,252754.3112519548,243911.26341825948,235667.1350520712,227979.20606324018,220807.81491377647,214116.1392073562,207869.9920721457,202037.63319173845,196589.58566120287,191498.49881746466,186738.9682163268,182287.4069643603,178121.9153434,174222.15987721522,170569.26112114673,167145.68952586525,163935.16878308821,160922.58610910227,158093.9089640375,155436.10774258428,152937.0840061569,150585.6038579571,149802.1062834353,149083.45244601692,148423.4803852263,147816.2085871612,147255.82057063936,146736.6501119029,146253.16763128166,145799.96833540584,145371.76279256237,144963.37067673108,144569.71835955846,144185.840652014,143806.88577733183,143428.11913886896,143044.91094377372,142652.65691601718,142246.42555358753,141819.08092926038,140754.74077808746,139724.7850549857,138701.27077638143,137677.1833877482,136645.3645262695,135602.04123986835,134546.37562221318,133479.790293515,132405.14942094014,131326.0768075702
E1,0.0,263.83398448167344,398.9852846528843,460.06864720287274,478.23648556309354,471.9281729195915,452.1058346817112,425.3027096758099,395.41038983591017,364.7337655776752,334.6180958487422,305.8245749430035,278.7571450613933,253.60072346615053,230.40626566085186,209.14363816463862,189.7348016905445,172.07481289242315,156.04519494292813,141.52246374229932,128.3835373562454,116.50911442942143,105.7857142705127,96.10682763534611,87.37347402304563,79.49436342919432,72.3857968975281,65.97139813082758,60.18174007524135,54.9539109670491,50.23105081055043,45.9618797199426,42.10023000975887,38.60460441861038,35.437744501429265,32.56623089513474,29.96011147512464,27.592558127241666,25.439551899419943,23.47959565320696,21.69345291786283,20.063911395353657,18.57556942757822,17.214643684145393,15.968796335235952,14.826980021181615,13.878151286305435,13.090771504180108,12.442455607375262,11.917710674694465,11.506568656724566,11.203900849334033,11.009326622197316,10.9277528894691,10.970743911915934,11.159197160328748,11.528356888069887,12.137463017744683,13.089563017194003,14.576418489695158,16.996035359255025,21.33617380792377,31.023394949349004,77.58221969247924,120.1630162314417,184.64080721318794,271.1828579770123,380.08343411158813,508.35146867693896,650.7650409012763,801.0113361393473,952.7256873039187,1100.187567590406
I1,0.0,0.0,47.49011720670123,107.29632084529976,162.9714112684413,207.83543067949262,240.2169959480579,260.84063087891843,271.42359651111406,273.94931268071036,270.31443516072045,262.17806626714014,250.91670497728325,237.63141727499954,223.17807386792623,208.20525158734557,193.19206590752626,178.48240787847047,164.31430220617494,150.84424682393725,138.16693124395277,126.33094146418651,115.35110092210049,105.21805740341212,95.90565238151723,87.37652682509461,79.5863383066582,72.48689362401178,66.02844081253178,60.16131424943205,54.83708556850607,50.009340052813144,45.6341717645284,41.670469223380934,38.08004931189285,34.82767962405798,31.881023209437558,29.210530360686214,26.789295989010384,24.592896399363468,22.599215625550944,20.788268682205313,19.142026950573676,17.64424929163841,16.280321257719372,15.037103861613884,13.902792689401764,12.88458106437422,11.982166029743158,11.191291940076745,10.505990757234908,9.920009623748612,9.427753981158299,9.024975727046014,8.709384428878085,8.481350514706541,8.344912269075056,8.309430583699369,8.392561990047842,8.626045893508657,9.068111292967405,9.833901040027543,11.187233017160118,13.941981582023573,24.380590658993153,39.84362172087248,63.001762549903994,95.88034130734702,140.0454102155761,196.12854526232383,263.6616392003747,341.15867131044337,426.36382350428306
A1,0.0,0.0,5.27667968963347,12.780727023768062,20.83000054175787,28.51704116502662,35.38497881330014,41.237369781128194,46.026143262129,49.785393559184335,52.59223940380521,54.54375295432517,55.74347983115773,56.29371053442861,56.2912130861336,55.825051610455105,54.975659010361646,53.814656899947934,52.405111803641994,50.80203567227949,49.053011805084616,47.19887253761255,45.27438340880052,43.30890645651014,41.32702673695242,39.349133513384,37.391952289485246,35.46902689442311,33.59115274329845,31.76676357366809,30.002274641219635,28.30238570814589,26.670347285925242,25.108193519855554,23.616945245036693,22.196786106021563,20.847214805739284,19.567176193297858,18.35517367051323,17.209365168753713,16.12764472712644,15.107711494002837,14.147127778605157,13.24336759896455,12.39385700735197,11.59600732409096,10.84724227494993,10.146996950951804,9.494126593461548,8.88714193504192,8.32437809760627,7.8041209200122275,7.324708187514311,6.88461991061018,6.482571255249491,6.117624492031385,5.789344371178103,5.498039762916101,5.245176493281659,5.034149202983204,4.871881760010742,4.772634009162144,4.769135566601824,4.959696908715886,6.064256879952051,7.920863883691809,10.899665659493541,15.340788842110655,21.559585173845257,29.783158149414533,40.113700944941726,52.51793839339618,66.83830152591662
IH1,0.0,0.0,0.0,2.5131241575804064,8.082581837603069,16.35775317186039,26.649665964540947,38.210657649300515,50.36369891117082,62.55187751896658,74.34729518148086,85.4409038549559,95.62480142317132,104.77290805435165,112.8228566113009,119.76026537830944,125.60569576385974,130.40417536739096,134.21698533516502,137.11535602498847,139.17572298420478,140.47623129973715,141.09422201477594,141.1044801790605,140.57806589608035,139.58158583570233,138.17679286396125,136.42042612991293,134.3642238341297,132.0550567364521,129.5351429545007,126.84231438996343,124.01031273351461,121.06909888672088,118.04516413750537,114.96183498176373,111.8395659621116,108.69621693456693,105.54731263333663,102.40628347722108,99.28468733768571,96.1924125384056,93.13786273375764,90.12812456184488,87.16911911912146,84.26573838394123,81.42196774487462,78.64099578131732,75.92625401755022,73.28100973491843,70.70816389375526,68.21017633721878,65.78906977124052,63.44648348134935,61.18376114591908,59.0020672014347,56.90253539390144,54.88646420327991,52.95559139491856,51.11251404242434,49.361396663338155,47.70930531955091,46.16909411459586,44.767022919815446,43.57128674307759,42.97959512659362,43.23174563136875,44.698508559122835,47.84181840194893,53.186532002540446,61.2682594354893,72.57470555185321,87.49387220310433
IN1,0.0,0.0,0.0,9.498023441340246,30.862307375986795,63.14796655591519,104.08357302625456,151.0861364856036,201.74340129653126,254.01068658578876,306.26044225607296,357.2607248656563,406.1237308704278,452.24583455718016,495.2496596666083,534.9327778435274,571.2245003825612,604.1506685602409,633.8056434503326,660.3304474570642,683.895992347281,704.6904186725988,722.9097027787101,738.7508259353431,752.406929156672,764.0639903414087,773.8986558030135,782.076936906315,788.7535462620542,794.07169896194,798.163244822207,801.1490294876862,803.139407203372,804.2348474842439,804.5265928540776,804.0973367879154,803.0218993448478,801.3678849932869,799.1963122154913,796.5622082911384,793.5151654880997,790.0998569583289,786.3565121251867,782.3213523940495,778.0269887284368,773.5027830926963,768.775176034092,763.8679828116315,758.80621919639,753.6145902103747,748.3167026962863,742.9347338207704,737.4893884073124,732.0000453194709,726.4850400116854,720.9620664973442,715.4487159353121,709.963211229774,704.5254652342161,699.1587229798835,693.8923449287863,688.767043738092,683.8461535087165,679.2451385770613,675.2410835076954,673.3647908044171,674.5998672405474,680.4542210781227,692.8257471288109,713.906571700638,745.9932150360963,791.2656107258103,851.5846888806409
D1,0.0,0.0,0.0,0.0,0.0025131241575804064,0.010595705995183474,0.026953459167043867,0.053603125131584814,0.09181378278088534,0.14217748169205616,0.20472935921102275,0.2790766543925036,0.3645175582474595,0.46014235967063083,0.5649152677249825,0.6777381243362833,0.7974983897145927,0.9231040854784525,1.0535082608458435,1.1877252461810084,1.3248406022059969,1.4640163251902016,1.6044925564899388,1.7455867785047148,1.8866912586837752,2.0272693245798554,2.1668509104155578,2.305027703279519,2.441448129409432,2.5758123532435615,2.7078674099800137,2.8374025529345146,2.964244867324478,3.0882551800579927,3.2093242789447136,3.327369443082219,3.4423312780639828,3.5541708440260944,3.6628670609606613,3.768414373593998,3.870820657071219,3.9701053444089047,4.066297756947311,4.1594356196810685,4.249563744242914,4.336732863362035,4.420998601745976,4.50242056949085,4.581061565272167,4.656987819289717,4.730268829024635,4.8009769929183905,4.86918716925561,4.934976239026851,4.9984227225082,5.059606483654119,5.118608550855554,5.175511086249456,5.230397550452736,5.2833531418476545,5.334465655890079,5.383827052553417,5.431536357872968,5.477705451987564,5.52247247490738,5.566043761650457,5.60902335677705,5.652255102408419,5.696953610967542,5.744795429369491,5.797981961372032,5.859250220807521,5.931824926359374
R1,0.0,0.0,0.0,0.4756583589230942,1.8287691195395135,4.356093101814847,8.248347752702575,13.603283980283093,20.443570071801386,28.73485397636737,38.40191355695405,49.34214949152298,61.436354416306195,74.55700530824183,88.57444428240854,103.36133137029907,118.79572409317711,134.7630910937808,151.15751540763375,167.8822942279293,184.85009921811042,201.9828253727635,219.211226877096,236.47441465924499,253.71927150923892,270.8998259035843,287.9766142560589,304.91605255115593,321.6898316538402,338.2743455755762,354.65015824730835,370.80151161428876,386.71587589515576,402.38354145751293,417.797250808037,432.9518685929392,447.8440871146068,462.472164683968,476.83569406596814,490.9353983050936,504.77295131027165,518.3508207120267,531.6721306633785,544.7405424277862,557.5601507739212,570.1353943721365,582.4709785570128,594.5718089815725,606.4431130577572,618.0904099419478,629.5194694426808,640.7362697532647,651.7469601013187,662.5578322647359,673.1753039558928,683.6059171133453,693.8563552142598,703.9334862462772,713.8444430528281,723.5967630585365,733.1986317161301,742.6593279295878,751.9901212856112,761.2064074008244,770.3347065142984,779.472084727987,788.7330970297593,798.2856181741408,808.3589053544214,819.2491110766716,831.3169252229391,844.977812826772,860.6866154495622
G1,0.0,0.0,47.49011720670123,119.3074684442204,202.1198249407375,288.2023923420943,373.14946346762076,454.5285137103288,531.0830014519746,602.2568716224384,667.90894942642,728.1402066791936,783.1886301689343,833.3649162799851,879.0130465038922,920.4861743228455,958.1320291924804,992.2842934967784,1023.2577598174146,1051.3458949071417,1076.8199383807555,1099.9289751048798,1120.9006157021756,1139.9420442708679,1157.24127324523,1172.9684985693784,1187.2774839866333,1200.3069274281884,1212.1817790917373,1223.0144923052808,1232.9061962793496,1241.9477854252486,1250.2209237748384,1257.798965176595,1264.747793971945,1271.1265879822022,1276.9885095433265,1282.381329608849,1287.3479900717525,1291.9271094136482,1296.1534366312255,1300.0582581564408,1303.6697622076044,1307.0133647045684,1310.1120005677146,1312.9863839080572,1315.6552403118699,1318.153307543405,1320.5096464141573,1322.7492884234848,1324.89447634493,1326.9656587031404,1328.9823608560205,1330.964039648016,1332.9310351681206,1334.9057690722655,1336.9144245611246,1338.9895288009773,1341.1742721441713,1343.530393487266,1346.1541488154112,1349.213435180077,1353.0539464655035,1358.6381575563862,1372.6029571010324,1394.232300022692,1427.467645321066,1476.2805597569281,1544.6955778970141,1636.1988422588631,1753.336549621093,1897.5185901261755,2069.009213840881
H1,137760.44031171603,129005.27232833393,121522.486058612,114567.94976869965,108103.95376229535,102095.48181203104,96510.01876912483,91317.37191520043,86489.50507468985,82000.38457634908,77825.83621752178,73943.41244524,70332.26902438833,66973.05051528377,63847.78393142748,60939.779993130316,58233.54143444988,55714.677859631054,53369.82668122835,51186.579705504184,49153.41496172632,47259.6334008002,45495.30011542655,43851.18975881817,42318.73586207877,40889.98377176818,39557.546949068936,38314.56639044004,37154.67294679452,36071.95233416325,35060.91264359623,34116.45417178411,33233.841406634456,32408.677013877284,31636.877681769274,30914.651691175284,30238.478087785978,29605.087342033235,29011.443390439254,28454.72695972549,27932.320082055732,27441.791716332355,26980.884396541864,26547.50183378917,26139.697403899896,24324.793265261695,22594.466114442053,20944.329204019137,19370.565207554635,17869.88831137169,16439.509061154433,15077.101204634617,13780.769637247027,12549.018385078187,11380.717348809165,10275.066290559798,9231.554291389655,8249.912678568086,7330.059284351448,6472.031954408512,5675.909618193293,4941.72014363968,4269.3358056571615,4238.8815081983885,4209.614323964639,4181.453016651577,4154.322139741041,4128.151622990996,4102.876388461749,4078.4359939686997,4054.774302002581,4031.8391722981,4009.5821763617887
S2,795972.2683738403,843241.4821918535,886340.0916689137,925841.1451370014,962004.3216783879,995071.0860564673,1025265.9108893091,1052797.407476188,1077859.3887300722,1100631.8729763061,1121282.0314518763,1139965.0804656448,1156825.1190125041,1171995.913058862,1185601.628240833,1197757.5131505013,1208570.5356792375,1218139.975047602,1226557.972205568,1233910.0412636462,1240275.544540138,1245728.1337015703,1250336.1593465686,1254163.0512478086,1257267.6713288615,1259704.6413169329,1261524.6468813156,1262774.71994231,1263498.5007171978,1263736.4809588755,1263526.2297389233,1262902.5691849054,1261897.8790074047,1260542.1548970754,1258863.2239001612,1256886.8992925554,1254637.1246282363,1252136.1076159829,1249404.4444862113,1246461.2354926306,1243324.1921639256,1240009.736885778,1236533.095356992,1232908.382427259,1229148.6817891984,1237068.7491881438,1244614.5948411121,1251782.9775191315,1258569.5494465614,1264968.830435812,1270974.187718812,1276577.825938046,1281770.793040436,1286543.0093523168,1290883.3287790935,1294779.6425386514,1298219.0363006128,1301188.0090919735,1303672.7515815531,1305659.4461118632,1307134.4291691324,1308083.5333249373,1308486.4488813465,1302865.0290279207,1297215.846621738,1291457.1452406733,1285574.1850968378,1279550.1377575009,1273378.390210846,1267061.2940361085,1260608.3138715986,1254033.5522808463,1247353.6458526566
E2,0.0,92.3418945685857,148.30414892166306,180.9224479979967,198.71606234867556,207.17696859058603,209.81152456427606,208.83840106350812,205.6500641593374,201.1143058845188,195.7691013643002,189.94720303139468,183.85496963890895,177.62169635539516,171.33012321222196,165.03505833531045,158.7745786396012,152.57665190415588,146.4629748552244,140.451147757701,134.55587669979485,128.7896238219851,123.16295644661791,117.68474147549664,112.36226768644515,107.2013403834084,102.20637050452802,97.38046761974825,92.72553940102749,88.24239673263261,83.93086217843347,79.78987914936504,75.8176132530967,72.01157120173701,68.36868793444778,64.88541909539641,61.55782590601111,58.381652316056325,55.352394486952925,52.46536281303072,49.71573680716053,47.09861326397677,44.60904816972987,42.24209285779999,39.99282491851042,37.856374366111496,36.113597796473684,34.70045623952249,33.575035026847075,32.71208520037827,32.09988287647336,31.7389214295013,31.642279677020017,31.837863171147585,32.3732137502185,33.32445678917854,34.81274080034224,37.035608283731406,40.33117218618838,45.32336738954479,53.30192282431029,67.46216076122224,98.88303921955566,249.49334413951246,387.81215110629626,597.8578218984395,880.6601536629651,1237.6863064942029,1659.6733316930745,2129.9676813384654,2628.184001394001,3133.576981207425,3627.3259328808726
I2,0.0,0.0,16.62154102234543,39.11238616862255,61.78616562110663,81.92816858801552,98.49884170124855,111.3526986850926,120.78041023367417,127.24977482539731,131.26647843395037,133.3051450218071,133.78025262488225,133.0385945310199,131.3625265859389,128.97788471469894,126.06325213416008,122.75889883738331,119.17465208710227,115.39646716769613,111.49172769634724,107.51342179663952,103.5033790801892,99.4947517778111,95.51390333731736,91.58184137264388,87.71530523009639,83.9275945280053,80.22920488262211,76.6283207515676,73.13120254771641,69.74249536878187,66.4654792935008,63.30227461612633,60.254016576628,57.321001580394615,54.50281308224403,51.798430908995115,49.2063268194901,46.72454840268004,44.3507929201253,42.08247235174675,39.91677065965803,37.850694112666496,35.8811153907499,34.00481209844424,32.218500247525604,30.570280619674065,29.08456138577828,27.772032788992178,26.6361364956144,25.67733341047739,24.896056674262653,24.294984065352935,23.881139100783393,23.668326448376334,23.680561882219937,23.95759386576036,24.564675375303285,25.611416007429554,27.2920113002514,29.98369227996605,34.54343913012442,43.605698003334616,77.48579533202394,127.69436139870473,203.0124535483598,310.185597359933,454.51733640605744,638.302517154701,860.257937432961,1115.7555774070643,1397.603774952325
A2,0.0,0.0,1.8468378913717143,4.646440444181893,7.846043014648936,11.11309450793248,14.254860680096453,17.166108182724763,19.79546318528688,22.124032195403416,24.151980686820657,25.89021871940772,27.355327930740664,28.566522406663257,29.543870111503786,30.307284813738914,30.875981347638007,31.268203993417007,31.501111783657123,31.590750910265314,31.552073110596975,31.398976441882656,31.14435538468446,30.800153412443617,30.37741471017703,29.886333677000927,29.336301859325907,28.73595243549124,28.093202550350735,27.41529382307527,26.70883130564622,25.979821098839952,25.233706760725184,24.47540446016446,23.709337339610173,22.939468522770277,22.169332996406634,21.402068315641678,20.64044408440287,19.886890168063204,19.143523603320705,18.412174180039916,17.694408680321192,16.991553770772597,16.304717554302602,15.634809797355116,14.982560857130494,14.35425238579452,13.754319006019339,13.185957294714047,12.651570699005859,12.153111533220617,11.692365990731286,11.271220827545317,10.89195083192833,10.557576571543805,10.272368837022508,10.042636405239776,9.878070207863058,9.79424986102852,9.817829277431038,9.998854271480917,10.446765798290114,11.482718582964885,15.43749305946807,21.802146474785154,31.793981190919894,46.541163621195054,67.09950651530673,94.24438899570461,128.3482238409425,169.3421461587203,216.7485925658942
IH2,0.0,0.0,0.0,0.8795934551531422,2.9113869300814317,6.055296489219281,10.12930998604353,14.904264544405073,20.153196079067275,25.67432526934055,31.29934321037501,36.89397075813491,42.35484498457144,47.605001021323346,52.58915010084286,57.269333387236784,61.62118250871589,65.63083201177807,69.29243823700101,72.60622185470743,75.5769426622607,78.21272074288548,80.52412953822054,82.52349938939729,84.22438245754226,85.64114069736644,86.78862745664058,87.68194038048786,88.33622883337183,88.76654328061903,88.98771725602387,89.01427491302101,88.86035890643667,88.53967463449132,88.06544774982436,87.45039275218579,86.70669067542343,85.84597439983207,84.87932038410517,83.81724581132141,82.6697102979922,81.44612143695663,80.15534354302247,78.80570905121269,77.40503208582761,75.96062377740616,74.47930895621846,72.9674438966171,71.4336557792576,69.88749082189491,68.33864864782534,66.79659207353394,65.27039959802622,63.768780532617775,62.30020973023152,60.87316768353251,59.49649913229596,58.17993769160903,56.9349000169142,55.77576278233466,54.72208213763699,53.80284619565061,53.06575369116129,52.60179364290311,52.63743712618552,54.46443818379217,58.86951077310345,67.0700737104128,80.58793004213152,101.1598123169876,130.56888267342856,170.4533811488777,222.13588097456903
IN2,0.0,0.0,0.0,3.324308204469086,11.113542356148905,23.359640056808743,39.51167737384377,58.81632894035504,80.49870538797002,103.84980038082516,128.26125734209637,153.2319404554655,178.36065005527226,203.333094079696,227.90748204510302,251.90091254183977,275.17748035936114,297.63835598259953,319.2137521902502,339.8565450857682,359.53727306844974,378.2402458770347,395.96052777759223,412.70159831585414,428.4735326882578,443.2915780288387,457.1750305230791,470.1463412638676,482.23039675683,493.4539337657861,503.84505857844175,513.4328485022006,522.2470190909349,530.3176447587258,537.6749232343639,544.3489773173458,550.3696878602512,555.7665535980975,560.5685742439156,564.8041538653745,568.5010220072568,571.6861703712093,574.3858031378466,576.6252992383997,578.429185068549,579.8211162960135,580.8238675527423,581.45932892672,581.7587917613876,581.7581161209293,581.4949415175184,581.0072194014662,580.332613889547,579.5084990855041,578.5724109077197,577.5629146187991,576.5209507622864,575.4918536311075,574.5284538679484,573.6961044043296,573.0814265617722,572.8090145562048,573.077662866636,574.2555740639946,577.2341579240216,586.9589754111862,606.6282579368153,641.1644660671191,696.7899408784344,780.7255087508615,900.5787570942931,1063.6245570099425,1276.139426921256
D2,0.0,0.0,0.0,0.0,0.0008795934551531423,0.003790980385234574,0.009846276874453856,0.019975586860497385,0.03487985140490246,0.05503304748396974,0.08070737275331029,0.1120067159636853,0.14890068672182022,0.19125553170639165,0.23886053272771499,0.2914496828285578,0.3487190162157946,0.4103401987245105,0.47597103073628855,0.5452634689732896,0.617869690827997,0.6934466334902577,0.7716593542331431,0.8521834837713637,0.934706983160761,1.0189313656183032,1.1045725063156697,1.1913611337723102,1.279043074152798,1.3673793029861698,1.456145846266789,1.5451335635228127,1.6341478384358337,1.7230081973422704,1.8115478719767617,1.899613319726586,1.9870637124787718,2.073770403154195,2.159616377554027,2.244495697938132,2.328312943749453,2.4109826540474453,2.492428775484402,2.5725841190274243,2.651389828078637,2.7287948601644647,2.8047554839418707,2.8792347928980893,2.9522022367947063,3.0236358925739637,3.0935233833958584,3.161862032043684,3.2286586241172177,3.293929023715244,3.3576978042478616,3.419998013978093,3.4808711816616253,3.5403676807939215,3.5985476184855307,3.655482518502445,3.71125828128478,3.765980363422417,3.8197832096180675,3.8728489633092287,3.9254507569521317,3.9780881940783175,4.032552632262109,4.091422143035213,4.158492216745626,4.2390801467877575,4.340239959104745,4.470808841778174,4.641262222927052
R2,0.0,0.0,0.0,0.16648042562308296,0.6556807822080433,1.5969201450229642,3.087768467394688,5.195233458918682,7.959634873655045,11.39933672447539,15.515396573833844,20.29570222191071,25.718448216780118,31.754950856341466,38.37186832171312,45.532917199930836,53.20017864124497,61.335078711353674,69.89911478734038,78.85438659972185,88.16397841018976,97.79222848669879,107.70491360810882,117.86936965307446,128.25456415099606,138.83113272327208,149.57138836596437,160.4493103007033,171.4405174689498,182.52223052244858,193.67322525891421,204.87377978232968,216.10561716853547,227.3518450423381,238.59689317713259,249.8264500440022,261.0273990287004,272.18775491098614,283.2966010904503,294.34402795193137,305.3210726874704,316.21966082734696,327.0325496778097,337.7532738160094,348.37609275214055,358.8959408339669,369.30837943901406,379.60955147416377,389.79665317453447,399.86795743003694,409.8227866458571,419.6614655137699,429.3852734737276,438.9964106510806,448.49798844513475,457.8940562338593,467.18967913243847,476.3910898134827,485.505953658225,494.5438196083524,503.51690110150975,512.4415055580234,521.3409206811629,530.2522999643975,539.2492678501552,548.6340226075192,558.7668405682932,570.1829044806516,583.6196826225116,600.0362476547598,620.6070502867656,646.6914209999128,679.7843501708097
G2,0.0,0.0,16.62154102234543,43.31628782824478,75.8823284678842,111.6512196906458,148.9430740369513,186.70914845852099,224.30006064995246,261.3170721986332,297.5176472578466,332.75608550342065,366.9465820490717,400.04047658407535,432.01238192804647,462.85180410624645,492.5581146066023,521.1375387617305,548.6013361044786,574.964671578419,600.2458781748052,624.4659359807682,647.6480682687255,669.8174004291168,691.0006538947061,711.2258620782662,730.5221033472798,748.9192500380948,766.4477342096495,783.1383313018345,799.0219627137084,814.1295179058264,828.4916961527122,842.1388665382696,855.1009493545822,867.4073131827828,879.0866886199541,890.1670972830361,900.6757946999263,910.6392257075778,920.0829910139233,929.0318236392122,937.509574026728,945.5392026972794,953.1427794116834,960.3414878970152,967.1556352829152,973.6560828862805,979.9021650093946,985.9456713142271,991.8338466502952,997.6118255680603,1003.3248314253706,1009.0204417672342,1014.7512571380407,1020.57843561308,1026.5768378351322,1032.8431311791937,1039.5095406702653,1046.7691516637792,1054.9273577938973,1064.5217039022732,1076.6648928392933,1094.4638398988134,1139.3726418439255,1209.1788290430588,1316.7932369847779,1475.3120646441116,1698.0955998130682,1996.8367995178216,2380.2309821587455,2853.3041024096656,3417.347959027002
H2,137760.44031171603,145960.46652074673,153437.504228476,160291.04484899025,166566.24310807607,172305.02262552484,177546.30677131843,182326.23303135927,186678.35206064314,190633.81251763712,194221.5326954997,197468.3598932334,200399.21840249776,203037.24692325765,205403.92616335818,207519.19732318204,209401.572116463,211068.23493182295,212535.13769641775,213817.0879629767,214927.83070428678,215880.12426459717,216685.81088531387,217355.88219254298,217900.54000635687,218329.2528059535,218650.80816100893,218873.36141735897,219004.4809045647,219051.18991380522,219020.0056767954,218916.97555994758,218747.71067269467,218517.4170746841,218230.92475335769,217892.7145311822,217506.94305041872,217077.46597275557,216607.85952132038,216101.44048347892,215561.28478437025,214990.2447332746,214390.9650376165,213765.89767263594,213117.31568847044,200644.69680663332,188414.93150058616,176443.48270121202,164746.01144294222,153338.4681576033,142237.1724318974,131458.87710048736,121020.81100874429,110940.69289222342,101236.70658107227,91927.42520831103,83031.66945594097,74568.28246857805,66555.80252423703,59012.014852848384,51953.367513436555,45394.244695372276,39346.105955941224,39182.652490203145,39018.96959209585,38855.14478675885,38691.25875477255,38527.38582719724,38363.59444518235,38199.94758667745,38036.50316259573,37873.314384612626,37710.43010662663
S3,2387916.8051215205,2377335.2782209227,2367442.944041257,2358170.914430058,2349462.857575622,2341269.147061584,2333545.3724905364,2326251.3536215015,2319350.463617218,2312809.1452615513,2306596.5498726345,2300684.2559501883,2295046.0410432075,2289657.6903104614,2284496.8313487777,2279542.7886146833,2274776.453083255,2270180.1642302726,2265737.602328049,2261433.689618137,2257254.4992919266,2253187.171450557,2249219.8353764303,2245341.5375594385,2241542.1750000473,2237812.433369984,2234143.729656529,2230528.158952694,2226958.445085745,2223427.894802314,2219930.355250889,2216460.121967131,2213012.0733225774,2209581.4460780206,2206163.8784392434,2202755.3795920257,2199352.3018719247,2195951.3151805312,2192549.3833770757,2189143.7424429655,2185731.8802585425,2182311.5178578957,2178880.5920455,2175437.23927137,2171979.7806713814,2189373.910412908,2207553.1838475736,2226556.732312927,2246427.576077967,2267212.891342873,2288964.258421824,2311737.872633513,2335594.6920380592,2360600.4867410506,2386825.7427209066,2414345.3587952727,2443238.0582601917,2473585.416423075,2505470.378989082,2538975.100785629,2574177.8060572236,2611147.8052330725,2649933.847826498,2643227.1108766543,2636487.0876741433,2629614.836523074,2622589.9968563467,2615389.297988254,2608001.487521131,2600425.7445850456,2592669.676669836,2584746.5016539097,2576672.653478754
E3,0.0,158.30039068900402,246.5494109410661,292.2964201316124,312.40019378391736,317.1926692637708,313.0059617216041,303.7150450491596,291.6832120010325,278.3431100507778,264.5545157184585,250.8249343580992,237.44573715825166,224.5762069211111,212.29541759939735,200.6342332495339,189.5950123890568,179.16370717980465,169.31725889956252,160.02808611940037,151.2667783085368,143.00368421179348,135.2098219844783,127.85737540341788,120.91993958560874,114.37261706945677,108.19202630815172,102.35626057481534,96.84482039043549,91.63853338496772,86.71946983187203,82.07085861623884,77.67700025660392,73.5232056909862,69.59571375961131,65.88162568559905,62.368844161941986,59.046017009507445,55.90248520117197,52.928234970492134,50.11385369680986,47.45048925871639,44.92981256125386,42.54398296188173,40.285616342131235,38.147755593906524,36.41267402253758,35.018342898128914,33.92473241534955,33.108567885341564,32.56043558302242,32.28377646846545,32.295656144706726,32.62958782752342,33.341246921240455,34.51891866205328,36.302583893321085,38.920284427764756,42.76252892693384,48.550830074851554,57.7790235117194,74.15463193974452,110.55472490790518,285.6242912592652,446.7005397669296,691.3835064102641,1021.2771399338997,1438.5362450377065,1932.8300187682712,2485.145288013792,3071.9916807912036,3669.307502075369,4255.126483088094
I3,0.0,0.0,28.494070324020726,65.66627573406024,101.67138996975231,132.18881003533966,155.8504437628094,172.77399606000492,183.74489734096852,189.77532052924386,191.8793174440952,190.96922682066383,187.81799066013562,183.05550614679302,177.18102847438797,170.5817750801083,163.55258432796373,156.31414892417888,149.02881561042847,141.81372000113677,134.75140724426404,127.89825136526053,121.29103110785816,114.95200644480539,108.89280046114193,103.11734366523228,97.62409092255217,92.40767921385597,87.46015871791987,82.77190036723555,78.33225944072606,74.13005611754707,70.15391936401802,66.39252818898008,62.83478086260419,59.46990648345673,56.287536534670835,53.277747377866625,50.431081857996766,47.738556088262754,45.19165589855845,42.782326241488306,40.502955961427155,38.34635967066876,36.30575798611266,34.37475701736396,32.54732773021435,30.869775142038016,29.36552768535996,28.044882934661548,26.911344569350597,25.96583565162299,25.20966515662437,24.64688280350962,24.286546439811204,24.14544458512136,24.252010967853792,24.652684441276314,25.423206121853205,26.690452326233032,28.679082237364398,31.82582490287207,37.1243064320265,47.63471864302275,86.99937103640177,145.40168408115085,233.07588309405145,357.95647528701227,526.3590459830673,741.1423051614514,1001.0195698943788,1300.801316711441,1632.2794455391577
A3,0.0,0.0,3.166007813780081,7.811601017247548,12.953364388273712,18.033706702162792,22.75193870433565,26.96111862409145,30.60505001360691,33.67986802446737,36.21070914868011,38.237639517365885,39.8072636675619,40.967812464139286,41.76635472919804,42.24729781567636,42.4516633235617,42.416822192723416,42.17649565906768,41.76090403393404,41.19699183554372,40.50868649840922,39.71716552932213,38.84111778366367,37.896991113575616,36.89922260663211,35.860449991617315,34.79170415731449,33.70258349508115,32.601411174133574,31.49537663670922,30.390662649051134,29.29255921893488,28.20556550470755,27.13348131361037,26.079488701777045,25.046224908136644,24.035847495539016,23.05009249299143,22.090326257233347,21.15759170150094,20.252649474771218,19.376014616034347,18.527989154965766,17.708691082379,16.918080070613684,16.155980285123846,15.427877207810965,14.73752126545816,14.087524212157058,13.47979687557543,12.91588956019156,12.39728163981837,11.925660444400865,11.503231466378036,11.133114895474666,10.819915361326856,10.570622033020845,10.396154887755854,10.314259711031955,10.355512874870554,10.577611203002425,11.107200979754886,12.317053541503888,16.919237089704367,24.32808868992825,35.96273983221313,53.14647550650285,77.1263912604305,108.83054902900486,148.72308853689378,196.75650289130033,252.4063337363655
IH3,0.0,0.0,0.0,1.5078744945482434,4.917734201158593,10.085669402004736,16.645344474192047,24.173848263871545,32.27276436519098,40.60244845958668,48.89148885468909,56.93385888132616,64.58071030890993,71.73052703420696,78.31951098917212,84.31303963434374,89.69847692658911,94.47933510364479,98.6706535187925,102.29541317024852,105.38180117141518,107.96115540481647,110.0664434906998,111.73115543660882,112.9885127577743,113.87091718129147,114.40957897095211,114.63427862275003,114.57322657970204,114.25299415324812,113.69849545505957,112.9330052258176,111.9782013243224,110.85422357957104,109.579742867923,108.17203616162833,106.64706423994333,105.01954983050227,103.30305462441967,101.51005410834158,99.65200952347948,97.73943652872059,95.78197033749142,93.78842723529371,91.76686248114547,89.72462466235105,87.66840661617007,85.60429306006944,83.5405563167705,81.48635122608198,79.45098215775073,77.44353702775413,75.4727600837531,73.54708717053765,71.67480408736364,69.86431809314305,68.12456175904894,66.46558653127138,64.89946721691256,63.44176523626516,62.11408405056293,60.948982760957676,60.00072542526019,59.373813973014684,59.33017874173267,61.371561758954336,66.41536091942515,75.88093464521081,91.54622320968852,115.44658970120858,149.6807676901784,196.1887546178068,256.55213378200574
IN3,0.0,0.0,0.0,5.698814064804146,18.775081070968152,38.921608254208934,64.97015417873477,95.4905413895093,129.09043518761518,164.54851030393274,200.8580893067422,237.2253719024938,273.04696354760165,307.8800920441528,341.41239235306983,373.43447412441674,403.8164843991942,432.488836420795,459.42677784142285,484.6382731850943,508.1546344534707,530.0233695577888,550.302786135263,569.057964495482,586.3577861394882,602.2727683703217,616.873509419665,630.2295925099787,642.4088324276502,653.4767758469576,663.4963881619351,672.5278761684609,680.6286086302857,687.8531064167864,694.2530809904146,699.8775063530312,704.7727125861923,708.9824927672645,712.5482173151652,715.5089515136128,717.9015732161292,719.7608886636797,721.1197450253405,722.0091387673725,722.4583193138326,722.4948877179168,722.1448902442104,721.4329068878111,720.3925328473406,719.0617130559392,717.4800725123122,715.6875407010592,713.7238324243732,711.6285271314543,709.4416184208417,707.2045115245955,704.9615553263739,702.7623419666809,700.6652554352694,698.7432441052873,697.0939021294811,695.8587795556591,695.2653567406769,695.7375644596755,698.3071325436832,708.7239354255267,730.7170328875017,770.025039177437,833.916083843065,930.8487322012479,1069.7687059115258,1259.2749328312864,1506.8424468452617
D3,0.0,0.0,0.0,0.0,0.0015078744945482435,0.006425608695706837,0.016511278097711572,0.03315662257190362,0.057330470835775166,0.08960323520096615,0.13020568366055282,0.1790971725152419,0.23603103139656806,0.300611741705478,0.37234226873968496,0.45066177972885707,0.5349748193632008,0.6246732962897898,0.7191526313934347,0.8178232849122271,0.9201186980824756,1.0255004992538908,1.1334616546587073,1.243528098149407,1.3552592535860157,1.46824776634379,1.5821186835250816,1.6965282624960336,1.8111625411187837,1.9257357676984856,2.039988761851734,2.1536872573067933,2.266620262532611,2.378598463856933,2.489452687436504,2.599032430304427,2.7072044664660555,2.813851530705999,2.9188710805365012,3.022174135160921,3.1236841892692624,3.223336198792742,3.3210756353214625,3.416857605658954,3.5106460328942477,3.602412895375393,3.692137520037744,3.779805926653914,3.8654102197139837,3.9489507760307543,4.030437127256836,4.109888109414587,4.187331646442342,4.262804406526095,4.3363514936966325,4.408026297783996,4.477890615877139,4.546015177636188,4.61248076416746,4.677380231384372,4.740821996620638,4.802936080671201,4.863885063432159,4.923885788857419,4.983259602830434,5.0425897815721665,5.103961343331121,5.170376704250546,5.246257638895757,5.337803862105445,5.453250451806653,5.602931219496831,5.799119974114638
R3,0.0,0.0,0.0,0.2853950153538564,1.1101668476892022,2.673063106708179,5.113424563704592,8.516348346145875,12.921540937809542,18.3329101638018,24.727472288521852,32.06299157571578,40.28421352609491,49.32777074235341,59.12593274300551,69.60939664317867,80.70930793068749,92.35867826753892,104.49334038002681,117.05255374571838,129.9793512421482,143.22069698110278,156.72750923118858,170.45458928717676,184.3604869010035,198.40732495386996,212.56059996927107,226.78897045281778,241.06404157270413,255.36015210298987,269.65416763297503,283.9252826374476,298.15483297878524,312.3261196762976,326.4242442464082,340.4359555901213,354.3495081220297,368.1545306879488,381.8419057206192,395.4036580293517,408.83285259712414,422.123500757971,435.27047414155186,448.2694257954578,461.1167179254299,473.8093557265992,486.34492681324497,498.7215457891254,510.93832425849143,522.995396871334,534.8938994110272,546.635928719835,558.2245041125591,569.6635443360832,580.9578719499252,592.1132578461459,603.1365229441946,614.0357236034538,624.820466212934,635.5024348140773,646.0962991503499,656.6213726384308,667.1049588883915,677.590342105049,688.1630577486237,699.1744849792298,711.0440679218924,724.3951726647815,740.0877210575891,759.2417467913723,783.2314018643656,813.6506822360585,852.2571410455582
G3,0.0,0.0,28.494070324020726,72.87296429341262,125.48631991710286,181.718354798208,238.81303526568675,295.1541083755755,349.82281648442427,402.32579464461014,452.42755445375013,500.0473672830727,545.1958554675306,587.9360881560159,628.359805401816,666.5729805697075,702.6871425546236,736.8142447846539,769.0637120770186,799.5408186789399,828.345874180432,855.5738942759687,881.3145574340915,905.6523253912976,928.6666529639128,950.4322420893225,971.0193131618247,990.493877897292,1008.9180048007588,1026.3500724710373,1042.8450084803314,1058.4545130500685,1073.2272676009916,1087.2091276471804,1100.4433046715578,1112.9705331482878,1124.8292257716957,1136.0556177208452,1146.6839007825565,1156.7463481187674,1166.273430413456,1175.293924078882,1183.835012145451,1191.9223784064766,1199.5802953396153,1206.8317062811989,1213.698302288102,1220.2525836121588,1226.555885333822,1232.662337168585,1238.6218793879466,1244.4827577928907,1250.2938375572144,1256.1070556632617,1261.9803814722159,1267.981805918039,1274.1952112772087,1280.7296763780066,1287.7353275750042,1295.4325827818523,1304.1717321953256,1314.571956427435,1327.919790176589,1347.8196406600118,1399.2320130866797,1479.638110244727,1604.0871413985744,1787.9170265866765,2046.8535506934636,2394.7629540717526,2842.089105914235,3395.0476084566517,4055.522958830218
H3,413281.320935148,411477.31516916124,409785.96214418905,408197.7160814217,406704.2951718026,405298.0241776099,403971.79091214796,402719.00583039573,401533.5645083729,400409.8128048584,399342.51451383735,398326.8213297399,397358.24496024486,396432.63123322494,395546.13605536777,394695.2030901844,393876.543032566,393087.1143658239,392324.10549529706,391584.91816017457,390867.1520322085,390168.59041651495,389487.1869757178,388821.0534043167,388168.44798538246,387527.76496653236,386897.524696644,386276.36446894583,385663.03002000647,385056.3676377513,384455.31683498196,383858.9035479856,383266.2338227041,382676.4879536184,382088.91504298925,381502.8279504091,380917.598604765,380332.6536527065,379747.47041956196,379161.573160367,378574.5295802625,377985.9476050028,377395.47238369053,376802.7835071314,376207.59242638905,375609.6400572224,374868.1870663483,373987.3204062786,372971.27705409785,371824.44511963445,370551.36603122804,369156.7376527761,367645.41813781834,366022.43026058347,364292.9658761765,362462.39004841156,360536.2442409642,358520.247794384,356420.29671119957,354242.45855437097,351992.9620527613,349678.1798393864,347304.6026823364,344878.8036832686,342471.2738012676,340081.8580623534,337710.40382596187,335356.7606840166,333020.78036673553,330702.3166546935,328401.22529669816,326117.3639330661,323850.5920239169
S4,1193958.4025607603,1213618.9395141504,1233245.4284280904,1252824.776735442,1272350.3318117133,1291819.3341734773,1311231.3382198787,1330587.23943762,1349888.6748725881,1369137.6549176623,1388336.3389961896,1407486.9008982137,1426591.4499517255,1445651.986883068,1464670.3811224478,1483648.3612546215,1502587.513415281,1521489.2843808567,1540354.9873233957,1559185.8089717794,1577982.8174043717,1596746.9700020934,1615479.1212814848,1634180.0304464833,1652850.3685717816,1671490.7253764574,1690101.61557453,1708683.484805874,1727236.7151606728,1745761.6303159632,1764258.500305488,1782727.4897769436,1801168.8439577466,1819582.6911525195,1837969.1245379366,1856328.2042557437,1874659.959778053,1892964.3923357667,1911241.4772996227,1929491.1664580132,1947713.3901658698,1965908.05935537,1984075.0674080686,2002214.2918926666,2020325.5961748965,2058036.9513167774,2095764.5309789535,2133498.1522991685,2171226.15362079,2208935.2566547897,2246610.4209501655,2284234.6953233643,2321789.0726770065,2359252.3568961956,2396601.052971835,2433809.293340667,2470848.812441308,2507688.9717507963,2544296.802186958,2580636.9150167196,2616670.7225581435,2652352.6061817994,2687608.552546974,2709084.821208223,2730432.3642992936,2751348.743129429,2771765.130699449,2791605.139809059,2810828.9703919934,2829430.3876064923,2847430.702770567,2864870.161108048,2881800.316142961
E4,0.0,237.45058603350606,373.5996309077707,447.4304569568028,483.1588840639902,495.8212876654125,494.73544402486004,485.654322602601,472.1100434935093,456.25354869360837,439.3793040430621,422.2529458009567,405.3155544665568,388.8106907810098,372.8631120648374,357.5273028915964,342.8171898945807,328.7241645563806,315.22787191540255,302.3025495574214,289.92065129284015,278.054831899032,266.6789575937944,255.76854989830002,245.3009106217778,235.25507661028269,225.6116918600648,216.35284728558506,207.461915869341,198.92339747742275,190.72277978356738,182.84641731382322,175.28141349949283,168.01557095424963,161.03729223824865,154.33552119060667,147.8996934286533,141.71969473490023,135.7858260598298,130.08877398504785,124.61958564673202,119.36964727861806,114.33066568087645,109.49465204986647,104.85390771267188,100.40101140065096,96.94341900815515,94.3248250701208,92.4490045678168,91.26611657646826,90.76528148617986,90.97237757263764,91.95293129212124,93.82107308993065,96.75718839315769,101.03991364476946,107.10438685862289,115.65305924232848,127.88223028772973,145.9949088678207,174.54327896408785,224.81208543428846,335.9680551743287,868.7260569942481,1365.894030308827,2130.4909268842575,3173.923386468245,4509.739123011756,6111.8599004612915,7925.185592933971,9878.126986603093,11894.840597136716,13903.97773022063
I4,0.0,0.0,42.741105486031095,99.17900621040124,154.63224457410357,202.49142847617543,240.52535348967135,268.7443286560011,288.1915901681407,300.28230169908534,306.46087485967485,308.03940613464516,306.135952552494,301.6651878920658,295.3542885912763,287.7689707502291,279.3416774057346,270.39798537693036,261.1795774230123,251.86334627556778,242.57680791878948,233.41026882191497,224.42627310239862,215.6668422083083,207.1589634436373,198.91871283914446,190.9543271260677,183.2684757300708,175.859929293252,168.72477652239166,161.85730534009517,155.25063614249902,148.89717312218227,142.78892021251903,136.917708173618,131.27534638147867,125.85372566664958,120.64488623291274,115.64106090770437,110.83470115418937,106.21849118775835,101.78535400841658,97.52845204520544,93.44118430203532,89.51718131474695,85.7502988158436,82.13461071077126,78.81103178719943,75.85670183779284,73.31193004132176,71.19785925745674,69.52832658754622,68.31832755828636,67.5908598065781,67.38364791274216,67.75734457509944,68.8074168387373,70.6835111724256,73.62386684394305,78.02180181909623,84.56769811858648,94.5967202273349,111.13759838884732,143.50305060494844,263.5791089890481,442.7758994988357,714.2778785390913,1104.9297218815473,1637.2251682845463,2323.2747826401237,3162.2081165850286,4140.488816098639,5234.352299576796
A4,0.0,0.0,4.749011720670122,11.792911815794753,19.678466645940656,27.567758531324984,34.99913013060536,41.73889503480524,47.68949153422233,52.83279487472198,57.19533297080707,60.827131734806606,63.789020293561414,66.14516603369452,67.95882328403869,69.29003955344591,70.19453914981491,70.72330172973741,70.92253929494406,70.83389103650173,70.49472739490446,69.9384991846698,69.19509494247005,68.29118627212242,67.25055093623315,66.09436932292476,64.8414932829911,63.50868817539854,62.11084988931971,60.661199006038636,59.17145435473395,57.65198814181802,56.11196467726822,54.5594642367405,53.001594763861235,51.44459151856607,49.89390656943871,48.354289228882294,46.82985840532259,45.32416773338636,43.840264242280746,42.380741234068736,40.94778596617171,39.543222664982004,38.168551338673126,36.824982805978195,35.51347031282287,34.25103029409873,33.05001915445124,31.919754948628135,30.867718950842953,29.900500454892903,29.024612338104344,28.247290913392536,27.577402796028345,27.02662304211882,26.611147006247084,26.354412897378715,26.291795146515707,26.479405399587712,27.01235738000677,28.068234607188902,30.034307498284143,34.046271098736426,48.35174230745139,71.31102778377418,107.49262091384409,161.28132790964193,236.9376474972583,337.8164574282658,465.86821252458515,621.4357625135285,803.314181762459
IH4,0.0,0.0,0.0,2.2618117418223656,7.412564586400647,15.275375181451029,25.33123825969752,36.96549202984984,49.59056807140277,62.69948250162835,75.88203744106838,88.82218850225959,101.28697624156288,113.1126692892561,124.19101150787682,134.45690381349826,143.87799588010054,152.44621902733846,160.1710822318311,167.07447335112923,173.18669585190054,178.54349236923437,183.18384069765443,187.1483449087401,190.47807907384544,193.21377137418642,195.39524162772736,197.06102567524675,198.2481362209182,198.99192229874217,199.32599920301135,199.2822280746843,198.89072988073582,198.17992267323226,197.1765739585755,195.90586282200462,194.39144740139457,192.65553488890436,190.71895210336888,188.60121530336608,186.32059836152118,183.89419874132733,181.3380009435917,178.66693724667144,175.89494567224148,173.03502518059918,170.0992881467757,167.0990101984669,164.05243701203602,160.98110836770832,157.90776683898628,154.85529158258393,151.846305826667,148.90324922723093,146.04880925952523,143.30668984796225,140.7027807952016,138.26690570847907,136.03551920965566,134.0561087677258,132.3949247717836,131.15189044187028,130.4932686378765,130.7384182027726,132.68572324100055,140.90321371534878,158.24867770606554,189.2125572129221,239.51193814205004,315.8073236429278,425.11242101267305,574.0919456959894,768.4064289421306
IN4,0.0,0.0,0.0,8.54822109720622,28.298540128314407,58.942003641851976,98.85086930066855,145.96743130559614,198.2566227237404,253.91237453013113,311.4297111246469,369.6075889853354,427.5193943224111,484.4713908896858,539.9597145592021,593.6309751318654,645.2484595305925,694.6643104164335,741.7972643876552,786.6152072283811,829.1217244112108,869.3458687508567,907.334463827731,943.1463738099335,976.8482785134959,1008.5115884170884,1038.2102151007464,1066.0189783749524,1092.012483737217,1116.2643447584953,1138.8466566153886,1159.8296511172537,1179.281481834581,1197.2681016406716,1213.8532046667688,1229.0982142548246,1243.062301388572,1255.802423508016,1267.3733765195184,1277.827854935864,1287.2165166173434,1295.5880496887216,1302.9892399935177,1309.4650380026235,1315.0586244830042,1319.8114745011235,1323.763419519281,1326.9527074662424,1329.44538674902,1331.3222732490883,1332.6714365248617,1333.5842940111045,1334.1541163885026,1334.4762407362748,1334.6496502902278,1334.779883369874,1334.9835534511951,1335.3952012844306,1336.1779515060714,1337.5409453597993,1339.7698962700206,1343.2857369310377,1348.7722236071943,1357.5120210488917,1372.6375109593926,1411.6269576476082,1486.0658679708993,1614.0607849990085,1818.906121525328,2128.162093966984,2571.535429555339,3178.2616985767913,3974.576844810751
D4,0.0,0.0,0.0,0.0,0.0022618117418223655,0.009674376328223013,0.02494975150967404,0.050280989769371565,0.0872464817992214,0.13683704987062417,0.19953653237225252,0.2754185698133209,0.3642407583155805,0.46552773455714336,0.5786404038463995,0.7028314153542763,0.8372883191677746,0.9811663150478751,1.1336125340752137,1.2937836163070449,1.4608580896581742,1.6340447855100748,1.8125882778793092,1.9957721185769637,2.182920463485704,2.373398542559549,2.5666123139337356,2.762007555561463,2.9590685812367097,3.1573167174576278,3.35630863975637,3.5556346389593814,3.7549168670340656,3.9538075969148014,4.151987519588034,4.34916409354661,4.545069956368614,4.739461403770009,4.932116938658913,5.122835890762282,5.3114371060656485,5.49775770442717,5.681651903168497,5.862989904112089,6.04165684135876,6.2175517870310015,6.390586812211601,6.560686100358376,6.727785110556844,6.89183754756888,7.052818655936588,7.210726422775574,7.365581714358158,7.517428020184825,7.666331269412056,7.812380078671581,7.955686768519543,8.096389549314745,8.234656455023224,8.37069197423288,8.504748083000607,8.63714300777239,8.768294898214261,8.898788166852137,9.02952658505491,9.16221230829591,9.30311552201126,9.461364199717325,9.650576756930247,9.890088695072297,10.205896018715224,10.631008439727896,11.205100385423886
R4,0.0,0.0,0.0,0.4280925230307847,1.672057033114831,4.041671385282349,7.760628193344056,12.972829914446887,19.75460347168335,28.12834049425319,38.07534795984288,49.546967770164656,62.473706688871125,76.77245991126819,92.35206156048919,109.11744165530413,126.97266261260599,145.8230780114448,165.57681791669063,186.1457666634021,207.44616441630976,229.39893442915545,251.92981387301424,274.9693469222253,298.4527837888692,322.3199178480187,346.51488421451256,370.9859365267618,395.6852137731651,420.56850536585165,445.5950200114761,470.72716200596057,495.93031720213827,521.17264992376,546.4249113922766,571.6602598519172,596.8540921780356,621.9838865837041,647.0290559185964,671.9708109875673,696.7920332871759,721.4771565545301,746.0120565355601,770.383948402966,794.5812912833389,818.5936993853223,842.4118592541656,866.0274527112932,889.4345537078265,912.6297803309313,935.6123075724561,958.3838250388733,980.9484957863854,1003.3129571670669,1025.4863989607788,1047.48075725362,1069.3110760363993,1090.9961176559957,1112.5593609552811,1134.0306428535941,1155.4489533242022,1176.8675085252137,1198.363957796859,1220.06471273994,1242.2248611790435,1265.9079683688935,1292.3973040476965,1323.6243857904199,1362.2865143894958,1411.9392003144935,1476.9969895783206,1562.6432312706045,1674.6657265450638
G4,0.0,0.0,42.741105486031095,109.98903904942983,190.52652130165433,277.4951204331726,366.7429522129469,455.7953321374217,543.21311020589,628.1929180347216,710.3185567995712,789.4068315273223,865.4123617714945,938.3691615754747,1008.3550859160564,1075.4704460877272,1139.8253606082146,1201.5324547892392,1260.7028044093877,1317.44382135416,1371.8582802744959,1424.0439975072072,1474.0938672490329,1522.0960796159159,1568.13441859761,1612.28858250953,1654.6344962993808,1695.2446008341924,1734.1881133455977,1771.531258202079,1807.337469748015,1841.6675701090574,1874.5799252255456,1906.1305796554543,1936.3733824272192,1965.360095030104,1993.1404888444133,2019.7624336615709,2045.2719787138528,2069.713427404622,2093.1294067219305,2115.560932138342,2137.0474686484936,2157.6269884710514,2177.3360258400276,2196.2097292283083,2214.2819112804254,2231.7317267018934,2248.7101952145154,2265.3510160367223,2281.7789170204865,2298.116667687999,2314.4916956510738,2331.0432232836556,2347.931016439843,2365.347310350611,2383.5344948066695,2402.8132844412216,2423.6308351048406,2446.649636556632,2472.9287201528396,2504.3465103663752,2544.8126857445473,2605.2869356759265,2761.6576259348913,3007.5185513904803,3391.0069182296465,3962.3131277939306,4774.066169936047,5874.2009520190795,7300.734358747194,9078.797216335752,11219.868523820362
H4,206640.660467574,210084.6714753669,213513.64910177657,216928.5321196448,220330.17975365664,223719.38221342166,227096.86574823508,230463.29733916966,233819.28905442296,237165.40209199273,240502.1505320332,243830.00481964851,247149.39499739636,250460.7137053984,253764.31896567528,257060.53676613668,260349.6634585549,263631.9679838263,266907.69393687486,270177.06148266897,273440.2691340038,276697.49540093885,279948.90032107645,283194.62687920744,286434.8023242434,289669.53939078824,292898.937432176,296123.08347131475,299342.05317522265,302555.9117587227,305764.7148223706,308968.5091293288,312167.33332556207,315361.21860741795,318550.18934036477,321734.26363238966,324913.4538653097,328087.7671870161,331257.2059674553,334421.76822095166,337581.4479972881,340736.2357437903,343886.11864049867,347031.08091036277,350171.1041062555,333678.04696667125,317308.6269221404,301078.33072772145,285004.45505924855,269106.2796897305,253405.24702782554,237925.14301641943,222692.2717294452,207735.61244676597,193086.94335813366,178780.91022830593,164855.01136147574,151349.46231731912,138306.895799431,125771.84542176014,113789.95910466851,102406.89225234822,91666.84719962065,94561.05222197346,97435.04225266736,100288.9695343446,103122.98501819753,105937.23838341389,108731.87805578069,111507.05122550348,114262.9038642926,116999.5807417651,119717.22544120731
E_Om,0.0,0.0,0.0,0.0,0.0,0.0,0.0,0.0,0.0,0.0,0.0,0.0,0.0,0.0,0.0,0.0,0.0,0.0,0.0,0.0,0.0,0.0,0.0,0.0,0.0,0.0,0.0,0.0,0.0,0.0,0.0,0.24543028141824105,0.3790906727844217,0.4513165472640861,0.4899114927010312,0.5102235275856921,0.5207125879101916,0.5260287305083908,0.528715020272742,0.53015004256998,0.5310697506897516,0.5318564450264699,0.532698771799939,0.5336802492493029,0.5348281753420439,0.5361405715683432,0.5432022918851477,0.5555448085056228,0.5732231174683813,0.5967176711337465,0.6269208537001798,0.6651976484018526,0.7135292166543654,0.7747716687715829,0.8531003307752814,0.954782655738323,1.0895787383521216,1.2734343055105946,1.5340829665237377,1.9239885300568162,2.5549441215469457,3.713402006218401,6.42756083486085,20.46135955098137,36.74931313378133,71.38496725108966,128.2902311514266,219.1691568658547,353.5493996810815,540.4675101473077,786.6498731775508,1096.1949928939985,1470.4517138195615
I_Om,0.0,0.0,0.0,0.0,0.0,0.0,0.0,0.0,0.0,0.0,0.0,0.0,0.0,0.0,0.0,0.0,0.0,0.0,0.0,0.0,0.0,0.0,0.0,0.0,0.0,0.0,0.0,0.0,0.0,0.0,1.0,0.7470811127577974,0.6023076396947122,0.5182089827868441,0.4683811220090172,0.43810275851142794,0.4191385312964027,0.40685874618442,0.39864165632620907,0.3929863558488893,0.38901969168881645,0.3862218192757316,0.38427318662061904,0.3829690187875059,0.3821713655724063,0.38178208061756813,0.3817274845010617,0.38295780643061467,0.38609860969848087,0.3916271401120882,0.3999864204251671,0.41166805372527443,0.4272850043762483,0.4476518155319137,0.4738911168545153,0.5075931624452573,0.5510741426607504,0.6078212566144247,0.683309955741254,0.7866228960679302,0.9339890439254175,1.1576555161178423,1.5332749322908323,2.3024416928544245,5.403155421134278,10.651471728504962,20.80680745663585,38.63661447489754,68.31513317095433,114.67583765014835,182.95630422462074,278.2801765181429,405.2129626525302
A_Om,0.0,0.0,0.0,0.0,0.0,0.0,0.0,0.0,0.0,0.0,0.0,0.0,0.0,0.0,0.0,0.0,0.0,0.0,0.0,0.0,0.0,0.0,0.0,0.0,0.0,0.0,0.0,0.0,0.0,0.0,0.0,0.0,0.004908605628364823,0.012047940208108666,0.01998822769332382,0.027984648807453324,0.03566648525785089,0.04286563531495402,0.049522151663604894,0.05563235214710918,0.06122045823858756,0.06632322706866797,0.07098174835957806,0.07523718078669578,0.07912864320325816,0.08269227411162872,0.08596091479300105,0.08907614317978027,0.09215740431873243,0.09531447598320039,0.09865684924136907,0.10230199293763381,0.10638408652866993,0.11106483729403605,0.11654849785992444,0.12310441532699927,0.13110300596786467,0.14107649733085442,0.1538280546498598,0.17064311522224948,0.19374051870574527,0.2273749533011391,0.2811466200413294,0.3843542972835444,0.7589344479209218,1.4255077055893515,2.7247068012583258,5.044896825360322,8.973515321647271,15.235599265236928,24.67155927397634,38.180576112099516,56.66274532790577
R_Om,0.0,0.0,0.0,0.0,0.0,0.0,0.0,0.0,0.0,0.0,0.0,0.0,0.0,0.0,0.0,0.0,0.0,0.0,0.0,0.0,0.0,0.0,0.0,0.0,0.0,0.0,0.0,0.0,0.0,0.0,0.0,0.2529188872422026,0.44186981096057115,0.5942047889696354,0.7252696282549975,0.8437320604387724,0.9545365226192223,1.0605445735550394,1.1634468349047609,1.264270839031174,1.3636645108538437,1.4620549383910835,1.5597377311509606,1.6569276779080628,1.753787775988037,1.8504461325044428,1.9470060315032511,2.0435521221130246,2.1404093843761705,2.238061015106872,2.3371109155978673,2.438275035963792,2.542393662025152,2.6504621098672727,2.7636817089235555,2.883537722872364,3.0119176206897693,3.1512946796394776,3.305024155504555,3.477846149152151,3.6767979367048915,3.913021406390917,4.2058143513372395,4.593608541048599,5.175939531945395,6.54249958865535,9.236457965720605,14.498892554715706,24.27082209451277,41.54900955791342,70.55269480995642,116.82579968839339,187.2081122749258
G_Om,0.0,0.0,0.0,0.0,0.0,0.0,0.0,0.0,0.0,0.0,0.0,0.0,0.0,0.0,0.0,0.0,0.0,0.0,0.0,0.0,0.0,0.0,0.0,0.0,0.0,0.0,0.0,0.0,0.0,0.0,0.0,0.0,0.0441774506552834,0.11241377175647929,0.1936507502640148,0.28183481895020046,0.373675053915625,0.4674033197394595,0.5620884912309698,0.6572571948800635,0.7526842025426599,0.8482767576668151,0.9440109177715796,1.0398966966955687,1.1359591415604433,1.232228213122011,1.328733516004313,1.4265099285436396,1.5265079940746515,1.6296881552189602,1.7370973360230348,1.8499430896890672,1.9696786664014008,2.0981139253991863,2.2375728257780714,2.391130885317622,2.56299176335052,2.759115936253902,2.988334111245809,3.264469045220082,3.6107869806303095,4.07067692250876,4.739089283628071,5.896050233903025,9.579094953079672,16.19397131716031,29.043265422356452,52.135507029613244,91.58595526546708,155.22484720806176,252.50899903457716,394.10597620653635,591.4210749274561
beta,1.0,1.0,0.9967133504151058,0.994242742689393,0.9922961125222989,0.9906954216748485,0.9893307556806669,0.9881334126980037,0.9870598380297323,0.986081932329648,0.9851811610164883,0.9843449536377387,0.9835644925601543,0.9828333489619344,0.9821466376556829,0.9815004906846831,0.9808917273801987,0.9803176458701929,0.9797758899191361,0.9792643626735535,0.9787811697538449,0.9783245808189073,0.9778930028525586,0.977484960967095,0.9770990840954448,0.9767340939203654,0.976388795996643,0.9760620724007677,0.975752875478908,0.9754602224127211,0.9751831904160266,0.974920912434955,0.9746721084902812,0.9744365947314566,0.9742135965153238,0.9740024047692315,0.9738023627950726,0.9736128579548626,0.9734333161280744,0.9732631977691758,0.973101994912492,0.9729492287580138,0.9728044476309922,0.972667225196316,0.9725371588580414,0.9724138683020616,1.0126500527505335,1.0575491363422922,1.1080282588324197,1.1652612300909444,1.2307747478846611,1.3065912201714802,1.3954468237423037,1.501135449491077,1.6290722780672722,1.7872599739333273,1.9880382027187429,2.251472692797276,2.6125071418948256,3.1378555542936732,3.972642338112949,5.50320983664376,9.212203856556586,30.939601435442828,27.89144748413088,25.13981880643121,21.824874737709365,18.406129634248565,15.22213794178333,12.48729026266191,10.259383885601679,8.496716170552881,7.118836492812357
