series,2021-11-01,2021-11-02,2021-11-03,2021-11-04,2021-11-05,2021-11-06,2021-11-07,2021-11-08,2021-11-09,2021-11-10,2021-11-11,2021-11-12,2021-11-13,2021-11-14,2021-11-15,2021-11-16,2021-11-17,2021-11-18,2021-11-19,2021-11-20,2021-11-21,2021-11-22,2021-11-23,2021-11-24,2021-11-25,2021-11-26,2021-11-27,2021-11-28,2021-11-29,2021-11-30,2021-12-01,2021-12-02,2021-12-03,2021-12-04,2021-12-05,2021-12-06,2021-12-07,2021-12-08,2021-12-09,2021-12-10,2021-12-11,2021-12-12,2021-12-13,2021-12-14,2021-12-15,2021-12-16,2021-12-17,2021-12-18,2021-12-19,2021-12-20,2021-12-21,2021-12-22,2021-12-23,2021-12-24,2021-12-25,2021-12-26,2021-12-27,2021-12-28,2021-12-29,2021-12-30,2021-12-31,2022-01-01,2022-01-02,2022-01-03,2022-01-04,2022-01-05,2022-01-06,2022-01-07,2022-01-08,2022-01-09,2022-01-10,2022-01-11,2022-01-12
S,19101438.23254711,19091470.844004966,19084159.330978096,19078463.45882282,19073815.175197452,19069894.14605665,19066512.414877355,19063553.98947819,19060942.811026163,19058625.595726177,19056562.54435847,19054722.244414445,19053078.821043223,19051610.302674398,19050297.648460004,19049124.140641857,19048074.981647603,19047137.00898249,19046298.480380163,19045548.902931947,19044878.891426913,19044280.047400154,19043744.85381977,19043266.58224208,19042839.210331477,19042457.348254386,19042116.172820937,19041811.368475094,19041539.07438347,19041295.836979236,19041078.56739712,19040884.28590373,19040710.796845853,19040555.862865817,19040417.49611192,19040293.925377756,19040183.570197575,19040085.01928778,19039997.012006883,19039918.42211325,19039848.243392624,19039785.576872963,19039729.619420387,19256036.407728765,19472345.853023928,19688657.65568091,19904971.42872192,20121286.729130927,20337603.065222267,20553919.88507118,20770236.545378156,20986552.25332559,21202865.962294877,21419176.176857688,21635480.557228886,21851775.01787211,22068051.299383163,22284288.45287302,22500403.017349802,22509731.450373024,22496171.51250049,22479229.87604603,22449085.002728783,22415997.294239074,22375397.41339311,22330737.681147058,22282738.04817284,22232524.267740503,22181022.167231407,22129008.608881585,22077118.77126878,22025860.328787275,21975629.501758765
E,0.0,9967.38854214754,14288.685006371397,15697.951659739274,15636.849787183579,14866.823991832387,13788.507973575335,12610.380980668788,11438.4451384928,10324.126896933698,9289.940195557996,8343.258080917525,7483.704027863535,6707.111188329442,6007.632046225673,5378.850250506385,4814.354169608758,4308.020583837443,3854.1430110188026,3447.4775559244545,3083.2457941812713,2757.1160826868904,2465.1748382658484,2203.893964477932,1970.097685733117,1760.9304571065968,1573.826753419513,1406.4830732372052,1256.832242889326,1123.019974256571,1003.3835640941128,896.4325925132098,800.8314359822391,715.3835920881099,639.0173927065975,570.7732026105891,509.7918890146914,455.30444536019365,406.62266040687393,363.1307322534012,324.2777354294542,289.57085734401494,258.5693279992807,230.87897394524958,208.83597903986902,191.04536613803052,176.61753596567098,164.9853916566527,155.80016507728072,148.87733109077885,144.17817856540285,141.82369550338092,142.15001323730837,145.8370904364793,154.19739334548893,169.87882301036265,198.86809499771948,257.9180628484761,420.6225542047071,5390.031315042731,17154.951186040373,28590.012326196782,49379.37713796151,66545.90414939438,85471.9531780477,102222.08756370342,116634.66893640505,128263.94303845202,137003.5827149419,142943.92088766838,146302.30948379368,147368.64370673793,146465.50470091501
I,83109.60738011602,61364.94322685855,48000.71297464238,39299.82850034101,33255.93145769651,28776.852421735864,25261.76546403036,22375.214885764675,19925.802475256565,17800.827715285704,15930.962012364953,14271.09455850864,12789.907987627634,11464.17709719256,10275.628240372866,9209.190028592599,8252.001912387157,7392.83701527048,6621.752573365772,5929.866481376304,5309.204682053765,4752.589263096641,4253.550786008506,3806.255798330137,3405.4445166930154,3046.3758595896275,2724.7781973314927,2436.804830760846,2178.993559520199,1948.2298909003234,1741.7135452685598,1556.92797378038,1391.6126400179587,1243.7378323265743,1111.4818338964312,993.2102085835866,887.4570499796372,792.9080232217318,708.3850421381087,632.8324360954439,565.3044719155446,504.9541066525844,451.0228569166711,402.8316797940781,359.7727692365936,322.0281142356205,289.35544464605084,261.3356856903205,237.5062924885359,217.43157226396897,200.74000441109274,187.14682037316425,176.47442474172698,168.6824433454735,163.92465428712265,162.6689672996945,165.97580224781976,176.2445456493766,199.77008284454337,261.07064894964896,1648.072998849134,5848.710647411222,12037.76671807804,22220.656600764298,34374.27382719039,48458.07140590767,63379.54309690954,78288.38187774512,92436.40003965786,105242.45617216824,116301.84765867259,125374.44264532483,132361.2086956532
A,9234.400820012892,7387.520656010313,6209.038181072678,5395.891095049284,4787.651425831605,4299.226634280792,3885.386027179605,3521.964060950944,3195.8826781808184,2899.8594966994388,2629.6114042675617,2382.3873292807893,2156.207605852157,1949.4772055176318,1760.7951000639885,1588.865041437961,1432.4575406655606,1290.396657620711,1161.5579436116923,1044.8706452199178,939.320842853668,843.9540481083724,757.8767209673045,680.2566219218191,610.3221164717934,547.3606237494282,490.7164127127404,439.7879327727777,394.0248384153383,352.9248380189504,316.0304696428575,282.92588263710934,253.23368388508376,226.6118901875342,202.75101991267064,181.37133771133443,162.2202662473852,145.0699696683489,129.71510909548493,115.97076708859417,103.67053563847739,92.66476057366553,82.81893417925286,74.01222718338072,66.13615096506206,59.17400014324571,53.070561098737485,47.754974957960115,43.15354171606768,39.196838325172564,35.823790592861414,32.984377831251216,30.642213130102398,28.778270901201175,27.397729434055318,26.54410534760892,26.331648968398014,27.031362024649997,29.36263150517428,36.108781830280634,190.58796491550646,667.1189075136163,1391.3954957967967,2594.497710776282,4071.9752931028574,5821.7388298237165,7724.053690770075,9678.283020708212,11590.54470772013,13382.543247624362,14994.35222472954,16384.55106429744,17528.70016264009
IH,0.0,5122.742677234265,8788.248311419893,11546.336036719367,13705.159566330318,15442.170042540261,16863.44856843925,18035.62091240538,19003.115103680935,19797.547586371038,20442.866454024934,20958.199861839123,21359.458791165547,21660.260689789236,21872.48061170817,22006.59619466462,22071.916939392147,22076.747145889174,22028.509554942848,21933.844621092372,21798.693746256646,21628.371206816893,21427.627541376154,21200.70608773191,20951.393761315576,20683.06683345519,20398.732276619354,20101.065130227984,19792.44226933652,19474.972910374854,19150.526152819737,18820.75582765401,18487.12289975963,18150.915650442148,17813.26784674512,17475.1750888352,17137.50950745586,16801.03297012221,16466.408940597794,16134.213123192832,15804.94301144413,15479.02644970939,15156.829306075279,14838.662345686285,14524.787385098714,14215.422800499044,13910.793200964003,13611.103135538071,13316.526653166984,13027.20531946068,12743.250613273049,12464.748568926816,12191.765704263116,11924.35607210216,11662.570002864346,11406.466156771401,11156.130696280723,10911.71317969648,10673.507645859852,10442.189428549118,10219.929711107396,10088.235853827435,10218.46857482782,10727.212098252232,11852.000098769322,13700.243314149646,16374.401490976237,19907.25531712102,24278.425675100432,29421.881529454444,35237.27843534687,41601.61717457831,48379.90474712606
IN,16621.921476023206,33077.62373728618,45019.83614528503,54169.78037876066,61488.04827504125,67524.35408383013,72604.481027339,76930.78930987169,80636.52439392591,83815.31964503798,86537.33199164472,88858.15107420129,90823.788475161,92473.5321879349,93841.63228549407,94958.3416107137,95850.59620032508,96542.49062079926,97055.63311764537,97409.42730114207,97621.3063244059,97706.93419757261,97680.38270821622,97554.28903833576,97339.99730761843,97047.68623788084,96686.48454741997,96264.57534141206,95789.29055415011,95267.19636051265,94704.17037508757,94105.47138039043,93475.80226134259,92819.36676673277,92139.92066553075,91440.81782565473,90725.05168911492,89995.29258221968,89253.92126104183,88503.05905685904,87744.59495350956,86980.20989835754,86211.39862070448,85439.48920588077,84665.6606497808,83890.95859713029,83116.4546340061,82343.16117659525,81571.99670196736,80803.7779934454,80039.22652796375,79278.98226356634,78523.6218050053,77773.68047190359,77029.68015585365,76292.16828515254,75561.78039576097,74839.35775225292,74126.21308386026,73424.90496959057,72742.87004968458,72345.05594895757,72791.34751895024,74470.98738737634,78170.40883365544,84263.55951075697,93112.53819683091,104857.32143424451,119466.4245954511,136759.04035742817,156439.94118828754,178135.91130813918,201429.44072412277
D,140216.0,140216.0,140221.12274267722,140229.91099098863,140241.45732702533,140255.16248659167,140270.6046566342,140287.46810520266,140305.50372611507,140324.50684121877,140344.3043888051,140364.74725525908,140385.70545512094,140407.06491391212,140428.72517460195,140450.59765521367,140472.6042514083,140494.6761683477,140516.75291549362,140538.78142504857,140560.71526966966,140582.5139634159,140604.14233462274,140625.56996216413,140646.77066825185,140667.72206201317,140688.4051288466,140708.80386112325,140728.90492625345,140748.69736852281,140768.1723414332,140787.32286758602,140806.1436234137,140824.63074631343,140842.7816619639,140860.59492981064,140878.07010489947,140895.2076144069,140912.00864737702,140928.47505631763,140944.60926944079,140960.41421245228,140975.89323890198,140991.05006820805,141005.88873055374,141020.41351793884,141034.62894073935,141048.53973394027,141062.15083707584,141075.467363729,141088.4945690484,141101.2378196617,141113.70256823063,141125.8943339349,141137.81869000703,141149.48126000984,141160.88772616663,141172.04385686293,141182.9555700426,141193.62907768847,141204.07126711702,141214.29119682816,141224.37943268198,141234.59790125673,141245.32511335504,141257.1771134538,141270.87735676795,141287.2517582589,141307.15901357605,141331.43743925117,141360.85932078064,141396.09659921593,141437.69821639056
R,0.0,2013.0993787628106,3933.1878836991664,5817.004738848827,7689.889186704527,9561.426505805895,11433.553628711901,13304.734490211604,15172.07768144829,17032.378315542534,18882.601418128248,20720.07964881397,22542.56883725089,24348.23626619078,26135.620304795066,27903.58080028127,29651.249561877452,31377.98504901101,33083.332727030305,34766.99126151602,36428.78413693295,38068.63606141654,39686.553474042135,41282.608508229074,42856.92583570554,44409.67189508787,45941.04608597794,47451.27357863705,48940.59944922948,50409.28390144234,51857.59837779697,53285.82239922921,54694.24100061217,56083.142653823335,57452.81758940338,58803.556444668735,60135.64917835014,61449.3842031129,62745.04769610959,64022.923054928375,65283.29047220942,66526.4266070413,67752.60433521231,68962.09256363718,70155.15609693843,71332.05554633825,72493.06340467244,73638.4567401945,74768.5130379986,75883.50802671233,76983.71480797458,78069.40391647413,79140.84416011354,80198.30428726829,81242.05577414036,82272.37745000908,83289.56360206878,84293.9396035063,85285.89670473471,86265.9895785005,87235.36988794775,88223.97468089555,89301.03319295768,90530.25237625506,92027.99215342625,93882.77109882182,96188.77370976993,99022.09481486838,102440.8171029762,106483.48720303799,111169.74338744774,116502.09626884728,122468.35562649176
G,6611078.0,6611078.0,6613769.19490638,6617627.1398581,6621865.586806229,6626087.536248769,6630101.578726564,6633824.475879428,6637229.27874421,6640317.658931602,6643105.173193773,6645613.457046574,6647866.136728422,6649886.736815945,6651697.656836795,6653319.717489275,6654772.007056911,6656071.882682705,6657235.048240341,6658275.666853317,6659206.485793416,6660038.962157845,6660783.38350017,6661448.980706502,6662044.032076911,6662575.958452059,6663051.409675477,6663476.3428989,6663856.093328674,6664195.438034255,6664498.653427304,6664769.566989609,6665011.6037895875,6665227.828277302,6665420.981847166,6665593.516543197,6665747.625307903,6665885.2691179365,6666008.201318184,6666117.989436493,6666216.034734202,6666303.5897227675,6666381.77385425,6666451.58757281,6666513.9248957755,6666570.310610117,6666621.892858975,6666669.5795936845,6666714.125649433,6666756.1916940035,6666796.388573399,6666835.31668161,6666873.609079397,6666911.989582972,6666951.365597389,6666992.998893592,6667038.866175805,6667092.560561454,6667162.198438424,6667275.766528059,6668731.074983121,6673362.911803352,6681082.215131424,6694414.646958674,6712382.04107901,6735459.468437083,6763059.4320792835,6794550.792692113,6829182.057312494,6866173.024645529,6904767.883285199,6944269.5068458235,6984059.040646642
H,3476185.8756241472,3476185.875624147,3476185.8756241472,3476185.8756241472,3476185.875624147,3476185.8756241472,3476185.8756241472,3476185.8756241472,3476185.8756241472,3476185.8756241472,3476185.8756241472,3476185.8756241472,3476185.8756241472,3476185.8756241477,3476185.8756241477,3476185.8756241472,3476185.8756241472,3476185.8756241472,3476185.8756241472,3476185.8756241477,3476185.8756241472,3476185.8756241472,3476185.8756241472,3476185.8756241472,3476185.8756241472,3476185.8756241472,3476185.875624147,3476185.8756241472,3476185.8756241472,3476185.875624147,3476185.8756241472,3476185.8756241472,3476185.8756241472,3476185.8756241472,3476185.875624147,3476185.8756241472,3476185.8756241477,3476185.875624147,3476185.8756241472,3476185.875624147,3476185.8756241472,3476185.8756241472,3476185.8756241472,3319007.0879385006,3164506.844519456,3012869.680789582,2864297.6510053785,2719011.703572131,2577252.94041425,2439283.6345705027,2305387.826848913,2175871.254057134,2051060.2778507287,1931299.3881741054,1816946.7590939207,1708367.2593875292,1605922.3037657586,1509956.0310522583,1420777.5877014818,1415281.2285748818,1415281.2285748818,1415281.2285748818,1415281.2285748818,1415281.2285748816,1415281.2285748818,1415281.2285748818,1415281.228574882,1415281.2285748818,1415281.2285748818,1415281.2285748818,1415281.228574882,1415281.228574882,1415281.228574882
S0,6685503.381391489,6664979.523710485,6636955.479814379,6609916.855584261,6583550.042643305,6557677.668681403,6532195.304204088,6507038.221467873,6482163.733621266,6457541.722157436,6433149.506487521,6408969.031256047,6384985.297844845,6361185.467704374,6337558.331095026,6314093.976604358,6290783.572666458,6267619.213014907,6244593.799896089,6221700.950673364,6198934.919830676,6176290.531839727,6153763.122234048,6131348.485261159,6109042.827051699,6086842.723563083,6064745.082738977,6042747.110436424,6020846.279742934,5999040.303354361,5977327.108720501,5955704.729844816,5934171.567772582,5912726.057367224,5891366.777749904,5870092.434468537,5848901.844939427,5827793.926063062,5806767.683438654,5785822.201850641,5764956.636821237,5744170.20708456,5723462.187871118,5767766.543929696,5810525.4719302,5851665.303076197,5891105.866083971,5928760.120366035,5964533.860729252,5998325.553543301,6030026.382886943,6059520.608402622,6086686.362155729,6111397.033159127,6133523.3875875315,6152936.496493945,6169511.186659427,6183127.958267247,6193656.364335894,6170868.196049686,6142129.46830029,6111916.960448949,6075574.727592369,6038063.0085329255,5997263.772774336,5954849.036709909,5911194.151735393,5866848.9549903665,5822259.554485513,5777792.74322016,5733741.427647701,5690333.030671762,5647738.565877899
E0,0.0,5493.83620433329,7890.363796212994,8680.204178411133,8656.54463188577,8239.021033956236,7648.812987580921,7001.278325630678,6355.28086700446,5739.565758642413,5166.898630556265,4641.655424487645,4163.896752460767,3731.5513600323256,3341.581060024651,2990.5966042471036,2675.177580946848,2392.032967794997,2138.076180592311,1910.4545539325488,1706.554860036774,1523.9965509199792,1360.6190339138407,1214.4663755733452,1083.7712466418159,966.9390609569896,862.5327935720753,769.2587089054481,685.9530913348203,611.5699956268871,545.1699943140542,485.90987801279823,433.0332370958321,385.8619471268222,343.78834860681866,306.2681900676777,272.81423138427476,242.99045460472846,216.40683152662018,192.71459998865555,171.6020039045757,152.7904552062276,136.03107896945681,121.10160600824953,109.19451878643682,99.56405666714188,91.73157881021189,85.3887333321347,80.34207676484773,76.4839186848694,73.78161175583213,72.28322163835901,72.14382287324766,73.6876937932811,77.54854691431797,85.01145915590092,98.98760296498614,127.62744822935078,206.7302813547299,2623.3911901144575,8321.210462996794,13829.36206512803,23801.26652702869,31974.094836817927,40924.26521386183,48769.77400492488,55440.86370812787,60737.57006480056,64624.09221779047,67158.72245247412,68459.20880985493,68675.92741182639,67972.47201265351
I0,83109.60738011602,61364.94322685855,46792.85384343253,36680.444964963914,29427.08740232523,24065.098581762893,19993.280530343447,16827.45023970189,14315.088341438812,12285.637460114664,10620.925767660816,9237.146443355978,8073.601252680816,7085.4893149260115,6239.17214113544,5508.992052022788,4875.089305277797,4321.87671848887,3836.9567385798277,3410.3421106099704,3033.8884093163406,2700.8765322768522,2405.702604276451,2143.645578987866,1910.691515030033,1703.3994932968358,1518.798332965182,1354.30623145348,1207.6675762526922,1076.9027064688212,960.2675112907119,856.220560841548,763.3960559475119,680.5813123369994,606.6978369051529,540.7852436856749,481.98747265716077,429.5408871330993,382.7639222557919,341.0480290872712,303.8497126724717,270.68350305991686,241.1157290978901,214.75898842856375,191.26722534439818,170.70689586244495,152.92571318226396,137.68200155038113,124.7140618606432,113.77643580421517,104.65880997549884,97.19708224963358,91.28306364643345,86.87874170269015,84.04360462485084,82.99267859988184,84.23170147692343,88.92010722744995,100.11460425105464,129.7379560020358,804.1091469581027,2840.4501466174042,5831.207091232357,10731.881398441681,16557.014796848343,23274.615653201516,30352.921587403638,37380.465148663236,43999.44421912034,49936.005220765364,55003.68410282496,59096.59494027289,62177.157184304495
A0,9234.400820012892,7387.520656010313,6074.8316109382495,5096.576202636989,4337.667087461926,3729.830008926114,3231.034638159578,2814.2921001550903,2461.4720298929924,2159.8360499245277,1900.0558126988944,1675.0516090758035,1479.290949995272,1308.3496625700407,1158.6262708570023,1027.1484484863413,911.4366569164862,809.4046529615944,719.2847114031254,639.5700545402697,568.9696802501921,506.3723900012569,450.8178085286049,401.4728178402992,357.6122455394397,318.60293383080625,283.8905188933547,252.988398921846,225.46848040464025,200.9533770637568,179.10980151981204,159.64294104527124,142.29164917660094,126.8243164541557,113.03531157712924,100.74189971990795,89.78156547795669,80.0096793238936,71.29745709725672,63.530170623603986,56.60557449854286,50.43251971597156,44.92972942896407,40.02471591225496,35.65282091005145,31.798092291634266,28.42539553332167,25.49226379096369,22.955473032734993,20.774640729133427,18.914230143852823,17.34483246775722,16.044362623356548,14.999804784882668,14.210474641704568,13.694836120793193,13.506212671311582,13.774598225998849,14.848502027679602,18.080710062785577,93.16630375366219,324.16935689283355,674.2163474681078,1253.4110737853466,1961.951704132815,2797.2893197221065,3700.9246759254315,4623.965651984181,5521.299623531361,6355.762465358803,7099.371645861265,7733.27358098466,8246.89668714252
IH0,0.0,5122.742677234265,8788.248311419893,11471.885540385822,13470.953871851889,14977.306492342883,16118.770980012785,16983.200264626663,17632.76153605406,18112.63807796959,18456.468945261324,18689.841431670833,18832.593061807485,18900.36721055773,18905.68872540317,18858.723141306986,18767.822458278442,18639.92391234291,18480.84562243906,18295.508738828696,18088.106484060496,17862.234357588586,17620.991633911282,17367.0614301334,17102.774621260556,16830.161465232075,16550.993784928967,16266.819821083007,15978.993336375235,15688.698160391872,15396.969077703308,15104.709748869727,14812.708196383292,14521.650269797976,14232.131415668771,13944.667012403555,13659.701477819677,13377.616319362329,13098.737266912189,12823.340604730587,12551.658800681036,12283.885516198088,12020.180068644484,11760.67140803806,11505.461662145883,11254.629297265607,11008.25508487825,10766.408566074617,10529.142798106868,10296.493496438621,10068.480431642403,9845.10995963048,9626.378176244774,9412.274597847956,9202.786637073308,8997.90566062874,8797.63648615297,8602.01499418661,8411.147711914256,8225.327145543495,8045.574024568011,7911.491075454349,7905.985469299838,8084.950986398736,8561.901157139613,9387.01640615947,10607.359835126215,12236.143312321074,14260.914941485824,16647.45270358197,19345.435831147894,22294.198825735042,25427.93429124682
IN0,16621.921476023206,33077.62373728618,45019.83614528503,53928.208552518685,60725.01545998628,66003.18278585146,70156.17067434553,73453.26507367076,76084.22247087443,78186.39791445345,79861.66142733186,81187.2299665907,82222.78695559599,83015.27933657619,83602.22440619563,84014.03659036076,84275.6946348617,84407.95554956865,84428.25133777074,84351.360172109,84189.9149925099,83954.79352444808,83655.42089565897,83300.00720755768,82895.73625127967,82448.91719177288,81965.10791851452,81449.2165059224,80905.58558715388,80338.06324653288,79750.06315536132,79144.61602606585,78524.4139779735,77891.84904938327,77249.04682135684,76597.8959205243,75940.0740100562,75277.07076448707,74610.20823426882,73940.6589363773,73269.46195283097,72597.53727583715,71925.69860369076,71254.66476347343,70585.0699135244,69917.47265945804,69252.43931203595,68590.50006155204,67932.1314612466,67277.75295900626,66627.73071657705,65982.38517140638,65342.00073614224,64706.8373415101,64077.14471643554,63453.18199019616,62835.24870601417,62223.74255924942,61619.289155102415,61023.1191844016,60438.83558375799,59995.26905731203,59963.40639606239,60530.01375034824,62071.08989253309,64761.78195297743,68769.08726408795,74151.9807089278,80886.55393157118,88877.57723607954,97976.00250787182,107996.9793033581,118736.3284983791
D0,140216.0,140216.0,140221.12274267722,140229.91099098863,140241.382876529,140254.85383040085,140269.8311368932,140285.9499078732,140302.93310813783,140320.56586967388,140338.67850775184,140357.1349766971,140375.82481812878,140394.6574111906,140413.55777840115,140432.46346712657,140451.32219026788,140470.09001272617,140488.72993663853,140507.21078226095,140525.5062909998,140543.59439748386,140561.45663184146,140579.07762347537,140596.4446849055,140613.54745952674,140630.377620992,140646.92861477693,140663.19543459802,140679.1744279344,140694.8631260948,140710.2600951725,140725.36480492138,140740.17751311776,140754.69916338756,140768.93129480322,140782.87596181562,140796.53566329344,140809.9132796128,140823.01201687971,140835.83535748444,140848.38701628512,140860.67090180132,140872.69108186997,140884.451753278,140895.95721494014,140907.2118442374,140918.2200993223,140928.98650788836,140939.51565068646,140949.81214418288,140959.88062461454,140969.72573457417,140979.3521127504,140988.76438734826,140997.96717398532,141006.96507964595,141015.7627161321,141024.3647311263,141032.7758788382,141041.00120598375,141049.04678000833,141056.95827108377,141064.86425655306,141072.94920753947,141081.5111086966,141090.89812510277,141101.5054849379,141113.74162825022,141128.00254319172,141144.6499958953,141163.99543172645,141186.28963055217
R0,0.0,2013.0993787628106,3933.1878836991664,5790.163424821942,7599.144231684982,9367.942620120832,11100.832669837375,12800.40693983857,14468.47053715726,16106.456911520605,17715.61155054471,19297.067173025902,20851.871189554276,22380.994317680288,23885.333339518158,25365.71328021452,26822.890715189784,28257.55838898797,29670.3507785834,31061.850121243475,32432.592488635415,33783.07360198455,35113.754194842426,36425.06482123874,37717.41007389015,38991.17222223853,40246.71430789097,41484.38275009894,42704.50952014379,43907.413943936976,45093.404189046836,46262.77848731611,47415.826138312565,48552.82833275344,49674.0588290862,50779.78451142703,51870.26585175738,52945.757295399446,54006.507585233834,55052.760037140215,56084.75277666781,57102.71894491039,58106.88687990509,59097.48027853707,60074.71834285907,61038.815913879866,61989.99194083068,62928.46577205065,63854.45508220538,64768.17482470534,65669.8368504538,66559.64999613346,67437.82055976278,68304.55318125969,69160.05226787005,70004.5243125371,70838.18190385344,71661.25139568269,72473.98990075137,73276.73281473137,74070.10478159231,74868.72776922793,75706.1892299048,76613.2212976328,77645.66445601192,78845.63633760667,80257.59149219526,81916.98178544544,83850.35876776089,86074.74060807958,88598.01342919798,91419.87807367857,94533.09208767851
G0,6611078.0,6611078.0,6612561.33577517,6614691.734000147,6617035.389128318,6619372.656178927,6621597.191858095,6623662.371364742,6625552.716512661,6627268.642346753,6628818.325101586,6630213.387731836,6631466.634696448,6632590.886819612,6633598.405686821,6634500.632573027,6635308.093656174,6636030.391603029,6636676.240504334,6637253.521073094,6637769.343802655,6638230.113614865,6638641.592683613,6639008.95982277,6639336.865744175,6639629.483980768,6639890.557527226,6640123.441381491,6640331.141232896,6640516.348567556,6640681.472466375,6640828.66836484,6640959.864031903,6641076.783005919,6641180.965731643,6641273.788585767,6641356.480997086,6641430.140839559,6641495.748262302,6641554.178106815,6641606.211048812,6641652.543589866,6641693.7970127715,6641730.525404093,6641763.222837715,6641792.705357788,6641819.587653088,6641844.355179368,6641867.410137367,6641889.102498094,6641909.753156139,6641929.674191313,6641949.190661156,6641968.669493332,6641988.565170656,6642009.5032783225,6642032.456372295,6642059.183025095,6642093.642436117,6642149.459612083,6642857.775233414,6645104.502058423,6648838.429816008,6655264.771778305,6663897.777384246,6674947.328991989,6688115.167973318,6703084.2011745125,6719483.345092009,6736931.849990812,6755064.70505298,6773548.691431641,6792091.191832834
H0,1216665.0564684514,1213927.5600913975,1209557.4208750685,1205203.0141599183,1200864.2833089426,1196541.1718890304,1192233.62367023,1187941.582625017,1183664.9929275669,1179403.7989530277,1175157.9452767968,1170927.3766738004,1166712.0381177748,1162511.8747805508,1158326.8320313408,1154156.855436028,1150001.8907564583,1145861.883949735,1141736.781167516,1137626.528755313,1133531.0732517939,1129450.3613880875,1125384.3400870904,1121332.9564627768,1117296.1578195107,1113273.8916513603,1109266.1056414153,1105272.7476611063,1101293.7657695264,1097329.108212756,1093378.7234231902,1089442.5600188668,1085520.5668027988,1081612.6927623088,1077718.8870683645,1073839.0990749183,1069973.2783182487,1066121.374516303,1062283.3375680442,1058459.1175527992,1054648.6647296092,1050851.9295365827,1047068.862590251,978364.775666564,911295.4061121204,845933.9407698879,782360.0272964195,720660.1577857193,660927.968421733,603264.3980312736,547777.6269660399,494582.6911321597,443800.63472350204,395557.031541111,349979.67393526796,307195.2102872102,267324.522791335,230476.70036889953,196741.6048218133,194035.74360503958,193337.21492806144,192641.2009543204,191947.69263088485,191256.68093741365,190568.15688603895,189882.1115212492,189198.5359197727,188517.42119046152,187838.75847417585,187162.53894366883,186488.75380347163,185817.39428977913,185148.45167033593
S1,1910143.8232547112,1787277.4518324472,1682586.9960453818,1585540.7094906482,1495499.456210286,1411911.2881532381,1334285.184716987,1262176.6619456557,1195179.3298181624,1132919.5106663343,1075052.485205911,1021259.6435430638,971246.171056468,924739.0757101233,881485.4527077302,841250.9280694313,803818.2463729037,768985.9804010823,736567.3472368463,706389.1192012088,678290.6203488477,652122.8007303111,627747.3816732297,605036.0661175395,583869.8086635699,564138.140511808,545738.5449198743,528575.8791937524,512561.8395778012,497614.46571902465,483657.68166084663,470620.86379047646,458438.46917800297,447049.64476446615,436397.8991714108,426430.788436985,417099.62473617616,408359.20630157326,400167.56694175827,392485.74369687744,385277.5612911937,378509.4321481485,372150.17082850396,370340.1837506466,368681.8440168781,367159.0914181619,365756.0560934493,364457.02650421736,363246.42075661477,362108.7648083805,361028.6820276809,359990.8997596935,358980.2798590815,357981.8811844095,356981.0618169235,355963.6242422561,354915.98638564785,353825.260980522,352678.27924933995,349756.30699216796,346620.69067964965,343518.43065933435,340181.4181920436,336882.22998495837,333496.22785365325,330110.7942797418,326740.8415666259,323411.05253455194,320140.4761549473,316943.9621433436,313832.51925290993,310813.8189529827,307892.7196918086
E1,0.0,1569.6674869523688,2183.3861168232556,2328.713485443398,2249.06818672101,2069.4227285589586,1853.6949056316616,1634.029749951815,1425.929528417344,1236.1607219456714,1066.9301026934963,918.1112219788528,788.4399824338484,676.1583640590386,579.3591119364459,496.1665342467792,424.82668173682924,363.74722325132893,311.5095268739725,266.86568380989075,228.72775693613534,196.15343750355393,168.33050414152117,144.56142991585895,124.24886233326264,106.882331741906,92.02632453615044,79.30972978343148,68.41659600279708,59.078097309356124,51.06559167502181,44.18465029747823,38.26993939505309,33.18085135639891,28.797773495236978,25.01891553437231,21.757613178169372,18.94003893299992,16.503260316162866,14.393593742965304,12.56520964304426,10.97895074692239,9.601331055725973,8.4036878320698,7.450773323766772,6.683022102881728,6.060796931496371,5.557333069986563,5.154624805872332,4.841146691937096,4.610830416456634,4.463101856884788,4.404174919396691,4.450445203454969,4.636367006042615,5.033846126710818,5.807690334540866,7.421309356913412,11.912539961264688,149.47941338709018,472.1871946019964,782.2522906187173,1341.2269800524818,1796.2705942633838,2291.9272566212685,2723.3383828616447,3087.227823822203,3373.181502807828,3579.9229335136233,3711.3327183166484,3774.4802586904025,3778.1188927339495,3731.6116152705767
I1,0.0,0.0,423.8102214771396,902.4394475543254,1295.0792814010492,1563.4852292697447,1713.1616024481498,1765.4303776238514,1744.7140424026425,1673.2308360320924,1569.2128031859709,1446.717614143027,1316.0907717708253,1184.6296918981384,1057.247840800282,937.0581745022877,825.852743424782,724.4811624970323,633.1408253512586,551.5944492494723,479.32989835342477,415.6752881996072,359.88010173384055,311.1708862081714,268.7882215367845,232.01009591186084,200.16557672902132,172.6416844390717,148.88561852547994,128.4039054108879,110.75960016299523,95.56834607202124,82.49385312360972,71.24317756143455,61.56205690787531,53.23045808616964,46.05843374541738,39.882334694621946,34.56139523092505,29.97468759348454,26.018428798658604,22.6036154919125,19.653958550642663,17.104087796023553,14.89799745870155,13.011818135748827,11.411842910929156,10.062481837179783,8.930230184311075,7.985487803542821,7.203287210718376,6.563554929958206,6.051314464274929,5.657185497959384,5.3786687778893,5.223221611699491,5.215764754914732,5.419196834273263,6.005080407257562,7.650306606645999,46.00813429137581,161.46118249335933,330.42485657207504,606.1043125644792,932.5172144272274,1307.3552678894875,1700.6022993335914,2089.2109583101915,2453.3521654065676,2778.040238388353,3053.258087487189,3273.5182166063673,3437.1322705986036
A1,0.0,0.0,47.09002460857106,103.17360319155452,152.40028711654554,189.39227529486675,213.59650209266215,226.48804884307955,230.21133157301807,226.94695111093478,218.64238254711796,206.92180911849925,193.08078395416499,178.11782663634744,162.7790122308491,147.60398314277265,132.9681825416215,119.11934648540208,106.20789388586152,94.3116009149084,83.45525124622344,73.62603370506281,64.78543008915686,56.878259195571125,49.83945025393267,43.59902607314401,38.08569081077239,33.22934238470243,28.962765801264887,25.22271052109582,21.95051133615734,19.092376819176526,16.59944096426557,14.427650953264047,12.537546303303206,10.893970247499674,9.465743664030908,8.225323326569807,7.148459829245843,6.2138656728815596,5.402900350594207,4.699276569766694,4.0887897782210265,3.5590717542486003,3.099368038360974,2.7030176304017823,2.3629047674078776,2.0721477218711932,1.8244381695965515,1.614189279853411,1.4365858246408416,1.2875935722063723,1.1639679134716414,1.0632995783592138,0.9841530187910201,0.9264134252140945,0.8921461239726002,0.8879476092143062,0.9329973680788473,1.1037740933010185,5.36740167625352,18.459537179062707,38.235198461811684,70.82496817102381,110.54809236472056,157.1962915904145,207.45718475818092,258.58258252121084,308.0615111012035,353.8468968863715,394.41749905859666,428.7684070075894,456.35829238809004
IH1,0.0,0.0,0.0,26.122981169665323,81.15162002420948,159.12587280226165,251.86440956585432,351.71192296886636,452.5020968351493,549.7147292035824,640.302292069114,722.4106137406335,795.094337755396,858.0673663772286,911.4999332775267,955.86124456936,991.8016739526764,1020.0672089135353,1041.4391780500068,1056.693242508873,1066.5727325968148,1071.7724442553051,1072.9299002494072,1070.6218106892884,1065.3640474105302,1057.6138976092943,1047.773706871791,1036.1952817024408,1023.1846152538296,1009.0066423936112,993.8898337113603,978.0305121810316,961.5968284106779,944.7323664541092,927.559376356712,910.1816453738804,892.6870292448903,875.1496702788648,857.6319313515954,840.1860752823869,822.8557181551561,805.6770834639084,788.6800818473694,771.8892388700076,755.324490967003,739.0018674021104,722.9355602861066,707.1373601428255,691.6165946603904,676.3803134369139,661.4335806519288,646.7798059352306,632.4210837921639,618.3585377920265,604.5926876701186,591.123887248401,577.9529419290149,565.0821748054582,552.5177329149813,540.2761978239918,528.415495092748,519.1898376787192,517.2911040058684,525.8503599322058,551.2066824632639,596.1037926248822,663.0805041691004,752.7675315855777,864.3605911246673,995.8515248867454,1144.3543194757065,1306.4313998408659,1478.3854160090698
IN1,0.0,0.0,0.0,84.76204429542793,264.40231336333875,520.7741465099152,828.2634508987651,1162.6131368794074,1504.0730810353837,1837.9751587055584,2154.241574324921,2446.541719218866,2711.419824855283,2947.5237809608952,3154.974481530914,3334.8743048756614,3488.9371967273623,3619.218373445045,3727.922422210001,3817.271363058153,3889.417539277466,3946.3893435553764,3990.0605077597443,4022.135923028915,4044.14874104026,4057.4648979372146,4063.2922681402147,4062.692460804617,4056.593873084385,4045.8050580586373,4031.0277885602286,4012.8694307072255,3991.8544056145574,3968.434632183134,3942.9989213735894,3915.8813435414286,3887.368621723248,3857.706622255099,3827.106022971472,3795.7472417879426,3763.78470688876,3731.350545579604,3698.5577632221903,3665.502977300097,3632.268765086301,3598.9256769271783,3565.5387837850562,3532.1657645293917,3498.8566032515337,3465.6540832558803,3432.59463998403,3399.7093510263335,3367.0249685020617,3334.564981709896,3302.350768992389,3270.402995058043,3238.7436094298023,3207.3993262864874,3176.409172390477,3145.8460967480237,3115.917697101873,3093.960146989129,3095.3127820179097,3130.4446255121456,3220.36104176992,3374.6608742376666,3602.3853190731875,3906.481925749174,4285.259298153721,4733.077138253498,5241.354414548633,5799.592487900584,6396.300206342852
D1,0.0,0.0,0.0,0.0,0.026122981169665323,0.1072746011938748,0.2664004739961364,0.5182648835619907,0.8699768065308571,1.3224789033660063,1.8721936325695885,2.5124959246387024,3.234906538379336,4.030000876134732,4.88806824251196,5.799568175789487,6.755429420358847,7.747231094311523,8.767298303225058,9.808737481275065,10.865430723783938,11.932003456380752,13.003775900636057,14.076705800885465,15.147327611574754,16.212691658985285,17.27030555659458,18.31807926346637,19.35427454516881,20.37745916042264,21.38646580281625,22.38035563652761,23.358386148708643,24.31998297711932,25.264715343573428,26.19227471993014,27.102456365304022,27.99514339454891,28.870293064827777,29.72792499617937,30.568111071461757,31.390966789616915,32.19664387308082,32.98532395492819,33.7572131937982,34.512537684765206,35.251539552167316,35.97447511245342,36.68161247259624,37.37322906725663,38.049609380693546,38.71104296134548,39.35782276728071,39.990243851072876,40.6086023888649,41.21319507653502,41.80431896378342,42.382271905712436,42.9473540805179,43.499871813432875,44.04014801125687,44.56856350634962,45.087753344028336,45.60504444803421,46.13089480796641,46.68210149042968,47.27820528305456,47.94128578722366,48.69405331880924,49.558413909933904,50.55426543482065,51.69861975429636,53.00505115413723
R1,0.0,0.0,0.0,9.418004921714212,31.470501879394007,66.36578430402753,112.92503587026985,169.42412184042908,234.024269372016,304.98350259440963,380.75062737395126,459.996651796029,541.6136456613009,624.6975985167599,708.5244384011323,792.5242327982787,876.2562422713826,959.3861504239063,1041.666022034278,1122.9171046841413,1203.0153508420774,1281.8794169488988,1359.4608456389126,1435.7361276913225,1510.7003537358294,1584.3621910983916,1656.7399517030683,1727.8585485780095,1797.7471688972087,1866.4375193635215,1933.9625245274256,2000.3553801875075,2065.648882430914,2129.8749683821884,2193.0644176331157,2255.2466739978317,2316.4497558841613,2376.700230630798,2436.023233812336,2494.442519022376,2551.98052721351,2608.6584674762453,2664.496403323626,2719.513340236543,2773.7273115173048,2827.155460478395,2879.814653587797,2931.7212946251916,2982.891245151481,3033.3398084882238,3083.0817522872403,3132.131356039115,3180.5024775820016,3228.2086390677596,3275.2631402100574,3321.67921874003,3367.4703037964478,3412.6504746571527,3457.2354477440595,3501.245299808356,3544.7164947363717,3588.4822614438576,3634.4455220744,3684.335999863949,3741.2825629377544,3807.6263379243533,3885.8226679986124,3977.810243809011,4085.0213594997686,4208.351646333923,4348.187088148872,4504.460620651235,4676.724183088371
G1,0.0,0.0,423.8102214771396,1013.3244730194187,1642.077114089136,2249.325524503809,2808.0696612147276,3308.5672857352765,3749.7553182222664,4134.756290894949,4468.519685820281,4756.590813547525,5004.480843481815,5217.359638738954,5399.922397034895,5556.349357257735,5690.314321504366,5805.017525573309,5903.2292758511685,5987.336848107141,6059.390582735811,6121.147077108568,6174.108505234527,6219.557741352738,6258.58932743002,6292.136520260001,6320.994749830315,6345.841857455076,6367.255484496603,6385.727965417358,6401.679051690884,6415.46676144314,6427.396617023459,6437.729500660123,6446.688330526351,6454.463729370065,6461.218836564346,6467.093392122451,6472.207202634361,6476.663082919726,6480.549353230326,6483.941959833948,6486.9062765356175,6489.498635920663,6491.767631635322,6493.7793404327385,6495.583756400517,6497.220171572021,6498.7206515009175,6500.112400198503,6501.419509805326,6502.664434017769,6503.869471519128,6505.058598747365,6506.260218952298,6507.512038043929,6508.871176498142,6510.439252888467,6512.443006414834,6515.659392204375,6556.018833818889,6683.509376361428,6894.717494828481,7256.848779442651,7741.841839893765,8360.662199181508,9095.963562554152,9929.515074986148,10840.27408074426,11806.85327279294,12808.913106738435,13828.022776584843,14848.11487762301
H1,347618.5875624147,325526.18482786766,306644.453699349,289095.68515026005,272784.7242047886,257623.21246721593,243529.10265264387,230426.2077940964,218243.782649111,206916.1350058566,196382.26475309776,186585.52873087296,177473.32952040771,168996.82646331686,161110.6673222899,153772.73910886774,146943.9367092326,140587.94803672493,134671.0545306065,129161.94590490908,124031.54812950613,119252.86369824786,114800.82330651299,110652.14812321845,106785.22190054027,103179.97221865192,99817.76021297883,96681.27817807515,93754.45448550691,91022.36529331242,88471.15256192746,86087.94792611327,83860.80200460166,81778.61875904875,79831.09454163244,78008.66149639052,76302.43500331804,74704.1648764553,73206.19004782433,71801.39648822471,70483.17813368444,69245.40060287643,68082.36750614553,62819.42724898399,57822.32130167697,53077.59774462493,48573.718506151665,44300.94200040388,40251.21233493711,36418.05101674341,32796.44601042665,29382.731653613766,26174.45134765506,23170.19324689662,20369.387662006302,17772.05411855089,15378.486855930669,13188.871265217755,11202.831827230471,10997.678600755411,10910.658806251025,10827.340008116973,10747.466902401315,10670.80238855812,10597.126269321514,10526.23404344543,10457.935784675827,10392.055100795878,10328.428167024693,10266.902828458533,10207.337766622988,10149.6017255567,10093.572793174428
S2,1910143.8232547112,2023187.8979077574,2126262.9219716233,2220728.1162045067,2307199.7573493673,2386254.9792138436,2458432.276619127,2524232.8966531036,2584122.7143799895,2638534.332025615,2687869.240072026,2732499.9453139934,2772772.0136081073,2809006.0013285433,2841499.2651556754,2870527.6487540193,2896347.049768919,2919194.873044195,2939291.3770511546,2956840.920830944,2972033.118644137,2985043.909199576,2996036.5459153294,3005162.5142125343,3012562.3813923993,3018366.58421516,3022696.1588953403,3025663.4178530723,3027372.577216547,3027920.3387545883,3027396.4296289654,3025884.073488166,3023460.5514403754,3020197.525094428,3016161.479709118,3011414.094256911,3006012.585389673,3000010.026932551,2993455.6465551723,2986395.1012140233,2978870.7328732843,2970921.805914865,2962584.7275515744,2987465.8046928,3011223.0146663156,3033835.2718116636,3055277.550922485,3075520.719428502,3094531.4128846033,3112271.9836341618,3128700.56303159,3143771.2906429516,3157434.7787716473,3169638.8954956676,3180329.959081243,3189454.427893328,3196961.099398636,3202803.4810831766,3206939.1760217,3194524.4487573146,3180267.977430998,3165656.7885089447,3149826.8787668543,3133686.8518819013,3116836.0036268514,3099582.8875499265,3081993.8768735537,3064172.674736376,3046205.661076117,3028166.6192440954,3010117.233867848,2992108.2183517586,2974180.6099368134
E2,0.0,549.383620433329,814.2923712485956,923.9887504340619,950.2194998776947,932.4776656881902,892.3629646311781,841.6190021417794,786.5999730862263,730.7322942218246,675.858997399628,622.9672010424308,572.5783235793981,524.9559344088092,480.21616505642646,438.3867118584337,399.4390569080754,363.30688283709117,329.8973957464448,299.0989574753419,270.7867087688851,244.8269942852706,221.08097397190343,199.4076058373871,179.6660977690081,161.71789143186024,145.42822962468398,130.66735542110112,117.31139056148342,105.24293934683199,94.35146200699158,84.53345822583617,75.69249455493072,67.73912217803901,60.590687173370306,54.17107921444119,48.41043066296215,43.24478273105218,38.61573210227242,34.47006863770806,30.759412470052514,27.439856847023695,24.47162147697432,21.818719810398544,19.700713663199657,17.985496376674195,16.58863098237999,15.456000247844365,14.553905509412848,13.863879715611297,13.38081830164679,13.114061385674178,13.092201648597888,13.374389041965626,14.075770909253585,15.429480380510363,17.96329984930783,23.15446967157716,37.49075188040286,475.4356395948027,1507.7756286336012,2506.043373167594,4314.059958042596,5798.490083402314,7427.096879356426,8859.270541148366,10082.290345482033,11059.286733953082,11782.806990797126,12262.294803449415,12517.972209669982,12576.093566546222,12465.498350886208
I2,0.0,0.0,148.33357751699884,329.382758841337,492.6805456128318,620.3356641530775,709.801007334592,765.0278125733332,792.1042953431833,797.2413928164847,785.9501550666066,762.7973484794124,731.4214199945677,694.64964211575,654.6407280485307,613.0199442554623,570.9948031037143,529.4491855298432,489.0178095927542,450.14427238540156,413.125966666596,378.1487638326939,345.31381724423784,314.65832784482785,286.17168204526934,259.80802930836046,235.49610460736596,213.14690413831303,192.65967653938702,173.9265837431144,156.83630542201598,141.27680118230802,127.13739961348122,114.31034816399278,102.69193530638938,92.18326787175691,82.6907771528663,74.12651134638477,66.40826134477462,59.45955820388083,53.20957345373719,47.59294750729552,42.54956653174179,38.024304102157394,33.96674061450821,30.398929859250707,27.301486710687406,24.637299954785316,22.364356443161526,20.44253664089212,18.83723171981768,17.52150961748272,16.478006564886076,15.701621845496078,15.204559772977607,15.026921326713964,15.261261475380888,16.11842050061054,18.152929667580626,23.5259293210757,145.73826566023607,514.7069597031705,1056.6715684361416,1945.0019055623377,3001.70705429776,4221.661400499934,5509.115740191673,6789.937942006321,7999.436905560116,9087.83497278633,10020.928027710866,10778.921014506888,11354.286700365477
A2,0.0,0.0,16.48150861299987,37.61397802785777,57.81084493530807,74.75526094457729,87.77853872630753,96.99371991998137,102.84354600023848,105.87283599277757,106.6202376208768,105.57196001869028,103.14658404622514,99.69461694436205,95.50437158775392,90.80998222189592,85.79958713326975,80.62284141385805,75.39747961619918,70.21490556535268,65.1448931765424,60.23951580430047,55.53642247199849,51.061567196755895,46.83148193252633,42.855168479091304,39.13567152622885,35.6713841097236,32.45712795041191,29.48504407717403,26.745323442144183,24.226802613925095,21.91744583791516,19.80473150698005,17.87595887092521,16.118487711941277,14.519922545986258,13.06825095667787,11.751944247273862,10.560027360887261,9.482123947841052,8.508481532374416,7.629980931310244,6.8381333893574245,6.125068305797896,5.4910760545343065,4.932425734927671,4.443599517413537,4.01855962136616,3.6514648623753136,3.33708828136859,3.0710951741442756,2.850297980885646,2.673004434166453,2.539635218592131,2.4539813021513126,2.426069453136361,2.479754557988324,2.678437736537974,3.267472745642465,16.87704738435805,58.734906766494476,122.1692266082234,227.1571800278566,355.6804465243547,507.3572636001765,671.6639271145922,839.7998520561348,1003.6184836635002,1156.378996654714,1292.9720414272535,1409.9167994319023,1505.2162465419085
IH2,0.0,0.0,0.0,9.143043409382862,29.236969886662955,58.93764894063426,95.82884161499157,137.39246203391517,181.41144966064059,226.09461803702058,270.0744982204124,312.35452716122643,352.2423773367782,389.2857922021032,423.21710688041105,453.9078257830815,481.33256515423886,505.54094976578585,526.63595266368,544.7573194495535,560.0689485271338,572.7493279940998,582.9843286225207,590.961813459527,596.8676504277322,600.8828106546324,603.1813082971788,603.9287928321351,603.2816465971563,601.3864722203855,598.3798790373376,594.3884965552355,589.529157867194,583.9092076454812,577.6268986364241,570.7718482734433,563.4255327811588,555.6618011965438,547.5473956827828,539.1424677201431,530.5010823582645,521.6717048137872,512.6976653843731,503.6175999973824,494.4658647786054,485.27292386318436,476.0699053771524,466.8860320530699,457.747572114615,448.67760456835737,439.6962087195934,430.82087231414397,422.06702387636807,413.44866948684853,404.9791811257116,396.6723778007589,388.5442348493443,380.61606789798014,372.9217018824348,365.5283700723647,358.6349803007295,359.43190997540205,382.9532865903777,439.34359592047053,549.2020041675077,721.6864102095826,965.4297416150899,1282.9660450672418,1672.2021400390681,2127.1051691002485,2638.7117649568986,3196.1548699007008,3787.595340450439
IN2,0.0,0.0,0.0,29.66671550339977,95.24660011663318,192.8302432380332,314.9690736362684,453.7795843668241,602.2473510378225,754.645736596081,906.5475577934171,1054.6721132288044,1196.6848617923988,1331.0022971733883,1456.6222026248045,1572.9841262082625,1679.8582737972724,1777.2586516800425,1865.3759022692107,1944.5257051650694,2015.109302590499,2077.5834028979134,2132.437321635473,2180.1757118679657,2221.3056203182514,2256.3269005241227,2285.7252373805536,2309.967205928221,2329.4969146966014,2344.7338808575128,2356.0718587975607,2363.878401293988,2368.49497751751,2370.237507665031,2369.397202221179,2366.241617260245,2361.015854661994,2353.9438515459474,2345.229715299765,2335.059070415722,2323.600391352341,2311.006302129565,2297.4148286097284,2282.9505936299793,2267.7259485141108,2251.8420371518714,2235.403402752203,2218.509666066818,2201.252029397107,2183.7123803917684,2165.963763916029,2148.0715726208323,2130.0951588181206,2112.0898085429167,2094.1092348265865,2076.209054432916,2058.45234815393,2040.920076967467,2023.7345602979144,2007.1278006284515,1991.761708486382,2000.9917445335655,2083.923219028864,2274.4183005258037,2640.674498633013,3214.609164506235,4026.7953529611596,5088.350547469882,6395.454630396448,7931.387465204507,9669.640585109728,11577.129784800803,13617.142689854172
D2,0.0,0.0,0.0,0.0,0.009143043409382863,0.03838001329604582,0.09731766223668008,0.19314650385167165,0.33053896588558684,0.5119504155462274,0.738045033583248,1.0081195318036604,1.320474058964887,1.672716436301665,2.0620022285037685,2.4852193353841794,2.939127161167261,3.4204597263215,3.926000676087286,4.452636628750966,4.99739394820052,5.557462896727653,6.1302122247217525,6.7131965533442735,7.304158366803801,7.901026017231533,8.501908827886165,9.105090136183344,9.70901892901548,10.312300575612637,10.913687047833022,11.51206692687036,12.106455423425597,12.695984581292791,13.279893788938272,13.857520687574697,14.42829253584814,14.991718068629298,15.547379869825843,16.094927265508627,16.63406973322877,17.164570815587034,17.68624252040082,18.198940185785194,18.702557785782577,19.19702365056118,19.682296574424367,20.15836647980152,20.625252511854587,21.083000083969203,21.53167768853756,21.971373897257152,22.402194769571295,22.824261793447665,23.237710462934512,23.642689644060223,24.03936202186098,24.427906256710326,24.808522324608305,25.18144402649074,25.546972396563106,25.905607376863834,26.265039286839237,26.647992573429615,27.087336169350085,27.636538173517593,28.358224583727175,29.323654325342265,30.606620370409505,32.27882251044857,34.40592767954882,37.04463944450572,40.24079431440642
R2,0.0,0.0,0.0,3.2963017225999742,11.31531903995064,24.468075308486178,42.63379333016543,65.43073629600947,92.36598132867842,122.91662040440679,156.57234879396805,192.85647332881553,231.3349848325472,271.61913426339606,313.3645680879402,356.26873117078566,400.06748618273963,444.5314714889737,489.4624796380208,534.6900039857575,580.0680255135164,625.4720696274187,670.7965391397832,715.9523166078852,760.8646221909387,805.4711096287856,849.7201814025686,893.569503784611,936.9847028429454,979.9382232501631,1022.4083327811207,1064.3782565577824,1105.8354263383344,1146.7708314015617,1187.178458793895,1227.0548119648008,1266.398497856241,1305.2098736188,1343.4907451078768,1381.2441102168386,1418.4739409288804,1455.1849987166995,1491.3826785918613,1527.0728777078461,1562.2618849568223,1596.9562884751851,1631.1644108181947,1664.8955531904148,1698.1595472485524,1730.9665024421183,1763.3266825788178,1795.2504747707976,1826.7484348005287,1857.8314112020644,1888.510772610727,1918.7988007837048,1948.7093934508061,1978.2594331784949,2007.4718483516483,2036.3842090308203,2065.0869434750175,2096.2074779378704,2135.8092782931994,2189.440631046526,2267.205290885133,2376.734917494601,2526.1038703623153,2721.7759195482454,2968.6212006295495,3269.796651641983,3626.8121720487593,4039.695073749248,4507.208480271511
G2,0.0,0.0,148.33357751699884,368.19251775411965,617.6694803713164,874.228745338294,1125.9977150741054,1366.9357155245234,1594.1728461028038,1806.5548388360849,2003.8525582759776,2186.334487573877,2354.5356318553336,2509.131779221771,2650.8698815121497,2780.528246077385,2898.8926582791623,3006.7412036443425,3104.8340620103572,3193.9063588618974,3274.66307738024,3347.775488747839,3413.878777204862,3473.5706401772763,3527.4106937533707,3575.920540151003,3619.584370837605,3658.84999283627,3694.1301787999673,3725.8042542515677,3754.2198478752125,3779.6947426171,3802.518776338076,3822.9557498679073,3841.2453128559778,3857.604798392788,3872.230989780687,3885.301806059687,3896.977897397071,3907.4041450646846,3916.7110635968656,3925.01610496378,3932.4248663124763,3939.0322041112595,3944.9232584600672,3950.2424511491313,3955.098535170833,3959.5774655360756,3963.7505856029934,3967.6801400905347,3971.4233876137496,3975.036208555194,3978.577005129326,3982.1118995744478,3985.7229846157784,3989.523442761277,3993.6894024640146,3998.5394934233277,4004.7912002346534,4014.9137032423623,4143.281325932959,4550.380745664031,5227.012456419281,6391.808645090782,7957.4009676094065,9962.717125035642,12354.720171145702,15076.938564425851,18062.945982593184,21244.303870108408,24555.12346703975,27934.975963650646,31330.521226618126
H2,347618.5875624147,368310.1701554156,387177.3956174607,404471.31617196824,420305.87325208244,434786.8550613283,448012.4791058755,460073.9331155182,471055.8773256261,481036.9108800194,490090.0049175804,498282.9047223543,505678.5031469125,512335.187360907,518307.16083018074,523644.7422956993,528394.6433951934,532600.226453053,536301.7438550446,539536.5603232421,542339.3593126017,544742.3346633688,546775.3685624893,548466.1967919725,549840.5621722979,550922.3570440948,551733.7555710926,552295.3365914114,552626.1976923286,552744.0611354323,552665.3722142947,552405.3905852146,551978.2750729701,551397.1624176682,550674.2403954851,549820.8157151792,548847.3770635502,547763.653646364,546578.6695465113,545300.7941981831,543937.7892545065,542496.8521062636,540984.6562909184,505834.83678559057,471426.1880036587,437814.1425729458,405055.54761550605,373209.01602309034,342335.2192809339,312497.0933723889,283759.9181937423,256191.21719111776,229860.40788611086,204838.1167656891,181195.05640744322,159000.3538256621,138319.22524088307,119209.92576095572,101719.97713540442,100276.88019873863,99868.65628690284,99459.07648393382,99048.4212882763,98636.94962311118,98224.90039344734,97812.49393181023,97399.93334048717,96987.40573772012,96575.08341470888,96163.12490979745,95751.6760057612,95340.87065568949,94930.83184256629
S3,5730431.469764133,5704477.189166532,5680333.744868789,5657770.18914102,5636617.672751325,5616739.257256521,5598018.421589108,5580352.777818914,5563650.505034142,5547828.227898257,5532809.676530369,5518524.7777088,5504908.990847226,5491902.788331149,5479451.225539583,5467503.570314331,5456012.974775744,5444936.179494463,5434233.243912139,5423867.299052088,5413804.319771289,5404012.914506263,5394464.130887808,5385131.275867936,5375989.7491840245,5367016.889117216,5358191.8296043025,5349495.367846216,5340909.841627754,5332419.015626094,5324007.976041981,5315662.986926115,5307371.54982515,5299122.15142905,5290904.253352051,5282708.218280679,5274525.242317651,5266347.292635758,5258167.049852432,5249977.854686486,5241773.658540678,5233548.977703193,5225298.850894522,5276196.766401202,5329645.537681495,5385795.032008733,5444811.127622188,5506876.911567927,5572193.747287858,5640982.0882020425,5713481.861015354,5789952.175420494,5870670.034866621,5955927.628910928,6046027.68928287,6141276.301677049,6241972.481263228,6348393.561921375,6460772.588284466,6453562.145503366,6436414.398596278,6418878.217442862,6399932.107008355,6380623.322790414,6360458.350475755,6339789.848767638,6318678.96090879,6297236.428589602,6275553.832124323,6253709.90613732,6231770.854448151,6209791.472801476,6187816.468281302
E3,0.0,941.8004921714211,1351.6188398940958,1486.5173128420577,1482.3020129346357,1410.8042538465886,1309.8686991610875,1199.2189330637825,1088.9058273228688,983.8250510033909,886.1390123890957,796.5770398818337,715.133291748569,641.4406062361514,574.9697326167393,515.134404702385,461.3456609233557,413.0388595309131,369.68607004566974,330.80070253166673,295.93808652606424,264.69400472543117,236.70226089909553,211.63185920961206,189.18409952389763,169.0897454473646,151.10634176739282,135.01571482958957,120.62166628355561,107.74785848184376,96.23588361899873,85.94350574416163,76.74306062968272,68.52001526016403,61.17164911243868,54.605867863020784,48.74013076525933,43.50048189883631,38.82067603682417,34.64139051529696,30.90951514875558,27.5775128772869,24.602844443746413,21.947450975297713,19.831587782361154,18.124876583865714,16.743878018479883,15.635183077746623,14.765874229409057,14.118673469755674,13.690455959669514,13.493880681440595,13.563131526480571,13.967014303541173,14.838225202699512,16.444586426028543,19.39216356013625,25.378772012635245,41.870890856578995,546.4254212143819,1738.880555428054,2894.822639167415,4992.356511086149,6720.796799763269,8623.432480279926,10304.687810127829,11749.092245733002,12912.489820055873,13784.663608975765,14374.983057528312,14705.445087408867,14805.252230543143,14706.854527353833
I3,0.0,0.0,254.2861328862837,552.6922043786336,809.4463784329015,997.8856719070071,1117.7176164243124,1178.944323731827,1194.2763368583242,1175.812368152361,1133.8074729486477,1076.4174406162313,1009.861111565014,938.7286615231546,866.3101663423997,794.8919940178755,726.0040190249355,660.6168223152291,599.2945903273666,542.3113554371321,489.7380733470541,441.50707399868026,397.45925374700823,357.3782635868212,321.0149908429364,288.1048512443557,258.37979209713217,231.57643067610948,207.4413884025115,185.7346067072341,166.23122439471098,148.722442483855,133.01568811680784,118.93430354739341,106.31692756417408,95.01668270257905,84.90025481455724,75.84692384997895,67.7475866601989,60.50379945783077,54.026858010602794,48.23692676898018,43.06222322217023,38.438260320751155,34.30714740764289,30.685609178091696,27.55079236905989,24.863294380976008,22.579601414833906,20.658696818381937,19.065630409365212,17.773752608502406,16.766804314839156,16.042010083154512,15.61589819961914,15.53650048748474,15.91159379549378,16.984394119219306,19.39289297195237,25.624108142151115,166.45472138272976,592.4015254674378,1219.0086546558123,2248.0054466716815,3474.4560491261113,4893.731720076652,6395.609323709024,7894.527281616874,9315.388098206458,10599.984096468963,11707.866712652885,12615.109449100824,13311.930582182735
A3,0.0,0.0,28.25401476514263,63.151777008936975,95.11694099241132,120.56261318196812,138.77421816097214,150.31543550361033,156.22891639480173,157.65030793552745,155.63499787852368,151.0921686744918,144.77104613604845,137.27083566129585,129.0598867161212,120.49700135139915,111.85163322219087,103.32167640545336,95.04850691029009,87.12938762960216,79.62753117963173,72.5801675394873,66.00495417335279,59.905031165655096,54.27298070881244,49.09390755276688,44.34781840563444,40.01144497752934,36.059627426911156,32.46635193003559,29.205517298483787,26.25149034735699,23.579497450210443,21.165889779058837,18.98831228105199,17.02579929821475,15.258815474462423,13.66925630252772,12.240419498987265,10.956955880294537,9.804806419694538,8.771130590218299,7.844229858493246,7.013469220106989,6.269198905344522,5.610306757746452,5.031991703713133,4.5279097035249025,4.091383255152321,3.7160828310041287,3.396426468895973,3.127854853906864,2.907100303568709,2.732574188649384,2.6050697800257425,2.5292025801015794,2.51669965686212,2.5951246322937833,2.837462866214084,3.526097018668637,19.213640251366368,67.53732886393472,140.87454226617024,262.4703291455206,411.60016730931454,587.9831082558494,779.5271209085145,976.0944640988016,1168.2502658807175,1348.140120973847,1509.7615885049267,1648.9726234262075,1763.3356656572603
IH3,0.0,0.0,0.0,15.67378870179919,49.38308092460962,98.14884519987058,157.416585494907,222.71773867107692,290.30225437353636,357.2891377299139,421.60890017309396,481.8713960758381,537.2209207994396,587.2046212099169,631.662911981629,670.6426454469979,704.3305325448389,733.0033213856925,756.9912681239452,776.6518660871684,792.351339434619,804.4519265488345,813.30342634512,819.2378463933942,822.5662805084692,823.5773666239936,822.536845722381,819.6878706888222,815.2518097528383,809.4293603807478,802.4018421270919,794.3325756933414,785.3682838158416,775.640470280393,765.2667482894203,754.3521003799631,742.9900594840467,731.2638062965174,719.2471818534622,707.0056167648628,694.5969802154968,682.072352891312,669.4767285839357,656.8496495054909,644.2257804059682,631.6354264963982,619.1092321294109,606.6757335362815,594.3603868720447,582.185385113078,570.1698864619939,558.3304575463491,546.6816442093411,535.2366580882893,524.0082381798754,513.0098514795505,502.2576181917683,491.7739337556607,481.5956738589844,471.7981972430314,462.6084383038041,462.30901603115336,488.27110501090925,552.2636443845475,678.221209715041,876.900133196259,1158.5259165414134,1526.2966788388912,1978.0636612064748,2507.098262998854,3103.237641802828,3754.0577460830737,4445.94332277857
IN3,0.0,0.0,0.0,50.85722657725674,160.8870951872109,321.1674999219191,517.5329593041014,735.9011529959229,964.331006212329,1193.5429635218707,1416.7700075171242,1629.3638020316826,1828.353652134612,2012.0423379262688,2179.667646851637,2331.1330036516006,2466.8000724186595,2587.33287549946,2693.582911207511,2786.5060001609095,2867.103211246727,2936.3797938036705,2995.31741066537,3044.856087308118,3085.8831791524008,3119.227345529464,3145.6560423230403,3165.8754403192365,3180.531972051266,3190.214930011256,3195.4597020525903,3196.7513499110064,3194.5283249086674,3189.1861792829422,3181.0811781995917,3170.5337519304308,3157.8317509516423,3143.2334844050374,3126.970534330983,3109.2503463197127,3090.2586027480816,3070.1613883227215,3049.10715979329,3027.228532839791,3004.6438995755434,2981.4588900613167,2957.781422996322,2933.7137672401705,2909.349288443964,2884.771715842491,2860.0557380477426,2835.268306749138,2810.470374203347,2785.7190313242813,2761.070243027669,2736.582720237316,2712.32419313244,2688.3832699602144,2664.896316084456,2642.125931518002,2620.829493831252,2627.9121431694853,2720.113326831278,2936.7139244941277,3356.9478745835227,4018.2696056629097,4956.833253621611,6186.3867858272,7703.428374292303,9489.471710190672,11514.573812382558,13741.00141678931,16126.613292441582
D3,0.0,0.0,0.0,0.0,0.01567378870179919,0.0650568696264088,0.16320571482627938,0.3206223003211864,0.5433400389922634,0.8336422933657996,1.1909314310957135,1.6125403312688076,2.094411727344646,2.6316326481440857,3.218837269354003,3.850500181335632,4.52114282678263,5.225473359327469,5.9584766807131615,6.715467948837107,7.492119814924275,8.284471154358894,9.088923080907728,9.902226507252848,10.721464353646242,11.544030634154712,12.367608000778706,13.190144846501086,14.009832717189909,14.825084526942748,15.634513887323495,16.436915729450586,17.23124830514393,18.01661658895977,18.792257059240164,19.557523807529584,20.31187590790955,21.054865967393596,21.786129773690114,22.505376955543575,23.21238257230844,23.906979552523936,24.589051905415246,25.25852863399918,25.915378283504673,26.55960406391064,27.19123949040704,27.81034872253645,28.41702445607273,29.011384842944775,29.593570228057853,30.163740114519847,30.722070572066194,31.268752216275534,31.803988874363824,32.3279971125437,32.84100696402325,33.34326458221502,33.83503851597068,34.316634189829664,34.788432387072696,35.2510408253765,35.713349841407656,36.201620946418565,36.75388459080311,37.43210580051815,38.30900593371441,39.467531850255824,40.99382852909471,42.97189219030119,45.47899045330004,48.58222809510287,52.33628584118594
R3,0.0,0.0,0.0,5.650802953028527,19.131824146437257,40.84191027227175,70.30828840752051,106.67421005220766,148.95730929611702,196.1824917379226,247.44611672349328,301.94278265919473,358.97209999079877,417.93514090904796,478.32596258753273,539.7211868844867,601.7692529070034,664.180182256255,726.7162558308652,789.1837528307433,851.4257658309366,913.3160337666806,974.7537002175828,1035.6588915378288,1095.9690086956884,1155.6356325343877,1214.6219512043651,1272.9006287753512,1330.4520443817096,1387.2628410612774,1443.3247324018464,1498.6335230827358,1553.1883063743235,1606.990807681152,1660.0448483444704,1712.3559083529633,1763.9307701979685,1814.7772292387094,1864.903858512494,1914.3198180626182,1963.0347006292673,2011.0584070143225,2058.4010456399596,2105.0728518162487,2151.0841230509736,2196.445167406222,2241.1677882499325,2285.2645767608997,2328.7485008256454,2371.6326820886356,2413.9302979614067,2455.6545744929467,2496.8188569666327,2537.4367641270887,2577.5224562572475,2617.091089982614,2656.159626066832,2694.748399825857,2732.8846341816734,2770.612317624542,2808.036185944314,2848.1840243715674,2898.060891873602,2964.0938581627283,3058.0086784092123,3188.700934825795,3365.6193301420553,3596.3788823442105,3886.774342477948,4240.631570463089,4659.873824747722,5144.702633272363,5693.842617028491
G3,0.0,0.0,254.2861328862837,619.2232196576896,1020.5828941250452,1420.8044376173968,1801.7215861559757,2155.3861349294693,2479.1752468566906,2773.179820233865,3038.8125840047805,3278.0701173498364,3493.1459181179316,3686.231906890045,3859.420870573806,4014.6626983803258,4153.748987649969,4278.312316099275,4389.832808172622,4489.648047084953,4578.964236768503,4658.8675201305405,4730.334901406407,4794.244511849162,4851.385113835758,4902.4648207072105,4948.119051977999,4988.917764255196,5025.372007259185,5057.939857155745,5087.031778945843,5113.015467522972,5136.220214073896,5156.940840443911,5175.441244564156,5191.957589824514,5206.70117414753,5219.86100945415,5231.606139566836,5242.087722096779,5251.440897535909,5259.786466626073,5267.23239510294,5273.875163102752,5279.8009748660825,5285.15550356732,5290.049220244964,5294.570067309954,5298.791566740945,5302.778352782886,5306.59039461972,5310.286817728831,5313.93016551282,5317.59221102497,5321.363304886926,5325.369625691655,5329.809664026682,5335.045548187919,5341.897816631331,5353.202957162607,5500.73782089049,5970.235570856064,6751.837683431267,8099.773941424527,9914.389077360609,12242.71584703619,15024.981555770704,18197.236462118613,21683.6087135337,25405.46788795716,29286.713313489803,33257.183487090195,37254.601589336846
H3,1042855.762687244,1038303.6145167839,1034035.7292786132,1030028.0195776898,1026259.5874642087,1022711.0655835794,1019364.5073592083,1016203.2850253325,1013211.9949491157,1010376.3697212734,1007683.1965316916,1005120.2413810416,1002676.1787114657,1000340.5260691906,998103.5834395771,995956.376920797,993890.6064261678,991898.5971273211,989973.2543709392,988108.0218208843,986296.8425952727,984534.1231845098,982814.6999515838,981133.8080301121,979487.0524488132,977870.3813233147,976280.060967574,974712.6527877382,973164.9918310714,971634.1668716735,970117.5019231647,968612.5390763562,967117.0225672106,965628.883987162,964146.228554146,962667.322368522,961190.5805834888,959714.556424621,958237.9309978249,956759.5038293491,955278.1840855115,953792.982423543,952303.0034284213,950807.4385937908,948905.8865672423,946610.5540363684,943934.2058786005,940890.1773488444,937492.3903474027,933755.3730383284,929694.2817555374,925324.9236717859,920663.778083939,915728.013360455,910535.4955915665,905104.7837998206,899455.1052898895,893606.3035224843,887578.750109332,881393.2126338424,875242.0415785454,869137.2704735682,863078.4965110972,857065.3235793175,851097.3619497651,845174.22798582,839295.5438708408,833460.937354542,827670.0415163222,821922.4945443375,816217.9395292037,810556.0242712909,804936.4011006454
S4,2865215.7348820665,2911548.781387742,2958020.188277923,3004507.5884023816,3050948.246243169,3097310.952751643,3143581.2277480457,3189753.4315926433,3235826.528172604,3281801.8029785324,3327681.6360626435,3373468.8465925404,3419166.347686576,3464776.9696002086,3510303.37396199,3555748.0168997166,3601113.138063578,3646400.763027844,3691612.7122839307,3736750.6131743435,3781815.9128319635,3826809.891124276,3871733.673109352,3916588.2407829086,3961374.444039785,4006093.0108471173,4050744.556662445,4095329.59314563,4139848.536218434,4184301.713525168,4228689.371344828,4273011.631854156,4317268.658629741,4361460.484210648,4405587.086129434,4449648.389934644,4493644.272814646,4537574.567354835,4581439.065218866,4625237.520665223,4668969.653866232,4712635.154022195,4756233.682274671,4854267.108954423,4952269.98472904,5050202.957366152,5148020.8279998265,5245671.951264247,5343097.623563938,5440231.494883292,5536999.056416584,5633317.27909983,5729094.506641796,5824230.738107555,5918618.459460316,6012144.167565532,6104690.545676222,6196138.190620701,6286356.609458403,6341020.353070491,6390738.977493276,6439259.478985944,6483569.871169162,6526741.881048875,6567343.058662516,6606405.113839842,6644130.217088477,6680855.156889607,6716862.6433905065,6752395.378136665,6787656.736052171,6822813.788009298,6858001.137970943
E4,0.0,1412.7007382571317,2049.023882192456,2278.527932608622,2298.715455764471,2215.0983097824137,2083.768416570485,1934.2349698807316,1781.7289426619009,1633.8430711203982,1494.113452519512,1363.9471935267627,1243.6556776409525,1133.0049235931165,1031.5059765914095,938.5659954516844,853.5651890936492,775.8946504231128,704.9738377604044,640.2576581750063,581.2383819134129,527.4450952526554,478.4420653394874,433.8266939417287,393.2273794651328,356.30142752847655,322.7330639192104,292.23156429763515,264.5294987066696,239.3810834916518,216.5606324790465,195.86110023293554,177.09270430674042,160.0816561666858,144.6689343187329,130.7091499310771,118.0694830240258,106.62868719257679,96.27616042499423,86.91107936877533,78.44159426302613,70.78408166655437,63.862452053377154,57.60750931923401,52.6583854841046,48.68791440746699,45.492651223102854,42.94814192894044,40.98368376773875,39.5697125286054,38.71446213179776,38.469429941022355,38.946682269585544,40.35754809423642,43.09848331317526,47.95945092121202,56.71733828874841,74.33606357799955,122.61809015173066,1595.299650731999,5114.897344379928,8577.531958115025,14930.467161751596,20256.251835147486,26205.231347928246,31565.01682464069,36275.19481323994,40181.41491683469,43232.096963864926,45436.58785589988,46845.203118169506,47533.25160508823,47589.0681947509
I4,0.0,0.0,381.42919932942556,834.8691246028047,1231.6378499244984,1530.0472746431433,1727.8047074798603,1838.3621321337691,1879.619459213602,1868.9056581701034,1821.0658135029134,1748.0157119139908,1658.9334316164088,1560.6797867295045,1458.2573640462117,1355.2278637941852,1254.061041555929,1156.4131264395055,1063.342609514565,975.4742936943273,893.1223343703491,816.3816047888074,745.1950090069687,679.4027417024508,618.7781072379922,563.0533898282148,511.9383909327912,465.13358005387204,422.3392998001285,383.26208857026575,347.61890399812535,315.1398232006477,285.5696432165482,258.66869071675416,234.2130772128395,211.99455623740613,191.82011160963555,173.51136619764694,156.9038766464183,141.84636175297655,128.1998989800744,115.8371138244794,104.64137951422637,94.50603914658228,85.33365841134274,77.22486120008435,70.16560947311038,64.09060796699822,58.918042585586186,54.56841519693691,50.97504509569261,48.090920967587344,45.89523575129337,44.40288421617337,43.68192291178577,43.889645273914454,45.35548074510691,48.80242696782353,56.10457554669814,74.53234887774033,485.7627305566897,1739.6908331298505,3600.454547181654,6689.663537524117,10408.578712490944,14760.707364240077,19421.29414627161,24134.240547148496,28668.77865136438,32840.591643759224,36516.11072799668,39610.29902483786,42080.70195820188
A4,0.0,0.0,42.38102214771395,95.37553418394484,144.65626532541452,184.68647593326574,214.202130040085,233.87475652918255,245.12685431976797,249.5533517356714,248.65797352214906,243.7497823933046,235.91824172044656,226.04426370558582,214.82555867226213,202.80562623555198,190.40148085199212,177.92814035440318,165.61935179621594,153.64469656978488,142.1234870010781,131.13594105826488,120.73210570419155,110.93894652353787,101.76595803708216,93.2095878136197,85.25671307675006,77.88736237897636,71.07683683211015,64.7973544268882,59.019316046260116,53.71227181137949,48.845650456091654,44.38930149407554,40.313890880261006,36.59118073377079,33.19421908494895,30.097459758679932,27.27682842272125,24.709747550926824,22.37513042180472,20.25335216533456,18.32620418226428,16.57683690741274,14.989694805507213,13.571507408928909,12.317843359367137,11.219054224186795,10.26368763721765,9.440460622806283,8.739459874103188,8.153001763236484,7.676484308819857,7.309587915143452,7.058396774941854,6.939671919348741,6.990521063115353,7.2939369991547345,8.065231506663775,10.130727909882939,55.96357184986633,198.2177778112909,415.90018099248346,780.6341596465346,1232.1948827716524,1771.9128466551692,2364.480782063356,2979.840470047883,3589.3148235433473,4168.414767750625,4697.829449877497,5163.619653447082,5556.893270910312
IH4,0.0,0.0,0.0,23.510683052698784,74.43402364294629,148.65118325461123,239.5677517507148,340.5985241048573,446.1377667575524,551.8110234309356,654.4118183009891,751.7218931905899,842.3080934664517,925.335699442259,1000.4119341654331,1067.4613375581957,1126.6297094619526,1178.2117534812503,1222.597533666155,1260.233454218081,1291.5942416375822,1317.163150430068,1337.4182522478236,1352.823187056305,1363.82116170829,1370.8312933351917,1374.2466307990353,1374.433363921578,1371.7308613574612,1366.452274988236,1358.8855202406423,1349.294494354677,1337.9204332826216,1324.9833362641868,1310.6834077937888,1295.2024824043565,1278.7054081260883,1261.3413729879558,1243.2451647977657,1224.5383586948526,1205.3304300341745,1185.7197923422952,1165.7947616151182,1145.6344492753426,1125.3095868012551,1104.8832854717452,1084.4234182930816,1063.9954437312776,1043.6593014130674,1023.4685199037089,1003.4705057971289,983.7074735006136,964.2177761404696,945.0376088870394,926.2032588153335,907.7543796139531,889.7394151576251,872.2260090507716,855.3248252891947,839.2595178662333,824.6967728421035,835.8140146878125,923.9676099208264,1124.803511616271,1511.4690452838968,2118.5365719594524,2980.005493524418,4109.081749308236,5502.884341244399,7144.373868886629,9005.538877963541,11050.774333018628,13240.04637664116
IN4,0.0,0.0,0.0,76.28583986588511,242.49680638778722,486.39940830880903,787.5448691543496,1125.2303619587783,1481.6504847659444,1842.7578717610054,2198.111424677416,2540.3434731312245,2864.5431807827104,3167.684435298165,3448.1435482910847,3705.3135856174163,3939.3060225200793,4150.725170606064,4340.500544187905,4509.7640606489385,4659.761278781315,4791.788132867572,4907.146572496658,5007.114108573085,5092.923515827844,5165.749902117164,5226.703081061635,5276.823728437577,5317.082207163976,5348.3792450523615,5371.5478703158915,5387.356172412357,5396.510575328363,5399.6593982183895,5397.396542379556,5390.2651923983285,5378.761451721826,5363.337859526535,5344.406754170799,5322.343461958375,5297.489299689387,5270.154386488508,5240.620265388518,5209.142338637478,5175.952123080419,5141.259333531883,5105.291712436581,5068.271917206837,5030.407319628169,4991.886854949004,4952.881669438902,4913.547861763651,4874.030567339531,4834.469308816395,4795.005192571466,4755.791525228108,4717.01153903061,4678.912519789325,4641.883879984997,4606.685956294487,4575.525566507091,4626.922856953358,4928.591795009795,5599.396786496028,6881.335526135891,8894.23791337272,11757.43700708701,15524.121466270462,20195.728361037458,25727.52680769996,32038.369868374804,39021.208315290394,46553.05603710507
D4,0.0,0.0,0.0,0.0,0.023510683052698784,0.09794470669564506,0.2465958899502563,0.4861636417009711,0.8267621658058284,1.2728999325633807,1.8247109559943162,2.4791227742953055,3.2308446674858953,4.073152760952347,4.998488460394606,5.998900394560039,7.066361732118235,8.192991441580187,9.371203195061437,10.593800728727592,11.854034182945673,13.145628424583256,14.462791575013323,15.800209827261147,17.15303301431745,18.516854176025742,19.887685469360935,21.26193210015997,22.63636546408155,24.008096325439013,25.37454860042725,26.733434120667894,28.08272861502257,29.420649048305194,30.74563238456938,32.056315792363165,33.35151827476752,34.63022368289361,35.891565055881564,37.13481022067933,38.35934857937418,39.56467900940835,40.75039880175065,41.916193563365766,43.06182801264111,44.187137599442366,45.29202088491411,46.376444303207194,47.44043974693847,48.48409904835154,49.50756756825525,50.51103807405238,51.494745547552995,52.45896332369347,53.40400093258051,54.33020419139584,55.2379585710098,56.127697986167426,56.9999239952182,57.85524882050739,58.69450833837362,59.519205111215726,60.35501912590354,61.27898673582437,62.40379024744064,63.915259292724535,66.03379586468398,69.0138013582084,73.12288310751663,78.62576744876102,85.77014131764766,94.7756801956112,105.82645452862982
R4,0.0,0.0,0.0,8.47620442954279,28.82730995376376,61.80811580027933,106.85384126656848,162.79848218438588,228.25958429422076,301.83878928518453,382.2207746921214,468.21656800403196,558.7769172119625,652.9900748212849,750.0719962003009,849.3533692132008,950.2658653265443,1052.328855853907,1155.1371909437423,1258.3502787719062,1361.6825061109978,1464.8949390889966,1567.788194203434,1670.1963511532954,1771.9817771929277,1873.0307395877774,1973.2496937769636,2072.5621474001364,2170.9060129638333,2268.2313738304006,2364.4985990397404,2459.6767520850713,2553.742247156034,2646.6777136049923,2738.471035545694,2829.1145389261037,2918.6043026543853,3006.939574225148,3094.1222734430467,3180.156570486321,3265.0485267699496,3348.8057889236466,3431.43732775176,3512.9532153394694,3593.3644345542552,3672.6827160985677,3750.9246111858374,3828.1095435673155,3904.2586625675267,3979.394208988019,4053.5392246933266,4126.717515037806,4198.953831001586,4270.274291611684,4340.707137192292,4410.284027965632,4479.042374901249,4547.029900162098,4614.314873705969,4681.014937305409,4747.4254821997365,4822.373147914312,4926.528270811685,5079.160589549052,5315.831165182247,5664.072570970401,6153.636349071674,6809.147983721452,7650.041432608046,8689.96672651943,9936.856873304425,11393.359867495868,13057.488258424875
G4,0.0,0.0,381.42919932942556,934.6656475213886,1549.8681893257167,2170.5213623821237,2768.5979060233753,3331.215378497406,3853.458820365204,4334.5256348839175,4775.663264086425,5179.073896266694,5547.33963851892,5883.126671481977,6189.038000852118,6467.544614531798,6720.9574333037535,6951.420034359039,7160.91158997328,7351.254526168589,7524.124093875841,7681.058456992462,7823.468632710679,7952.6479903523405,8069.7811977166075,8175.952590172194,8272.153975604882,8359.29190286307,8438.194425223432,8509.617389874233,8574.250282416979,8632.721653186321,8685.604150249213,8733.419180412033,8776.641227577038,8815.701839843096,8850.993310324486,8882.872070740972,8911.661816282967,8937.656379597716,8961.122371027286,8982.301601478302,9001.413303528272,9018.656165582684,9034.210193098877,9048.427957179585,9061.5736940696,9073.85670989984,9085.452708220653,9096.518302837943,9107.202125220667,9117.655029996253,9128.041776080328,9138.557380293116,9149.45391827856,9161.090508773117,9174.039560521844,9189.353241859806,9209.423979025865,9242.530863366832,9673.261769064471,11054.284052047053,13370.21768073811,17401.44381441104,22870.63180990086,29946.044273841486,38468.59881649447,48262.90141606926,59111.88344361463,70784.54962385815,83052.42834495113,95700.6331868569,108534.61112023072
H4,521427.881343622,530118.3460326823,538770.8761536556,547387.8405643107,555971.4073941248,564523.5706229932,573046.1628361896,581540.867064183,590009.2277727274,598452.66106397,606872.4641449805,615269.824116078,623645.8261275867,632001.4609501822,640337.6320007588,648655.1618627553,656954.7983370953,665237.2200573133,673503.041700041,681752.8188197989,689987.0523349729,698206.1926899335,706410.643716471,714600.7662160676,722776.8812829852,730939.2733867253,739088.1932310862,747223.860405816,755346.4658457139,763456.1741109728,771553.1255015701,779637.4380175964,787709.209176566,795768.5176979594,803815.4250645192,811849.9769691371,819872.2046555415,827882.1261604038,835879.7474639424,843865.0635555909,851838.0594208355,859798.7109548814,867746.9858084109,821180.609643571,775057.0425347573,729433.4456657548,684374.1517087006,639951.4104140735,596246.1500292436,553348.7191117684,511359.553923167,470389.690408457,430561.00580952177,392006.0332599537,354867.14549763664,319294.85735628544,285444.9635877205,253474.23013470104,223534.42380770165,228577.71353650585,235922.6569751212,243216.3406549424,250459.15124222214,257651.47204648127,264793.6830763089,271886.16109255695,278929.27965910546,285923.40919136244,292868.91700265027,299766.1673486196,306615.52146982244,313417.3376325658,320171.9711681599
E_Om,0.0,0.0,0.0,0.0,0.0,0.0,0.0,0.0,0.0,0.0,0.0,0.0,0.0,0.0,0.0,0.0,0.0,0.0,0.0,0.0,0.0,0.0,0.0,0.0,0.0,0.0,0.0,0.0,0.0,0.0,0.0,0.21467795446937607,0.30827421476383743,0.34581868245380065,0.3575258593565096,0.35742591592261075,0.3520231969471343,0.34432291761159217,0.3357047581165518,0.3267948175545661,0.317871297052019,0.3090530352541274,0.30038690476830004,0.2918881229660913,0.28834201627607525,0.28863717571073694,0.29243809145384186,0.2998991749904269,0.3115666986544146,0.3284067301382481,0.3519514208435237,0.38460917958389507,0.4302694965789514,0.4955228666008118,0.5923244068083244,0.7445265059750845,1.0068339486666043,1.5365184813322903,3.0466854397169447,52.39419592251974,202.5558059044892,476.3036033715922,1054.394186190653,1760.548383841024,2806.631764531926,4046.3910870346754,5505.227222558775,7133.398554922958,8890.669527901096,10734.41516561401,12623.534961369907,14520.09509464693,16390.320983388512
I_Om,0.0,0.0,0.0,0.0,0.0,0.0,0.0,0.0,0.0,0.0,0.0,0.0,0.0,0.0,0.0,0.0,0.0,0.0,0.0,0.0,0.0,0.0,0.0,0.0,0.0,0.0,0.0,0.0,0.0,0.0,1.0,0.7383616065732987,0.6031409097682344,0.5285701291127907,0.4836469339809023,0.45363830921464676,0.43145410809402635,0.4136154115906812,0.3983649275607015,0.38477765260764435,0.37233964649261586,0.36074654977926707,0.3498057215794086,0.3393875788613451,0.3294005511799295,0.3210690645698832,0.3149971077787041,0.31154005525796385,0.3110019929596197,0.3137549398058545,0.3203344185626864,0.33154951955842005,0.34864791440741205,0.3736009982866036,0.40964380729450406,0.46239284951502047,0.5424352838491888,0.6723585537849137,0.911303731925647,1.4954767563044382,15.250635519458303,65.95055133762314,177.29732795037214,415.5959701780661,782.2081718631421,1335.3430588752524,2078.4916397769966,3021.0897764857827,4156.67431079741,5469.609494655631,6936.841748518284,8530.252057550566,10218.836289242894
A_Om,0.0,0.0,0.0,0.0,0.0,0.0,0.0,0.0,0.0,0.0,0.0,0.0,0.0,0.0,0.0,0.0,0.0,0.0,0.0,0.0,0.0,0.0,0.0,0.0,0.0,0.0,0.0,0.0,0.0,0.0,0.0,0.0,0.006440338634081283,0.014400497350180149,0.02189495835375814,0.0282417424637018,0.033316171448639756,0.037213633067325835,0.040100593982208436,0.042151617929263294,0.043525138870047615,0.04435625000759866,0.04475659106370276,0.044816879994011204,0.044610147684191706,0.044338378635635625,0.044129818179830596,0.04407699728747974,0.04425857307969659,0.04475385942338972,0.04565528944285921,0.047082774179593084,0.04920449473119132,0.052271680682321596,0.05668303054388163,0.06311615663935503,0.07282872049073655,0.08846799485258737,0.1168699503220386,0.1848965234491392,1.7197430964349036,7.452468654282599,20.251083024573845,47.83269200537867,91.08260511953364,157.06503703158467,247.04376223630794,362.79182646580966,504.23541782033647,670.1084200933021,858.1191910430618,1065.2014016755468,1287.763974179845
R_Om,0.0,0.0,0.0,0.0,0.0,0.0,0.0,0.0,0.0,0.0,0.0,0.0,0.0,0.0,0.0,0.0,0.0,0.0,0.0,0.0,0.0,0.0,0.0,0.0,0.0,0.0,0.0,0.0,0.0,0.0,0.0,0.26163839342670125,0.45482213793849724,0.6126269565801771,0.7509211959745918,0.8774618027671048,0.9961510011868302,1.1090359608659017,1.217253632651011,1.321481192295537,1.4221537991502986,1.5195721460676928,1.6139572937861655,1.7054799007916703,1.7942767216739304,1.880460552678517,1.9644645469115949,2.0468798841248725,2.128390723670632,2.2097607854610892,2.2918511238415844,2.375662906473602,2.462408990112262,2.553628670309387,2.651377035283706,2.758555582901437,2.879535305180542,3.0214572013848002,3.1973720132037853,3.4358040575485687,3.827078193475036,7.817229969522291,25.072426267103197,71.46021431088553,180.19607626288604,384.8517656743955,734.2287782720135,1278.0419916540968,2068.4750671716693,3156.0206558467435,4587.080496699874,6402.024627237468,8633.86607109981
G_Om,0.0,0.0,0.0,0.0,0.0,0.0,0.0,0.0,0.0,0.0,0.0,0.0,0.0,0.0,0.0,0.0,0.0,0.0,0.0,0.0,0.0,0.0,0.0,0.0,0.0,0.0,0.0,0.0,0.0,0.0,0.0,0.0,0.057963047706731545,0.14119708569296766,0.2345681299554938,0.3311001119817515,0.4276051092808563,0.5226513724565827,0.6156185602117125,0.7062588449031816,0.7944934456429145,0.8803186958469597,0.9637630153655741,1.0448674796530149,1.1236772728538595,1.2015296172484,1.2794616546902988,1.3584199393828362,1.4393927166302514,1.5235157252669436,1.6121855424042704,1.707212426032022,1.8110569045196736,1.9272296685959907,2.06102084257821,2.2209484324164577,2.42197058902973,2.6938157551697133,3.1086757451294313,3.9312808138530064,18.07771371293334,72.76778130714543,201.36975421747533,486.05618448895166,961.4042481260282,1719.194824549648,2811.7204180490107,4298.1317681398805,6224.149377969079,8624.630150502375,11522.922245218157,14931.276684788032,18851.702360342704
beta,1.0,1.0,0.991891211646822,0.9860261810547734,0.981505001746581,0.9778459704683088,0.974780565076757,0.9721521694985665,0.9698643781390418,0.9678540453039097,0.9660769998585779,0.9645003519848645,0.9630982740885313,0.9618496325411726,0.9607366164460488,0.959743910597555,0.9588581705918552,0.9580676696328222,0.9573620460158622,0.9567321121268817,0.9561697029787416,0.9556675516525908,0.9552191841442931,0.9548188289745011,0.9544613385416286,0.9541421201400181,0.9538570751326347,0.9536025451231797,0.9533752642072858,0.9531723165451343,0.952991098617573,0.9528292856193864,0.9526846396861421,0.9525555111937645,0.9524402228940365,0.9523372860607954,0.9522453754140497,0.9521633093559202,0.9520900335448789,0.9520246067974764,0.95196618876402,0.9519140290462846,0.9518674575365084,0.9518258758158439,0.997905098800988,1.0501976949914378,1.1101449279689508,1.1796695534909767,1.2613943599926527,1.3589912400851962,1.4777617373433243,1.6256502723045143,1.815119426418436,2.0668840350180293,2.418078520827022,2.9425117841952586,3.810711729679471,5.52532521453114,10.495618492937274,196.269755856523,397.3755569496133,79.64921748094373,39.8452536072097,21.09099309350266,13.906518702770557,9.80727064121482,7.4059176262533315,5.862980863168527,4.813815998104287,4.067308173842793,3.5165583907269538,3.0980523311183683,2.772152504012927
