series,2021-12-01,2021-12-02,2021-12-03,2021-12-04,2021-12-05,2021-12-06,2021-12-07,2021-12-08,2021-12-09,2021-12-10,2021-12-11,2021-12-12,2021-12-13,2021-12-14,2021-12-15,2021-12-16,2021-12-17,2021-12-18,2021-12-19,2021-12-20,2021-12-21,2021-12-22,2021-12-23,2021-12-24,2021-12-25,2021-12-26,2021-12-27,2021-12-28,2021-12-29,2021-12-30,2021-12-31,2022-01-01,2022-01-02,2022-01-03,2022-01-04,2022-01-05,2022-01-06,2022-01-07,2022-01-08,2022-01-09,2022-01-10,2022-01-11,2022-01-12,2022-01-13,2022-01-14,2022-01-15,2022-01-16,2022-01-17,2022-01-18,2022-01-19
S,649267.2760061952,649267.2760061952,649267.2760061952,649293.2466972355,649319.2173882758,649345.1880793158,649371.1587703562,649397.1294613964,649423.1001524366,649449.0708434768,649468.6208350725,649489.717737081,649511.1284074225,649532.1474029443,649552.3010062901,649571.1973060868,649588.4458435238,649603.6094157316,649616.1694711541,649625.495590077,649630.8138450123,649631.1708090315,649625.3907988139,649612.0241699845,649589.284398759,649554.9714182629,649506.3782960763,649440.1778790773,649326.3148315812,649185.775182334,649012.4406614495,648798.8410422337,648535.8749958001,648212.4831637241,647815.2696062876,647328.0700508313,646731.4691932688,646002.2753057085,645112.9692310607,644031.1570857394,642719.071923138,641133.1888283687,639224.0388055138,636936.3259757373,634209.4644137914,630978.6477630282,627176.5381983535,622735.605030408,617591.0570474685,611684.2063429205
E,0.0,0.0,0.0,0.0,0.0,0.0,0.0,0.0,0.0,0.0,0.0,0.0,0.0,0.0,0.0,0.0,0.0,0.0,0.0,0.0,0.0,0.0,0.0,0.0,0.0,0.0,0.0,0.0,0.0,0.0,0.0,0.0,0.0,0.0,0.0,0.0,0.0,0.0,0.0,0.0,0.0,0.0,0.0,0.0,0.0,0.0,0.0,0.0,0.0,0.0
I,0.0,0.0,0.0,0.0,0.0,0.0,0.0,0.0,0.0,0.0,0.0,0.0,0.0,0.0,0.0,0.0,0.0,0.0,0.0,0.0,0.0,0.0,0.0,0.0,0.0,0.0,0.0,0.0,0.0,0.0,0.0,0.0,0.0,0.0,0.0,0.0,0.0,0.0,0.0,0.0,0.0,0.0,0.0,0.0,0.0,0.0,0.0,0.0,0.0,0.0
A,0.0,0.0,0.0,0.0,0.0,0.0,0.0,0.0,0.0,0.0,0.0,0.0,0.0,0.0,0.0,0.0,0.0,0.0,0.0,0.0,0.0,0.0,0.0,0.0,0.0,0.0,0.0,0.0,0.0,0.0,0.0,0.0,0.0,0.0,0.0,0.0,0.0,0.0,0.0,0.0,0.0,0.0,0.0,0.0,0.0,0.0,0.0,0.0,0.0,0.0
IH,0.0,0.0,0.0,0.0,0.0,0.0,0.0,0.0,0.0,0.0,0.0,0.0,0.0,0.0,0.0,0.0,0.0,0.0,0.0,0.0,0.0,0.0,0.0,0.0,0.0,0.0,0.0,0.0,0.0,0.0,0.0,0.0,0.0,0.0,0.0,0.0,0.0,0.0,0.0,0.0,0.0,0.0,0.0,0.0,0.0,0.0,0.0,0.0,0.0,0.0
IN,0.0,0.0,0.0,0.0,0.0,0.0,0.0,0.0,0.0,0.0,0.0,0.0,0.0,0.0,0.0,0.0,0.0,0.0,0.0,0.0,0.0,0.0,0.0,0.0,0.0,0.0,0.0,0.0,0.0,0.0,0.0,0.0,0.0,0.0,0.0,0.0,0.0,0.0,0.0,0.0,0.0,0.0,0.0,0.0,0.0,0.0,0.0,0.0,0.0,0.0
D,280.0,280.0,280.0,280.0,280.0,280.0,280.0,280.0,280.0,280.0,280.0,280.0,280.0,280.0,280.0,280.0,280.0,280.0,280.0,280.0,280.0,280.0,280.0,280.0,280.0,280.0,280.0,280.0,280.0,280.0,280.0,280.0,280.0,280.0,280.0,280.0,280.0,280.0,280.0,280.0,280.0,280.0,280.0,280.0,280.0,280.0,280.0,280.0,280.0,280.0
R,0.0,0.0,0.0,0.0,0.0,0.0,0.0,0.0,0.0,0.0,0.0,0.0,0.0,0.0,0.0,0.0,0.0,0.0,0.0,0.0,0.0,0.0,0.0,0.0,0.0,0.0,0.0,0.0,0.0,0.0,0.0,0.0,0.0,0.0,0.0,0.0,0.0,0.0,0.0,0.0,0.0,0.0,0.0,0.0,0.0,0.0,0.0,0.0,0.0,0.0
G,55276.0,55276.0,55276.0,55276.0,55276.0,55276.0,55276.0,55276.0,55276.0,55276.0,55276.0,55276.0,55276.0,55276.0,55276.0,55276.0,55276.0,55276.0,55276.0,55276.0,55276.0,55276.0,55276.0,55276.0,55276.0,55276.0,55276.0,55276.0,55276.0,55276.0,55276.0,55276.0,55276.0,55276.0,55276.0,55276.0,55276.0,55276.0,55276.0,55276.0,55276.0,55276.0,55276.0,55276.0,55276.0,55276.0,55276.0,55276.0,55276.0,55276.0
H,649.2672760061953,649.2672760061953,649.2672760061952,630.9919558167503,612.9090653051092,595.0276718424299,577.3571306901808,559.907113235265,542.6876333547151,525.7090713918833,508.98219508411415,492.51817661717945,476.3286047927054,460.4254910808803,444.8212680929606,429.528778750058,414.5612541535399,399.9322778901689,385.6557342505083,371.74573762906016,358.21654024610655,345.08241533268824,332.3575131117928,320.0556873613507,308.1902911351818,296.773941422188,285.8182542029513,275.3335535446298,275.3335535446298,275.3335535446298,275.3335535446298,275.3335535446298,275.33355354462986,275.3335535446298,275.3335535446298,275.3335535446298,275.33355354462986,275.33355354462986,275.33355354462986,275.33355354462986,275.33355354462986,275.33355354462986,275.3335535446299,275.3335535446299,275.3335535446299,275.33355354462986,275.3335535446299,275.3335535446299,275.33355354462986,275.33355354462986
S0,227243.54660216832,226732.24862231343,225916.0125272731,225111.7189907702,224310.17908037393,223511.3791674301,222715.30547809732,221921.9440911431,221131.28093677174,220343.3017968229,219555.29371866063,218770.60544773654,217988.7011942955,217209.2708150938,216432.10379112067,215657.02575185482,214883.86480367742,214112.4316941797,213342.50592460213,212573.8238053859,211806.06629711716,211038.84533348377,210271.68768750952,209504.01556035175,208735.1230608243,207964.14766070488,207190.03558468868,206411.49994131405,205622.95599335898,204826.78113456428,204020.64623960885,203201.7208071326,202366.57230050402,201511.04914860954,200630.14644952197,199717.85439192379,198766.99097904903,197769.02302738852,196713.88284529193,195589.79266191451,194383.1148291058,193078.25283433197,191657.63554481333,190101.8234728184,188389.77901859846,186499.33971771947,184407.9214454591,182093.4552199768,179535.52710071803,176716.6499933523
E0,0.0,0.0,0.0,0.0,0.0,0.0,0.0,0.0,0.0,0.0,0.0,0.0,0.0,0.0,0.0,0.0,0.0,0.0,0.0,0.0,0.0,0.0,0.0,0.0,0.0,0.0,0.0,0.0,0.0,0.0,0.0,0.0,0.0,0.0,0.0,0.0,0.0,0.0,0.0,0.0,0.0,0.0,0.0,0.0,0.0,0.0,0.0,0.0,0.0,0.0
I0,0.0,0.0,0.0,0.0,0.0,0.0,0.0,0.0,0.0,0.0,0.0,0.0,0.0,0.0,0.0,0.0,0.0,0.0,0.0,0.0,0.0,0.0,0.0,0.0,0.0,0.0,0.0,0.0,0.0,0.0,0.0,0.0,0.0,0.0,0.0,0.0,0.0,0.0,0.0,0.0,0.0,0.0,0.0,0.0,0.0,0.0,0.0,0.0,0.0,0.0
A0,0.0,0.0,0.0,0.0,0.0,0.0,0.0,0.0,0.0,0.0,0.0,0.0,0.0,0.0,0.0,0.0,0.0,0.0,0.0,0.0,0.0,0.0,0.0,0.0,0.0,0.0,0.0,0.0,0.0,0.0,0.0,0.0,0.0,0.0,0.0,0.0,0.0,0.0,0.0,0.0,0.0,0.0,0.0,0.0,0.0,0.0,0.0,0.0,0.0,0.0
IH0,0.0,0.0,0.0,0.0,0.0,0.0,0.0,0.0,0.0,0.0,0.0,0.0,0.0,0.0,0.0,0.0,0.0,0.0,0.0,0.0,0.0,0.0,0.0,0.0,0.0,0.0,0.0,0.0,0.0,0.0,0.0,0.0,0.0,0.0,0.0,0.0,0.0,0.0,0.0,0.0,0.0,0.0,0.0,0.0,0.0,0.0,0.0,0.0,0.0,0.0
IN0,0.0,0.0,0.0,0.0,0.0,0.0,0.0,0.0,0.0,0.0,0.0,0.0,0.0,0.0,0.0,0.0,0.0,0.0,0.0,0.0,0.0,0.0,0.0,0.0,0.0,0.0,0.0,0.0,0.0,0.0,0.0,0.0,0.0,0.0,0.0,0.0,0.0,0.0,0.0,0.0,0.0,0.0,0.0,0.0,0.0,0.0,0.0,0.0,0.0,0.0
D0,280.0,280.0,280.0,280.0,280.0,280.0,280.0,280.0,280.0,280.0,280.0,280.0,280.0,280.0,280.0,280.0,280.0,280.0,280.0,280.0,280.0,280.0,280.0,280.0,280.0,280.0,280.0,280.0,280.0,280.0,280.0,280.0,280.0,280.0,280.0,280.0,280.0,280.0,280.0,280.0,280.0,280.0,280.0,280.0,280.0,280.0,280.0,280.0,280.0,280.0
R0,0.0,0.0,0.0,0.0,0.0,0.0,0.0,0.0,0.0,0.0,0.0,0.0,0.0,0.0,0.0,0.0,0.0,0.0,0.0,0.0,0.0,0.0,0.0,0.0,0.0,0.0,0.0,0.0,0.0,0.0,0.0,0.0,0.0,0.0,0.0,0.0,0.0,0.0,0.0,0.0,0.0,0.0,0.0,0.0,0.0,0.0,0.0,0.0,0.0,0.0
G0,55276.0,55276.0,55276.0,55276.0,55276.0,55276.0,55276.0,55276.0,55276.0,55276.0,55276.0,55276.0,55276.0,55276.0,55276.0,55276.0,55276.0,55276.0,55276.0,55276.0,55276.0,55276.0,55276.0,55276.0,55276.0,55276.0,55276.0,55276.0,55276.0,55276.0,55276.0,55276.0,55276.0,55276.0,55276.0,55276.0,55276.0,55276.0,55276.0,55276.0,55276.0,55276.0,55276.0,55276.0,55276.0,55276.0,55276.0,55276.0,55276.0,55276.0
H0,227.24354660216832,226.73224862231345,225.91601252727312,216.09860628688796,206.45837333373893,196.99839144420906,187.7219215650497,178.63240988050927,169.7334888481579,161.02897686476285,152.52287615936785,144.21936843776697,136.12280772099464,128.23770973112013,120.56873708239317,113.12067943791776,105.8984276967415,98.90694119127087,92.1512068111653,85.63618894204113,79.3667691344638,73.34767452434949,67.58339423762456,62.078083360033105,56.83545456737758,51.858658217352975,47.15015261484339,42.71156727069392,42.55780562851942,42.40459752825675,42.25194097715503,42.09983398963727,41.948274587274575,41.797260798760384,41.64679065988484,41.49686221350926,41.34747350954063,41.198622604906284,41.05030756352862,40.90252645629992,40.75527736105724,40.60855836255743,40.46236755245222,40.316703029263394,40.17156289835805,40.02694527192396,39.88284826894503,39.73927001517683,39.59620864312219,39.453662292006946
S1,64926.727600619524,60800.40218043015,57273.75240543976,53998.2275785731,50953.62663977643,48123.47529436418,45492.47514352319,43046.419749208544,40772.116690146606,38657.315181366,36690.18789542067,34860.7692512861,33159.150959986575,31576.17418152513,30103.352272867924,28732.81166397962,27457.2427083373,26269.856640382506,25164.34674171446,24134.852728154357,23175.927794100007,22282.5079507341,21449.883390689432,20673.671658880427,19949.792432820155,19274.44372765996,18644.079346995288,18055.387402982255,17504.92799292681,16990.179112854537,16508.40768396887,16057.03669134984,15633.626456315176,15235.85602714586,14861.504592057277,14508.432884839529,14174.564652513653,13857.868397391936,13556.33980439373,13267.985526391627,12990.809325295932,12722.801937579117,12461.936406208612,12206.170915560331,11953.46125888964,11701.784803865667,11449.177046468028,11193.780468091247,10933.903493677957,10668.08516459522
E1,0.0,0.0,0.0,0.0,0.0,0.0,0.0,0.0,0.0,0.0,0.0,0.0,0.0,0.0,0.0,0.0,0.0,0.0,0.0,0.0,0.0,0.0,0.0,0.0,0.0,0.0,0.0,0.0,0.0,0.0,0.0,0.0,0.0,0.0,0.0,0.0,0.0,0.0,0.0,0.0,0.0,0.0,0.0,0.0,0.0,0.0,0.0,0.0,0.0,0.0
I1,0.0,0.0,0.0,0.0,0.0,0.0,0.0,0.0,0.0,0.0,0.0,0.0,0.0,0.0,0.0,0.0,0.0,0.0,0.0,0.0,0.0,0.0,0.0,0.0,0.0,0.0,0.0,0.0,0.0,0.0,0.0,0.0,0.0,0.0,0.0,0.0,0.0,0.0,0.0,0.0,0.0,0.0,0.0,0.0,0.0,0.0,0.0,0.0,0.0,0.0
A1,0.0,0.0,0.0,0.0,0.0,0.0,0.0,0.0,0.0,0.0,0.0,0.0,0.0,0.0,0.0,0.0,0.0,0.0,0.0,0.0,0.0,0.0,0.0,0.0,0.0,0.0,0.0,0.0,0.0,0.0,0.0,0.0,0.0,0.0,0.0,0.0,0.0,0.0,0.0,0.0,0.0,0.0,0.0,0.0,0.0,0.0,0.0,0.0,0.0,0.0
IH1,0.0,0.0,0.0,0.0,0.0,0.0,0.0,0.0,0.0,0.0,0.0,0.0,0.0,0.0,0.0,0.0,0.0,0.0,0.0,0.0,0.0,0.0,0.0,0.0,0.0,0.0,0.0,0.0,0.0,0.0,0.0,0.0,0.0,0.0,0.0,0.0,0.0,0.0,0.0,0.0,0.0,0.0,0.0,0.0,0.0,0.0,0.0,0.0,0.0,0.0
IN1,0.0,0.0,0.0,0.0,0.0,0.0,0.0,0.0,0.0,0.0,0.0,0.0,0.0,0.0,0.0,0.0,0.0,0.0,0.0,0.0,0.0,0.0,0.0,0.0,0.0,0.0,0.0,0.0,0.0,0.0,0.0,0.0,0.0,0.0,0.0,0.0,0.0,0.0,0.0,0.0,0.0,0.0,0.0,0.0,0.0,0.0,0.0,0.0,0.0,0.0
D1,0.0,0.0,0.0,0.0,0.0,0.0,0.0,0.0,0.0,0.0,0.0,0.0,0.0,0.0,0.0,0.0,0.0,0.0,0.0,0.0,0.0,0.0,0.0,0.0,0.0,0.0,0.0,0.0,0.0,0.0,0.0,0.0,0.0,0.0,0.0,0.0,0.0,0.0,0.0,0.0,0.0,0.0,0.0,0.0,0.0,0.0,0.0,0.0,0.0,0.0
R1,0.0,0.0,0.0,0.0,0.0,0.0,0.0,0.0,0.0,0.0,0.0,0.0,0.0,0.0,0.0,0.0,0.0,0.0,0.0,0.0,0.0,0.0,0.0,0.0,0.0,0.0,0.0,0.0,0.0,0.0,0.0,0.0,0.0,0.0,0.0,0.0,0.0,0.0,0.0,0.0,0.0,0.0,0.0,0.0,0.0,0.0,0.0,0.0,0.0,0.0
G1,0.0,0.0,0.0,0.0,0.0,0.0,0.0,0.0,0.0,0.0,0.0,0.0,0.0,0.0,0.0,0.0,0.0,0.0,0.0,0.0,0.0,0.0,0.0,0.0,0.0,0.0,0.0,0.0,0.0,0.0,0.0,0.0,0.0,0.0,0.0,0.0,0.0,0.0,0.0,0.0,0.0,0.0,0.0,0.0,0.0,0.0,0.0,0.0,0.0,0.0
H1,64.92672760061953,60.800402180430154,57.27375240543976,51.83622502642912,46.898464058260544,42.41505402994859,38.34462491188007,34.649505834227035,31.29540779678993,28.251132942239447,25.488308160804575,22.98114097360434,20.706195805509047,18.642188908026704,16.76980032957098,15.071501455885903,13.531396758696888,12.135078497191527,10.869493216148589,9.722818977978969,8.684352355286501,7.744404297578683,6.894204072297231,6.125810568190422,5.4320303397802565,4.80634186635424,4.242825597733722,3.7360994609320377,3.622996855897105,3.517419466452839,3.418831769950789,3.3267364881863477,3.2406718556785883,3.1602090830728775,3.0849500017289233,3.014524876552443,2.9485903750530444,2.886827681469316,2.82894074559917,2.7746546567136465,2.7237141336196373,2.6758821225751834,2.6309384953535915,2.588678840302877,2.5489133397580197,2.5114657276379644,2.4761723214998934,2.442881123732389,2.411450986948998,2.381750838996452
S2,64926.727600619524,68791.41376732307,72315.35423536187,75548.46129338468,78509.19292721839,81217.27183462077,83691.01001773424,85947.409498909,88002.25584789665,89870.20503371209,91564.09338625454,93097.47724296586,94481.94796053256,95728.31079441667,96846.61463074012,97846.191645636,98735.69997825935,99523.16600737248,100216.02458122619,100821.15642139122,101344.92233976943,101793.19409600143,102171.38179196774,102484.45770736772,102736.97645360926,102933.09127655906,103076.5662794521,103170.7842699517,103216.73552809894,103219.18194943249,103180.36389059703,103102.11945986909,102985.86398861924,102832.56237634367,102642.69398316991,102416.21005476003,102152.48417882266,101850.25706558417,101507.57809595708,101121.74765793102,100689.26631838774,100205.7992875561,99666.16720360453,99064.37654508598,98393.70424590177,97646.85037756084,96816.1690491442,95893.98022774038,94872.95407824787,93746.54600932053
E2,0.0,0.0,0.0,0.0,0.0,0.0,0.0,0.0,0.0,0.0,0.0,0.0,0.0,0.0,0.0,0.0,0.0,0.0,0.0,0.0,0.0,0.0,0.0,0.0,0.0,0.0,0.0,0.0,0.0,0.0,0.0,0.0,0.0,0.0,0.0,0.0,0.0,0.0,0.0,0.0,0.0,0.0,0.0,0.0,0.0,0.0,0.0,0.0,0.0,0.0
I2,0.0,0.0,0.0,0.0,0.0,0.0,0.0,0.0,0.0,0.0,0.0,0.0,0.0,0.0,0.0,0.0,0.0,0.0,0.0,0.0,0.0,0.0,0.0,0.0,0.0,0.0,0.0,0.0,0.0,0.0,0.0,0.0,0.0,0.0,0.0,0.0,0.0,0.0,0.0,0.0,0.0,0.0,0.0,0.0,0.0,0.0,0.0,0.0,0.0,0.0
A2,0.0,0.0,0.0,0.0,0.0,0.0,0.0,0.0,0.0,0.0,0.0,0.0,0.0,0.0,0.0,0.0,0.0,0.0,0.0,0.0,0.0,0.0,0.0,0.0,0.0,0.0,0.0,0.0,0.0,0.0,0.0,0.0,0.0,0.0,0.0,0.0,0.0,0.0,0.0,0.0,0.0,0.0,0.0,0.0,0.0,0.0,0.0,0.0,0.0,0.0
IH2,0.0,0.0,0.0,0.0,0.0,0.0,0.0,0.0,0.0,0.0,0.0,0.0,0.0,0.0,0.0,0.0,0.0,0.0,0.0,0.0,0.0,0.0,0.0,0.0,0.0,0.0,0.0,0.0,0.0,0.0,0.0,0.0,0.0,0.0,0.0,0.0,0.0,0.0,0.0,0.0,0.0,0.0,0.0,0.0,0.0,0.0,0.0,0.0,0.0,0.0
IN2,0.0,0.0,0.0,0.0,0.0,0.0,0.0,0.0,0.0,0.0,0.0,0.0,0.0,0.0,0.0,0.0,0.0,0.0,0.0,0.0,0.0,0.0,0.0,0.0,0.0,0.0,0.0,0.0,0.0,0.0,0.0,0.0,0.0,0.0,0.0,0.0,0.0,0.0,0.0,0.0,0.0,0.0,0.0,0.0,0.0,0.0,0.0,0.0,0.0,0.0
D2,0.0,0.0,0.0,0.0,0.0,0.0,0.0,0.0,0.0,0.0,0.0,0.0,0.0,0.0,0.0,0.0,0.0,0.0,0.0,0.0,0.0,0.0,0.0,0.0,0.0,0.0,0.0,0.0,0.0,0.0,0.0,0.0,0.0,0.0,0.0,0.0,0.0,0.0,0.0,0.0,0.0,0.0,0.0,0.0,0.0,0.0,0.0,0.0,0.0,0.0
R2,0.0,0.0,0.0,0.0,0.0,0.0,0.0,0.0,0.0,0.0,0.0,0.0,0.0,0.0,0.0,0.0,0.0,0.0,0.0,0.0,0.0,0.0,0.0,0.0,0.0,0.0,0.0,0.0,0.0,0.0,0.0,0.0,0.0,0.0,0.0,0.0,0.0,0.0,0.0,0.0,0.0,0.0,0.0,0.0,0.0,0.0,0.0,0.0,0.0,0.0
G2,0.0,0.0,0.0,0.0,0.0,0.0,0.0,0.0,0.0,0.0,0.0,0.0,0.0,0.0,0.0,0.0,0.0,0.0,0.0,0.0,0.0,0.0,0.0,0.0,0.0,0.0,0.0,0.0,0.0,0.0,0.0,0.0,0.0,0.0,0.0,0.0,0.0,0.0,0.0,0.0,0.0,0.0,0.0,0.0,0.0,0.0,0.0,0.0,0.0,0.0
H2,64.92672760061953,68.79141376732306,72.31535423536185,72.52362189677339,72.26101075729727,71.58325436720676,70.54134507964443,69.18195018817799,67.5477926428809,65.67799905508078,63.60841742799219,61.37190679282702,58.99860068604091,56.51614617203755,53.94991989649851,51.32322244900108,48.657452121338736,45.97225897301986,43.28567996262508,40.61425577999854,37.97312992895333,35.37613057506829,32.835835702246854,30.363622230470515,27.96969995102518,25.663131447257015,23.451839595238834,21.34260477518577,21.35539039411918,21.359945045800888,21.356904233335605,21.34685764269714,21.330352419916437,21.30789621413257,21.279960003231434,21.246980717602174,21.209363676432083,21.16748484993073,21.121692959917457,21.07231143031838,21.019640198294134,20.96395739595394,20.905520911900336,20.844569841188683,20.78132583167236,20.715994334135164,20.648765763083887,20.579816574582882,20.509310267056826,20.43739831056441
S3,194780.18280185855,193929.9518451838,193132.81431513253,192391.96664092108,191695.9744967442,191041.2305893158,190424.39276803832,189842.36504972016,189292.27999854778,188771.48236392176,188276.1244455446,187805.65877289456,187357.7116789073,186930.18245345444,186521.1673930742,186128.91664497112,185751.80701524034,185388.3225017708,185037.03844971172,184696.6072151488,184365.74416783432,184043.21329990457,183727.8118919015,183418.3537443009,183113.6504720633,182812.49031046274,182513.61380706722,182215.6856853838,181901.29636813712,181584.44973042683,181263.36632111997,180936.02669279315,180600.11084492828,180252.92808937308,179891.3365339083,179511.65183597457,179109.5456459668,178679.93535898704,178216.8685552266,177713.40794686237,177161.52581704815,176552.02075211323,175874.4736109378,175117.2634730556,174267.66665565706,173312.06129204144,172236.25478706878,171025.94049009768,169667.27313522954,168147.53192084536
E3,0.0,0.0,0.0,0.0,0.0,0.0,0.0,0.0,0.0,0.0,0.0,0.0,0.0,0.0,0.0,0.0,0.0,0.0,0.0,0.0,0.0,0.0,0.0,0.0,0.0,0.0,0.0,0.0,0.0,0.0,0.0,0.0,0.0,0.0,0.0,0.0,0.0,0.0,0.0,0.0,0.0,0.0,0.0,0.0,0.0,0.0,0.0,0.0,0.0,0.0
I3,0.0,0.0,0.0,0.0,0.0,0.0,0.0,0.0,0.0,0.0,0.0,0.0,0.0,0.0,0.0,0.0,0.0,0.0,0.0,0.0,0.0,0.0,0.0,0.0,0.0,0.0,0.0,0.0,0.0,0.0,0.0,0.0,0.0,0.0,0.0,0.0,0.0,0.0,0.0,0.0,0.0,0.0,0.0,0.0,0.0,0.0,0.0,0.0,0.0,0.0
A3,0.0,0.0,0.0,0.0,0.0,0.0,0.0,0.0,0.0,0.0,0.0,0.0,0.0,0.0,0.0,0.0,0.0,0.0,0.0,0.0,0.0,0.0,0.0,0.0,0.0,0.0,0.0,0.0,0.0,0.0,0.0,0.0,0.0,0.0,0.0,0.0,0.0,0.0,0.0,0.0,0.0,0.0,0.0,0.0,0.0,0.0,0.0,0.0,0.0,0.0
IH3,0.0,0.0,0.0,0.0,0.0,0.0,0.0,0.0,0.0,0.0,0.0,0.0,0.0,0.0,0.0,0.0,0.0,0.0,0.0,0.0,0.0,0.0,0.0,0.0,0.0,0.0,0.0,0.0,0.0,0.0,0.0,0.0,0.0,0.0,0.0,0.0,0.0,0.0,0.0,0.0,0.0,0.0,0.0,0.0,0.0,0.0,0.0,0.0,0.0,0.0
IN3,0.0,0.0,0.0,0.0,0.0,0.0,0.0,0.0,0.0,0.0,0.0,0.0,0.0,0.0,0.0,0.0,0.0,0.0,0.0,0.0,0.0,0.0,0.0,0.0,0.0,0.0,0.0,0.0,0.0,0.0,0.0,0.0,0.0,0.0,0.0,0.0,0.0,0.0,0.0,0.0,0.0,0.0,0.0,0.0,0.0,0.0,0.0,0.0,0.0,0.0
D3,0.0,0.0,0.0,0.0,0.0,0.0,0.0,0.0,0.0,0.0,0.0,0.0,0.0,0.0,0.0,0.0,0.0,0.0,0.0,0.0,0.0,0.0,0.0,0.0,0.0,0.0,0.0,0.0,0.0,0.0,0.0,0.0,0.0,0.0,0.0,0.0,0.0,0.0,0.0,0.0,0.0,0.0,0.0,0.0,0.0,0.0,0.0,0.0,0.0,0.0
R3,0.0,0.0,0.0,0.0,0.0,0.0,0.0,0.0,0.0,0.0,0.0,0.0,0.0,0.0,0.0,0.0,0.0,0.0,0.0,0.0,0.0,0.0,0.0,0.0,0.0,0.0,0.0,0.0,0.0,0.0,0.0,0.0,0.0,0.0,0.0,0.0,0.0,0.0,0.0,0.0,0.0,0.0,0.0,0.0,0.0,0.0,0.0,0.0,0.0,0.0
G3,0.0,0.0,0.0,0.0,0.0,0.0,0.0,0.0,0.0,0.0,0.0,0.0,0.0,0.0,0.0,0.0,0.0,0.0,0.0,0.0,0.0,0.0,0.0,0.0,0.0,0.0,0.0,0.0,0.0,0.0,0.0,0.0,0.0,0.0,0.0,0.0,0.0,0.0,0.0,0.0,0.0,0.0,0.0,0.0,0.0,0.0,0.0,0.0,0.0,0.0
H3,194.7801828018586,193.9299518451838,193.13281431513258,192.38427127007031,191.64444546063848,190.90765854319622,190.16894298827918,189.42397971432501,188.66904119513634,187.9009395737826,187.11697935179964,186.3149142551536,185.49290790770385,184.64949796902107,183.78356341656539,182.89429467257614,181.98116629374516,181.04391195702752,180.08250148801682,179.09711968945746,178.0881467370453,177.0561399181527,176.0018164971094,174.92603749894593,173.82979221300795,172.71418322969748,171.5804118390602,170.42976364034467,169.2635942382845,168.10729512432403,166.96068605835706,165.82359586779143,164.69586182654433,163.5773290782269,162.4678501003623,161.3672842067073,160.2754970849562,159.192360367301,158.11775123150125,157.0515520302854,155.99364994706062,154.94393667605289,153.90230812513286,152.86866413970796,151.84290824617693,150.82494741355012,149.8146918319388,148.81205470670935,147.8169520671842,146.8293025888512
S4,97390.09140092928,99013.25959094477,100629.34252298796,102242.87219358643,103850.24424416276,105451.83119358511,107047.97536296313,108638.99107241565,110225.16667907388,111806.76646765413,113382.921389192,114955.20702219788,116523.61661370055,118088.20915845422,119649.06291848721,121206.2515996453,122759.8313380095,124309.83257202613,125856.25377389962,127399.05541999677,128938.15324619139,130473.41012890758,132004.62603674567,133531.5254990837,135053.74197944193,136570.79844287637,138082.083277873,139586.82057944543,141080.3989490593,142565.18325505583,144039.65652615478,145501.937391089,146949.70140543336,148380.0875222519,149789.58804763018,151173.92088333346,152527.88373691664,153845.19145635693,155118.29993019142,156338.22329263992,157494.3556333004,158574.31401678824,159563.8260399494,160446.69156921696,161204.85323474454,161818.61157184074,162267.01587021342,162528.44862450188,162581.39923959514,162405.39325480707
E4,0.0,0.0,0.0,0.0,0.0,0.0,0.0,0.0,0.0,0.0,0.0,0.0,0.0,0.0,0.0,0.0,0.0,0.0,0.0,0.0,0.0,0.0,0.0,0.0,0.0,0.0,0.0,0.0,0.0,0.0,0.0,0.0,0.0,0.0,0.0,0.0,0.0,0.0,0.0,0.0,0.0,0.0,0.0,0.0,0.0,0.0,0.0,0.0,0.0,0.0
I4,0.0,0.0,0.0,0.0,0.0,0.0,0.0,0.0,0.0,0.0,0.0,0.0,0.0,0.0,0.0,0.0,0.0,0.0,0.0,0.0,0.0,0.0,0.0,0.0,0.0,0.0,0.0,0.0,0.0,0.0,0.0,0.0,0.0,0.0,0.0,0.0,0.0,0.0,0.0,0.0,0.0,0.0,0.0,0.0,0.0,0.0,0.0,0.0,0.0,0.0
A4,0.0,0.0,0.0,0.0,0.0,0.0,0.0,0.0,0.0,0.0,0.0,0.0,0.0,0.0,0.0,0.0,0.0,0.0,0.0,0.0,0.0,0.0,0.0,0.0,0.0,0.0,0.0,0.0,0.0,0.0,0.0,0.0,0.0,0.0,0.0,0.0,0.0,0.0,0.0,0.0,0.0,0.0,0.0,0.0,0.0,0.0,0.0,0.0,0.0,0.0
IH4,0.0,0.0,0.0,0.0,0.0,0.0,0.0,0.0,0.0,0.0,0.0,0.0,0.0,0.0,0.0,0.0,0.0,0.0,0.0,0.0,0.0,0.0,0.0,0.0,0.0,0.0,0.0,0.0,0.0,0.0,0.0,0.0,0.0,0.0,0.0,0.0,0.0,0.0,0.0,0.0,0.0,0.0,0.0,0.0,0.0,0.0,0.0,0.0,0.0,0.0
IN4,0.0,0.0,0.0,0.0,0.0,0.0,0.0,0.0,0.0,0.0,0.0,0.0,0.0,0.0,0.0,0.0,0.0,0.0,0.0,0.0,0.0,0.0,0.0,0.0,0.0,0.0,0.0,0.0,0.0,0.0,0.0,0.0,0.0,0.0,0.0,0.0,0.0,0.0,0.0,0.0,0.0,0.0,0.0,0.0,0.0,0.0,0.0,0.0,0.0,0.0
D4,0.0,0.0,0.0,0.0,0.0,0.0,0.0,0.0,0.0,0.0,0.0,0.0,0.0,0.0,0.0,0.0,0.0,0.0,0.0,0.0,0.0,0.0,0.0,0.0,0.0,0.0,0.0,0.0,0.0,0.0,0.0,0.0,0.0,0.0,0.0,0.0,0.0,0.0,0.0,0.0,0.0,0.0,0.0,0.0,0.0,0.0,0.0,0.0,0.0,0.0
R4,0.0,0.0,0.0,0.0,0.0,0.0,0.0,0.0,0.0,0.0,0.0,0.0,0.0,0.0,0.0,0.0,0.0,0.0,0.0,0.0,0.0,0.0,0.0,0.0,0.0,0.0,0.0,0.0,0.0,0.0,0.0,0.0,0.0,0.0,0.0,0.0,0.0,0.0,0.0,0.0,0.0,0.0,0.0,0.0,0.0,0.0,0.0,0.0,0.0,0.0
G4,0.0,0.0,0.0,0.0,0.0,0.0,0.0,0.0,0.0,0.0,0.0,0.0,0.0,0.0,0.0,0.0,0.0,0.0,0.0,0.0,0.0,0.0,0.0,0.0,0.0,0.0,0.0,0.0,0.0,0.0,0.0,0.0,0.0,0.0,0.0,0.0,0.0,0.0,0.0,0.0,0.0,0.0,0.0,0.0,0.0,0.0,0.0,0.0,0.0,0.0
H4,97.3900914009293,99.01325959094478,100.62934252298798,98.14923133658952,95.64677169517387,93.12331345786929,90.58029614532744,88.01926761802571,85.44190287175002,82.85002295601754,80.24561398414988,77.63084615782753,75.00809267245693,72.3799483006749,69.74924736793257,67.11908073467717,64.4928112830176,61.87408727165912,59.26685277255254,56.67535423958406,54.10414209035766,51.55806601753912,49.04226260251477,46.562133703710714,44.123314063990776,41.731626661526256,39.39302455607521,37.11351839747339,38.533766427809596,39.9442963797953,41.34519050583133,42.73652955631764,44.1183928552159,45.4908583704371,46.85400277942232,48.207901530258674,49.5526288986479,50.88825804102254,52.21486104408338,53.532508971012554,54.841271904598266,56.14121898749044,57.43241845979088,58.71493769416699,59.98884322866456,61.2542007973827,62.511075359162284,63.75953112442844,64.99963158031768,66.23143951421089
E_Om,0.0,0.0,0.0,0.0,0.0,0.0,0.0,0.0,0.0,0.0,6.71345070068463,10.452489939742769,13.103314777665638,15.616943071117396,18.50849581167098,22.101688817508823,26.650718513892954,32.403644605203475,39.63851745270638,48.687635412045864,59.957675231141195,73.9497857172121,91.282026171742,112.7157762596014,139.187462192471,171.846900195159,212.1036342488048,261.68277695493765,322.6920072866643,397.67674216747605,489.75720803841466,602.7160163781887,741.1264562501408,910.4984889320269,1117.4419749925028,1369.8445017950896,1677.0579870112192,2050.0836644180367,2501.738804467629,3046.7804230459315,3701.9514641900737,4485.904305071392,5418.946699328278,6522.549524516264,7818.558391161438,9328.067648545057,11069.950365374954,13059.093158886551,15304.455793362515,17807.14938174463
I_Om,0.0,0.0,0.0,0.0,0.0,0.0,0.0,0.0,0.0,10.0,7.6,5.9312012969244945,4.7493532489288475,3.91243039982529,3.3344789974039126,2.9620827373968757,2.7621288784832694,2.7153282405111323,2.8127556813379013,3.054056050568763,3.4466414945995973,4.005546782219459,4.753783876695412,5.723130141439609,6.955337918662119,8.50378725384389,10.435628389126261,12.83448129246482,15.803778226749197,19.470852953787528,23.991323983786636,29.55559466021219,36.39581779181212,44.794154635156005,55.092426819640906,67.70322528781676,83.12246409947944,101.94323521566996,124.87061462912331,152.73676926316224,186.51529810922062,227.3331991416574,276.47819576413343,335.3984316365286,405.6908588677487,489.07418705046166,587.342293836226,702.2948331218873,835.6436901178051,988.897029072383
A_Om,0.0,0.0,0.0,0.0,0.0,0.0,0.0,0.0,0.0,0.0,0.0,1.187488843212432,2.9888184409838825,5.186934811727337,7.741689332680366,10.70565594294421,14.18656387274348,18.33279337272935,23.330663219326198,29.40821706934603,36.84314895660826,45.973972283802055,57.214295994705765,71.07049831211634,88.1633645324776,109.25447058006571,135.2782928546434,167.3812292270486,206.9689355018907,255.76361798152027,315.86879181018395,389.8556929243857,480.8617219824948,592.707640815619,730.0359020281574,898.472314023843,1104.812690032129,1357.2350334921193,1665.5359515805198,2041.3870963840163,2498.6032241117255,3053.407694382318,3724.6738125567363,4534.111574509361,5506.359866480574,6668.935522519187,8051.985252701156,9687.787480173594,11609.961889677368,13852.367390979787
IH_Om,0.0,0.0,0.0,0.0,0.0,0.0,0.0,0.0,0.0,0.0,0.4,0.5036,0.4885444518769798,0.43375781144376685,0.3729423639034512,0.3194773994839787,0.2779025318383803,0.24915851852668258,0.23294323036525988,0.22874889920578073,0.23630794272643507,0.255783323204475,0.2878577495678114,0.33379237210215434,0.3954875993365594,0.47556182881542797,0.5774568427326542,0.7055761000886449,0.8654617256428268,1.0640165301657385,1.3097783667042044,1.6132323643368636,1.9872267362125826,2.447458853042564,3.0130481530744797,3.707208101169801,4.558025853996401,5.599353465123382,6.871806787723367,8.423856172238892,10.312975000473696,12.606786449605199,15.384114404019288,18.735800918170963,22.765101923628453,27.58742021460055,33.32909016910414,40.12490774783201,48.114122291043664,57.434694627942996
IN_Om,0.0,0.0,0.0,0.0,0.0,0.0,0.0,0.0,0.0,0.0,4.0,6.333375984848843,7.565062121124919,8.07744132853028,8.133747148072136,7.917172709984245,7.556122127098586,7.14118615419161,6.73694847261395,6.390434349627002,6.137314257210095,6.0065825618882664,6.024201537419037,6.216060671101902,6.61051270823014,7.240690959099705,8.146775956316722,9.378357183817043,10.997023403096996,13.079310531779681,15.720137241153845,19.036723968131206,23.173437269711368,28.307517882601758,34.65586183731592,42.483017402604126,52.11054628978459,63.92786613219593,78.40463162473061,96.10461000303013,117.70084601151076,143.99167340415246,175.91679624306667,214.57222167834902,261.2222791969346,317.3063396062686,384.4372225938231,464.38778174592437,559.0619645029844,670.4469830627348
D_Om,0.0,0.0,0.0,0.0,0.0,0.0,0.0,0.0,0.0,0.0,0.0,0.0004,0.0009036000000000001,0.0013921444518769797,0.0018259022633207464,0.0021988446272241976,0.0025183220267081773,0.002796224558546557,0.0030453830770732397,0.0032783263074385,0.0035070752066442804,0.0037433831493707157,0.003999166472575191,0.004287024222143001,0.004620816594245157,0.005016304193581717,0.005491866022397145,0.006069322865129799,0.006774898965218443,0.00764036069086127,0.008704377221027008,0.010014155587731213,0.011627387952068077,0.013614614688280657,0.016062073541323222,0.0190751216943977,0.022782329795567505,0.027340355649563903,0.032939709114687285,0.03981151590241065,0.04823537207464955,0.05854834707512324,0.07115513352472845,0.08653924792874773,0.1052750488469187,0.12804015077054715,0.1556275709851477,0.18895666115425186,0.22908156890208384,0.2771956911931275
R_Om,0.0,0.0,0.0,0.0,0.0,0.0,0.0,0.0,0.0,0.0,0.0,0.9066240151511573,2.3247810340309805,4.025091556844083,5.876501168228213,7.809701469879142,9.79654009750554,11.838129612459333,13.957995135921262,16.198377053769605,18.61869639702543,21.295656251767888,24.32471189550482,27.822800661688156,31.932331305589546,36.82651781852757,42.71621795068139,49.858510016871975,58.56731784077343,69.22647638779193,82.30572224964192,98.38002011795872,118.1531962490262,142.486575742752,172.43356543250965,209.2812576669741,254.6002532707434,310.3039985026814,378.71897552683015,462.6670417669711,565.5610296140699,691.5143282019153,845.4644934523981,1033.3098839351014,1262.0568177078057,1539.972740495591,1876.7384083834313,2283.589252714883,2773.433201648277,3360.9297480998775
G_Om,0.0,0.0,0.0,0.0,0.0,0.0,0.0,0.0,0.0,0.0,0.0,0.15520129692449386,0.3968415601907257,0.6997634908300918,1.0607953843667843,1.4886740837366867,1.999620081798331,2.6157303746621783,3.3648365932116193,4.281198325963578,5.406757222130915,6.79285646845468,8.502424790663303,10.6126791858144,13.218438196982417,16.436168632643096,20.408918708848,25.312322425576863,31.361894870052794,38.82187637151094,48.01535211041906,59.337540542953406,73.27110639300426,90.40443950638306,111.45330880330539,137.28628970819508,168.95430258893379,207.72446508899935,255.1182209542135,312.953323099242,383.38867656845935,468.97024914710914,572.6752135635829,697.9502164193701,848.7382672433572,1029.4874015543296,1245.133313232205,1501.0480030385604,1802.947619983731,2156.7554445665824
beta,1.0,1.0,1.0,1.0,1.000062227183257,1.0001260149411169,1.0001914371400475,1.0002585700279791,1.0003274924671075,1.0003982861520646,1.0004710358092077,1.00049386858471,1.000531347095827,1.00057358725101,1.000614977552421,1.0006517842505298,1.0006809384195674,1.0006993858672697,1.0007036972728234,1.0006897884988655,1.0006526743892437,1.0005862142990078,1.0004828237838241,1.000333133836135,1.0001255814407413,0.9998459153369581,0.9994765999215859,0.9989960989367813,0.9983780195461324,0.9974616729554301,0.9963329553088162,0.994944365116012,0.9932385240560597,0.9911464512214568,0.9885857026491489,0.9854584537752071,0.9816496599858188,0.9770255087082375,0.9714324770448806,0.9646974284206654,0.9566293076098499,0.9470230989603579,0.9356667513914226,0.9223516789404207,0.906887138095082,0.8891181961658257,0.8689461292213306,0.8463490286872288,0.8213994128644351,0.7942751271688314
