series,2021-12-01,2021-12-02,2021-12-03,2021-12-04,2021-12-05,2021-12-06,2021-12-07,2021-12-08,2021-12-09,2021-12-10,2021-12-11,2021-12-12,2021-12-13,2021-12-14,2021-12-15,2021-12-16,2021-12-17,2021-12-18,2021-12-19,2021-12-20,2021-12-21,2021-12-22,2021-12-23,2021-12-24,2021-12-25,2021-12-26,2021-12-27,2021-12-28,2021-12-29,2021-12-30,2021-12-31,2022-01-01,2022-01-02,2022-01-03,2022-01-04,2022-01-05,2022-01-06,2022-01-07,2022-01-08,2022-01-09,2022-01-10,2022-01-11,2022-01-12,2022-01-13,2022-01-14,2022-01-15,2022-01-16,2022-01-17,2022-01-18,2022-01-19
S,11007030.525955569,11001585.300403783,10997564.776802434,10994434.309061944,10991892.779506413,10989765.170211555,10987945.82502628,10986367.916342039,10984986.811221523,10983770.911863785,10982696.554104311,11064226.2957502,11145828.601556983,11227495.994280804,11309220.908610184,11390984.180575985,11472793.337742697,11554640.278573232,11636517.99462729,11718420.069328545,11800340.338533595,11882272.60593886,11964210.34542083,12046146.331420872,12128072.123804016,12209977.289282842,12291848.14348364,12373665.581990827,12455401.0623441,12537008.488938931,12618405.890126007,12699427.14141231,12779661.086091422,12813122.516699923,12805209.806938427,12796067.186281318,12784164.93819029,12769627.422903005,12752510.500122616,12733001.655064061,12711343.770380767,12687812.183653476,12662692.907390539,12636268.92429707,12608811.643814094,12580575.921569869,12551797.4106577,12522691.397698198,12493452.565834513,12464255.328350969
E,0.001100703052595557,5445.226325821635,7849.711929329651,8650.536787988536,8624.75411173568,8192.702975123117,7580.612161121145,6908.741577016479,6239.465641234518,5603.612113213109,5014.926032401237,4478.021030819733,4027.8949023821287,3646.270597548475,3320.3834096803134,3041.0127537924304,2801.285152150849,2595.992508683301,2421.132851526899,2273.6546613735327,2151.3146125091107,2052.619112249456,1976.8403385451343,1924.1157210061845,1895.6624447013514,1894.1756125030784,1924.5507392255836,1995.2275745890017,2120.825384132365,2327.730185701203,2667.299282668887,3252.2817502793887,4384.120257369657,7233.8150213589515,12239.905986551352,16647.616431113576,21814.965499643822,27257.250162520042,32627.10541365647,37594.49948741505,41902.93505725193,45382.453745601015,47947.496690736414,49584.438902412345,50335.05102447982,50279.66467089311,49522.13405011372,48177.51454548046,46362.65512053016,44189.49935475662
I,50586.303426572355,37606.38372316138,29411.410491653485,23961.426662203645,20123.754487006052,17263.90250811811,15022.45685152016,13192.651809695624,11652.897343785855,10329.462526247518,9175.769194870805,8160.861996039577,7262.960711512417,6475.221703127667,5787.675491437466,5189.501175323341,4670.1915421189215,4220.099496899129,3830.662193001176,3494.444984114954,3205.105808155701,2957.3307121243793,2746.7703056495166,2569.996803576344,2424.4986626233167,2308.7338887428496,2222.276016571076,2166.115612141706,2143.2433517649342,2159.7873793492968,2227.3511951327746,2368.2786318208027,2629.2958997264923,3125.65587447748,4255.815962775631,6433.1287061952835,9229.07660804793,12687.82577662722,16712.744308263045,21139.212940067635,25756.699653969466,30340.181653849104,34676.978328349454,38586.12770596605,41929.46150681014,44615.42104465648,46597.397425365496,47868.4808436825,48454.26607251701,48404.99119578839
A,5620.700380730262,4496.5603372509495,3758.852069584885,3240.045943850924,2848.7679782591204,2534.9804257542614,2271.127940531339,2041.8802792593767,1838.5423290373844,1656.0091518059703,1491.1117054732863,1341.722682587874,1206.2771608756211,1084.561869441634,975.8637640421483,879.233577444416,793.638246709626,718.047329943848,651.4819074000577,593.0400724856353,541.9097367274927,497.3746517729945,458.81749199407113,425.72279653564294,397.6822753590237,374.4054201350874,355.73980964814047,341.708796349527,332.5815376704662,329.00723111972115,332.2883207488229,344.9909473654343,372.5141983917763,428.1235799340132,557.1845215191574,809.0043852668732,1141.2726086765833,1560.4441269176868,2057.297838420358,2614.1477394907397,3207.050321832728,3809.238433587464,4394.254316899785,4938.392543728238,5422.284408246106,5831.674617820664,6157.543025485735,6395.75570597898,6546.420140636194,6613.090166067622
IH,0.0,2862.6593120971706,4894.988296454287,6395.553038585067,7537.487436986718,8424.033499582602,9119.0725134953,9664.00882405948,10087.160348317784,10409.016583263721,10645.208920161092,10808.209790285726,10908.32247130419,10954.272897482182,10954.107702307743,10915.040061810449,10843.429405409974,10744.827738891403,10624.055339358556,10485.286600440806,10332.135491837676,10167.736143373124,9994.817083602275,9815.769397880948,9632.710174515309,9447.54352411442,9262.022573513188,9077.817645928415,8896.599221320863,8720.151116615285,8550.54424084364,8390.436835619592,8243.662610730995,8116.571195247216,8021.821837254302,7994.198680958966,8090.713245259108,8342.219463560019,8781.038055091747,9432.939732536148,10313.51702610041,11425.926721345057,12760.486006055653,14295.80059942487,16000.95163337187,17838.236080622635,19766.031412096214,21741.470458194668,23722.729617977526,25670.833356598443
IN,10117.260685314472,20133.3487637758,27453.29202077032,33061.041198893305,37522.71611934511,41172.23985555287,44213.29795862096,46775.65634933878,48946.430147784515,50787.54531506384,52345.5623671627,53657.26058246523,54752.860375848504,55657.9239143925,56396.389015874105,56989.96022400286,57457.96085682751,57817.41955668302,58083.26526049601,58268.56504649128,58384.76839284935,58441.941870552,58448.98859427136,58413.85276945856,58343.713602479234,58245.176198979105,58124.471214737896,57987.681705904724,57841.02801127402,57691.26640151427,57546.31121336899,57416.318340261845,57315.810883223385,57268.51195433645,57320.95800968858,57598.91162214682,58309.5482471644,59572.26808630235,61514.11056076477,64241.51831680973,67826.94572165515,72300.0161952325,77645.05236405,83803.99750607938,90683.1830722118,98162.24354285172,106103.7053163545,114362.14774826405,122792.22243951791,131255.15342962614
D,36481.0,36481.0,36483.8626593121,36488.75764760855,36495.15320064714,36502.69068808412,36511.11472158371,36520.23379409721,36529.89780292127,36539.984963269584,36550.393979852844,36561.039188773015,36571.847398563295,36582.755721034606,36593.70999393208,36604.66410163439,36615.5791416962,36626.42257110161,36637.1673988405,36647.79145417986,36658.276740780304,36668.60887627214,36678.77661241552,36688.77142949912,36698.587198896996,36708.219909071515,36717.66745259562,36726.929475169134,36736.00729281506,36744.90389203638,36753.62404315299,36762.17458739384,36770.565024229465,36778.8086868402,36786.925258035444,36794.94707987269,36802.94127855366,36811.03199179892,36819.374211262475,36828.15524931756,36837.588189050104,36847.901706076205,36859.327632797555,36872.08811880361,36886.38391940303,36902.384871036396,36920.223107117024,36939.98913852912,36961.73060898732,36985.45333860529
R,0.0,1225.3126829991972,2418.8972793506823,3604.1212078144113,4790.378708495593,5980.071385117413,7172.284375737213,8364.702573381268,9554.586714283758,10739.249032240557,11916.265244655553,13083.550354117315,14239.366624217932,15382.300044254744,16511.432867028194,17626.205356513256,18726.31915150742,19811.668976512115,20882.29400538462,21938.34341242427,22980.052187176116,24007.72472734201,25021.72459926067,26022.46951964667,27010.431184028483,27986.140155338075,28950.196764715838,29903.290082598385,30846.228909154994,31779.992313198873,32705.814679117073,33625.33725756653,34540.90238872022,35456.2019263929,36378.02420367461,37323.10699902256,38320.436490392356,39394.45943265206,40573.10927291793,41884.794956043035,43356.28932405835,45010.8072877887,46866.60905002474,48936.19212625913,51226.03779285348,53736.813088146344,56463.906271007305,59398.17551868087,62526.80629222434,65834.19422076107
G,2726917.0,2726917.000294001,2728371.434492058,2730468.1130857053,2732778.6940943105,2735082.3884826335,2737270.6808819845,2739295.482223494,2741140.825174162,2742807.402771347,2744304.1422276036,2745643.6420914866,2746839.7332247347,2747915.594491405,2748889.5229078047,2749776.4060037,2750588.668466488,2751336.8990596733,2752030.295450678,2752676.9863697677,2753284.285478419,2753858.907239938,2754407.167175119,2754935.186401583,2755449.122744757,2755955.459143388,2756461.3984052488,2756975.4509429275,2757508.381448245,2758074.8594570956,2758696.6022797734,2759409.044896671,2760277.737861165,2761448.747852151,2763380.918770298,2766650.2296827626,2771096.8515869295,2776923.6859467174,2784204.1687786933,2792918.953997483,2802960.543169644,2814152.9267547363,2826274.698885004,2839081.60069688,2852325.734056252,2865770.357877266,2879200.1878583287,2892427.679428642,2905296.019611319,2917679.606093348
H,1852555.541910538,1852555.5419105378,1852555.5419105378,1852555.5419105378,1852555.5419105375,1852555.5419105375,1852555.5419105375,1852555.5419105378,1852555.5419105375,1852555.5419105375,1852555.5419105375,1793923.353781763,1736004.2821424291,1678832.1194459135,1622442.4100022546,1566872.564461065,1512161.9664240545,1458352.0672202352,1405486.463769054,1353610.9531394492,1302773.5558730836,1253024.4983786189,1204416.1427448653,1157002.850224053,1110840.7625149314,1065987.4830146607,1022501.6386899231,980442.3025405086,939868.2573246821,900837.0839471979,863404.0634366892,827620.8905305191,793534.2101729553,778641.9508697278,778641.9508697278,778641.9508697279,778641.9508697278,778641.9508697279,778641.9508697279,778641.9508697279,778641.9508697279,778641.9508697279,778641.9508697279,778641.9508697279,778641.9508697279,778641.9508697279,778641.9508697279,778641.9508697279,778641.9508697278,778641.9508697278
S0,3852460.684084449,3840798.095060215,3824755.0867861854,3809257.125072736,3794137.9764170945,3779300.716647242,3764686.6225537686,3750258.3853039043,3735990.9460667875,3721866.4427370494,3707871.3941440405,3721778.2794903475,3735207.554294657,3748141.4891912024,3760561.495967122,3772443.391641398,3783773.30734541,3794530.082202284,3804692.237989366,3814237.7774015693,3823144.064482559,3831387.7466481035,3838944.693825018,3845789.9332392714,3851897.55038712,3857240.5040098503,3861790.252785504,3865515.980961651,3868382.9508726588,3870348.8405844006,3871354.9539803057,3871302.2432234255,3869970.063174295,3859647.721261771,3841712.188071864,3823260.409574748,3803551.320935744,3782683.096438605,3760728.271189746,3737820.2563805426,3714115.0086359656,3689777.0272238706,3664967.669030311,3639838.253613603,3614526.3323924453,3589154.101326326,3563828.1726054354,3538640.1568653197,3513667.689419169,3488975.6647555716
E0,0.001100703052595557,3001.3061962798924,4334.718531236667,4783.34752116824,4774.6446217157,4540.24280973938,4205.042073354514,3835.5949170984486,3466.542883457366,3115.1143846304212,2789.0925456894465,2491.197903456808,2241.0641443165982,2028.6132543736237,1846.827331772436,1690.6486108547101,1556.3112666685395,1440.9616370070241,1342.4028511649126,1258.9529906531998,1189.3660562088912,1132.7988512076656,1088.8181276942123,1057.4522717520263,1039.3039142336138,1035.759473440915,1049.3696156674482,1084.5569089722173,1149.0032407678987,1256.5903887951176,1434.3468757272253,1741.6006816603785,2336.8961094000247,3835.7443164633096,6461.672021259007,8761.511169529756,11445.840919763215,14257.594997851687,17013.779879772253,19542.654553349385,21712.793867698907,23439.314478837085,24682.11220179225,25438.768514391824,25735.459502555856,25617.85908455462,25143.11938758617,24373.384170737147,23370.908280050913,22194.64723841293
I0,50586.303426572355,37606.38372316138,28758.633030986708,22537.28118429927,18032.093574560928,14680.565740932867,12126.395798394358,10138.066338162325,8561.241261760091,7290.438357055449,6251.842805833243,5392.658798555629,4674.364044502268,4073.564881605049,3570.178354603765,3147.4000860009874,2791.386584570729,2490.8405934400116,2236.601393858417,2021.2720224374518,1838.9042549298042,1684.7433099801674,1555.0292137146084,1446.851040836391,1358.0523612400475,1287.1910266627774,1233.5652450615512,1197.3345865821098,1179.7989568277144,1183.9765713526795,1215.819062105226,1286.9703232190368,1421.9332052476623,1681.2709798955907,2274.4116529891044,3416.750750782285,4880.2705556607725,6685.257880162582,8778.131077075735,11070.178944251747,13449.580178850989,15798.101661155342,18005.175098568063,19977.890941120844,21646.533270675587,22966.26625055314,23915.958077104333,24495.16463069377,24720.154508810956,24619.65038807507
A0,5620.700380730262,4496.5603372509495,3686.32124062191,3077.7030659069396,2604.1229680200427,2225.0006044646025,1914.7461205926975,1656.5944230863638,1439.1085870783716,1254.167166745078,1095.7843114246082,959.4023287063287,841.4558049398479,739.6750990938647,651.9454023568192,576.3665899076151,511.26845717381445,455.20307808666223,406.9274206087607,365.3818602309606,329.668781253849,299.0331122664428,272.8457716927974,250.5906363096708,231.85564998259906,216.32905272371974,203.80258276004903,194.1853295221273,187.53581783209717,184.12885112835806,184.596256512033,190.24565001081987,203.88386430292135,232.4616542065947,299.8068058591375,431.61538942632205,605.3170400142903,823.9440826336603,1082.293146806187,1370.7706418120174,1676.604753555184,1985.6775861310439,2284.1756491203632,2559.8579354398526,2802.859862356222,3006.0666193533016,3165.1418716923063,3278.312716326942,3346.00513755792,3370.407526409866
IH0,0.0,2862.6593120971706,4894.988296454287,6358.6126149935835,7421.191420055595,8193.263162224164,8749.835104950875,9143.241334444827,9410.963044943635,9580.493265753421,9672.435747481763,9702.527564056712,9682.991438390993,9623.461086484227,9531.923984311776,9414.963812476783,9277.992969044028,9125.459323065414,8961.022583904596,8787.701583638289,8607.99553487562,8423.98340391978,8237.405511193563,8049.731160125732,7862.2157543304675,7675.950652564949,7491.9090795840675,7310.991976082271,7134.07916190307,6962.09457401075,6796.102028562076,6637.466540609197,6488.1663670950065,6351.500167473828,6234.083460408709,6154.161819454797,6141.559361538681,6212.198675974752,6382.617509876429,6665.767993779113,7069.1486699109955,7593.679210228239,8233.557742525883,8976.919543100537,9807.039237423853,10703.805985227304,11645.244732602856,12608.920001785618,13573.122007712882,14517.788138193373
IN0,10117.260685314472,20133.3487637758,27453.29202077032,32930.48570675996,37108.63708655221,40343.969430598874,42876.64288447946,44873.15561531353,46452.03732679286,47699.765205876945,48680.855225229265,49444.41523414362,50028.50284151331,50463.090621998635,50773.17269209966,50979.47663609942,51099.16188693862,51146.44758498338,51133.15122782155,51069.13999431502,50962.70299885936,50820.85681985672,50649.59691365419,50454.10678726057,50238.93592755524,50008.1570405277,49765.51367545498,49514.571587712744,49258.892789152036,49002.26365262606,48749.036330370334,48504.709779487675,48277.0567463366,48078.672819922765,47934.140287702656,47909.68121542345,48113.93455342567,48608.84931902357,49459.81240186585,50720.84049326234,52427.667877180065,54593.307234178465,57206.994494067745,60235.95956884068,63629.17816137644,67322.1930338978,71242.22435366944,75312.99372555362,79458.89671443684,83608.33864905465
D0,36481.0,36481.0,36483.8626593121,36488.75764760855,36495.11626022355,36502.537451643606,36510.73071480583,36519.48054991078,36528.62379124523,36538.03475429017,36547.61524755593,36557.28768330341,36566.990210867465,36576.67320230586,36586.29666339234,36595.82858737665,36605.24355118913,36614.521544158175,36623.64700348124,36632.60802606514,36641.39572764878,36650.003723183654,36658.42770658757,36666.665112098766,36674.714843258895,36682.57705901322,36690.25300966579,36697.74491874537,36705.05591072145,36712.18998988335,36719.15208445736,36725.948186485926,36732.58565302654,36739.073819393634,36745.42531956111,36751.65940302152,36757.81356484097,36763.95512420251,36770.167322878486,36776.54994038836,36783.21570838214,36790.28485705205,36797.87853626228,36806.112094004806,36815.089013547906,36824.89605278533,36835.599858770554,36847.245103503155,36859.854023504944,36873.42714551266
R0,0.0,1225.3126829991972,2418.8972793506823,3589.6150420218164,4740.899105122707,5873.746325156602,6988.188462007653,8083.976090435097,9160.870825625547,10218.74905854847,11257.620251030188,12277.610775455716,13278.93746375538,14261.881463901498,15226.882489442047,16174.466554566552,17105.20066998891,18019.665118647696,18918.437194101087,19802.082574528307,20671.15169433856,21526.17949533284,22367.687566493303,23196.188136259236,24012.18974587174,24816.204778123025,25608.759422899693,26390.407249922388,27161.748554274593,27923.459520336564,28676.339153424196,29421.39088363051,30159.978970377088,30894.17099313598,31627.657732446296,32369.35612824876,33134.57691560907,33936.17141531466,34788.73384580164,35707.00853448142,36704.781761151324,37793.886233154524,38983.49106351061,40279.70666298385,41685.48234015396,43200.74123840034,44822.68604847437,46546.210954181726,48364.364384984954,50268.81909339817
G0,2726917.0,2726917.000294001,2727718.6570313913,2728876.471692076,2730154.1163297263,2731429.4364001635,2732642.1471333527,2733765.3248728625,2734789.822310346,2735715.7449840875,2736547.8001863444,2737292.7741024443,2737958.179580217,2738556.773676495,2739098.6215842306,2739591.91399643,2740043.4906636598,2740459.1854747883,2740844.070098043,2741202.6294117384,2741538.8990493603,2741856.5818347307,2742159.1553716473,2742449.9815422464,2742732.42981066,2743010.030605299,2743286.6846705284,2743566.974040355,2743856.6620282847,2744163.563800049,2744499.2023805333,2744882.320183744,2745347.5062823924,2745971.697347271,2746996.2346897153,2748722.1641923664,2751062.3867486254,2754119.6008042255,2757927.8417305187,2762472.2668498224,2767692.1610107725,2773491.7050603544,2779752.4072822942,2786345.0640275865,2793139.8256536257,2800013.8342188406,2806856.4314047275,2813572.2243754854,2820082.4190559527,2826324.8498032247
H0,648394.4396686882,646935.5521794336,644606.5841915876,642286.0004884979,639973.7708867393,637669.865311547,635374.2537964254,633086.9064827582,630807.7936194203,628536.8855623903,626274.1527743657,596236.3967806712,566774.8246215563,537902.729052617,509634.2087451133,481984.1877732919,454968.4290856171,428603.5397388899,402906.96517066663,377896.96920342656,353592.5958155425,330013.6079898318,307180.3981839234,285113.8642004427,263835.24353785295,243365.898777899,223727.0463589609,204939.42139147213,187022.87223779887,169995.88069259643,153875.0070656033,138674.26455999678,124404.43421762738,118025.38192426787,117600.49054934051,117177.12878336289,116755.29111974279,116334.97207171172,115916.16617225355,115498.86797403343,115083.07204932692,114668.77298994934,114255.96540718552,113844.64393171965,113434.80321356546,113026.43792199664,112619.54274547745,112214.11239159374,111810.141586984,111407.62507727086
S1,1100703.052595557,1029946.4248797179,969643.86632662,913738.0055874048,861864.9883065806,813708.3907987839,768985.8235473826,727441.3410666577,688840.8467634234,652969.0849078046,619627.5017514535,593059.8104815183,568177.6646274178,544875.3088465238,523053.2137974157,502617.08426684345,483479.6793515841,465558.0270997529,448774.11703465536,433054.5754872822,418330.3733170547,404536.55720170966,391611.99936830136,379499.1620383189,368143.87284654233,357495.1061270665,347504.76146791433,338127.42298042955,329320.06388566195,321041.61216866033,313252.1489741849,305911.00270131923,298970.6534879064,291820.4100722964,284571.5079949713,277739.4000274339,271240.63126477646,265056.29515207594,259166.81435409188,253557.94076449948,248217.85540286588,243136.14621051415,238303.0234743096,233708.89882576445,229344.1858075755,225199.2365506595,221264.35454356656,217529.84490118455,213986.0786629231,210623.55771350823
E1,0.0,857.5158349269275,1199.446474807925,1283.350226664463,1240.9140501959114,1141.27524717421,1020.5121174636424,897.0945356887935,780.0719099793641,673.4557284707965,578.5858765357311,495.4174221226891,426.3412917307544,368.66642696093345,320.34850573729244,279.7876180036269,245.70409953941126,217.06292258795327,193.0196079673479,172.88427859695582,156.09583188445146,142.20333868572988,130.8533090219486,121.78256922672372,114.81759796007954,109.88275704642987,107.02278999963673,106.45122769591154,108.65120713084265,114.59455510446388,126.26415020974596,148.09752685028784,192.02882651598972,304.4095653862011,498.6782328639776,663.090689542358,850.1944099769487,1040.6278964191088,1221.4150418199076,1381.1691716302616,1511.9174535194768,1609.2491021817998,1671.93315322101,1701.2313560953803,1700.1467435418012,1672.7370666614006,1623.5520955898437,1557.209633156357,1478.100960532061,1390.205420463265
I1,0.0,0.0,229.04472304097433,490.64951784704726,707.5401513477782,857.4440874680076,942.2704457232629,973.0750936782044,963.0104299577329,924.2712049068114,866.9946015803353,799.0745940492204,726.3676431674077,653.8661254906357,584.5626368693896,520.1358603692358,461.4064062564431,408.64252306568204,361.7671709222688,320.497514984206,284.43902491885007,253.14853080832452,226.1761311781188,203.09294650057012,183.50984890502002,167.09120868648716,153.5673120813649,142.74960218577002,134.5549384944337,129.0505606476832,126.54603277347958,127.80112012014436,134.56591711448192,151.32910254779955,193.8082181011018,277.27730320384603,383.24408543242885,511.9967853144751,658.5781622796435,815.8370000525774,975.415599608202,1128.9711963012628,1269.1235599393947,1390.0573569251235,1487.7864244371376,1560.1495255289778,1606.6238101404115,1628.035841612461,1626.23352293603,1603.7635270793087
A1,0.0,0.0,25.44941367121937,55.956785553823316,82.85278435319202,103.11015964144505,116.35897265275372,123.37400662845135,125.32323836552087,123.4096182557208,118.71455983204638,112.14295913073768,104.41739948428605,96.18690563905385,87.89083197668327,79.81999047192437,72.1595484643681,65.0196618633197,58.457737771582046,52.49463936040737,47.12658294755579,42.33388914607634,38.08743174039009,34.353418858235,31.097006515708497,28.285169747478058,25.88924378632296,23.887624719535033,22.269366600914434,21.04005124634134,20.232986050841507,19.933664937104275,20.342180493191265,21.972789057933117,26.612519173693855,36.089822083129654,48.55110855886255,64.07301476727639,82.14223778542836,101.96302948136868,122.560856842516,142.91947519491933,162.0949852110653,179.2957347832964,193.92584851231322,205.59775028988784,214.12180544448995,219.48133462854761,221.80004183259388,221.30721499236446
IH1,0.0,0.0,0.0,12.961552137362611,40.29344720798292,78.98441053166734,124.86354850042756,174.00758688394956,223.25019493268792,270.2752954025693,313.5344170426635,352.10456897224765,385.54036603965505,413.74274319473494,436.89846735144516,455.3574049256002,469.5527097346854,479.94947769603453,487.01241991675283,491.1863358344594,492.8851337233603,492.4865436927787,490.33057592962945,486.7204020964234,481.9247777924323,476.181443851857,469.7011917238181,462.6724955175342,455.2668515092316,447.6453117951276,439.967343770331,432.4045962112893,425.16596832089726,418.5524054509777,413.10879411582937,410.25123526254674,412.21279060525575,420.10531972648045,435.0197830256844,457.730102519654,488.5796156076877,527.4272106166119,573.6643844947378,626.2853539743686,683.9889078357542,745.2918057587003,808.638141953107,872.4944926592898,935.4255265463587,996.148519168
IN1,0.0,0.0,0.0,45.80894460819487,143.4807587315224,283.5539814137628,452.20725909322675,636.1392756469471,824.3929016261185,1008.7510586014039,1183.5177889967522,1345.0815314228516,1491.4456349184672,1621.8047072027641,1736.3598852288637,1835.908813750453,1921.5768976867955,1994.6424099612161,2056.42449047474,2108.2136797544467,2151.2310459537434,2186.606540477976,2215.3701812348613,2238.4517056581367,2256.6857779016696,2270.8208899036567,2281.5309227419175,2289.4290759307714,2295.0847056086177,2299.044846251418,2301.8645099184405,2304.155071373952,2306.6737446842412,2310.520190660295,2317.6808092632523,2333.2656447908403,2365.388448983701,2418.3833815803496,2496.598904827441,2603.348548235095,2740.4824627632597,2908.1607580572677,3104.8733897369475,3327.649367827457,3572.384345534207,3834.217786966293,4107.905514202425,4388.151221088483,4669.87687720009,4948.4248130152955
D1,0.0,0.0,0.0,0.0,0.012961552137362612,0.05325499934534554,0.13223940987701288,0.25710295837744046,0.43111054526139003,0.654360740194078,0.9246360355966473,1.2381704526393107,1.5902750216115584,1.9758153876512135,2.3895581308459484,2.8264565981973937,3.281814003122994,3.7513667128576795,4.231316190553714,4.718328610470467,5.209514946304926,5.702400080028287,6.194886623721065,6.685217199650695,7.171937601747119,7.653862379539551,8.130043823391407,8.599745015115225,9.06241751063276,9.51768436214199,9.965329673937118,10.405297017707449,10.837701613918739,11.262867582239636,11.681419987690614,12.094528781806444,12.50478001706899,12.916992807674246,13.337098127400727,13.772117910426411,14.229848012946066,14.718427628553753,15.245854839170365,15.819519223665102,16.44580457763947,17.129793485475226,17.875085291233926,18.683723433187033,19.556217925846322,20.49164345239268
R1,0.0,0.0,0.0,5.089882734243875,17.16013878939272,36.4736695166917,62.49554758734885,94.34323223345073,131.02875322965681,171.58536638331992,215.12955307732284,260.88684518802575,308.197672381254,356.5125546140918,405.400546626106,454.52664897370045,503.6333598119821,552.5255275765392,601.0579144090144,649.1250425723396,696.6529532188139,743.5925793837616,789.9144811175152,835.6047321704496,880.6617880580932,925.0942075547646,968.9191478503733,1012.1616155432291,1054.8545474409889,1097.0399525182047,1138.7716551715716,1180.1208686627147,1221.18759153126,1262.1261950925464,1303.2146690236973,1345.1259629848419,1388.995792433282,1435.7427910362069,1486.3803589029371,1541.8981392796732,1603.1848872183941,1670.9640994634556,1745.753043592054,1827.8453512239007,1917.3139599175208,2014.029343585611,2117.6877007090743,2227.84434704833,2343.948515326937,2465.3767993233887
G1,0.0,0.0,229.04472304097433,549.4200145926047,892.2062177838051,1223.657607213828,1528.4952116702073,1801.0766682264427,2040.6929657912808,2249.0522138610177,2428.9340009082453,2583.4758022941505,2715.8030919114135,2829.6799663760385,2928.151733565,3013.7176575802,3088.4496623616574,3154.0778701880845,3212.055944716421,3263.6119870046964,3309.7898301377654,3351.483435230051,3389.466319041812,3424.4175802351183,3456.9460230972027,3487.614103911404,3516.964075806469,3545.5501430207587,3573.9835444483365,3603.0045661388244,3633.6130716227403,3667.33855649062,3706.8957933821903,3758.187195352611,3839.4957866987374,3972.6940473963086,4149.807305427538,4376.896456709215,4654.85089045368,4981.094043730915,5350.007943047704,5753.845050535863,6183.679696032032,6630.25741556203,7084.660761733115,7538.77440505345,7985.566851966667,8419.221864423267,8835.15663159107,9229.961265327674
H1,185255.5541910538,173481.90209523306,163419.30564770525,154067.0818045303,145374.51984882244,137294.53114909882,129783.39043928476,122800.49557871728,116308.14447214683,110271.3279240234,104657.53728890348,95009.37936726044,86214.4316057695,78196.06502773124,70884.57695243208,64216.59968658397,58134.558373881955,52586.17379388345,47524.006209009945,42905.03663560435,38690.28216431657,34844.4421796557,31335.572531965296,28134.78490189891,25215.96877353976,22555.53360514327,20132.16896562767,17926.62060213748,15921.480633022102,14100.990336401248,12450.85434162009,10958.065440298493,9610.739718314517,8923.668127105559,8711.154635811099,8512.291070659361,8326.107943518084,8151.70499558358,7988.246252500058,7834.955432684453,7691.111683627798,7556.045622746246,7429.135661028189,7309.804589277757,7197.516408197823,7091.773384895385,6992.113319636331,6898.10700783174,6809.355883310639,6725.489829930164
S2,1100703.052595557,1165863.2827498855,1225275.4748266353,1279725.4894654464,1329569.565353266,1375140.631392132,1416748.9924821127,1454683.3370175236,1489211.9208553974,1520583.8257446869,1549030.2255795645,1586588.623123084,1621823.3581126595,1654852.274104504,1685785.3813308235,1714723.7794459006,1741764.929427662,1766997.6896651092,1790504.768379358,1812363.0188358405,1832643.743651182,1851412.9998219814,1868731.900859491,1884656.9139717685,1899240.14923809,1912529.6335641625,1924569.55243842,1935400.4206247749,1945059.0914848754,1953578.382123605,1960985.7029522588,1967298.7142275267,1972509.7478787797,1972960.1088096893,1969530.1959254371,1965493.7639230166,1960729.1262253656,1955276.5890211214,1949165.4226413094,1942437.474391066,1935139.5241911858,1927321.605207435,1919035.0188047383,1910330.9859941064,1901259.6851777246,1891869.570692077,1882206.890110897,1872315.3454117773,1862235.8623803926,1852006.4450296704
E2,0.0,300.13054222442463,447.3537801808689,509.1328272037447,523.9301728697206,513.4856982248782,490.00522883328426,460.29564276762454,428.1268682835221,395.5705103651178,363.75239896114925,333.27236184439033,307.3552415928393,284.9277598886436,265.31038613616965,248.06350530009144,232.89456504878316,219.60725062458673,208.06872475240957,198.19373899112134,189.93805418912356,183.29870330258547,178.32040559639626,175.10909877932212,173.85565992780718,174.87636126838044,178.68337864952613,186.11337430541704,198.5772776609755,218.58755692987353,251.0019400982954,306.450965625325,413.313953252586,681.7596787169323,1152.904244581449,1567.5163120719023,2053.1666305614917,2564.022754501493,3067.230386429665,3531.6514043689986,3933.1521967437875,4255.817602472106,4491.7332329250185,4639.794544833524,4704.133243680717,4692.517477246905,4614.9233351269795,4482.364626357156,4305.999619016482,4096.4954201281025
I2,0.0,0.0,80.16565306434102,179.08534430834632,269.1246153941131,340.0131545380918,389.9226843840108,420.75425249656206,435.73925232449744,438.28689302390114,431.48494720557494,417.92960922725473,399.7111325097233,379.2447970481475,358.0394716327607,337.03536059553596,316.8139992770645,297.729565597015,279.9929229144766,263.72534805720386,248.9942293970418,235.8378477564766,224.2838689914141,214.3648048191635,206.1331210272637,199.67880499366885,195.15323140906176,192.8057373000343,193.04515707384655,196.55228541642902,204.5043190022931,219.07390992178142,244.71567494239716,292.3214129933788,399.41456877214773,604.8726794063393,868.3563410168827,1193.9513026601276,1572.4529865068075,1988.2431449773344,2421.393936740329,2850.6446467579094,3255.9388574625923,3620.252465790686,3930.634550290926,4178.560850773991,4359.769236266,4473.755833959765,4523.08787678565,4512.65427496851
A2,0.0,0.0,8.90729478492678,20.40243195071369,31.43202447148655,40.69485512609455,47.795147816038885,52.778526989459756,55.88350719844212,57.412784273587135,57.669996113957545,56.931465497118445,55.436052374838205,53.47055180739697,51.23254701560407,48.85993742055582,46.44999563400628,44.071857357226826,41.77500490841328,39.59508178837545,37.55807278868757,35.683452810038375,33.9867137168489,32.48157618206168,31.182160770606085,30.10542879737148,29.27433566306645,28.722446078162722,28.50144233011768,28.694543908989814,29.44289161052385,31.00356605514435,33.89772558755364,39.384540278207176,51.74094265409068,75.60872524427023,107.00783664782378,146.540289179893,193.32747423501309,245.6914528388819,301.3657544957009,357.8209638318297,412.56121730790437,463.3549403247307,508.3840924921774,546.3168625364038,576.3183450601205,598.0166868156502,611.4412737836489,616.9467705928032
IH2,0.0,0.0,0.0,4.536543248076914,14.519093631227376,29.26285564494942,47.524758172935975,67.99986918530104,89.53450702711726,111.19646243448321,132.27764926580122,152.26841403218538,170.82307693129798,187.725813305557,202.90470104031883,216.37561126527584,228.20708976608447,238.49829723609633,247.36511865009166,254.93149345434554,261.3240763487429,266.66909689131256,271.09072654107524,274.71054683749867,277.6479103001139,280.02114421795653,281.9497082921748,283.55763062299184,284.97889847438677,286.3661508758926,287.9054445497783,289.8432267514082,292.5406466771516,296.5988523484387,303.2152364603281,315.67055698495295,339.33584287589275,377.11958510007327,432.0641500787242,506.58920496469926,602.149609797716,719.0238274796088,856.2778662512954,1011.8740064040221,1182.8793351203005,1365.7262047583454,1556.4839779210743,1751.1123675051729,1945.6777846096002,2136.5235604594764
IN2,0.0,0.0,0.0,16.033130612868202,51.68986816840878,104.99789256554732,171.95054454751022,248.21557597883728,329.88427071836134,413.7332784760772,497.25332429609665,578.5777804942506,656.3779245347591,729.7563717913562,798.3077674830721,861.9325841347935,920.7203304125528,974.8759269638401,1024.6730808136047,1070.4249345883638,1112.465754853921,1151.1399431847901,1186.7961133042375,1219.7849259694779,1250.4600376736157,1279.1820615023323,1306.3260018860428,1332.2933881489948,1357.5316017275118,1382.565317125006,1408.0501210370417,1434.87048362713,1464.3365607752148,1498.636330155942,1542.1142494530584,1606.5760207129574,1711.4847963870957,1868.0412166266012,2088.1510649923607,2381.7601516437985,2755.5911791228273,3212.314054679665,3750.31984348445,4364.004416542124,5044.41486553484,5780.097626937677,6558.008820823098,7364.382579868067,8185.48992086134,9008.252597009856
D2,0.0,0.0,0.0,0.0,0.004536543248076914,0.01905563687930429,0.04831849252425371,0.09584325069718969,0.16384311988249073,0.25337762690960797,0.3645740893440912,0.4968517386098924,0.6491201526420778,0.8199432295733757,1.0076690428789328,1.2105737439192517,1.4269493551845276,1.655156444950612,1.8936547421867083,2.1410198608368,2.3959513542911455,2.6572754306398885,2.923944527531201,3.1950352540722764,3.469745800909775,3.747393711209889,4.027414855427845,4.30936456372002,4.5929221943430125,4.8779010928174,5.164267243693292,5.4521726882430706,5.742015914994479,6.03455656167163,6.331155414020069,6.634370650480397,6.95004120746535,7.289377050341243,7.666496635441316,8.098560785520041,8.60514999048474,9.207299600282456,9.926323427762064,10.782601294013359,11.794475300417382,12.977354635537683,14.343080840296029,15.899564818217103,17.650677185722277,19.596354970331877
R2,0.0,0.0,0.0,1.781458956985356,6.1695599776625585,13.444240163637145,23.58323741381187,36.404710292261136,51.65025387356103,69.03262357523776,88.26261539029997,109.06367143117939,131.17928568877232,154.37621408526607,178.46259074952744,203.2796778848074,228.6958375756114,254.6020069215931,280.9082187182672,307.54090161436284,334.44076820067596,361.561182660986,388.8669463413185,416.333476445977,443.94638818530916,471.7015323441454,499.60559971260346,527.6775005815691,555.950900171142,584.4786240011698,613.3403438102944,642.6565558771704,672.6160184579471,703.5365480992631,736.0291919985059,771.6427029631275,813.0787623510436,862.612048485507,922.8440755651835,996.4184673120103,1085.82127462114,1193.1997147715927,1320.2308616112896,1468.0462039737895,1637.2087179146329,1827.7330224379596,2039.1370114792987,2270.513547098554,2520.6122901507524,2787.9237810345758
G2,0.0,0.0,80.16565306434102,199.65501816929145,335.6457283675319,475.58884830767965,612.7422217441489,743.6239003738067,866.5700708356756,980.9238774691765,1086.5817957249672,1183.7410131785389,1272.7589329728298,1354.8543221405675,1430.959272267746,1501.824370540399,1568.0827818184537,1630.28952946865,1688.9472006723363,1744.5229014271397,1797.4609676490245,1848.1939188608194,1897.1534820801833,1944.7833289574264,1991.5554273820371,2037.9927290100165,2084.70266263654,2132.429460565926,2182.1408297742137,2235.1813401782747,2293.5666485282627,2360.6099234287904,2442.463778119734,2552.861016393212,2734.9608102769366,3042.904550365916,3461.592258437584,4009.9984371922897,4694.855623212178,5514.120884270021,6457.434214291379,7507.9894564088,8644.729472590765,9844.48317089643,11083.784432987966,12340.270729871923,13593.6544251509,14826.312522058886,16023.563841039044,17173.707605132
H2,185255.5541910538,196282.67051194987,206337.53648884807,215553.94479119786,223992.6179582929,231709.933447991,238758.23408426007,245186.11632892015,251038.69796157946,256357.86663861875,261182.51069701783,253725.73022675887,245652.5994180673,237061.2304697005,228041.9070784923,218677.80328852942,209045.63964206335,199216.28035715912,189255.27459263752,179223.34418807202,169176.8195839158,159168.02493747819,149245.61276478143,139454.84777684827,129837.8389762194,120433.71858832987,111278.76609831289,102406.47564844978,93847.56545321477,85629.92885822723,77778.52836585134,70315.23651605443,63258.63103001847,60168.35889758218,60089.473776928025,59996.348229760624,59890.12677969152,59771.87107589887,59642.56582467985,59503.12429718366,59354.39344359941,59197.15864191092,59032.14810732243,58860.03698659441,58681.45115979765,58496.97077038562,58307.1335029926,58112.43762697861,57913.344822454936,57710.282804328854
S3,3302109.1577866706,3287181.3943363493,3273287.1900102347,3260299.5848436854,3248123.7715207343,3236681.7572315866,3225906.6573616685,3215739.478768802,3206127.2377717677,3197021.8070128667,3188379.1674670717,3204007.8720737835,3220673.46786092,3238372.722030528,3257105.57570745,3276872.613977555,3297683.307412652,3319546.8559827064,3342475.7802825184,3366485.778490361,3391595.5961586325,3417826.876334447,3445203.965533593,3473753.6528623383,3503504.8172765067,3534487.9517569086,3566734.5209059147,3600276.0832791547,3635143.0522105633,3671362.820029796,3708956.527495936,3747932.1813228205,3788264.4919155645,3802744.395292245,3793627.03611594,3784376.287425505,3774785.1543967808,3764844.91299827,3754531.130948045,3743839.1243150923,3732774.2244531065,3721350.82320605,3709590.2990616094,3697519.419717168,3685168.9549656245,3672572.455308777,3659765.166011971,3646783.06531285,3633662.0251617185,3620437.095787189
E3,0.0,514.5095009561563,742.5233901439865,819.1403529820907,817.5503369037328,777.4031147895166,720.0687784017184,656.9259326533916,593.8898658291396,533.8957459511232,478.26336516744584,427.44779772918605,384.81911046141045,348.67213116572134,317.81468547133846,291.38422925792696,268.73676536681296,249.3839593061034,232.95093742600983,219.15309242700096,207.78351683270375,198.70840555638094,191.86971984796634,187.29620245788686,185.12612552852175,185.64896797998455,189.38068943180568,197.2035230591618,210.64005586991405,232.43454161672287,267.92760724838564,328.85073661347974,446.5994787868239,743.2786697687202,1264.448895411948,1722.1347617680499,2257.20457286739,2819.650383964831,3373.75503083374,3885.639316953584,4329.02772645674,4686.557059650208,4949.536314490235,5116.655616780606,5192.285027523892,5184.747536331353,5104.777995088275,4964.2605185095035,4775.263683294281,4549.352379324317
I3,0.0,0.0,137.42683382458455,300.4944759601823,442.18524620622964,547.0949391560367,614.3624665728414,649.0556939375451,657.9813802330614,647.7797297691201,624.1711304622982,591.7606980456771,554.0934749136427,514.7050360722056,475.768308750923,438.58023672984416,403.8745936957457,372.0248613034209,343.17825427413703,317.3440838282211,294.4532526692564,274.399127621069,257.06669678410213,242.35495681555662,230.19649804506918,220.57814027447137,213.5674057844668,209.3523055042035,208.30825550065117,211.12103095097203,219.03344160248164,234.39590056172665,262.0892393760912,314.1277522157588,432.0575113249806,658.9336500493279,949.8448205920921,1309.029753050017,1726.2823105285586,2184.4749968324436,2661.825831350081,3135.1236044026637,3582.475105544467,3985.28330533159,4329.37310807518,4605.373855124534,4808.54239380236,4938.219922163497,4997.090958131583,4990.37474862787
A3,0.0,0.0,15.269648202731616,34.2523785825111,51.71240635613546,65.63323996897793,75.57841485208439,81.83298239702563,84.96267873286911,85.59564709365522,84.32151218417684,81.65114265001839,78.00673913243415,73.8260792184424,69.40877876038438,64.95914900751752,60.61504031577792,56.46762037813868,52.57533052448702,48.97379829288311,45.683079118849825,42.713076736552765,40.0677430567973,37.7485171302288,35.757403226679024,34.10010841212372,32.789789514557974,31.85228468129896,31.334447406788183,31.318947928064148,31.953366585554264,33.51426714391033,36.57106839587806,42.511064631048065,56.06792696558827,82.38074247933807,117.01422737415487,160.60085378512917,212.16246021166793,269.8565010074851,331.203470541185,393.43995774839743,453.8399275481141,509.96461972171835,559.8241515582221,601.9563118585288,635.4383419189984,659.8506244460875,675.2101631752871,681.8887331407201
IH3,0.0,0.0,0.0,7.776931282417564,24.521534625209192,48.72398919239405,78.05328376670805,110.20768805701019,143.24928997719053,175.69022342280678,206.46818177663332,234.88012408986023,260.50713908348695,283.1449473308177,302.79618263624803,319.58635577138375,333.7101707128356,345.3973394463857,354.8910216031364,362.4345700627698,368.2637205806048,372.60240959454757,375.66104495992465,377.63648454805315,378.7132824485401,379.0660017803085,378.86261787404817,378.26930566102055,377.4573183311249,376.61342256813634,375.9569424772255,375.77019238944183,376.4590476770224,378.6920050612019,383.79507361736535,395.4009623590786,419.457281446115,459.17108266124325,517.8819587489156,598.2401783754191,701.8380779937355,828.9820711124925,978.6548034488972,1148.6340391817287,1335.719513099192,1536.0158968293774,1745.2279410409792,1958.9357279604906,2172.8299753493725,2382.8975311534637
IN3,0.0,0.0,0.0,27.48536676491691,87.3094082893042,174.87336344765708,282.54361764438784,402.5906747825122,528.3759068221962,654.6884238005864,777.6974855164045,894.7547367537002,1004.1593289952987,1104.9364306880743,1196.8280735956348,1280.013454609863,1354.9293674097332,1422.154992474785,1482.3384148107214,1536.1506815174416,1584.2579914679113,1627.3060620870835,1665.9128269904265,1700.6670380773428,1732.1313590596808,1760.8493450780977,1787.356479682211,1812.1963960422825,1835.9448931827003,1859.2470953510035,1882.8788305876878,1907.8567306023074,1935.6573434086297,1968.7186178497616,2011.8569821144158,2078.149914558268,2189.155145422551,2357.2325580867437,2595.4661831158796,2914.7679833904326,3322.515302923017,3821.655316163803,4410.463483882698,5082.853870152764,5829.081992517555,6636.665794207415,7491.373907290248,8378.168646977818,9282.03094494074,10188.628827117649
D3,0.0,0.0,0.0,0.0,0.007776931282417564,0.03229846590762676,0.08102245510002082,0.15907573886672888,0.2692834269237391,0.41253271690092963,0.5882229403237365,0.7946911221003697,1.02957124619023,1.290078385273717,1.5732233326045346,1.8760195152407826,2.1956058710121664,2.529316041725002,2.8747133811713876,3.229604402774524,3.592038972837294,3.9603026934178986,4.332905103012446,4.708566147972371,5.086202632520424,5.464915914968964,5.843981916749272,6.22284453462332,6.601113840284341,6.978571158615465,7.355184581183602,7.731141523660828,8.10691171605027,8.483370763727292,8.862062768788494,9.24585784240586,9.641258804764938,10.060716086211054,10.519887168872296,11.037769127621212,11.636009305996632,12.337847383990368,13.16682945510286,14.145484258551758,15.294118297733487,16.62983781083268,18.165853707662055,19.911081648703036,21.870017376663526,24.0428473520129
R3,0.0,0.0,0.0,3.0539296405463237,10.431744723679055,22.44343574156219,38.90068945043432,59.37588498217731,83.34638885538237,110.27341231815308,139.6433813339125,170.98785057916191,203.89123999366,237.99180079484992,272.9989592701736,308.6795707042193,344.847219430603,381.35374904641577,418.0824863169786,454.9428215394766,491.86588167954034,528.8011201710583,565.7136986850169,602.582579708036,639.3992922396601,676.1673844999842,712.9026490365113,749.6343180816417,786.4076228610118,823.2884831921052,860.3718677457932,897.7971401135484,935.7783085684217,974.6712077640518,1015.1552141019092,1058.9476526733042,1109.042380228889,1167.9548690572753,1238.5548047883715,1323.755504210372,1426.296938181728,1548.5486466388907,1692.3669070649203,1859.0125151301174,2049.1255080370615,2262.7466018737673,2499.3727842659614,2758.034727938501,3037.3853083456233,3335.7907059324575
G3,0.0,0.0,137.42683382458455,335.7567740075168,554.551305418656,772.9211393752821,980.5675452674005,1172.8997999056237,1348.3664352428611,1506.9959722091005,1649.6009227923744,1777.3463189164665,1891.5187440282416,1994.3049352406974,2087.4361737113713,2172.3253077042614,2250.1547976921365,2321.935090821784,2388.5461988195684,2450.76800367921,2509.3043680401,2564.803889013356,2617.879424021352,2669.128328184471,2719.1556338869345,2768.603306363959,2818.19063142769,2868.774709054563,2921.4482860103044,2977.7107960340068,3039.7946702219333,3111.3588351011354,3199.1957272278833,3318.483616456994,3517.015293803742,3854.7529019655494,4314.739602481709,4917.644849453956,5670.780844106038,6571.919639649395,7609.784067266168,8766.078699105212,10017.870351249778,11339.904450398823,12706.57655242645,14093.44946793401,15478.309099823588,16841.808658021586,18167.77563058734,19443.261053991755
H3,555766.6625731613,553340.6969825642,551066.2229661851,548930.4036853818,546922.1020450416,545030.9966465507,543247.5232631627,541562.8204988776,539968.6793319692,538457.4962656501,537022.2298281819,535656.3601831497,534213.1015890848,532685.761449867,531068.8709433764,529358.0816269256,527550.0714620409,525642.4594336913,523633.72799028154,521523.15257360827,519310.7375424957,516997.1578199263,514583.7056111588,512072.24154969415,509465.1496293616,506765.2952750243,503975.9858928316,501100.93322584743,498144.2168257326,495110.2479409136,492003.7331230515,488829.636875191,485593.14271689835,482299.6121350911,478996.738687508,475720.4500767422,472470.35523359984,469246.0799730781,466047.2658670632,462873.5691970362,459724.65998107503,456600.22106984706,453499.94730666874,450423.5447470574,447370.7299335295,444341.22922170005,441334.7781540238,438351.1208777759,435390.00960411556,432451.20410530095
S4,1651054.5788933353,1677796.1033776153,1704603.158852758,1731414.1040926715,1758196.4779087377,1784933.6741418114,1811617.7290813462,1838245.3741851528,1864815.8597641478,1891329.751461377,1917788.2651621816,1958791.7105814668,1999946.5566613292,2041254.2001080466,2082715.2418073723,2124327.311244289,2166092.11420539,2208007.623623379,2250071.090941392,2292278.919113493,2334626.5609241677,2377108.425932619,2419717.7858344265,2462446.669309175,2505285.734055758,2548224.0938248546,2591249.055885887,2634345.674144818,2677495.903890342,2720676.8340324694,2763856.556723321,2806982.999937217,2849946.129634875,2885949.8812639215,2915768.878830213,2945197.3253306127,2973858.7053676234,3001766.5292929346,3028918.8609894235,3055346.8592128605,3081097.157697642,3106226.581805605,3130796.8970195716,3154871.3661464285,3178512.4854707243,3201780.557692031,3224732.8273858293,3247422.9852070664,3269900.910210309,3292212.5650650305
E4,0.0,771.7642514342346,1125.669752960204,1255.5658599699987,1267.7149300506148,1220.2961051951318,1144.9839630679853,1058.830548808221,970.8341136851262,885.5757437956512,805.2318460474642,730.6855456666594,668.3151142805261,615.3910251595526,570.0825005630768,531.1287903760748,497.6384555273024,468.97673915763346,444.69073021621904,424.4705607052548,408.1311533939411,395.60981349709414,386.9787763846108,382.4755787902254,382.559147051329,388.0080527673689,400.09426547716714,420.90254055629407,453.95360270273403,505.5231432550253,587.7587093852344,727.2818395299175,995.2818894142333,1668.6227910237876,2862.202592434971,3933.3634982015105,5208.558966474774,6575.354129782922,7950.925074800903,9253.385041112819,10416.043812833019,11391.515502459817,12152.181788307897,12687.988870311012,13003.026507177556,13111.803506098833,13035.761236722448,12800.295596720296,12432.382577636417,11958.798896428
I4,0.0,0.0,206.14025073687685,453.9161397887965,672.8108994970031,838.7845860231077,949.5054564456857,1011.7004314209861,1034.925019510473,1028.6863414922366,1001.275709789353,959.4382961617962,908.4244164193758,853.8408629116292,799.1267195806273,746.3496316277375,696.7099583189395,650.8619534929992,609.1224510318765,571.6060148078709,538.3150462407486,509.2018959583414,484.2143949812728,463.3330546046625,446.6068334059163,434.194708125445,426.4228222346315,423.87338056958845,427.5360438682884,439.0869309815334,461.4483396492943,500.0373779981135,565.9918630458595,686.6066268249524,956.1240115882963,1475.294322753484,2147.360805345753,2987.590055440018,3977.299771872301,5080.478853953532,6248.484107419867,7427.3405452319275,8564.265706834938,9612.643636797802,10535.134153331313,11305.07056267584,11906.503908052395,12333.304615253011,12587.699205852794,12678.548257037637
A4,0.0,0.0,22.90447230409743,51.73128185693588,78.64779505826414,100.54156655314155,116.6492846177649,127.3003401580761,133.2643176621808,135.4239354379292,134.62132591849732,131.59478660367094,126.96116494421474,121.40323368287599,115.38620393265742,109.22791063680312,103.14520512165913,97.28511225850059,91.74641358681464,86.59469281300876,81.8732206185505,77.61112081388424,73.82983178723748,70.54864805544666,67.79005486343111,65.58566045439441,63.98385792414404,63.06111134840297,62.94046350054877,63.824836907967764,66.06281998987035,70.29379921845545,77.81935961223202,91.79353176023017,122.95632686664719,183.30970603381326,263.3823960814517,365.285886551728,487.3725193820615,625.8661143509863,775.3154863981421,929.3804506812734,1081.5825377123388,1225.9193134586394,1357.290453327171,1471.7370737825424,1566.52266136982,1640.094343761753,1691.9635242867453,1722.5399209318673
IH4,0.0,0.0,0.0,11.665396923626348,36.9619414667038,73.79908198942645,118.79581810435488,168.55234548839059,220.16331143715297,271.36133625044073,320.49292459423185,366.42911913472034,408.4604508587566,446.19830716684595,479.5843669679543,508.7568773714064,533.9664661523402,555.523301447473,573.7641952839787,589.032617450942,601.6670263093487,611.9946892747063,620.329224978083,626.9708042732397,632.2084496437546,636.3242816993484,639.5999760390787,642.3262380445984,644.8169911030516,647.4316573653791,650.612481484228,654.9522796582554,661.3305809609166,671.2277649127701,687.619272652071,718.7141068975905,778.1479687931635,873.6248000974701,1013.4546533619944,1204.6122528972621,1451.801052790275,1756.8144019081049,2118.33120933484,2532.0876567642154,2991.3246398927718,3487.3961880489073,4010.4366185781982,4550.007868284099,5095.674323759312,5637.475607624129
IN4,0.0,0.0,0.0,41.22805014737537,131.5989976036609,264.8451875270249,429.95365285637627,615.5552076169497,811.7397418249775,1010.6073483088223,1206.2385431241814,1394.4312996508102,1572.3746458866613,1738.3357827116697,1891.7205974668789,2032.6287354083356,2161.5723743798,2279.2986422997897,2386.678046575392,2484.635756316013,2574.110601714427,2656.0325049454327,2731.3125590876466,2800.8423124930246,2865.5005002890266,2926.1668619673196,2983.7441349727355,3039.1912580699345,3093.5740216031527,3148.145490160779,3204.481421455478,3264.726275170782,3332.086488018697,3411.963995747682,3515.1656811551957,3671.238826661303,3929.5853029453865,4319.761610985083,4874.082005963236,5620.801140278064,6580.68889966599,7764.578832153304,9172.401152878156,10793.530282716361,12608.123707248758,14589.069300842533,16704.192720369276,18918.451574776063,21195.927982078905,23501.508543428674
D4,0.0,0.0,0.0,0.0,0.011665396923626349,0.04862733839033015,0.12242642037975661,0.2412222384841115,0.4097745839725021,0.6299378954096551,0.9012992316600958,1.2217921562543277,1.5882212753890481,1.9966817262478047,2.4428800334146508,2.922464400382605,3.4312212777540116,3.965187743906352,4.520711045353825,5.094475240637804,5.683507858088746,6.285174884398095,6.897169573672801,7.517498798650884,8.144469602924124,8.77667805256788,9.413002334267228,10.052602310306307,10.694928548350905,11.339745539453956,11.987177196819335,12.637789678303562,13.292741957961818,13.954072538922734,14.625300303835504,15.312919576487575,16.031633683385166,16.80978165217833,17.6834064522758,18.696861105637794,19.901473358535057,21.35327441132533,23.110088813233435,25.228420022568276,27.76050767933249,30.75183231922526,34.23922850727417,38.24966512585237,42.799672994136465,47.89534731789578
R4,0.0,0.0,0.0,4.5808944608194855,15.718159882152428,33.963714538919476,59.116439277965746,90.6026554382824,127.69049269961143,169.60857141537548,215.6094438238299,265.0012114632325,317.1609623988668,371.5380108590374,427.68828094033984,485.25290438397906,543.942064700318,603.5225743198746,663.80819183927,724.6520721697833,785.9408897385272,847.5903497933666,909.5419066235175,971.7605950629727,1034.2339696736817,1096.9722528161544,1160.009945216658,1223.4093984695617,1287.2672844072638,1351.7257331508306,1416.9916589652153,1483.371809282587,1551.3414997855068,1621.6969823010618,1695.967396104204,1778.0345521525264,1874.7426397700756,1991.978308758404,2136.596187859804,2315.7143107595616,2536.2044628857657,2804.2085937602365,3124.767174245866,3501.5813929474702,3936.907266830306,4431.562881848658,4985.022726078605,5595.57194241376,6260.495793416076,6976.283841072474
G4,0.0,0.0,206.14025073687685,506.80958685979823,842.1745130142372,1180.7844875730093,1506.7287699502745,1812.556982125052,2095.3733919465312,2354.6857237201925,2591.225321833578,2806.304854653436,3001.472875604938,3179.9815911524756,3344.3541440296854,3496.62467144578,3638.49056095573,3771.4110944062895,3896.676008426417,4015.4540659184304,4128.831263231722,4237.844162103117,4343.512578328287,4446.875621959198,4549.035849730862,4651.218398803708,4754.856364849365,4861.722589931154,4974.146759727592,5095.398954695351,5230.425508866816,5387.417397905849,5581.676280043058,5847.5186766770585,6293.212189803226,7057.713990667685,8108.325671957295,9499.545399136394,11255.839690402507,13379.55258001054,15851.155934266717,18633.308488331553,21676.012082837435,24921.891632436353,28310.886655478687,31784.029055565938,35286.22607666001,38768.11200865308,42187.104452149164,45507.826365671404
H4,277883.33128658065,282514.720141357,287125.89261621167,291718.11114092986,296292.53117164137,300850.21535535005,305392.14032740466,309919.20302126434,314432.22652542166,318931.96551985474,323419.1113220685,313295.48722392274,303149.32490795094,292986.33344599773,282812.8462828404,272635.89208573394,262463.2678604512,252303.61389661144,242166.48980645832,232062.45053873784,222003.12076681314,212001.26545172682,202070.85365303635,192227.11179516907,182486.56159795765,172867.0367682642,163387.67137419005,154068.85167260177,144932.12217491382,136000.0361190593,127295.94054056297,118843.68713897839,110667.26249009665,109224.9297856811,113244.09322014019,117235.73270920276,121200.0697931756,125137.3227534556,129047.70675323125,132931.4339687901,136788.71371209875,140619.75254527436,144424.75438752308,148203.92061507865,151957.45015463745,155685.5395707502,159388.3831475977,163066.17296554788,166719.09897286267,170347.34905289696
E_Om,0.0,0.0,0.0,0.0,0.0,0.0,0.0,0.0,0.0,0.0,0.0,0.0,0.0,0.0,0.0,12.220186647791138,18.090308082484576,21.094657419730968,22.89975809710537,24.30934975008969,25.72758469513753,27.38419751279281,29.446887135277013,32.08325329651703,35.504950730374944,40.01467624906267,46.07596446670207,54.43743042142315,66.37870671837047,84.24594763577792,112.75937690251779,162.74747039838755,264.6670506208359,543.428227155744,1139.8665378691962,1897.7370766199779,3113.470320635928,4780.612974264612,6967.482717761998,9675.324930219358,12873.330554358883,16496.873921707273,20456.292575032858,24645.88370318174,28952.74337157757,33264.51934530817,37475.62978302659,41491.8068801161,45233.03154962705,48635.04920035257
I_Om,0.0,0.0,0.0,0.0,0.0,0.0,0.0,0.0,0.0,0.0,0.0,0.0,0.0,0.0,50.0,37.170519371659154,30.89699403266683,27.80111492313112,26.302075803169203,25.66982166386044,25.57630298764932,25.885594496707355,26.558010635103543,27.60884157187739,29.094220504944147,31.112410969883946,33.817314210245186,37.44715331730536,42.37898284694427,49.23490228938873,59.10405081368641,74.05688989904405,98.52493635408773,143.93772278016087,252.15589951125628,491.91664946460776,872.5864852074898,1480.305925499653,2377.3890346133558,3628.4085663487517,5281.701220639623,7364.971822505866,9881.554741518932,12809.979705741925,16106.051994584825,19706.759857373647,23535.250128233056,27506.18817928503,31530.956184509843,35522.30142405326
A_Om,0.0,0.0,0.0,0.0,0.0,0.0,0.0,0.0,0.0,0.0,0.0,0.0,0.0,0.0,0.0,0.0,0.3626715361654511,0.8270226310196411,1.2876667922701401,1.709754022786054,2.089257764804189,2.434951232237851,2.760671074831176,3.082463592773882,3.4181398625983714,3.788230249216138,4.218142501277726,4.741959629724103,5.409165491674447,6.297324196908189,7.5381163605817765,9.376973597884408,12.331609449656726,17.72009441231858,30.303975669077836,58.072217703638046,102.77894507892958,174.62494144787624,281.5793123825257,432.0448791335134,632.7808591473015,888.2802730693796,1200.219572401656,1567.2789097998946,1985.2653521208053,2447.4737821477943,2945.2057087860367,3468.3688740419866,4006.0917851599806,4547.302435993326
IH_Om,0.0,0.0,0.0,0.0,0.0,0.0,0.0,0.0,0.0,0.0,0.0,0.0,0.0,0.0,0.0,2.8294806283408436,4.838254575096731,6.4247865638589445,7.783029104738514,9.010986684276563,10.162070442676269,11.269339868865707,12.357056124752447,13.446422658439293,14.558798588591397,15.718004785948366,16.95262562786326,18.29899809922138,19.805724084522094,21.541116329782042,23.606405797125078,26.161069618883364,29.476414481738946,34.0654453473847,41.07079178522423,53.96572213002468,79.99707893658264,126.69922938571088,206.2290542563596,333.8629211476203,528.0201061590785,809.2388213784668,1198.9377528034042,1718.0074797868383,2385.424463590872,3217.029137480302,4224.566008532155,5415.0374514977975,6790.382446261907,8347.460234405276
IN_Om,0.0,0.0,0.0,0.0,0.0,0.0,0.0,0.0,0.0,0.0,0.0,0.0,0.0,0.0,0.0,20.0,34.66820774866366,46.21101768345702,55.82478140026208,64.19840178925399,71.75972136548158,78.79835072650232,85.52902949276327,92.12648406257728,98.7469010115343,105.54371341699786,112.68215007862489,120.35599768520277,128.81062750213337,138.3788910415956,149.54285002235648,163.05017866636177,180.15793643284,203.2190863239105,237.42335742441333,298.3828784296963,418.73845348338995,633.1247647125715,997.3405972540638,1582.1448141919386,2473.6370304021466,3769.01258901529,5571.26970312112,7983.048997090957,11100.442924120041,15007.403898476467,19771.19942631253,25439.166569590107,32036.84377842115,39567.420853992626
D_Om,0.0,0.0,0.0,0.0,0.0,0.0,0.0,0.0,0.0,0.0,0.0,0.0,0.0,0.0,0.0,0.0,0.0028294806283408434,0.007667735203437575,0.014092521767296518,0.02187555087203503,0.0308865375563116,0.041048607998987865,0.05231794786785358,0.06467500399260602,0.07812142665104532,0.09268022523963673,0.1083982300255851,0.12535085565344836,0.14364985375266975,0.16345557783719183,0.1849966941669739,0.2086030999640989,0.2347641695829823,0.2642405840647213,0.298306029412106,0.33937682119733015,0.39334254332735474,0.47333962226393744,0.6000388516496483,0.806267905906008,1.1401308270536281,1.668150933212707,2.477389754591173,3.6763275073945776,5.394334987181416,7.779759450772289,10.99678858825259,15.221354596784748,20.636392048282545,27.426774494544453
R_Om,0.0,0.0,0.0,0.0,0.0,0.0,0.0,0.0,0.0,0.0,0.0,0.0,0.0,0.0,0.0,0.0,0.29186186276532444,0.8681569259356112,1.7042586239562203,2.772723467174474,4.04920880715739,5.514579154103522,7.155423075690909,8.96403152815909,10.938340382500265,13.082103035498049,15.40548665561573,17.92632026887963,20.672367086233038,23.685318710529145,27.027925921975516,30.797382803435998,35.152624084492345,40.37750603507271,47.05968386346783,56.828116094721054,73.17843849942646,100.5187956509138,145.88844629196896,218.87314318486636,331.94275422467786,500.3779868022924,741.9968990611352,1076.6782002167893,1525.7412694005793,2111.2439130674834,2855.256713568548,3779.1645270345416,4903.034467578931,6245.077686148197
G_Om,0.0,0.0,0.0,0.0,0.0,0.0,0.0,0.0,0.0,0.0,0.0,0.0,0.0,0.0,0.0,0.0,3.26404382548906,8.096012444274582,13.73045063136443,19.847035932093906,26.340126851272018,33.21203203482251,40.52642283619058,48.39176343237104,56.96128432778444,66.4447495600214,77.13277427716474,89.43978493548204,103.98016502653853,121.7100912586562,144.21240428615323,174.33072887092413,217.80100401306694,288.4942656864057,433.6453669394125,738.1067014547943,1244.997239698967,2076.6133081615603,3353.5275411795824,5214.560404227018,7798.865006791434,11237.365278555284,15643.723464070652,21107.65273097778,27690.63274950579,35423.98625356614,44309.02640117635,54318.86516429477,65401.43533763229,77483.29640842037
beta,1.0,1.0,0.9923092385486709,0.986706195771731,0.9823871659728278,0.97890839107049,0.9760150682989912,0.9735544835837332,0.9714304554012708,0.9695789369045369,0.9679547265362315,0.9665241104824969,0.9979704591350358,1.032346346590081,1.0700861101914183,1.111715245583259,1.1578541896900159,1.209320469943957,1.2671038027183719,1.3324590283791011,1.4069990538376325,1.4928305854985866,1.592757012152507,1.710590326754296,1.8516468919571647,2.0235668821792245,2.23773342984558,2.5118732574603504,2.8751675524564226,3.3792304144160203,4.124630930104661,5.336361390799238,7.639046751915245,13.615895514102782,19.79998391951923,16.456474170217135,13.769821465416587,11.356214169052425,9.353672177866299,7.74549853396356,6.4764122533822075,5.479674298320977,4.694647202552224,4.071935905564777,3.573339418602656,3.170003202898402,2.840316748047441,2.5680955169999082,2.3411608370079455,2.150280128721016
