series,2021-11-15,2021-11-16,2021-11-17,2021-11-18,2021-11-19,2021-11-20,2021-11-21,2021-11-22,2021-11-23,2021-11-24,2021-11-25,2021-11-26,2021-11-27,2021-11-28,2021-11-29,2021-11-30,2021-12-01,2021-12-02,2021-12-03,2021-12-04,2021-12-05,2021-12-06,2021-12-07,2021-12-08,2021-12-09,2021-12-10,2021-12-11,2021-12-12,2021-12-13,2021-12-14,2021-12-15,2021-12-16,2021-12-17,2021-12-18,2021-12-19,2021-12-20,2021-12-21,2021-12-22,2021-12-23,2021-12-24,2021-12-25,2021-12-26,2021-12-27,2021-12-28,2021-12-29,2021-12-30,2021-12-31,2022-01-01,2022-01-02,2022-01-03,2022-01-04,2022-01-05,2022-01-06,2022-01-07,2022-01-08,2022-01-09,2022-01-10,2022-01-11,2022-01-12,2022-01-13,2022-01-14,2022-01-15,2022-01-16,2022-01-17,2022-01-18,2022-01-19,2022-01-20,2022-01-21,2022-01-22
S,132126.87054039215,132064.46775414457,132010.38226632087,131962.36956539,131919.0040698208,131879.3558105851,131842.79951621324,131808.89958893537,131777.3401312514,131747.88203103837,131720.33644139126,131694.5482628477,131670.38576380291,131647.73398786475,131626.49050978728,131606.56265599438,131587.86564411668,131570.3213034712,131553.85716614223,131538.4057972381,131523.9042818133,131510.29381637688,131497.5193718949,131485.52940709266,131474.2756183397,131463.71271712604,131453.79822913514,172133.36054440978,212810.481326495,253485.48244465556,294158.57081555313,334827.1262699845,375494.19485632796,416159.37331469404,456822.2421192926,497482.34395933617,538139.1563436097,578792.0619583556,619440.3162181774,660083.0095752622,700719.0212848829,741346.9606603069,781965.0909528078,822571.2296254367,863162.616782333,903735.7406851822,944286.1053960399,984807.9203198823,1025293.6844013467,1065733.6285460847,1106114.968138108,1146420.9032311612,1145940.4194726867,1145355.301401,1144637.2317743707,1143754.3552323706,1142669.311351714,1141338.4065208337,1139711.4468359356,1137732.261199678,1135340.0657132473,1132471.7878228594,1129065.332778801,1125063.5683559177,1120418.5858316324,1115095.6488876129,1109076.2384808254,1102359.7577138888,1094963.7242563511
E,44.50498159641365,93.73621962414673,120.07984367359971,132.5541083566074,136.6893252620122,135.88346061669841,132.2241321618855,126.99143944705868,120.96692769249813,114.6240531842318,108.2458844224634,101.99796644098303,95.97348225128215,90.22126151421662,84.76315127814881,79.6047811411624,74.74222337700361,70.16610101020974,65.86410947666764,61.822552806895125,58.02726849916503,54.46417408488004,51.11958043945654,47.980362067532575,45.034040407935954,42.26881489309539,39.67356321918078,37.237824018279944,37.96449138283005,40.59576058491291,44.36103525681944,48.836554069388434,53.82788570052348,59.2960808379796,65.29530562099211,71.93919532987653,79.38260492562213,87.8139941804865,97.45497533599162,108.56474318734581,121.448067588642,136.46624265030772,154.0508948946577,174.72090816158726,199.10297371376328,227.95645169798493,262.20334663016985,302.9642426122623,351.6009709302894,409.76650944553637,479.4619967696647,563.0995585241847,663.5675513703092,772.7148068019088,894.4489207484352,1030.894597193002,1183.204608838452,1351.7610061578587,1536.1172308307655,1734.8386503890652,1945.3327394338444,2163.7415814788587,2384.9616000724845,2602.838474373123,2810.5504553666237,3001.1447342799893,3168.1447483873253,3306.1209109953406,3411.1249030331846
I,114.56386623692514,88.53740998705648,70.38216335598729,57.45363818907479,48.03966788790111,41.02153187409201,35.661151217487635,31.46648703840986,28.10583903470493,25.352909608566748,23.051338847930193,21.091635798348243,19.396051091479414,17.9085706807054,16.588235496798355,15.404637701480123,14.334853140612434,13.361329823792886,12.470418754457935,11.651340587302688,10.895450989122047,10.195712838170087,9.546313134875838,8.942382194705507,8.379785854942625,7.8549703012928465,7.364845161208798,6.906694663732866,6.4781095490788285,6.176368268973864,6.03388903326497,6.049876412727466,6.209739783883064,6.495973133815954,6.893986384023803,7.394478809684756,7.994132353370363,8.69553622628845,9.506878279075815,10.441695514208028,11.518830688847189,12.762663122897862,14.203645487634574,15.879167498494809,17.83477092230683,20.12575123195347,22.819195407918336,25.99651999805766,29.756586072530858,34.219474818981425,39.53100390715861,45.868041659316965,53.444619378856785,62.51873007690964,73.01742192222828,85.0142203859379,98.63512995202561,114.01396089583842,131.2650184714142,150.46043616767872,171.6076858838582,194.6268808521236,219.32997791902858,245.40562249831277,272.41406385671826,299.79594195144267,326.8966680820588,353.0049981057186,377.40118482805104
A,912.7440619117565,817.9506171199486,747.1628303138141,691.5614511933999,645.7276006143156,606.3288641187015,571.3151451590135,539.4244894232577,509.8787882931994,482.19622935498154,456.07571286524615,431.3257039017479,407.8205456452879,385.4737451859687,364.2217411958935,344.0141332103973,324.807881647751,306.56393584625226,289.24533575821425,272.8161982081983,257.24122537402195,242.4855138139574,228.5145294965306,215.29416812950714,202.790853226727,190.97164463802062,179.8043425833306,169.25757961949077,159.30089732022307,150.69700823946928,143.7888916729711,138.6768792633489,135.33816735680028,133.7014868419066,133.69364226230934,135.2642214763572,138.39857490435912,143.12448166467706,149.5160355803225,157.6969588342003,167.84469389724921,180.19611966891307,195.0554797902465,212.80501678919524,233.91881590588773,258.9804373561903,288.7050286903882,323.96673926655444,365.8323853282376,415.60240667900325,474.86016580801527,545.5304869426649,629.9478852420186,730.933991273477,848.8378500313498,984.9952914297958,1141.1449802164934,1319.1258431327224,1520.6627076599566,1747.161730375653,1999.4877623451273,2277.7230366241392,2580.925744487007,2906.9219685642083,3252.1731460224987,3611.7597895153344,3979.5081467009495,4348.261773836634,4710.271497640881
IH,0.0,4.5825546494770055,5.828191169571285,5.723553927855563,5.154198937562918,4.49353198535994,3.8831337356582907,3.364129782792992,2.937360243150098,2.5899763227200965,2.3065145693799973,2.073004324037827,1.878094589628805,1.7130112438839502,1.5711354379263067,1.447526003397161,1.3385009837543884,1.2413061165179373,1.1538649450941663,1.0745953577803062,1.0022767070244802,0.9359541163700976,0.8748696175954821,0.818412464575179,0.7660831076112347,0.7174669048957111,0.6722147975946738,0.6300289904480942,0.5906522527829137,0.553859856101827,0.5234307989537663,0.5025475300085281,0.49276627398335415,0.4942799620730164,0.5064846264270733,0.5284952839480617,0.5594982990774731,0.5989549453744735,0.6466999667934002,0.7029784145929393,0.768454049450198,0.8442117982295363,0.9317682122324532,1.0330981574093772,1.1506826804870718,1.287581494455322,1.4475332150113447,1.6350868906073943,1.8557691583353964,2.1162922529105974,2.4248088269616455,2.791219760940206,3.227540327081841,3.74832739836811,4.371164574862073,5.101907999745306,5.946420907310424,6.912669230828927,8.009980382017169,9.247580949483137,10.632960340499235,12.170154645263446,13.857982402071404,15.688332335394774,17.6447027352945,19.70126921918068,21.822771018428867,23.965429461478358,26.07894922550644
IN,22.91277324738503,45.57681197676676,62.78952512901168,76.18433266038008,86.84802495598282,95.51316119542635,102.68060398955068,108.69816294180491,113.81146415804993,118.1971272369095,121.98459492556064,125.27063279529818,128.1290577671407,130.6173355530405,132.78110522428062,134.6573185935843,136.27644476770075,137.6640372586366,138.8418617786948,139.82871795851338,140.64104547625195,141.29337667898147,141.79867873041715,142.16861542653675,142.4137500075755,142.54370420970827,142.56728455543308,142.4925838916471,142.3270640574228,142.07762403628323,141.7705436087033,141.43830091134112,141.11286242164053,140.82292947340636,140.5933906243832,140.4459462335454,140.40020094200779,140.47488295701842,140.6890350200015,141.06313071995004,141.62012879092129,142.38650728494952,143.3933326798843,144.67742473902533,146.28268146393228,148.26163266537137,150.67729700007257,153.60542640833555,157.1372337986168,161.38271411213896,166.47468445400727,172.57368363874258,179.87388138182732,188.6101458084857,199.06639398492493,211.5088704885745,226.21563471604765,243.48692842741377,263.646496099072,287.0374287807182,314.01351972145136,344.9262158718167,380.1071716211399,419.84683238279274,464.37021966049497,513.8119620421808,568.1933546177496,627.4045435636053,691.1946187692954
D,280.0,280.0,280.00458255464946,280.01041074581906,280.0161342997469,280.0212884986845,280.02578203066986,280.0296651644055,280.0330292941883,280.03596665443143,280.03855663075416,280.04086314532356,280.0429361496475,280.0448142442373,280.0465272554811,280.048098390919,280.0495459169224,280.05088441790616,280.05212572402263,280.0532795889678,280.0543541843255,280.05535646103255,280.0562924151489,280.05716728476654,280.05798569723106,280.05875178033875,280.05946924724367,280.0601414620412,280.06077149103163,280.0613621432845,280.0619160031406,280.0624394339395,280.0629419814695,280.06343474774354,280.0639290277056,280.0644355123321,280.064964007616,280.0655235059151,280.06612246086047,280.0667691608272,280.06747213924183,280.0682405932913,280.06908480508946,280.07001657330176,280.07104967145915,280.0722003541397,280.0734879356341,280.07493546884905,280.0765705557397,280.07842632489803,280.0805426171509,280.0829674259779,280.0857586457389,280.08898618606594,280.0927345134643,280.0971056780392,280.10220758603896,280.10815400694617,280.11506667617704,280.1230766565591,280.1323242375085,280.142957197849,280.1551273524943,280.1689853348964,280.18467366723183,280.2023183699671,280.22201963918627,280.24384241020476,280.2678078396662
R,0.0,106.74485588264163,204.96682086711172,295.7391629214628,380.11720160628727,458.9785745105512,533.0067588771082,602.7222606515188,668.5226834174231,730.7179299844189,789.5571797320231,845.2481541311812,897.9702920872235,947.8834970978348,995.1338177088022,1039.857072349319,1082.1811294341917,1122.227325440138,1160.1113408052306,1195.9437416388744,1229.8303203414011,1261.8723190143603,1292.166587655705,1320.8057087243578,1347.8781067429009,1373.4681535312336,1397.6562746855095,1420.5190599039665,1442.129377985718,1462.5564963242534,1481.958635756638,1500.536209656116,1518.5032815757806,1536.0723795410513,1553.4481241594847,1570.8265640209474,1588.397658865695,1606.3494651714593,1624.8732145414347,1644.168907708796,1664.4513257049798,1685.9565341075458,1708.9490666844972,1733.7300509244164,1760.646600315896,1790.1028601975588,1822.5731639932885,1858.6178397259691,1898.9023052962002,1944.2202048858533,1995.521464115287,2053.9462685369467,2120.8660793754816,2197.932857267166,2287.1376099723384,2390.5239446517458,2510.297147267629,2648.871315895567,2808.8823511350834,2993.1755792429967,3204.7687302187055,3446.7880275600155,3722.37512271314,4034.564789443308,4386.13725299343,4779.454062080593,5216.291324328486,5697.687414042998,6223.82263218759
G,55220.0,55221.46887164699,55224.562603412814,55228.52579745134,55232.90070031554,55237.412084594835,55241.89687158801,55246.26088370113,55250.45219258664,55254.44466452885,55258.22779207426,55261.80041034818,55265.166818232916,55268.33439008411,55271.31211186357,55274.10969058748,55276.73701907497,55279.2038605119,55281.519668600275,55283.69349093419,55285.73392307695,55287.649093163396,55289.44666454126,55291.13384875347,55292.71742414043,55294.20375719196,55295.598824924185,55296.908237265394,55298.13725887004,55299.39026388172,55300.730113030564,55302.19423377801,55303.80606748822,55305.582638386295,55307.53968518861,55309.69473434643,55312.06906280444,55314.68905844216,55317.587329189264,55320.80379721137,55324.38693930942,55328.39529110879,55332.89931262303,55337.98370955093,55343.750313174365,55350.32163850537,55357.845262976996,55366.49919446504,55376.49842533905,55388.1028947429,55401.62709778763,55417.45157647751,55436.036484195276,55457.93730354426,55483.44049060804,55512.96147033308,55546.98579279179,55586.0370549241,55630.65146311467,55681.350485244075,55738.60823964049,55802.813279220885,55874.22682769229,55952.94166697215,56038.847457730146,56131.60871115048,56230.66046334945,56335.2239937128,56444.341379980506
H,1017221.7058393685,1017221.7058393686,1017221.7058393686,1017221.7058393685,1017221.7058393686,1017221.7058393685,1017221.7058393685,1017221.7058393685,1017221.7058393686,1017221.7058393686,1017221.7058393685,1017221.7058393686,1017221.7058393686,1017221.7058393686,1017221.7058393686,1017221.7058393685,1017221.7058393685,1017221.7058393685,1017221.7058393685,1017221.7058393684,1017221.7058393684,1017221.7058393685,1017221.7058393686,1017221.7058393685,1017221.7058393686,1017221.7058393686,1017221.7058393686,976532.837605794,935843.969372219,895155.1011386444,854466.2329050696,813777.3646714948,773088.4964379201,732399.6282043454,691710.7599707706,651021.8917371959,610333.0235036212,569644.1552700464,528955.2870364717,488266.41880289686,447577.55056932213,406888.68233574735,366199.8141021726,325510.94586859783,284822.07763502316,244133.2094014484,203444.34116787364,162755.47293429892,122066.60470072416,81377.7364671494,40688.86823357466,2.7557689463719726e-10,2.7557689463719726e-10,2.7557689463719726e-10,2.7557689463719726e-10,2.7557689463719726e-10,2.7557689463719726e-10,2.7557689463719726e-10,2.7557689463719726e-10,2.7557689463719726e-10,2.7557689463719726e-10,2.7557689463719726e-10,2.7557689463719726e-10,2.7557689463719726e-10,2.7557689463719726e-10,2.7557689463719726e-10,2.7557689463719726e-10,2.7557689463719726e-10,2.7557689463719726e-10
S0,46244.40468913725,46106.03693135445,45910.242795198006,45718.45041500855,45529.87746496082,45344.01222132809,45160.509454041174,44979.12753075997,44799.690083885245,44622.06248291436,44446.13730336074,44271.825296086274,44099.049736028464,43927.74285583681,43757.84357065349,43589.29600543291,43422.04852305162,43256.05306632206,43091.26469786223,42927.64126558718,42765.143148756026,42603.73305639205,42443.3758604085,42284.03845233201,42125.68961661427,41968.299916086864,41811.84158671972,54593.54174011212,67281.34679536223,79875.94277045909,92377.94976772575,104786.85082601936,117104.35676443318,129330.79265125573,141466.46564764177,153511.65771873036,165466.6154599097,177331.5385401297,189106.5666237147,200791.76389304534,212387.09994779213,223892.42559301964,235307.44168473684,246631.65869149796,257864.34389605842,269004.4521412401,280050.5346419305,291000.6185428334,301852.047485635,312601.27034751757,323243.5614550055,333772.6510165071,332358.400246147,330906.4918486053,329406.1760007832,327845.6678679459,326211.42359545827,324487.8951645822,322657.5585472322,320701.20861538535,318598.55990754906,316329.1774507681,313873.7097518782,311215.3221197787,308341.1563350326,305243.60213356075,301921.1795839289,298378.9004110439,294628.077628246
E0,44.50498159641365,65.72866989099127,76.19594419193128,80.25654957190665,80.57727673047363,78.76690851099715,75.79285133008398,72.23347646798473,68.43135481641872,64.58642043516716,60.81261766551206,57.172315364897045,53.697177041077694,50.400782305931926,47.286230001313186,44.35069391071006,41.588132898497975,38.99088743878739,36.55060744733323,34.258781102094375,32.10702751791365,30.087251157246342,28.191716439310582,26.413077188183717,24.744381234966845,23.179061928640067,21.71092323594236,20.334122134076548,20.67638198941988,22.047954803396195,24.02629758105347,26.378512177690844,28.996619392581568,31.856838650735487,34.98535972195823,38.43981835389109,42.2991700714532,46.659322088753086,51.63260118713133,57.34979215380025,63.96400559614325,71.65601975205486,80.64101117936488,91.17677408021514,103.57365389137101,118.20650536485283,135.52903558759107,156.09090266908518,180.55789025717363,209.73532526764762,244.59458130683907,286.30190362408575,336.24774154919453,390.25054805371167,450.2148152031727,517.1322196209206,591.4959303885548,673.4064159497746,762.5480147384775,858.1165317298378,958.7438434511846,1062.4553605325927,1166.6914664430187,1268.4148496161545,1364.3079789850476,1451.0411027385976,1525.5689167122662,1585.402898382875,1628.8115028599386
I0,114.56386623692514,88.53740998705648,69.45778378702451,55.30273667176053,44.678919751446784,36.615404381828604,30.42738211901042,25.6263274624742,21.860049977479544,18.872191368361666,16.47451808545681,14.527733324907846,12.9280299785232,11.597559687286342,10.477605888775285,9.523646271761413,8.701750601404756,7.985932513618487,7.356189571672779,6.797044331987542,6.2964530076760274,5.844985712465352,5.435208542349211,5.061216420093348,4.718279028984026,4.402571874369735,4.110971610251571,3.8408999957185768,3.5902047207158674,3.410972480802852,3.3200242685787367,3.316198151853926,3.390924338810731,3.534125971197661,3.737359767025647,3.995073216349171,4.304948659684502,4.667830575832657,5.087526153376274,5.570636162514624,6.12649369562608,6.767245265979421,7.508088747371806,8.367676352348646,9.368692171631519,10.538618958823218,11.910715559131734,13.52523314164283,15.430903872166443,17.686738157570645,20.364163445606234,23.549524449142073,27.346934674249585,31.88141168858089,37.10995831865431,43.06275381977543,49.795464372664824,57.36667315099161,65.82421929325577,75.19404224303821,85.4693137966023,96.59969007332465,108.48173907930033,120.95237323381276,133.78740054943697,146.70694114117993,159.38838898042954,171.48605426639799,182.65507991847352
A0,912.7440619117565,817.9506171199486,739.7981874273875,673.5167300449997,616.0365302774607,565.3472762425675,520.096245720798,479.34292939853583,442.4086375655769,408.78394762516353,378.07144788805624,349.9500573167193,324.1525576240026,300.4512347010105,278.64851419551667,258.57068895939284,240.0635762916096,222.98939451723447,207.2244238079689,192.65718390613745,179.1869635205961,166.72259826753427,155.18143179993984,144.48841776785753,134.57533430255197,125.38009136234973,116.84611666296325,108.92180933752584,101.5600527119901,95.14724075005164,89.84331351984115,85.67844123196944,82.61803288444537,80.60314009193824,79.57543923110909,79.49029835041867,80.32344845333795,82.074213691814,84.7672160731096,88.45374134421775,93.213481520795,99.15709115300689,106.42984997430341,115.21666805244156,125.74866824341997,138.31161268331493,153.25649050534463,171.01264174179192,192.10384610524895,217.16783951167733,246.97971121685362,282.4795401776946,324.8043864700296,375.32426307268537,434.14978773318603,501.8794617774808,579.3027186799447,667.246563112863,766.4679258150722,877.5524173561344,1000.8058563585131,1136.1386285997303,1282.9523534227349,1440.045410914736,1605.5577150827778,1776.973857320943,1951.1963539326264,2124.688356925439,2293.671324541902
IH0,0.0,4.5825546494770055,5.828191169571285,5.6865787450970515,5.04971226067385,4.306963208134123,3.613790816132071,3.0203769020103204,2.532221172602118,2.137980364227639,1.8217398564840583,1.5680289118038175,1.3635557599864188,1.197535523374151,1.0614726136551549,0.9487790697649336,0.8543866066831585,0.7744089407910864,0.7058673619994916,0.6464753965046575,0.5944729961353258,0.5485001453785686,0.5075010010425198,0.47065134121418584,0.4373036760696126,0.4069456955180977,0.3791687770383202,0.3536440841521846,0.33010439782068324,0.30833028334115564,0.2902957106193508,0.2776585303422055,0.2711995327149176,0.27096554037717313,0.27657684349611583,0.2875062355855877,0.3032685402111751,0.32352894795275644,0.3481541680617317,0.3772299759978551,0.4110632045235147,0.45018028688227707,0.4953297737934331,0.5474931070177954,0.6079061144958258,0.6780928379986778,0.759913084514269,0.8556252515378896,0.9679663261831202,1.1002513516520347,1.2564949507771912,1.441557518262068,1.6613181795784548,1.9228751585796324,2.2347711716744723,2.599549147411734,3.0196851773494724,3.4986414784039797,4.04048902376325,4.649172794588093,5.327698914220987,6.077294310060364,6.896557463653108,7.780651737534914,8.720640146382433,9.703095455022313,10.71012227770333,11.719886575791143,12.7076655719757
IN0,22.91277324738503,45.57681197676676,62.78952512901168,75.99945674658753,86.23497569881081,94.23461739849255,100.53471420022149,105.52881449904731,109.50848934101386,112.69170647327073,115.24279578826577,117.28665655016641,118.91897279165254,120.21362840525299,121.22813554927174,122.00763873397452,122.58788793147998,122.99745897545867,123.2594202156803,123.3925890911563,123.41248327544217,123.33204322928681,123.16218295824096,122.91221120772903,122.59015465464866,122.2030067772443,121.75692023562902,121.2573562291963,120.70920102393761,120.1168573799263,119.49509760124256,118.86189782657517,118.23480666435088,117.62946826195515,117.05934156673014,116.53605076313438,116.06998334481294,115.67095050985183,115.34882584453486,115.11413718803146,114.97861824633775,114.95574196616663,115.06126433842577,115.31380988624798,115.73553139277482,116.35287797500953,117.1975081766208,118.3073886342167,119.72812406326612,121.51457054064248,123.73279072269987,126.46241559802559,129.79948064652677,133.85980151560153,138.7829401046098,144.69834383412194,151.74009073156722,160.05193654777216,169.7877930969509,181.10946919834979,194.18220500963383,209.1680812477941,226.21735035175521,245.45794726412535,266.9838005861957,290.84298085972114,317.0270608093951,345.4631834382808,376.0101447040204
D0,280.0,280.0,280.00458255464946,280.01041074581906,280.01609732456416,280.02114703682486,280.025454000033,280.0290677908491,280.0320881677511,280.0346203889237,280.03675836928795,280.03858010914445,280.0401481380562,280.04151169381623,280.0427092293396,280.04377070195324,280.044719481023,280.0455738676297,280.0463482765705,280.0470541439325,280.04770061932896,280.0482950923251,280.04884359247046,280.0493510934715,280.04982174481273,280.0502590484888,280.0506659941843,280.0510451629614,280.05139880704553,280.0517289114434,280.05203724172674,280.05232753743735,280.0526051959677,280.05287639550045,280.0531473610408,280.0534239378843,280.05371144411987,280.0540147126601,280.05433824160804,280.0546863957761,280.0550636257521,280.0554746889566,280.0559248692435,280.0564201990173,280.0569676921243,280.0575755982388,280.0582536910768,280.0590136041613,280.0598692294128,280.060837195739,280.06193744709066,280.06319394204144,280.0646354995597,280.06629681773927,280.06821969289786,280.07045446406954,280.07305401321696,280.0760736983943,280.0795723398727,280.08361282889643,280.088262001691,280.09358970060526,280.0996669949153,280.106563552379,280.11434420411655,280.12306484426296,280.13276793971795,280.14347806199567,280.15519794857147
R0,0.0,106.74485588264163,204.96682086711172,294.87987943185306,377.13202195965846,452.47023524799715,521.6096522690424,585.1911264838566,643.7751388270137,697.8488979065377,747.8368690594648,794.1109754784926,836.9992981273847,876.7931326096408,913.7526151825958,948.1112062877321,980.0792948553499,1009.8471342095675,1037.5872688090353,1063.4565689382985,1087.5979587540721,1110.1419001660681,1131.2076787791163,1150.9045266718201,1169.3326086915972,1186.5838931620715,1202.7429236992264,1217.8875057221762,1232.089318889318,1245.4144648673268,1257.9740666393716,1269.8990558442172,1281.3249083555738,1292.383644975048,1303.200601830795,1313.8942662846505,1324.5777807675697,1335.3613262553702,1346.3549439708856,1357.6715884951768,1369.430355444745,1381.7599194452785,1394.8022754242463,1408.7169144117609,1423.6855950694776,1439.9179011490094,1457.657807378859,1477.1915143810197,1498.8568581828438,1523.054651355069,1550.262368523263,1581.0506437710044,1616.103091301866,1656.2399760279118,1702.4462180625956,1755.725430454351,1817.1537342222186,1887.9020525715878,1969.2410927052952,2062.533584445774,2169.2143138653423,2290.7570458579453,2428.6274623760737,2584.2223585276656,2758.797298675287,2953.387369337042,3168.727975247544,3405.184077258076,3662.6962599281505
G0,55220.0,55221.46887164699,55223.63822384385,55226.153044837476,55228.801884718385,55231.461310089115,55234.060984877935,55236.56250192996,55238.94654303596,55241.20509642144,55243.33674906695,55245.34384864691,55247.2308012985,55249.00305820211,55250.666518728554,55252.22718452485,55253.690963959714,55255.063566016266,55256.35044687759,55257.5567871351,55258.687486450464,55259.747167877096,55260.740187277974,55261.67064520588,55262.54239975559,55263.359079567934,55264.12409655366,55264.84065812559,55265.51177884956,55266.194195742624,55266.921880925795,55267.71486063353,55268.58547437693,55269.542497850634,55270.59392187955,55271.74860167295,55273.01729468821,55274.41336428268,55275.95333919842,55277.65745548437,55279.55026569648,55281.661375753785,55284.026358099014,55286.68788700336,55289.697145147205,55293.115558055586,55297.016923206014,55301.490012522714,55306.64173920723,55312.60099042195,55319.5232328678,55327.595993098286,55337.045289191185,55348.14303052734,55361.02311596267,55375.88230146027,55392.9500729299,55412.47219315767,55434.69774085617,55459.86537643633,55488.18721812822,55519.83022971613,55554.896204339704,55593.40245587325,55635.266052764986,55680.29456948859,55728.18568320173,55778.536561843,55830.86224051901
H0,356027.597043779,355226.5349504305,353947.719424609,352673.50763468037,351403.88300719555,350138.8290283696,348878.3292438675,347622.36725858954,346370.9267364586,345123.99140020733,343881.5450311666,342643.5714690544,341410.0546117658,340180.9784151634,338956.32689286885,337736.0841160545,336520.2342132367,335308.76137006906,334101.6498291368,332898.8838897519,331700.4479077488,330506.3262952809,329316.5035206179,328130.9641079437,326949.6926371551,325772.6737436614,324599.8921181842,310494.07920629636,296485.6213327723,282574.0003526711,268758.7005899741,255039.208826524,241415.0142910111,227885.60864800747,214450.48598704828,201109.14281175993,187861.07802903524,174705.79293825533,161642.79122055776,148671.57892815114,135791.66447367563,123002.55861960945,110303.77446772097,97694.82744856637,85175.2353110326,72744.51811192532,60402.19820560199,48147.800233649454,35980.85111460623,23900.88003372909,11907.41843280382,7.974740583449602e-11,7.946031517349184e-11,7.917425803886726e-11,7.888923070992734e-11,7.86052294793716e-11,7.832225065324587e-11,7.804029055089418e-11,7.775934550491096e-11,7.747941186109328e-11,7.720048597839334e-11,7.692256422887113e-11,7.664564299764719e-11,7.636971868285566e-11,7.609478769559738e-11,7.582084645989323e-11,7.554789141263762e-11,7.527591900355212e-11,7.500492569513933e-11
S1,13212.687054039216,12363.770947474464,11639.06820641304,10966.622711235043,10342.430231278633,9762.865139165158,9224.616823691335,8724.646008179723,8260.15290122996,7828.552623919603,7427.455295045657,7054.649242394744,6708.086425477495,6385.869510136775,6086.240241788345,5807.568885470408,5548.344573381032,5307.166444702742,5082.735490035126,4873.847030481548,4679.383773312681,4498.309394461933,4329.662604249145,4172.551657479644,4026.149272903988,3889.6879302384605,3762.4555157150044,4775.448781191254,5727.741463642762,6625.630530153406,7474.796712406189,8280.275884481265,9046.779560725177,9778.448105135989,10479.006101774949,11151.800072326047,11799.83269413342,12425.793919484695,13032.089242066699,13620.865285933334,14194.032856197486,14753.287562573429,15300.128094803616,15835.872187764722,16361.670260817207,16878.516647850054,17387.258247590005,17888.600313021478,18383.108958292796,18871.20978557155,19353.181819772206,19829.14568984117,19601.816889349673,19383.215949702935,19171.97653730049,18966.737620792188,18766.097616614898,18568.597474700062,18372.719737968935,18176.902635037073,17979.571002962988,17779.18504338842,17574.305066428547,17363.66638987293,17146.254763144672,16921.370689321804,16688.67199617863,16448.187941493787,16200.303709898466
E1,0.0,9.827210432686128,14.942144185470992,17.266358800906545,17.930773190342904,17.629903266673917,16.79102125238311,15.676461099122626,14.446114321725169,13.195951991648778,11.981963212132118,10.83513911525357,9.770910119616989,8.795118678844615,7.907811235968961,7.105647688374732,6.383428983072656,5.735059314521228,5.154144506509164,4.634355875048011,4.169643018395016,3.7543496683980138,3.3832678600917565,3.0516534366767964,2.7552179228509623,2.4901065645067275,2.2528688864945376,2.040425845116864,1.9928994641046462,2.0407956400136937,2.142172278308768,2.2738808867429325,2.424696349567047,2.59102858874518,2.773588809321397,2.9755874771788484,3.201747065229718,3.4578427832377434,3.7505734014308425,4.087636309597914,4.477933647288824,4.931872321742625,5.461744150750798,6.082187162071152,6.810738281501825,7.668493226230395,8.680892357626673,9.878651549205,11.298853794680104,12.986208107110077,14.994463425300932,17.387930760411543,20.243007912923705,23.306106050880118,26.68636224666183,30.438079928080526,34.586137329303966,39.13282216450661,44.05702492999556,49.31060749867598,54.81462557808764,60.45741715921211,66.09624642428096,71.56364247415729,76.6785756241536,81.26130501855971,85.14954527112305,88.21304622174577,90.36402606377621
I1,0.0,0.0,0.3243437084079902,0.7396615602672596,1.1320130335757828,1.452128922239041,1.685486889027228,1.8351519307426643,1.9121116870170896,1.9299939285555345,1.9023232533775996,1.841226257119533,1.7569420041454205,1.6577614590434857,1.550178583077912,1.4391303196458314,1.3282585067883055,1.2201593484565354,1.1166047696831352,1.0187303959010148,0.9271904263956519,0.8422823611905097,0.7640456171138432,0.6923382638584104,0.6268958551233615,0.5673758720641692,0.5133907755223206,0.4645321539889658,0.4203879919366266,0.38526983687884264,0.36016083588661846,0.3444238962949979,0.33681081963473913,0.3360024939754916,0.34087790495644427,0.35060855474183084,0.3646707453013637,0.38282232973011104,0.40506988519698084,0.43163950096322645,0.46295705457624653,0.49964002503339583,0.54250117277526,0.5925638829653103,0.6510890514113159,0.7196137591458605,0.8000024446610989,0.8945117316089558,1.0058704208309717,1.1373763124503162,1.2930113401959769,1.4775757389848838,1.6968402502107405,1.9577121205239698,2.2570712449918093,2.5961483754920693,2.9776711494541606,3.4045336689068963,3.879010956613539,4.4021353179479,4.973102522626517,5.588695826348755,6.242785137152066,6.926000638455131,7.625693950092925,8.326277480512017,9.009972374861952,9.657910529966658,10.251453325569859
A1,0.0,0.0,2.5840852233076395,6.211649832770441,10.027118573528025,13.572119491516531,16.624386427839394,19.099938654505255,20.993575304994756,22.342746136757984,23.205767177619,23.648872773744866,23.73871843703392,23.538239983159148,23.10456635894643,22.488173096741196,21.73276811483994,20.875592526693495,19.947939364532676,18.975769125692594,17.980349177414837,16.978874511472636,15.985046534438329,15.009598570520252,14.060764127438931,13.144688389581718,12.265785924916816,11.427048913886987,10.630310777800979,9.914036394839709,9.293929063916178,8.772831112016856,8.347166288595703,8.010823941525695,7.757462372037435,7.581666823763261,7.479498515783106,7.448720015789683,7.488873551378818,7.601316217026344,7.789270810169174,8.05792493825212,8.414597452606719,8.868985422694639,9.43350359380006,10.123729568327976,10.958970565056742,11.962970692304705,13.164780472324548,14.59981195289841,16.311101741935765,18.350798464747335,20.781876921042976,23.680053166921866,27.045527240304313,30.907173657272278,35.30477714389933,40.280022251812,45.87033146872893,52.103210156115644,58.99029641625579,66.5211118897763,74.65703904424177,83.32643344281587,92.42197307954274,101.8012558158984,111.29123132113466,120.69636695910127,129.80969468199478
IH1,0.0,0.0,0.0,0.012973748336319608,0.036060362830513865,0.06327464239545773,0.08965920344489504,0.11215941808009175,0.12937362685167236,0.1410419072796681,0.14757966887477575,0.1497351849036171,0.14836690755168624,0.14431276703410825,0.13832252911175946,0.13103008534988445,0.1229492253754256,0.1144820037338696,0.10593289380146236,0.09752470479425512,0.0894140435283739,0.08170522477648465,0.07446220161108623,0.06771846328848576,0.061485043735290804,0.05575687102884458,0.05051771352596021,0.04574397007034697,0.041407527224661775,0.03747787576257129,0.03411225348067678,0.03142844792232245,0.029459751365038825,0.02817284871654394,0.02749835126857509,0.027356793481276738,0.027675382136830327,0.02839684549833288,0.029482919092872546,0.030914772035222634,0.032692051284105156,0.03483161577381833,0.03736657727247118,0.04034596896997352,0.043835193834629194,0.0479173237799326,0.052695294932020784,0.05829504995752233,0.06486969919316188,0.07260479673062664,0.08172484606659534,0.09250115179507015,0.10526110430513536,0.12039890105669215,0.1383875364482482,0.15933823048734821,0.18335571203286954,0.21060134628256832,0.24127141855127746,0.275554876121629,0.3135872959026089,0.3554041615604625,0.40089450967262097,0.44975776581272053,0.5014691506787528,0.5552608641924146,0.6101262704524956,0.6648519039502734,0.7180775212698527
IN1,0.0,0.0,0.0,0.06486874168159805,0.212096857214557,0.43619700106414594,0.7218875555315958,1.0511483283464946,1.4067677486560901,1.7739186174281636,2.140660249606648,2.4978865044037692,2.8390154138209,3.1595842746957254,3.4568370226136844,3.7293463044606656,3.9766876507394597,4.19916956748062,4.3976164524516435,4.5731981389999925,4.727298886183226,4.8614187657952845,4.977101065284121,5.075880201975869,5.159245549939249,5.228617425763581,5.285332223718303,5.3306343227269,5.365672910789131,5.3915022975427656,5.410027656844171,5.423330109941023,5.433340767490514,5.4417201368705985,5.44984687707963,5.45886047791573,5.469722359634278,5.483278765981074,5.500318324740681,5.521622418013598,5.54800916329181,5.580372972327102,5.619722043192372,5.667216181338493,5.7242072787325275,5.79228473075026,5.873328094952035,5.969569412656921,6.083667819511722,6.218799344514935,6.378765098626582,6.568121315778237,6.792334815711453,7.057967220213802,7.372890369312099,7.74426662760101,8.179426757467699,8.686167468123832,9.272779650339908,9.947919195898368,10.720354491769047,11.598597891762104,12.590425993147404,13.702304954284859,14.938756775450958,16.301724691346557,17.79001332316128,19.398884497805383,21.119877857806834
D1,0.0,0.0,0.0,0.0,1.2973748336319608e-05,4.9034111166833475e-05,0.0001123087535622912,0.00020196795700718625,0.000314127375087278,0.00044350100193895036,0.0005845429092186184,0.0007321225780933942,0.0008818577629970113,0.0010302246705486975,0.0011745374375828057,0.001312859966694565,0.0014438900520444495,0.001566839277419875,0.0016813212811537448,0.001787254174955207,0.0018847788797494622,0.001974192923277836,0.002055898148054321,0.0021303603496654073,0.002198078812953893,0.002259563856689184,0.0023153207277180287,0.0023658384412439887,0.0024115824113143357,0.0024529899385389974,0.0024904678143015686,0.0025245800677822453,0.002556008515704568,0.0025854682670696065,0.0026136411157861505,0.0026411394670547254,0.0026684962605360023,0.0026961716426728327,0.0027245684881711655,0.002754051407264038,0.0027849661792992606,0.0028176582305833656,0.0028524898463571837,0.002889856423629655,0.0029302023925996284,0.0029740375864342576,0.0030219549102141904,0.003074650205146211,0.0031329452551037335,0.0031978149542968956,0.0032704197510275224,0.0033521445970941177,0.0034446457488891877,0.003549906853194323,0.0036703057542510154,0.0038086932906992634,0.0039680315211866116,0.004151387233219481,0.0043619885795020494,0.004603259998053327,0.004878814874174956,0.0051924021700775645,0.005547806331638027,0.005948700841310647,0.006398458607123368,0.006899927757802121,0.0074551886219945355,0.008065314892447032,0.008730166796397305
R1,0.0,0.0,0.0,0.3015029788104441,1.0334499170747233,2.2237153838243495,3.8436403730391757,5.83598797403441,8.131999731534242,10.6614226958109,13.35808251658855,16.16268705535057,19.023947472829555,21.89870986046493,24.75153398303371,27.553990195917233,30.283839632529002,32.924195416330626,35.46272022370779,37.8908890902524,40.20333014514515,42.39724625796425,44.471914997865596,46.42826130127894,48.268495837144506,49.99581161950503,51.614131545880234,53.12789998346082,54.541912125733475,55.86117550258461,57.095181796209445,58.25535420150932,59.3535290330345,60.401162949334996,61.409001005636945,62.38702859956983,63.3445719891374,64.29047190800387,65.23328858394409,66.18151826216243,67.1438145964188,68.1292159711237,69.14738418343882,70.20886247179433,71.32536260545665,72.51009224456583,73.77813538515029,75.1469006011202,76.63665405639003,78.2711568609029,80.07842914664944,82.09166593790147,84.35033191084067,86.90146248567159,89.801195724946,93.1060149826592,96.87590596358766,101.17562827495905,106.07497046850872,111.64827558095025,117.97328432804336,125.1292582984666,133.19434664822464,142.24222169926975,152.33811643237803,163.53452853234973,175.86697784316902,189.35027694302426,203.97576610488986
G1,0.0,0.0,0.3243437084079902,0.8175040502851771,1.3873742980578427,1.9791733147792887,2.5610422229048457,3.1152241179868168,3.6326203376394814,4.109409384062028,4.544937251737421,4.9403978362899785,5.298007885024554,5.62049342091752,5.910773295122383,6.171767891629002,6.406287355486476,6.616970238783899,6.806253903640067,6.976364674581899,7.12932000009278,7.266937637222594,7.39084865983165,7.502512254683539,7.603231029274509,7.694166051444924,7.776351164198476,7.850706328790478,7.918049883695491,7.983824846702498,8.051180606561196,8.121882267582365,8.196930926032906,8.276957197085995,8.362473206621067,8.454014553596,8.552222797293572,8.657895360594647,8.772020275196743,8.895806663410264,9.030717697254458,9.178510360809906,9.341285114559785,9.521548106215898,9.722288606573578,9.947074686646838,10.200170674357082,10.486680548023603,10.812722052831768,11.185636845450546,11.614242188184281,12.109129308620222,12.68301199720245,13.351125527566257,14.12033556095985,15.001109790258145,16.005708174338334,17.147211769660068,18.438777137904367,19.892864128825977,21.52034380981209,23.329481718964693,25.324858028091707,27.506341962311268,29.868275427178293,32.39902550561969,35.08102699529251,37.891358520364086,40.802799843159285
H1,101722.17058393687,95257.3633498613,89732.08149354991,84596.85889108208,79823.85074063251,75387.20109512752,71262.90080140626,67428.65558658374,63863.763566815825,60549.00150543737,57466.5191955183,54599.74138652205,51933.27671620193,49452.83314736129,47145.13944484436,44997.87226131266,42999.58843117955,41139.66210069152,39408.22634871724,37796.11897747948,36294.83217537691,34896.46577531789,33593.68385174391,32379.674417864997,31248.112001663238,30193.122895038192,29209.252885155503,27159.779799070493,25240.175287315527,23439.234127658445,21746.711814363713,20153.2443603036,18650.274654883102,17229.984850403955,15885.234291384471,14609.502539949268,13396.837085963383,12241.805363345826,11139.450724176477,10085.252050009469,9075.086705411435,8105.1965623260985,7172.156845585773,6272.8475698913135,5404.427356999676,4564.309438816643,3750.1396677057965,2959.776369699296,2191.271889528577,1442.8556885736973,712.918868041357,4.835601430386305e-12,4.777291989220039e-12,4.7221139817574644e-12,4.669847454857567e-12,4.620288152923479e-12,4.5732463966975404e-12,4.528546042142259e-12,4.486023513686745e-12,4.4455269065268e-12,4.4069151530462505e-12,4.370057248779449e-12,4.3348315336619956e-12,4.301125024620526e-12,4.268832795834483e-12,4.2378574032647425e-12,4.208108350287163e-12,4.1795015914950035e-12,4.151959071943862e-12
S2,13212.687054039216,13995.056000997909,14707.86074204672,15360.69897894703,15957.954066245222,16503.69471438812,17001.69697585897,17455.464598655348,17868.24806535371,18243.06245352143,18582.704180240038,18889.76667053554,19166.654987170758,19415.599463731807,19638.66838826313,19837.779788667696,20014.712373185237,20171.115679669325,20308.51948649198,20428.34253610914,20531.900619953776,20620.414070637813,20695.0147046193,20756.75225564936,20806.600336533906,20845.461964076138,20874.1746795351,27358.150092760505,33840.92684145401,40315.72162821899,46776.46325980691,53217.35699557496,59633.97855310556,66021.9807110204,72377.50758963218,78697.14568827841,84977.87836839083,91217.04393757581,97412.29694461219,103561.57207488998,109663.04995774687,115715.12414930487,121716.36847708325,127665.50379478902,133561.36297646302,139402.85265688368,145188.90977138086,150918.45032548378,156590.30698695933,162203.15098920444,167755.39242206136,173245.05125244855,172546.63105908188,171828.38785608122,171087.86672016483,170322.1052033355,169527.4056195073,168699.24204179976,167832.24508687307,166920.2694244096,165956.5633271258,164934.05529624628,163845.75603457555,162685.24863796256,161447.2130187318,160127.912415324,158725.56915967003,157240.57584612415,155675.5203672462
E2,0.0,3.4395236514401444,5.600263400542625,6.9266584540180824,7.70754567441076,8.129791552790039,8.31448802408822,8.340440403766664,8.259320261311691,8.105390794519515,7.901721787552464,7.664148066805189,7.403785552078203,7.128629880459547,6.844574041654102,6.556059402915764,6.266495998248143,5.978537772557,5.694266573151177,5.4153185156972885,5.142973671134522,4.878222087688872,4.62181422576623,4.374300827356013,4.136065358894207,3.907351012011941,3.6882835411619563,3.4788907868559553,3.5648414604992875,3.8285113500505887,4.19764007761158,4.632401359912061,5.114476826951979,5.640151638080525,6.214443923400692,6.847918860700916,7.55494504891691,8.352948784206047,9.262338935952322,10.306885296965111,11.51442275830431,12.9178203557184,14.556201458499189,16.476433997521504,18.73493207173231,21.399825539141226,24.55356345567797,28.296019460331575,32.748158696849366,38.05629925593317,44.39694397145929,51.98205118146954,61.06442695769343,70.88697589447673,81.79640407643524,93.97435602517382,107.51281037471344,122.4335201080303,138.68399187959568,156.12451599572702,174.51451264630518,193.50460448254591,212.63997593091423,231.3789581616804,249.12766199663454,265.28725878702716,279.30656227935344,290.7305632226376,299.2364498118552
I2,0.0,0.0,0.11352029794279656,0.2711101984031461,0.4346557363788986,0.5847232600106835,0.7127106583052968,0.8160769246711512,0.8954918364956796,0.9531698270146238,0.9919247105739867,1.0146563963872797,1.0240914384686644,1.0226688949878133,1.0125063434122972,0.9954076387206704,0.9728902964989226,0.9462201755946404,0.9164469212729801,0.884436974591563,0.8509028301903724,0.8164282322979238,0.781489502729882,0.7464734147543497,0.7116920931054744,0.6773954087593527,0.643781290114159,0.6110043132350699,0.5791828747981554,0.5578353540782128,0.5503135725650063,0.5567799856122814,0.5760436064747877,0.606594693709702,0.6471632367794384,0.6969496493376552,0.7556949458289048,0.8236765279087515,0.901680369760769,0.9909773994957796,1.093318036333765,1.2109512799106057,1.346671201196392,1.5038925475078164,1.6867573867827148,1.9002756186327225,2.150503369349501,2.444764497715665,2.7919214315920877,3.202702029216725,3.6900886412292193,4.269773269585947,4.960677447993458,5.785525319723074,6.736599559572756,7.819477915749544,9.044394592000293,10.422163306428672,11.961720434532692,13.668125096833238,15.540611154423527,17.570656087649418,19.74025170205587,22.02070073790932,24.37231568394502,26.74533292305082,29.08216797214023,31.3208649108942,33.39931981566505
A2,0.0,0.0,0.9044298281576738,2.271504580998035,3.8278516401014144,5.4079448967331825,6.914708239325602,8.294233466968741,9.519624238974984,10.580709541154022,11.477514659857041,12.216128178362691,12.806092083316269,13.258757986221907,13.58625549731022,13.800848555621092,13.91453804882527,13.938821314032783,13.884552075311364,13.761865104201096,13.580142898792543,13.348009833944756,13.073344354662161,12.763303008745392,12.424352159129418,12.062304527042937,11.682358571328713,11.289139278308946,10.886739326092238,10.553891047935288,10.329211005972857,10.227809087497548,10.25255980221649,10.401185417918047,10.670697136058317,11.059774409402076,11.57002890329321,12.20666249168941,12.978852390636154,13.9000716015627,14.988471454220932,16.26740467993156,17.766142267037278,19.520827527076985,21.57571070203614,23.98471325762286,26.813380158118335,30.14128893551552,34.064994243426355,38.70159307426509,44.19299455304774,50.710962075777886,58.46295310435957,67.69869549036986,78.4396998247848,90.79613398914975,104.91307562235232,120.94286112954548,139.02577277243253,159.27192188401258,181.74183539976636,206.4257172051516,233.22304467218373,261.92542914680274,292.20636317670767,323.6212707949815,355.61998454101433,387.5715932115675,418.79915272893436
IH2,0.0,0.0,0.0,0.004540811917711863,0.013110273083064065,0.02392825572360491,0.03532913000650619,0.046137662205458466,0.05566577042736982,0.06359689290308473,0.06986164263922423,0.07453794809993236,0.07778069195735743,0.07977622282546792,0.08071509098942103,0.08077708414021298,0.08012407053479309,0.07889752305681866,0.07721867102913813,0.07518999369445913,0.07289728583719762,0.07041185884037651,0.06779264685326483,0.06508811088897443,0.062337903923772225,0.05957429778218132,0.056823390943682585,0.05410612368546397,0.05143912824844932,0.04883543998790243,0.04668229871709183,0.045307009962429076,0.04487939739574337,0.04543656355946745,0.04693663296456234,0.04930790932049414,0.052482632724432786,0.05641663156264816,0.06109896026611149,0.06655559596322039,0.07285033836547816,0.0800850402977242,0.0884004863049886,0.097978690714045,0.10904706856662111,0.12188478268605252,0.13683153130564912,0.15429906889549894,0.17478581528748055,0.1988949790921363,0.22735667573564503,0.26105452684125563,0.3010571396772245,0.3486546106186733,0.4053996634876409,0.47175841446324307,0.5481865654471401,0.6353208798381347,0.7339116512963761,0.8446907313781994,0.968225678831051,1.1047690599136355,1.254106004402881,1.4154089642792722,1.5871171026917295,1.7668640616009736,1.9514784836609187,2.137074482232408,2.3192347630697396
IN2,0.0,0.0,0.0,0.02270405958855931,0.07667963048701601,0.1627783656089315,0.2779559421953622,0.41748066358654057,0.576163997751022,0.7490076933557219,0.9315106453026978,1.1197833740737548,1.310558605071454,1.501149843100445,1.689387568423365,1.8735493284825941,2.05229214016892,2.224591102531143,2.3896856124193944,2.5470332526272554,2.6962707824860037,2.8371814034918,2.969667419489107,3.0937274592470616,3.209437521074114,3.3169352032096264,3.4164065843610185,3.5080753088980776,3.592193508584265,3.6690342574478896,3.7407713409586116,3.8102253108902446,3.8802185909833957,3.95330476820413,4.031707760219648,4.117373340375025,4.212066241986726,4.317480243819597,4.435346217791401,4.56753344080575,4.716145083052587,4.8836115671513465,5.072786731675286,5.287052248935746,5.530436030239258,5.807750674625938,6.12475851685847,6.488370562698535,6.906887565760924,7.39029265462368,7.950606155521729,8.602314375591675,9.362884763151243,10.253379451632656,11.299176758621321,12.52383603689955,13.951776435290407,15.6091988560656,17.524182515610608,19.726289085462348,22.24577114820431,25.112399645248146,28.353917829243134,31.994166141125675,36.05098676487214,40.53409069255594,45.44313077307345,50.76624672727691,56.47931584375557
D2,0.0,0.0,0.0,0.0,4.540811917711863e-06,1.765108500077593e-05,4.157934072438084e-05,7.690847073088704e-05,0.0001230461329363455,0.00017871190336371534,0.00024230879626680008,0.00031217043890602433,0.0003867083870059567,0.00046448907896331414,0.0005442653017887821,0.0006249803927782031,0.0007057574769184161,0.0007858815474532092,0.0008647790705100278,0.000941997741539166,0.0010171877352336252,0.0010900850210708228,0.0011604968799111993,0.0012282895267644641,0.0012933776376534386,0.0013557155415772108,0.001415289839359392,0.0014721132303030745,0.0015262193539885385,0.0015776584822369878,0.0016264939222248901,0.001673176220941982,0.001718483230904411,0.0017633626283001544,0.0018087991918596218,0.001855735824824184,0.0019050437341446781,0.001957526366869111,0.002013942998431759,0.0020750419586978703,0.002141597554661091,0.002214447893026569,0.002294532933324293,0.0023829334196292817,0.0024809121103433265,0.002589959178909948,0.002711843961596,0.0028486754929016493,0.003002974561797148,0.0031777603770846287,0.003376655356176765,0.00360401203191241,0.0038650665587536656,0.00416612369843089,0.004514778309049563,0.004920177972537204,0.005391936387000447,0.005940122952447587,0.0065754438322857215,0.007309355483582098,0.008154046214960298,0.00912227189379135,0.010227040953704985,0.011481146958107865,0.012896555922387138,0.014483673025078867,0.01625053708667984,0.01820201557034076,0.02033909005257317
R2,0.0,0.0,0.0,0.10552604258365542,0.3730749647878271,0.8270842663284165,1.4717975598640523,2.299266057871615,3.2946121498031484,4.4394196780646915,5.713873222476897,7.09807675698552,8.572841393537427,10.120133545963252,11.723308109090127,13.367206946172303,15.038174033892789,16.724019930047486,18.413956276163628,20.09851345010471,21.7694496744632,23.41965684650827,25.043066430772765,26.634557530615773,28.189868468623335,29.70551269388094,31.17869949523972,32.60725977072072,33.989576945236436,35.32452301776681,36.62016571169091,37.88929562793525,39.146660613667216,40.40745945611452,41.68667145611847,42.99893039532764,44.35870125268501,45.78062232869243,47.27993516360094,48.87296538358257,50.57764388336203,52.414074129298164,54.40516162176042,56.57732848118392,58.96134163414104,61.59328842036443,64.51573939310835,67.77914509035931,71.44352180869431,75.58049086009997,80.27574604556257,85.63203422571154,91.7727421468332,98.84618596804015,107.03069300551105,116.5081522255514,127.47379544988405,140.1402746434722,154.73861871761093,171.51690424575617,190.73674208601935,212.66741738273225,237.57752176819275,265.7241119466894,297.33977551736166,332.6184174826105,371.70099335273403,414.66267737283573,461.5029593476896
G2,0.0,0.0,0.11352029794279656,0.2983550699094173,0.5269670555019248,0.7813519558646455,1.0496729365618227,1.3240897609209483,1.599363134666553,1.8719591659444603,2.139474807987333,2.4002684243383827,2.6532210015527147,2.897580403304343,3.132858386525902,3.3587612042532267,3.5751416953244397,3.781965245579899,3.9792848334009525,4.167222147825051,4.345952877325835,4.5156949586790756,4.676699004862535,4.829240397542175,4.973612695434343,5.110122113433535,5.239082892890586,5.360813425638895,5.475633022378397,5.5932893916100115,5.719648095075576,5.8581897655384525,6.011080582947907,6.1798821357367695,6.366033405296834,6.571138994682117,6.7971522070144035,7.046500576093187,7.322186784643305,7.627887103120901,7.968062315837873,8.348091888134817,8.774440116599148,9.254862551197707,9.798661601874482,10.417001606552342,11.123295505740973,11.933677442751017,12.8675778560792,13.948419597285937,15.204454696310446,16.66976059856219,18.385410361670328,20.400820820918373,22.740421137501592,25.44008338797584,28.54167476400648,32.09009818051493,36.130974502161834,40.70819206875023,45.86102814958049,51.62081975986803,58.007372835310335,65.0254822796572,72.66206540279113,80.88443840604373,89.64015335666534,98.85857060873296,108.45403309211842
H2,101722.17058393687,107777.06169012359,113298.09881404079,118358.74631579386,122992.34639949264,127229.85542382958,131100.014366055,134629.5071094167,137843.1074238225,140763.81544735908,143412.98441861224,145810.4383561658,147974.58133191543,149922.49893864515,151670.05250942518,153231.96660656377,154621.9102608651,155852.5724076057,156935.731933755,157882.3227213568,158702.49404449394,159405.66665172926,160000.58484220758,160495.3648215916,160897.539603563,161214.1007036394,161451.53685443214,155151.2351569006,148775.6733763864,142337.51693747786,135848.28762018878,129318.45967530445,122757.54807442245,116174.18952751537,109576.21685057234,102970.72721956091,96364.14480427736,89762.27823634223,83170.37332938286,76593.16143608611,70034.90379607861,63499.43220029213,56990.18627140932,50510.247635984,44062.37124172937,37649.01405311771,31272.3613396991,24934.35075429771,18636.69438236523,12380.898929154642,6168.284197924265,4.18367562815547e-11,4.168409976132569e-11,4.152909562053991e-11,4.137199548089711e-11,4.121303225766197e-11,4.105242150361291e-11,4.0890362656905434e-11,4.072704019971434e-11,4.05626247340287e-11,4.0397273980518366e-11,4.023113370596788e-11,4.0064338584381084e-11,3.989701299649526e-11,3.972927177210512e-11,3.956122087928252e-11,3.939295806428616e-11,3.9224573445684214e-11,3.9056150065961423e-11
S3,39638.06116211764,39459.14974234954,39291.81480519477,39134.924028670604,38987.54444607121,38848.8490643081,38718.09453963698,38594.60630498933,38477.76823650903,38367.01514751161,38261.827085639954,38161.72481139725,38066.26607547306,37975.04245620019,37887.67660590116,37803.819808444205,37723.14978342724,37645.3686930527,37570.2013207769,37497.39339914077,37426.71006960269,37357.934460792036,37290.866374058125,37225.32106692018,37161.12812628796,37098.13042428216,37036.183150239216,48384.19607531689,59696.48318417177,70973.55614841773,82215.79922921638,93422.90807448364,104595.69692612288,115734.17726903496,126838.29282157484,137907.922549494,148942.88236657938,159942.92632171,170907.7471704918,181836.9758544475,192730.17926373423,203586.8555606329,214406.42619570685,225188.22350711605,235931.47242230902,246635.2642439423,257298.51974994765,267919.93780603894,278497.92429533607,289030.49431985524,299515.13823207305,309948.6390626763,309359.2337494267,308749.3186940234,308113.78816472326,307446.77303534705,306741.272408429,305988.97822482896,305180.2123100178,304303.989408978,303348.242395208,302300.240184296,301147.2031862864,299877.0802909946,298479.40609903634,296946.12371997687,295272.2521439064,293456.3032011995,291500.4028421182
E3,0.0,5.896326259611675,9.272603984350653,11.083317867175806,11.924458659843424,12.169424780793573,12.052671875728098,11.721566999158103,11.268704783450392,10.752134953403104,10.208070097965715,9.658895132236553,9.118230143425317,8.59413900073256,8.09116756337012,7.611641032400236,7.156491105324205,6.725783972865923,6.319057540262642,5.935536730179236,5.574270721813365,5.234220122894215,4.9143119878624955,4.613474168186628,4.330656374245887,4.064842698550506,3.8150586624810514,3.580374763475014,3.648114017014408,3.897712735600871,4.255325691930521,4.68032832583621,5.154040180366234,5.672622322787907,6.241105019597683,6.870157615691575,7.5743322206077615,8.371323093261216,9.28190775330104,10.330350245781942,11.545138910717846,12.959999189674049,14.615170278420766,16.55896800219316,18.849679740697283,21.557853661912926,24.769055133269077,28.58716692269416,33.13830284018071,38.57537917720248,45.08333170021505,52.88485755581931,62.24637079665473,72.40297593840353,83.71739011432835,96.38533082134181,110.51197017633953,126.1312879202563,143.20125929407465,161.5896118677814,181.05860056922074,201.25544840808092,221.7143330215821,241.8742242567618,261.113713689879,278.7995878192075,294.34169780771936,307.2444288793324,317.14580611210727
I3,0.0,0.0,0.19460622504479405,0.45393984391187114,0.7107953846594355,0.9337671588764626,1.1113107300503289,1.2423904545711613,1.3310830423648559,1.3835428470451923,1.4063630886075225,1.4057497983212897,1.3871583663933555,1.3551844156859525,1.3135867648104578,1.2653721504350248,1.212902434890684,1.158003383905364,1.1020647640344212,1.0461275465808362,0.9909572885733738,0.9371044318395609,0.884953007383057,0.834759466566609,0.7866833265314968,0.7408111558565372,0.6971752169835109,0.6557678670357007,0.6165526195136577,0.5889847422172085,0.5762710755362777,0.5784115817778953,0.5940654326262297,0.6215970564892157,0.6596367162992605,0.7073094341047181,0.7643023647297542,0.8308580332229067,0.9077447515652806,0.9962321917693294,1.0980861310460441,1.215588807962988,1.3515878204584626,1.509575423815058,1.693800379281252,1.9094155003734583,2.1626653434417635,2.4611198269049472,2.813960703872395,3.232328449733739,3.7297367755163933,4.322559843117702,5.03059205849113,5.877670074556404,6.856664634524356,7.974128857762665,9.241502703821574,10.67095171159064,12.272843180316313,14.053669244674104,16.013998320850277,18.146415710615223,20.433642959794415,22.847174135965126,25.346828122788814,27.881557900040928,30.391668737995225,32.812314982186145,35.07785633959113
A3,0.0,0.0,1.5504511339845832,3.8077996621537693,6.277898771631291,8.680974149259953,10.86808055656507,12.769301814399677,14.361629815146568,15.649088914485823,16.65049821356246,17.39200323452819,17.90258508134263,18.211424863414603,18.34641934062307,18.33340570922961,18.1958179786833,17.954600943307543,17.628273029342992,17.233070482227117,16.78313134489784,16.290694057389686,15.76629580650707,15.218962199821998,14.65638384158959,14.085077844603783,13.510533790361567,12.937344512006577,12.369322550668022,11.885387790793626,11.52354952169748,11.297964473128864,11.210455300137333,11.257719931454412,11.435832115887068,11.742646423882615,12.179073274110879,12.749743367614247,13.463399851550577,14.333229241607684,15.377259772701837,16.618907269386717,18.087723645390348,19.820393769012586,21.86202697865552,24.26779618279573,27.104987673643524,30.4555365789535,34.41913427991396,39.11700236534937,44.69642832216437,51.33614383480385,59.25258540734824,68.70699053361051,79.72898549100815,92.4401170728441,106.99921469178359,123.57423126631423,142.32245853674613,163.37178543832442,186.80039791756775,212.6148438730009,240.72814377865706,270.94097765782254,302.92975753082345,336.2452500261474,370.3241321220761,404.51362671238763,438.1067977550807
IH3,0.0,0.0,0.0,0.007784249001791762,0.022041934008368937,0.039430740456553516,0.05702662584287871,0.07290871549760963,0.08607706721615366,0.09619577823545492,0.1033434072212997,0.10782288374772944,0.11003361092296858,0.11039310650629555,0.10929353677407957,0.10708094544268401,0.10404827779330031,0.10043618801448423,0.0964377931754422,0.09220504935592251,0.08785542149183878,0.0834781468673625,0.07913977256039632,0.07488886680296006,0.07075992319734142,0.06677653473673324,0.06295393706789137,0.05930102327621823,0.05582192529626093,0.05251724550338051,0.04976549519487522,0.04788382512369384,0.04703049200783904,0.04723083281696087,0.0484320678352321,0.050553070501751236,0.05351835954456259,0.0572777560019269,0.0618159215738778,0.06715593492797625,0.07336009919983333,0.0805301347425586,0.08880808955505626,0.09837874950631158,0.1094740129562518,0.12237954763641973,0.13744401428551178,0.15509117686614093,0.17583529033240222,0.20030023803076452,0.22924295676670103,0.26358170644723955,0.30442966524188064,0.3531340852953436,0.4113207115446327,0.479515620441746,0.5582434489109378,0.648223589159421,0.7503016394541766,0.8653142453002867,0.9939385781918073,1.136535283351723,1.2929877348171188,1.462546598065519,1.643697717873299,1.8340782861303289,2.0304673807806712,2.228869972529364,2.4246987155795985
IN3,0.0,0.0,0.0,0.03892124500895881,0.1292866958790373,0.27004227339003345,0.4538642034223037,0.6711993293524201,0.9123910721730335,1.1687030239238698,1.4327244873154004,1.6984438574689973,1.9611559960243934,2.217297920300025,2.4642644509084803,2.700230453267505,2.9239919532678846,3.134830419265449,3.332400272935791,3.516637640765099,3.687687536892768,3.8458465126318946,3.9915179883847776,4.125177811337856,4.24734795328906,4.35857662308791,4.4594233921011,4.550448209636842,4.632203417778349,4.705228065241144,4.771946402541917,4.8353977313045755,4.898588351824622,4.964223763197573,5.03465298007557,5.111925569465511,5.197893853270293,5.294327476080458,5.403025376740333,5.525920627724503,5.665179251027723,5.823296910371212,6.003198624977593,6.208347180484424,6.442866222574551,6.711684384061503,7.0207073566328475,7.377025632745032,7.789166716178583,8.267401889191987,8.824119027016947,9.47427426785753,10.235936222735331,11.130936236185319,12.185635988489436,13.424685133704703,14.873776360161997,16.560611435620586,18.515024513143892,20.768599334605444,23.35387520473859,26.303151874121333,29.64689551682461,33.41178588400584,37.61851191258428,42.279501723025106,47.396839115624694,52.960646323593714,58.94818367946296
D3,0.0,0.0,0.0,0.0,7.784249001791762e-06,2.9826183010160698e-05,6.925692346671422e-05,0.0001262835493095929,0.00019919226480720253,0.0002852693320233562,0.0003814651102588111,0.0004848085174801108,0.0005926314012278402,0.0007026650121508088,0.0008130581186571043,0.0009223516554311839,0.0010294326008738679,0.0011334808786671682,0.0012339170666816523,0.0013303548598570946,0.001422559909213017,0.0015104153307048558,0.0015938934775722184,0.0016730332501326147,0.0017479221169355748,0.0018186820401329162,0.0018854585748696493,0.0019484125119375406,0.0020077135352137587,0.0020635354605100195,0.0021160527060134,0.002165818201208275,0.002213702026331969,0.002260732518339808,0.0023079633511567687,0.0023563954189920007,0.002406948489493752,0.0024604668490383146,0.0025177446050402416,0.0025795605266141193,0.0026467164615420957,0.002720076560741929,0.002800606695484488,0.002889414785039544,0.002987793534545856,0.003097267547502108,0.0032196470951385277,0.0033570911094240393,0.0035121822862901803,0.0036880175766225826,0.003888317814653347,0.004117560771420048,0.004381142477867288,0.0046855721431091684,0.005038706228404512,0.005450026939949145,0.005929542560390891,0.006487786009301829,0.00713600959846125,0.007886311237915427,0.008751625483215713,0.00974556406140752,0.010882099344759243,0.012175087079576362,0.013637633677641882,0.01528133139551518,0.01711540968164551,0.01914587706242618,0.021374747034955545
R3,0.0,0.0,0.0,0.18090178728626638,0.6294985804960322,1.374408633404383,2.4099244082163285,3.711418376678692,5.245041265835146,6.973654488555801,8.860326215610659,10.87027920253148,12.971872987093537,15.136997155523272,17.341116134749484,19.563117060416012,21.785054880106255,23.99185215094793,26.170987730058773,28.312193953625183,30.40717283679877,32.44933628404627,34.43357198064457,36.35603471081389,38.21396178820381,40.00551075528399,41.729617298549435,43.38587130405869,44.97440906046389,46.495819753822595,47.959906848332885,49.38112418576658,50.77576893999558,52.16046271047608,53.55148385992994,54.964651758748005,56.41551714154674,57.919719335385686,59.49343208430862,61.15386111503025,62.91978323987408,64.81213341449072,66.8546566320653,69.07464868778737,71.50381563644638,74.17928746359811,77.14482789483033,80.45228985065204,84.16337504026232,88.35176655092548,93.10571466939155,98.53116767318774,104.75554918308484,111.9322886907287,120.24620668209685,129.88667939185726,141.05779538205246,153.9827161645956,168.90485989101785,186.0867436911506,205.80656756248047,228.35234581724663,254.01338771547378,283.06912643733415,315.77565409223854,352.35077507214095,392.95883213683044,437.6968534385507,486.5835983943294
G3,0.0,0.0,0.19460622504479405,0.5006453379226218,0.8664464412090351,1.2600091077443267,1.661656797048544,2.0594510967814554,2.4463173936722287,2.8182371285201304,3.1731076533733065,3.510021504352879,3.8288100240220544,4.1297540812490565,4.41340069013819,4.680446899317268,4.931666499877333,5.1678640332657775,5.389846225532122,5.598404551446798,5.794304904618737,5.978281797142533,6.151035436327524,6.3132306172830095,6.465496749223884,6.608428576916483,6.742587315449026,6.868502017577259,6.986671058143784,7.107075809530613,7.235718480981812,7.376164045352136,7.530636675827166,7.700744003520447,7.887966956887904,8.093952486605184,8.320699681415352,8.570687917443646,8.846980563759518,9.153326744339234,9.494276409640587,9.875319758008581,10.303060084415174,10.7854287646818,11.331951821863608,11.954079033983316,12.665588597141252,13.483082763030458,14.426592398455092,15.520310713245811,16.79347786696456,18.281437760689805,20.02688433841148,22.081304448514626,24.470939826376114,27.23400356190027,30.41516833382222,34.062577990508466,38.22549787001589,42.9518062976496,48.28501599254756,54.26079297931657,60.90315999904342,68.22076548556478,76.2037412650201,84.82170979174153,94.02339452570564,103.73804126701542,113.87853822014507
H3,305166.51175181055,303834.4357084495,302585.54233576154,301412.7830402735,300310.0425425069,299271.6534546466,298292.3641451892,297367.308900718,296491.9802207051,295662.203092959,294874.1111082243,294124.124282544,293408.92846538196,292725.45622021705,292070.8690724134,291442.54102668405,290838.04326344456,290255.1299298309,289691.72494717286,289145.9097623006,288615.91197524994,288100.09478074784,287596.9471653336,287105.07480612496,286623.19162109285,286150.1119242928,285684.7431428242,273817.03589316213,261991.33803388794,250206.2064674863,238460.392223626,226752.82267401626,215082.5852261883,203448.91237687113,191851.1680151157,180288.83487405838,168761.5030382659,157268.85942102032,145810.67813273415,134386.81166797952,122997.18284441128,111641.77743220278,100320.63741752983,89033.85484816555,77781.56621341847,66563.94731448455,55381.20858481826,44233.59082338153,33121.36130662481,22044.810247811198,11004.247574832296,7.457856554538012e-11,7.445513412156807e-11,7.433091395342794e-11,7.420588366596532e-11,7.408002505780724e-11,7.395332285205959e-11,7.38257644652402e-11,7.369733979299303e-11,7.356804101138136e-11,7.3437862392644e-11,7.330680013437813e-11,7.317485220118651e-11,7.304201817789544e-11,7.290829913351411e-11,7.277369749516465e-11,7.263821693126784e-11,7.25018622433202e-11,7.236463926564592e-11
S4,19819.03058105882,20140.454131968218,20461.395717468335,20781.67343152879,21101.197861264918,21419.934671395622,21737.88172298478,22055.05514635099,22371.480844273454,22687.18932317135,23002.212577104878,23316.582242433895,23630.328539653146,23943.479701959142,24256.06170318117,24568.09816797915,24879.61039107156,25190.617419724345,25501.136170976017,25811.181565919454,26120.76667018814,26429.902834093045,26738.59982855983,27046.86597471146,27354.70826599959,27662.132482442426,27969.143296926097,37022.023855029,46263.98304186425,55694.63136740636,65313.56184639789,75119.73448942529,85113.3830519412,95293.97457824691,105660.96995866887,116213.81793050739,126951.94745459637,137874.75923945534,148981.61623729204,160271.83246694604,171744.65925941223,183399.26779477598,195234.72650047723,207249.9714442689,219443.76722668548,231814.65499526597,244360.88298519084,257080.3133325047,269970.2966751236,283027.5031039361,296247.69420919596,309625.4162096878,312074.3375286813,314487.8870525872,316857.42435139895,319173.0715049498,321423.1121117044,323593.6936149226,325668.7111538437,327629.89111586794,329457.1290804014,331129.12984816055,332624.3587396323,333922.250917309,335004.55561568704,335856.6399294293,336468.56559714145,336835.79031402746,336959.4197088422
E4,0.0,8.844489389417515,14.06888791130416,17.021223662600335,18.54927100694149,19.187432505443713,19.273099679602105,19.019494477026555,18.56143350959217,17.98415500949323,17.341511659301055,16.667468761790687,15.98337939508394,15.30259164824799,14.633368435842437,13.980739106761613,13.347674391860632,12.735832511478204,12.146033409411427,11.578560583876218,11.033353569908481,10.510131048652596,10.008469926425473,9.527856447129418,9.067719516978052,8.627452689386146,8.20642889310087,7.8040104887555595,8.082254451791828,8.780786055851559,9.739599627915105,10.871431319206389,12.138052951056647,13.535439637630503,15.080808146714109,16.80571302241409,18.752410519414546,20.972557431028413,23.52755405817609,26.490079181200603,29.94656667618778,34.00053103111778,38.77676782762206,44.42654491958633,51.133969728460826,59.12377390584754,68.67080009600505,80.11150201094637,93.85776534140558,110.41329763764298,130.39267636585038,154.5428154023985,183.76600415384274,215.86820086443677,252.03394910783712,292.9646107974852,339.09776056954024,390.6569600152909,447.62693998862204,509.69738329704285,576.2011571890462,646.0687508964272,717.8195782526889,789.6067998643689,859.3225250709091,924.7554799165976,983.7780263168631,1034.5299742887503,1075.567118185507
I4,0.0,0.0,0.2919093375671912,0.6861899147319904,1.0832839818402091,1.4355081511372176,1.7242608210943633,1.9465402659506803,2.10710249134776,2.2140116375897314,2.2762097099142724,2.302270021612295,2.299829303948773,2.2753962237018057,2.2343579167224004,2.181081320917182,2.1190513010297676,2.051014402217859,1.9791127277946179,1.905001338241731,1.8299474362866224,1.7549121003767407,1.6806164652998439,1.6075946294327899,1.5362355511982666,1.4668159902430524,1.3995262683372371,1.3344903337545515,1.271781342114521,1.2333058549967475,1.22711928069833,1.254062797188365,1.3118955863365762,1.3976529184438833,1.5089487589630122,1.6445379551513806,1.804515637825837,1.9903487595940241,2.2048571191765105,2.45221025946507,2.7379757712650523,3.0692377440114536,3.4547965458326546,3.905459291857981,4.434431933200031,5.057827394978212,5.795308691334236,6.670890800185261,7.713929644068962,8.96032987001,10.45400370461079,12.248608358486358,14.409574947911867,17.016410873525302,20.057128164485054,23.561711417158186,27.576097134084762,32.149639057920595,37.3272246066959,43.142464265185275,49.610660089355605,56.721423154185544,64.43155904072592,72.6593737521704,81.28182555045447,90.135832506659,99.02447001663187,107.7278534162736,116.0174754287515
A4,0.0,0.0,2.3256767009768757,5.753767072477908,9.558201351594358,13.320549338624325,16.81172421448543,19.91808608884823,22.59532136850622,24.83973713742018,26.670484926151378,28.118642398392822,29.22059241959245,30.0140876521626,30.535985803497102,30.82101688941254,30.901181213792928,30.80552654498397,30.560147481058316,30.18830958994006,29.710638432320625,29.14533714361604,28.508411000983187,27.81388658256198,27.074018796017086,26.299482514442467,25.499547633760248,24.682237577762415,23.854471953671727,23.19645225584902,22.798888561543432,22.699833358736186,22.909953081405384,23.428617459070182,24.254211407217426,25.389835468890567,26.846525757833973,28.645142097769714,30.81769371364735,33.40860042978581,36.47621033936227,40.0947916283358,44.35716645090875,49.37814201796948,55.29890638797602,62.29258566412878,70.57119978822497,80.39430131798876,92.0796302273238,106.01615977481305,122.67992997401377,142.65304238964117,166.64608333923832,195.52398900988942,229.47384974206648,268.9724049330487,314.6251940785135,367.0821653721878,426.9762190669768,494.8623955410661,571.1493762530242,656.0227350564804,749.3651635691893,850.683717402031,959.057337152647,1073.118155557364,1191.076444784098,1310.7918300281385,1429.8845279329698
IH4,0.0,0.0,0.0,0.011676373502687647,0.03327410696712075,0.059935138650201614,0.08732796023193931,0.11254708499951224,0.13402260605278382,0.1511613800742495,0.16398999416063975,0.17287939548273012,0.17835761921037413,0.1809936241439276,0.18133166739589213,0.1798588186994462,0.17699280336771095,0.17308146092167848,0.1684082250886319,0.16320021343101204,0.15763696003174427,0.15185874050730527,0.14597399552821497,0.14006568238057304,0.13419656068521754,0.12841350582985422,0.12275097901881935,0.11723378926388034,0.11187927419285836,0.10669901150681715,0.10257504094177167,0.10026971665787726,0.10019710049981537,0.10247417660287092,0.10704073086258792,0.11377127505895186,0.1225533844604722,0.1333347643588091,0.14614799779880672,0.16112213566866498,0.17848835607726662,0.19858472053315812,0.22186328530650404,0.24890164120125172,0.28042029063374385,0.3173070023542394,0.360649289973894,0.4117763433503426,0.4723120273392314,0.544240887405035,0.6299893976155124,0.7325248575945723,0.8554742382791459,1.0032646428177685,1.1812854917070785,1.3917465869412344,1.6369500035700035,1.9198819371448224,2.24400664895209,2.612848302094929,3.0295098733527808,3.496151830377262,4.013436689525675,4.579967269702349,5.191778617668288,5.841970552234654,6.520576605831453,7.214746526975169,7.909272653611554
IN4,0.0,0.0,0.0,0.05838186751343824,0.19498607359139267,0.4095261568706928,0.6921820881799315,1.0295201214721343,1.4076519984559142,1.8137914289310095,2.2369037550701334,2.6678625091852504,3.099354960571424,3.5256751096912993,3.9424806330633686,4.346553773399024,4.735585092044487,5.1079871939007,5.462739225207672,5.799259834964705,6.117304995247755,6.416886767775666,6.698209299018197,6.961618746246929,7.207564328624402,7.436568180402851,7.6492021196236495,7.846069821188953,8.027793196333453,8.195002036125125,8.352700607116018,8.507449932630113,8.665908046991113,8.834212543178888,9.017841440278199,9.22173608265476,9.45053514230355,9.708845961285455,10.001519256194232,10.333917045374724,10.712177047211418,11.14348386893322,11.636360941613294,12.200999242018703,12.849640539611132,13.597034900924152,14.460994855008432,15.463072166018351,16.629387633899462,17.991649683165853,19.588403450142145,21.46655808148954,23.683244933702518,26.308061384852373,29.42575076389229,33.11773885624728,37.47056443156033,42.57901411983159,48.546716323026715,55.485151966402185,63.51131386710559,72.74398521289098,83.29858193016956,95.280628139251,108.77816362139191,123.8536640755321,140.5363105964951,158.81558257664847,178.63709668424957
D4,0.0,0.0,0.0,0.0,1.1676373502687647e-05,4.49504804698084e-05,0.00010488561912001002,0.00019221357935194933,0.0003047606643514616,0.0004387832704042454,0.000589944650478495,0.0007539346446391348,0.0009268140401218649,0.001105171659332239,0.0012861652834761667,0.0014674969508720588,0.0016473557695715051,0.001824348572939216,0.0019974300338608947,0.0021658382589495265,0.0023290384723805386,0.002486675432412283,0.002638534172919588,0.0027845081684478032,0.0029245738508283763,0.0030587704115135938,0.003187183917343448,0.003309934896362267,0.0034271686856261474,0.0035390479598190056,0.0036457469713258228,0.0037483220122675946,0.003848591728925472,0.003948788829425287,0.004051263006028158,0.004158303736890746,0.0042720750119496975,0.00439462839641017,0.004527963160768979,0.0046741111585677855,0.004835233294236451,0.0050137216503137174,0.005212306370846876,0.00543416965615338,0.005683071297354632,0.0059634915879883755,0.006280798590342615,0.006641447880316509,0.007053224223666852,0.007525536251006083,0.008069777138411118,0.00869976653602663,0.009432291393621202,0.010287765631900349,0.011291030274718117,0.012472315766425195,0.01386406235336643,0.015501012356936433,0.017420894294081255,0.019664900943033345,0.022277749245128275,0.025307259118481057,0.02880341094885832,0.032816847638383995,0.03739681490808634,0.04258859352575463,0.048430564077989284,0.05495114068382074,0.06216588721079591
R4,0.0,0.0,0.0,0.2713526809293997,0.9491561842702397,2.0831309789969317,3.67174426694624,5.684461759077466,8.075891443236777,10.7945352154498,13.788028717882142,17.006135637820943,20.40233210637821,23.93452392624262,27.565244299333134,31.26155185908117,34.994766032313976,38.74012373324451,42.476407766265076,46.185576206593716,49.8524089309218,53.46417945977331,57.010355467305715,60.48232850982907,63.873171957332104,67.17742530049219,70.39090264661397,73.5105231235502,76.53416096496622,79.46051318275268,82.30931476103304,85.11137979668743,87.90241463350978,90.71964945007774,93.60036600700415,96.5816869826515,99.70108771475584,102.99732534400704,106.51161473869543,110.28897445284397,114.37972854057992,118.84119114735493,123.73958882298626,129.15229687188986,135.17048537037437,141.9022909200211,149.47665394134057,158.04798980281765,167.80189620800968,178.96213925885604,191.7992057304208,206.64075692914122,223.884364832857,244.01294409481415,267.613296497189,295.297667597327,327.7359162498859,365.67064424095247,409.92280935265126,461.39007127936577,521.0378223768201,589.8819602036247,668.9624042051751,759.3069708323496,861.8864082761646,977.5629716564498,1107.036545748209,1250.793529030511,1409.064048412531
G4,0.0,0.0,0.2919093375671912,0.7562481557481163,1.3180278023920127,1.9302401273306713,2.563514753560749,3.199616795479713,3.827348684704956,4.439962428870389,5.033523294216466,5.605873936293914,6.155978023817343,6.6835039765180815,7.18856076322711,7.671530067435268,8.132959564567978,8.573494978003213,8.993836760112258,9.394712425230079,9.776858844452986,10.141010893251893,10.487894162265414,10.818220278070322,11.132683910899669,11.431960882232039,11.716706997984556,11.987557367802808,12.245126056263869,12.51187809125358,12.801684922154381,13.123137066012015,13.481944926485435,13.88255719931352,14.329289740259181,14.827026638598673,15.381693430509461,16.00061030535585,16.6928023672409,17.469321216131824,18.343617190203425,19.331993348053437,20.45416920843739,21.73398312546255,23.200265996850515,24.887925122596705,26.8392849937475,29.105741188518742,31.749793824446904,34.84753716496449,38.49169016836768,42.79525571134984,47.895888306812076,53.96102221992436,61.08567812053018,69.40397213267973,79.07316858972428,90.26497382574046,103.1584727484167,117.93224631251309,134.75463356032787,153.77195504660315,175.09523249014805,198.78662137136675,224.84732287017172,253.20896795848535,283.7302052700564,316.1994614736898,350.34376830607334
H4,152583.25587590528,155126.3101405037,157658.26377140742,160179.80995753876,162691.58314954105,165194.16683739529,167688.09728285068,170173.8669840606,172651.92789156656,175122.69439340578,177586.5460858471,180043.8303450823,182494.8647141035,184939.93911798167,187379.31791981682,189813.2418287536,192241.92967064265,194665.58003117135,197084.37278058662,199498.47048847974,201908.0197364989,204313.15233629267,206713.98645946555,209110.62768584333,211503.16997589436,213891.6965727368,216276.28083877257,209910.70755036426,203351.16134185696,196598.1432533507,189652.14065691704,182513.62913534656,175183.0741914152,167660.93280154746,159947.65482664984,152043.68429186742,143949.4605460793,135665.41931108272,127191.99362962041,118529.61472067065,109678.71274974516,100639.7175213169,91413.05909992673,81999.16836599066,72398.47751184303,62611.42048310416,52638.43337004849,42479.95475327091,32136.426007599315,21608.291567880784,10895.999159972927,7.457856554538012e-11,7.520005359159162e-11,7.582051304260468e-11,7.643993732554991e-11,7.705831968943296e-11,7.767565323158135e-11,7.829193092201517e-11,7.890714562589217e-11,7.952129012416711e-11,8.013435713259528e-11,8.074633931920065e-11,8.135722932032047e-11,8.196701975533035e-11,8.257570324014615e-11,8.31832723995921e-11,8.378971987871848e-11,8.43950383531457e-11,8.499922053850671e-11
E_Om,0.0,0.0,0.0,0.0,0.0,0.0,0.0,0.0,0.0,0.0,0.0,0.0,0.0,0.0,0.0,0.0,0.0,0.0,0.0,0.0,0.0,0.0,0.0,0.0,0.0,0.0,0.0,0.0,0.0,0.0,0.0,2.6743580183713647,4.201774072149316,5.207984126993175,6.067208828793898,7.0042713471945195,8.166541155529497,9.671305782833512,11.636750972291974,14.203942865203985,17.555529449995753,21.935455059108882,27.673190639068054,35.215864655045124,45.17218421312538,58.373137527429215,75.95620706410665,99.48230717257547,131.0980556525956,173.76048209801576,231.54700569949995,310.08043098469955,417.1062994307283,553.4308365794003,730.2782317573615,959.231869984434,1253.6384639333514,1628.8694868275832,2102.0722950234704,2691.468994003019,3415.152556168021,4289.37001011504,5326.398922685313,6532.276943219137,7904.778947059844,9432.084051995338,11092.48860565573,12855.310768296811,14682.868236497541
I_Om,0.0,0.0,0.0,0.0,0.0,0.0,0.0,0.0,0.0,0.0,0.0,0.0,0.0,0.0,0.0,0.0,0.0,0.0,0.0,0.0,0.0,0.0,0.0,0.0,0.0,0.0,0.0,0.0,0.0,0.0,10.0,7.6,5.864266268767801,4.595520475797663,3.6644832907486227,2.9852534465761984,2.499966191899089,2.1695081945693384,1.9680243568064697,1.879765484199138,1.8974180285855358,2.0214519275503235,2.2602756326476436,2.6311536426002715,3.161964298011323,3.893985306915286,4.886014208295862,6.2202793502817615,8.01079171997076,10.415048051488476,13.650341609896245,18.016389097980166,23.926553943990193,31.950631292190053,42.5482746495948,56.43927119900613,74.5529648474293,98.03616063641367,128.2677605970013,166.8616728857062,215.64588204052453,276.60680865637465,351.79035998952673,443.156642435649,552.3946074002819,680.7144184758292,828.6456558311017,995.8744787949072,1181.149724863967
A_Om,0.0,0.0,0.0,0.0,0.0,0.0,0.0,0.0,0.0,0.0,0.0,0.0,0.0,0.0,0.0,0.0,0.0,0.0,0.0,0.0,0.0,0.0,0.0,0.0,0.0,0.0,0.0,0.0,0.0,0.0,0.0,0.0,0.7032279490140911,1.7260426583787958,2.894103553923586,4.151813663776564,5.509180612294296,7.013795472069242,8.738537535569959,10.778859952028235,13.256172328268939,16.32574624279387,20.188882336777553,25.110029186372543,31.4403536860871,39.650110463136414,50.37319636855618,64.46865050935233,83.10572764029769,107.88171510132536,140.98509076508608,185.4211535273252,245.32308144278704,326.3785123666642,433.8234670313118,575.2344673530921,760.3499053244649,1001.2814734155995,1312.7696702571757,1712.3440518899233,2220.280420768514,2859.24644651299,3653.537195606075,4627.841473674973,5805.555086081375,7206.758987706475,8846.082825121055,10730.742283415719,12859.04329116824
IH_Om,0.0,0.0,0.0,0.0,0.0,0.0,0.0,0.0,0.0,0.0,0.0,0.0,0.0,0.0,0.0,0.0,0.0,0.0,0.0,0.0,0.0,0.0,0.0,0.0,0.0,0.0,0.0,0.0,0.0,0.0,0.0,0.4,0.5036,0.48586705075071207,0.4262684773565119,0.35928730183084434,0.29869450147663923,0.24904720391280655,0.211054882535264,0.18403736065735554,0.1670252623359859,0.1592423270490784,0.16031999829950305,0.1704107044573578,0.1902810872282324,0.2214288344473409,0.2662524006658345,0.3283005162640859,0.4126331316270493,0.526335601480728,0.6792433871984223,0.8849561146078626,1.1622486651085302,1.5370242416487643,2.0450003482703356,2.7223861597706893,3.6160415416858194,4.786523323198395,6.309921563732546,8.279361284182594,10.805868196235364,14.017963511542428,18.05923613851466,23.08317323269988,29.244769140543205,36.68892409714234,45.5363498635072,55.86846481513416,67.71334309454824
IN_Om,0.0,0.0,0.0,0.0,0.0,0.0,0.0,0.0,0.0,0.0,0.0,0.0,0.0,0.0,0.0,0.0,0.0,0.0,0.0,0.0,0.0,0.0,0.0,0.0,0.0,0.0,0.0,0.0,0.0,0.0,0.0,4.0,6.996577143182495,9.253342708146185,10.960814415457163,12.25929063830907,13.254074887252294,14.025763729053612,14.637397867809518,15.139631888986564,15.574659377717321,15.979375193858289,16.388111516412938,16.835210047410982,17.357665422943953,17.998081819890896,18.808221594128042,19.853493127068546,21.21883127854536,23.01657882051521,25.39719653194237,28.563933861592886,32.79300663560483,38.46138171355503,46.084987201014,56.28939579615594,69.87394116661355,87.8623469057735,111.55470243835524,142.58243578158212,182.96326812349005,235.15012093426685,302.0652842327474,387.1091047739266,494.13184090850274,627.3590794276665,791.2657447931658,990.4009103773587,1229.1739620564383
D_Om,0.0,0.0,0.0,0.0,0.0,0.0,0.0,0.0,0.0,0.0,0.0,0.0,0.0,0.0,0.0,0.0,0.0,0.0,0.0,0.0,0.0,0.0,0.0,0.0,0.0,0.0,0.0,0.0,0.0,0.0,0.0,0.0,0.0004,0.0009036000000000001,0.001389467050750712,0.001815735528107224,0.002175022829938068,0.002473717331414707,0.0027227645353275136,0.0029338194178627785,0.003117856778520134,0.003284882040856119,0.003444124367905198,0.0036044443662047003,0.0037748550706620592,0.003965136157890291,0.004186564992337632,0.004452817393003467,0.0047811179092675515,0.005193751040894602,0.00572008664237533,0.006399330029573752,0.007284286144181614,0.008446534809290144,0.009983559050938909,0.012028559399209245,0.014750945558979933,0.018366987100665755,0.02315351042386415,0.029463431987596694,0.03774279327177929,0.048548661468014655,0.06256662497955709,0.08062586111807174,0.10370903435077161,0.13295380349131483,0.16964272758845717,0.21517907745196435,0.27104754226709854
R_Om,0.0,0.0,0.0,0.0,0.0,0.0,0.0,0.0,0.0,0.0,0.0,0.0,0.0,0.0,0.0,0.0,0.0,0.0,0.0,0.0,0.0,0.0,0.0,0.0,0.0,0.0,0.0,0.0,0.0,0.0,0.0,0.0,0.2434228568175053,0.6532261355352145,1.1980005617499458,1.8677972168158623,2.6649448514094933,3.600968507972313,4.696099503497815,5.980111571366017,7.494125423116633,9.293400816879146,11.45132650254454,14.06496678106448,17.262690003741156,21.21462250045183,26.146969782337713,32.361659606409866,40.26333414482221,50.39651255992652,63.49684274171881,80.56186842100298,102.94878843164864,132.50943385189757,171.77629539551015,223.91624581300383,293.005058352619,384.2868586415668,504.4603183549509,661.9961428572097,867.474604092163,1133.9191078558351,1477.0887415335424,1915.6807828532556,2471.3867789079254,3168.747320637167,4034.7643038472584,5098.255500114899,6388.9706772050085
G_Om,0.0,0.0,0.0,0.0,0.0,0.0,0.0,0.0,0.0,0.0,0.0,0.0,0.0,0.0,0.0,0.0,0.0,0.0,0.0,0.0,0.0,0.0,0.0,0.0,0.0,0.0,0.0,0.0,0.0,0.0,0.0,0.0,0.08826626876780107,0.22694438030193498,0.3988321094443345,0.5990782550515803,0.8302518275527584,1.0997857162787892,1.4189838452125616,1.8030508182387828,2.2718470788329737,2.8512613046582898,3.575233472367688,4.48857763415575,5.650865163790866,7.1417576042175455,9.06834297925779,11.575251531234699,14.858630944991322,19.18547728930202,24.920382380067025,32.56251185452604,42.79661008405131,56.563060378808814,74.82885524633919,98.93143771165327,130.59055644783788,171.9664638002053,225.72674231353224,295.10491714551745,383.9359277929053,496.65186609848126,638.2210515091633,814.017020352772,1029.6125795019607,1290.5070963535757,1601.809794143047,1967.9135745063168,2392.1986954861545
beta,1.001818119937215,1.0018181199372205,0.9905897195474984,0.9810595386818489,0.9727517634215261,0.9653681235674199,0.9587148140568489,0.9526611091004556,0.9471152193901375,0.9420099455082543,0.9372940162892537,0.9329267800186971,0.9288748991699952,0.925110256301449,0.9216086002760503,0.9183486502375677,0.9153114862407277,0.9124801220241269,0.9098391955146393,0.9073747369764356,0.9050739895781025,0.9029252662969913,0.9009178327534028,0.899041809117464,0.897288086476502,0.895648254486147,0.8941145380598595,0.8926797414662526,0.9150978452311805,0.9293075112156203,0.9390465753630675,0.946087248392183,0.9511983198569733,0.9551563530905585,0.9582661485551812,0.9607265570665723,0.9626716161598596,0.9641932770822252,0.9653547017784784,0.9661983511988066,0.9667509874396564,0.9670267210519183,0.9670287318302272,0.966750015583236,0.9661733452428233,0.9652705282312779,0.9640009666992868,0.9623094698087029,0.9601232221635131,0.9573477805774628,0.9538619606694606,0.9495115037114292,0.9441015166379348,0.9352585156107058,0.9247109609338671,0.9120874649372613,0.897031289933285,0.8791947513376226,0.858262176206503,0.8339889415690475,0.8062501691014106,0.7750907304317212,0.7407646198839635,0.7037501130056699,0.6647302248922514,0.6245365280755611,0.5840657544724556,0.5441876098375462,0.5056643229443373
