series,2021-12-01,2021-12-02,2021-12-03,2021-12-04,2021-12-05,2021-12-06,2021-12-07,2021-12-08,2021-12-09,2021-12-10,2021-12-11,2021-12-12,2021-12-13,2021-12-14,2021-12-15,2021-12-16,2021-12-17,2021-12-18,2021-12-19,2021-12-20,2021-12-21,2021-12-22,2021-12-23,2021-12-24,2021-12-25,2021-12-26,2021-12-27,2021-12-28,2021-12-29,2021-12-30,2021-12-31,2022-01-01,2022-01-02,2022-01-03,2022-01-04,2022-01-05,2022-01-06,2022-01-07,2022-01-08,2022-01-09,2022-01-10,2022-01-11,2022-01-12,2022-01-13,2022-01-14,2022-01-15,2022-01-16,2022-01-17,2022-01-18,2022-01-19
S,1301706.917322369,1286512.9122773176,1275202.0590663953,1265561.2227559567,1256708.9037049704,1248281.0308056273,1240129.595265638,1232199.4252272414,1224475.2323486567,1216958.2380479192,1209655.7138541301,1202576.295119629,1195727.9220064695,1189116.9933763654,1182748.0866525478,1176623.9426916062,1170745.573090233,1165112.4210130773,1159722.5415019714,1154572.7840996536,1149658.9690110357,1144976.0523423569,1140518.2782727915,1136279.3173097633,1132252.3905365271,1128430.380216538,1447020.5597673412,1763615.6381521916,2077740.3514666585,2388547.215661035,2694442.8308258634,2992502.4944789987,3277556.588721904,3541137.3869009013,3771741.5638082973,3959000.1486073937,4099017.8350125053,4193690.8056037733,4248015.050834635,4268767.432590535,4263452.591183207,4239496.877445302,4203669.4982781345,4161724.1600397974,4118232.8214205024,4076567.620124858,3716765.8618184356,3419985.984652235,3164776.380815742,2943146.5033360994
E,0.0,15194.005045051286,22041.8717716091,25208.66934118764,26656.88607191618,27255.29227599908,27401.46717755531,27283.39363187921,26993.96372851458,26582.278599819834,26076.96874149162,25496.892263942515,24856.0639589513,24165.92385616035,23436.37355478321,22676.243182818613,21893.49877824522,21095.33524205655,20288.22250969856,19477.935847316017,18669.583712290416,17867.638353148846,17075.970489798983,16297.887724532837,15536.175679581971,14793.140695981567,14070.652993430034,15553.849790661012,19069.49500797692,24866.72963462845,33865.89370415141,48045.07451272146,71039.34037150929,108699.81048457287,168169.06451143086,253324.70143273027,360403.41091247683,480930.6465273685,605796.7982096286,726763.8520124857,837260.5764812825,932694.449985106,1010441.0975491839,1069612.2634828677,1110695.2327280068,1135144.7691312893,1144991.1303480156,1088132.386576644,1004883.2657762644,911063.8961738242
I,9276.25440543144,7196.690812426219,6320.377417931797,5972.7024866301945,5856.588978328103,5836.757956058967,5850.400953683542,5868.076289192197,5876.061476873236,5868.216488352038,5842.159637533163,5797.43201369086,5734.59237932149,5654.754080688514,5559.335820521447,5449.918574576289,5328.157236710709,5195.72213140824,5054.258147193855,4905.355271321898,4750.527199688686,4591.196093500155,4428.682237591466,4264.19769947326,4098.843273193126,3933.6081038809784,3769.371467756937,3606.9062467497024,3552.811562081253,3681.3854327687222,4062.355302960351,4794.462084202416,6050.266468946957,8139.97892006567,11588.10026031496,17148.029621218302,25592.367733063315,37337.95702307231,52297.09718033814,69959.847746402,89530.9670267684,110074.72579156932,130642.38782026169,150370.59926880122,168546.46548347923,184640.54738164184,198312.66586393942,209397.39005770022,215238.9467984102,215732.57758959397
A,46886.27113154183,37509.01690523346,33732.59227542224,32390.463281308417,32093.218981495647,32210.508051611214,32451.06097527506,32679.343559790283,32833.01948049646,32884.99564855102,32825.636572372605,32654.25369579568,32374.919945145688,31994.329911987094,31520.644220814887,30962.819118695432,30330.184639499726,29632.15798254802,28878.037006439496,28076.846344771235,27237.221726971537,26367.32426601976,25474.779391334625,24566.636498241776,23649.346085442514,22728.751551399284,21810.093100668077,20898.02145121846,20532.025313547376,21101.220350276228,22977.985325491423,26685.87904001063,33128.750636265075,43920.952414194675,61788.5869795805,90663.80702763892,134643.07316733958,196080.8375698869,274782.8098800464,368359.996110978,472881.34376641735,583590.8276255721,695557.5990257269,804193.5153326166,905610.2733262294,996816.7065635945,1075776.5716707096,1141358.6675654051,1179883.2961348863,1190291.362639871
IH,0.0,384.80969115311046,679.0788414422068,933.727712332201,1171.1259636604432,1401.0710993197538,1627.6400030283285,1852.258781332266,2075.1163653724184,2295.830334119945,2513.767804719492,2728.204122364985,2938.4036425182458,3143.6620694003445,3343.329113826452,3536.820560649853,3723.624266621189,3903.302426386265,4075.4913870658143,4239.8997696133865,4396.305388717319,4544.55131957614,4684.5413760092215,4816.235209776621,4939.643201277993,5054.821280212346,5161.865788180056,5260.90847217707,5352.111677825776,5440.058031738724,5532.361397151887,5639.443609030736,5775.706865636746,5962.55181447883,6234.010000888433,6645.493072350403,7283.05080759243,8263.827421269893,9720.958225331651,11782.46194514658,14553.781623131394,18106.200086930105,22471.3914164952,27641.321232275932,33572.22960685275,40191.26934705367,47404.43935586755,55104.67067937423,63179.220761270204,71406.4288201307
IN,1694.7539018521104,3301.9232691776215,4446.102169840922,5371.0493615576825,6184.675928228239,6935.040725146767,7643.003733288731,8316.87190769467,8959.143962792137,9569.682408118591,10147.235087273806,10690.179425558737,11196.892860492368,11665.938768127566,12096.158175177143,12486.711198125728,12837.090199706676,13147.116123179476,13416.92433050125,13646.943706131966,13837.871457494695,13990.645309814929,14106.414352997308,14186.509505724614,14232.414347485954,14245.736899649124,14228.182796286512,14181.53016673127,14107.606451003961,14027.620102548311,13975.257631959654,13995.203708278113,14147.873481301876,14522.086366058826,15258.746465445933,16587.301282289904,18862.98509690053,22563.826427468317,28219.305688845423,36315.517177768765,47220.268792827,61137.07106224762,78087.96119487862,97920.50523189627,120332.41387756517,144906.77559807448,171151.49725656206,198537.76691919286,226533.87764117305,254150.3963163662
D,19486.0,19486.0,19486.4252730684,19487.175758176294,19488.2076689062,19489.501940707294,19491.050336756438,19492.84912580528,19494.896152669513,19497.189470962363,19499.726711663832,19502.50480632239,19505.519885633053,19508.76726729203,19512.241490641907,19515.93637635709,19519.84509946564,19523.96026899967,19528.274010149955,19532.778046215724,19537.46377847814,19542.322362669922,19547.34478109806,19552.521909769242,19557.844580099227,19563.303634975702,19568.889979097137,19574.59462363409,19580.408725357524,19586.32362045495,19592.335709611267,19598.44980798495,19604.682248442696,19611.065280464478,19617.65480449136,19624.544330983183,19631.888608673882,19639.937484353104,19649.070266933584,19659.813400038878,19672.83480739921,19688.91894329799,19708.92904035387,19733.76333584744,19764.311187851443,19801.41359308224,19845.831041059846,19898.220135835993,19959.119154030443,20028.941774639836
R,0.0,9464.838760834964,17141.132957041198,24124.215850022545,30889.220514309378,37639.198355464694,44453.71216101404,51355.189623588354,58339.39516007972,65389.75694480939,72484.27360464084,79598.94562810645,86709.54469162933,93792.56584675556,100825.76177595505,107788.45088820274,114661.69359472733,121428.3849575092,128073.2898467237,134583.03606321526,140946.07558541847,147152.62134733715,153194.56539777076,159065.38329427136,164760.02885157889,170274.8227590615,175607.33804729188,180756.28489798933,185721.39684729686,190610.40123863902,195609.99042276078,200983.14955382457,207099.9890590498,214514.65545869188,224108.96990864584,237317.596296594,256374.04096568713,284350.3213135041,324815.2210299212,381327.3605262781,456993.9628574932,554156.1032465206,674214.8820828479,817586.6856426586,983762.3135757173,1171438.845039624,1378692.8515287773,1603167.2845792836,1842250.4559288465,2090566.1317610466
G,1616083.0,1616083.0,1616820.0507446858,1617889.2867989962,1619112.1420274477,1620405.2492544136,1621727.3847551649,1623056.611099952,1624380.109778168,1625689.5684106438,1626979.0564804028,1628244.0323161406,1629480.8690405325,1630686.6196241728,1631858.8919856332,1632995.77436326,1634095.7833388406,1635157.821921192,1636181.1421388343,1637165.3098724103,1638110.1711567552,1639015.819834462,1639882.5666938263,1640710.9102891076,1641501.509624079,1642255.1588311354,1642972.7639216885,1643655.3216302237,1644409.8281962639,1645334.8762961386,1646541.1442643777,1648183.9554981561,1650514.5890502117,1653960.6586393402,1659233.6117565283,1667391.3775242611,1679679.9847272148,1697162.9065514973,1720492.5217592223,1749879.3081874773,1785134.1232772665,1825749.0585469294,1870993.4254460866,1920009.2287975831,1971895.3847510468,2025774.4473138114,2080839.5400878224,2136382.2730788607,2189166.827478123,2237913.0242291926
H,6444292.647418595,6444292.647418595,6444292.647418596,6444292.647418596,6444292.647418596,6444292.647418595,6444292.647418597,6444292.647418597,6444292.647418596,6444292.647418596,6444292.647418596,6444292.647418596,6444292.647418596,6444292.647418596,6444292.647418596,6444292.647418596,6444292.647418596,6444292.647418596,6444292.647418597,6444292.647418596,6444292.647418596,6444292.647418596,6444292.647418596,6444292.647418596,6444292.647418596,6444292.647418596,6212571.369600882,5984043.100829475,5758873.307612189,5537239.155431582,5319330.238899304,5105349.265027174,4895512.652710572,4690050.999558914,4489209.352551511,4293247.20145798,4102438.0936104218,3917068.745976178,3737437.5068208426,3563851.996946841,3396625.7434692057,3236073.613264465,3082505.866798125,2936220.6963452245,2797495.1971963192,2666574.8567227917,2666574.8567227917,2666574.8567227917,2666574.856722791,2666574.8567227917
S0,455597.42106282915,446216.52137442207,438394.5900504063,431521.17889755574,425108.5353688858,418955.9120632845,412982.21147250297,407157.5865473165,401474.04597560834,395932.4847699617,390536.8927040649,385291.7752007988,380201.03756024275,375267.5450295625,370492.99781182077,365877.9526593057,361421.9109958064,357123.4346883037,352980.2701708841,348989.4711676989,345147.5150601552,341450.4104497513,337893.79483482504,334473.0220977104,331183.2399574889,328019.45781836903,427796.70304035995,524300.6080537703,617224.3232032906,706069.2831251347,789955.223129731,867329.8613639816,935528.7664780907,990305.1749673518,1026103.6078451254,1038361.7692033519,1026267.8754473671,992261.6763187094,940459.22469137,875769.9199889995,803182.4963185414,727237.3365369097,651687.5207335909,579341.9309303311,512061.1405691074,450862.6893839616,349551.13907148456,275865.12963144673,219962.69013692337,177178.46554540476
E0,0.0,8374.648450028268,12152.813119167851,13897.71892754854,14692.559946379502,15016.157211017358,15087.35793117505,15009.595537626661,14834.099708682366,14588.164984947376,14287.960572754953,13944.374983461024,13565.68486786792,13158.765788789018,12729.632912520521,12283.676240462304,11825.759907236461,11360.264247702129,10891.106708341626,10421.757574581454,9955.257014387409,9494.23553197642,9040.937947583574,8597.25020803721,8164.728077830836,7744.626763076772,7337.930634380941,8105.5477306886005,9945.93666301328,12975.790422329295,17656.80618963277,24986.33181361261,36782.78329083703,55917.826104054526,85734.70451837633,127603.21734614858,178732.68295058882,233885.67136364113,287669.91053538147,335468.39233943226,373929.0565779139,401125.5939711316,416482.8347482888,420542.19227817643,414643.2204908838,400589.2680758884,380349.1624234258,338954.42540295696,292273.9591180109,246484.9894243935
I0,9276.25440543144,7196.690812426219,5989.575115198748,5236.3484631582305,4736.625389664261,4387.488120343918,4132.318409807422,3937.806897302512,3783.1290454776026,3654.6139071742423,3542.979346560771,3441.8084669939317,3346.651114834236,3254.456272707684,3163.1904333793864,3071.5677556738738,2978.8521253401796,2884.708407070528,2789.089083690006,2692.147323127066,2594.1702970728315,2495.5282751290333,2396.6361232960558,2297.924597025412,2199.8193703981547,2102.726158355372,2007.0206112853448,1913.0419168924236,1877.368074600745,1938.9676463540782,2133.7338645809605,2511.909980035556,3160.8563005993633,4236.558689560374,5999.3364021827665,8813.328443726132,13027.488630807267,18777.167780222248,25913.30944569203,34058.69745001092,42696.712570567994,51263.94586247692,59229.85024086917,66154.91631267198,71724.42810133148,75759.20393563072,78207.71054602218,79125.47392676801,77829.4615886108,74559.55375140857
A0,46886.27113154183,37509.01690523346,32060.571891009473,28628.174291079245,26310.085147756745,24650.498844218815,23402.17177673107,22420.96764293793,21616.93797599953,20930.68487460663,20321.382295442014,19760.33388968166,19227.252304169288,18707.93698695722,18192.71329792885,17675.31636803845,17152.05586253494,16621.172138189493,16082.331483380025,15536.22743736741,14984.265701857568,14428.316249126077,13870.520023510504,13313.140182141247,12758.449661141702,12208.648263278003,11665.803591499307,11131.811083444722,10892.827125055568,11152.880154866647,12103.804575979499,14012.270247092065,17336.150191492412,22887.595537115463,32020.42340967931,46637.40891359538,68596.6295560182,98700.30733878126,136306.06797211355,179577.89480387978,225914.94224587656,272414.6508679781,316282.66634208546,355142.4808190534,387225.6357614383,411445.8060985508,427376.09016913606,435157.6983336089,431233.5164892199,416648.70836708794
IH0,0.0,384.80969115311046,679.0788414422068,920.0049394991372,1127.009185725846,1310.984453709679,1478.4332805961817,1633.4372799252526,1778.6509559265592,1915.8354635223936,2046.1652836713465,2170.4168008706924,2289.0915836692384,2402.5010235400778,2510.826487622353,2614.1629723446904,2712.55107824425,2806.0004185310513,2894.5065971387544,2978.0632956505415,3056.670619728471,3130.3405866920707,3199.1004404135488,3262.9943322306262,3322.0837923335166,3376.4473259780934,3426.179397004118,3471.3890034357323,3512.198003484496,3551.073944516858,3592.073516153723,3640.697327772322,3704.469159745902,3794.453234026082,3928.061711850832,4133.312292841452,4453.017225248911,4943.9890784349955,5668.024308783532,6680.049759628689,8018.734129633262,9700.885622894528,11719.753720729717,14046.654023428753,16634.988373668653,19425.62063487336,22352.63833830686,25348.723212854155,28349.60796876814,31263.404569195187
IN0,1694.7539018521104,3301.9232691776215,4446.102169840922,5310.612414833771,5992.831881672669,6548.495938394335,7011.65668049598,7404.262353230735,7741.041364660744,8032.156358672453,8284.747119952417,8503.888622149814,8693.22121059641,8855.384063781663,8992.32255296433,9105.509995140383,9196.10864586678,9265.086208908464,9313.299148719574,9341.55098654989,9350.63170132256,9341.34291172939,9314.512456518998,9271.001187126201,9211.704164555435,9137.547963080551,9049.485395148893,8948.48866266168,8835.541693268538,8721.91425750226,8625.413188046334,8569.482688893391,8585.534717996758,8719.318430579737,9042.716993168564,9671.458493999284,10781.817715796875,12604.712790142803,15383.85638170293,19323.13380748341,24546.976960430024,31079.00177688148,38838.669991970826,47652.675606256016,57276.37151505856,67420.25592020033,77777.05226920887,88045.94896932444,97951.82480202426,107108.98803025845
D0,19486.0,19486.0,19486.4252730684,19487.175758176294,19488.192503161044,19489.438019231835,19490.886855875167,19492.520748867253,19494.32594478628,19496.29162384018,19498.408912580177,19500.670235537065,19503.068875264264,19505.598668624498,19508.2537966153,19511.028640672394,19513.917687216966,19516.915467539955,19520.01652355635,19523.215392322825,19526.50660391324,19529.884688518236,19533.344189609405,19536.879680766953,19540.485784365013,19544.15719077791,19547.888677140178,19551.675124983223,19555.511536297796,19559.393047746456,19563.317523005826,19567.28730900979,19571.310831699808,19575.4048319357,19579.598278220525,19583.939382136214,19588.507319071898,19593.428578443876,19598.892436173697,19605.156462639177,19612.53893071014,19621.40084803287,19632.12179786829,19645.0739031304,19660.597586121286,19678.98177111219,19700.45002797493,19725.15308330719,19753.167266807668,19784.497883073225
R0,0.0,9464.838760834964,17141.132957041198,23789.81177313999,29799.09804262472,35382.093488220606,40663.72803042847,45721.307699694444,50604.48636294814,55345.71589990547,59966.11142492425,64479.003571118665,68892.25373928179,73209.85900756206,77433.11584983689,81561.48816201996,85593.26395690067,89526.05365145272,93357.16584086849,97083.88659596286,100703.68215803233,104214.34073572014,107614.06607978765,110901.53318483943,114075.91460704533,117136.88436167115,120084.60509475721,122919.70315872414,125643.23532669578,128313.54171674575,131030.37522956113,133932.8164668114,137214.5465996599,141162.52000528446,146228.59623564102,153139.28729676438,163007.92119646436,177328.97941113065,197769.88974495648,225882.81812933725,262863.8131850975,309395.5717171488,365581.6671931717,430962.5725090075,504594.21572811715,585165.7239126385,671133.4063555719,760851.6529036845,852686.8764116139,944279.2060323276
G0,1616083.0,1616083.0,1616489.248441953,1617078.773055967,1617752.9418517922,1618465.6678392927,1619194.0913077518,1619925.9686742227,1620654.0738404142,1621373.6658245297,1622081.3276841827,1622774.4268340755,1623450.858883115,1624108.9209348513,1624747.243621662,1625364.7493675093,1625960.622061619,1626534.281549046,1627085.3601618786,1627613.6802648427,1628119.2325638256,1628602.1552411735,1629062.714083185,1629501.2837708457,1629918.3304711264,1630314.3958200638,1630690.0823428808,1631046.0403159424,1631439.2348669036,1631921.7054204105,1632551.1520979197,1633407.6716338983,1634619.7414216592,1636404.0489650455,1639116.5842872998,1643275.5158937676,1649465.4602889703,1658135.6599287519,1669481.2931399297,1683435.9628372977,1699709.304043861,1717848.3456456815,1737306.6725892609,1757509.9687307288,1777910.1815167207,1798024.239234591,1817456.5493775103,1835907.0259025367,1852349.4721777013,1866527.4811082955
H0,2255502.4265965084,2250427.546136666,2242326.006970574,2234253.63334548,2226210.3202654365,2218195.963112481,2210210.457645276,2202253.699997753,2194325.586677761,2186426.0145657207,2178554.880913284,2170712.083341996,2162897.519841965,2155111.088770534,2147352.6888509598,2139622.219171096,2131919.57918208,2124244.6686970247,2116597.3878897154,2108977.6372933122,2101385.3177990564,2093820.33065498,2086282.577464622,2078771.9601857495,2071288.3811290807,2063831.742957016,1953581.8512482522,1845591.314550594,1739927.8971125812,1636663.9399631743,1535876.5389925917,1437647.6830363807,1342064.3332876088,1249218.4201864197,1159206.7277810345,1072130.628435603,988095.6228365146,907210.631909818,829586.9792497867,755336.9962139234,684572.1788661567,617400.829149337,553925.1255773075,494237.5955427901,438417.0063022815,386523.758014204,385132.2724853528,383745.79630440555,382364.31143770966,380987.7999165339
S1,130170.69173223691,119657.19091116272,111140.87454690745,103510.28781420193,96566.37822399924,90203.97332210284,84356.94596650754,78976.76115973601,74023.6595258686,69462.90960279372,65263.15868187164,61395.66895746512,57833.93144017472,54553.44204260078,51531.54745713697,48747.32121112854,46181.45312766691,43816.145367881356,41635.01254974182,39622.985274142105,37766.217121119706,36051.99542105743,34468.65613413282,33005.503112228325,31652.731928854715,30401.35837073569,38495.45975200782,45862.03092715977,52545.044306753094,58567.74939259391,63919.52538073286,68536.56234852113,72273.33599611183,74875.0360463506,76007.73737038365,75431.42341749126,73185.69486650752,69528.7437623429,64810.80357769992,59408.53285195901,53677.45378636688,47920.967061529416,42373.936300611655,37198.7311762819,32490.632123791544,28289.098370260766,21702.282888144022,16958.18060108498,13395.960482059316,10695.964188104412
E1,0.0,2392.7567000080767,3362.729461373304,3722.338260055903,3798.8538056892953,3736.8683133068234,3604.236665520155,3434.911099895097,3247.12418328896,3051.400953429394,2854.22383001879,2659.784607457287,2470.8695001916026,2289.3375975146196,2116.400376581006,1952.7985649344175,1798.922499719124,1654.8990037439003,1520.6568361391303,1395.9774118273326,1280.5347617647003,1173.9272643979398,1075.7028773344637,985.3791272033309,902.4588212133001,826.4422473113251,756.8364897459054,797.5603315116027,932.5387267412217,1165.2660283713644,1527.4311457192327,2091.5075656240706,2989.2783665023185,4424.169239167265,6620.903037149553,9642.926246196783,13247.590098317205,17033.331881886454,20612.689527086986,23675.180301711287,26014.452010489054,27531.155026254997,28220.29065301989,28149.48179724277,27433.829738655044,26211.854854452962,24625.552208904726,21758.54440139788,18618.153346118826,15589.206981268904
I1,0.0,0.0,116.07098341510525,253.17372476936222,376.98495892599203,476.75173523685964,551.1457834605582,602.4282005540392,634.0001873340143,649.384907985774,651.8262612037597,644.1553816944152,628.7720575206665,607.6732462736627,582.4984079631118,554.5782341016469,524.9810321150649,494.5545497737279,463.9626376630232,433.71686757669244,404.20352302150616,375.70647739698273,348.42648258417927,322.4973573628478,297.9995163811748,274.9712283391837,253.41794211825663,233.3199740575666,219.703081965472,215.68655285682672,223.8598963121858,247.76930927572243,293.68163638550243,372.85151893057423,503.8785575725856,712.0938198846973,1020.2273649669652,1434.142870701592,1938.9099563006448,2504.1498356972515,3091.2327772653725,3660.179113049002,4175.152490418609,4608.107916729398,4940.567905456635,5163.7807626531185,5277.676289590927,5289.088107790957,5158.865029967033,4905.497330271361
A1,0.0,0.0,586.6738190922013,1293.8379839241657,1947.7408659108034,2489.6238199925047,2907.932120895649,3210.0591513547247,3410.2442787647874,3524.3493928953326,3567.6446123072,3553.9354395492887,3495.294051874792,3402.06133579139,3282.9658257947294,3145.28738842769,2995.0315339928475,2837.098376485865,2675.439102459342,2513.1971937910184,2352.833841673978,2196.238075556952,2044.8226464502961,1899.6069200586467,1761.288092549284,1630.3020154430583,1506.874846852396,1391.0666565305628,1308.4050775788683,1275.3708176094501,1306.0052140597136,1419.311058494792,1648.2601707305923,2051.5415583568138,2725.9838457930564,3804.1491470992655,5407.643433065484,7574.2570572529585,10235.76418111753,13242.583312280898,16398.922799743566,19497.55436230864,22348.336097205593,24797.928864892812,26740.24163905825,28118.622983368146,28921.71520133366,29175.24753786715,28675.119187054974,27505.03215578683
IH1,0.0,0.0,0.0,4.815008011601323,15.26401947076965,30.733092267220183,50.16903427906798,72.47524820306394,96.66111239011597,121.8880992457721,147.4731456463001,172.87534162661794,197.67722893348343,221.56553639111968,244.31331214857778,265.76413490932066,285.818521940968,304.42241220479366,321.5575123974623,337.2332710818829,351.4802535820113,364.3447101057896,375.8841532524122,386.1637847864569,395.2536336422784,403.22628693767535,410.1551132116516,416.1128922720669,421.1707791526706,425.60762374400514,429.8285776010412,434.3417144251277,439.7965736516824,447.0954509099601,457.59750141715017,473.41835967354507,497.7009821406491,534.4963402470889,588.0536635076709,661.9556315583795,758.4849253852626,878.2963875150735,1020.3790995876736,1182.2467592968835,1360.277276115902,1550.1222761726228,1747.118625756607,1946.6520638892293,2144.4430528659223,2334.635459252383
IN1,0.0,0.0,0.0,21.205946218915944,66.3643815675171,131.80911342183285,212.0988737664931,301.83092577521256,396.2948430349181,491.64502587555313,584.8782897748289,673.7393082459683,756.6065524980667,832.3807306958922,900.3842025058169,960.2738741095943,1011.9674974963087,1055.5822529346751,1091.384146734052,1119.7467222818882,1141.1176815061644,1155.992162447293,1164.8915776392184,1168.347070106854,1166.8867819469708,1161.0262525830608,1151.261370084956,1138.063390628793,1121.87561980094,1104.0366495655392,1086.3857814876715,1071.1403608418123,1061.0510243381948,1059.8711968501693,1073.2165284163052,1109.8105648259718,1182.5539583073198,1307.833396258902,1502.2599881421413,1778.8586327280436,2144.4309586936847,2598.3695100053565,3132.794015118563,3733.6842203634415,4382.6206695004075,5058.76001863984,5740.73718592372,6408.278407375381,7043.406152543152,7621.919119183326
D1,0.0,0.0,0.0,0.0,0.005321314089890059,0.022190370523951924,0.056155098415040405,0.11159948985575109,0.19169563061024664,0.2985208192842129,0.4332256543215982,0.5962058458222727,0.7872593163410768,1.0057226337519107,1.2505861537691927,1.5205894158928568,1.814299090367539,2.1301719039311884,2.466604837675145,2.8219746558162266,3.1946685646662214,3.5831075498553804,3.9857637105079697,4.401172705892642,4.827942253116313,5.264757461878846,5.710383661653727,6.163667265277007,6.623535118310102,7.088992703417989,7.55935367468466,8.034379440107042,8.514392906175768,9.000434818965807,9.49454309806329,10.000257735696831,10.523456821071907,11.07349188694013,11.664191403846148,12.3140798853804,13.045641249475038,13.883882122739859,14.854532832089182,15.982206486334972,17.288768453171894,18.79208114094155,20.505201345388848,22.436032392304615,24.587378149306236,26.95731294581912
R1,0.0,0.0,0.0,117.33476381844025,377.24642964056073,770.3769406640222,1275.4209035695667,1868.4702444454451,2526.8053876211843,3230.3012908165983,3961.798164626166,4707.028208764301,5454.362759544646,6194.49961387316,6920.144802068695,7625.712771517072,8307.054647681472,8961.217412697908,9586.233586743425,10180.939491524137,10744.819544253092,11277.87384317913,11780.506343575433,12253.431072536203,12697.594031676952,13114.108656411383,13504.202921300355,13869.176393606485,14210.36573676378,14534.236762318755,14850.623389997787,15172.266913258447,15515.828856557966,15904.713756052912,16374.266948602757,16979.503303146856,17802.422098841187,18950.041941629177,20537.82687852921,22668.496739880648,25415.564008444268,28813.75717036772,32856.33421078115,37498.1073742576,42662.47165060073,48250.615689720755,54151.27719077934,60249.77153924889,66435.46608300465,72555.93613827054
G1,0.0,0.0,116.07098341510525,279.1946789998795,459.76275031565604,644.0425381750248,825.315452390166,1000.1544965045517,1166.779673776833,1324.2954367560142,1472.316800339342,1610.77323714965,1739.797560875871,1859.657742555296,1970.7119363694014,2073.377064424012,2168.1059810091288,2255.3704754014143,2335.6484889648427,2409.414507217754,2477.132412266573,2539.2502736833876,2596.196678654697,2648.3782861011405,2696.17835049165,2739.956007814482,2780.046153369561,2816.759771452397,2855.448875117269,2900.685687988865,2957.211942351802,3031.306577707705,3132.7641726070524,3277.772012183994,3492.385422056911,3813.5608790582064,4281.33260544878,4923.964098482191,5750.239324191412,6750.146729834097,7898.6134586662765,9160.556650739392,10496.07406395585,11865.020972910306,13230.532992924938,14561.32922331372,15832.8482917088,17027.41690874284,18082.90894700271,18986.06277298508
H1,644429.2647418596,603473.4834344261,568469.7737837733,535937.1635671693,505699.2506781295,477592.23278264725,451464.007336806,427173.3358888429,404589.0680739175,383589.42103782046,364061.31033041276,345899.7285923854,329007.1686215319,313293.08764856786,298673.40987895837,285070.06456746766,272410.55708737875,260627.57063762148,249658.59639938638,239445.5901101189,229934.65316793777,221075.73651430453,212822.36566792644,205131.38539909004,197962.72264153804,191279.16633920718,175793.85486728503,161439.0001587338,148122.14134701964,135759.65668891778,124276.03051582922,113603.17965840263,103679.83322762392,94450.95977036266,85867.23587123508,77884.55025114567,70463.53732968774,63569.13410033873,57170.15406002292,51238.871911059185,45750.61292165802,40683.34133986631,36017.24329491414,31734.301406916613,27817.861071726864,24252.192231401907,23911.378315152906,23589.898902160683,23286.39099013078,22999.588869154337
S2,130170.69173223691,136920.5409742119,143056.00284420451,148595.60696262209,153555.86545082385,157970.6307146347,161879.82647330433,165324.47087147026,168344.42314287607,170977.39130586505,173258.54139199381,175220.39748175538,176892.8828214676,178303.42872040896,179477.11474368034,180436.82165441787,181203.38741748824,181795.7610388458,182231.15133112235,182525.16895254058,182691.96078862436,182744.33619029808,182693.8848734907,182551.08648702843,182325.4119997127,182025.41716155288,232800.13541550247,282656.6769048914,331440.98932044744,378966.51767986827,424975.9397720272,469081.2444170028,510669.5318682426,548789.93715274,582158.963911222,609539.5571064947,630252.4245833855,644138.245280544,651343.4999246923,652241.7632135228,647371.8089411542,637383.984379421,622990.531800538,604920.7864012746,583882.914039045,560533.756551461,511363.6609269821,468611.9164443879,430407.5292986439,396222.8969702569
E2,0.0,837.4648450028268,1261.4203404910186,1497.8807975331388,1645.697877590182,1748.8185264365104,1826.607369404412,1887.383786528915,1934.6097041238393,1969.7231940233946,1993.4163810298487,2006.1897275767892,2008.5722200422374,2001.1904910995368,1984.7726943088182,1960.1269938053567,1928.1128000921044,1889.612638762281,1845.5077518100386,1796.6583348974223,1743.8883437586921,1687.9744087112654,1629.6382687200262,1569.5421289991714,1508.2863896524013,1446.4092551411513,1384.3878006777381,1534.4762192704566,1880.2552716032515,2446.4815628349215,3323.2112563662977,4703.709933021346,6944.3170408821925,10624.503790002676,16472.640440717325,24948.650093514192,35826.072232954626,48441.78921111178,62041.8786068372,75886.96424507478,89307.15269734844,101731.19131188982,112702.69673304984,121887.1545458257,129071.2866958889,134155.7171791232,137141.9874384264,132865.29653128496,125276.38272184938,115912.2181529483
I2,0.0,0.0,40.62484419528683,92.70814418926574,144.58587196641963,192.0040836825293,233.79432667396736,269.9894582867931,301.0185372707197,327.38237105592424,349.53925524405315,367.87831859100453,382.7257315166381,394.3602038689133,403.0283614554901,408.9568633968948,412.3607595441895,413.4485789872043,412.4249131849909,409.49123644284884,404.8455837770732,398.681563965543,391.1870561045425,382.5428313549423,372.9212584676908,362.48518932429454,351.38707537395385,339.7683338790464,338.0349840432102,353.4637232186054,392.9008745466272,466.02650554799027,589.7257732953387,794.3842786829525,1131.6854866407489,1677.0591320201047,2511.335560560642,3686.2390148591808,5209.7307435243665,7051.414972779816,9151.843465405404,11432.399102626277,13804.378186896844,16176.823895761328,18462.943169097285,20585.054363647003,22478.0699531251,24091.568597600926,25135.89153823915,25577.96371753823
A2,0.0,0.0,205.33583668227044,473.5530561093986,746.1039587851385,1000.3875680039823,1229.0983402327647,1431.1398029843529,1607.67458551631,1760.481611982712,1891.3366188158789,2001.829895449638,2093.3563805191648,2167.1617257327866,2224.3960948996405,2266.1581531528477,2293.524984270446,2307.568971910591,2309.3644071646563,2299.986792348261,2280.5074384607497,2251.9854178743994,2215.4584084634307,2171.933513835035,2122.3787812566143,2067.7158590887466,2008.814026978081,1946.4856814778316,1933.4227957696826,2007.7531576296544,2206.0490051887787,2579.6487664504525,3217.009471107148,4276.266689426353,6026.007923040725,8859.690391230615,13204.84722343133,19347.979655843395,27355.70057851381,37096.448017364775,48283.68666342971,60523.93883453533,73362.35842654791,86323.16910302018,98943.73107162428,110801.6394046531,121534.60441483163,130853.1722947323,137259.43582987093,140523.74053298045
IH2,0.0,0.0,0.0,1.685252804060463,5.512378041423412,11.449062078904952,19.28688248099457,28.771260096664072,39.65180594627599,51.69871043278091,64.70549117695087,78.4869704339368,92.87616923271175,107.7214935560687,122.88459466699351,138.23889106578892,153.6686095289464,169.0681834907335,184.34186919398394,199.40347326038005,214.1761173222074,228.59199190467433,242.59207209948227,256.1257823247533,269.15060763332565,281.6316556384491,293.5411770728972,304.8580550192358,315.567273522035,326.0856594492307,337.1272721991373,349.6822495434521,365.13129481754964,385.54023055840605,414.2124331812243,456.55859554647657,521.0583986499627,619.450465233022,765.4887513849295,973.1047323312362,1254.8142549967151,1620.5280665690584,2076.7855559656837,2626.373768654637,3268.2756099297258,3997.884817087083,4807.423789365277,5686.50125173151,6622.749682013147,7591.922898595902
IN2,0.0,0.0,0.0,7.42208117662058,23.97610980904512,49.152591073138865,81.69117334530372,120.18316565340743,163.29868086038175,209.8549483352912,258.82181934884255,309.3061127751697,360.5318999839833,411.8229428882807,462.58887100196034,512.3148821271211,560.5541891249333,606.9223839200345,651.0930224327265,692.7939096139548,731.8037263685001,767.9487719445939,801.0996943624077,831.1681516767557,858.1033939807264,881.8887855526552,902.5383031282099,920.0930537158162,934.6178565849327,948.0753409237298,963.656146306308,985.6368308239847,1019.84147070595,1074.8780409513877,1164.4610492237405,1311.0387102303202,1549.6799875358502,1928.409037105473,2502.2180563528964,3324.711762056041,4441.171340593927,5883.676776900977,7668.286971931063,9794.024910385771,12243.346431774047,14983.75712848087,17970.249609875562,21148.251091745253,24456.797218015126,27785.154157939793
D2,0.0,0.0,0.0,0.0,0.0018624599314615204,0.007954473666423446,0.02060742361161812,0.04192235377349714,0.07371895958752434,0.11754021869303782,0.17467513427204884,0.24618451516270617,0.3329245207113145,0.43556677317740733,0.5546153604409775,0.6904214740458501,0.8431964137815199,1.013023532467507,1.1998695158581258,1.4035952383356647,1.6239663175274084,1.860663408805057,2.1132922277867805,2.3813932586154465,2.66445109174573,2.961903332167936,3.2731490234932843,3.5975565421842948,3.934470927307162,4.283220623020032,4.643594730385475,5.0161714943944,5.402623412438289,5.80614886848966,6.232229293724013,6.689996851240882,7.1945633403283855,7.770411893791016,8.454998602824794,9.300979766009252,10.376408074875304,11.763168129940771,13.554097410415295,15.849260412016418,18.751801738383115,22.36374194925292,26.782010985496527,32.094943359603704,38.379389649227406,45.69853244437951
R2,0.0,0.0,0.0,41.06716733645409,136.1782027213844,286.69319870294805,489.42539876371256,739.6597187414964,1032.3864333242705,1362.7571108668676,1726.2156811150141,2118.5059184017746,2535.641643751888,2973.873896294731,3429.666381715346,3899.6809447474293,4380.771292464162,4869.982301094271,5364.55240180186,5861.917055968557,6359.71189652095,6855.774612076306,7348.145050812326,7835.06332134865,8314.965881776901,8786.479751747922,9248.41507193011,9699.756283743362,10139.652221150813,10577.793312438955,11031.601139992617,11525.9837660165,12096.347851339928,12796.10625683071,13710.764474020381,14980.287291478195,16824.54516769628,19550.81234071796,23526.262560597992,29134.371680460223,36735.2127541489,46634.01705462174,59059.077312924426,74148.61235387718,91945.66311351494,112399.82571983922,135374.48994835312,160658.18388836773,187978.62064464786,216760.65757840456
G2,0.0,0.0,40.62484419528683,101.81547816994677,174.4766464398702,254.30831969582601,339.14230477143184,427.7497731694235,519.305463801654,613.1520512467134,708.7019699597467,805.4012288944866,902.7201140934432,1000.154572364849,1097.230948037351,1193.5109076684723,1288.5953213026348,1382.1267483972438,1473.790559119834,1563.3148720815605,1650.4695333940897,1735.0643586956037,1816.946837427347,1895.9994700918317,1972.1368803114988,2045.302816705275,2115.4671358207024,2182.6228367960657,2257.0592238291533,2348.269115100459,2466.946254696062,2628.152949309552,2856.326686164345,3193.1907342636564,3708.57811284626,4507.654582004632,5717.896455415236,7455.794602755333,9805.672512240239,12815.281413467792,16496.50590582133,20828.734518763555,25763.644708136926,31230.775086789843,37143.43720314925,43404.59663377346,49912.39829354396,56565.0618716781,63010.26611249112,69087.33735887529
H2,644429.2647418596,682788.1495479227,717764.9680129065,749825.1308068319,779179.8671234531,806025.2913728022,830543.483102839,852903.4897804342,873262.2579417749,891765.4978287002,908548.4862620125,923736.8121634467,937447.0688228618,949787.4967146037,960858.5803952799,970753.6027628807,979559.1597229036,987355.6380895866,994217.6593483503,1000214.491717969,1005410.4327768111,1009865.1647557494,1013634.0844501551,1016768.6095639337,1019316.46316906,1021321.9378438239,971684.8338942737,922226.1911703655,873091.0570153542,824416.545700311,776332.8121476603,728963.9298265419,682428.6691378979,636841.1694314744,592311.4941583693,548946.0545695456,506847.8829061869,466116.73139674973,426848.96896673157,389137.2440298117,353069.88005627925,318729.9722131335,286194.1600765675,255531.06539875412,226799.40736103297,200045.84228533113,199396.64360798686,198730.8296351646,198049.97920394797,197355.55499843412
S3,390512.0751967107,387373.79893936706,384693.57852029364,382258.6626221553,379978.31348159834,377810.44758683915,375733.9627550082,373737.2198876406,371813.0069572096,369956.2658369224,368163.03861731465,366429.9656112378,364754.0384154413,363132.4736623521,361562.6455158089,360042.04781034956,358568.27184735565,357138.99291925057,355751.9619857082,354405.00055401673,353095.9976309874,351822.9080400439,350583.75163352187,349376.6130712602,348199.6419276984,347051.05295305204,436422.48091402906,528644.5398112678,623793.9832344082,721913.4912871489,822969.9123423785,926783.8425832839,1032911.412822405,1140485.8221230973,1248165.7794237048,1354508.0130608927,1458550.3525120039,1559800.7706614516,1658016.0289961083,1753144.322692443,1845289.5347084464,1934683.6240059098,2021657.236640425,2106605.4202224957,2189947.112950964,2272078.3773962604,2154018.5154254124,2047050.6306846666,1947473.720535027,1854654.2686969738
E3,0.0,1435.6540200048457,2097.0460304145763,2413.78895481066,2568.8365058400514,2643.636885308785,2675.4655932646156,2681.8305975860785,2671.253360552638,2648.132013728997,2614.962643720084,2573.3603018854915,2524.528051149184,2469.470166621903,2409.0863933264613,2344.2111704025865,2275.62786419599,2204.0721728814397,2130.231350146266,2054.7423118599645,1978.1899727077516,1901.1063376572952,1823.970483853611,1747.2093902470488,1671.1994973288602,1596.2688550092143,1522.6997167616369,1671.822864149641,2032.0006118683555,2638.0654649558637,3599.7788231911773,5150.200364783354,7726.906776814964,12068.416668877864,19174.374423290334,29854.66059647932,44203.18345966793,61818.59386314862,82168.17999165051,104679.38388782568,128780.23874062524,153917.04328181193,179565.20486472614,205237.77806840377,230493.0078201426,254940.45363330824,278244.57197993033,283181.654165506,278475.2628914887,267607.41994631616
I3,0.0,0.0,69.64259004906313,155.75627953151775,237.92986415720813,309.2029106454126,368.12638161829904,415.38429580414606,452.3566271547199,480.5273554250795,501.261130068414,515.7377549747371,524.9508889915271,529.7297909019028,530.7665317990972,528.6416793305253,523.8461267515784,516.7987187491981,507.86009103977545,497.34336972819506,485.52238022555605,472.6379351915569,458.9026687649005,444.5047861709486,429.61101298180915,414.368958868903,398.9090556382847,383.34618663467813,378.50608462871156,392.2230184688992,432.2646606205593,509.98176603448246,645.4860265064833,875.6070112640934,1264.7428158693817,1911.346743516606,2931.0874484942533,4418.258251273669,6426.544493334697,8971.754777636517,12038.379319479132,15586.639622236231,19558.815119824,23884.677493977004,28486.120920550165,33281.12021246822,38187.09870326059,43123.714892222226,47193.128073754815,50121.950750868324
A3,0.0,0.0,352.0042914553207,795.7727189388224,1228.4488383340563,1612.6054413824797,1938.27083516322,2206.60714866921,2422.836818401032,2593.2271488286315,2723.8703500170964,2820.2521990293976,2887.157307776501,2928.708341670105,2948.449668653341,2949.437389232917,2934.32097778604,2905.4120853802074,2864.740416799755,2814.0982418240656,2755.075540029355,2689.0877087935946,2617.3975069395256,2541.1326052099294,2461.2998300621803,2378.7969411314134,2294.4225798337065,2208.884864300184,2177.0178102183586,2239.835216214803,2438.6886129002633,2833.5713381416163,3529.6213612108386,4718.237352300979,6733.613713015369,10088.206182099966,15390.551866949008,23150.505579318145,33677.54540991208,47088.639600796596,63336.978742734325,82244.87624707566,103534.42226278348,126854.66539645684,151805.4516465823,177958.34502962374,204874.86566690274,232121.958606763,255130.14335487073,272382.7432643548
IH3,0.0,0.0,0.0,2.889004806960793,9.31820722654092,19.084844255678142,31.69966282819725,46.6187322478596,63.33253760886002,81.39446812608655,100.42443307978435,120.1031728848283,140.1639155468644,160.38407186807237,180.5779249324907,200.5905296349469,220.29274542397573,239.57722974817796,258.35520717338096,276.5538484915044,294.1141227795947,310.98901384510714,327.14201732246596,342.5458549994497,357.1813589672949,371.0364905075379,384.10546793053635,396.38798449558584,407.8885026092176,419.060522297095,430.6774987627478,443.8265265987191,460.0534948773219,481.7214247839621,512.6949080502619,559.4670653729281,632.5430787674509,747.1097866795518,922.0969739873901,1178.451252834113,1537.542413157138,2019.8595330058624,2644.0140126009164,3426.0161298908165,4378.785063510133,5511.8564349267845,6831.25729522951,8339.522211146059,10035.824771674948,11882.102343364222
IN3,0.0,0.0,0.0,12.723567731349563,40.522390119224795,81.89753148461809,134.15586301674102,194.47869989830005,260.3179952767624,329.5095034352967,400.2719466896241,471.1654222610816,541.0399891612866,608.9866746836828,674.2949856354064,736.4175870286505,794.9414986321921,849.5647682055298,900.0775704596903,946.3468112878805,988.3034823987399,1025.9321692130902,1059.262249785455,1088.3604317681434,1113.324360109633,1134.2770939299571,1151.3623006831037,1164.7400527594577,1174.5831390079613,1183.033259214819,1193.5527364641302,1210.8441005647683,1241.4406167239513,1295.212279888006,1388.247697399703,1547.5694293093163,1816.7907451055091,2258.4034309012322,2948.8969190389125,3970.615892664116,5404.537680026682,7324.621109698297,9793.73537804058,12860.95517742255,16559.988451009194,20908.531337985998,25908.379600213193,31546.149596240593,37794.47111026326,44463.35463742957
D3,0.0,0.0,0.0,0.0,0.0031927884539340342,0.013490820624937025,0.03458246790701972,0.06961540285666504,0.12113617211927856,0.191128231097066,0.28108146254234606,0.39206569131810587,0.5247979120273277,0.6797002957609823,0.8569490187888971,1.0565150120232059,1.2781979685360791,1.5216548615050511,1.7864240343089457,2.0719457200082734,2.3775796643434446,2.7026203749324633,3.046310399370164,3.4078519423912215,3.786417062168832,4.181156633430031,4.591208226292178,5.015703021228734,5.453771859718162,5.904550514874905,6.367675946118913,6.843639898171123,7.334135520144406,7.842564403023813,8.374939634576606,8.941545262531818,9.559841217725527,10.258897250321464,11.084566870179582,12.10362387031368,13.405991226888284,15.105208774859848,17.33745988777301,20.259496358993935,24.045763767117222,28.884985342432408,34.97642262310948,42.52599795282523,51.742434755879295,62.833543147082395
R3,0.0,0.0,0.0,70.40085829106414,230.24184350120106,478.1189820618045,805.0633664336515,1199.9676776173503,1651.8059140511014,2150.459783784718,2686.948141878789,3253.4124284338423,3843.0136324864698,4449.807569020765,5068.625384687885,5694.968524415772,6324.91981762259,6955.06935446267,7582.452877048386,8204.500336966677,8818.992533192102,9424.02410397087,10017.971500240563,10599.464877911496,11167.363101698227,11720.73125619864,12258.820217220577,12781.047955742797,13286.982335811224,13787.166998925675,14300.463563917823,14854.190622441354,15487.919330446603,16262.60153443678,17278.002524482807,18701.596572825776,20804.81055103155,23983.13772879926,28737.423769270303,35634.552209772635,45269.26525852783,58231.341831547456,75079.05059500595,96318.51342606352,122388.35819602983,153649.05318729684,190376.38937461254,232758.6148321053,280896.7003253905,333976.29776996
G3,0.0,0.0,69.64259004906313,171.3688520698281,288.46009571380023,413.0725895224984,541.3135983426599,671.0985959157327,801.1923554749411,930.7730205334499,1059.2320849445996,1186.082126007834,1310.9140660543221,1433.3771871710308,1553.1694881404944,1670.032613758075,1783.7486868884457,1894.1378309594465,2001.0558576118651,2104.391916690638,2204.066054391896,2300.0266907212454,2392.248052879724,2480.7276077714937,2565.4835347562125,2646.5522740631113,2723.986179397155,2797.8512963853673,2878.9502747884167,2977.521228249276,3105.4919712963315,3280.114768542395,3529.9474494510805,3904.7743879102754,4490.204988110945,5420.3407163583,6868.569788267638,9012.83584516538,12011.6133568992,15997.535309192994,21075.46029467365,27322.501188971823,34788.911199653194,43499.495905450174,53455.43949731237,64636.49693114975,77003.48316314368,90500.93616349116,104237.88362831096,117746.52728626663
H3,1933287.7942255787,1924848.8395682448,1916936.8629236037,1909507.2101136798,1902521.1396818615,1895942.747650268,1889738.763936192,1883878.3633212815,1878332.9899338474,1873076.1942789436,1868083.4819198179,1863332.1729783672,1858801.2716816838,1854471.3452369897,1850324.4113685219,1846343.8338975376,1842514.2257908066,1838821.3591440131,1835252.081604594,1831794.2387739408,1828436.602161753,1825168.8022958434,1821981.2666190418,1818865.1618311468,1815812.340358315,1812815.2906549608,1809867.0910643102,1806352.5418994203,1802278.487278477,1797653.4410394344,1792487.4783843476,1786792.1400186168,1780580.3475402063,1773866.3288004415,1766665.5518870028,1758994.6662660202,1750871.449458679,1742314.7574144541,1733344.4764764379,1723981.4745173096,1714247.5484681155,1704165.365088694,1693758.391477397,1683050.8115493301,1672067.4246125945,1660833.5223522638,1649374.7411217727,1638003.7211791864,1626719.5333793021,1615521.275115474
S4,195256.03759835535,196344.86007815396,197917.01310458343,199675.48645942163,201499.81117966297,203340.06711876616,205176.64859831487,207003.38676107794,208820.09674709415,210629.18653237628,212434.082458885,214238.48786837194,216046.03176914327,217860.103921441,219683.78112410087,221519.79935640446,223370.5497019156,225238.08699879597,227124.145464515,229030.15815125516,230957.27841014916,232906.40224120623,234878.19079682106,236873.0925415358,238891.36472277256,240933.09391282822,311505.78064544185,382151.7824551023,452736.0114017592,523030.17417628923,592622.2302009936,660770.9837662096,726173.5415570543,786681.4166113618,839305.4752578615,881159.3858191634,910761.487603241,927961.3695807252,933385.4936447646,928202.8938436112,913931.2974286986,892270.9654615318,864960.2728029693,833657.2913094138,799851.0217375947,764803.6984229144,680130.2635064123,611500.1272906486,553536.4803630883,504394.9079353594
E4,0.0,2153.4810300072686,3167.862820162355,3676.9424012393984,3950.937936417148,4109.811339929606,4207.799618191074,4269.672610242464,4306.876771866779,4324.857453690672,4326.405313967944,4313.1826435619205,4286.409319700355,4247.159812135271,4196.481178046399,4135.430213213946,4065.0757070015397,3986.4871789667977,3900.7198632615,3808.8002141498437,3711.7136196718648,3610.3948104059277,3505.720912307309,3398.5068700460756,3289.502893556574,3179.393575443106,3068.798351863811,3444.4426450407123,4278.763734750808,5641.126156137005,7758.666289241929,11113.324835680083,16596.054896472786,25664.894682470534,40166.44209189735,61275.24715039143,88393.88217094823,119751.26020758059,153304.13954867245,187053.93123844167,219229.6764549058,248389.46639401765,273470.07055009913,293795.6567932191,309053.88798243646,319247.47538851656,324629.85629732837,311372.4660754981,290239.5076987966,265470.0616688973
I4,0.0,0.0,104.4638850735947,234.7158749818185,360.4628936142226,471.3111061502469,565.0160521232956,642.4674372447072,705.5570796361786,756.3079467110172,796.5536444561649,827.8520914367718,851.4925864584225,868.5345669363502,879.8520859243617,886.1740420733474,888.1171929596966,886.2118768275815,880.9214216160588,872.656474447095,861.7854155917192,848.6418418170388,833.5299068417879,816.7281275591102,798.4921149642973,779.0565689932255,758.636783341097,737.4298352859879,739.199336843114,781.0444918703124,879.596006900018,1058.7745233086648,1360.5167321602685,1860.577421627675,2688.456998049477,4034.2014820707627,6102.228728234187,9022.14910601562,12808.602541486403,17373.830710277485,22552.79889405049,28131.56209118089,33874.19178225308,39546.073649661485,44932.40538704368,49851.38810724279,54162.110371940624,57767.54453331807,59921.600567838424,60567.61203950749
A4,0.0,0.0,528.006437182981,1199.1252312567894,1860.8401707089029,2457.392378013436,2973.587902252354,3410.5698138440666,3775.3258218148017,4076.252620237713,4321.40269579042,4517.902272085696,4671.859900805938,4788.461521835596,4872.119333538324,4926.6198198435295,4955.251280915452,4960.906410581861,4946.161596635718,4913.336679440478,4864.539204949883,4801.6968146687395,4726.580805970865,4640.823276996918,4545.929720432733,4443.288472458067,4334.178055504583,4219.77316546516,4220.352504924898,4425.381003955672,4923.437917363167,5841.077629831703,7397.709441724091,9987.311276995071,14282.558088052037,21274.352393613684,32043.40108787553,47307.787938691115,67207.73173838944,91354.43037665595,118946.8133146332,148909.80731367436,180029.81589710442,211075.27114919346,240895.21320752634,268492.29304739885,293069.2962185056,314050.5907924338,327585.08127386967,333231.13831966097
IH4,0.0,0.0,0.0,4.33350721044119,14.022173195863267,28.819647008271623,48.05114284388685,70.95626085942573,96.81995350060738,125.01359279291178,154.99945114511013,186.32183654890943,218.59474513594802,251.4899440450062,284.72679445603717,318.06403269510645,351.2933114830483,384.2341824115084,416.7302011622326,448.6458811290776,479.86427530503454,510.28501702849803,539.8226929213125,568.4054554353346,595.9738087015771,622.4795211505908,647.8846329608535,672.1605369544499,695.2871190573569,718.2302817315351,742.6545324352376,770.8957906911152,806.2563425442905,853.7414742004205,921.443446388964,1022.7367589160012,1178.7311227854575,1418.7817506752353,1777.2945276681294,2288.9005687941626,2984.205899959017,3886.630476945581,5010.45902761121,6360.030551004842,7929.903283628339,9705.785183993818,11666.001307209297,13783.271939753271,16026.595285948046,18334.363549723013
IN4,0.0,0.0,0.0,19.085351597024346,60.981165059784004,123.68555077284181,203.40114266421364,296.1167631370159,398.1910789593316,506.5165717999965,618.515911508093,732.0799601267047,845.4932082526217,957.3643560780479,1066.567563069629,1172.1948597199791,1273.5183685864606,1369.9605092107713,1461.0704421552064,1546.5052763983538,1626.0148658987316,1699.4292944805595,1766.6483746912286,1827.63266504666,1882.3956468931904,1930.996804502899,1973.5354272413474,2010.1450069655227,2040.988142341589,2070.560595341963,2106.2497796552107,2158.0997271541555,2240.005651537025,2372.8064177895244,2590.104197237619,2947.424083925011,3532.142690154976,4464.467773059909,5882.0743436085395,7918.197082837154,10683.151853082683,14251.401888761506,18654.474837817594,23879.165317468483,29870.086810222954,36535.471192767436,43755.07859134073,51389.13885450718,59287.37835832725,67170.9803715551
D4,0.0,0.0,0.0,0.0,0.004789182680901051,0.020285810644602154,0.052135891334243914,0.10523969154276291,0.18365712091514,0.2906578531058097,0.4288168325205631,0.6001147330259035,0.8060286197095872,1.047608964844049,1.3255434936107604,1.6402097827337683,1.9917187759877262,2.3799511618061655,2.8045882057648455,3.265138278741737,3.760960018367323,4.291282818093329,4.855225150988946,5.451811095386834,6.079985327182662,6.738626770313812,7.426561045518694,8.142571822176006,8.885411154394324,9.653808867179963,10.447562254247053,11.268308142487863,12.120264904129327,13.011300438298111,13.954814244472514,14.97314899749731,16.103428222860067,17.406104878175576,18.974073883036315,20.93825387799745,23.46783613782656,26.765836237582114,31.061152355298905,36.598469459695025,43.6272677714839,52.39101353742362,63.117378130918055,76.01007882407501,91.24268466835959,108.95450302932605
R4,0.0,0.0,0.0,105.60128743659621,346.4559958215127,721.9157458153209,1220.0744618186382,1825.7842830896175,2523.911062135027,3300.522859435733,4143.2001920966195,5040.995501387872,5984.27291656453,6964.5257600048435,7974.209357646241,9006.600485502515,10055.683880058426,11116.062237801643,12182.885140261518,13251.792582793018,14318.869453419979,15380.60805239073,16433.87642335478,17475.890837635598,18504.19122938147,19516.618733032396,20511.29474208361,21486.60110617255,22441.16122687528,23397.6624482099,24396.927099291417,25497.891785296888,26785.34642104541,28388.713906087003,30517.3397258989,33516.921832378815,37934.34195165373,44537.34989122705,54243.8180765672,68007.12176682736,86710.1076512748,111081.41547283494,141638.75277096467,178658.87997945267,222171.60488745465,271973.62653012876,327657.2886594605,388649.0614158771,454252.79246418964,522994.0342420838
G4,0.0,0.0,104.4638850735947,258.13473378928404,436.5006831861094,628.1579677275912,827.5220919089468,1031.6395601394165,1238.7584447003537,1447.6820775780982,1657.4779409762991,1867.3488900129903,2076.5784163937983,2284.509187230471,2490.5359914241403,2694.1044099002775,2894.711288021509,3091.90531738811,3285.287071259209,3474.50831157757,3659.27059287702,3839.323270188131,4014.4610416795636,4184.52115429738,4349.380387393628,4508.951912488786,4663.182110220174,4812.047409647518,4979.134955625533,5186.694844389709,5460.341998113815,5836.709568698361,6375.809320329836,7180.872539936813,8425.85894621431,10374.305453072557,13346.725589112946,17634.65207634262,23443.70342596171,30880.38189768467,39954.239574244144,50588.920542773194,62638.12288507968,75903.96810170411,90155.79354093937,105147.7852909832,120634.26096191525,136381.83223241175,151486.29661261704,165565.6157027701
H4,966643.8971127893,982754.6287313359,998795.0357277379,1014769.5095854347,1030682.0696697154,1046536.4125003975,1062335.9353974832,1078083.7584302847,1093782.7447912954,1109435.5197074108,1125044.4879930688,1140611.8503424006,1156139.6184505536,1171629.629047901,1187083.5569248758,1202502.9270196136,1217889.1256354265,1233243.4108503498,1248566.92217655,1263860.6895232548,1279125.6415130375,1294362.6131977187,1309572.3532168507,1324755.530438676,1339912.7401206023,1355044.5096235883,1301643.7385267606,1248434.0530503616,1195453.7248587573,1142745.5720397437,1090357.378858875,1038342.3324872314,986759.4695172342,935674.121370216,885158.342853869,835291.301935665,786159.6010793537,737857.4911548172,690486.9280678637,644157.410274737,598985.5231569961,555094.1054734342,512610.94637193915,471666.9224474337,432393.4978486834,394919.5418395905,408759.8211925261,422504.6107018742,436154.64171170077,449710.63782319496
E_Om,0.0,0.0,0.5970422450865269,0.8638503213314739,1.0359716257768758,1.186395998706384,1.3385301009573494,1.500016696107987,1.6733453094328956,1.8592832803266985,2.058009043371561,2.269492207941536,2.4936224677210257,2.730253873628281,2.9792205427595406,3.2403428372326486,3.5134304539207495,3.798284550981333,4.094699562669275,4.402464862495594,4.721366283369466,5.051187467388183,5.391711018829723,5.742719444459247,6.103995876455974,6.475324582462365,6.856491274004153,8.738224975672011,12.381985710261556,18.7040963233243,29.917263965768676,50.891811850451724,92.18936485392597,176.11822221772996,345.1415722772656,664.3669457947179,1212.2635136900522,2075.916815211478,3350.986709613109,5141.942002033857,7566.149049728972,10760.337408332725,14890.007733389832,20161.75875636759,26838.85441157725,35260.61127494803,45866.535595828784,54842.20671643526,63609.54437386139,72151.21578432161
I_Om,0.0,1.0,0.7758186114658958,0.6308566269685206,0.5313350978908734,0.4624739296021715,0.41634713660827344,0.3879410328827358,0.373736652703908,0.37112468213230065,0.3781179899572821,0.3931835785411951,0.4151306455570291,0.44302999351333605,0.4761536538128514,0.5139288080035741,0.5559023387592192,0.6017134777509542,0.6510726885136903,0.7037453714160653,0.75953930235157,0.8182949611823835,0.8798780938434841,0.9441739978154634,1.0110831343016036,1.0805177591418753,1.1523993337554497,1.2266565314629556,1.3755482563776278,1.6678175572069978,2.201246762164557,3.1590341248540708,4.919564292586302,8.288732282734166,14.973926716472747,28.359631552113495,54.22991401554591,100.87864667446097,178.96482989903126,301.39830859902077,483.2624906816256,741.9527260716877,1097.597307788565,1573.8404632559789,2199.047786669095,3007.996586490291,4044.1277598297265,5362.463709328213,6820.656913843806,8377.247866600657
A_Om,0.0,0.0,0.0,0.14638724199711253,0.32891501689425434,0.5171392137307973,0.7046007336659464,0.891871316184865,1.0812822622860452,1.275309013023588,1.4761200631998732,1.6854939585699384,1.9048460843389354,2.1352817029511098,2.3776492394844473,2.6325867616017264,2.900560678486027,3.181897457552941,3.476809519218488,3.785416397682762,4.107762077342435,4.443829234640442,4.79355096249724,5.156820432555067,5.533498855524678,5.92342202671529,6.326405687516186,6.742249890202693,7.536302665804866,9.064949145070058,11.837968258225562,16.805711085850472,25.92260042898297,43.34175198199301,77.85537242276973,146.9086662806833,280.42134404706843,521.568826932373,926.2437297601494,1562.6147375629812,2510.8312341708925,3863.7894798563007,5729.330848513964,8234.307116419113,11530.85511256096,15805.23330244736,21289.644611056654,28277.612777522343,36068.70886973347,44451.2265601954
IH_Om,0.0,0.0,0.04148330504258231,0.07320614676593948,0.09856319929843631,0.119510175967914,0.13736794443498046,0.15311390785053522,0.16750663088843276,0.181150275918316,0.19453405302898294,0.2080593067868322,0.22205933095735286,0.23681431961204458,0.2525628090417666,0.26951048801231026,0.28783699868195023,0.30770119145128266,0.32924518680047954,0.35259751601072453,0.3778755510357599,0.405187386304735,0.4346332984192315,0.4663068810916309,0.5002959304223423,0.536683138324497,0.5755466384872336,0.6169604388733176,0.6609947667094658,0.7107166074997633,0.7720105762682299,0.8547522726456456,0.9763072952686851,1.1695450409153434,1.5004010755654495,2.1049068637373756,3.2579828003600424,5.47143847280104,9.595456991049776,16.91295061652657,29.228127709868236,48.95087023553903,79.18591466056334,123.83850700194797,187.75136562613136,276.8901283743653,398.5968614704392,561.9341683653847,778.146522037413,1052.448478245405
IN_Om,0.0,0.0,0.36539616698304367,0.6299937148178985,0.8243238297703379,0.9677893516367168,1.0741374893634172,1.1536458529274451,1.2141921293721132,1.2618854293856634,1.301491426050216,1.3367407245597742,1.3705609116379105,1.405254192655437,1.4426344523716015,1.484133403485819,1.5308829547651726,1.5837792056917843,1.6435322185288932,1.7107047721673394,1.785742577053281,1.8689978709258783,1.960747881849945,2.06120930919932,2.170549712881887,2.288896499305591,2.416344036284781,2.5529593081161264,2.698786428510494,2.8703747424757586,3.099053317477968,3.4366426511641963,3.9735652127711436,4.8805903100313115,6.500064333536336,9.536721387035787,15.405678056921673,26.706536207056878,47.664925782644346,84.47406666787204,145.5426181683512,241.66352022038427,386.1630332186312,595.1036763226512,887.6268484903151,1286.5239731375334,1819.1248512006632,2518.5927188831383,3425.721712985287,4550.470174379053
D_Om,0.0,0.0,0.0,4.584534336940539e-05,0.00012674923788288513,0.00023567652105826312,0.00036775339024124987,0.0005195658018633845,0.0006887798910694822,0.0008739001220117759,0.0010740986498873346,0.0012890882812342365,0.001519025369203759,0.00176443460710489,0.002026150345189448,0.0023052705524867156,0.0026031205153066316,0.0029212240517882964,0.0032612805338544867,0.0036251463981123544,0.004014820127727628,0.004432429919675374,0.004880223431668316,0.005360559142271728,0.005875898965297352,0.006428801842562905,0.007021918102991057,0.007657984425080607,0.008339819277353158,0.00907031874006639,0.009855768377594531,0.010708957146365456,0.011653588038118048,0.012732555664725989,0.014025080306427282,0.01568325104355911,0.018009492355084346,0.02161005745038721,0.02765682675318633,0.038261261961265274,0.05695263738587368,0.08925415120036528,0.14335228662799984,0.23086473154788933,0.3677250629518358,0.5752187960661382,0.8812243806715859,1.3217343632132774,1.942756841370882,2.8027267607853132
R_Om,0.0,0.0,0.0,0.019298432119316554,0.08186588813227128,0.19123541018784107,0.34587351016272305,0.5436785417846939,0.7832041254886138,1.0638848448086629,1.3859721307026325,1.7504022941984512,2.1586641658330405,2.612684283204249,3.114732015841515,3.6673425448456154,4.273254712356606,4.935360935585982,5.65666682397006,6.4402585881054915,7.28927671503957,8.206894696643024,9.196301844593673,10.26068941900906,11.403239449251544,12.627115744248368,13.93545668324481,15.331369452010216,16.81792544858336,18.47126865926883,20.43970603313608,22.97517823124007,26.522472959452344,31.922109154528204,40.85438290891119,56.77638339762855,86.67202153036418,143.58503245435745,249.33370054668245,437.14171467029416,754.199394152392,1264.179534960431,2049.916060861282,3216.5309161731375,4895.385560629629,7249.306470523481,10479.609327721371,14835.536218262561,20626.83847130199,28025.402306936536
G_Om,0.0,0.0,0.0,0.028962109071650095,0.07086689459374701,0.12112116632712527,0.1786724210322656,0.24360359650376895,0.3163683757459474,0.3975412069235904,0.48773376130826906,0.58756636591053,0.6976578735125372,0.8186217860128778,0.9510645254204679,1.0955844668785428,1.2527712714201065,1.4232053686042387,1.6074575423088686,1.806088604558875,2.019649150032882,2.2486793843110955,2.4937090176005237,2.755257214391076,3.0338325887252826,3.329933234536702,3.6440467807304606,3.9766504612250393,4.400535750617505,5.001177369557277,5.908500230311059,7.3597661486488235,9.82849297291746,14.30053571716012,22.8439096632295,39.58649018197703,71.81447422507783,130.62054430808305,231.32184261757527,393.8759053830994,643.3079787892632,1010.3366703667818,1532.3132444410735,2254.617288419822,3232.6503522168214,4534.584738306344,6245.052763111018,8470.00688921745,11130.364654053983,14216.019944471076
beta,29.874169863590083,29.87416986359005,28.541578386279895,27.624270548841718,26.887706992123928,26.245151208864225,25.661307282862396,25.120805209464944,24.616386382214817,24.14417045517767,23.70169733782323,23.287107237017292,22.898798843226277,22.535290643491326,22.195168419853637,21.87706862069423,21.579675875325048,21.30172533712903,21.04200597431478,20.799363307883333,20.572701128159963,20.360982153414696,20.163227759743403,19.97851695998933,19.805984808534312,19.644820388766856,19.494264514535836,24.379171061659026,29.987121256341034,36.538959751013806,44.296656587585666,53.478940880062,63.967385368457144,74.55377208065869,81.86377043920805,81.28248875388466,72.2446505825375,59.749806428993125,48.26641220307111,39.25344929639084,32.572731346197585,27.686406561343677,24.09494169703344,21.42434128285903,19.412077213350113,17.876635985351903,16.691898498629033,14.410515723472496,12.950522369517975,11.91265362760411
