series,2021-11-15,2021-11-16,2021-11-17,2021-11-18,2021-11-19,2021-11-20,2021-11-21,2021-11-22,2021-11-23,2021-11-24,2021-11-25,2021-11-26,2021-11-27,2021-11-28,2021-11-29,2021-11-30,2021-12-01,2021-12-02,2021-12-03,2021-12-04,2021-12-05,2021-12-06,2021-12-07,2021-12-08,2021-12-09,2021-12-10,2021-12-11,2021-12-12,2021-12-13,2021-12-14,2021-12-15,2021-12-16,2021-12-17,2021-12-18,2021-12-19,2021-12-20,2021-12-21,2021-12-22,2021-12-23,2021-12-24,2021-12-25,2021-12-26,2021-12-27,2021-12-28,2021-12-29,2021-12-30,2021-12-31,2022-01-01,2022-01-02,2022-01-03,2022-01-04,2022-01-05,2022-01-06,2022-01-07,2022-01-08,2022-01-09,2022-01-10,2022-01-11,2022-01-12,2022-01-13,2022-01-14,2022-01-15,2022-01-16,2022-01-17,2022-01-18,2022-01-19,2022-01-20,2022-01-21,2022-01-22
S,182003.03685987985,181290.6541012646,180697.35078918323,180139.9660054298,179585.2002116142,179019.81509306486,178438.9133612992,177841.16347196398,177226.81378234763,176596.85133715073,175952.63604801957,175295.7338496004,174627.83363677398,173950.69974843357,173266.1398106993,172575.97957268095,171882.04136331816,171186.12489995704,170489.9900455831,169795.34144678887,169103.81509133725,168416.9668342426,167736.26291278432,167063.0724299325,166398.66174418636,165744.1906671736,165100.71034075145,164469.16264344123,163850.3809616075,163245.09215322198,162653.9195304208,162075.7072493731,161513.0061959857,160965.83574633178,160434.3245945857,191364.74410973827,222175.6713933873,252871.65996185128,283446.4906870438,313883.27571992914,344155.05765161756,374224.8016727375,404044.4373662459,433552.9463861523,462673.5911034944,491310.390824993,519343.9711497999,546626.9882990187,572979.4877909949,598184.8019417359,621986.9063093124,644090.4846862145,664165.1820426704,681855.4848329576,696797.1730260459,708640.2325308756,717076.5958825711,721869.4586838821,722879.7599309351,720085.2383184584,713588.4942781448,703612.4642831518,690484.0701840237,674608.8757609469,656440.8668740253,605005.6241999893,556138.6047767708,509887.6492276647,466597.1981901353
E,434.5766297813602,1016.596969569121,1304.9459172329553,1470.8786657145215,1584.4166356576602,1674.5153009094133,1753.103171250978,1824.9647495342101,1891.8694024862361,1954.3170424395805,2012.2847532407027,2065.55047002476,2113.835781750538,2156.870349905041,2194.4216437269283,2226.308763037732,2252.408493482836,2272.65719361042,2287.0501672169785,2295.639343238864,2298.529732024076,2295.874976119072,2287.872246778159,2274.7567029845277,2256.7957062169266,2234.282962885134,2207.5327443899123,2176.874311692023,2142.646647629026,2105.1935768251074,2064.859330715707,2021.9845946302398,1976.880783305079,1929.8854798861776,1881.3140280997025,1831.4643632289574,1915.6196005761599,2088.94786156402,2330.763484940781,2637.164151042607,3015.3696350652963,3480.3460110213723,4053.3655328364694,4761.9143873082,5640.432186420359,6731.502472653425,8087.198686330374,9770.290244281554,11854.931103084818,14426.309588176038,17578.574177010305,21410.236819343674,26016.302778170408,31476.716615362908,37841.448998890104,45113.654277584785,53233.56503242924,62066.701821444134,71400.04904311906,80948.78222957194,90374.07347505254,99310.04064900507,107395.82542795573,114307.71387766954,119786.39167307712,123655.67804045018,122848.89041162786,118783.86349832258,112324.02732957553
I,214.0920832505838,175.7408483173188,164.05406750276327,163.82217467789565,168.62352081494765,175.67828623775898,183.74247159417328,192.22849489908828,200.8333320490295,209.37976903390793,217.74812381076433,225.8467536038479,233.5993507993373,240.93957187309917,247.80888791513124,254.15584306650067,259.9359056013567,265.11153639550196,269.6522975685655,273.5349162212175,276.74326327624186,279.26823109505534,281.10750700376195,282.26524808633644,282.7516678197203,282.58254838394697,281.77869431739697,280.3653439243696,278.3715547102517,275.8295783099963,272.77423905863,269.2423286819709,265.27202769887305,260.9016940294214,256.17060540281983,251.11807145160103,245.78290384308207,244.25276288275592,248.28932042908968,258.61088332654697,275.64628663854177,299.9380099386315,332.3472698973051,374.166685432784,427.2031332092277,493.86289870526383,577.2521011512134,681.2933897058589,810.85080904644,971.8453493035292,1171.3322568345761,1417.4975670100766,1719.5175800069915,2087.2159803114732,2530.4566638240076,3058.2349421977824,3677.481649168352,4391.671167110036,5199.409883201473,6093.248736766065,7058.982587505241,8075.65187249921,9116.352276329828,10149.812322973436,11142.555845357354,12061.362998218883,12875.702538769885,13470.37847124748,13800.37632475738
A,1926.8287492552547,1659.4793047666121,1602.636744188419,1634.990240307983,1705.6828349314526,1792.9149969387493,1887.056637628273,1983.620673369018,2080.3075411612467,2175.754457259282,2269.0056719474965,2359.2900562746045,2445.9304782334575,2528.3098248047395,2605.861199062192,2678.0681022051144,2744.468311111406,2804.6586165513277,2858.299124925592,2905.116531743611,2944.9061152000545,2977.5323750210873,3002.928342580012,3021.093650911937,3032.0914940912303,3036.0446317580686,3033.1306098944337,3023.5763752758503,3007.6524598595342,2985.6669040527922,2957.9590756337293,2924.8935253276823,2886.8540018665017,2844.2317168439886,2797.430919714204,2746.8602907326567,2692.9273564844907,2672.4817639184453,2702.9128031342234,2792.553458780336,2947.0195622985784,3172.7549715119894,3478.9575930313886,3878.7320894411478,4389.987553228881,5036.355614184258,5848.246664527851,6864.058599039738,8131.469854932295,9708.660203875801,11665.193284392815,14082.162950727705,17051.069401459394,20670.794909191525,25042.063990153503,30258.983320097435,36397.72355076035,43503.112590626006,51574.722316890904,60554.70052858085,70319.84837272842,80680.08652362876,91384.50327447403,102134.85554329972,112605.04636741709,122464.07218792452,131399.4466505922,138333.13158720752,142785.0946794786
IH,0.0,8.569060165894351,15.476464204861319,21.814017838636932,28.04862618482632,34.38326665505087,40.90665422318869,47.65640151325752,54.64604722981212,61.876801412192556,69.34276320530635,77.03332867628754,84.93438259694221,93.02896412937493,101.29770769555564,109.71919129819692,118.27025001259297,126.92627888485163,135.66153409400576,144.44943401161558,153.26285836305058,162.07444212052957,170.8568601542533,179.58309861198626,188.22670927143403,196.7620435885281,205.16446376682825,213.41052883998546,221.4781544455811,229.34674563961534,236.997302729548,244.41250067042972,251.57674306005055,258.4761921776444,265.09875009255006,271.4340697670321,277.47353045647935,283.2101922651194,288.8008269351958,294.4704003715226,300.4693039844567,307.06139278094787,314.5283350183655,323.18210642836175,333.38180922211126,345.5535588255076,360.2134848862958,377.9944118651456,399.6768160877166,426.224323036891,458.82330492405424,498.9249874139063,548.286795271411,609.0074624571348,683.5478994934995,774.7274502640909,885.6838294838483,1019.7857864787927,1180.4913458255714,1371.151645872247,1594.7701484331756,1853.7373642967787,2149.569565590442,2482.683766897933,2852.239175264299,3256.067536529109,3690.7030134044267,4151.508974292061,4629.306580205901
IN,42.81841665011677,77.07314997021018,96.80668963963191,110.2561652122582,120.96936710538569,130.50019784729807,139.5358155253903,148.37714673914687,157.14741637113517,165.88459950671404,174.5836334121528,183.21653149187514,191.74257591426968,200.1139308912832,208.27905908764637,216.18502485314335,223.77918849581482,231.01053191692316,237.83073281263893,244.19504576382425,250.06301985530285,255.3990685394907,260.1729010506036,264.3598222412353,267.94090741025553,270.90305949214843,273.2389572705082,274.94690467988596,276.0305925287826,276.4987849650764,276.3649436340604,275.6468027189743,274.36590791157363,272.54713186903354,270.2180443011111,267.40855652145285,264.1504595074824,260.47694837460233,257.2321112762331,255.44355310680442,256.07701915075296,259.9908726483107,267.9803001063749,280.85369406456095,299.5162923382055,325.05366051241,358.81550815098075,402.50282675102727,458.2609393419936,528.7789132828829,617.3922004870121,728.180211756525,866.0436828072354,1036.7384622471866,1246.833965860044,1503.5585054528365,1814.4937928018257,2187.091364075131,2628.0073246821116,3142.287836385984,3732.480016462,4397.780530670649,5133.35479903636,5929.954294495054,6773.92590019073,7647.651889224055,8530.394111023023,9399.455796572394,10213.640331507411
D,7403.0,7403.0,7403.012884856174,7403.036156021449,7403.068956641002,7403.111131921286,7403.162832275475,7403.224341512897,7403.295999999053,7403.378168456901,7403.4712094288725,7403.575476584583,7403.691307649062,7403.819019122994,7403.95890200392,7404.111218170354,7404.276197289657,7404.454034197272,7404.644886731446,7404.848874020752,7405.066075224341,7405.296528721995,7405.540231746107,7405.797140441671,7406.067170334345,7406.350197180945,7406.646058171889,7406.954553451009,7407.275447915151,7407.608473254043,7407.95333018985,7408.309690875875,7408.677201414641,7409.055484457157,7409.444141847366,7409.842757238172,7410.250898724168,7410.668121437374,7411.093970074648,7411.528225062473,7411.971005097021,7412.422805375186,7412.884517839096,7413.357457960991,7413.843410315011,7414.344699438872,7414.864290598196,7415.405925136274,7415.974295942078,7416.5752694667935,7417.216161115807,7417.90607018154,7418.656278089994,7419.480708816635,7420.396442095523,7421.424258005616,7422.589175928644,7423.920933266983,7425.454332838552,7427.229377115429,7429.291107504511,7431.6890815641445,7434.4764513411155,7437.708648822818,7441.441733040091,7445.730498766533,7450.626480483197,7456.176001269405,7462.418412339406
R,0.0,393.2393047633812,740.0691820091218,1079.5893136146303,1428.3425858676908,1793.4344652427476,2177.9317950204877,2583.1174592855355,3009.4392171730283,3456.910563557863,3925.2805357523116,4414.10627256085,4922.78522509962,5450.571329657092,5996.585528626525,6559.825023505175,7139.173029505376,7733.409647303863,8341.223949884848,8961.227147028429,9591.966583536832,10231.940282957348,10879.611736719966,11533.424645606992,12191.81733948688,12853.236628354829,13516.150870254729,14179.062077512823,14840.516920121365,15499.11652254855,16153.524986434873,16802.476605524105,17444.7817699724,18079.331584323834,18705.100046150295,19321.14721146096,19926.62057084036,20520.755217977716,21110.149524479693,21705.04439054197,22317.552836198818,22961.105509493835,23650.594697510973,24402.91175085337,25237.73007911695,26178.484310761472,27253.549706130107,28497.649505780806,29953.52137570084,31673.861018261054,33723.52985813093,36181.95997230078,39145.608311315795,42730.202570857204,47072.39051615867,52330.27529241469,58682.23076457646,66323.39564318991,75459.39319369508,86297.13833845465,99033.05000088846,113839.500755672,130850.78646109055,150150.16371591456,171759.50315432373,195632.83103012817,221654.53911017024,249642.44017216814,279194.52457150107
G,344043.0,344056.0362418828,344086.5316783245,344125.6768818517,344169.7996642389,344217.32830956875,344267.5596957112,344320.14852681634,344374.89303048275,344431.64451100706,344490.2692688401,344550.63291700365,344612.5944071137,344676.0043391323,344740.70520352345,344806.53251539427,344873.31636328605,344940.8831396094,345009.05732768605,345077.66326996335,345146.52686663,345215.47716793,345284.3478330099,345352.97843567445,345421.21560392575,345488.91398596024,345555.9370404519,345622.15765345277,345687.4585880425,345751.73277596134,345814.8834628524,345876.8242204643,345937.4788402768,345996.7804554544,346054.67232583516,346111.10717080155,346166.0466470699,346223.51057577,346286.1739307173,346356.0911662033,346435.1996764212,346525.6534312592,346630.05534642475,346751.6464535024,346894.49230282736,347063.69154932717,347265.6202506288,347508.2165409122,347801.3014841895,348156.9205828071,348589.6747816729,349116.98925102345,349759.24427997944,350539.6700844725,351483.89502284286,352619.0464519276,353972.3463513563,355569.22382355906,357431.0739147977,359572.9017214019,362001.16829843656,364712.1706879175,367691.23035787063,370912.84390432475,374341.79729264375,377935.0976891636,381644.46726552874,385329.6351753602,388892.86216506344
H,943384.4460324417,943384.4460324417,943384.4460324417,943384.4460324417,943384.4460324417,943384.4460324418,943384.4460324417,943384.4460324418,943384.4460324417,943384.4460324417,943384.4460324417,943384.4460324417,943384.4460324418,943384.4460324418,943384.4460324418,943384.4460324418,943384.4460324417,943384.4460324418,943384.4460324419,943384.4460324419,943384.4460324418,943384.4460324418,943384.4460324418,943384.4460324418,943384.4460324419,943384.4460324419,943384.4460324419,943384.4460324419,943384.4460324419,943384.446032442,943384.4460324419,943384.446032442,943384.4460324419,943384.446032442,943384.4460324418,911938.2978313605,880492.1496302792,849046.0014291977,817599.8532281163,786153.705027035,754707.5568259537,723261.4086248723,691815.2604237909,660369.1122227095,628922.9640216281,597476.8158205468,566030.6676194654,534584.519418384,503138.3712173027,471692.2230162212,440246.0748151399,408799.92661405844,377353.77841297706,345907.6302118957,314461.4820108143,283015.3338097329,251569.18560865152,220123.0374075701,188676.88920648873,157230.74100540736,125784.59280432598,94338.44460324457,62892.29640216319,31446.148201081793,8.794245331955608e-10,8.794245331955608e-10,8.794245331955608e-10,8.794245331955608e-10,8.794245331955608e-10
S0,63701.06290095794,63165.96706204036,62611.83899681528,62079.1489573603,61549.586514737086,61015.94553940755,60475.647748433395,59928.097277077235,59373.57700181034,58812.77879234024,58246.597566460274,57676.03600390626,57102.15602423405,56526.05026983849,55948.82240938419,55371.571641501796,54795.379547756085,54221.298602219984,53650.34211518798,53083.47556372965,52521.60931110793,51965.592714305974,51416.20959662861,50874.17503518465,50340.133387563365,49814.65746100897,49298.2487118716,48791.33835315222,48294.28924315704,47807.39842798025,47330.900213973306,46864.34760592386,46408.65480158838,45963.76946867855,45529.66589952699,54820.42782035032,63981.17431072217,73015.1983316771,81920.36832685301,90689.18818004084,99309.16542755801,107762.89999131141,116027.71563583081,124074.8423436415,131868.215737516,139362.97165278505,146503.73015013005,153222.80928878716,159438.59578979985,165054.42754812932,169958.49800313765,174025.43831036513,177120.30334455732,179105.58787541802,179851.5355411578,179249.33662276325,177225.9244164949,173758.21134147467,168884.09148902656,162707.66827276663,155397.0300266023,147174.29973682808,138299.22555335728,129048.81356504968,119696.11772306346,101773.22796128078,85916.1219307651,72023.36171706574,60053.377248568606
E0,434.5766297813602,696.8661251512655,815.7343009504289,879.4315021908396,922.8068082389073,959.1771586721577,993.2462038537666,1026.3263481062181,1058.4565431332735,1089.252563108748,1118.2391591789765,1144.9722609558062,1169.0779318238733,1190.2597364938374,1208.295149220841,1223.0288951928642,1234.3659875690666,1242.265238146353,1246.7333168621699,1247.8192377846653,1245.609136611611,1240.2212479737605,1231.8010407077704,1220.5165091550648,1206.5536448919026,1190.1121273340664,1171.4012760582145,1150.6363052329225,1128.0349136959844,1103.814234911376,1078.1881607774299,1051.365043108302,1023.5338851407707,994.8940076772092,965.629197302952,935.9104374663937,976.7619940113227,1064.2764964776766,1187.1226676816427,1342.7264720548158,1534.2841910122545,1768.9436666320566,2056.98011237012,2411.6578887871374,2849.5021459924237,3390.772302135273,4059.9721781769617,4886.231257439486,5903.350447899147,7149.237028847481,8664.381440396797,10488.993966089496,12658.48186008518,15197.175327081022,18110.64842687129,21377.596948780898,24942.87601566364,28713.69756260251,32560.856761826988,36326.056478822735,39835.06181067991,42914.93681885285,45412.48759318388,47210.63762542645,48239.90488012058,48483.2634350571,46628.45385060173,43441.59169776336,39425.86310616747
I0,214.0920832505838,175.7408483173188,154.46291984417235,141.8579847447855,134.1893117450677,129.66246654158283,127.31319992705087,126.54980479098207,126.9619675274322,128.239028557115,130.13336856162041,132.44254676814236,134.9993922420238,137.665642082412,140.32732761940815,142.8911602950646,145.28158528155612,147.43833343307355,149.31436616652536,150.8741354220171,152.09209586963286,152.95141756162437,153.44285691172354,153.56375273779474,153.31712202988336,152.7108369195582,151.75686992590397,150.47059894091666,148.87016667790056,146.97589157894998,144.8097286255577,142.39477928897352,139.75485015481848,136.91370326766702,133.8953763238894,130.7236505195702,127.42172805405136,126.1377972407519,127.78726428253464,132.72590414880892,141.14688207489684,153.29287945658692,169.5627459366454,190.56782863814024,217.17063457509104,250.5223617261774,292.1056249112895,343.78222918703466,407.8409132866459,487.03500619275655,584.5940949611736,704.1871993639479,849.8088929856231,1025.5570829328976,1235.275922652708,1482.0540804565412,1767.599792187962,2091.5570619996533,2450.8719257271014,2839.347616733149,3247.5262189898713,3662.9933305480035,4071.126660180495,4456.21818909298,4802.818207017352,5097.101030098811,5328.048749579637,5447.923440103555,5443.427081043504
A0,1926.8287492552547,1659.4793047666121,1516.3164152611005,1433.826632672447,1385.0021113721282,1357.635390076453,1345.5514096079319,1345.0777935487565,1353.629645874823,1369.1486400471274,1389.8836450455708,1414.3048220679032,1441.0678628491246,1468.9958845885274,1497.0669284847681,1524.402984383909,1550.2594088874469,1574.0145762014176,1595.1598431309712,1613.2899136776086,1628.0936386039282,1639.3452418291508,1646.8959423849728,1650.6659356096814,1650.6367039851348,1646.8436405185798,1639.3689813636377,1628.3350566011538,1613.8978772248975,1596.2410818287012,1575.5702683432153,1552.1077348819128,1526.087649984543,1497.748459091142,1467.334816210677,1435.092150532423,1401.2630551008388,1385.2166882622564,1396.0008474265173,1437.7978143606865,1513.2599791813868,1625.3731299970982,1778.4567275996944,1978.7419704189622,2234.797136002677,2557.941344057821,2962.703543908233,3467.3275940766885,4094.2794385861175,4870.66538447241,5828.4143215760305,7004.0123301509375,8437.517238880591,10170.5488416854,12242.986503248521,14688.252872954683,17527.346370712854,20762.185343731486,24369.254410516747,28294.8503682754,32453.254658886908,36728.82212451159,40982.306300727185,45060.90114011437,48810.69898013568,52089.75993738175,54779.88464050891,56432.18993451225,56894.2429533273
IH0,0.0,8.569060165894351,15.476464204861319,21.430131054508415,26.791293707762918,31.766283338100305,36.486559277916136,41.043043815425776,45.50163233844328,49.91082350687743,54.305965025680266,58.71197119864564,63.1452854018312,67.61541695611054,72.12620065408444,76.67685300424831,81.26286820922554,85.87678297292041,90.50883202105395,95.14751167726818,99.78006546476496,104.39290298206402,108.97196106188339,113.50301440321084,117.97194142898465,122.36495002263256,126.6687669865166,130.87079449122484,134.95923639463388,138.92319705592996,142.75275511074557,146.4390145748442,149.97413557824206,153.3513469790048,156.5649287855789,159.61020765466148,162.4835311561598,165.18222951053556,167.78965387877798,170.42456279948723,173.21819959314976,176.30759937424597,179.83748534336826,183.9664058157094,188.87503513341312,194.7758993647884,201.9244604513367,210.63174664844672,221.278708434352,234.33227318739532,250.36266979720958,270.0609642385956,294.25486204512947,323.91971921923283,360.1804960176008,404.29938940593615,457.6435664358654,521.6283609070026,597.6339403926573,686.8978394762265,790.3912767185675,908.6925627083556,1041.8745732260263,1189.4238481268358,1350.2058005259296,1522.4842353612703,1703.9952425034362,1892.0673774636782,2082.1579615391793
IN0,42.81841665011677,77.07314997021018,96.80668963963191,108.33793568054,115.04194549338911,118.87141874372483,121.02962830329643,122.28634262804732,123.13903506063427,123.90362155399386,124.77070295461809,125.84323607601856,127.16309821444332,128.7303570199594,130.51741403244992,132.47939674984156,134.56174945888617,136.70571662342016,138.85223998535085,140.94466522158575,142.93055926167202,144.76286658326418,146.40057677893623,147.8090328054937,148.95997679195392,149.8314058395398,150.40729205554348,150.67720762961557,150.63588589187577,150.28274204908072,149.62137195505457,148.6590432891552,147.40619048911887,145.87592242225878,144.08347859134042,142.04585813785022,139.7814166141942,137.30947890216564,135.0751425698829,133.61756691241325,133.4392343596924,134.9807639027333,138.64318701350402,144.82709879813228,153.97524476613387,166.6143227279253,183.39593052757573,205.13786940431848,232.8667413608617,267.86157574601856,311.69626183536616,366.27582846052763,433.8581026412117,517.0482607100939,618.7500251546546,742.0552046542653,890.0549798147205,1065.5639422893687,1270.7625662314256,1506.7844381305608,1773.2970738510785,2068.142902878837,2387.1129884126703,2723.9157227662354,3070.376216031584,3416.8646142287375,3752.9118974027524,4067.939267838129,4343.936102291214
D0,7403.0,7403.0,7403.012884856174,7403.036156021449,7403.068379410138,7403.108664104078,7403.156429434706,7403.211292402112,7403.273006721567,7403.341425191857,7403.416473536712,7403.498130630396,7403.586412809532,7403.681361135804,7403.783030969574,7403.8914834373845,7404.006778487683,7404.12896929378,7404.258097806811,7404.394191294369,7404.53725972656,7404.687293892228,7404.84426414503,7405.0081196925585,7405.178788352551,7405.356176708854,7405.540170606815,7405.730635933557,7405.927419633492,7406.130350913777,7406.339242598356,7406.553892592922,7406.774085426739,7406.999593840654,7407.230180394099,7407.465599045649,7407.70559672681,7407.9499148771165,7408.198290921694,7408.450587616532,7408.706846288742,7408.967305609283,7409.232410301788,7409.50282270274,7409.779443549589,7410.063445250528,7410.356319778295,7410.659943230642,7410.976659382555,7411.309384824711,7411.661738242531,7412.038195745366,7412.444272563019,7412.886728503643,7413.373789968177,7413.915374902586,7414.52329915366,7415.211434307149,7415.99578011363,7416.894411610856,7417.927264653848,7419.115735469153,7420.482089859281,7422.048703206315,7423.83717882866,7425.867414024628,7428.156695465081,7430.718905695361,7433.56391034678
R0,0.0,393.2393047633812,740.0691820091218,1062.3561650095546,1370.560023902836,1670.4284400822944,1965.6652540925895,2258.983906116394,2552.519837112076,2847.992804124071,3146.7754631510697,3449.9294606151857,3758.2319452303486,4072.2002792992603,4392.1170098574075,4718.055189429788,5049.903598084089,5387.391382956309,5730.111738483782,6077.544371353917,6429.076590636626,6784.022931035133,7141.643261378215,7501.159358812277,7861.769947878005,8222.664217199417,8583.033837648116,8942.083516084973,9299.040128767549,9653.160488340158,10003.737807788508,10350.106933505363,10691.6484273232,11027.791583719989,11358.015832741237,11681.85241957172,11998.884925116432,12308.74898462278,12614.950957128205,12922.893646563844,13238.924223694637,13570.02162611639,13923.850822642908,14309.021254723302,14735.468595508666,15214.930052423806,15761.510763643713,16392.350164361265,17128.397616415914,17995.298001584066,19024.36975900904,20253.628017833355,21728.7622351275,23503.92163988812,25642.098496638224,28214.842338250473,31301.010374602913,34984.28836456273,39349.326756965755,44476.535764074164,50435.847338569176,57280.026819753904,65038.32809902833,73711.36482864033,83267.97904360598,93644.63633102676,104747.51611996596,116457.07644188494,128562.0082484823
G0,344043.0,344056.0362418828,344076.9405306659,344101.4105756027,344127.7913816475,344155.473341373,344184.2463231488,344214.0412934146,344244.82858754793,344276.57970938255,344309.25463691197,344342.7990918201,344377.14547475916,344412.21496919263,344447.9198662462,344484.16578181443,344520.8536739253,344557.8816512325,344595.1465868438,344632.5455539491,344669.97709604073,344707.34234047274,344744.5459613505,344781.4969964905,344818.10952313105,344854.30319780525,344890.00366694306,344925.14285605255,344959.6591465434,344993.497450261,345026.6091925265,345058.95221489767,345090.49060898,345121.1941360164,345151.038536389,345180.0050636305,345208.0801003612,345237.38058442593,345269.3062907051,345304.9170833245,345345.1956116036,345391.22040553,345444.28441296815,345505.98881319404,345578.3326840379,345663.81081763946,345765.5257394064,345887.3150297752,346033.890082831,346210.9762376851,346425.4359596265,346685.34632866364,346999.9906355087,347379.7143023783,347835.59259845235,348378.8680011468,349020.14391337516,349768.3695258641,350629.7106130791,351606.4571189144,352696.1504582513,353891.10542267136,355178.4491462278,356540.71331827913,357956.91761769896,359403.9974312966,360858.377409627,362257.11761183426,363560.2597007875
H0,330184.55611135456,329441.640860104,328255.65095300763,327073.9306095768,325896.46445938235,324723.2371873286,323554.2335334542,322389.43829273374,321228.8363148799,320072.41250414634,318920.1518191314,317772.0392725825,316628.0599312012,315488.1989154489,314352.4413993533,313220.77261031565,312093.1778289185,310969.6423887344,309850.15167613496,308734.69113010087,307623.2462420325,306515.8025555612,305412.34566636116,304312.86122196226,303217.3349215632,302125.7525158456,301038.09980678855,299954.3626474841,298874.52694195317,297798.57864496217,296726.5037618403,295658.28834829765,294593.91851024376,293533.38040360686,292476.66023415385,281709.61944873387,271016.3108594523,260396.34313534547,249849.32680746348,239374.87426053523,228972.59972466942,218642.11926709145,208383.0507839156,198195.0139919529,188077.63042055417,178030.52340348816,168053.3180708548,158145.64134103307,148307.1219126639,138537.39025666716,128836.07860829362,119202.82095921066,109637.25304962232,100139.01236042338,90707.73810538715,81343.071223387,72044.65437065139,62812.13191305243,53645.14991842754,44543.35614893435,35506.40005343857,26533.932759934673,17625.60706799931,8781.077441277312,2.4467954062856736e-10,2.437986942823045e-10,2.429210189828882e-10,2.420465033145498e-10,2.4117513590261745e-10
S1,18200.303685987987,16938.552962024038,15873.221752796046,14891.112858594104,13981.419229221823,13137.13583024512,12352.931452457506,11624.312506477469,10947.281630957468,10318.190332664959,9733.669240154346,9190.590199931486,8686.041989215875,8217.312283293368,7781.87284021086,7377.366603138098,7001.596126878918,6652.513027221909,6328.208276860358,6026.903228697227,5746.941276538574,5486.780080659468,5244.984298018944,5020.218766598486,4811.242101453756,4616.900666990761,4436.122895863651,4267.91392982763,4111.350561939918,3965.57646276421,3829.797675789474,3703.2292149667583,3585.254052881455,3475.2306488824643,3372.5706271708996,3982.4105870321478,4562.655435613396,5116.246184569186,5645.459963866967,6151.97153080928,6636.926429838767,7100.986323845633,7544.3381606014445,7966.671251758068,8367.129131467806,8744.242775210088,9095.85190977227,9419.023258199632,9709.97912048477,9964.05652745903,10175.725384488329,10338.701386963048,10446.19227609346,10491.309095187078,10467.65261494169,10370.04746329121,10195.348038820368,9943.194591857522,9616.573357525034,9222.046455443584,8769.568625243066,8271.886677476714,7743.601024268217,7200.032863067131,6656.069377936045,5641.862776302026,4749.007605435803,3970.3001387447894,3302.071404951011
E1,0.0,112.1862611992476,166.465572249803,194.71427331543066,209.98972872625978,218.14120559628356,221.98956904442147,223.01521569360625,222.06682114036738,219.6729561718883,216.1871758903186,211.86028806410434,206.8790055868497,201.38802571725776,195.50333174304606,189.32051863306262,182.9201361610231,176.37117326262654,169.73335794038502,163.05869665069943,156.39252768070727,149.77426877137384,143.23797742125413,136.81280077119922,130.52336375467604,124.39012502638735,118.42971728323732,112.65528009363473,107.07678794814103,101.70137300706713,96.53364027831554,91.57597222491603,86.82788079310423,82.28878514202702,77.956263060264,73.8265933702582,75.04306902226134,79.6677469903641,86.74796557872614,95.98978618839651,107.51290429982828,121.70297464293105,139.1413520655359,160.58549053250508,186.97809641022852,219.46964421795747,259.4430116494536,308.52993601175683,368.6072212327772,441.75717228668674,530.1731755245212,635.9900795871365,761.0234041617762,906.4150596153554,1072.2083011542838,1256.9087630193635,1457.122563637732,1667.3816248075855,1880.2552775547624,2086.799455344571,2277.3191336040695,2442.33895089683,2573.618368128791,2665.030939642919,2713.1567120178433,2717.5014572443447,2605.7392539346183,2421.079939247937,2191.806425462122
I1,0.0,0.0,3.3653149679266448,7.5511171342325305,11.579613979206638,15.099396915509633,18.01886802863038,20.353034296427438,22.157708943132633,23.50076682111749,24.449646951519973,25.06620708982183,25.40498119967619,25.51301465653171,25.430401330021134,25.191090770652117,24.823751400733297,24.352586798515542,23.798060575877237,23.177516258710966,22.50569455831739,21.795158083416883,21.056636537486202,20.299305867814915,19.531013907224505,18.75846349967352,17.98736234811122,17.222547103884185,16.468087655638485,15.72737622698764,15.003204770145555,14.29783323771246,13.613050605002828,12.950201807900413,12.310291540086528,11.694010683075366,11.101772663190733,10.688177952650644,10.512585450449373,10.591528895309704,10.92875607039434,11.530705770063923,12.413840020203033,13.60810877846581,15.158995037096453,17.129343625982425,19.601426474820727,22.67925115122631,26.490808944852898,31.189669574318444,36.95500625341426,43.98878238036726,52.508525332283696,62.73401162742315,74.86652043363001,89.06031641440498,105.38780950164946,123.80222123273629,144.10397210471712,165.91848471192907,188.69278939183363,211.71581593230644,234.1629310339829,255.1602379701278,273.8598187074857,289.5146865515326,301.54232473652087,307.3304334251881,306.1899203645559
A1,0.0,0.0,30.28783471133981,69.18317639670492,107.93991172185962,143.08321997841688,173.41117410749374,198.7233738021445,219.2591017214149,235.43899352907184,247.7424109562321,256.64846721791145,262.6083370963239,266.0335304076505,267.2924674868434,266.71132950699484,264.5769867832081,261.1407849909647,256.622516197067,251.21421803064695,245.08362998152674,238.37724406553303,231.22294829126778,223.7322936500804,216.00242997903158,208.1177601367177,200.15136002933946,192.16620701937558,184.21625294912423,176.34737151035307,168.59820361412253,161.00091908054694,153.5819085007829,146.36216203618864,139.35832251953954,132.5830562339261,126.04549610599614,121.14152825554469,118.4651593456916,118.23460965747326,120.54517658798625,125.50544734691621,133.30644892938025,144.25802443400136,158.81265530503657,177.58699884488888,201.38520469814372,231.22422730658946,268.35852781757313,314.2988204331988,370.8163943649943,439.92108170178625,523.7978303723384,624.6855318710486,744.6843920948328,885.4870059466416,1048.0446095396014,1232.2022587356228,1436.3596813126364,1657.2299683646468,1889.7677133268874,2127.317339438483,2361.9938613085415,2585.261701308886,2788.6353339496377,2964.3999870358116,3106.2476488832244,3189.6032352918405,3206.463587041048
IH1,0.0,0.0,0.0,0.13469711723807798,0.43494073493529767,0.8919880505375489,1.4831603038342487,2.182447690728483,2.9648254663175857,3.807872661228057,4.692216368035948,5.601469249261384,6.521962022340341,7.442410153435424,8.353578881239972,9.247974688234782,10.119573639481818,10.963588285659444,11.776270682942457,12.554747337396215,13.296881399538318,14.001157599396409,14.666585881276676,15.292620279292965,15.879090164820802,16.4261415413923,16.934186536826843,17.403859639503388,17.835979548116867,18.231515759438587,18.591559216025978,18.917296485423748,19.209987053560905,19.4709433961581,19.70151242285364,19.903061350065823,20.076964840507706,20.22459378796132,20.353486727160227,20.473446626323927,20.59479333877442,20.727844204469484,20.883021795179697,21.071253540240445,21.304504121193414,21.596381853554586,21.962809304817803,22.422766663639116,22.999116522147645,23.719506448487156,24.617322048416572,25.73262694473376,27.11297626150366,28.81392885596335,30.899019052161457,33.438898411648324,36.50934878572486,40.18793024903154,44.54918428974298,49.65856254260629,55.5655568182745,62.29679480565563,69.85004999192533,78.19012272795405,87.2473557694024,96.91918333138905,107.07465723763931,117.5614493162767,128.12492507826553
IN1,0.0,0.0,0.0,0.673062993585329,2.048673821714769,3.954861853213143,6.183768865672441,8.550788698264029,10.91123781789671,13.160532042943895,15.228578998578616,17.072792589166887,18.671475489297876,20.01817663137354,21.117144236405174,21.979795655128367,22.622054678233116,23.06239402273315,23.32043257788963,23.415958177487152,23.368269793731915,23.19575474664901,22.915635414002583,22.543835638699306,22.094929684522427,21.582146529062843,21.017409923184978,20.411400408170227,19.77362974731302,19.11252132897811,18.435492308580017,17.749034800893124,17.058794488256993,16.36964571160616,15.685756930865011,15.010663852709314,14.347333218782524,13.698221107664166,13.096212476661462,12.579487071419045,12.181895436197177,11.93126756303661,11.851155204442072,11.963692167594264,12.292575489768574,12.86585939923415,13.718556244583805,14.89513029063119,16.451954462750216,18.459725359170754,21.00571420220029,24.195572612443087,28.15421456602792,33.02507671927908,38.96686370090789,46.146795047452315,54.72949932084285,64.86116135700416,76.64937333215059,90.14029308666389,105.29593141171692,121.97530300774027,139.9234055926535,158.77131068091938,178.04909613876106,197.21124065250598,215.6719298323113,232.84600881315322,247.7428937355602
D1,0.0,0.0,0.0,0.0,0.00020253714515637837,0.000856535215585085,0.002197771887711925,0.004427923949666639,0.00770955858147537,0.012167614538036987,0.017893317312811206,0.024948762352204924,0.03337140430393576,0.043178144016771364,0.05436891436485074,0.06692976238548429,0.08083546749811026,0.09605175124023167,0.11253713650740535,0.13024451060432968,0.14912244011028528,0.16911627853360764,0.190169100948909,0.21222249373484514,0.23521722232917724,0.2590937956041572,0.283792941970058,0.30925600953261234,0.3354253004451788,0.36224434789634374,0.3896581428572529,0.4176133166934097,0.44605828495106287,0.4749433570008404,0.5042208157157807,0.5338449692478481,0.5637721815621961,0.5939608836337791,0.6243715677802036,0.6549760616270246,0.6857609330202107,0.7167282672397569,0.747895663220468,0.7792963917836361,0.8109801547654624,0.8430146446799874,0.8754880161671794,0.9085123658149107,0.9422283297470418,0.9768109213943548,1.0124767264175139,1.049492530699864,1.0881853617390655,1.128953753233232,1.1722797798839053,1.2187410496963536,1.2690214058044857,1.3239186406243622,1.3843471696774063,1.4513334926967918,1.526002525681157,1.6095536029258628,1.7032260974160667,1.808256034243813,1.9258265105945112,2.0570158836287114,2.202748287597918,2.363750956698683,2.5405220770700243
R1,0.0,0.0,0.0,6.0467188087985155,19.99497566005065,41.95980620824863,71.328016344371,107.20458432270999,148.61721358740436,194.61210948798185,244.29823936221595,296.8659955417533,351.5926866287249,407.84117365346555,465.0550321983623,522.7521170043929,580.5175862093251,637.9969740534697,694.8896248757944,750.9426367281038,805.9453658259346,859.7244876305299,912.1395808855584,963.0791874630681,1012.4572969999825,1060.2102068922472,1106.2937126109136,1150.680588856204,1193.3583277757766,1234.3271057832324,1273.5979551482799,1311.1911203968102,1347.1345826717884,1381.4627376389394,1414.215163770235,1445.4356137161776,1475.171094139069,1503.4710466131048,1530.664099389725,1557.204146368211,1583.5964134331218,1610.3720589261889,1638.089622705039,1667.3506303220854,1698.8230368022828,1733.2700296398386,1771.58369842559,1814.8238885086366,1864.2626167106534,1921.4339208727215,1988.187946942231,2066.746361745361,2159.753740857894,2270.3164809769655,2402.0173801030573,2558.8911095661656,2745.3446352867913,2966.0087614613026,3225.513625571701,3528.1923918338734,3877.732120420447,4276.805656481893,4726.729270067592,5227.194028283745,5776.112686891145,6369.609026633745,7002.156171124621,7666.848999685389,8351.757123598514
G1,0.0,0.0,3.3653149679266448,8.358877245055936,14.199831845491211,20.49901295411414,27.04271854218895,33.70186567342241,40.39177970947477,47.05324421568812,53.64289859538954,60.1279880450267,66.48328138406671,72.68914836464735,78.73029930472369,84.59492373877885,90.27407881784795,95.76123799025827,101.0519442046078,106.14353210429493,111.03489639991591,115.72629184040588,120.21915561105405,124.51594653926905,128.6199977957911,132.53538123946979,136.26678243903464,139.819385903667,143.19877029764146,146.41081349568864,149.46160732000115,152.357381731808,155.1044381604343,157.70906339477935,160.17752679992955,162.5160250805202,164.73064331491082,166.98175286005593,169.37159149574677,171.9738194680364,174.85327957994943,178.0784052077915,181.72919843174643,185.90310056341707,190.7202746910143,196.32916280081784,202.9127183164123,210.69537762865374,219.9505252787724,231.00784536092905,244.25948605376735,260.1633917915391,279.2415472751787,302.0703983803913,329.2606455164473,361.42428664360085,399.12849238404135,442.8386251676321,492.85601837806246,549.2591034032415,611.8580113894839,680.1720463269002,753.4362744092109,830.6385657005875,910.5830117967025,991.9711140088612,1073.4895480101914,1151.6553877488543,1224.281897189501
H1,94338.44460324418,88342.89952569158,83218.68232380999,78456.21107268297,74029.66214625724,69915.05640786406,66090.12746117673,62534.199311813114,59228.07276739459,56153.919951885684,53295.18635462306,50636.49987584171,48163.5863689486,45863.191215490304,43723.00650190804,41731.60339795228,39878.36936520997,38153.449850736215,36547.69414542593,35052.605109643875,33660.292489880536,32363.429569931814,31155.212918422418,30029.32501150543,28979.899525368393,28001.489107845424,27089.035452056367,26237.841507642494,25443.545676913258,24702.09785412477,24009.737176237722,23362.971362906224,22758.55753218108,22193.48438651931,21664.955671220916,20464.69565392506,19326.841953189098,18246.225819864583,17218.115595658164,16238.18055045689,15302.457656137407,14407.321061862862,13549.45405446003,12725.823304601572,11933.655215307135,11170.414203827087,10433.782761380387,9721.64314757212,9032.060587699203,8363.267851639814,7713.651102683573,7081.736913559582,6466.180355117722,5865.75407066991,5279.338255952868,4705.911471079209,4144.542216742123,3594.3812123705275,3054.6543189327376,2524.6560536913307,2003.7436484510636,1491.3316067441335,986.8867189892612,489.923497967416,1.3560111256083473e-11,1.3472378226911781e-11,1.338774079583438e-11,1.3305989264470322e-11,1.3226928871797678e-11
S2,18200.303685987987,19236.84404283211,20176.91362078218,21030.55949213612,21802.594406080247,22498.263861905925,23122.810030239183,23681.28916696838,24178.50146722577,24618.970659735805,25006.94508179782,25346.407527959393,25641.088225167834,25894.478484215782,26109.844017073654,26290.23755186305,26438.510658031075,26557.324811553684,26649.161773374297,26716.33336450573,26760.990716926066,26785.133069213225,26790.616163850395,26779.16029123627,26752.358014575315,26711.681600419946,26658.490171833473,26594.03659493142,26519.474104840592,26435.862673740077,26344.175121437293,26245.067603062875,26139.65168193834,26028.628876302417,25912.662137070478,30766.133458682685,35584.97146648247,40366.9722780109,45109.16330009539,49807.79196886901,54458.357773895834,59055.58337563115,63593.292320184744,68064.19234961386,72459.57162515208,76768.91491915946,80979.44692106823,85075.61488800036,89038.53523684503,92845.44921961961,96469.26078063667,99878.26136649185,103036.17372758829,105902.65672090996,108434.39074416547,110586.79808510486,112316.34680131372,113583.26218654736,114354.36248042902,114605.68109716145,114324.55459743369,113510.93661173349,112177.81626564349,110350.7437214856,108066.57082717128,100880.76998604988,93782.17367596335,86812.17267374026,80057.29768476379
E2,0.0,39.26519141973665,62.43881092509483,78.49251475693632,91.36925839636659,102.78994361823946,113.48510480854796,123.74147208958306,133.64671701037435,143.19994614516497,152.36218389854847,161.07989534056833,169.2962928479748,176.95701444075343,184.01312458977443,190.42276550587434,196.15206311290737,201.17556977153373,205.4763832871964,209.04601938700793,211.88408803389365,213.99781254722487,215.40142545400687,216.1154722547002,216.1660520999527,215.5840220455454,214.40418887890166,212.664509508905,210.40531769051438,207.6685915534734,204.49727315287305,200.93464817162615,197.02170474403593,192.80210862839004,188.31748748804856,183.60772333508572,191.70078923169515,208.26808955330313,231.33970061103236,260.56371121165904,296.64850582519114,341.03486918756596,395.7588860412146,463.4467008105265,547.3912056974615,651.6753027026072,781.3159330555243,942.4045173784027,1142.2131220969732,1389.2233552827383,1693.0198829822552,2063.97800613117,2512.673402021282,3048.9624652089874,3680.732463157433,4412.402149692284,5243.350513461855,6166.533231515641,7167.577118341245,8224.599449528203,9308.886243552302,10386.413271199992,11420.04880650207,12372.172747295424,13207.39859127695,13895.090986804777,14129.10344054631,14017.000274115751,13615.661795695409
I2,0.0,0.0,1.1778602387743256,2.768156659261963,4.458314067085098,6.12906223878953,7.741381667509364,9.287532762703501,10.770234836199062,12.19418442991965,13.56292399717581,14.877976540453524,16.138893585705627,17.343630813345246,18.489003864651572,19.571124760121528,20.58578310111264,21.528762950505836,22.396096934687687,23.184262924625074,23.890329683159145,24.51205784350244,25.047962225149313,25.497341069407884,25.860277372338185,26.137617119900497,26.33092887679857,26.442448831776343,26.475015047063025,26.431994293221948,26.317204473116036,26.13483525424179,25.889369143879367,25.585442279319942,25.22788787501151,24.821627781201133,24.371598843824422,24.27236044603354,24.69392046943109,25.706387715089583,27.352486631218756,29.68593653656388,32.79078280192315,36.79197538828884,41.863251073168755,48.23542420097328,56.206385005915045,66.15301861889982,78.5444760767428,93.95544468997821,113.07709999409904,136.7222347063216,165.8197846712353,201.39296239665956,244.51505155418096,296.238319618997,357.495015312124,428.9749954184066,510.9912212140821,603.3503748033903,705.2491109331852,815.2155577813934,931.1104856086431,1050.1942720744626,1169.2563614422093,1284.7953029845191,1393.2310960505129,1482.659379888851,1547.259807323921
A2,0.0,0.0,10.600742148968932,25.341502699371922,41.47353941967996,57.86138567979917,74.0608672956557,89.91371412346803,105.37066421726372,120.41595977527632,135.03674770675536,149.21221837796978,162.91126336940727,176.09365338824892,188.7125140468005,200.71711752435814,212.05556270848976,222.67716486089233,232.53448773171124,241.58500210838253,249.79237882029696,257.12743621754834,263.5687686663865,269.10308646373255,273.72529992254994,277.4383816695982,280.25304160056936,282.18724853862585,283.2656315126582,283.5187917980224,282.98255455150985,281.6971861448307,279.70660028432087,277.05700956254526,273.7971894043008,269.97741617707914,265.6486962524831,264.36912053469734,267.8178100778594,276.8068268593268,291.89110299694636,313.706031243945,343.1491337194783,381.48844789214115,430.447859414257,492.29610305987586,569.9512733998808,667.1033555677716,788.3502095287746,939.3350688072578,1126.864389961166,1358.9734261113658,1644.894361857349,1994.871452913896,2419.7647837864097,2930.3957013729455,3536.618125856461,4246.151063271588,5063.270670154118,5987.518957862914,7012.621514880966,8125.804418252828,9307.658157323047,10532.623418521529,11770.08699240224,12985.993765742176,14144.81657619043,15135.468117670829,15898.078769603051
IH2,0.0,0.0,0.0,0.04714399103332729,0.15724302971489873,0.3333636404710845,0.5737532226963807,0.8751233175250384,1.233924288769079,1.6467678016668497,2.1105035778438244,2.622169684508994,3.178908922113745,3.7778883679078317,4.416235143247965,5.090991373915571,5.799087283777978,6.537329943742264,7.302404870175012,8.09088777015972,8.899263985351652,9.723953478018402,10.56133948948354,11.407799269223862,12.259735519971752,13.113607431436193,13.965960384230614,14.813453597340304,15.652885167415048,16.48121410632843,17.295579124596856,18.09331403220565,18.87195973512389,19.629272895544577,20.36322889224662,21.072026476182106,21.75408801688012,22.408056797755062,23.048388437884597,23.696129499310338,24.374821606258323,25.109368508341937,25.926456020439236,26.855739488965014,27.93143711558428,29.19421521994351,30.693377478027244,32.489421989419704,34.65703761286411,37.288587192149144,40.49807045081767,44.42546667170417,49.241218482377114,55.15043027432391,62.396129365272955,71.26070963407801,82.064508540148,95.16044258462058,110.92382405430764,129.73694474476181,151.96870892708938,177.95041478949744,207.94955237126635,242.14403551679408,280.5994949542975,323.25208858336225,369.8987718698986,420.1962111721834,473.3296736297788
IN2,0.0,0.0,0.0,0.23557204775486512,0.7420889700562847,1.4853339894620474,2.414079639327544,3.479540044963908,4.641138588511827,5.866957838049274,7.132403156423349,8.418507324573842,9.710401167749778,10.996099651340948,12.265605883741808,13.51028547992376,14.722453335963314,15.895119288993179,17.02184802129571,18.096697803974106,19.114210828104298,20.06943459911527,20.957959247992704,21.775959843424026,22.5202360886208,23.188244345364275,23.77811890027152,24.28868089557693,24.719434482816816,25.070550595666056,25.342839335177235,25.537712362764996,25.657136941060354,25.703583381624156,25.679955161163313,25.58954170393295,25.435958919386586,25.223086904274155,25.032941612626033,24.965137383987045,25.113387450207554,25.561207286409797,26.386153136440612,27.66707906953712,29.492058333287464,31.966296881263723,35.22012234520564,39.41737487734752,44.76450362565798,51.52049811587494,60.0074874306956,70.62140994337629,83.84157489596535,100.23721685101934,120.46836596014738,145.2777030789541,175.46982638696267,211.87486417199494,255.29489042127727,306.43415657983826,365.8174002245487,433.703742366276,510.00610544929947,594.2269814811682,685.4204395998271,782.1876239683036,882.7091597715466,984.8135470273398,1084.382713599642
D2,0.0,0.0,0.0,0.0,7.088800080473242e-05,0.0003073262779350767,0.0008085880823774938,0.0016713113694973014,0.002987189407763098,0.0048425780598058635,0.007318738323098876,0.01049219428313461,0.014435016319016445,0.019214978585462388,0.024895595516581354,0.03153606174624656,0.03919112430460931,0.04791091435693135,0.0577407620247964,0.0687210136107834,0.08088686648388077,0.09426823320162789,0.10888964320248372,0.12477018759042716,0.14192351012532442,0.16035784549568366,0.18007610425522394,0.20107600242371654,0.22335023265990478,0.24688667308472365,0.2716686292412667,0.29767510429841687,0.32488109241190877,0.3532578901239357,0.38277342078471505,0.41339256342539804,0.4450774886313478,0.47778799478592143,0.5114818402473468,0.5461385195466776,0.5817691738506096,0.6184203426584893,0.6561760119603813,0.6951602938371855,0.7355418915928703,0.7775409606858361,0.8214388044331313,0.8675908615600774,0.9164435386807553,0.96855554821456,1.0246244838508276,1.0855193548149387,1.1523196499988595,1.2263611441298328,1.309288016886615,1.403109875658199,1.5102609490222523,1.6336571405606717,1.7767450162933085,1.9435354800719709,2.1386142683096647,2.3671218198468718,2.6346967296139048,2.94737980359076,3.311479367678179,3.733402433336031,4.219460015932928,4.775657823187862,5.407485309635968
R2,0.0,0.0,0.0,2.11635158307948,7.223315877746552,15.653674543034887,27.506719953988586,42.78279997781356,61.4408643093348,83.42186545141108,108.6571815222107,137.0706638763154,168.57817662990672,203.0863615915552,240.49139450467914,280.6780555067959,323.51923119605146,368.875868763776,416.5973561869351,466.5222801176458,518.47950279308,572.2894954075456,627.7658652515393,684.7170161674795,742.9478857369694,802.2617076118315,862.4617531708124,923.3530129313222,984.7437846174003,1046.447141260921,1108.2822590044798,1170.0755902257206,1231.6618730917369,1292.8849735891883,1353.5984479522197,1413.6661438475876,1472.9625801805007,1531.3731610996695,1589.494392548541,1648.2745983705574,1708.8444262218957,1772.464366596956,1840.5387946685844,1914.6671340864855,1996.718126327509,2088.922741472087,2193.986465024347,2315.22407629257,2456.720601151058,2623.5212720235622,2821.8509708825723,3059.359372378894,3345.381369788791,3691.1931111975287,4110.232496447851,4618.240784892166,5233.27191449787,5975.512250191036,6866.859904209956,7930.232085779422,9188.60049584284,10663.794045243727,12375.147657801732,14338.107442628434,16562.91966094951,19053.5305818831,21806.80703065063,24812.15655421234,28036.370168304726
G2,0.0,0.0,1.1778602387743256,3.0508726980501555,5.405457225228359,8.146312741783465,11.229761036725993,14.634038153784351,18.345981342948622,22.355057787438295,26.650707869873212,31.221202799810463,36.053207869120214,41.13168487909836,46.43996490386375,51.95991107068611,57.67213087496997,63.55621567222665,69.59099345068294,75.75478517383979,82.02565729764758,88.38166457789316,94.80107845237538,101.26259730008582,107.74553581505752,114.22999160236262,120.69698790369374,127.1285920797065,133.50801010600128,139.8196578727244,146.04921051181205,152.18363131240616,158.21118202885327,164.12135395983455,169.9049482705726,175.55401485494076,181.06179997017057,186.81235737772147,193.05989349865888,199.99952183478172,207.81579940803766,216.71453305148745,226.94474963588254,238.81655362192544,252.7188274155399,269.1392321794829,288.6879062057809,312.1254838207568,340.39532715337776,374.65894263770366,416.33226432032006,467.11874291664765,529.0330629345716,604.4071534777556,695.8686115130747,806.2816328472798,938.6429651542587,1095.9307272778206,1280.9117255070032,1495.9216055250397,1742.6395845076938,2021.8835300253568,2333.45066552836,2676.0243530025973,3047.1594428715753,3443.3492765594788,3860.168209454894,4284.006946779472,4704.4828617770745
H2,94338.44460324418,99953.82821058013,105074.10879324167,109767.41814026092,114064.67823902088,117994.59841328902,121583.83341369253,124857.13021551834,127837.4643304631,130546.16638134292,133003.03963527115,135226.46914113386,137233.52307106144,139040.04682275944,140660.7503997854,142109.28954992426,143398.341107517,144539.67295375202,145544.20897935517,146422.08940665517,147182.72680250288,147834.85808984548,148386.59284377104,148845.458137423,149218.4401842279,149512.02300527532,149732.22433434436,149884.62895789192,149974.41967322482,150006.40603498978,149985.05104796312,149914.4959528377,149798.58324122577,149640.87802636696,149444.6878869949,144239.31191697984,139018.97773601007,133789.3186661629,128555.45013645434,123322.01299106753,118093.21327498682,112872.85877901627,107664.3926038559,102470.92398235,97295.25658007551,92139.91447697864,87007.16601667884,81899.04569523456,76817.3742475059,71763.77707666502,66739.70116081151,61746.43055997019,56785.10063691081,51856.711096167994,46962.13793729398,42102.14441069055,37277.3910572888,32488.444906827328,27735.787903478493,23019.824622046748,18340.88933287647,13699.252468923707,9095.12654413599,4528.671568316831,1.2641976354643703e-10,1.2588334573679494e-10,1.2534704720851729e-10,1.248110876557374e-10,1.242756691787265e-10
S3,54600.91105796395,54295.35547962174,54015.585623656276,53752.475152690655,53501.71518770724,53260.96593043238,53028.75498608428,52804.02319833338,52585.932356031924,52373.78101997511,52166.96557886402,51964.9604347455,51767.30638556913,51573.60259810423,51383.500225773496,51196.69685366271,51012.93143327981,50831.97957433498,50653.649147112534,50477.776183953974,50304.221080857045,50132.865102830845,49963.607195042525,49796.36109850697,49631.0527653132,49467.618064737355,49306.000768350474,49146.150799527444,48988.022730651486,48831.5745097886,48676.76639764594,48523.175285415615,48371.24707991059,48220.87228048824,48071.9848600985,56632.981542277084,65155.36706338737,73639.54313341397,82084.72618610761,90488.9978360707,98849.37968813378,107161.83111821963,115421.14011619515,123620.70690641276,131752.2261522801,139805.27102126545,147766.7800918383,155620.45053064264,163346.05043507088,170918.6808946846,178308.0441109719,185477.8053996293,192385.16780178846,198980.79758210233,205209.2337005726,211009.87383288844,216318.55358808904,221069.6397915586,225198.471199677,228643.92911937452,231350.9200104016,233272.5953094622,234372.1988505913,234624.49613617116,234016.78760579703,224266.72808646588,214231.12193305642,203945.39595713728,193532.28645667023
E3,0.0,67.31175671954853,103.49214645945075,125.65829725110888,141.16003916277768,153.26326568353704,163.467814386178,172.4848983123499,180.6605389506369,188.16445514183354,195.07746551402067,201.43386410299198,207.243165000737,212.50198384670625,217.2009394533268,221.3288698823713,224.87549105789043,227.8330846612914,230.19754118938744,231.96895257265084,233.1518789880505,233.75537535311273,233.79283967928512,233.2817306996444,232.2431922168032,230.70161443460196,228.68415703358818,226.22025430106598,223.34111887791906,220.07925743778725,216.4680087602059,212.54111213932424,208.33016946362585,203.86989693172126,199.19339486374025,194.33254075467966,202.48454529382994,219.2446456923874,242.65330649079772,272.41089338595924,309.300456987134,354.8558636120738,411.2297736105135,481.1991963249057,568.2576352495345,676.7588749208151,812.0878925754548,980.8363156746195,1190.9536456585922,1451.8327862805818,1774.2721346570124,2170.241647842293,2652.3749065413854,3233.123621939446,3923.5544906969335,4731.842458977657,5661.60690086388,6710.320556880575,7868.062204620855,9116.860955154338,10430.795402249929,11776.891150086158,13116.741236760456,14408.683034820011,15610.31278559773,16681.101333676823,17269.449546951877,17475.245650519973,17338.96513032972
I3,0.0,0.0,2.019188980755986,4.639045586489065,7.295001419743102,9.778475702583645,12.028921143317312,14.045314800041279,15.848213923982602,17.463621312824266,18.91638959217624,20.227830495607634,21.41516914305663,22.49178159269314,23.467731790207225,24.350386668761875,25.14501008154553,25.855293927517103,26.483812426380126,27.032398645358654,27.502448427196786,27.895159371541475,28.21171324954889,28.453410085373775,28.62176158425199,28.71855086684771,28.745864706874848,28.706103724304057,28.601975287049232,28.4364732300392,28.212847913774894,27.934569612902443,27.605287745759547,27.22872375841915,26.808747257952998,26.349291977646747,25.854303703318394,25.722665354500908,26.125385762195187,27.13364604549064,28.792553766910807,31.159879154797405,34.32553839055922,38.42244008848451,43.63489498330431,50.20777121218553,58.45776535609397,68.78709508220294,81.69916850720229,97.81502886470543,117.88841768146301,142.81608523669362,173.63860881846605,211.52577772481825,257.74012349302046,313.5731123659736,380.2514547548128,458.81599218281417,549.9819264300986,653.9951803465088,770.5035661639389,898.4618508847858,1036.0865320096914,1180.8700769903742,1329.6570465772654,1478.77737656594,1624.2261342488334,1752.4125525737406,1856.0043937046803
A3,0.0,0.0,18.172700826803876,42.48528359156888,67.92843327855498,92.47719692581441,115.39260664045352,136.48814674596926,155.80654984965253,173.47543557012597,189.6427656833381,204.4487818656448,218.01498632716383,230.4411929507631,241.8063748896137,252.17120623662365,261.5812345186574,270.07013759549073,277.662786040214,284.3779757432417,290.2307749682073,295.2344748709446,299.40215776610296,302.7479113608703,305.28772434251346,307.04010175133925,308.02643906863005,308.2711928617977,307.8018837575729,306.64896484412674,304.8455855896138,302.427278182309,299.431589970176,295.8971040979542,291.8640735143535,287.3736513575131,282.467381103517,280.7414704054496,283.88498390176267,292.7207465932529,307.8264184874551,329.8757410128698,359.8220589536284,399.00956076627386,449.26381039370557,512.989082317793,593.2850837765834,694.0865167505958,820.3221472291679,978.0829447004517,1174.7797447434677,1419.2592009848686,1721.8334312907373,2094.1666136597114,2548.955957672025,3099.3515445690336,3758.085205792881,4536.324118404336,5442.3237190422915,6480.012800981747,7647.68405939117,8936.972826653302,10332.282007671934,11810.759301023201,13342.866683207849,14893.515069250423,16423.67863862346,17807.19868811407,18970.07070331415
IH3,0.0,0.0,0.0,0.08081827034284675,0.2653021750010305,0.5533644981809741,0.9365708435266518,1.404188055728837,1.945600663184447,2.551172888432629,3.2124521277143376,3.922105428883973,4.673761219283767,5.4618315301788485,6.281346356607234,7.127811956709721,7.997095864723463,8.885337375605959,9.78888061099035,10.704226756777928,11.628002077146462,12.556938566037816,13.48786444985764,14.417702131702743,15.343471532598075,16.262297122822694,17.171417240192714,18.068194560942306,18.950126823838094,19.81485711168929,20.6601831691592,21.484065384457605,22.284633187693792,23.060189722825243,23.809212163230352,24.530355069859873,25.22245033625577,25.884505050127594,26.531506308163568,27.18506435833494,27.869319099641547,28.60985909889249,29.43420700525603,30.373077611592596,31.462051454289217,32.74356027739435,34.269209594461614,36.102518049591,38.32216434258288,41.02581333531153,44.33454381113881,48.397813701095046,53.39876460547936,59.55948066986555,67.14558477230692,76.46930707597915,87.88995432733299,101.8106222439165,118.6701089264109,138.92935343918393,163.05232564237355,191.48204195323365,224.61313580579343,262.763023389539,306.1440654701315,354.83918748088183,408.7831945460896,467.7515574253142,530.979093224109
IN3,0.0,0.0,0.0,0.4038377961511972,1.2508793542187706,2.459703767323637,3.9234581543756386,5.544550752163973,7.244703561739434,8.965405634188068,10.665048769915307,12.315316934367495,13.897819646615522,15.401289545903744,16.819387955261625,18.149056722250744,19.38932271155297,20.54046018555148,21.603426933944604,22.579504032431707,23.470082955017098,24.276556049453035,25.000276713870722,25.642564021006358,26.204733233879843,26.688138903954272,27.09422129653296,27.424549978601338,27.68086072774188,27.86508363960335,27.979361557690517,28.02605882890739,28.0077609857064,27.92726633771703,27.787557821857455,27.591795709076564,27.3432949627906,27.04549671089616,26.78093043961711,26.649821504132724,26.746586412404305,27.155779883305605,27.956599737603966,29.230387468195016,31.068797992252914,33.58201739046319,36.907168154807664,41.217287595064924,46.731249092492526,53.72483297543448,62.54287215328867,73.61198125892354,87.45280205447756,104.68996340727526,126.05712627078385,152.39372571523117,184.62960304537967,223.75397338726629,270.7663771463759,326.6094870031204,392.0866256717981,467.7700137702263,553.9083811931382,650.3440113564488,756.4492244832339,871.0907889020402,992.6281064348202,1118.947711997623,1245.6406801128464
D3,0.0,0.0,0.0,0.0,0.00012152228709382696,0.0005204435574986883,0.0013525093655172063,0.0027607828963405147,0.0048721884401379,0.007797688347008492,0.0116337561428041,0.016464155606727177,0.022361624334023215,0.02938931931299733,0.03760199519003381,0.04704693347001953,0.057764658648739066,0.06978948144520711,0.08314990743432218,0.0978689450342311,0.11396434167581149,0.13144877187645954,0.1503299962205123,0.17061100605906668,0.19229016511863864,0.215361356133869,0.23981413805287344,0.26563391725401647,0.29280213450721204,0.32129646806052486,0.3510910521865509,0.3821567097395133,0.41446119671401943,0.44796945642469316,0.4826438807107769,0.518444571615244,0.5553296081133912,0.5932553127587586,0.6321765151136125,0.6720705800686627,0.7129473667358763,0.7548530321549566,0.7978722095808105,0.8421309166639726,0.887801355313316,0.935109228064979,0.9843440398918536,1.0358728923301723,1.0901583966427597,1.1477814692170711,1.2094698800831019,1.276133459225982,1.34890676885446,1.429199751806391,1.5187562874562939,1.6197196586738194,1.7347026328074109,1.86685824832752,2.0199456580560486,2.1983838130083146,2.407284754624304,2.6524581720207885,2.940379895374184,3.2781191449107503,3.6732224232972546,4.133555549189568,4.667109031963512,5.281775350804849,5.985109371798963
R3,0.0,0.0,0.0,3.6280312852791075,12.191711597631114,26.00676635579508,44.96837032028164,68.80268680049782,97.17898193367846,129.75925654740777,166.21915957402646,206.25544545329245,249.58710617451646,295.9536279687257,345.1120964380602,396.8340298148612,450.9023881313017,507.1089751235803,565.2523216371429,625.1360667484767,686.5678117466412,749.3583996831691,813.3215621653756,878.2738711505335,944.0349340494466,1010.4277737742528,1077.279340353389,1144.421106638941,1211.689706938479,1278.927583764619,1345.9836140701252,1412.713692160939,1478.9812518466447,1544.6577152318696,1609.6227443662272,1673.7646138428279,1736.9804283354645,1799.1762338190692,1860.976704796811,1923.3604285893198,1987.490594766027,2054.6649217697504,2126.3328856615917,2204.150494943405,2290.0587904163617,2386.382075145034,2495.9472464756077,2622.228142574139,2769.519583423161,2943.145196053382,3149.7010724198553,3397.3333912344506,3696.0418004038165,4057.991237588813,4497.803172369766,5032.7842269803,5683.038361994551,6471.402082383868,7423.1445231351445,8565.388683082167,9926.236566285788,11533.61615132482,13413.905804606195,15590.425044839625,18081.90378596034,20901.052200022215,24053.3496644154,27536.155385093767,31321.21633962184
G3,0.0,0.0,2.019188980755986,5.123701652983109,8.893144934743606,13.127602769325522,17.725127961132024,22.628764793729747,27.802892212067754,33.22226896413257,38.866744950331324,44.71859443334031,50.76112041349702,56.977911290757746,63.35245394249399,69.8679538332677,76.50728159664297,83.25299936891906,90.08743775561061,96.99280408713206,103.95130845158843,110.94529773130222,117.9573904340976,124.97060697555455,131.96849149078082,138.935222377535,145.8557096803672,152.71567816818398,159.5017355669188,166.20142590581375,172.80326833525496,179.29678208792544,185.6724984932694,191.92189686052095,198.03749790043318,204.0128152528539,209.84231880494593,215.9163626652802,222.49316877236626,229.7721777670599,237.9438419899174,247.22210339517702,257.86691619582194,270.20280917946144,284.6376146595226,301.68396155709337,321.9850817397445,346.34574329439226,375.7684470991248,411.49415973985003,455.0456120689295,508.26946058752554,573.3714313941829,652.9362272802288,749.9220720865355,867.6191636365189,1009.5629282547762,1179.3973646850527,1380.6906600338375,1616.7133888665733,1890.1970427909691,2203.0955342758384,2556.373624118212,2949.843957674409,3382.0694028122107,3850.340817777068,4350.733284730056,4868.774767055531,5392.989631934942
H3,283015.3338097325,281779.9494161186,280621.70969730074,279534.0776973618,278511.3820277441,277548.3666803584,276640.16122484696,275782.25313623145,274970.4621007571,274200.91615861346,273470.0295523077,272774.4821588393,272111.20039252914,271477.33947343734,270870.2669638106,270287.5474819668,269726.92850949714,269186.3272136742,268663.8182125335,268157.6222152785,267666.0954754685,267187.71999891696,266721.09445237654,266264.92572293733,265818.0210816441,265379.28090815694,264947.691936366,264522.32098373375,264102.3091297966,263686.86631172954,263275.26630716736,262866.8420766072,262460.9814396931,262057.12306151976,261654.7527267972,252544.95321859003,243462.45879339692,234406.8573431553,225377.81918832718,216375.08915435107,207398.47930912586,198447.8623083725,189523.16529992849,180624.36434190796,171751.47929323453,162904.56913834746,154083.72771091716,145289.07978420195,136520.777498255,127778.99709656414,119063.93594689398,110375.80982311399,101714.85042665238,93081.3031279242,84475.42490965645,75897.48249548225,67347.75064851178,58826.51062581585,50334.048775890704,41870.655267214046,33436.62293696171,25032.246249837408,16657.820357780827,8313.640252067189,2.3101165425032377e-10,2.305915543166477e-10,2.3016856928944697e-10,2.2974272463118394e-10,2.2931404820754e-10
S4,27300.455528981976,27653.934554746356,28019.79079513345,28386.6695446486,28749.884873867795,29107.50393107388,29458.76914408484,29803.441323107552,30141.521326322127,30473.13053243462,30798.45858074311,31117.739683057745,31431.241012587085,31739.256112981693,32042.100318257086,32340.106922515315,32633.623597372254,32923.00888462646,33208.628733047924,33490.853105902286,33770.052705907656,34046.59586723309,34320.845659243845,34593.15723840612,34863.87547528075,35133.33287401655,35401.847792832275,35669.72296600252,35937.24432101844,36204.680078948855,36472.280121574775,36739.88754000402,37008.198579666925,37277.334471980095,37547.44107071881,45162.790701396036,52891.50311718187,60733.70003418013,68686.77291012082,76745.32620413927,84901.2283321912,93143.5008637297,101457.95113343376,109826.53353472616,118226.44845707841,126628.99045657295,134998.16207699105,143289.09033338891,151446.3272087944,159402.18775184336,167075.3780300779,174370.27822276516,181177.34489264287,187375.13355934026,192834.36042520835,197424.1765268278,201020.42303785298,203515.150772444,204826.26140427752,204905.91337371222,203746.42101846417,201382.74594765136,197891.22849016346,193384.78947517334,188005.32134005756,172443.0353898907,157460.17963155016,143136.4187409766,129652.16539518166
E4,0.0,100.96763507932282,156.8150866481776,192.58207820020607,219.09080113334892,241.14372733919572,260.91447915806407,279.39681533245255,297.0387822515839,314.02712187194567,330.4187687588387,346.2041615612894,361.33938649110326,375.76358940648646,389.4090987199401,402.20771382355986,414.09481558194875,425.01212776861536,434.9095679378397,443.7464368438405,451.4921007098135,458.1262714736003,463.63896351584253,468.0301901039195,471.3094532535921,473.4950740445332,474.6134051359705,474.69796255549494,473.78850941646715,471.9301199154038,469.17224774688293,465.5678189860714,461.16714316354205,456.03068150682986,450.21768538469775,443.7870683025401,469.6292030170506,517.4908828502889,582.8998445785819,665.4732882017765,767.6235769408879,893.8086369467445,1050.255408749085,1245.0251108531256,1488.3031030707111,1792.8263486767714,2174.3796708729783,2652.288217777287,3249.806666197327,3994.259245478549,4916.72754344972,6051.033119693579,7431.749205360783,9091.040141518099,11054.305317010163,13334.903957114584,15928.609038802126,18808.768845637824,21923.297680775217,25194.465890722102,28522.010884966337,31789.46045796922,34872.92942338054,37651.18953048472,40015.61870406401,41878.72082766713,42216.14431959333,41428.94593667556,39751.73087192082
I4,0.0,0.0,3.02878347113398,7.0058705531265755,11.101279603845107,15.008884839293335,18.64010082766535,21.992808248933997,25.095206818283035,27.98216791293151,30.685794708271878,33.23219270982257,35.640914628875045,37.92550272811705,40.09442331084316,42.15208057190054,44.09977573640909,45.936559285889935,47.65996146509506,49.26660297050566,50.75269473793567,52.1144382349702,53.34833807985396,54.45143832594508,55.421492926022225,56.25707997796706,56.95766845970839,57.52364532348837,57.95631004260036,58.25784298079749,58.43125327603576,58.480311288140705,58.40947004941282,58.22362291611485,57.92830240587943,57.52949049010758,57.033500578697144,57.43176188881894,59.17016446447942,62.45341652184811,67.425608095121,74.2686090206194,83.25436274797435,94.77633253940462,109.3753575405671,127.7679979399452,150.88089940309416,179.89179566649517,216.27544223099608,261.85019998177063,318.8176379444263,389.7832653227464,477.7417681993833,586.0061456296745,718.0590456904679,877.3091133418659,1066.7475774118034,1288.520896276425,1543.460837725474,1830.6370801710873,2147.0109020264126,2487.2653173527206,2843.865667497016,3207.3695468454903,3566.964411613042,3911.17460201808,4228.65423415438,4480.0526652561475,4647.495122320722
A4,0.0,0.0,27.259051240205824,64.15364494789013,103.33883913922978,141.85780427826575,178.64057997673808,213.41764514867958,246.24157949809242,277.27542833768047,306.70010255560027,334.6757667451753,361.3280285914377,386.7455634695498,410.98291415416656,434.06546455322894,455.99511821360386,476.75595290256217,496.3194918256287,514.6494221837314,531.7056928260953,547.4479780379107,561.838525471282,574.8444238275724,586.4393358620005,596.6047476818338,605.330787832257,612.6166702548969,618.4708144152814,622.9106940715892,625.9624635352677,627.6604070380827,628.0462531266792,627.1669820561581,625.0765180653327,621.8340164317157,617.5027279216556,621.0129564604973,636.7440023823924,666.9934613095966,713.4968850448039,778.2946219111603,864.223223829207,975.2340859297692,1116.6660921132047,1295.5420859038795,1520.92155874501,1804.3169053380914,2160.159531770661,2606.2779854624832,3164.3184337471575,3859.996911778746,4723.02653905838,5786.522469061467,7085.672353351712,8655.49619525413,10527.629238858553,12726.249806482974,15263.51383586511,18135.08843309614,21316.520426242496,24761.169814772555,28400.262947443316,32145.30998233173,35892.75837772167,39530.40342851438,42944.819146386166,45768.67161161855,47816.23866619307
IH4,0.0,0.0,0.0,0.12122740551427016,0.3998465374121719,0.8382671277609484,1.426610575215272,2.1515986338493884,3.0000644730977206,3.960164553987595,5.0216261060319765,6.175613114987549,7.414465031373153,8.731417121742293,10.120346660376043,11.575560275088538,13.091625015384171,14.663240306923553,16.285145908843997,17.952060470013517,19.658645436249213,21.39948949501293,23.169109271752056,24.961962528555816,26.772470625058766,28.59504747024435,30.42413261906149,32.2542265509746,34.07992651157722,35.895961606229065,37.697226109020384,39.47881019349849,41.23602750542992,42.964439184111676,44.65986782864058,46.318419216262804,47.93649610667589,49.5108071187399,51.077791583209425,52.69119708806617,54.41217034663263,56.30672159499799,58.44716485412225,60.91562997185428,63.80878139763121,67.24350210982678,71.36362805765242,76.3479585140491,82.41978917576998,89.85814287354788,99.01069881647156,110.30811585777774,124.27897387692143,141.56390343774916,162.92667028615736,189.25914573644926,221.57645139477702,260.99843049422157,308.7142881624526,365.9289456694683,433.7922803268706,513.3155500400364,605.2822541954306,710.1627371368098,828.0424585445378,958.5728417722057,1100.9511472473628,1253.9323789146083,1414.7149267345683
IN4,0.0,0.0,0.0,0.605756694226796,1.8857794660067522,3.728879493574423,5.984880562718206,8.515924615707636,11.211301342352908,13.988082437538933,16.786899532617447,19.566678567748333,22.29978139616318,24.968008042705552,27.55950697978785,30.066490245998914,32.48360831117924,34.80684179622521,37.03278529415815,39.15822052834554,41.17989701677756,43.09445656100918,44.898452895801384,46.5884299326119,48.16103161127854,49.61312387422728,50.94191509497523,52.145065767921864,53.22078167903516,54.167887351748206,54.98587847755806,55.6749534372536,56.236025007431024,56.670714015827386,56.981295795884876,57.17069711788378,57.24245579232854,57.20066474960226,57.246884177445594,57.63154023485236,58.59591549225151,60.361854012825404,63.1432050143842,67.16543656110224,72.68761575676271,80.02516411352359,89.57373087880791,101.83516458366516,117.44649080023116,137.21228108638414,162.13986486546145,193.47541948125442,232.7369886495528,281.7379445595189,342.59158477355004,417.6850769569336,509.60988423392007,621.0374228694967,754.5341175508823,912.3194615858007,1095.982985302858,1306.188568647569,1542.4039183885993,1802.6962682102826,2083.630923937324,2380.2976214724677,2686.4730175815903,2994.909260896148,3291.937941768148
D4,0.0,0.0,0.0,0.0,0.0001822834306407405,0.0007835121566051204,0.0020439714330650017,0.004189092569126836,0.007424341056679673,0.011935384099956588,0.017890080381217366,0.02544084194473908,0.03472679457347341,0.04587554527510754,0.059004529274679585,0.07422197536866326,0.09162755152184945,0.11131275645008207,0.13336111866749317,0.15784825713388284,0.1848418495122901,0.21440154615569984,0.2465788607040366,0.2814170617282102,0.31895108422030377,0.3592074748570703,0.40220438079677046,0.4479515882416957,0.49645061404723617,0.5476948512241454,0.6016697672093061,0.6583531522214768,0.7177154138252562,0.779719912954794,0.8443233360571175,0.9114760882358183,0.9811227190515088,1.0532023690790993,1.1276492298125291,1.2044522846980366,1.2836813346726275,1.3654981238492714,1.4501636525465849,1.5380476559667537,1.629643363750869,1.7255893549137014,1.8266999594084434,1.9340057859262552,2.0488062944525187,2.172736703256635,2.3078517829245575,2.4567290914328144,2.622593746382516,2.8094656638230777,3.0223280431180783,3.267312519001608,3.5518917873495957,3.885064930320859,4.277514880895239,4.741712718796189,5.291941302047754,5.944212500198108,6.716058759429666,7.626190633758331,8.694025909860796,9.939110875750988,11.380467682621799,13.035911443351997,14.921385234120816
R4,0.0,0.0,0.0,5.442046927918663,18.37255882942645,39.385778053374736,68.46343430925651,105.34348206811995,149.68232023053469,201.12452794699138,259.33049214278896,323.9847070743035,394.7953104361233,471.48988714408557,553.809995628017,641.5056317493359,734.3302258846076,832.0364464067266,934.3729087011942,1041.081792080285,1151.897312534552,1266.5449692009697,1384.7414670392752,1506.1952120136332,1630.6072748224778,1757.672722877082,1887.0822264714989,2018.523853001383,2151.6849720221608,2286.2542033996197,2421.9233504234817,2558.3892692352724,2695.3556350390318,2832.5345741438464,2969.647857320378,3106.4284204826486,3242.6215430688926,3377.985791823093,3514.063370616413,3653.311570650039,3798.697178083136,3953.5825360845474,4121.782571832849,4307.722236778091,4516.6615300621315,4754.979412080705,5030.521532560849,5353.023234044196,5734.620958000052,6190.462627727323,6739.420108877231,7404.892829108719,8215.669165137795,9206.780101205779,10420.238970599776,11905.516832725587,13719.56547819434,15926.184184590977,18594.548383812533,21796.78941368503,25604.633479770197,30085.258082867644,35296.675629586694,41283.07237152244,48070.58797691675,55664.00289056233,64044.710124013625,73170.20279129171,82923.17269149369
G4,0.0,0.0,3.02878347113398,7.732854652867642,13.509848585935089,20.082039730442578,27.315765022302646,35.14256478078597,43.52378967034174,52.43423065732298,61.85428051256917,71.7660399053982,82.15132268785459,92.99062540514754,104.26261912624653,115.94394493709216,128.0091980712706,140.43103534547777,153.18036543135878,166.2265946490015,179.5379084401122,193.08157330760287,206.82424716186688,220.7322883690047,234.77205569310584,248.91019293562118,263.1138934858298,277.3511412486907,291.5909255284702,305.8034284261208,319.9601841588573,334.03421043444695,348.00011261418103,361.83400522290134,375.5138164752173,389.01925198268543,402.3317846187302,416.4195184409831,431.94298624537527,449.42856380891004,469.3911438396618,492.4179840748001,519.2300691931083,550.7351769436189,588.0829020234048,632.7283751502794,686.5088049604822,751.7349063932423,831.2971018272164,928.7833973834765,1048.6014596033672,1196.0913270640676,1377.6076028668415,1600.542002955801,1873.251095274478,2204.8533676533966,2604.868052188074,3082.6875805644413,3646.9048977997345,4304.550504692632,5060.323201497087,5915.914154618071,6869.520647587047,7915.62370966805,9045.067817464318,10245.439049521521,11501.698813706575,12768.08046194205,14010.84807337443
H4,141507.66690486626,143866.12801994735,146214.29426508167,148552.8085125592,150882.2591600372,153203.18734360175,155516.0903992714,157821.42507614513,160119.61051894707,162411.03103645338,164696.0386711085,166974.9555840444,169248.07626870138,171515.6696053058,173777.98076758443,176035.23299228286,178287.62922129926,180535.35362554507,182778.57301899235,185017.43817076346,187252.08502255744,189482.63581818633,191709.20015151065,193931.87593861378,196150.75031963826,198365.90049531864,200577.3945028866,202785.29193568966,204989.6446105541,207190.49718663574,209387.8877392335,211581.84829179323,213772.40530909828,215959.58015442904,218143.38951327503,212979.71759313173,207667.56028823077,202207.25646466948,196599.1415002132,190843.5480706243,184940.80686103413,178891.2472085292,172695.1976816309,166352.9866018971,159864.94251245682,153231.39459790543,146452.67305963422,139529.1094503423,132461.03697117866,125248.79073468511,117892.70799645717,110393.12835820406,102750.39394467388,94964.84955671022,87036.84280252388,78966.72420909393,70754.84731545745,62401.568749504004,53907.24828975927,45272.24891352088,36496.936832598156,27581.681517804656,18526.855713257795,9332.835441453044,2.637534635141492e-10,2.656785606329019e-10,2.6760015691887394e-10,2.6951822832961933e-10,2.714327510348792e-10
E_Om,0.0,0.0,0.0,0.0,0.0,0.0,0.0,0.0,0.0,0.0,0.0,0.0,0.0,0.0,0.0,0.0,0.0,0.0,0.0,0.0,0.0,0.0,0.0,0.0,0.0,0.0,0.0,0.0,0.0,0.0,0.0,1.6798134440302468,2.4318170272382664,2.846617064169795,3.1483702690642144,3.422107140615817,4.042469663868266,4.981338807945751,6.291622680243991,8.097239776881429,10.597485579523998,14.088944092810644,19.006665309328614,25.988943147694634,35.97419760930572,50.343300740597584,71.12609548095847,101.29664819738505,145.18700996400196,209.0517222906736,301.8110701738235,435.9845254412983,628.7906715758188,903.3322003148675,1289.7075459118519,1825.8098355442903,2557.5179147570366,3537.9881398281223,4825.844179974093,6482.232196247076,8566.922592286126,11133.83563314358,14226.486699120258,17873.854579748622,22087.0788247675,26857.22956636158,31285.513781407375,35449.65471775722,39232.29278558419
I_Om,0.0,0.0,0.0,0.0,0.0,0.0,0.0,0.0,0.0,0.0,0.0,0.0,0.0,0.0,0.0,0.0,0.0,0.0,0.0,0.0,0.0,0.0,0.0,0.0,0.0,0.0,0.0,0.0,0.0,0.0,4.0,3.039899541621729,2.3606376233374826,1.8669739032444412,1.5042448663373134,1.237631770280081,1.043223953499079,0.9140882620231601,0.8441121704245975,0.8302374274266215,0.8738570923450875,0.9820082349821071,1.1689356504188786,1.458515466780433,1.8880402068534676,2.5140015689139092,3.4207546276152634,4.733297472192266,6.635840268443982,9.398329111490085,13.413537286553936,19.24754947935311,27.70612953805895,39.91815337496821,57.434562892146786,82.33691480376376,117.34384158388264,165.897689411729,232.2091163277496,321.2366841812147,438.5830115524685,590.2989145860785,782.6003383906768,1021.5166007054537,1312.4991247898565,1660.0250148084758,2067.228883171196,2509.5313520048066,2970.5842198178884
A_Om,0.0,0.0,0.0,0.0,0.0,0.0,0.0,0.0,0.0,0.0,0.0,0.0,0.0,0.0,0.0,0.0,0.0,0.0,0.0,0.0,0.0,0.0,0.0,0.0,0.0,0.0,0.0,0.0,0.0,0.0,0.0,0.0,0.4535128579453525,1.0195100838369477,1.584497516444591,2.1181565827501783,2.619177938484284,3.187658774130538,3.896121170890264,4.816892799626326,6.041316983802047,7.696306515818077,9.963508274579885,13.105758797853053,17.505746840948166,23.723113332885056,32.57857668692625,45.27701874813633,63.585709358012,90.08865632855608,128.54258071097757,184.36248656315138,265.2622999487224,382.0645652172199,549.668415177265,788.1244108473807,1123.7104973506441,1589.8447266914236,2227.624562326654,3085.769802206067,4219.781859527025,5690.218444257103,7560.104705427799,9891.63153596462,12742.397563810096,16161.509755883439,20185.860405433665,24602.3221194774,29261.300223733837
IH_Om,0.0,0.0,0.0,0.0,0.0,0.0,0.0,0.0,0.0,0.0,0.0,0.0,0.0,0.0,0.0,0.0,0.0,0.0,0.0,0.0,0.0,0.0,0.0,0.0,0.0,0.0,0.0,0.0,0.0,0.0,0.0,0.16010045837827092,0.27940663480056305,0.3697620294398121,0.4390230998273195,0.49274227816017685,0.5349963121719792,0.5688446716994842,0.5970241098877956,0.6219862784250811,0.6460241887769334,0.6714527209729577,0.7008342025741421,0.7372632416352287,0.7847443552522629,0.8487155146005358,0.9367954088793414,1.0598664509530364,1.2336532835566412,1.4810211853316004,1.8353021285856175,2.345056262659438,3.0807836628515206,4.144193262575894,5.680674209892858,7.895543550017528,11.074398459701133,15.607428804217939,22.01683806874907,30.98564407760459,43.38523722822889,60.29837494633202,83.03399701657756,113.13049210189456,152.34483689880372,202.6262352960319,266.0742801837023,344.8829974431479,440.23019466920175
IN_Om,0.0,0.0,0.0,0.0,0.0,0.0,0.0,0.0,0.0,0.0,0.0,0.0,0.0,0.0,0.0,0.0,0.0,0.0,0.0,0.0,0.0,0.0,0.0,0.0,0.0,0.0,0.0,0.0,0.0,0.0,0.0,1.6,2.495959816648692,2.9332831232209684,3.0763172330056268,3.0366110531615416,2.8899158872445136,2.6872107865717605,2.464781677398289,2.248024805372463,2.054884338566547,1.8988300253916184,1.7914443941446958,1.7448099609659096,1.7739642134214824,1.8997557121156308,2.1525199969455735,2.5771216951732745,3.2400941178600275,4.23985679407176,5.721298664196361,7.896347970117985,11.072432016058862,15.69081700680645,22.37648758202127,32.00019590137466,45.751318232273775,65.21710690372012,92.4600758389006,130.08135517116006,181.25507876011693,249.7185369560375,339.70585931002216,455.8194334457341,602.8420701701112,785.5021652291535,1008.2115651130673,1274.7997317891768,1581.9730123241222
D_Om,0.0,0.0,0.0,0.0,0.0,0.0,0.0,0.0,0.0,0.0,0.0,0.0,0.0,0.0,0.0,0.0,0.0,0.0,0.0,0.0,0.0,0.0,0.0,0.0,0.0,0.0,0.0,0.0,0.0,0.0,0.0,0.0,0.00024073484602383065,0.0006608642690628796,0.0012168564637406528,0.0018769929768299794,0.002617904262555698,0.0034223507715703066,0.0042776933223673845,0.005175407848747902,0.00611065670738527,0.007082050138660995,0.008091679149302514,0.009145487586541932,0.01025407250098822,0.01143405233017379,0.0127102223099165,0.014118833508140322,0.01571250031871975,0.017567481474127282,0.01979441705332749,0.022554066712095935,0.0260802075116101,0.030712623859581983,0.03694403466917531,0.04548577305695064,0.057357896847483714,0.07400990168874237,0.09747799171215762,0.1305835816405077,0.1771751050598045,0.24241126059390117,0.3330788336616531,0.45793279528679964,0.6280413126053614,0.8571144284780681,1.1617931036579208,1.5618753490165544,2.0804582195886585
R_Om,0.0,0.0,0.0,0.0,0.0,0.0,0.0,0.0,0.0,0.0,0.0,0.0,0.0,0.0,0.0,0.0,0.0,0.0,0.0,0.0,0.0,0.0,0.0,0.0,0.0,0.0,0.0,0.0,0.0,0.0,0.0,0.0,0.3221254162410677,0.9155667846903239,1.710669052044795,2.6480927439208717,3.684829023310055,4.792812034957242,5.974195936397649,7.25290684337921,8.6724222964361,10.298075059064294,12.223259678047402,14.579985537729726,17.555192776116776,21.415282874951554,26.542626960299188,33.48961413580881,43.058295719111854,56.41705943158068,75.27015650224567,102.10125712029648,140.51812311470286,195.7309600313618,275.2002094764677,389.48773026913193,553.3351880843518,786.9720924058925,1117.6222242789338,1581.1335729488674,2223.6099308188896,3102.881889030313,4289.631723117406,5867.988367590202,7935.437561183975,10601.94402517071,13988.247841498785,18223.364579604782,23394.55568496247
G_Om,0.0,0.0,0.0,0.0,0.0,0.0,0.0,0.0,0.0,0.0,0.0,0.0,0.0,0.0,0.0,0.0,0.0,0.0,0.0,0.0,0.0,0.0,0.0,0.0,0.0,0.0,0.0,0.0,0.0,0.0,0.0,0.0,0.0503903175494836,0.12333891351426919,0.2087305016784558,0.3031739520421274,0.40582884274847975,0.5270931002589753,0.676521148502071,0.8652545259409286,1.1081520245181682,1.4260508158845933,1.8486848704557546,2.4188386002627755,3.1984436823877327,4.277582111457329,5.787758684828168,7.921368550898422,10.960021615323264,15.31527877923388,21.5863219762806,30.63991999340339,43.718395321555576,62.58058607580938,89.67835493121822,128.36644438271162,183.13629857396705,259.8556154249516,365.9866542529965,510.7502418629331,705.2014411667619,962.1882818074837,1296.1762702306546,1722.936268449401,2259.108431678384,2921.667074529958,3727.3186373019316,4665.807955711909,5729.211373868604
beta,29.039689524945995,29.039689524946088,28.530953607802154,28.12066506280697,27.745822376322185,27.382533873053063,27.021950706624214,26.661230638503355,26.299965857757837,25.938730470340353,25.57847648525228,25.220275910534454,24.865206416355765,24.51429794340814,24.168506245052427,23.828699208471377,23.495649945446104,23.170033988902798,22.852429304273773,22.54331838869259,22.243091966919124,21.952053899212263,21.67042697431283,21.398359302455923,21.135931060713414,20.88316137944734,20.640015194506194,20.406409924227376,20.18222186238196,19.967292207159375,19.761432671669873,19.564430643047473,19.375510432123985,19.195128658901012,19.02291740517632,18.858567691394374,19.73691453350564,20.412645769873475,20.938475437810148,21.34843575367901,21.66444539790834,21.900492110142743,22.065217482747325,22.163484607289682,22.19733387884296,22.166596002499734,22.06933923909827,21.90227322996443,21.661201588548945,21.341595736126223,20.93933930730762,20.45165331506207,19.878149232512037,19.221873532842398,18.4901249699903,17.694786218255164,16.85195953803544,15.98084901275016,15.102049678691118,14.235594679095682,13.39918205416458,12.606920497216496,11.868747789250662,11.19047966138604,10.574316263104327,10.019592437673817,9.348041760491267,8.788419996496255,8.317166888707316
