series,2021-12-01,2021-12-02,2021-12-03,2021-12-04,2021-12-05,2021-12-06,2021-12-07,2021-12-08,2021-12-09,2021-12-10,2021-12-11,2021-12-12,2021-12-13,2021-12-14,2021-12-15,2021-12-16,2021-12-17,2021-12-18,2021-12-19,2021-12-20,2021-12-21,2021-12-22,2021-12-23,2021-12-24,2021-12-25,2021-12-26,2021-12-27,2021-12-28,2021-12-29,2021-12-30,2021-12-31,2022-01-01,2022-01-02,2022-01-03,2022-01-04,2022-01-05,2022-01-06,2022-01-07,2022-01-08,2022-01-09,2022-01-10,2022-01-11,2022-01-12,2022-01-13,2022-01-14,2022-01-15,2022-01-16,2022-01-17
S,1695009.812485496,1690818.3093294138,1687396.5813967895,1684476.0470318566,1681912.0359636166,1679617.6133904331,1677536.5796517066,1675630.591314824,1673872.3272433924,1672241.5856933012,1670722.9327562414,1669304.2265406162,1667975.660493245,1666729.1264572234,1665557.7807808474,1664455.742667697,1663417.880503784,1662439.6578026605,1661517.0202181553,1660646.3112720267,1659824.2084413422,1659047.6738750292,1658313.9157591718,1657620.3575337522,1656964.612973202,1688768.8121166609,1720505.6234663788,1752152.8151831147,1783673.9285197686,1815004.5805683313,1846017.2951862002,1876408.7311414918,1905172.527583925,1925054.6362757084,1945754.269778784,1959288.0824263913,1984315.4869041715,1966936.7475553057,1996875.4736361888,2023891.0196257164,2044263.710842064,2054611.7581849005,2071081.7747096024,2061359.8512958877,2051591.6712512285,2043943.0601695634,2037273.8216255736,2031271.3172652381
E,1695.0098124854958,5547.511006070583,7859.126902055871,9207.32260652577,9929.415672518018,10237.540796235768,10270.678983865802,10122.163520194896,9855.641512692142,9514.912949309408,9130.25104495931,8722.58303098863,8306.31579130339,7891.276722517368,7484.063424918117,7088.9912480149505,6708.763371633037,6344.94726690879,5998.314806698392,5669.085645106823,5357.101565466285,5061.951332293709,4783.059925961389,4519.752080248924,4271.297249430059,4036.941146023689,3916.807966567311,3910.273419591673,4031.0572386820504,4318.044066289447,4865.399938812105,5924.224351267421,8398.017623791398,19253.649311045603,27120.446719138734,40573.02769342167,39848.933382537674,81630.31258172805,67786.94726105704,59630.273234709486,59735.980135068705,69825.98372752377,71784.4826927286,80329.30532767392,74008.50299780695,66835.25352563632,60118.35289746171,54078.81638983963
I,10636.492029962441,9839.598462476933,9229.248849110958,8741.406357224301,8335.562900660074,7985.202511211045,7672.691960807352,7386.238482497558,7117.9675836135375,6862.663383212549,6616.923327150231,6378.581977137075,6146.314152816151,5919.35988522035,5697.333235844111,5480.089429484495,5267.632817991907,5060.05356471085,4857.48458061673,4660.072746050713,4467.96019205878,4281.27263629364,4100.11263150596,3924.556198372292,3754.651752857166,3590.4205526419905,3431.8581130562907,3282.1516108540827,3144.213350331878,3021.159946558668,2917.0980727470687,2838.807263839074,2800.5280968703414,2844.1595666791454,3230.306852819534,3836.304257530986,4822.60191313917,5706.916379148058,7852.202004270046,9384.629094378966,10534.480750586015,11595.713516927113,12893.650794123801,14150.177189966547,15578.534372532271,16691.15726163138,17486.13417721696,18003.42220503275
A,56105.54625285265,51805.163360188824,48503.94724605767,45861.17488850411,43661.05688535977,41762.15177556048,40070.243214036935,38522.18130871956,37075.66904652671,35702.56700743978,34384.39947366087,33109.29043078197,31869.852883286963,30661.725735237884,29482.55655800173,28331.29441259966,27207.699775402376,26112.00717474117,25044.695505091073,24006.33429446586,22997.48345453822,22018.630536445202,21070.154105442114,20152.30511156789,19265.200465187176,18408.824697748012,17583.036789143756,16804.540781127656,16088.570577979383,15451.421708560254,14914.59545206237,14513.667656247451,14323.523142314043,14564.828991602371,16611.533550609864,19813.583897231045,25015.67522358738,29670.873792404134,40970.17472204198,49018.57605976341,55037.84913859607,60582.95496221613,67371.27142494541,73934.0722896365,81397.12429068713,87187.54588949628,91298.7177745018,93944.60497897785
IH,0.0,425.45968119849766,615.324559358364,689.8641486240576,709.1989122290869,703.0420453491823,685.8188004864995,664.3419861637894,641.6905839504344,619.154314455581,597.196717646937,575.9232786225167,555.3023564611177,535.2644533670474,515.7429497949138,496.68768750119557,478.0667340581505,459.8636210313125,442.07337195342933,424.69870963364576,407.7469283563616,391.22751499074525,375.15044259921535,359.5250110417859,344.35910803659806,329.6587811347241,315.4280324996095,301.6687685876923,288.5094700740573,276.13359055116626,264.76140676856744,254.6719892551165,246.2819650877583,240.37809460155597,239.0463804986256,253.7982106147186,285.7264498196965,341.81868154869267,406.42534943090914,525.9084083906138,649.4775446634133,759.8732409768311,859.8584623700636,963.8861440311829,1068.3642355499424,1179.9503026647094,1282.6115251472852,1367.9154677249494
IN,425.45968119849766,831.647818807935,1187.5615904283165,1502.9399726739869,1784.5193339574037,2037.1105899381892,2264.2461031954267,2468.592905938697,2652.225514298327,2816.809497796238,2963.726347385439,3094.1588760926506,3209.1497029313664,3309.6412134214274,3396.502708202545,3470.5486746920674,3532.5509164267382,3583.246451546051,3623.3425208849767,3653.519646666519,3674.433401517682,3686.7153486099864,3690.973472651624,3687.7923212971154,3677.7330054648355,3661.333156734618,3639.1069045322433,3611.544910984619,3579.243100347214,3542.886896171716,3503.255339793249,3461.2564521621816,3418.028306076346,3375.22704747854,3336.1097656226007,3314.21022442781,3317.5425370178514,3360.1758160130807,3436.2505644723815,3594.6908701005536,3807.251576344988,4056.178238121851,4336.2788741928725,4655.609614377371,5010.737063829398,5406.913012848519,5829.648764397741,6265.035431598502
D,3992.0,3992.0,3992.985187052211,3994.410021920417,3996.00745936759,3997.6496680577343,3999.277620013809,4000.865690123059,4002.40402889388,4003.889916470942,4005.3236194535702,4006.706477806191,4008.040075752693,4009.325924249798,4010.5653733263366,4011.759618748079,4012.9097401352346,4014.0167431658397,4015.0815953839083,4016.105252810034,4017.0886777696983,4018.0328494789046,4018.9387691212823,4019.807460973913,4020.6399708484723,4021.4373628212975,4022.2007149723327,4022.9311146488603,4023.629653612721,4024.297721133377,4024.9371312822427,4025.550208199752,4026.1399222372097,4026.710208480348,4027.2668238234737,4027.82035547254,4028.4080462033467,4029.0696694106114,4029.8611788159615,4030.8022902999487,4032.0200746811524,4033.5239936092676,4035.283542895402,4037.274616224548,4039.506574247527,4041.9804599255876,4044.712732363632,4047.682725346356
R,0.0,4604.630603838497,9078.934695717282,13390.032119189096,17534.94653786721,21522.01857382811,25362.405624651874,29066.59874652238,32643.295066721144,36099.29600716737,39439.793231107295,42668.7518849558,45789.270360345625,48803.8754783581,51714.74720918844,54523.88089631622,57233.19898493029,59844.62408807609,62360.12352272295,64781.733408365966,67111.56853277337,69351.82261428887,71504.76234524591,73572.71764850538,75558.06986541393,77463.23906661353,79290.6712926947,81042.82625400947,82723.55197178546,84338.02970889195,85892.89098247152,87396.66480318387,88860.96181055522,90303.76285905724,91761.53325673421,93384.16902865896,95274.53734285294,97605.42385060336,100345.42688644228,104043.12343475147,108462.7057197552,113442.73687978942,118939.83447861779,125052.05426145492,131764.66864437956,139153.08885422078,147085.86151228708,155422.69625672643
G,675994.0,676048.0257949114,676224.8440585437,676475.3414745858,676768.8105265996,677085.2951692034,677411.6008196966,677738.9626982515,678061.5908779671,678375.7240842553,678678.99709885,678970.0096150088,679248.0283488588,679512.7792134883,679764.3013549297,680002.8442074376,680228.7947503038,680442.6261224621,680644.8614235449,680836.0483554284,681016.7416211205,681187.49088072,681348.8326868357,681501.2852642224,681645.345314577,681781.4862545904,681910.1574592162,682034.9996060585,682159.6334744045,682288.117138658,682425.748060571,682580.8250974829,682769.6505116213,683037.3242291798,683651.0042806544,684515.4262335914,685808.628229802,687078.7508488622,689680.589784316,691841.1930347665,693741.815018524,695645.8062449119,697871.4006034628,700159.4190628353,702719.7904205985,705078.6960595002,707208.9655560163,709125.1443180095
H,596867.1635632551,596867.1635632551,596867.1635632551,596867.1635632551,596867.1635632551,596867.1635632551,596867.1635632551,596867.1635632551,596867.1635632551,596867.1635632551,596867.1635632551,596867.1635632551,596867.1635632552,596867.1635632552,596867.1635632551,596867.1635632551,596867.1635632551,596867.1635632551,596867.1635632551,596867.1635632551,596867.1635632551,596867.1635632551,596867.1635632551,596867.1635632551,596867.1635632551,573563.9657668651,550612.4541665798,528032.8279614348,505846.84082646976,484077.90197353845,462751.16822289245,441893.6201598423,421534.11306903686,401703.39040446037,382434.044052228,363760.401646818,345718.31692886027,328344.8350385531,311677.701520745,295754.6829271844,280612.6700158,266286.5439226362,252807.80376798747,247665.1166391471,247665.1166391471,247665.1166391471,247665.11663914713,247665.11663914713
S0,593253.4343699235,589613.53493646,585605.9307909389,581886.519695615,578375.5439708518,575024.999484422,571803.7921779325,568690.6541049454,565670.3822704076,562731.68959695,559865.9098426364,557066.1849797615,554326.9387914692,551643.5268388735,549011.9984510865,546428.9316494867,543891.3165507261,541396.4715713556,538941.9821772855,536525.6553499482,534145.4851545844,531799.6262503376,529486.3731518461,527204.1437076319,524951.4657089622,533111.099385073,541003.933913932,548609.9593894932,555901.0920541572,562833.9675741185,569331.4735798326,575223.5603288985,579970.5500545965,579753.8492146749,579712.5024208437,575678.5550706505,577336.9619520956,556954.0480814754,560543.282338318,562291.1878821206,560356.738496577,553127.3504454757,548627.4394677167,537529.3540194863,530912.6317399344,525358.056928238,520307.9514022028,515607.3057223009
E0,1695.0098124854958,3666.2851801124366,4824.573246021995,5476.4907243644475,5802.300495513709,5914.63971766334,5886.824004466098,5767.758602901298,5590.558880536716,5377.842720537546,5145.115358750523,4902.9978360945315,4658.725507219693,4417.1717792504205,4181.555962994791,3953.93723066866,3735.5617339139417,3527.1078053759857,3328.8598003741718,3140.8316206552363,2962.8545574098084,2794.6397207440227,2635.8223074701796,2485.992858760265,2344.719184535755,2211.5615890651643,2140.6512238113796,2131.2678594893327,2190.3588174408305,2338.236457116618,2624.465779251236,3181.5035815989013,4486.034246393447,10210.04394936825,14317.815945723863,21297.917236569287,20860.712679015498,42268.03044332944,35070.84583103904,30775.350931001027,30639.288480280367,35447.44748731321,36176.036770293824,40077.225363892845,36752.490317471376,33051.67342155875,29605.197279845943,26515.81662384827
I0,10636.492029962441,9839.598462476933,9169.287709118278,8589.520442124935,8076.91340964265,7615.699618211314,7194.963567641045,6806.999818628532,6446.27814550907,6108.766241378829,5791.475293646346,5492.149799944302,5209.053227213716,4940.818580688422,4686.343557437016,4444.716649275058,4215.164901576583,3997.016915226286,3789.6766238335,3592.604709701249,3405.3054436448174,3227.3173774840193,3058.2067709781536,2897.5629555729693,2744.995065336841,2600.129728227792,2462.6094273513363,2333.8305932160656,2215.054985704405,2107.6648589436836,2013.579311517479,1936.1437212392832,1882.6576895991143,1875.0304214045887,2050.4572190646295,2342.778700452303,2834.194308591718,3272.3614544978627,4357.800104151532,5127.004624175689,5697.7605802003945,6218.519281275151,6850.869857725369,7455.855035437226,8136.785702614812,8657.271170744683,9018.160033185432,9240.326733363872
A0,56105.54625285265,51805.163360188824,48187.663220858725,45060.55086177556,42298.61383199164,39817.17994341539,37557.43434153222,35477.69525740133,33547.90973457554,31746.048538677504,30055.685493718265,28464.343733918584,26962.351774061757,25542.045009319376,24197.204592073227,22922.661176450285,21714.014095189523,20567.4318472045,19479.510115671415,18447.17061732813,17467.588986178183,16538.143319814535,15656.3774269695,14819.974521337306,14026.738320573237,13274.57937609419,12561.5050799361,11894.786558995753,11280.979600378389,10727.272233146023,10243.680074712336,9847.733385393582,9577.799228983396,9549.252334846306,10485.3965596488,12035.657745365628,14632.760565553523,16944.103289766656,22665.684716114443,26709.618422547705,29700.865261838306,32424.76963505792,35734.435682006275,38896.1066175481,42455.2758995811,45164.58735273379,47030.268279787895,48164.02782561207
IH0,0.0,425.45968119849766,615.324559358364,687.4657030243504,701.8734563168709,688.8781924437934,663.6567830827754,633.6824739484578,602.5419456643028,571.8832915687088,542.4041709060541,514.3486364702746,487.753663340372,462.56906082604996,438.7139908064617,416.1022300391287,394.6523804595279,374.2911009265529,354.9533116182388,336.5812516470662,319.1232445476769,302.5325284678271,286.76627418825205,271.78481041270953,257.55103455535317,244.0299748929739,231.1884700186552,218.9949362300861,207.48876998747494,196.74097429104535,186.84384457348267,177.92224721286254,170.17507504688277,163.99797089122492,160.47350363702515,165.65369747558498,180.04636460641865,207.20414376862277,238.88489185495752,298.8137761896917,360.81562872743655,415.95992605251274,465.530319900235,516.6593877198767,567.506187620888,621.2436950090854,670.0699702667799,709.9527505964538
IN0,425.45968119849766,831.647818807935,1187.5615904283165,1500.5415270742797,1776.1540913051604,2018.77827814025,2231.964052706191,2418.663961553563,2581.388595654456,2722.3136176867406,2843.3548496350113,2946.2217822594066,3032.4562534458296,3103.460800952083,3160.519753652605,3204.8151735797314,3237.439119973677,3259.403268174815,3271.6466128984716,3275.0417736721556,3270.4002713016253,3258.4770389278574,3239.974356451703,3215.5453438229606,3185.797110647951,3151.293632370489,3112.558403824576,3070.0769070425663,3024.3684909721724,2975.9794506218404,2925.4866262867286,2873.517493753257,2820.8049218923934,2768.3405677409087,2717.9475386128465,2676.854174784503,2649.315027673337,2642.6799130380655,2653.8720271731004,2707.9747313477174,2790.394990170312,2891.9121943257474,3009.6614418871504,3147.371164212241,3303.042619352088,3478.9000355341973,3667.6112652121965,3862.210220182858
D0,3992.0,3992.0,3992.985187052211,3994.410021920417,3996.0019055685943,3997.627151560191,3999.222305944349,4000.75905807081,4002.226402207365,4003.6216378771946,4004.9458808998056,4006.2018625823393,4007.3928793563505,4008.5223132722454,4009.5934301597385,4010.609308661196,4011.5728277619387,4012.486677963344,4013.353379939315,4014.175303666049,4014.9546853696347,4015.6936416150356,4016.394180686281,4017.0582116928035,4017.6875518818715,4018.283932586649,4018.8490041603845,4019.3843401683494,4019.8914410411417,4020.3718984351185,4020.8274684199523,4021.2601207830166,4021.672114450103,4022.0661688998052,4022.4459197543533,4022.817509413709,4023.2010942399943,4023.6180064764444,4024.0978047948897,4024.6509625036565,4025.342890496681,4026.1783889031485,4027.14157848725,4028.219552414851,4029.4159199243436,4030.730027401035,4032.1685685170028,4033.72017090838
R0,0.0,4604.630603838497,9078.934695717282,13364.183055818032,17442.413061785548,21314.266671942274,24988.116748339293,28474.922030536403,31785.92949710862,34931.75276963772,37922.088952128724,40765.711897509405,43470.56948248519,46043.90661628898,48492.38141306819,50822.163391790804,53039.01205096869,55148.33791321723,57155.24923982698,59064.58758784811,60880.954936951865,62608.73457316649,64252.10741435068,65815.06504227985,67301.4203738754,68714.81664960571,70058.73522629979,71336.50252070029,72552.0461401674,73709.87177630143,74815.13115765249,75873.86467063072,76893.63332536061,77885.26174082835,78869.23725376718,79925.75935613787,81109.58727027847,82511.2803591989,84114.51371132353,86200.9599048558,88648.91325638734,91374.61087826206,94353.8009213329,97632.43539806566,101200.06589908329,105089.858010248,109234.64685901324,113563.7267312881
G0,675994.0,676048.0257949114,676164.882918551,676318.6586682871,676493.2132711748,676678.1525525149,676866.6724714015,677054.3058078003,677238.1441201711,677416.3344676816,677587.7448192594,677751.7373490491,677908.012760314,678056.5023719658,678197.2928351695,678330.5734116025,678456.5989958461,678575.6642016219,678688.0852634473,678794.1874792217,678894.2965899414,678988.7329592721,679077.807742965,679161.820469238,679241.0576154477,679315.7918835656,679386.2819609473,679454.5118810001,679522.4427209458,679592.2569930415,679666.7846343308,679750.435388974,679851.840855033,679994.8262020064,680320.2554333789,680776.6134922917,681455.4513964673,682120.3540870608,683467.5816530742,684585.4101814305,685566.3265073893,686542.9060548801,687672.7381738323,688825.7929401622,690103.1920101749,691274.620334514,692328.0908906143,693271.7103934475
H0,208903.50724713926,208433.4743558332,207683.1138481522,206935.45463829883,206190.48700160097,205448.2012483952,204708.58772390097,203971.63680809492,203237.33891558577,202505.68449548967,201776.6640313059,201050.2680407932,200326.48707584632,199605.31172237327,198886.73260017272,198170.7403628121,197457.32569750596,196746.47932499493,196038.19199942495,195332.454508227,194629.2576719974,193928.5923443782,193230.44941193843,192534.81979405545,191841.69444279684,180766.93081047287,169933.9592697782,159351.18831516916,149027.64264843907,138972.98887217874,129197.55431017694,119712.3355129926,110528.99197834088,101659.81938780755,93117.69524995494,84915.98830555745,77068.42152576322,69588.87725847299,62491.13244125528,55788.512375491744,49493.454117856265,43616.97600988237,38168.05913651377,36040.58584854834,35910.83973949357,35781.56071643139,35652.74709785224,35524.39720829997
S1,169500.9812485496,158110.4596853272,148461.58407310024,139578.87601896,131382.05161215033,123806.6780286895,116798.30331725936,110309.4905927802,104298.12885985806,98726.37883656137,93559.96423702301,88767.66461622753,84320.93289179415,80193.59405889903,76361.59932795659,72802.8197833905,69496.86938632737,66424.95057971476,63569.71787876687,60915.15617935372,58446.47139672437,56149.991634930804,54013.07749022657,52024.040374887474,50172.06795210416,49409.573723510024,48682.458316414,47988.437430704726,47324.524348884865,46686.521493497945,46067.67131858021,45454.26966485512,44805.042809901955,43834.053840413755,42941.70227786778,41819.964994685404,41171.32353398846,39026.31354273775,38629.27771307687,38143.459537959,37449.176335884884,36448.07026513742,35672.77787766057,34514.004376347984,33686.772225216766,32963.26376520225,32303.915187563056,31695.78489807393
E1,0.0,660.0792371782971,1035.2991430979853,1238.1351953341095,1331.3936019788998,1354.2401529744645,1332.0954102650817,1281.8476372067603,1214.8620758724712,1138.8262223383208,1058.9301300849675,978.6449755031604,900.2486261517832,825.1867274415188,754.3241423927417,688.1218165488109,626.7620900083758,570.2378966858778,518.4163941085551,471.08433367377944,427.9803053721242,388.81750242323045,353.2996182435141,321.1317622262468,292.0277650591252,265.7148743660619,246.99401559059882,235.27632026901313,230.67549074448834,234.4229655813361,250.07169268029455,287.60220645718096,383.44661155823655,818.272729210605,1119.5910722168642,1624.8337912668633,1577.5423953458128,3086.168356379095,2556.973363783795,2232.9333994826857,2194.6507851036345,2486.585075300867,2504.4367361314817,2727.658593840153,2483.3107735276467,2218.2234031403227,1973.093054366739,1754.2812238200797
I1,0.0,0.0,21.038996488659567,52.35442271605477,87.62969774805035,123.05541708066096,156.37527705727453,186.32371909000886,212.27471634028308,234.01457348697858,251.59171778573838,265.21612717411193,275.1916196898371,281.8703114044183,285.6222267970527,286.8153545488806,285.80293616703887,282.91576564443295,278.45794823407607,272.70502662204933,265.90370311283596,258.27261179010094,250.00375449188166,241.26432859882232,232.19875652281996,222.93078568218576,213.565570145054,204.3528736670121,195.50370963908364,187.21583446591458,179.71043422395596,173.30424477811783,168.6067770969595,167.33999780216982,180.03396536968864,201.3164678991811,237.00019412093317,268.3218827367672,345.2229365197245,399.1046407325856,438.3475399898506,473.23080866350386,514.6283661589796,553.2831129094604,595.960328586558,627.4351612244635,647.9427606448107,658.9966044519284
A1,0.0,0.0,110.97685094699986,275.9682868232443,461.5775331685801,647.6966379210141,822.4458286736482,979.1901072555581,1114.6761020933648,1227.827130178938,1318.946975245066,1389.187179411034,1440.1887692236112,1473.841624471354,1492.1242214159415,1496.9987470899985,1490.3445213174275,1473.9179282581194,1449.3306194071167,1418.0401958642879,1381.3492800629049,1340.41008455775,1296.23243475806,1249.6938086860425,1201.5503914448223,1152.4484544516379,1102.9355941382694,1054.3218163929623,1007.7110593318715,964.1361554896607,924.7525642370323,891.2186571881082,866.7352645072917,860.3668253080631,927.6246809439574,1040.045344774054,1228.2228826846576,1393.0702245707546,1798.0851177554525,2081.027473329017,2286.365968451459,2468.48636299437,2684.8044433445198,2886.4447529719173,3109.1350521231884,3272.544099242432,3378.0299262959206,3433.6817514304253
IH1,0.0,0.0,0.0,0.8415598595463827,2.5327801746917586,4.825219568043385,7.437019448523339,10.131028911319472,12.73302755840225,15.127174315822767,17.24454744391416,19.051163474457276,20.537710057393543,21.711486513605113,22.59038173818988,23.198520025498784,23.563193996663312,23.712757651012126,23.6752202552564,23.477343859135328,23.144097986505507,22.69836431924042,22.160813671132722,21.549899308292083,20.88192657940663,20.171170385113882,19.430020399568086,18.669140022597475,17.90407734372451,17.15137623523104,16.427569270935592,15.75012032300788,15.14080062823297,14.635337335217711,14.32122934586669,14.665281583176046,15.695894460819302,17.660377225181385,19.937091792427886,24.199709602897975,28.576564355402994,32.42740479675384,35.8297124395831,39.25882579185736,42.592197285263865,46.036568896296984,49.09069610815451,51.502746833409574
IN1,0.0,0.0,0.0,0.8415598595463827,2.897617627332815,6.271555581319472,10.90969703462953,16.670544483473385,23.368387325493497,30.800885798129983,38.766317470705886,47.074034184946036,55.55042246404425,64.04188551686727,72.415868487187,80.56062167836885,88.3841767347611,95.81286074274628,102.78956962318918,109.27195008295718,115.23058896334895,120.64727349087768,125.51336121784644,129.8282812368036,133.5981763952424,136.83468819183994,139.55388071081956,141.7752965633209,143.52758371218172,144.8465330230169,145.77422444115072,146.3596793094897,146.66236794379054,146.76344734205085,146.809277094658,147.3607896539079,148.73862110273225,151.48139160014279,155.35279361341247,162.1248794633434,170.74548632474168,180.54533173110647,191.29661588651337,203.21681414897884,216.14326716996663,230.1912945757859,244.86199841749712,259.68848472890477
D1,0.0,0.0,0.0,0.0,0.0019487014020931638,0.007813563207973499,0.018986757878548532,0.0362077910140207,0.0596670256961218,0.08915140327720555,0.1241796255296796,0.16411080024199426,0.20822534367351211,0.25578210856745354,0.3060568498477644,0.3583667456533451,0.4120848359203206,0.4666473589045341,0.5215562088904762,0.5763781379344194,0.6307418678304492,0.6843339393686463,0.7368938777644335,0.7882090732108266,0.8381096459635136,0.8864634726605596,0.9331714846521475,0.9781633026028589,1.0213932391608112,1.0628516098603198,1.1025670389391706,1.1406064331760941,1.1770771383890604,1.2121369134940116,1.246026246572015,1.279188236642491,1.3131469081012632,1.3494920488490547,1.3903861117844654,1.4365520954502096,1.4925885229229192,1.5587599192825268,1.6338482549212276,1.7168149150768648,1.8077219705849075,1.9063477232589485,2.0129492030445086,2.1266227667851254
R1,0.0,0.0,0.0,9.06984679686465,32.063137702021244,71.12479180361235,126.6426571407971,197.89694063439373,283.50617526388004,381.73157559846743,490.681997678324,608.4491462214801,733.1940095883438,863.1993915824479,996.899071797345,1132.891045475712,1269.940105822063,1406.9734772203342,1543.0721024841962,1677.459400468072,1809.4887497757663,1938.6305547462791,2064.459465311578,2186.6421200737946,2304.9256388339604,2419.1269902506024,2529.1232904288895,2634.843040476877,2736.327771213153,2833.7179418043893,2927.2479265323263,3017.2563162484994,3104.2277782571714,3188.921643182487,3272.858754724861,3362.1450760220146,3460.808167145105,3575.404017309816,3704.532730974528,3868.022474300795,4056.974261776249,4265.183898336336,4490.556595417009,4735.716607990532,4999.530080360291,5283.717330539145,5583.53715216002,5894.097883491342
G1,0.0,0.0,21.038996488659567,54.03754243514754,93.5011712844275,135.93726643688214,179.1015597799486,221.56002397726488,262.4169187547398,301.13875320865793,337.437063386376,371.18881019760863,402.3815928872628,431.07561417703096,457.3771544820188,481.4200603776109,503.3528703596797,523.3299347304369,541.5053785716347,558.029092818334,573.0441714388845,586.6853763651764,599.0783280101651,610.3392024764563,620.5747766883597,629.8827063695511,638.3519536869942,646.2245028205566,653.7235686859891,661.0759902839468,668.5478567992614,676.5185020913398,685.6853739924309,697.907136865398,723.9883042570904,759.6735240161579,811.4625676698445,861.7442718153532,960.1110762172518,1041.610615351691,1112.7818858675628,1182.7329577404041,1261.9889799289601,1341.8139959721593,1428.7538606820137,1507.9055196068439,1578.6079319251483,1641.4971965838508
H1,59686.716356325516,55893.4123650369,52651.38627521526,49638.2321796961,46837.61180355854,44234.35385651012,41814.370676967905,39564.58083013339,37472.83723477586,35527.86042381655,33719.17657201341,32037.059950239443,30472.479490169193,29017.04916577301,27662.981918989764,26403.046876422544,25230.529621984202,24139.19530721064,23123.254396551292,22177.33085942413,21296.43263426631,20475.92420229505,19711.501120285164,18999.16637243349,18335.208411375414,16753.762967897397,15291.576216172756,13938.89119052949,12686.901328277812,11527.672112543944,10454.068927020377,9459.690381085755,8538.806352941001,7686.299974529088,6897.612746881854,6168.6919325867675,5495.939331794036,4876.160524070691,4306.5136729637015,3784.4570755101454,3307.6948368721196,2874.1204084026135,2481.7582892304245,2314.115365796096,2278.5675201511485,2245.091720345386,2213.5416446141544,2183.781416693983
S2,169500.9812485496,179314.89945068827,188238.56875404218,196392.96713966556,203834.6043910795,210616.60856778783,216788.47729016736,222396.1555619453,227482.21752909082,232086.0793696141,236244.21647477715,239990.37430089846,243355.76861678364,246369.27356518462,249057.59717623983,251445.4445495589,253555.66920211256,255409.41321182685,257026.2368420843,258424.23834515738,259620.16463140596,260629.5134661918,261466.62782397514,262144.7829926843,262676.26698352786,268211.21833671595,273544.85748284904,278672.1582117041,283586.49520694785,288278.24552380573,292731.2798308074,296911.8316213394,300716.74476476345,303430.95014761825,305980.0794438125,307581.6949851054,310048.7907035422,308110.8976167135,310506.5594376498,312371.1760124649,313331.8993812711,313046.2133143775,313085.97154684126,310679.657919087,308484.2158541497,306465.40242276835,304516.5586431472,302610.6838200754
E2,0.0,231.02773301240398,386.16386173048477,490.83252234608506,560.5397471733263,605.4304676987197,632.4249571602267,646.3718611660836,650.7341598696323,648.0228329744074,640.0821040543524,628.2821889567442,613.6520690536297,596.9722801552989,578.840507964263,559.7184153855882,539.9653705766764,519.8629504277546,499.6328993211725,479.45041350622716,459.45406578933876,439.75330005081787,420.43415602247126,401.56369567158606,383.1934690311159,365.3622626943344,357.68886038385057,360.256130789769,374.49244253207064,404.21430645066675,458.51641509210083,561.5156332925997,799.84058238061,1841.4657894380389,2599.7056254968857,3898.2311186949382,3833.3810578513876,7874.656596208244,6542.996696882765,5761.4898706561535,5779.5064912539265,6763.868577812568,6959.738198136543,7792.118368042299,7182.587738918065,6488.290545344643,5836.600665063268,5249.322499011299
I2,0.0,0.0,7.3636487710308485,19.082927854815903,33.20081496950967,48.411080218801324,63.83534597122717,78.88607772520167,93.17728675801418,106.46424053767552,118.60181869768306,129.515292251758,139.17958402621358,147.60442019810276,154.82362721225488,160.88737569776816,165.85653741868657,169.7985686976204,172.78450417571207,174.88676347925593,176.17755677172283,176.7277341956477,176.60596623520263,175.87817211812393,174.6071350295732,172.8522585768226,170.66943034074708,168.41665062928973,166.42592103604628,165.04821004977254,164.72805401243735,166.1643055031168,170.76859635816882,182.60078010042875,226.68656851489604,291.41320638205053,392.35018865289544,483.14521776698314,695.4860011750327,848.3949389452725,964.1618501343722,1071.24166011836,1201.1300919940493,1326.8704880673454,1469.0824725222883,1580.4896597984446,1660.8546315964359,1714.0188068323216
A2,0.0,0.0,38.84189783144995,100.59185281317676,174.89272778709304,254.84082309515895,335.80229275951035,414.6854846019135,489.4666051662918,558.869479262557,622.144392527683,678.9129657499809,729.0581133335371,772.6453178784946,809.8659390640466,840.9961840856291,866.3673042451712,886.3438978767722,901.3081062031872,911.6481201678964,917.7498600298591,919.991003567163,918.7367623672366,914.3369657969372,907.1241274848222,897.4122525228532,885.4962042473239,873.2639205988315,862.4629757322429,854.9382658541679,853.0255654813884,860.3988117739307,884.4863661527,946.6740615858542,1178.9041819072324,1519.6349986106304,2050.835403034353,2527.7191748137216,3645.074238436223,4447.223408028281,5052.422977343971,5611.190246484177,6289.788343684031,6945.85728452813,7688.2526464397915,8267.495696251204,8682.66893346166,8954.344774275387
IH2,0.0,0.0,0.0,0.29454595084123397,0.9168282573099849,1.80586416774263,2.877621561104477,4.053169561318306,5.267869678884078,6.472594146181857,7.63194930463366,8.72168391051834,9.7261695671621,10.636257996581454,11.44757035613949,12.15917754311485,12.77260215391048,13.291072604250292,13.71896972928714,14.061418113638574,14.323985367877459,14.512461619856506,14.632698567908527,14.69049281326867,14.691502191468325,14.641186774575063,14.544768381390663,14.407204017079186,14.24539718059941,14.081437683174062,13.940877008502003,13.854813505163278,13.867409080318755,14.058145262886939,14.630840291875781,16.6927484101444,20.356436989022594,26.30335356854864,33.03456234519858,45.03635786070509,57.40779830096622,68.48620882387101,78.5432353514446,88.98028293819087,99.44946806135093,110.5942661265766,120.85898753402387,129.4233429126548
IN2,0.0,0.0,0.0,0.29454595084123397,1.0445213657343546,2.32524151654611,4.156361012567074,6.521509086256178,9.38155511728918,12.683701389825753,16.367752402387048,20.370434443214926,24.628350675528438,29.07997278707594,33.666948487820726,38.33492166013308,43.03400511626952,47.71900621994318,52.34947762512579,56.88964546699279,61.30825307218306,65.57834797041096,69.67703253123683,73.58519311045141,77.287218601073,80.7707163413614,84.02623114959776,87.04697162747301,89.84077401092645,92.42839965093715,94.84370823569303,97.1368072048425,99.38348844381234,101.71257605615963,104.40945309341711,108.7476044202224,115.47832115586374,125.9416438730957,139.56282301055367,161.06065105548754,187.7010749399229,217.76547552384338,250.7512769392364,287.4384968261874,327.4935549812336,371.42276595591187,417.81845494839376,465.32721220419705
D2,0.0,0.0,0.0,0.0,0.0006820454907326075,0.002805037088099936,0.006986664806853925,0.013650035340995648,0.023035484418046114,0.03523367200130226,0.050221498648171235,0.06789390797465703,0.08808968783778123,0.11061143725052164,0.1352405716321628,0.1617483668299917,0.18990394727716212,0.2194799631046277,0.25025654010675014,0.282023948263724,0.31458432395492636,0.3477526958221284,0.38135750002664615,0.41524072282087493,0.44925777296640695,0.4832771604105763,0.517180038348815,0.5508596515295268,0.5842207230562244,0.6172071174811811,0.6498138501400792,0.6820951029407053,0.7141770685869802,0.746288200328438,0.7788409974632534,0.8127199172657587,0.8513733557141784,0.8985103678377268,0.9594179567600545,1.035912215878261,1.1401976243525092,1.2731301255538794,1.431715601851501,1.6135889541960322,1.819630152755292,2.0499136146507233,2.3060037774829802,2.5858627510205983
R2,0.0,0.0,0.0,3.1744463789026276,11.549248992656983,26.326958817122907,48.12025842298803,77.12396681421865,113.24187785256875,156.17981302315113,205.5134941952391,260.7377791736977,321.30217993821435,386.6363207417141,456.16803137838514,529.3360513096563,605.5987888589343,684.4401904938939,765.3734916677165,847.9434146293224,931.727228941018,1016.3349816155827,1101.4091244730355,1186.6237083175388,1271.683270933555,1356.3215144436583,1440.2998442011399,1523.4058239111152,1605.5833679104007,1686.9276247441533,1767.6959878016585,1848.3504563182455,1929.6703789631724,2013.0666813372234,2101.7418056256047,2209.791537789553,2346.867316081005,2529.4073504489447,2754.229527157013,3074.19464135171,3466.4099852449795,3915.188460763545,4416.274233831251,4979.106395715124,5602.192438480213,6292.755456674458,7037.958856172178,7824.0860015272465
G2,0.0,0.0,7.3636487710308485,19.672019756498372,35.316541099577414,53.18287154642984,72.4800237163598,92.63758314803246,113.23967839886109,133.98081511916357,154.63553252218514,175.03715157207475,195.06266672667095,214.6218696206572,233.64943025065756,252.09906891315126,269.9392206898911,287.14977496231984,303.71959593622114,319.64461557382197,334.92634994462935,349.57073191029207,363.5871826854988,376.98786586723634,389.7870825481355,402.00077689775077,413.64612934782105,425.04690406362346,436.5295065207232,448.46586921733314,461.34956998397973,475.96406579565416,493.8615010909555,519.355172541869,578.0490233643707,660.9105867127168,785.1606254941258,907.3436697004452,1158.3360705298533,1366.8838883940957,1550.5223946988172,1734.7351526935545,1950.3229173787126,2172.153720811533,2420.5153443118634,2649.4491293898027,2856.25327397167,3042.2858197352707
H2,59686.716356325516,63239.49709182108,66479.03253346871,69448.42878487136,72167.24978836309,74653.65956256533,76924.52222419027,78995.49486511428,80881.11379506293,82594.87462379618,84149.30662283312,85556.04177532416,86825.87889349218,87968.84315596269,88994.2413921374,89910.71341739694,90726.27970122002,91448.38563015676,92083.94260888423,92639.3662251988,93120.61168866721,93533.2067376783,93882.282195727,94172.60034484587,94408.58127210486,89455.56376069262,84522.82195421966,79626.42557957357,74781.66322889485,70003.15008726064,65304.92400516028,60700.528769298144,56203.08283743662,51825.33111660539,47579.676587680086,43478.187744926756,39532.57699606035,35754.144482417665,32153.681433422964,28741.327464613532,25526.377566066745,22517.037385267435,19720.130252157724,18633.728762298273,18577.19261268492,18518.790380639944,18458.692284704615,18397.05606545438
S3,508502.9437456487,505887.79056254646,503482.3456117727,501249.61496394983,499165.6540786818,497212.71637995675,495376.6740373912,493645.7564693285,492009.85700184095,490460.11776802316,488988.6638888792,487588.423474688,486252.99974315776,484976.5762592532,483753.84406960564,482579.9438305829,481450.4185449289,480361.1740383097,479308.4452491721,478288.7670059699,477298.94835763046,476336.0497840205,475397.3627902112,474480.3915106557,473582.83603537275,481823.725848536,490406.9397421091,499345.1847900291,508651.1315351466,518336.12112795614,528406.6987398217,538853.3093236439,549597.184684155,559930.5176521708,570838.6987773807,581527.8407112411,593949.9476220722,602453.9115680747,616585.5304501511,631043.8445831485,645427.7392027077,659344.2706379523,674647.6973595931,678084.1382895798,674941.2131986207,672054.9207330856,669287.5752505844,666601.3591035131
E3,0.0,396.0475423069782,641.4267739832834,791.1599259112028,877.7625507834946,921.9073332688447,937.2863953864328,933.1986020476893,916.0612348984096,890.348330848275,859.197700227062,824.8153213674159,788.7506346964786,752.0870371185704,715.5753684860427,679.7283757575237,644.8880815181969,611.2741207924405,579.0185846342936,548.191223664994,518.8177209294191,490.8929562027739,464.3906356274603,439.27027491932535,415.4822508052453,392.9714398542592,381.51147820898257,381.1259599841568,393.252956931966,421.8314504320089,476.32013434972816,581.8879927402435,829.133682485413,1918.1989317831553,2722.459818701973,4116.564866236485,4065.495264767943,8515.499081266878,7084.21200634394,6265.466225744577,6363.366154178525,7609.948266107238,7951.835149502484,9100.355511111733,8463.73459348092,7698.944588133282,6968.617588532363,6303.383438348515
I3,0.0,0.0,12.623397893195738,32.05800436900328,54.71035308032488,78.31083753162056,101.4303293379313,123.19044542568179,143.07946018743243,160.8311269109647,176.34310157160957,189.62124047845515,200.74124355565135,209.82214073114176,217.00797112572576,222.45518258012208,226.3240501176225,228.7729281962761,229.95450344143487,230.01345774481362,229.08512163908665,227.29481782132478,224.75767997365125,221.57879300790594,217.8535446695473,213.66811001993892,209.10001314212204,204.5320956054743,200.31732367944258,196.82626262677553,194.52538137901175,194.14531247212008,197.16045996243633,207.81496650835598,252.3293692800251,318.9171815958849,424.6128936262489,520.2251847751625,750.0254258313716,915.8216037545702,1042.2578422767863,1161.6995892903624,1311.318857688142,1459.8656959518528,1633.1360829063312,1772.2535397751258,1875.8651111355243,1947.9097224016123
A3,0.0,0.0,66.5861105681999,168.9850789794746,288.1893680550239,412.21160474389774,533.5197398795322,647.4993082710134,751.4763590200058,844.0743917005113,924.7816080854316,993.6555871278536,1051.1200855508705,1097.8247296403438,1134.548201224346,1162.1317786294842,1181.434191094352,1193.301489250809,1198.5475047137509,1197.941764790302,1192.2026322721588,1181.9940780471813,1167.9249475592135,1150.5499062159304,1130.3714815934225,1107.8427880175777,1083.3706402567361,1058.971812991348,1036.5022219970813,1017.9078819792247,1005.638012354144,1003.5319219168051,1019.3467175174479,1075.4375784698375,1310.045073663172,1660.6963295609826,2217.075863318056,2719.3978014856307,3928.8301159658417,4798.781330100617,5459.980803521141,6083.601757245569,6865.839368200024,7641.627017339747,8547.108354346232,9271.554193492004,9808.211463220961,10178.221777083265
IH3,0.0,0.0,0.0,0.5049359157278296,1.545482134389872,2.9938868463654886,4.692784240553346,6.502993436708614,8.316840969824401,10.05774067445959,11.675127586466296,13.138554551012557,14.432387404924093,15.551505948752347,16.49800283955164,17.278730290915696,17.903517445813378,18.38389804737908,18.732217417825638,18.96101714397269,19.082620912271892,19.108864789732934,19.050930392962982,18.919250692211616,18.723466528210437,18.472418013822214,18.174159432053045,17.835989468813278,17.47702570818182,17.121350482926438,16.796337607949997,16.53491249604001,16.38346047999939,16.42513278013997,16.87303176672119,18.887043391587763,22.600216305293593,28.763272267814138,35.79981881793973,48.65912825304948,61.99297648540765,73.99974676371107,85.03509231525078,96.77125262373474,108.8297656111092,122.04522396996754,134.49754067469252,145.13188860932118
IN3,0.0,0.0,0.0,0.5049359157278296,1.7643846059745054,3.8728794880830986,6.829887751263023,10.577735583425058,15.026226231938269,20.06877945541777,25.59299278303153,31.487461344638227,37.64606069699982,43.970501387136714,50.371707260199564,56.770398503323285,63.09714426111631,69.29206960639443,75.30434587400184,81.09155418967961,86.61898435237617,91.85891160923961,96.78987993061473,101.39601050251039,105.66634715125163,109.59424548181264,113.17680906491907,116.41437363074677,119.32257336507426,121.93045294124997,124.28056404094198,126.43218968992117,128.47115294234848,130.53836558933733,132.93812241372348,137.00975640454521,143.56047490245925,154.04230173946627,167.87383731888104,190.27087184493266,218.28526152496374,250.08816609543945,285.2282020212514,324.76131206872003,368.4456111538028,417.0820097277982,469.080081198222,522.8673204265522
D3,0.0,0.0,0.0,0.0,0.0011692208412558984,0.004747912443560737,0.01168050485399896,0.02254703457918839,0.03760525329549858,0.05686358587283728,0.08015311558587918,0.10718783835607744,0.13761124720168977,0.17103063294412157,0.20704143015981696,0.24524391914556848,0.28525424706501845,0.3267113212746434,0.3692807564663072,0.4126567539456866,0.4565625560991883,0.5007499418276387,0.5449980974231693,0.589112101135225,0.6329211896180543,0.6762769236893479,0.7190513341786856,0.7611351022735617,0.8024358098718662,0.8429053072173193,0.8825512091853519,0.921444516982001,0.9597324733276008,0.9976697300139187,1.0357034823550508,1.0747743818144135,1.118508891631006,1.1708415601894533,1.2374452941499696,1.320342733154254,1.4330169658611938,1.5765668260721586,1.7479193551135406,1.9448251387510476,2.1689069714703875,2.4209112875390657,2.7035170895758274,3.014957260013769
R3,0.0,0.0,0.0,5.4419080781187885,19.51609134373846,43.88540207458139,79.17640353662692,125.32507457663922,181.82133307508875,247.8811693900408,322.56675474479727,404.86924659201895,493.7649537501701,588.2525608047945,687.3769526888445,790.243616343045,896.0264682515714,1003.9711452990466,1113.3952136761886,1223.6863321838132,1334.2991058075327,1444.7511495161027,1554.6187270120981,1663.5322175717622,1771.171583943271,1877.2619567795289,1981.5694099772127,2083.8969720503624,2184.215990286198,2282.659308894849,2379.5316057274117,2475.352698096722,2570.9745543610798,2667.9091011560377,2769.5412999843566,2890.6694789959333,3041.599580534357,3240.067188703371,3482.999763556825,3828.7555313674734,4252.752152428553,4738.4094578172635,5282.195497680084,5896.761864037558,6582.114348393765,7349.194109826461,8183.981192386575,9070.91675763126
G3,0.0,0.0,12.623397893195738,33.06787620045893,58.284865261300794,86.26217795902247,115.64653676786284,145.52107920264783,175.265329598453,204.4633531369799,232.8418179505019,260.2274049830762,286.5171072985488,311.6573039584913,335.62890561156667,358.43675475602106,380.10203689993125,400.65683898799466,420.1402484888555,438.59556306754905,456.0683035814072,472.6048094947722,488.25125707280466,503.05298450495144,517.0540396072253,530.2968885311807,542.8222404549589,554.9823239696809,567.1301196920872,579.6644445337755,593.1096642961538,608.2916258995831,626.8383983876689,653.2657417305835,714.4053418229211,801.179503681183,932.3885902392177,1061.9699128782313,1333.3881687164535,1559.1863807061618,1758.8883475287435,1961.7107219244624,2204.265957465471,2457.718304344233,2747.7779469748593,3017.5462904761603,3262.938145018569,3485.0519651754985
H3,179060.14906897652,178278.5373071675,177545.7339854628,176857.6032562205,176210.5569050957,175601.26952360515,175026.65965331995,174483.8722779255,173970.26256686082,173483.38078112583,173020.9582582331,172580.89439921014,172161.24458606585,171760.20896324734,171376.12202136268,171007.44292585296,170652.74653739223,170310.71507459515,169980.13037314208,169659.86669870975,169348.88407413953,169046.22208410106,168750.9941231345,168462.38205539086,168179.63125665364,167902.04601132564,167567.8094821919,167177.63514072384,166732.42181906986,166233.2428661597,165681.3366766472,165078.09844249848,164425.07296463597,163723.9483427573,162976.5503341463,162184.837135977,161350.89429966442,160476.92943045363,159565.26626237147,158618.3376320115,157638.67681203774,156628.90661915252,155591.72569953182,154529.8914407519,153463.97244972538,152406.26306755724,151356.67266557334,150315.11339674957
S4,254251.47187282436,257891.62469439174,261608.15216693562,265368.0692136659,269154.1819108531,272956.6109295772,276769.33282895625,280588.53458582476,284411.7415821948,288237.3201221525,292064.1783129257,295891.5791690407,299719.0204500404,303546.15573501337,307372.7417559588,311198.60285467794,315023.60681968904,318847.6484014535,322670.6380708466,326492.4943915975,330313.13890099723,334132.49273954856,337950.47450291266,341766.99894789275,345581.9762932351,356213.1948228259,366867.4340110748,377537.07536118355,388210.6853746321,398869.7248489532,409480.1717171585,419965.76020275464,430083.00527050806,438105.2654208305,446281.28685887915,452680.02666470903,461808.46309247316,460391.5767463043,470610.82369699306,480041.3516100236,487698.1574256235,492645.85352195747,499047.88845779083,500552.69669138663,503566.83823330706,507101.4163202693,510857.82114207617,514756.183721275
E4,0.0,594.0713134604674,971.6638772221223,1210.7042385699235,1357.4192770685886,1441.3231246303994,1482.048216587964,1492.9868168730645,1483.4251615149128,1459.8728426108592,1426.9257518424054,1387.8427090667783,1344.9389541818057,1299.85889855156,1253.767443080278,1207.4854096543677,1161.5860956158476,1116.4644936267305,1072.3871282601986,1029.5280536065866,987.9949159655947,947.8478528728637,909.113208597764,871.7934886715009,835.8745799988174,801.330980043869,789.9623885724991,802.3471490594012,842.2775310326952,919.3388867088173,1056.0259174387452,1311.7149371784963,1899.5625009736914,4465.667911245556,6360.874256999148,9635.480680654093,9511.801985557035,19885.958104544396,16531.91936300751,14595.03280782505,14759.168224252253,17518.13432098987,18192.435838664274,20631.94749078689,19126.37957440894,17378.121567459322,15734.8443096534,14256.012604811467
I4,0.0,0.0,18.935096839793612,48.39056015949366,83.10862521953891,119.72555816864806,156.08744079987378,190.83842162813286,223.15797481873912,252.58720089810117,278.91139544885357,302.0795172884478,322.1484783307321,339.24443219826514,353.5358532720624,365.21486738266566,374.484392711976,381.54938694623337,386.61100093200713,389.86278850334577,391.48836689031793,391.6600950025475,390.53845982707054,388.2719490744703,384.9972512983839,380.83967013525137,375.9136720770311,371.01939773624105,366.9114102728997,364.4047804725212,364.5548916141842,369.0496798464359,381.33457385366233,411.3734008636022,520.7997305902945,681.8787012015665,934.4443281473755,1162.862639371282,1703.667536592386,2094.303286770849,2391.952937984611,2671.022177579736,3015.703620557263,3354.302857600663,3743.5697859022825,4053.707730088664,4283.311640654757,4442.17033798302
A4,0.0,0.0,99.87916585229988,255.0788081126626,437.78342435743167,630.222766385024,821.0410111920178,1003.1111511897525,1172.1402456715027,1325.7474676202758,1462.8410040844228,1583.1909645745156,1687.1341411171893,1775.3690539283157,1848.8136042241686,1908.5065263442577,1955.539663555903,1991.0120121509688,2015.9991590956006,2031.5335963152422,2038.592695995111,2038.092050458575,2030.8825337881026,2017.7499095316734,1999.4161440908706,1976.5418266617517,1949.729270565329,1923.1966721487622,1900.9147205397971,1887.167172091178,1887.4992352774696,1910.7848799750263,1975.1555651532071,2133.098191392312,2709.5630544467035,3557.549478919749,4886.780508996786,6086.583301767373,8932.500533770013,10981.925425757783,12538.214127441199,13994.906960434088,15796.403587710573,17564.03661724861,19597.35233819683,21211.364547776848,22399.53917173536,23214.328850576705
IH4,0.0,0.0,0.0,0.7574038735917445,2.3303653458243576,4.538882323237392,7.1545921535430725,9.972320305985201,12.830900079020935,15.613513750407881,18.24092240586894,20.663240216253865,22.85242609126603,24.796142082058513,26.49300405457106,27.949029602537564,29.175040002235384,30.18479180211814,30.99365293282134,31.617678869832964,32.07297954202981,32.37529579408836,32.53972577895914,32.580557815303955,32.51117818215947,32.344031068239,32.0906142679425,31.761498849116276,31.394199854076597,31.03845185878935,30.752778307697202,30.60989571804275,30.71521985232441,31.26150833208642,32.74777545713679,37.89943975422545,47.02753745814233,61.887534718525714,78.76898462038535,109.19943648426954,140.6845767941998,168.9999545399825,194.9201023635502,222.2163949575232,249.98661697133036,280.0305486627829,308.09433056363457,331.9047387731101
IN4,0.0,0.0,0.0,0.7574038735917445,2.6587190532013083,5.862635211990544,10.386104690775948,16.159155231979586,23.060749969149892,30.942513466123692,39.64443509430326,49.005163860445194,58.86861564896396,69.08805277826457,79.5284303147333,90.06755927051064,100.59647034091435,111.0192468021522,121.25251486418851,131.22472325473325,140.87530382814847,150.15377661160116,159.01884252022268,167.43749262438996,175.38415266931779,182.83987434911478,189.79157978233118,196.23136212051213,202.1836782868591,207.7020599346722,212.87021678873464,217.81028220467124,222.7063748540007,227.8720907500832,234.00537440795537,244.23789916463136,260.4500921834588,286.0305657623103,319.5890833564339,373.2597363890727,440.1247633850477,515.8670704457141,599.341337458721,692.8218271212438,795.6120111723064,909.3169070548266,1030.2769646214317,1154.94219405599
D4,0.0,0.0,0.0,0.0,0.001753831261883848,0.007149984803766223,0.017660141920808583,0.034227191314691555,0.05731892310530987,0.08702993259616512,0.12318431400097807,0.16542267727908103,0.21327011762979617,0.26618679879052126,0.3236043149584791,0.38495105525408974,0.4496693430333638,0.5172265592118129,0.5871219391297473,0.6588903038408841,0.732103652179273,0.8063712868506177,0.8813389597873087,0.9566873839426197,1.0321303580524857,1.107412677888206,1.182307954768446,1.2566164241049922,1.3301627994908325,1.4028586636997173,1.4747307640261593,1.5459413636367112,1.616821106802964,1.6879447367062335,1.7603333427301955,1.8361635231087516,1.9239228079056925,2.0328189572907975,2.1761246583767386,2.358520751809638,2.611381071335074,2.9371478352103306,3.328481196265907,3.779834801672818,4.29439522837286,4.8732598991036395,5.521693776525293,6.235111660156207
R4,0.0,0.0,0.0,8.162862117178186,29.404998043244525,66.4147491905166,120.3495572121688,191.33073396072822,278.7961834209879,381.7506795179839,498.94203236021093,628.9838154592001,770.4397345837162,921.8805889401642,1081.921740255677,1249.2467913970006,1422.6215710290378,1600.9013618455851,1783.0334750678683,1968.0566732366601,2155.098511297186,2343.371355244429,2532.1676140985223,2720.854560262437,2908.8689978277334,3095.711955534036,3280.9435217876526,3464.177896870818,3645.3787022083116,3824.8530571471133,4003.2843047576253,4181.840661889673,4362.455773613188,4548.603692553134,4748.154142632216,4995.803579713584,5315.675008814016,5749.264934942309,6289.151153430375,7071.190882875688,8037.656063918089,9149.344184610201,10397.007230356532,11808.033995646047,13380.765878062015,15137.5639469327,17045.73745255508,19069.868882788487
G4,0.0,0.0,18.935096839793612,49.90536790667716,88.49467777948189,131.76030074615414,177.7002280308717,224.93820412312067,272.52483104397754,319.8066951088387,366.3378657314392,411.8188992069417,456.05422163230185,498.92205376629346,540.3530294159519,580.3149117883202,618.8016265082438,655.8253721594592,691.4109371009316,725.5916047468309,758.4062062140707,789.8970036775257,820.1081761022525,849.0847421358179,876.8718002856891,903.5139992264274,929.0551747790272,954.2339942043997,979.8075585599576,1006.6538415814111,1035.9563351608758,1069.615514722262,1111.4243831172034,1171.9699760354363,1314.3061778312167,1517.0491268897122,1824.1650499316465,2127.338907407343,2761.17281577815,3288.101968884004,3753.2958830394336,4223.7213576733275,4782.084574857234,5361.940101545215,6019.551258454887,6629.174785513451,7183.075314486637,7684.59894306728
H4,89530.07453448826,91022.2424433964,92507.89692095613,93987.44470416832,95461.25806463682,96929.67937217928,98393.02328487599,99851.57878198699,101305.6110509697,102755.36323902688,104201.0580788696,105642.8993976882,107081.07351768162,108515.75055589883,109947.08563059256,111375.21998077058,112800.28200515268,114222.38822629761,115641.64418525257,117058.14527169542,118471.97749418467,119883.2181948025,121291.93671217,122698.19499652946,124102.04818032439,118685.66221647651,113296.28724421722,107938.68773543878,102618.21180178819,97340.84803539536,92113.2843038876,86942.96705396732,81838.15893568235,76807.99158276108,71862.5091335648,67012.69652777001,62270.48477557824,57648.72334313809,53161.10771073157,48822.048379557455,44646.46668296711,40649.50349993126,36846.13039055375,36146.795221752494,37434.54431709209,38713.410754173136,39983.46294640278,41244.76855194923
E_Om,0.0,0.0,0.6528410062345629,1.0702586600809054,1.3390299348521886,1.5111417560061806,1.6191210229112003,1.683911608906603,1.7192797859483098,1.7344176802843925,1.7355415561376446,1.7269005113414044,1.7114265138544225,1.69116020939257,1.6675335474196458,1.6415594288561737,1.6139601449765055,1.5852550613152194,1.5558209031678862,1.5259334687590376,1.4957966614580975,1.4655628078307927,1.4353469527654215,1.405236969780106,1.3753007494421103,1.3455913383135711,1.3573500436815031,1.4137106332547589,1.5248525536316193,1.7140797550629319,2.0346084488885388,2.6264696094547317,3.9966531722073166,10.133107373634925,15.223222433608376,25.910331935518695,27.103601289242352,73.16575492288895,61.442702575754126,57.20517438393087,65.58945090218575,91.49950436056444,103.86247554537786,132.39281977775644,129.12880880480708,123.48992884851418,117.85072202244186,112.5675459315375
I_Om,0.0,5.0,4.6,4.252808289163186,3.9466964520715258,3.6736402272620143,3.427914296379574,3.2052881107389135,3.002537118856545,2.817133511821862,2.6470446901288924,2.4905987959618336,2.3463931534983877,2.2132307528891975,2.090075387473268,1.976019388278948,1.8702599844898427,1.7720816488630395,1.680842650301681,1.5959646037280628,1.5169241855090776,1.4432464370042433,1.3744992514360883,1.3102887574457778,1.2502553942145591,1.194070529695158,1.1414335131805389,1.0933822483865034,1.0509714906911343,1.0154960690307815,0.9888900031055833,0.9746287748013389,0.980373096423796,1.0293303369872153,1.2699609080087544,1.6535805143712525,2.347145504243211,3.0232588950282375,5.113442541453544,6.662757481198256,7.953062621808451,9.407379092414434,11.571192800368966,13.955951841842428,17.059290397855527,19.81032660887494,22.161549416554873,24.144933474697915
A_Om,0.0,0.0,0.0,0.1097599120837255,0.2807284284813906,0.4829117263374945,0.6975076821278863,0.9127194562148482,1.1212355550672861,1.3186565102701922,1.5024878509746427,1.671484092002945,1.825215924610943,1.9637820680161202,2.087616260116138,2.1973575392848166,2.2937630125132604,2.377649346771726,2.449853784122428,2.511208478558675,2.562523943318208,2.604578732090749,2.6381133795574474,2.6638272405445353,2.682377287315825,2.6943782137235446,2.7004033948404578,2.707913104390441,2.7242847770857694,2.7580043445910603,2.820782218616665,2.9323188081611953,3.1342473853930555,3.550037117798642,4.963546377093374,7.117316765000046,10.891852099499282,14.558524837077258,25.66980143390623,33.90202609878684,40.749011610815046,48.446030527555294,59.87016042381323,72.43916997023362,88.77765595927025,103.23207343062236,115.55712380924949,125.92677972415652
IH_Om,0.0,0.0,0.2,0.2882357857433893,0.32033474959815444,0.3248195797092385,0.31623472966963034,0.30193144948749406,0.2855718338194036,0.26893550717599246,0.2528488599968069,0.23766128558559274,0.22348800605746483,0.21033296571805155,0.19815033986236022,0.18687479735329454,0.17643598221994441,0.16676511558010657,0.15779773023991928,0.1494745580124741,0.1417415741645029,0.13454968919807234,0.1278543203556192,0.12161494777221846,0.11579469849372334,0.11035997268064293,0.1052801135227353,0.10052711730819924,0.09612790524115025,0.0921386983010322,0.08864059083513719,0.08575320829651732,0.08367791622607362,0.0828260905929233,0.08434042664452115,0.09475488952647192,0.11552747238894934,0.1540963044667777,0.20124210268236514,0.3094208451468826,0.4277739238442747,0.5410692602345419,0.6582890611072867,0.8059340996687389,0.9782739443555073,1.1922273822251261,1.4137768542100986,1.623292682984229
IN_Om,0.0,0.0,0.4,0.7498816734551453,1.0555717682482912,1.3220374093757359,1.5535322219429342,1.753755871613725,1.9259631410043867,2.073041702907128,2.1975696052030425,2.3018591443152223,2.3879913312261065,2.457843675825906,2.5131131002505613,2.555335209943744,2.585900773028419,2.6060700083144392,2.6169851139569635,2.6196813538871777,2.6150969395798658,2.6040818888443473,2.58740600350243,2.565766079001076,2.5397924378191084,2.510054862681604,2.477067993533887,2.4412962428763736,2.4032246223057,2.363359348052357,2.322239595245197,2.2804687119111255,2.2387892372994864,2.1982870433415145,2.1611556616568928,2.1369218655323268,2.1322028704833365,2.1616012120009027,2.2226978579186336,2.3841121183472476,2.6144502587650447,2.897641587198767,3.2390978768613237,3.670566392044032,4.198359114737066,4.8524850390306185,5.609728211433198,6.4457243242507225
D_Om,0.0,0.0,0.0,0.00046311652819172063,0.0011305503101621762,0.0018723118956274836,0.002624458475845666,0.003356726126336899,0.004055873349529609,0.004717138530668535,0.0053398809226226605,0.005925373353617439,0.006475697700947343,0.00699320264823646,0.007480246012474522,0.007939079499759848,0.008371803536543794,0.008780355634212781,0.009166514040967529,0.009531907725893754,0.009878028417692399,0.010206242746329867,0.010517803670983303,0.010813860915770331,0.011095470377712769,0.01136360257145987,0.011619150208455832,0.011862935011767231,0.012095713859551707,0.012318305968239825,0.01253166073858622,0.012736915352008377,0.012935483992546298,0.013129247122790984,0.013321037780386423,0.013516335008255517,0.013735747785588963,0.014003261195206642,0.014360083922865785,0.014826076642467077,0.015542566180239937,0.01653311205254849,0.017786002639103904,0.01931032536173688,0.021176532372686407,0.023441806536338122,0.026202507566694143,0.029476224708492108
R_Om,0.0,0.0,0.0,0.11341942427327364,0.29370225035434294,0.5170996994704085,0.7712278838515614,1.0492894509017516,1.347193413632979,1.662143672117607,1.9919633697632944,2.334782337784934,2.6888998423433943,3.052729228384073,3.424778831741433,3.803647464260082,4.188024590570702,4.576691022642717,4.968518625618811,5.362468708064453,5.757589239815749,6.153011185801487,6.547944250935793,6.9416722869622065,7.333548556039509,7.722990993751763,8.109477571264202,8.492541823080197,8.872334684317897,9.249644825571991,9.626004169445606,10.003964764039111,10.38777305150792,10.785207637792574,11.214383148241069,11.758120754243805,12.481745221163077,13.523537054659602,14.8847063107857,17.179203698469735,20.20535835983382,23.857928424598782,28.206368878560383,33.55979590905255,40.03035249542174,47.9422383495476,57.167024966800994,67.53897509456775
G_Om,0.0,0.0,0.0,0.020808289163187072,0.054921115204581615,0.09760060656079227,0.14576589385931268,0.19737285192901827,0.25104490890576203,0.3058442713796029,0.36112613063238197,0.41644381167563477,0.4714860728891357,0.5260351245598157,0.5799382193750225,0.633088251178564,0.6854103984517742,0.736852861584159,0.7873803949318438,0.8369697603823596,0.8856065104616198,0.9332826967975113,0.9799952261896961,1.0257446723142722,1.070534409678716,1.1143699766964794,1.157258602557473,1.2005220188178805,1.2455818409934318,1.29418413858837,1.3488177581856342,1.4136677301298364,1.4973823537364006,1.624769442013724,1.9477464399942401,2.432962918997438,3.258814350019097,4.122699381143581,6.454743739171146,8.41313408223214,10.236459821338197,12.327021301688855,15.24342533703654,18.55387980253952,22.773694505900014,26.88947394874787,30.825522885137797,34.581830896605226
beta,2.0423869189266513,2.042386918926674,1.8216574242882768,1.6739693186041833,1.5656303050877542,1.4814552342404117,1.4134521077176518,1.3569568367967857,1.30903607317641,1.267736040383938,1.2316945423275432,1.199925674309795,1.1716933505532794,1.14643344029116,1.1237038966231916,1.1031517092360625,1.0844903449927399,1.0674839382496428,1.0519359491879559,1.0376808551558965,1.0245779481616673,1.0125066253286918,1.0013627577049438,0.9910558514434675,0.9815068004432483,0.9726460868956199,1.1084913465249957,1.2892512752453296,1.541670823622404,1.9183774773889317,2.5380840908594102,3.7303999275676296,6.806178658735486,23.336674165964183,21.32829235393204,29.955447654026884,9.827390682764149,51.97588605294293,2.2320242830889874,3.477304615933557,6.415648662068523,10.418077441456413,6.854561434803657,8.852276690552092,3.4677818781491707,2.481319911688428,2.029311759735482,1.7511593387236282
