series,2021-12-01,2021-12-02,2021-12-03,2021-12-04,2021-12-05,2021-12-06,2021-12-07,2021-12-08,2021-12-09,2021-12-10,2021-12-11,2021-12-12,2021-12-13,2021-12-14,2021-12-15,2021-12-16,2021-12-17,2021-12-18,2021-12-19,2021-12-20,2021-12-21,2021-12-22,2021-12-23,2021-12-24,2021-12-25,2021-12-26,2021-12-27,2021-12-28,2021-12-29,2021-12-30,2021-12-31,2022-01-01,2022-01-02,2022-01-03,2022-01-04,2022-01-05,2022-01-06,2022-01-07,2022-01-08,2022-01-09,2022-01-10,2022-01-11,2022-01-12,2022-01-13
S,230226.77644717332,230142.23715008478,230090.02530495077,230054.67114876412,230028.6382899127,230008.257144114,229991.65166863753,229977.79378118878,229966.06805215444,229956.0690240323,235105.47394920146,240255.61926152953,245406.4232515769,250557.79698021896,255709.65358210148,260861.91155768096,266014.49510863447,271167.3329960469,276320.35656508926,281473.4971087967,286626.682422647,291779.83208403835,296932.85052486486,302085.61610007216,307237.96253592474,312389.6449432177,317540.2718626986,322689.15374756156,327834.91137939,332974.2139665023,332937.82200151705,332892.849594812,332827.97314051184,332735.53685875086,332603.3416105093,332414.7040897102,332146.8020951266,331770.14920077816,331249.12034877366,330544.73037675663,329619.6979660731,328444.76877848495,327004.2073326992,325298.6419680446
E,0.0,84.53929708856164,111.1342468562361,112.99564816422549,105.01786149522684,93.79942908505835,82.18008217151046,71.30490403404622,61.56473075034593,53.02389713398625,45.613690687986455,39.68550999395353,34.876356612306004,30.93897236581574,27.69798567632056,25.025096557365323,22.82459928826359,21.024684266963586,19.572142077797597,18.42926212993758,17.57238474056453,16.992018625593197,16.69487732791613,16.708843153780414,17.093154141243993,17.959071626025093,19.513985930781274,22.164795845915847,26.797355195698927,35.718403337760805,57.34557335106125,78.92266960243153,108.7315169231209,148.81807115411948,202.11788764174466,271.73873942490593,360.4697788675495,469.84647688873724,598.8972635780909,742.9573250936049,893.285318736647,1038.1075917365529,1164.9775645821817,1263.4780088837979
I,649.4860288424921,389.6916173054953,256.6405805972088,183.99059500950904,140.90318201004632,112.89673180973902,93.06388493880917,78.02695314959331,66.06849597894848,56.263574889962484,48.074597160153786,41.160454781848614,35.41136056747661,30.66343262580859,26.751582114255406,23.52940540115979,20.87441931118451,18.687293394541875,16.889040788805293,15.417902834288528,14.226642475656263,13.280529365346183,12.556162648117871,12.041314467408078,11.73617633196556,11.656857417315214,11.843063789415904,12.374614474960486,13.409263563373571,15.280844040862853,18.81247532571313,26.770790000214415,37.37159479278516,51.78046644491374,71.24915907856051,97.32132511040734,131.76225471096902,176.3841931208198,232.68906463245094,301.31569994555514,381.3878977426064,470.01977470445854,562.3009145915444,651.9244911921157
A,72.16511431583245,57.73209145266596,48.72185207478962,42.311509065518784,37.2390766973418,32.94179720273024,29.167420634735944,25.79933897293407,22.77861829936864,20.06983656200529,17.64658616362382,15.485679651538648,13.579109021049524,11.9095779152088,10.45583150314151,9.195604772802826,8.10723671496322,7.1705273506184835,6.367162408503694,5.680894189136883,5.097593215207634,4.605246114383044,4.19395745027423,3.856012280056868,3.5860751186589077,3.3816547191644455,3.24409592411231,3.180696317213285,3.2095009291481036,3.371521399189451,3.7687692194843847,4.7353825761193455,6.155986148968421,8.186734426868366,11.013929676118277,14.87468037014696,20.051906478864744,26.85561854911828,35.57988914595674,46.43082922410812,59.43338313209464,74.34526606777511,90.61944060631669,107.4448794225188
IH,0.0,129.89720576849842,194.42293805481864,225.67583109535843,239.17169626814405,242.65655754824567,240.18029795609596,233.99315622610715,225.4374840865136,215.37354007485868,204.3877686604866,192.8985421953837,181.21281221503122,169.58387840617698,158.20610951054113,147.22078687431264,136.72532305191794,126.78257558801843,117.42904555483568,108.68166771838457,100.54327650628224,93.00696626505086,86.05959831788415,79.68471045658403,73.86509471394197,68.58535824046503,63.83491941697999,59.612230447089274,55.931867158108545,52.838451161995685,50.43876324444771,48.99318237942047,49.288528515737276,51.673539519770664,56.69405952962025,65.08992213936979,77.833299594328,96.14904011564244,121.49796874906454,155.49045728804234,199.69836404218498,255.35600415995714,322.9930663908809,402.10246299966866
IN,129.89720576849842,252.5800160674584,316.49023081880927,350.24071180850353,367.5867187378609,375.3518585736765,377.084438202221,374.7542222556476,369.5460384346276,362.2354218863197,353.36984739763636,343.35886486315036,332.5210564753472,321.1353531680529,309.43241787750594,297.5970849212448,285.77464232814066,274.07781230150886,262.5931904462681,251.38676553851218,240.5085096542059,229.99617204582555,219.87845933055843,210.1778036100949,200.9129455523487,192.10162328404232,183.76381160446405,175.9263171404021,168.63042150360633,161.94666437329388,156.00843430391268,151.10633543115492,148.06815846676503,147.3188805796031,149.4929913667828,155.44009216327373,166.27132855280772,183.38919194303105,208.4807294462915,243.43967567503364,290.1823547511834,350.34341929792754,424.889557867695,513.7516865923064
D,1872.0,1872.0,1872.2006990595014,1872.501094288038,1872.8497771314067,1873.219311904818,1873.5942310002183,1873.9653241243957,1874.3268577394297,1874.6751723222176,1875.0079375012585,1875.3237289973194,1875.6217689418186,1875.9017537249088,1876.1637711001194,1876.4082091324722,1876.6356741752336,1876.8469230899748,1877.0428098569855,1877.2242448529234,1877.3921646196889,1877.5475100785432,1877.691211481095,1877.8241787789,1877.9472964884046,1878.0614225387023,1878.1673910760007,1878.266019897264,1878.3581244080174,1878.4445425343224,1878.5261811453377,1878.6041120930104,1878.679809530591,1878.7559632958605,1878.835802047752,1878.923397807488,1879.0239656840572,1879.1442228515155,1879.2927789486926,1879.4805006776933,1879.720742862693,1880.0292889442667,1880.4238294547395,1880.9228733276743
R,0.0,21.647418332704945,60.43383744826377,107.53067084333453,158.39865571473004,210.58820796888878,262.7040210015351,313.9093236563907,363.68229505639425,411.6916630850226,457.72964107742285,501.6732146777373,543.4600309444412,583.0750493086999,620.5410247530367,655.9090414595045,689.2503659472661,720.6499095905223,750.2011975398757,778.0026140853674,804.1546813865533,828.7581594106149,851.912799639512,873.7166324727727,894.2657168066307,913.6543350546344,931.9756909311585,949.3232902444367,965.793429712887,981.4897903241862,996.5327115962831,1011.0812043605777,1025.4037302663796,1039.8716785311462,1054.9467424455647,1071.2186328462358,1089.446917243367,1110.6083393445315,1135.9441180688234,1166.9965652542744,1205.618183062026,1253.9327680393976,1314.231989823572,1388.8056745751187
G,128924.0,128924.0,128946.82561021391,128976.83185686512,129007.34068186943,129035.69550447316,129061.02135032612,129083.20997251241,129102.46229660162,129119.08477390421,129133.40122613039,129145.71692261615,129156.43201031453,129165.84862659984,129174.20214913861,129181.68060527122,129188.4373813417,129194.60002314953,129200.27668790163,129205.56116626262,129210.5370670377,129215.28161091766,129219.86945594658,129224.37707282513,129228.88846047664,129233.50361209478,129238.3525614338,129243.6213376351,129249.60583251351,129256.84111841634,129266.48508731755,129281.96839212233,129303.27751291498,129332.63502248425,129372.81590169585,129427.38773135912,129500.75719100385,129598.08403129809,129724.94258005805,129886.64484122413,130087.24331899943,130328.43035505833,130608.71940482718,130923.26334726436
H,103159.37373178826,103159.37373178825,103159.37373178826,103159.37373178825,103159.37373178826,103159.37373178825,103159.37373178825,103159.37373178825,103159.37373178825,103159.37373178825,99496.60655618811,95884.49051068258,92325.77149179719,88823.3615923913,85380.34977413072,82000.01146513666,78685.81648808611,75441.43454623928,72270.73728184748,69177.79567280224,66166.87125332515,63242.399344359765,60408.9621816134,57671.24957222183,55034.0045540265,52501.95155903684,50079.70490607622,47771.6561996878,45581.84053081338,43513.783368942706,43513.783368942706,43513.783368942706,43513.7833689427,43513.7833689427,43513.7833689427,43513.783368942706,43513.783368942706,43513.783368942706,43513.783368942706,43513.783368942706,43513.783368942706,43513.783368942706,43513.783368942706,43513.783368942706
S0,80579.37175651066,80351.57654913797,80033.56223009789,79725.93443931702,79424.53397541858,79127.32822630396,78833.2735412494,78541.79473888122,78252.54490189668,77965.29335282037,79423.57332562213,80844.62907343709,82227.2857974707,83570.28932895584,84872.30929922416,86131.93973698239,87347.69911457608,88518.03107436452,89641.30669735072,90715.82902233084,91739.8404641113,92711.53372723589,93629.06667525644,94490.58124725126,95294.22560561424,96038.17650065574,96720.65323600803,97339.89867978514,97894.04884764703,98380.5761078822,98007.96262696155,97632.58560607008,97249.0410250319,96853.9111159488,96441.9218487062,96006.06550634369,95537.09017876157,95023.50525406745,94452.0642769087,93809.11030490286,93082.66170441404,92264.71520704856,91352.95001671083,90351.27053293673
E0,0.0,46.596462962199325,61.360825532987135,62.46484673428828,58.116699573051406,51.959725632347336,45.56519944647914,39.568860973570345,34.18954227888214,29.4653271383204,25.360425505342437,22.07297777035466,19.402156216754648,17.211494382411225,15.404386514378364,13.910232749107205,12.676367774541951,11.663219619772985,10.841363671051102,10.189790447067423,9.695076784624487,9.351399132835677,9.161564986590335,9.139584167444887,9.315975330792037,9.748549332351402,10.545426520591299,11.918969102934335,14.331487337750623,18.98607848330201,30.26921409074132,41.48521081643045,56.94557874762098,77.67551368687779,105.14756078130902,140.90294379640278,186.29529738818175,242.01061545264608,307.4335833405515,380.06207737126493,455.3450037146746,527.2515125661702,589.4966490113178,636.9150495380883
I0,649.4860288424921,389.6916173054953,246.396015383091,164.40503212376112,115.50852789251451,84.99662562023258,65.02710129287333,51.31886462627336,41.47491123862801,34.116123158474984,28.425312222431497,23.902502219901358,20.301205329936572,17.419305376485696,15.098686709142449,13.218396384367626,11.68680067287952,10.43469970285404,9.40988911905113,8.573101662614475,7.895104418276889,7.354733382814745,6.93771779555448,6.636253223712078,6.449439659437367,6.38497713497627,6.463094600720641,6.725121920992036,7.253194810387493,8.221418467425163,10.05909227094664,14.20814316706814,19.725892820677107,27.210841954263927,37.29889386801536,50.76917773176265,68.50530146408634,91.40291117326088,120.18461287617097,155.11783522765148,195.6874620268324,240.3556282190616,286.57128532430295,331.10686642763756
A0,72.16511431583245,57.73209145266596,47.58356705099875,39.90767840678862,33.800088127459546,28.78357148915918,24.585648960297764,21.035475151632586,18.01544595051318,15.438043028777006,13.234394237171216,11.348328154897246,9.740851857028437,8.374746172125388,7.216141769172647,6.235045010769468,5.405342991088791,4.704565426107291,4.113548929479022,3.616080053714751,3.1985577563838232,2.849698508645793,2.560300780901705,2.323087574319074,2.132657584478606,1.9856053275066459,1.8809407419758588,1.821115389198426,1.8144613844467707,1.8815137276899352,2.0747933366510085,2.5679110920430466,3.298885198127351,4.3474755209305105,5.808245827350742,7.801023485319864,10.467907102147974,13.963184603363832,18.430866146270446,23.9677004172329,30.57602265492427,38.121168235379656,46.314479965288825,54.736483442570595
IH0,0.0,129.89720576849842,194.42293805481864,223.62691805253488,233.4172320349881,232.4173421410422,225.41831584849123,215.14807212418285,203.19663944612103,190.5104663498515,177.662451830945,165.00290232308404,152.74595797817724,141.03435025157043,129.955649566331,119.55676109420274,109.8555562047832,100.8497342059523,92.52339199016757,84.851827660965,77.80503647492455,71.35026525810352,65.45390997880676,60.08298225177537,55.206339034930274,50.79587297266489,46.82791895276775,43.28530120432243,40.16088342080075,37.46469330095672,35.24054416895236,33.613585261315464,32.98442886620362,33.523786212718576,35.50444181396426,39.298194362275645,45.394278152000105,54.40813296626329,67.07078031353953,84.18228096921251,106.51357082432588,134.6529592167499,168.82043634277076,208.70306752147633
IN0,129.89720576849842,252.5800160674584,316.49023081880927,348.19179876567995,361.734488244474,364.7457258431058,361.48734106116933,354.41601971303845,344.9957870292235,334.1299564771015,322.39584856277133,310.17528220247453,297.7288751279636,285.2534729892619,272.8945655382563,260.7579390027156,248.91931373225304,237.43187787798337,226.33202558578134,215.64368882632354,205.38161695442895,195.55389357352183,186.16392052898053,177.2120565780532,168.6970796663169,160.61765560978444,152.97406433051717,145.77061599398897,139.01964735511112,132.74923713740117,127.02072563238465,121.9779062125852,118.04497146137773,115.43401895037275,114.46506665222188,115.56753963629217,119.3028388527434,126.37790703872324,137.63955307227798,154.0320758912647,176.50081449457278,205.83558120675661,242.474749744622,286.3221371744831
D0,1872.0,1872.0,1872.2006990595014,1872.501094288038,1872.8466114365156,1873.2072552137522,1873.5663541004724,1873.91463906717,1874.2470558845555,1874.5610070137534,1874.855357236265,1875.1298564972785,1875.3847959866641,1875.6207977538113,1875.838704376863,1876.039493735576,1876.224216181041,1876.3939496766989,1876.549768631282,1876.6927228822562,1876.8238241011607,1876.9440376003856,1877.0542780866822,1877.1554083465344,1877.2482401973707,1877.3335373387317,1877.4120200425887,1877.4843720168797,1877.5512504319352,1877.6133014320596,1877.6711866549597,1877.7256354325848,1877.7775704600438,1877.8285334027219,1877.8803296852054,1877.9351862006943,1877.9959042939122,1878.066041206234,1878.150105070818,1878.2537334933795,1878.383800222046,1878.5483701476428,1878.7564171345969,1879.0172549455272
R0,0.0,21.647418332704945,60.43383744826377,107.30301383857636,157.36804175971366,207.9594790602888,257.61315579398104,305.53440620893167,351.3082956342586,394.73940183900606,435.76123191887655,474.3838522624276,510.66293071139967,544.6825913129412,576.5449642111538,606.3623928976014,634.2518681679193,660.3311813927313,684.7163499124981,707.5199621837003,728.8501806985196,748.8102151156102,767.4981360080068,785.0069447005155,801.4248517826092,816.8357521407167,831.3199266555162,844.9550667548822,857.8178466084627,869.9865661469366,881.5462116935655,892.6001368190855,903.3071324231818,913.87789881289,924.5682311132032,935.698355778009,947.6741304683844,961.0107725618836,976.3562167064458,994.508583188947,1016.4191621763664,1043.1706264878794,1075.9224187717398,1115.8229724750217
G0,128924.0,128924.0,128936.5810449998,128953.1484678937,128970.01397651195,128985.70548539668,128999.73461131741,129012.03721516796,129022.72080763083,129031.95198404613,129039.90762237347,129046.75493725992,129052.71464125792,129057.95322343645,129062.6003269197,129066.75951127858,129070.51527412084,129073.93789341996,129077.08696271731,129080.01413090849,129082.76537432919,129085.38304506104,129087.90792282691,129090.3815453733,129092.8492330985,129095.36454643782,129097.99665475756,129100.84391991812,129104.0620415759,129107.9315431571,129113.05778434759,129121.23047215209,129132.43147907253,129147.8067853344,129168.77917402986,129197.16901544081,129235.21281026585,129285.51254056065,129350.85540673287,129433.86247423482,129536.47923512507,129659.42238612803,129801.7802945209,129960.94438975395
H0,36105.78080612589,36024.542799312105,35894.85444523458,35765.63296923174,35636.8766905425,35508.58393445655,35380.7530322925,35253.38232137625,35126.470145019295,35000.014852497225,33130.31405907682,31299.730925443764,29509.389153870066,27760.487740756078,26054.303068333542,24392.19021239209,22775.58314673627,21205.993444267948,19685.00698076477,18214.278041976955,16795.52012147745,15430.492583480327,14120.982264799524,12868.779023902514,11675.644242578039,10543.271387510531,9473.237995251091,8466.948910506078,7525.5713359546935,6649.963272146265,6626.023404366539,6602.169720110819,6578.40190911842,6554.719662245594,6531.1226714615095,6507.610629844248,6484.183231576809,6460.840171943132,6437.5811473241365,6414.40585519377,6391.313994115072,6368.305263736258,6345.379364786808,6322.535999073575
S1,23022.677644717332,21547.037087596815,20289.940389854448,19124.10056246406,18041.838613002146,17036.63607281103,16102.713414146314,15234.82987692966,14428.179851015004,13678.332373936926,13272.582861868488,12882.470904018177,12507.928015764714,12148.790898054936,11804.815368389767,11475.688279052847,11161.037971812817,10860.443590374167,10573.443460487519,10299.542692381643,10038.220130371383,9788.934753397818,9551.13160621022,9324.247300642797,9107.715045753795,8900.968986678508,8703.447192026117,8514.591391130089,8333.83737596626,8160.571581704516,7930.351330329988,7714.944554214588,7512.877069255135,7322.934656254602,7143.851957372634,6974.3266678746195,6812.985671220535,6658.389723083093,6509.069212828346,6363.613871816774,6220.8032356934245,6079.740624199873,5939.938945775084,5801.328100993963
E1,0.0,13.313275132056951,17.027081402133575,16.865666349824238,15.258052664163948,13.242521637263938,11.249163020833937,9.441768595625305,7.868369601188984,6.527966551245228,5.400237893591696,4.502201304505716,3.781138300101965,3.198968647214548,2.7271964101235175,2.34399174452873,2.032395742647437,1.7791448136482881,1.5738610190219844,1.408478597248219,1.276840478767569,1.1744350250669693,1.0982707688037978,1.0469195366767097,1.0208156340447028,1.023025471494825,1.0610269164886668,1.150997971821223,1.3295038564169488,1.6929206002028823,2.593432305513835,3.457722695922407,4.625537610545481,6.159128708777641,8.150365877276709,10.690419579244917,13.851558528101084,17.654841018833935,22.030015886094844,26.782073944863548,31.58886943169132,36.04713182976946,39.75750486111333,42.412537116129734
I1,0.0,0.0,3.594584285655377,6.754062549969292,8.606167444434119,9.283374685984738,9.145505653652107,8.524577407816427,7.664023965508688,6.7228741716262395,5.796275471811955,4.935829514356931,4.177092060830702,3.527162577525952,2.980019081263499,2.524354479491449,2.1474904587176264,1.837241125745384,1.5827137751322682,1.3745707402152967,1.2050316653861972,1.067765928498962,0.9577570138674589,0.8711873158975008,0.805380664441212,0.758848619856797,0.7315260492176809,0.7253928969825485,0.7460051905812594,0.8065691555813318,0.9410300554035773,1.264844755730882,1.6924919813375792,2.2643903436498274,3.02159895755986,4.013558161400628,5.294548183236504,6.916649712529195,8.91679690260268,11.298182430807216,14.010069423597487,16.93503640071515,19.893747434466846,22.670774773180707
A1,0.0,0.0,0.3993982539617085,0.8303310452333741,1.1702348266814264,1.3939294412700596,1.5124192021339657,1.5474102523321906,1.5211812597345116,1.4529960958232788,1.3582358731959798,1.2485958353645348,1.1339427074267994,1.0205883149444985,0.9124397113720353,0.8117676614013337,0.7197338814569288,0.6367589774449662,0.5627815263654217,0.49744105166299685,0.440207199247844,0.3904709737613023,0.3476098297610509,0.31103598687295464,0.280236375598665,0.25481356950027306,0.2345416197450632,0.21946410329071056,0.21010122178720514,0.20796609312227257,0.2171604925039045,0.25153136316853864,0.3049567714125031,0.3827315454463669,0.4909590976204227,0.6372782544146394,0.830535190909059,1.0799749085702797,1.3936251574212417,1.7758006025198387,2.2241027003617773,2.7269482432401615,3.2629725494852133,3.8031031854215707
IH1,0.0,0.0,0.0,0.7189168571310754,1.9954973015750337,3.5106848687035384,5.004862548097101,6.317184469864216,7.369816384828267,8.141647655689235,8.645553201950868,8.912108026961594,8.979050428766035,8.887333173723174,8.675100326159356,8.375352972195708,8.015423238273424,7.617285397806194,7.198207582630206,6.771496355203206,6.347216769889829,5.932838538468004,5.53379396002296,5.153951116152477,4.796015166926576,4.461876715933254,4.152933463755354,3.8704257642228432,3.6158618867956864,3.3917055694158713,3.202807400830849,3.0603061728701064,2.9972819098164964,3.0262946889447533,3.1666914136990796,3.44403313776652,3.8911296650413956,4.54825905478895,5.461956576043242,6.68133930952624,8.251091266390231,10.201135216520736,12.534819945432929,15.219281272832049
IN1,0.0,0.0,0.0,0.7189168571310754,2.029801252533272,3.6383010696393683,5.2929074357817365,6.828044372290433,8.15373528090139,9.23368760098545,10.065430203073122,10.665658691540527,11.060461738808796,11.281590223894636,11.360451498556454,11.325504176651778,11.201364883001478,11.008747390452962,10.764777865473361,10.483452758725589,10.17612363494292,9.851955530163243,9.518338336620431,9.181248214220318,8.84556589021497,8.51536578581754,8.194198343949084,7.885403791951384,7.59253283228297,7.3200501694798605,7.0748137867785434,6.870089832744172,6.7414990369239405,6.705579524644907,6.786034628176957,7.013463037091355,7.426652079865264,8.073090910833297,9.008047309445613,10.291106353910632,11.979182346395957,14.11588123579034,16.718902832534432,19.769096727049224
D1,0.0,0.0,0.0,0.0,0.0011107701372964007,0.0041939344693868496,0.009618155469261447,0.017350971586391175,0.02711140464803854,0.03849821784684551,0.051077557160737835,0.06443546109897225,0.07820520840495816,0.09207838578092463,0.10580985443638208,0.11921341047317036,0.13215383867227637,0.14453815360737943,0.15630732143703904,0.16742898863059097,0.17789136110323947,0.1876981958894978,0.19686479118151773,0.20541483840293653,0.2133780053980093,0.22078813964733232,0.22768200972868607,0.234098543752004,0.24007858624909836,0.24566531211955403,0.25090570288747027,0.2558542345306867,0.2605825931358434,0.2652135754329742,0.2698893842331087,0.274782114486238,0.28010335452024765,0.28611538579953105,0.2931427218323908,0.30158177593955077,0.3119048503097671,0.324653286638535,0.34041465911525237,0.35978171600599884
R1,0.0,0.0,0.0,0.07987965079234172,0.35899526984328173,0.9087386643865234,1.7466661604986256,2.8521605879933194,4.183390344949674,5.690065778956218,7.321587179108173,9.031603325055785,10.780139101492768,12.534480059891463,14.269102858137284,15.964889552748627,17.60811347619895,19.18942745405803,20.702953872171108,22.14551035447832,23.515973197520434,24.814766804939726,26.043462547787406,27.204470238335777,28.300807468305543,29.33593543034319,30.313654416150968,31.238058877293945,32.11356365134358,32.945038226246,33.738153267621406,34.50027403863552,35.24340491383026,35.98366881150144,36.74044362096413,37.53761216027719,38.40488426563758,39.37923032511912,40.506203935945386,41.84076689641553,43.44704896552285,45.39640599918055,47.76334250998164,50.61941371486076
G1,0.0,0.0,3.594584285655377,8.191896264231442,12.745626178683986,16.86530039800825,20.440781240069516,23.478055255694677,26.02733277651351,28.151792568834537,29.91434353767075,31.37240776894051,32.588002121157054,33.608909462184585,34.472630996932516,35.20897402766587,35.84185179868862,36.39059864920343,36.87096774888847,37.295910224024404,37.67619944528142,38.020946374548664,38.338043831316746,38.63457693889377,38.917245213796484,39.192865434988555,39.46908231229216,39.7555595797441,40.06632903213583,40.42529507336841,40.88238363542319,41.582610357911925,42.516195485810975,43.76509064065826,45.42805539202822,47.62865417889293,50.51506746528906,54.25498826787635,59.02179534296151,64.96989963220712,72.20105959732028,80.73005434387694,90.4627799379147,101.19730625041531
H1,10315.937373178827,9660.322710479837,9099.988013808801,8579.210345968158,8095.165885659667,7645.2325070556435,7226.975373001426,6838.13355727472,6476.607622397766,6140.4480847485665,5536.452468413026,4987.565377835488,4488.79361328923,4035.6012106518915,3623.8702565450276,3249.864941803786,2910.198561698396,2601.8031895200497,2321.9017660367267,2067.9823612489004,1837.7743773102372,1629.2264731254736,1440.4860030042737,1269.879775236141,1115.8959534136957,977.1669460813367,852.4531614564005,740.6275461585731,640.6608819774755,551.6078828258431,536.1471875465809,521.7046441204018,508.20783767562915,495.58952471448197,483.787263733246,472.74307222670416,462.403108192236,452.7173743836099,443.63944368949024,435.12620412775067,427.137622054466,419.63652228653274,412.5883839298024,405.9611507909062
S2,23022.677644717332,24387.520001029334,25632.674693905297,26774.275614822,27819.611906244576,28775.56964414003,29648.598990024104,30444.71441706457,31169.51076516997,31828.18613759236,33152.763221458124,34433.68758728944,35670.43952425283,36862.568636581695,38009.67774912112,39111.40848918178,40167.42874474754,41177.42216497383,42141.07987752477,43058.09463035175,43928.15760901638,44750.95822031167,45526.18714866884,46253.54294856991,46932.742263042106,47563.533291528736,48145.7109297338,48679.128659354785,49163.69121251097,49599.26425674774,49588.109935315,49559.75937478464,49514.30107182573,49452.0645628076,49372.75899623841,49275.4724996593,49158.453172262816,49019.01694544012,48853.57188995685,48657.92197891689,48427.877626720554,48160.06785448052,47852.69521602558,47505.98184480958
E2,0.0,4.6596462962199325,6.315111834386812,6.607824099612506,6.31703290671988,5.804527356547716,5.233318315428581,4.6733670382533194,4.152027445056623,3.6777356087225224,3.2509195393015244,2.90687777189501,2.6238144824234215,2.387814518655836,2.1896347629074735,2.0229142118158268,1.8831692693772215,1.7672303242130192,1.672935925640463,1.598990803647234,1.5449476260589046,1.5113106770770006,1.4997987040488339,1.5138637375321813,1.55968097042313,1.6480979817185366,1.7987425329762226,2.04960094600015,2.4828548756300393,3.311891170909216,5.314345700102433,7.314314284590535,10.077933681119717,13.79302660183839,18.72878245734366,25.16890069075785,33.36595002385739,43.455127669590176,55.33944660276286,68.58212163773385,82.37362506156069,95.62987634633905,107.20998808391852,116.16366887723763
I2,0.0,0.0,1.2581044999793818,2.4599428952720683,3.260078244058618,3.6616458312495386,3.7642098850176064,3.6715218761762807,3.464722226034165,3.199880745785787,2.9129170618265534,2.6254985127073436,2.360156106036059,2.124523573875959,1.9194240643626512,1.7428558246026085,1.5919003319518383,1.4635959019029527,1.3553097286792868,1.2648785371304971,1.1906546392630515,1.1315286425937352,1.0869710683670313,1.057128291113404,1.0430201838017314,1.046925972295284,1.0731420384411754,1.1295457069682853,1.2311196796010118,1.4090426241807177,1.7396361906539188,2.4786550534200082,3.4620578888914495,4.798276827237194,6.603083278838682,9.018621230785996,12.206775924976217,16.332872061427224,21.53260770764568,27.86121520733338,35.23390196658817,43.38121994657429,51.848798581456116,60.05597593153167
A2,0.0,0.0,0.13978938888659798,0.30128486614088273,0.43926261590108134,0.5409210799224615,0.6068726846344007,0.642497697170378,0.654199168883902,0.6479201584588202,0.6286681950287318,0.6004621422020312,0.5675760469184753,0.5327752720074829,0.49785465316566135,0.4639727654197533,0.43186563869027744,0.4019875890335386,0.3746069809532214,0.34987366253179103,0.32786865413484984,0.308643352089647,0.2922540019840276,0.2787971627086871,0.26845364229291513,0.261553342947026,0.2586856138091769,0.2609107670366282,0.27021664200930706,0.2906589598763468,0.3318839030283539,0.42493749342575615,0.5593794232783209,0.7498415490562482,1.0136640373001502,1.3727947035604298,1.8533027835710794,2.483620727572585,3.290550412145773,4.292623727799504,5.491562631371618,6.864458856944115,8.360463375945463,9.904670343273926
IH2,0.0,0.0,0.0,0.2516208999958764,0.7176282561078251,1.2955448944158294,1.8941020221175022,2.451367690025813,2.932555052844534,3.3226972800311043,3.619586909728929,3.828428337772443,3.958222045603033,4.021545367648142,4.031203706737466,3.998844868017646,3.93451360698706,3.846633799118302,3.7421671721412704,3.626830056475752,3.5053158853851083,3.381503932088152,3.258651035302546,3.139571851729232,3.0268196844016444,2.9228881685573804,2.830469303240691,2.75283640036011,2.6945002495580037,2.6625024173204683,2.669393123762398,2.741691040677454,2.954327578015374,3.341688806435769,3.956296674295486,4.868404235933568,6.169439334130865,7.973766439293735,10.417006209846992,13.647915349006086,17.810937092129787,23.018641608155725,29.318085977629803,36.66059426908454
IN2,0.0,0.0,0.0,0.2516208999958764,0.7296346389432085,1.3411269154278056,1.9989708771231065,2.6407914787680395,3.2284282334974805,3.7420681441403945,4.174212575085661,4.524963284719412,4.798749847551879,5.004262024297686,5.151233699151923,5.2490227731528485,5.30606706580464,5.329752061780401,5.326460724453639,5.301694950941575,5.260218412003622,5.206200670022837,5.143357834451152,5.075093728997896,5.004652406407932,4.935301721711444,4.870583880841353,4.814703634582312,4.773207669892273,4.7543311551514496,4.772087617100739,4.854976611480469,5.081065784502448,5.491278697888597,6.14595247481269,7.125227440988516,8.533221784677215,10.500648094761496,13.1840242188784,16.758314731785767,21.39981327291605,27.258063743578987,34.42041487879708,42.87849001579269
D2,0.0,0.0,0.0,0.0,0.0003887695480537402,0.0014975487186321978,0.003499244138581919,0.006425746615595413,0.010213258340497813,0.014744233718758385,0.019878002495113026,0.025470483751875127,0.031385637678501714,0.0375013307540398,0.0437148622018798,0.04994331636926641,0.05612177416868497,0.06220083626895056,0.06814411873728277,0.0739259939323828,0.07952966629007212,0.0849455918851602,0.09017022050480746,0.09520503394947832,0.1000558628349128,0.10473248278486241,0.10924852224072756,0.11362176894566703,0.11787506810822238,0.12203823438045383,0.12615196206162274,0.13027633630207683,0.13451241520810026,0.13907703045797243,0.14424014229421325,0.15035286055433225,0.15787484030473384,0.16740699817283752,0.17972695082756973,0.19582185707876584,0.21690871386290322,0.2444276916737066,0.27999288874183714,0.3252911093408042
R2,0.0,0.0,0.0,0.027957877777319597,0.12778214450698896,0.3291482713474725,0.6435880350148566,1.068633753918522,1.5931304145500456,2.201546025532747,2.8769145261193807,3.6026303709217204,4.363426779855381,5.146053239787045,5.939574178347523,6.735256045277224,7.526301438781594,8.307550449093116,9.075201009496466,9.826567311141307,10.55988049617077,11.274129852385615,11.968941083578683,12.6444887869042,13.301442196923416,13.940946579493495,14.56464830373193,15.174782144304919,15.774361396829148,16.36756377777754,16.960551723352708,17.563471694684708,18.196959425471942,18.89151970862777,19.686353992713844,20.63282486563532,21.79828087702541,23.270366230614854,25.161303353375366,27.61116196054514,30.788565648000272,34.886964996410185,40.114984044668425,46.680714503390654
G2,0.0,0.0,1.2581044999793818,2.9631846952638212,4.7472972021591975,6.452896086973565,8.020118473241448,9.433114418407165,10.69492351873556,11.81597092890085,12.80895954325593,13.686707818867342,14.471564817278995,15.17999472753332,15.824704647570396,16.415906033555412,16.962092870745686,17.470548573477537,17.947700761015053,18.39939346093798,18.831120977922733,19.24825683695864,19.65631071976943,20.061256369862615,20.469999578996305,20.89111344101055,21.336099896074554,21.821760379978134,22.375152635398173,23.045523451818283,23.939734067963773,25.37460740699143,27.349472263830876,30.0705143577332,33.79463154022957,38.851402803712354,45.647005990216975,54.65581249665847,66.38869696744781,81.33034755019379,99.84752039238194,122.08839915900333,147.9084657725149,176.85516255517288
H2,10315.937373178827,10929.981264439471,11489.88549061137,12003.10028337615,12473.006971381303,12902.74492784055,13295.228857774993,13653.16485039682,13979.065284840291,14275.262671144414,13816.726377414332,13319.460415095433,12790.014372511692,12234.433898213094,11658.308758224157,11066.816522932917,10464.762042279019,9856.612798436105,9246.530151010287,8638.396411422913,8035.837602469161,7442.241679926852,6860.771922330666,6294.3751433657435,5745.784364453095,5217.515624252059,4711.858723490334,4230.8619373143665,3776.3111007398197,3349.704002142378,3349.227136604434,3347.651612660089,3345.06323470845,3341.541613176847,3337.1606076424428,3331.9887382943125,3326.089567997478,3319.522057058858,3312.340892645082,3304.5967946628425,3296.336799783124,3287.6045251705486,3278.440413367556,3268.8819596795947
S3,69068.032934152,68758.56861812122,68470.93768599031,68202.12720840042,67950.03123057766,67713.01616550861,67489.71456724005,67278.92770907699,67079.57757863072,66890.68161050204,68206.53957025356,69577.92211981596,71006.58444268465,72494.4264960294,74043.50416481655,75656.03847320874,77334.42259334342,79081.22606058694,80899.19531490488,82791.24940094467,84760.46935677515,86810.07949847532,88943.4184692376,91163.89757311542,93474.94354020827,95879.922364546,98382.03977044267,100984.210459674,103688.87517760655,106497.68231909514,106195.99570035259,105895.44545604083,105594.1406701841,105290.62228227776,104982.54803898302,104666.65592107255,104338.31463727378,103991.27427862247,103617.5931536866,103208.06318762514,102753.23228414585,102244.8845749053,101677.52012234263,101049.33329861227
E3,0.0,7.9879650792341685,10.51082754923696,10.696236987758493,9.949595398049281,8.894455249577408,7.79956310021218,6.773513820670908,5.853556409613873,5.046027736950366,4.344650340072603,3.7833488341039416,3.3284323173105994,2.956830377562803,2.652083845180086,2.402092593849882,2.1978089173229716,2.0324566949116845,1.9010609544577775,1.8001814511418515,1.7278065481383995,1.6834080687554043,1.668204302157251,1.685751429080177,1.7431308874402325,1.8533420747132443,2.0404013926432185,2.3513022271505144,2.8883919040028707,3.9186884327905354,6.419051020966092,8.891824737635561,12.277811583447374,16.806159369982062,22.80382421056575,30.614580880604088,40.544452757909426,52.75817001188382,67.14117156179482,83.17007429447133,99.87267439837836,115.94539042048956,130.01442027621584,140.9328445525443
I3,0.0,0.0,2.156750571393226,4.131973781129915,5.367168255372742,5.906691710696951,5.945517943804071,5.673192803339731,5.232764413584984,4.720118878746736,4.194498816224641,3.6897548815543875,3.2353571141406965,2.8398909941582797,2.5022787984369246,2.2174299172607776,1.9790229506959347,1.780822178094763,1.6172566144830127,1.4836404263934075,1.3762332476443444,1.2922477165839745,1.2298688085143439,1.1883364466910642,1.1681547538662862,1.1715381919286345,1.2033252753297567,1.272903541211523,1.3985937260575527,1.6190220497153067,2.0294591066826286,2.950819239670422,4.1712842229638545,5.817779661309103,8.02833082668062,10.974031032861124,14.850355457479779,19.85721551912341,26.159035214682678,33.82353745049421,42.750042529803785,52.61564760544443,62.874643976798836,72.82867986065759
A3,0.0,0.0,0.23963895237702504,0.5070359883787288,0.7265159003357378,0.8797005822100686,0.9705941232553772,1.010462191610667,1.0115751679086609,0.9848668266153449,0.9392742934007868,0.8817589449228075,0.8189076209613643,0.7549790662884094,0.6926881643576116,0.6337130468414919,0.57903321528869,0.5291608397506411,0.4843023726478634,0.444473726752024,0.40958442493587477,0.3795017363928518,0.35410363117694355,0.33332903400627234,0.31723577007742315,0.3060825426851455,0.3004662963895137,0.3015850788909075,0.31180712992724147,0.33609746106187927,0.3864386218332195,0.5017224280955583,0.6681326846055134,0.9028404951878319,1.2264571772497272,1.6652804681167543,2.250661800911526,3.0168630234665033,3.996235519129717,5.211223562157618,6.664081078560234,8.327445094799538,10.140317788454317,12.012686839049929
IH3,0.0,0.0,0.0,0.43135011427864517,1.2132056311746882,2.1613692193128107,3.119534464349107,3.986529196507447,4.709536991118984,5.269804630741893,5.6696924902109025,5.923165746334193,6.049517726761968,6.0719436262811435,6.012960706020248,5.892545653108386,5.727594331413907,5.531993735215623,5.316949807167996,5.091397218560459,4.8624109207086725,4.635587264587738,4.41538727524457,4.205448347749792,4.008880281051606,3.8285725950369005,3.6675593433666123,3.529529000092084,3.419666691737632,3.346286299681876,3.32456849591862,3.38718058460427,3.627599662066448,4.087287162190204,4.828808521837115,5.935874011496534,7.517769024866593,9.71158968140974,12.680258466238726,16.602760033418573,21.653142481775795,27.96734656038892,35.602695829095936,44.50145313908359
IN3,0.0,0.0,0.0,0.43135011427864517,1.2337880017496312,2.2386979727532106,3.295700672591876,4.301763464896484,5.19748524002953,5.955373607241179,6.568640303827019,7.042722605690883,7.389525937530765,7.6261885133759355,7.770613799462119,7.839495372016621,7.8475815363522665,7.80753720774263,7.73007675723296,7.624205290569679,7.497490609841949,7.356332133729015,7.206216389563196,7.051962182036058,6.897968667614507,6.748491501394498,6.607992874889143,6.481654855660298,6.376249210469219,6.301835754418145,6.27564083183149,6.332988167412839,6.571422500663985,7.040707362705377,7.813227575612517,8.984952815965006,10.680741337699281,13.057611894494464,16.303844817412564,20.630148285496038,26.249072481441196,33.34122676744905,42.01260902486992,52.25418835039824
D3,0.0,0.0,0.0,0.0,0.0006664620823778403,0.002540938347806371,0.005880384850792718,0.010700254757715966,0.016859684097864733,0.024136204321779778,0.03227837202191362,0.04103839071296472,0.05019004095460791,0.0595369126676289,0.06891843375524839,0.07820882265451193,0.08731316299540778,0.0961626435421169,0.10470990930704797,0.11292491916350664,0.12079143659371318,0.1283041563086751,0.13546641972100285,0.142288460797508,0.1487861335009473,0.1549800966220216,0.16089547343486912,0.1665620750105104,0.17201541133603365,0.1772990037334182,0.1824692189755029,0.18760587889386884,0.19283927828586922,0.1984441397308628,0.20475924623766165,0.21222004820881518,0.22139133349072646,0.23300674248981076,0.2480117374301631,0.2676035056545238,0.2932557766492727,0.3267111947672477,0.36992244106166483,0.424930764961624
R3,0.0,0.0,0.0,0.04792779047540501,0.21716463415370985,0.5543870809628237,1.07449649030567,1.7689450981085026,2.6154256586817977,3.5854139306390507,4.649138123705831,5.7784769321976395,6.948423711294656,8.13791273406584,9.330041058073926,10.511733301778314,11.673208695068862,12.807419962666184,13.909538114646583,14.97651028038372,16.006695657440797,16.99957525400462,17.955528158013436,18.875667501599974,19.76173179549395,20.61603174016959,21.44146002684087,22.241585157178406,23.020878206661205,23.78518737877912,24.542758201985446,25.306733484839775,26.103318856221733,26.970881858718236,27.958205143218596,29.12857737735773,30.564391063739283,32.37235898457609,34.688711094231316,37.68317548044265,41.55987625777473,46.55289570266934,52.91470099138472,60.897277180379184
G3,0.0,0.0,2.156750571393226,4.9946740096872055,7.882657996381999,10.569048753855306,12.970551671241207,15.076433708298495,16.90528243987964,18.48574267047539,19.84817015945199,21.021225751271594,22.04272993647966,22.941406662153522,23.73975086409548,24.455813502294102,25.10437850263357,25.69778691031077,26.246550217936928,26.75983667564053,27.245885667448828,27.712393435446195,28.166913614010156,28.617328775592615,29.07248166144426,29.543127001053122,30.043529361225698,30.594437737239367,31.229289338570005,32.00915515265078,33.06720102950422,34.80034480516506,37.201137484326665,40.51614661185746,45.053809641752615,51.21084217860537,59.476779016368475,70.42378126100402,84.66848716421265,102.79660348589725,125.25252354540451,152.21814563296667,183.52340104649886,218.62729452107715
H3,30947.812119536477,30812.722463459133,30686.068600840303,30567.13571357867,30455.303633624757,30349.997614908614,30250.685074401525,30156.872566135975,30068.102971541946,29983.952890646244,29904.030219785433,29819.314805780246,29729.385520673688,29633.902717197972,29532.601550485764,29425.285927543908,29311.823027230243,29192.13833583998,29066.211144927456,28934.070458612707,28795.791257307872,28651.49106352637,28501.32675323421,28345.49155317548,28184.212160986706,28017.745921126734,27846.37798635844,27670.418392704145,27490.19897678059,27306.070069840036,27118.396914521636,26932.282025193534,26747.699337039063,26564.624023929315,26383.032414362962,26202.901913381873,26024.210930035766,25846.938809999723,25671.065772976617,25496.572854542825,25323.441852120002,25151.655274778324,24981.196296597678,24812.048713332788
S4,34534.016467076,35097.53489419942,35662.91030510281,36228.23332376064,36792.62256466973,37355.70703535038,37917.35115597762,38477.527039236375,39036.254955442055,39593.57554918059,41050.014969999145,42516.90957696888,43994.18547140401,45481.72162059709,46979.34700054989,48486.83657925521,50003.9066841546,51530.21010574747,53065.33121482139,54608.78136278784,56159.99486237279,57718.32588461771,59283.04662549173,60853.34703049282,62428.33608130632,64007.04379980873,65588.42073448795,67171.32455761755,68754.4587656592,70336.1197010727,71215.40240855794,72090.11460370186,72957.61330421497,73816.00424146208,74662.26076920907,75492.18349476004,76299.95843560788,77077.96299956502,77816.82181539315,78506.02103349495,79135.12311509925,79695.36051785068,80181.10303184512,80590.72819069207
E4,0.0,11.981947618851256,15.920400537491615,16.361073992741975,15.376480953242329,13.89819920932194,12.332838288556626,10.847393605926348,9.501235015604298,8.306840098747733,7.2574574096781905,6.420104313094198,5.740815295715373,5.183864439971326,4.724684143731118,4.345865258063678,4.03485758437401,3.7826328144176107,3.582920507626271,3.431820830832852,3.3277133029751713,3.271465721858143,3.2670385663159154,3.322724283046459,3.4535513185438886,3.6860567657470855,4.0683885680818666,4.693925598009623,5.765117221898445,7.80882465055616,12.749530233737564,17.773597067852567,24.804655300387353,34.38424278664358,47.2873543152495,64.3618944778963,86.41252016949989,113.96772273578327,146.95304618688692,184.36097784527124,224.10514613034212,263.2336805737846,298.49900234961615,327.053908799798
I4,0.0,0.0,3.2351258570898396,6.23958365937664,8.161240173666318,9.04839396157522,9.181550163462056,8.838796435987522,8.232074135192626,7.5045779353287365,6.74559358785913,6.0068696533285895,5.337549956532587,4.752550103762703,4.25117346104988,3.8263687954373298,3.469204896939591,3.1709344859447377,2.923871551459597,2.7217114679348513,2.5596185050857807,2.434253694854765,2.3438479618145576,2.2884091899940318,2.270181070418963,2.294567498258228,2.3719758257066497,2.521650408806094,2.7803501567462545,3.224791743960333,4.043257702026363,5.86832778432496,8.319867878915169,11.689177658453687,16.29725214746598,22.545936953596954,30.905273681190174,41.874544654479074,55.89601193134892,73.21492962926882,93.70642179578454,116.7322425326631,141.11243927451972,165.2621941991082
A4,0.0,0.0,0.35945842856553767,0.7651787589771786,1.102975226964002,1.3436746101684716,1.4918856644144354,1.563493680188247,1.576216752328388,1.5460104523308393,1.4860135648271036,1.4065345741520285,1.3178307887144487,1.22648908984302,1.1367072050735558,1.0511062883707782,0.9712609884385329,0.8980545182820466,0.8319225990581656,0.7730256944753205,0.721375180505242,0.6769315434934488,0.6396892064505033,0.6097625221498801,0.5874917462112978,0.5735999365253549,0.5694616521926965,0.5776209787966132,0.6029145509775793,0.6552851574390168,0.7584928654678982,0.9892801993864455,1.3246320715447333,1.8038453162474073,2.4746035365972334,3.398303458735272,4.649499601325106,6.311975286145081,8.468611910989562,11.183480914398256,14.477614066876741,18.305245637411655,22.541206927142863,26.987935612202776
IH4,0.0,0.0,0.0,0.647025171417968,1.828133044298386,3.2716164247712847,4.743483073041038,6.090002745526853,7.228936211600794,8.128924158544953,8.790484227650916,9.231937761231414,9.480064035722922,9.56870598695408,9.53119520529304,9.397282286788126,9.192235670460352,8.936928449925993,8.648329002728643,8.340116427180153,8.023296455374092,7.706771271803444,7.397856068507315,7.102756889177153,6.827040546631875,6.57614778827261,6.356038353849587,6.174138078091808,6.0409549092164765,5.973263574620754,6.001450054983487,6.190419319953174,6.724890499635341,7.694482649481365,9.237821105824306,11.543416391897527,14.860683418289035,19.507291973886723,25.86796718339606,34.37616162687892,45.46962237756326,59.5159215581419,76.71702829595148,97.01806679719213
IN4,0.0,0.0,0.0,0.647025171417968,1.8590066001608008,3.3880067727503307,5.009518155554991,6.567603226654186,7.9706026509756365,9.174336056851253,10.16571575287921,10.95023807872501,11.543443823492156,11.969839417222698,12.255553342079107,12.425123596707898,12.500315110729217,12.499897763549512,12.439849513326884,12.333723711951812,12.193060042988487,12.027790138388614,11.846626240943165,11.65744290678745,11.46767892179438,11.284808665334381,11.116972174267287,10.97393886421913,10.86878443585077,10.82121015684329,10.865166435817267,11.070374606932214,11.629199683296942,12.647296043991478,14.282710035958756,16.748909232936672,20.327874497822524,25.379934004218576,32.34526002827697,41.72803041257651,54.053472155857406,69.79266634435253,89.26288138687161,112.52777432458322
D4,0.0,0.0,0.0,0.0,0.0009996931235667606,0.003824269529682625,0.008879115287266235,0.016208084266142602,0.025617507788049217,0.03678665257665547,0.049346333315943985,0.06292816447708117,0.07719206811605955,0.09183934189478349,0.10662357286314987,0.12134984739930516,0.13586921835628016,0.15007177985759784,0.16387987622210207,0.17724206894085465,0.19012805454126996,0.20252453407420257,0.21443196300535128,0.2258620992156873,0.23683628930000164,0.24738448091644577,0.25754502800781714,0.2673654926762085,0.27690491038865006,0.2862385520293389,0.29546760645347153,0.30474021069891083,0.31430478391727534,0.3246951475170279,0.3365835897815426,0.3508565835446659,0.36869186182936997,0.39165251881928065,0.4217924677844285,0.46176004564112755,0.514873299825192,0.5851266235442837,0.6770823312241301,0.7956147918390147
R4,0.0,0.0,0.0,0.07189168571310754,0.326671906512382,0.8364548919031658,1.6261145217349517,2.685178007438774,3.9820530039541344,5.475235510888481,7.120769329612935,8.876651787134573,10.705110640398782,12.574011962014284,14.457342447324235,16.334769662098864,18.190874169297434,20.014330331973724,21.797154631063506,23.534063955663786,25.22195133690176,26.85947238367471,28.446731842125736,29.985061245417203,31.476883563298824,32.925669163911486,34.336001528918594,35.71379731077734,37.06677984959035,38.40543479444688,39.745036709757976,41.110588323332024,42.55291464767404,44.14770933940874,45.993508575464965,48.22126266495654,51.00523056858031,54.57561124233775,59.231682978825525,65.35287772792391,73.40353001436179,83.92587485325811,97.51654350579717,114.78529670146648
G4,0.0,0.0,3.2351258570898396,7.533634002212576,11.951123980252909,16.102773837628337,19.855287624145262,23.18515396205555,26.113950235655665,28.679283689868825,30.922130516530714,32.88164401714383,34.61507218167926,36.16509231152241,37.564735710314665,38.84040042912206,40.01378404879926,41.10319559658024,42.124506456473,43.091894993532094,44.018486617856965,44.91696920966026,45.80026495456196,46.682365367467256,47.579500923889796,48.51195977989665,49.50719510664836,50.60566002003046,51.87301993149306,53.42960158140564,55.5379842370558,58.98035740016495,63.77922860848514,70.47648553958973,79.7602310919835,92.52781675710087,109.90552826613288,133.23690871189785,164.00819385055934,203.6855163210188,253.46298033924205,313.97136979443445,385.0444635493563,465.6391941837527
H4,15473.906059768238,15731.804494097709,15988.577181293202,16244.294419633537,16499.020550580026,16752.8147475269,17005.731394317805,17257.820436604485,17509.12770798895,17759.6952327518,17109.083431498493,16458.418986527635,15808.18883145251,15158.93602557227,14511.266140542239,13865.853860463965,13223.449710142188,12584.886778175205,11951.087239108232,11323.068399540756,10701.947894760437,10088.947544300747,9485.395238244733,8892.724076541946,8312.467832594968,7746.251680066173,7195.777039519966,6662.799413004634,6149.098235360799,5656.438141988179,5883.988725903513,6109.97536685786,6334.411050401139,6557.308544876464,6778.680411742542,6998.539015195566,7216.896531140415,7433.76495555738,7649.156112307378,7863.081660415516,8075.55310087004,8286.58178297104,8496.178910260858,8704.355546065839
E_Om,0.0,0.0,0.2730161106386079,0.35381422517502836,0.36677498635479683,0.3566907303167649,0.3395837229009323,0.3210722175270299,0.3030282300005743,0.2859926931018787,0.27004917775057086,0.2593695215584432,0.2524919673038941,0.24879599775895903,0.2480687703598322,0.2503373700400799,0.25581768044319336,0.26492126947754063,0.27830210139544603,0.296945820543019,0.32232074845591707,0.35663163409147963,0.4032571174521169,0.46753485955579044,0.5582455693320993,0.6906060356322213,0.8928226683316116,1.2220700512520257,1.8096686972359346,3.0205367830606855,6.282389946027166,10.749881475099663,19.17267151065311,33.52997787270318,58.26438375048627,99.89935848010629,168.48457670566305,278.03417286863777,446.35835824670175,692.9894378721108,1035.0258525744314,1481.7272430628668,2030.0338177934832,2663.1024663938892
I_Om,0.0,1.0,0.6,0.4337143498724242,0.3557584507207121,0.31248431674822247,0.28379708723445995,0.2619658575239277,0.2438690132466547,0.2281390300481479,0.21410144516639598,0.2013741450924917,0.1908542578762747,0.18268538589781624,0.17678615093360867,0.1730502585573199,0.17142124504521355,0.17192352074679035,0.1746828552070102,0.17995128050097653,0.18814613984720108,0.19991428599141825,0.21623911279955046,0.23862288939180187,0.26940814571514454,0.31237119114875356,0.37388634430995193,0.4653939270355063,0.6091952700593508,0.8541277102893128,1.3280215575999728,2.4930582199873186,4.3983029302693,7.815603066037919,13.742455865252609,23.97685713178286,41.358941068698414,70.30620035174807,117.25294688558104,190.8685248579581,301.62826314024477,460.4339380792433,676.32671847452,953.9051618889524
A_Om,0.0,0.0,0.0,0.008190483319158236,0.01716681341057744,0.024736700319105857,0.03049008216478763,0.03457957741885808,0.03729582846089736,0.038927509668735115,0.03972178852804445,0.03987890615495269,0.039684210570715445,0.039322127475689174,0.03892158191332011,0.038579328641451055,0.03837358401436324,0.0383733976247864,0.03864635618415534,0.03926614798918765,0.040321293007640695,0.041926656859790065,0.04424027451057644,0.04748993313202466,0.05201799229229344,0.05836176091379773,0.06740758980000482,0.08071075188995219,0.10123070304952253,0.13527462335669604,0.1988358021771774,0.34754034012255686,0.6005287163510353,1.0556031184004215,1.8503818309014324,3.228236977235734,5.579570336191775,9.518193570123312,15.95558004215778,26.155214781127277,41.713854961065145,64.42185954608506,95.98930492875405,137.69245847680773
IH_Om,0.0,0.0,0.2,0.299348915020262,0.35518238558136794,0.38965956758577586,0.4119219667185113,0.4261482064667793,0.4345392638430229,0.43844453016907864,0.43880055992159356,0.43631231069438553,0.43153552668360584,0.4251479940922652,0.4177862344970059,0.41000476952391557,0.40227960454769823,0.3950263020610914,0.3886223975449733,0.3834315978027214,0.3798304613522132,0.3782401336452652,0.37916764513026974,0.38326435138441817,0.3914148058120596,0.40488073286932613,0.42554883899336166,0.4563858816699483,0.5023403489474558,0.5723100367850003,0.6840414628208427,0.8790147824489498,1.2868633815924178,2.0336483423933878,3.386783731912626,5.78557111168454,9.983550934622539,17.224483354610058,29.507202077518997,49.911012766549476,82.93113490780709,134.69369796361985,212.87263056505915,326.15772034166616
IN_Om,0.0,0.0,0.4,0.617784293582432,0.7469050780823137,0.8286288388474151,0.8825608055761897,0.9187889357803252,0.9429250726579964,0.9583203780221331,0.9671044172142311,0.9707062509733684,0.9701325032244679,0.9664186150160565,0.9604898031852113,0.9531436644471305,0.9450716624227388,0.9368903651670234,0.9291738519158894,0.9224864229085519,0.9174178430457421,0.9146252113505893,0.9148877857468838,0.9191849695587577,0.9288150653598652,0.9455871965032142,0.9721500017945641,1.0125912538979016,1.0736169358628613,1.1671028576828968,1.3163920780442615,1.5752450457691167,2.109000243144857,3.0860366656690545,4.856946109513902,8.000178600094086,13.507702034443579,23.019994994940706,39.18023361838095,66.07691860059757,109.71468312708713,178.3507961341454,282.4691563641713,434.18780587136234
D_Om,0.0,0.0,0.0,0.0003090121274187569,0.000771524352773296,0.0013203026757241344,0.001922350335467902,0.0025587947517989296,0.003217219571178865,0.0038886090830144307,0.004566032468127751,0.005244005940797318,0.0059181349175306455,0.00658488347331702,0.007241762903928359,0.007887267969569317,0.008520750199981426,0.00914229658207373,0.00975263617200504,0.010353081341144793,0.010945506409927752,0.01153236750453223,0.012116771446396621,0.012702608449746945,0.013294775112672292,0.013899534721908212,0.014525100004982288,0.015182598765271895,0.01588774262636547,0.01666388892594814,0.01754814263599834,0.018605028174342873,0.019963159314128304,0.021951441270344145,0.02509355127386719,0.03032633750439498,0.039265395692165694,0.05469058725967183,0.08130345848515694,0.12689387492590348,0.2040094161089844,0.33214304824455143,0.5402529790327397,0.8691541012334199
R_Om,0.0,0.0,0.0,0.04255777926988723,0.10895404936077317,0.18999570170084074,0.28059689585423825,0.377608424950321,0.4788968928857683,0.5829225718592226,0.688526837095252,0.7948140291085901,0.9010796071154312,1.0067885320348213,1.1115690954433437,1.215191500631755,1.31754600037512,1.4186253087814165,1.5185124606269151,1.6173742912408708,1.7154607071844512,1.8131103740261199,1.9107642601131696,2.008989790450625,2.1085205924327197,2.2103208403883277,2.315690978268045,2.4264477212374254,2.5452476209278982,2.6762148780426918,2.8262997011394697,3.008752417769057,3.255153353189117,3.6232787653467127,4.212638714107505,5.196937309473146,6.875361297820597,9.756913824176571,14.69097464077014,23.059320339440877,37.03669414633829,59.90789405377163,96.39748336224906,152.93482676860756
G_Om,0.0,0.0,0.0,0.07371434987242415,0.16924419066968183,0.26827343698547695,0.36457993417100354,0.45626753935425524,0.5429570380865533,0.6247746601867084,0.7019926873242156,0.7749059653168697,0.8449357361376494,0.9131085673097009,0.9802834867046198,1.0472620547017746,1.1148531446125962,1.1839239183322583,1.2554526610911945,1.3305942284679648,1.41076960001458,1.4977962020976776,1.594086743302377,1.7029661650144488,1.8292005770945121,1.9799268808141788,2.166390510434879,2.407452630884414,2.737411544722461,3.2260220929761636,4.041567024402549,5.737812309829883,8.640280308106792,13.81690161598313,22.869995641612988,38.601379254244286,65.57420604387298,111.06504175440202,186.1342684289342,306.6510251555437,493.7581733810136,773.2151535761101,1173.2815092030842,1721.3906400073247
beta,1.0,1.0,0.9977494187372337,0.9963645029875595,0.9954289173231055,0.9947411258728985,0.9942033163850884,0.9937655674976846,0.9934005447319042,0.9930918933203924,0.992828844598713,1.0329885955388136,1.0766925234788811,1.124541548846308,1.1772751254051494,1.2358140672927846,1.3013198873113914,1.375278787201389,1.4596232408867313,1.5569124260802902,1.670607653850753,1.8055067348085443,1.9684556100842026,2.1695682082025045,2.4244350005200617,2.75840073151607,3.215590276053965,3.8802224489140578,4.9354367893437985,6.868503223243485,11.546916249518556,11.444998259106068,11.321508833874324,11.147988046588816,10.90974664990259,10.586201954444695,10.156396900313561,9.602699422321841,8.91907428410574,8.119473817624906,7.24176749567733,6.341526225515639,5.476770188913911,4.692254762075035
