series,2021-11-15,2021-11-16,2021-11-17,2021-11-18,2021-11-19,2021-11-20,2021-11-21,2021-11-22,2021-11-23,2021-11-24,2021-11-25,2021-11-26,2021-11-27,2021-11-28,2021-11-29,2021-11-30,2021-12-01,2021-12-02,2021-12-03,2021-12-04,2021-12-05,2021-12-06,2021-12-07,2021-12-08,2021-12-09,2021-12-10,2021-12-11,2021-12-12,2021-12-13,2021-12-14,2021-12-15,2021-12-16,2021-12-17,2021-12-18,2021-12-19,2021-12-20,2021-12-21,2021-12-22,2021-12-23,2021-12-24,2021-12-25,2021-12-26,2021-12-27,2021-12-28,2021-12-29,2021-12-30,2021-12-31,2022-01-01,2022-01-02,2022-01-03,2022-01-04,2022-01-05,2022-01-06,2022-01-07,2022-01-08,2022-01-09,2022-01-10,2022-01-11,2022-01-12,2022-01-13,2022-01-14,2022-01-15,2022-01-16,2022-01-17,2022-01-18,2022-01-19,2022-01-20,2022-01-21,2022-01-22
S,537899.7970121203,535146.8358894462,533002.1469348338,531140.2125089729,529416.0012098709,527763.8205176604,526154.2065388901,524574.5366972452,523020.05997078563,521489.67573254666,519983.9248539568,518504.02648563025,517051.41467404336,515627.5163144441,514233.6468129696,512870.9637913988,511540.4497599746,510242.9094312219,508978.9745136568,507749.11233708024,506553.63640176284,505392.7178187985,504266.39705779654,503174.5956553292,502117.1276683281,501093.7107328729,500103.9766363421,499147.4813426845,498223.7144331668,497332.10794184625,496472.0445779852,495641.60874798836,494841.5040739154,583647.8620579775,672305.8231759078,760824.2125514823,849200.7194261575,937422.3878981274,1025466.5872320847,1113301.5305345794,1200886.0127422232,1288168.3193929128,1375084.341528243,1461554.921635875,1547482.4146102958,1632746.410012601,1717198.5442191823,1800656.3438903554,1882896.0964874579,1963644.8535566102,2042571.8552224732,2119279.93530951,2193297.8304933026,2264074.7530785035,2330979.030311717,2393302.938443175,2450275.883198873,2501087.5941266683,2544921.863930258,2580999.6056220587,2608627.9124459457,2627249.925646631,2634596.8122657547,2544807.4082837403,2450482.612731903,2352310.063234446,2251652.4694649675,2149992.8564149644,2048736.305607188
E,0.0,2752.961122674079,4071.761740484134,4712.167644199962,5022.728650041944,5168.090747239912,5227.277501838151,5238.764092931659,5221.611591511739,5185.512352297155,5135.609525197888,5074.825035965029,5004.989336762449,4927.390895333019,4843.043128207546,4752.813211316011,4657.483279345455,4557.778624294528,4454.379954571141,4347.928144776429,4239.025636660904,4128.236528626971,4016.0863310408513,3903.061834196025,3789.6112709381914,3676.1448251121005,3563.035474109132,3450.6201255341252,3339.2009973914955,3229.0471894946504,3120.396396507377,3013.456717764095,2908.399318572505,2805.383233932413,2881.3346996675727,3073.667809511866,3349.671141924772,3697.045280226502,4116.794322723876,4618.693794071564,5218.888117494747,5939.023057457891,6806.41095595526,7854.884677970227,9126.136119506511,10671.42818030883,12553.61198220019,14849.377718009444,17651.62023920506,21071.708021692957,25241.30355723481,30313.195518669352,36460.38225440528,43872.43128448474,52748.00630993547,63282.51822895615,75650.2596351555,89981.23545757879,106334.20559048104,124669.007956661,144822.60408483353,166493.92651418922,189242.04994808062,212416.529812626,231128.809498038,245795.2949497185,256195.15100860666,262144.36285621754,263669.77395520906
I,1211.5289157893937,1093.3185214675864,1069.2308971139457,1087.0575509838397,1122.3570130108767,1163.529092474062,1205.0448234726223,1244.2854152176737,1280.0418509917188,1311.7949114829855,1339.3668089000794,1362.7513969264755,1382.0307867219854,1397.333991322591,1408.816089832991,1416.6474325912532,1421.007763917415,1422.0827542936067,1420.0617168603362,1415.1359144900252,1407.4971745350222,1397.3366807650675,1384.843885862014,1370.205522683153,1353.604708035725,1335.220138776018,1315.2253815994945,1293.7882574034074,1271.0703198179351,1247.2264260232714,1222.4043965849085,1196.7447598704634,1170.3805756986787,1143.4370560342943,1116.0319668037573,1093.5793704392274,1079.0874953297218,1074.2897106049086,1080.3812758962233,1098.4709508044427,1129.852577606495,1176.1780894639596,1239.5876112839528,1322.831823564722,1429.4080054112842,1563.7229589045078,1731.2913959169878,1938.9754846288351,2195.2685486576097,2510.622052937688,2897.8087541516143,3372.3050298614,3952.66086826407,4660.806262417964,5522.218494082385,6565.848905743964,7823.686348073735,9329.827257309986,11118.941385556805,13224.078510593019,15673.858839653183,18489.218916353188,21680.0204556912,25241.93519387716,29151.543844025757,33241.055470123065,37371.54288638098,41411.00915182835,45234.815987858135
A,10903.760242104547,8723.008193683638,7721.706058068911,7276.740516385846,7093.677677042666,7031.078877145458,7020.247603471143,7027.563008273215,7036.516711710119,7039.048499076265,7031.327134381243,7011.676279308425,6979.543783157297,6934.9821474516975,6878.381259701274,6810.326652377057,6731.5208889569685,6642.737196588849,6544.789985830601,6438.514576398688,6324.752260208586,6204.338730065312,6078.094846781532,5946.819186806256,5811.2820446779315,5672.220678895657,5530.335645896793,5386.2880947269,5240.697909675734,5094.142597036291,4947.156818792589,4800.2324820910635,4653.819299469156,4508.323255589901,4364.112077633672,4269.250031017182,4245.2903333819495,4300.643475025249,4438.717005681354,4662.50807168053,4977.053781743746,5390.742817118578,5916.130479208494,6570.6353414747155,7377.327136231733,8365.918461252144,9574.0203776851,11048.69153734213,12848.285213736253,15044.56563557437,17725.013674316593,20995.162899906674,24980.693109966065,29828.85769666228,35708.642604140696,42808.87578699514,51333.38055141427,61492.274542623396,73488.753207645,87501.23807554587,103661.62260873517,122031.40118989318,142578.48111074563,165158.13837457827,189478.97374907165,213987.95756372757,237555.09568740602,259216.76732224863,278152.3918289776
IH,0.0,48.461156631575754,72.55594672876487,85.92328203247368,94.58682820412268,101.15161755946048,106.70303559094269,111.66547757977695,116.18660915826997,120.30589663536222,124.02604458562173,127.34155009518503,130.24889434742983,132.7492689048191,134.8485429935066,136.55641061292835,137.88545146939828,138.8503373582298,139.46722143142904,139.75328361274873,139.7263925074818,139.40484890672258,138.8071849090868,137.95200094427616,136.85782929023867,135.54301704835294,134.02562438462965,132.3233355983125,130.453381602721,128.43247296048477,126.27674288764356,124.00169974764985,121.62218857293519,119.15236112508124,116.60564291532486,113.99472966199704,111.54373488527665,109.5062835514345,108.1025587570785,107.51132902308967,107.88327075290496,109.35975532933432,112.09094343041764,116.25175100656384,122.05623990665154,129.77161870057319,139.73308691274718,152.36059938841197,168.1784190838551,187.8380944300249,212.14520499706893,242.0897950104732,278.87976743593765,323.9755453444732,379.1229431956381,446.37940901965885,528.1267033415111,627.0609781133904,746.1496790641155,888.5445417536714,1057.442112694026,1255.8884077517582,1486.5325652493725,1751.344679804729,2051.323372568021,2386.125821218147,2748.8364881391353,3129.785136765967,3517.9403300935037
IN,69.74923769023155,125.54862784241679,163.3826194490929,192.2630580193469,216.39371167508546,237.73046885770623,257.17020280583984,275.1121026158599,291.7247524978855,307.0734152127252,321.18040886268125,334.0533524636824,345.69798737732805,356.12363393525067,365.3451758448875,373.38344817055474,380.2649262461117,386.02113844436474,390.68799674585415,394.30512972971485,396.9152515024668,398.563577090354,399.2972852035433,399.16502583844056,398.2164694367353,396.5018946158117,394.0718120714952,390.97662281257755,387.2663093054215,382.99015836802835,378.1965147766942,372.9325645676255,367.2441469639893,361.17559376480386,354.76957901898066,348.0670218975914,341.4123520953657,335.2543008456598,330.0516453678119,326.24022003189725,324.2325250134346,324.4330485738658,327.26048518427757,333.1730000939525,342.69548562511795,356.4491983756143,375.1848487410962,399.8204939103556,431.48564325463997,471.57287555348114,521.7979577621393,584.2688470509052,661.5629036036786,756.8099616306433,873.7764256779174,1016.942178415524,1191.5578910415732,1403.665738728724,1660.0624361711214,1968.181336192841,2335.8718381702174,2771.061162795047,3281.2964296695736,3873.183085764462,4551.756305086669,5319.695949152129,6169.485972750423,7087.1153275559245,8053.775945628346
D,10524.0,10524.0,10524.048461156632,10524.12101710336,10524.206940385391,10524.301527213596,10524.402678831155,10524.509381866748,10524.621047344324,10524.737233953485,10524.85753985012,10524.981565894705,10525.108907444801,10525.239156339148,10525.371905608054,10525.506754151047,10525.64331056166,10525.781196013128,10525.920046350486,10526.059513571918,10526.19926685553,10526.338993248037,10526.478398096944,10526.617205281855,10526.755157282798,10526.892015112087,10527.027558129135,10527.161583753521,10527.293907089119,10527.424360470723,10527.552792943683,10527.679069686572,10527.803071386317,10527.92469357489,10528.043845936014,10528.160451578931,10528.274446308593,10528.385990043476,10528.495496327028,10528.603598885784,10528.711110214806,10528.818993485562,10528.928353240892,10529.040444184322,10529.15669593533,10529.278752175236,10529.408523793934,10529.54825688085,10529.700617480237,10529.868795899321,10530.056633993752,10530.268779198748,10530.510868993757,10530.789748761195,10531.11372430654,10531.492847249736,10531.939226658757,10532.467353362097,10533.094414340212,10533.840564019274,10534.729108561029,10535.786550673722,10537.042439081473,10538.528971646725,10540.280316326529,10542.331639699096,10544.717765520316,10547.466602008453,10550.596387145219
R,0.0,2194.701895958956,3984.0027498690497,5590.349830006771,7118.883377473482,8619.132559553924,10113.783022804477,11612.399231974354,13118.072873704805,14630.687366499824,16148.543091970047,17669.17974142069,19189.801037849826,20707.499999973894,22219.382492546596,23722.637707086727,25214.58002723282,26692.67472948983,28154.55397225766,29598.026508044615,31021.083023671556,32421.89823020342,33798.83041801388,35150.41897662528,36475.38025971464,37772.602105271595,39041.13727517161,40280.19604519117,41489.13814965519,42667.46426150478,43814.807167226456,44930.92277620081,46015.681085402335,47069.0572029762,48091.122020937146,49082.03393855024,50051.57752399781,51014.00746850543,51985.45283061461,52982.904939035514,54024.11398235135,55127.98097895985,56315.22272782048,57609.211526630825,59036.96572723605,60630.30913679005,62427.2403472409,64473.56580280024,66824.85704814106,69548.79410772028,72727.95174340189,76463.0696847653,80876.81617313079,86117.99915289936,92366.09356165814,99835.83051861795,108781.43439419895,119499.90713513785,132332.57251977184,147663.9522915887,165917.01319887806,187543.96270467484,213012.12388596122,242784.98156515136,277299.1932275319,316934.5472201019,361760.6233487405,411616.7039111121,466142.63582868176
G,792969.0,792969.0,793051.5888336803,793173.7416858949,793315.1067152207,793465.7885747221,793620.8312971393,793777.6496221944,793934.8125449824,794091.4608927277,794247.0262632967,794401.0945490525,794553.3393001315,794703.4889802345,794851.3107070944,794996.6020009406,795139.1863972801,795278.9108956604,795415.6442543892,795549.2756530263,795679.7134973697,795806.8842664694,795930.7313623283,796051.2139522594,796168.3058072854,796281.9941454136,796392.2784901669,796499.1695543901,796602.6881581562,796702.864188078,796799.7356037627,796893.347495658,796983.751197191,797071.003176748,797155.1646737661,797241.604714756,797333.8147490415,797434.3048832992,797545.2162417059,797668.7200713878,797807.28088521,797963.8475287347,798142.0182204584,798346.2105491373,798581.8570894763,798855.6411730616,799175.7840184708,799552.3923779369,799997.8737094771,800527.4223166533,801159.573557304,801916.812664021,802826.208529581,803920.0199972132,805236.1929357478,806818.6331250459,808717.1086719146,810986.6164609692,813686.0535246967,816876.079692411,820616.1499311109,824960.8280536558,829955.6458490816,835632.907347524,842005.4032419026,848939.2675268437,856313.1263753354,863998.9809055936,871863.31179128
H,2685417.1127945273,2685417.1127945273,2685417.1127945273,2685417.1127945273,2685417.112794527,2685417.112794527,2685417.112794527,2685417.1127945273,2685417.112794527,2685417.112794527,2685417.112794527,2685417.1127945273,2685417.112794527,2685417.112794527,2685417.112794527,2685417.112794527,2685417.1127945273,2685417.112794527,2685417.112794527,2685417.1127945273,2685417.112794528,2685417.1127945273,2685417.1127945273,2685417.112794527,2685417.1127945273,2685417.1127945273,2685417.1127945273,2685417.112794527,2685417.1127945273,2685417.112794527,2685417.1127945273,2685417.112794527,2685417.112794527,2595840.1273634564,2506263.141932386,2416686.156501315,2327109.171070244,2237532.1856391737,2147955.200208103,2058378.214777032,1968801.2293459612,1879224.2439148903,1789647.25848382,1700070.2730527488,1610493.287621678,1520916.3021906072,1431339.3167595365,1341762.3313284656,1252185.345897395,1162608.360466324,1073031.3750352534,983454.3896041824,893877.4041731115,804300.4187420408,714723.43331097,625146.4478798992,535569.4624488284,445992.4770177576,356415.49158668675,266838.50615561596,177261.52072454517,87684.53529347436,2.0249899534974247e-09,2.0249899534974247e-09,2.0249899534974247e-09,2.0249899534974247e-09,2.0249899534974247e-09,2.0249899534974247e-09,2.0249899534974247e-09
S0,188264.9289542421,186327.36682306853,184475.89976942426,182785.84997360187,181177.16338756453,179613.66830050747,178079.2433414109,176567.0836025411,175074.72609454812,173601.70526370517,172148.436217367,170715.67941077062,169304.283834733,167915.06495954323,166548.74855927585,165205.94710384312,163887.15244115202,162592.7367161233,161322.95747687537,160077.96488614957,158857.8099353878,157662.45305487158,156491.77277099478,155345.57420059232,154223.59725091828,153125.52444131958,152050.98829330728,150999.57825685423,149970.84715607806,148964.3171489858,147979.48520475702,147015.353143009,146071.91529789756,173020.38438952577,199694.16357395516,226099.6670901356,252237.53974686607,278102.9416305455,303686.1125141269,328972.7150385786,353943.78369431326,378575.2599042229,402837.140785311,426692.2662647882,450094.7507706901,472988.0499081051,495302.64834844123,516953.36809150554,537836.331762824,557825.6804595093,576770.2474171141,594490.5331488369,610776.5133827995,625387.021810114,638051.6446816302,648476.1717338258,656352.5681239103,661374.0610543767,663255.2122691377,661755.8184421911,656706.3380541285,648031.6063830075,635238.8572020533,594580.3347331878,553194.8480781035,511551.0078721521,470357.3263737877,430308.3495310255,391995.53293955274
E0,0.0,1517.3801463557918,2247.120471257999,2602.627602313835,2775.9315798818225,2857.7017836188243,2891.414686123234,2898.2119411059653,2888.559686578071,2867.7884655730977,2838.747497347192,2803.0831399674676,2761.8562410912764,2715.8399683069993,2665.662612914286,2611.875070127241,2554.9818115511875,2495.4543257339546,2433.7363209381797,2370.245235785865,2305.372264379304,2239.4819467162683,2172.911803567793,2105.972213146688,2038.9465894996652,1972.0918574263785,1905.6391898246418,1839.794962581314,1774.7418803218552,1710.6402288411102,1647.6292144766544,1585.8283558250773,1525.3339510659173,1466.2328348644867,1502.3508869111988,1600.0137609106796,1741.4013351558601,1919.5231180311773,2134.417423256372,2390.7079540063073,2696.283907336134,3061.786233341033,3500.6297918912546,4029.374002046902,4668.327794086588,5442.32279183069,6381.610016446415,7522.832324353707,8909.99896848378,10595.340115341665,12639.847416416736,15113.213975930385,18092.7828162486,21661.02022380371,25900.991164982737,30889.389923574774,36686.940393658275,43326.476613695006,50799.72827124581,59044.64013051076,67935.70141804694,77279.94669408616,86820.78270686632,96210.80379292229,103123.45859676912,107807.75254518706,110251.46860882743,110486.27800041273,108655.5267117999
I0,1211.5289157893937,1093.3185214675864,1032.1634678243972,998.8675991376298,979.4856640089982,967.1939679028718,958.554694099045,951.7697521401326,945.8507431189555,940.2196915884729,934.5149321812036,928.4955642504113,921.9935828693165,914.8892009920708,907.0975143726303,898.5607517176094,889.2433054075269,879.1281762511094,868.2141683459104,856.5135137230625,844.0497740777546,830.8559479841226,816.972750504011,802.4470497027963,787.3304520163766,771.6780309974392,755.5471943471201,738.9966836121596,722.085700129587,704.8731500265643,687.4170004594637,669.7737388467066,651.9979266164196,634.1416905152096,616.2546762576628,601.1964619545016,590.5373827083607,585.1599504071177,585.6508543995226,592.5406894310569,606.4469905483124,628.1637150412872,658.7265812952458,699.4726971509866,752.1054897337302,818.7714485581059,902.1525761819271,1005.5767194479914,1133.146308705554,1289.883772622411,1481.8884002034454,1716.4941147277943,2002.4100525177125,2349.8158792231934,2770.372006354925,3277.0930734539725,3884.0246938881123,4605.663749752462,5456.077665345825,6447.713179378951,7589.940929597205,8887.451925676727,10338.690506408826,11934.55500084527,13656.409629572408,15417.640388859485,17147.554474647826,18781.9901574662,20263.996184562217
A0,10903.760242104547,8723.008193683638,7388.099194462974,6517.201882810039,5916.4709588727665,5482.678293666305,5157.722116510126,4906.859658461374,4708.00495086771,4546.315076070247,4411.354946560934,4295.545781532489,4193.269073017207,4100.31644350841,4013.5299462496178,3930.5528624865515,3849.6485589235963,3769.5639362576976,3689.423816954326,3608.647860216769,3526.8845018355987,3443.9581128508908,3359.826615894105,3274.5474796785884,3188.2504812924763,3101.1159641988907,3013.3575728642345,2925.208639544041,2836.911551532188,2748.7095489126514,2660.8405009172207,2573.5322886424733,2486.9994869867496,2401.439756377197,2317.034670515169,2259.262475878159,2239.4136961484105,2261.709317410811,2327.6386957970667,2438.403660916874,2596.214076315202,2804.967916032918,3070.656615828413,3401.6953364733695,3809.287249731359,4307.878304188466,4915.729797145059,5655.618542156579,6555.659561300764,7650.227370531232,8980.923727567235,10597.497784486306,12558.566001090248,14931.904161259321,17793.99878943446,21228.466646092907,25322.908596239515,30163.800783279345,35829.18931232113,42379.27808309327,49845.47530171252,58219.01962424269,67440.80130679741,77394.25237629183,87892.31892512248,98157.18896122565,107633.84435618103,115874.97200932822,122531.27266757401
IH0,0.0,48.461156631575754,72.55594672876487,84.44058486089173,90.17736744291906,92.81415192169956,93.89076240899878,94.18552627083307,94.08944507403096,93.79553857165195,93.39548995991997,92.92936297015453,92.41135025198649,91.84317295994637,91.22106330199256,90.53938414142985,89.79247183094844,88.97553350249629,88.0850385378773,87.11883919785078,86.07614735440083,84.95743672102472,83.76430899091017,82.49934540438983,81.16595592646004,79.76823295688624,78.31081347132232,76.79875170835396,75.23740343555264,73.63232215227073,71.98916715424929,70.31362310283669,68.61133055654655,66.88782680327073,65.1484903214498,63.398505893265025,61.75534039216387,60.35167290668079,59.30171735454511,58.696872236097356,58.61272235881795,59.11892464396148,60.28866717806363,62.20690872000288,64.9776644408613,68.73093645112577,73.62990558936531,79.87890690315267,87.73258646955662,97.5064971592738,109.58921726381669,124.4558327630807,142.68226712102393,164.95942735827637,192.10543035254608,225.07328332748193,264.95039125807534,312.9453337223927,370.3568119755995,438.51995056346584,518.72671006154,612.120334404482,719.5684303189553,841.5247971602671,977.8952739935019,1127.8784256133067,1287.5330228530156,1451.6872316277377,1614.6985348696326
IN0,69.74923769023155,125.54862784241679,163.3826194490929,190.12903967080587,209.60929096918602,224.07764971756995,234.9446883703326,243.14094547491374,249.30733354868175,253.89967924201187,257.2493691045328,259.60069084758607,261.13520568817125,261.9884903457483,262.26210990556626,262.0324283919973,261.35721105879315,260.2806201336865,258.8370067341225,257.0537829044548,254.9535824935252,252.55586905672112,249.87811320761168,246.93663545417732,243.74719045605036,240.32535298811257,236.68675352370298,232.84720147477734,228.8227261953474,224.62955946377284,220.2840780022896,215.80272043050985,211.20188969557887,206.4978493249939,201.70661114286804,196.8438427744851,192.08670781486927,187.66734329947985,183.8222661718295,180.7744664276395,178.732883067803,177.9002195594191,178.48434779215623,180.71119288291186,184.8384738989535,191.17043452803554,200.07404581120366,211.9972908290139,227.4901443583401,247.22876827610614,272.0432395952039,302.9487636361783,341.1797278078241,388.22503792752764,445.8618747554741,516.1832874006167,601.6129842554376,704.8985555942243,829.0726773027674,977.3713693326288,1153.100021988014,1359.4424268684077,1599.2156845581424,1874.5839141597046,2186.754416354482,2535.620146516686,2916.1089922262395,3320.0933902415277,3737.377418810939
D0,10524.0,10524.0,10524.048461156632,10524.12101710336,10524.20545768822,10524.295635055663,10524.388449207585,10524.482339969994,10524.576525496264,10524.670614941338,10524.764410479911,10524.85780596987,10524.95073533284,10525.043146683092,10525.134989856053,10525.226210919354,10525.316750303497,10525.406542775327,10525.49551830883,10525.583603347368,10525.670722186565,10525.75679833392,10525.84175577064,10525.92552007963,10526.008019425035,10526.08918538096,10526.168953613918,10526.24726442739,10526.324063179098,10526.399300582534,10526.472932904686,10526.54492207184,10526.615235694942,10526.683847025499,10526.750734852301,10526.815883342622,10526.879281848516,10526.941037188908,10527.001388861814,10527.060690579168,10527.119387451405,10527.178000173764,10527.237119098409,10527.297407765587,10527.359614674308,10527.424592338748,10527.4933232752,10527.566953180789,10527.646832087692,10527.734564674161,10527.83207117132,10527.941660388584,10528.066116221347,10528.20879848847,10528.373757915828,10528.56586334618,10528.790936629508,10529.055887020766,10529.368832354488,10529.739189166465,10530.177709117028,10530.696435827089,10531.308556161493,10532.028124591812,10532.869649388973,10533.847544662967,10534.975423088581,10536.262956111434,10537.71464334306
R0,0.0,2194.701895958956,3984.0027498690497,5523.628457285584,6899.22812258037,8160.896637262897,9339.766160016565,10456.253054132376,11524.32586067577,12553.822164341113,13551.780156140263,14523.25434806041,15471.84854846164,16400.084913459275,17309.671734754782,18201.704504657984,19076.82036582874,19935.31839789814,20777.253955657576,21602.512801430592,22410.869243608013,23202.03148592297,23975.67669051725,24731.477745635286,25469.123340782477,26188.332650226483,26888.865686156387,27570.530190157355,28233.1857752267,28876.745902657236,29501.17817300945,30106.50332369599,30692.793253987642,31260.168338811483,31808.79397622755,32338.877255547326,32855.72614475124,33366.98963299733,33881.2609670349,34407.52473700575,34955.08744305694,35533.769899547966,36154.241213809335,36828.43993957614,37570.06719070386,38395.15830534457,39322.7512109555,40375.67545137466,41581.48812827639,42973.582278480244,44592.4886305449,46487.381355269004,48717.77953929191,51355.405244667854,54486.11275725252,58211.73981193942,62651.65134036236,67943.6567513613,74243.89874553918,81725.26075467795,90573.85389288965,100983.25424376063,113146.38451476104,127245.25959801687,143439.1970545106,161850.30706109508,182444.7920225326,205075.2431294024,229501.07282514148
G0,792969.0,792969.0,793014.5214043907,793081.9350185285,793160.0138465979,793243.2917939944,793329.022847503,793415.7652880866,793502.7116463198,793589.3684369172,793675.4020908844,793760.5645158048,793844.6570100038,793927.5126972365,794008.9878962857,794088.9577746731,794167.3140267769,794243.9634811234,794318.8271108954,794391.8392005236,794462.9465575971,794532.1077255285,794599.29218393,794664.4795380371,794727.6587044315,794788.8271021165,794847.9898578393,794905.159033534,794960.3528824114,795013.595138821,795064.9143456863,795114.3432221207,795161.9180727954,795207.6780913273,795251.6650763733,795296.7356029806,795344.736015808,795396.9780558626,795454.5637494036,795518.5962721013,795590.3175107215,795671.2060279415,795763.0596149418,795868.0785086986,795988.9597287601,796129.0095625827,796292.2792463376,796483.727546831,796709.4125165616,796976.7124856161,797294.5726890763,797673.7681115688,798127.1645308466,798669.9480153341,799319.7786220482,800096.8083569977,801023.490054705,802124.0982665147,803423.8925649256,804947.884413063,806719.2236169783,808757.2946595197,811075.6930603422,813680.3165415482,816566.6406553359,819660.3444132389,822894.5769895945,826202.1210478593,829516.7093878717
H0,939895.9894780845,937781.2235017588,934405.2110971524,931041.3523372026,927689.6034687887,924349.920896301,921022.2611810743,917706.5810408224,914402.8373490755,911110.9871346188,907830.9875809342,904562.7960256428,901306.3699599504,898061.6670280946,894828.6450267935,891607.261904697,888397.4757618401,885199.2448490974,882012.5275676406,878837.2824683972,875673.468251511,872521.0437658055,869379.9680082486,866250.2001234189,863131.6994029747,860024.425285124,856928.3373540975,853843.3953396227,850769.5591164001,847706.7887035811,844655.0442642482,841614.2861048969,838584.4746749193,807693.7570646799,777014.5845664425,746545.8343991009,716286.389123948,686235.1366207625,656390.970063997,626752.7878990695,597319.4938187575,568089.9967396925,539063.210778957,510238.05523078097,481613.4545433401,453188.338295653,424961.6411745784,396932.30295191123,369099.26846157765,341461.48757692816,314017.91518812894,286767.5111796501,259709.2404078514,232842.0726786648,206164.98272537263,179676.95018648225,153376.95958369575,127264.0002999749,101337.06655770064,75595.15739692688,50037.276653728084,24662.43293864046,5.691064870916307e-10,5.670577037381008e-10,5.650162960046436e-10,5.62982237339027e-10,5.609555012846064e-10,5.589360614799819e-10,5.569238916586539e-10
S1,53789.979701212025,49965.45003588962,46767.94216562767,43845.39360841608,41155.66033049213,38672.008383585395,36374.98345206122,34248.892446287464,32280.223456324988,30456.908749555736,28767.962565328056,27203.28855577056,25753.565552209628,24410.1705188184,23165.119964475787,22011.021191426582,20941.029357723914,19948.808439113738,19028.495150336596,18174.665339260813,17382.3025796949,16646.768788826477,15963.776742633238,15329.364385181132,14739.870838613624,14191.91402610357,13682.369823092811,13208.352654234779,12767.197455279093,12356.442921019201,11973.81596250281,11617.179767141946,11284.639224578845,13081.73262686046,14792.172469993431,16424.930336095393,17987.68144208508,19486.944451912215,20928.223649342603,22316.11968245384,23654.401308925462,24946.0412010343,26193.221137550994,27397.31074236899,28558.822002948895,29677.340323038425,30751.43230331896,31778.53101675805,32754.801469402082,33674.99251691442,34532.28709723942,35318.170488619915,36022.34625867217,36632.74065180027,37135.64605841852,37516.05895114466,37758.26189215242,37846.67749685249,37766.98176430336,37507.40800736699,37060.11174867286,36422.41900256223,35568.068046678825,33173.47778369528,30762.094530449154,28358.151228058578,25998.96817993723,23720.82139899975,21554.112349594492
E1,0.0,433.53718467308335,621.2327781536433,695.8959418446998,715.9881493968561,708.9380628223582,688.0998715790391,660.2409656032667,628.9471325248933,596.2107220510676,563.1910806758732,530.589939187284,498.8436462782066,468.2259965732949,438.9060402420847,410.98237117329097,384.5045893302532,359.48743146556893,335.92049835631815,313.77520416311194,293.00989020015453,273.5736736462112,255.40939155425121,238.45587702964153,222.64972915481567,207.92669071888463,194.22271684570973,181.47479682316828,169.62157706867504,158.6038229503726,148.36474971011205,138.85024711074828,130.00862714206465,121.79168466692391,121.24269296813364,125.48978082143131,132.9836269956267,143.04593082513833,155.54086250736867,170.66797881049368,188.8492267181697,210.67989750543978,236.9198162634853,268.5090452536975,306.59878921044105,352.59225260507225,408.1921133873798,475.451444099817,556.8236167385023,655.2040984959035,773.9531423090186,916.8833867868888,1088.1908961958527,1292.3035208162087,1533.6189884905789,1816.1102083829037,2142.790582820009,2515.0600912077903,2931.9921511727744,3389.664297004656,3880.6687662504355,4393.9457487954405,4915.050563247071,5424.669624749988,5793.316739395442,6036.15500182521,6153.694565581423,6148.807923699594,6030.4175626447195
I1,0.0,0.0,13.006115540192496,30.37407589528496,48.28731750774594,65.05550791790644,79.97610238248902,92.81573001281961,103.56681190832963,112.33008228017064,119.2562170675098,124.5159709641599,128.28448983814735,130.73292081648998,132.02392582532013,132.3093671679131,131.7292475689963,130.41139751092658,128.47161699830752,126.01409530751214,123.1319982614901,119.9081516165381,116.41577323149585,112.7192221185654,108.87474269364942,104.93118950699146,100.93072259282788,96.90946703174522,92.89813281358992,88.92259290854287,85.00441878971064,81.16137363179597,77.40786412717476,73.75534064889018,70.21269018862648,66.99923082163839,64.2267253470514,61.949552090709275,60.196434597101415,58.98921892441375,58.35360628660784,58.3254486075059,58.954958432052734,60.310243757003576,62.48096906437476,65.58258630235642,69.76137876203673,75.20043702899764,82.12657948725261,90.81809472677406,101.61298238689784,114.91707064675664,131.21096967982626,151.054277850757,175.0848283190097,204.01015189877003,238.58793201108767,279.5923260260713,327.76395519140976,383.74337994047517,447.990986451244,520.7000075718679,601.7130278759495,690.4546507157036,785.8262140695633,882.9516679287334,977.8856174325695,1067.082929446702,1147.4305487096894
A1,0.0,0.0,117.05503986173251,261.3768819908697,396.9934098907647,510.9115282497629,600.1424995618471,665.9009649758183,710.9858326935366,738.6043919365504,751.8604085030286,753.5499185849086,746.0992184484935,731.5671592539106,711.6747464779181,687.8444280476974,661.2407826549465,632.8088652431256,603.3086986902041,573.3454935083691,543.3956999307355,513.8292302986301,484.9282761233811,456.90315661835274,429.9056120926854,404.03991654594853,379.37213973085767,355.9378453330278,333.7484714086777,312.79660293548443,293.06031454498816,274.5067340577208,257.09495396607866,240.7782925012204,225.50638886104576,213.1406381902327,204.3947513739726,199.4213803879973,198.15950563318518,200.52363738353768,206.49926418566344,216.18870256243656,229.834534376418,247.83597789227542,270.7662245323187,299.39465271267403,334.71563037350876,377.98437491339956,430.75938983767026,494.9498883895318,572.8650173055194,667.2593622678505,781.3660042467404,918.9043453702726,1084.0454269165944,1281.3134684257318,1515.4005310039695,1790.873882164578,2111.765330357766,2481.0501451028617,2900.0494762735466,3367.8201479064546,3880.621470499933,4431.560828476656,5009.909461463822,5572.123088807826,6087.460321539068,6531.465789938238,6885.350771349481
IH1,0.0,0.0,0.0,0.5202446216076999,1.524388540146567,2.838152131751852,4.290265936550597,5.7507623563106325,7.13300582432906,8.385165013397884,9.480441612261004,10.4089238469504,11.171546686831832,11.775872057656464,12.23324344542603,12.556914083867632,12.760841081019787,12.85892580457665,12.864549579894632,12.790303208027915,12.647842881353696,12.447827977608732,12.1999113971658,11.912763102710695,11.59411408195107,11.250812265297418,10.888884773205959,10.513602752970272,10.129546324145629,9.740668000606833,9.350353534881076,8.96147952738993,8.576467418601899,8.197333674547703,7.825735642141393,7.463014540034347,7.1187408068505045,6.8030771571744335,6.524243194189381,6.288276626910138,6.0996423413373195,5.96202396293525,5.879046475818065,5.854874410872827,5.894709022889451,6.0052304375682946,6.195029866201549,6.475068428744864,6.85918908573619,7.364697939817615,8.013019672307664,8.830417010457172,9.848743344068081,11.106168496898515,12.647778641051609,14.525902971753109,16.799966517861012,19.535620796168068,22.802879604999532,26.673009848707018,31.214021308003154,36.48477955639504,42.528025340919044,49.362882926654535,56.977710972522154,65.32163908593577,74.16936912120747,83.22908487437367,92.18541771477149
IN1,0.0,0.0,0.0,0.7487783679091305,2.347696301395916,4.658118412552071,7.471821833413563,10.581781888471866,13.808943382852691,17.009625833854745,20.074684250069836,22.92547724098156,25.508922255849935,27.792636621157612,29.760567352635178,31.4092367137649,32.74460541841093,33.779502169946205,34.531549292106014,35.02151139523743,35.27199847480486,35.30646220034091,35.14843229003979,34.820947762329986,34.34614506092659,33.74497140229772,33.03699717728863,32.240305904571734,31.37144416523792,30.44541723675404,29.475718880404912,28.474386001953533,27.452070774234635,26.41812434684723,25.380686851793584,24.346782029921904,23.33465529030192,22.36533728457041,21.458783162389967,20.632610693936645,19.902171800293484,19.281227669417504,18.782851291850122,18.420391859151707,18.208449787280962,18.163867505581354,18.30676567084268,18.661662520853156,19.258713400262156,20.13510080335324,21.336592148364957,22.91926043262781,24.951328090769003,27.51504240036699,30.708417962496874,34.64658731219411,39.46238991297394,45.305718119552274,52.341055025494214,60.74262559885679,70.68668768083727,82.34075255350918,95.84995389971424,111.32133606239145,128.80740820992483,148.2869263278505,169.4621748960512,191.86784017284828,214.92757340841095
D1,0.0,0.0,0.0,0.0,0.0005202446216076999,0.0020446331617542672,0.004882785293506119,0.009173051230056717,0.014923813586367348,0.02205681941069641,0.030441984424094293,0.0399224260363553,0.0503313498833057,0.06150289657013753,0.07327876862779399,0.08551201207322003,0.09806892615708766,0.11082976723810745,0.1236886930426841,0.13655324262257873,0.14934354583060663,0.16199138871196034,0.17443921668956908,0.18663912808673488,0.19855189118944558,0.21014600527139665,0.22139681753669407,0.23228570230990003,0.2427993050628703,0.25292885138701593,0.2626695193876228,0.27201987292250385,0.28098135244989375,0.28955781986849566,0.2977551535430434,0.3055808891851848,0.3130439037252191,0.3201626445320696,0.32696572168924404,0.3334899648834334,0.3397782415103435,0.34587788385168083,0.3518399078146161,0.35771895429043415,0.363573828701307,0.36946853772419647,0.37547376816176475,0.3816687980279663,0.3881438664567112,0.39500305554244736,0.40236775348226494,0.4103807731545726,0.4192111901650298,0.4290599335090979,0.4401661020059964,0.452813880647048,0.4673397836188011,0.4841397501366621,0.5036753709328302,0.5264782505378297,0.5531512603865367,0.5843652816945398,0.6208500612509349,0.6633780865918539,0.7127409695185085,0.7697186804910306,0.8350403195769664,0.909209688698174,0.9924387735725476
R1,0.0,0.0,0.0,23.411007972346503,76.0464389167532,156.53086487534975,260.7920625675985,384.0491842562536,521.6703685992497,669.5127040959676,824.025049177379,982.2443537343974,1141.7470399744134,1300.5845507912966,1457.2166795391427,1610.4487954563792,1759.3754191841522,1903.3308211369456,2041.8464678188745,2174.6147639175556,2301.4583987340434,2422.304585406475,2537.163518723396,2646.110439718398,2749.270765736934,2846.807814577974,2938.9127164277293,3025.796165848534,3107.6817176033956,3184.800374807937,3257.386256356451,3325.6731634470743,3389.8918930335417,3450.268169823327,3507.0210675176277,3560.3618856342055,3610.8761496297457,3659.299644885352,3706.4070013893215,3752.967958856406,3799.741123237823,3847.4870734225397,3896.9910928763647,3949.0910613657697,4004.7090555799077,4064.886813082701,4130.826015919375,4203.934716686317,4285.881345928908,4378.657661712817,4484.651696910035,4606.731127738466,4748.336378353811,4913.581009712331,5107.35434206784,5335.417732067076,5604.4815598415325,5922.2452070605395,6297.378025728781,6739.416927889777,7258.557532758595,7865.322432737821,8570.102882568608,9382.5883029525,10311.118730960143,11361.894247633289,12532.381265703216,13813.747304565255,15192.057785840068
G1,0.0,0.0,13.006115540192496,31.64309888480179,52.51997714014278,73.99962162204845,95.26776350671919,115.91075965409036,135.71798862218836,154.58640259793515,172.47272425946716,189.36845667974336,205.28615485536187,220.25146424370806,234.2982441409069,247.46542534816942,259.7948964833681,271.33003416327574,282.1146571072428,292.19227205793237,301.6055281828257,310.39582488883036,318.6030350982167,326.2653168448442,333.41899315573346,340.0984850303779,346.33628575194444,352.16296725731576,357.6072111620108,362.69585847407103,367.4539731625822,371.90491565388555,376.070423067208,379.97068188146994,383.62443242147765,387.26171321052163,391.02640663516456,395.0159154450334,399.30729336978754,403.9735192450086,409.09355860932345,414.75903541086853,421.07943233603174,428.1870268239363,436.24229818154726,445.4402618578605,456.0180294360127,468.26379283763407,482.5273361606286,499.23204466278366,518.8881676176608,542.1067618869313,569.613263490538,602.2589903764135,641.0280960008997,687.0366656556171,741.5199719071041,805.8036893917044,881.2554921279382,969.2152566631214,1070.905185573261,1187.325248560774,1319.1436210246372,1466.5951379220494,1629.335226664549,1803.1347288464121,1984.2193789011685,2168.830215868611,2353.2944535795987
H1,268541.7112794527,251474.92645010323,236888.4441082736,223331.69971763238,210731.18432050114,199018.6394415244,188130.68205378504,178008.45633305228,168597.31028672407,159846.49548070045,151708.88821433505,144140.7306114596,137101.3902049048,130553.13669355314,124460.93464531477,118792.25100703159,113516.87636367197,108606.75896472373,104035.85060584306,99779.96351895492,95816.63748448722,92125.01643558644,88685.73387631573,85480.80648426573,82493.53531297678,79708.41405132915,77111.04383583208,74688.0541477474,72427.02936041665,70316.44053320593,68345.58207730982,66504.51294542469,64784.0020221577,61068.1441472059,57556.68338474252,54232.55805953557,51080.15009103362,48085.1655501166,45234.52491515974,42516.26225119314,39919.432597341365,37434.02690431787,35050.893915902656,32761.668436392116,30558.705470297693,28435.019761377465,26384.230295683814,24400.509367950828,22478.53584255793,20613.45226970449,18800.82554451003,17036.61082169734,15317.118421488765,13638.983483502805,11999.138144921744,10394.786037141812,8823.378911636943,7282.5952209765965,5770.320494940437,4284.629364562743,2823.769098804672,1386.144529473538,3.161476342938841e-11,3.140534939510482e-11,3.1203517886054495e-11,3.100875384552446e-11,3.082057891097893e-11,3.063854879339073e-11,3.046225084376218e-11
S2,53789.979701212025,56810.865655774745,59555.86337950997,62053.829268052934,64318.543001727085,66365.41589848553,68210.07799503702,69867.70725936582,71352.7234081591,72678.6653608164,73858.1611516128,74902.94359521032,75823.8877190053,76631.05768335907,77333.75694655093,77940.57853626802,78459.45388275207,78897.69948466543,79262.06109601168,79558.7553356396,79793.50872965455,79971.59425239328,80097.86545946075,80176.78831991326,80212.47086073637,80208.69073874758,80168.92085471463,80096.35312274411,79993.92050535441,79864.31742138635,79710.01863019935,79533.12268177593,79335.9086341692,93329.09277906394,107251.06648388355,121094.03967448213,134850.12318756324,148511.28138999752,162069.3385825147,175515.94971880218,188842.50309112898,202039.949402083,215098.55965249793,228007.61317919465,240755.0130238309,253326.82178003254,265706.70867514523,277875.2987879705,289809.4188861117,301481.2425962545,312857.35202158714,323897.7550217029,334554.92800638144,344772.9922491604,354487.1730238045,363623.7262091789,372100.5324088101,379828.53764807817,386714.149372728,392662.57561193756,397581.9411537038,401387.8627906853,403734.3833231512,392222.6486363282,380015.5306888495,367155.7082883659,353765.74866241554,339994.55323723605,325997.9338639291
E2,0.0,151.73801463557916,232.668240034174,279.2106233711987,308.8138557957642,329.80364488894674,346.0909722304711,359.4629357507671,370.7038162316546,380.1409476377697,387.9068471799301,394.0619241329347,398.64933734548947,401.71737859321235,403.326746528395,403.55113758246205,402.4751689652779,400.19149043548646,396.7978989548165,392.39477680307294,387.0829476049655,380.96194688281366,374.1286660334605,366.6763180388272,358.69367408052216,350.2645253038497,341.4673300812132,332.3750129746551,323.0548867647194,313.5686733331871,303.9726029304455,294.31757452956515,284.6485079105727,275.0067105133625,282.3682804568274,300.73829390971093,326.99814052290867,359.9809708127716,399.78237623288345,447.32279933500564,504.1159124964421,572.1843155284676,654.0735998177101,752.9315262001476,872.6328567742395,1017.9396381361125,1194.6912633714496,1410.0189358931032,1672.5755654957989,1992.7646205959406,2382.9398060311128,2857.531641062953,3433.038056863789,4127.796930135437,4961.444826080442,5953.967196462523,7124.271943598166,8488.279917402106,10056.623743696913,11832.166867044723,13807.6674836704,15963.977007173562,18269.1461300598,20671.094236025936,22729.778187896245,24475.332882395836,25871.18288909589,26878.499627613477,27474.8816862639
I2,0.0,0.0,4.552140439067374,11.088029593761702,18.382475354476412,25.853289875340366,33.22486133549972,40.365799152186156,47.2111456243333,53.7258094786124,59.887943360140746,65.68180710415014,71.09500861171472,76.11765966198891,80.74228559349321,84.96396201640295,88.7804559127215,92.19229065911198,95.20271805848006,97.81760654009933,100.04526341164036,101.8962101350968,103.38292764590207,104.51958584088645,105.32176843174966,105.80620174336325,105.99049382648258,105.89288844346058,105.53203702675981,104.92679054862413,104.09601232476928,103.0584120610731,101.83240090316036,100.43594119150944,98.8864818817288,97.70905235653196,97.19760650897783,97.5238584719913,98.80776253088584,101.16043662466534,104.7097700523506,109.61658396513478,116.08668598732339,124.38217057704675,134.83399213283846,147.8570562808454,163.96864718329115,183.81075873112061,208.17668076932628,238.0418881525989,274.59878148430926,319.2940284920439,373.8660592984278,440.3786211559922,521.244235213082,619.22912686286,737.4291809737948,879.2054501181854,1048.0686702549983,1247.5060092115182,1480.7502908176712,1750.501654118416,2058.622324616892,2405.8343489157546,2791.226904136841,3200.7767434161706,3622.73293255873,4045.393827829606,4457.034672123409
A2,0.0,0.0,40.96926395160638,95.59583597051208,151.86353708663333,204.87057073416298,252.943440707346,295.799315068104,333.6944447071903,367.045586148299,396.274524780837,421.7544685632507,443.80029436649295,462.67555657647654,478.6041374813486,491.78153154774554,502.3840323854612,510.575521528994,516.5121196407765,520.3451284304217,522.2226924811671,522.2905498382744,520.6921655289792,517.5684722522177,513.0573836722575,507.293198939547,500.405980983677,492.5209639088692,483.75802463025224,474.23123913067604,464.04853310450136,453.31142927482136,442.1148885428397,430.5470079701264,418.689418214709,411.1909702951106,410.1521155917104,416.4111904145537,430.32381445109127,452.20029314375154,482.53739033545276,522.1412086424016,572.2027321066075,634.3620576360678,710.7811581828942,804.23579787536,918.2323405970384,1057.1525135879222,1226.4271235614756,1432.7371015330461,1684.236128787341,1990.7826506582733,2364.159663613616,2818.248006244116,3369.103576131861,4034.872963947208,4835.469514202648,5791.9290361336225,6925.378806605467,8255.59145608254,9799.158218968107,11567.396795765493,13564.191228549256,15784.022437955551,18208.413394091443,20703.77082600514,23171.35653905099,25522.304611296684,27675.038588492986
IH2,0.0,0.0,0.0,0.18208561756269498,0.5518201102677771,1.0635046482791057,1.6666714589330613,2.3202793900094436,2.9946628027994033,3.669579179521904,4.331585242089065,4.9718114478558055,5.584352858988767,6.165201716073976,6.7115787982096515,7.221532123800335,7.693703738620027,8.127196652529912,8.521498298442802,8.876433889331992,9.192134204419325,9.469009319471557,9.707723993425393,9.90917284187357,10.074454750536017,10.204846651318157,10.301777077048811,10.366799997159935,10.401569415381974,10.407815139574623,10.38732004515407,10.341899064226244,10.273380050836927,10.183586602194282,10.07432183146449,9.947356133140604,9.824743658739155,9.731359695178584,9.688867863564134,9.714951191023909,9.82457171593222,10.031743970618866,10.351236214039382,10.800064457495038,11.398833079620951,12.173035107222626,13.154429233824604,14.38259592030087,15.90675616338827,17.787916692287446,20.101381427866123,22.93963485092958,26.41555059603092,30.665799635243758,35.85421955046935,42.17475674364202,49.853413586851815,59.14844473658553,70.34789422454199,83.76351122229248,99.72020126444627,118.54052112591853,140.52432322017984,165.9244395629595,194.9201287271846,227.58157528502323,263.38959298739104,301.56534844958605,341.17754977273273
IN2,0.0,0.0,0.0,0.2620724287681957,0.8480096996853378,1.7367098985781815,2.877774210357976,4.215016265094084,5.695922646363689,7.27474292478816,8.912856508290773,10.578109143615492,12.243871247149848,13.888125723341782,15.492689618485935,17.042586243991124,18.525550745692094,19.931642682612665,21.252939833422165,22.483291631423747,23.618115476086174,24.654223549095853,25.58967132955194,26.4236217438249,27.15622091172606,27.78848290291294,28.322181928591984,28.75975107527268,29.104187128420133,29.358961302742976,29.527935844099872,29.61528653389866,29.62543113847569,29.562963823622237,29.432594036418934,29.239093892767656,29.016507684798295,28.8089941401533,28.6617660387316,28.617899522956847,28.718252705743758,29.002874824610068,29.513063944748072,30.293707121113467,31.39580310402161,32.879204353123995,34.81567947290299,37.29242404430476,40.4161549247864,44.31791629065742,49.15870279258981,55.135958147898236,62.490923804141495,71.51667651972528,82.56649021651383,96.06187589732305,112.49929742628485,132.4541598656305,156.58028727302698,185.60285636260923,220.30276912681524,261.4908648781125,309.97126545448396,366.4944789818426,431.70248108853565,506.05641506291227,589.1178596429982,679.8595618140499,776.7860408726566
D2,0.0,0.0,0.0,0.0,0.00018208561756269498,0.0007339057278304721,0.0017974103761095779,0.003464081835042639,0.005784361225052083,0.008779024027851487,0.012448603207373392,0.016780188449462455,0.021751999897318262,0.02733635275630703,0.033501554472381005,0.04021313327059066,0.04743466539439099,0.05512836913301102,0.06325556578554094,0.07177706408398374,0.08065349797331572,0.08984563217773506,0.09931464149720662,0.10902236549063202,0.11893153833250558,0.1290059930830416,0.13921083973435974,0.14951261681140857,0.15987941680856851,0.1702809862239505,0.1806888013635251,0.1910761214086792,0.20141802047290544,0.21169140052374236,0.22187498712593665,0.23194930895740112,0.24189666509054172,0.2517214087492809,0.26145276844445947,0.2711416363080236,0.2808565874990475,0.2906811592149797,0.30071290318559857,0.31106413939963795,0.321864203857133,0.33326303693675396,0.3454360720439766,0.3585905012778012,0.37297309719810207,0.38887985336149034,0.4066677700537778,0.4267691514816439,0.4497087863325735,0.4761243369286044,0.5067901365638482,0.5426443561143175,0.5848191128579595,0.6346725264448113,0.6938209711813969,0.7641688654059389,0.8479323766282314,0.9476525778926776,1.0661930990185962,1.206717422238776,1.3726418618017355,1.5675619905289202,1.7951435658139434,2.0585331588013345,2.3600985072509206
R2,0.0,0.0,0.0,8.193852790321277,27.439039075605155,58.20441108892635,99.95576849518596,151.79373132961143,212.73452587015854,281.82313412631737,358.1705566783326,440.958992879555,529.4352674825134,622.9014677397663,720.7063683023578,822.2387602416755,926.9227491337355,1034.2146973788265,1143.6013930049469,1254.5990565329382,1366.7528680579346,1479.6367729365943,1592.8533923361988,1706.0339202412995,1818.8379313926391,1930.953056691173,2042.0945058570176,2152.0044334953427,2260.45115581169,2367.228232350887,2472.153431338797,2575.067599282391,2675.833456040903,2774.3343360818844,2870.472849272422,2964.1696023744094,3056.2766424245146,3148.0818305600774,3241.0595822818177,3336.7732366856944,3436.8639572079232,3543.086479791854,3657.3704358564705,3781.897883026565,3919.1947541144996,4072.237905196515,4244.581620731737,4440.508649517346,4665.211524554029,4925.010180196992,5227.611606635566,5582.416169406433,6000.872796927397,6496.880892193077,7087.2298878772235,7792.0572791426985,8635.292580586165,9645.038625587582,10853.824884859467,12298.65348555339,14020.752134857505,16064.95430404646,18478.64955972453,21310.286310843956,24607.461454584278,28414.277339099182,32748.238257771787,37606.80330975775,42969.138130821484
G2,0.0,0.0,4.552140439067374,11.532187640092593,19.908506341228552,29.172922015101477,39.06703136176988,49.44976052868401,60.23364860120702,71.35476308815666,82.75899151728974,94.39619693268764,106.21805465667568,118.17753477704036,130.22905613483672,142.32885853068856,154.4353926581624,166.50964772712075,178.51539244018534,190.41932940882984,202.19117271292203,213.803661141071,225.2325195475554,236.4563795285592,247.45666906972403,258.21747929213967,268.72541505125514,278.9694349536915,288.94068534293115,298.63233194587275,308.03939214586836,317.15857023378175,325.9880974696687,334.52755270698583,342.7777540223867,351.2488024360915,360.27095125338286,370.08089546907013,380.8803245934533,392.8737958804398,406.2934798604899,421.41695723538317,438.5824867012372,458.2046946957685,480.79264048177293,506.9716261850001,537.5098153290835,573.350553230227,615.65112130702,665.828388271894,725.6113268897723,797.0995210707056,882.8254703025941,985.8166120085077,1109.6505199125709,1258.493864694984,1437.1128805888598,1650.8410388968048,1905.4894364188679,2207.188148729775,2562.153154741117,2976.3831792512287,3455.3024894664354,4003.376873368229,4623.509700449007,5305.403046085894,6039.663032557769,6815.798519230645,7622.153508059049
H2,268541.7112794527,284526.33695084875,299101.6134002508,312461.48305798165,324693.96776331274,335880.79083664244,346097.8270963151,355415.5207299627,363899.27331649064,371609.80413082225,378603.4847112197,384932.64952758624,390645.8844578383,395788.2946575001,400401.75329445035,404525.13251561037,408194.51791473635,411443.40767982317,414302.8975144484,416801.8523492176,418967.06578689034,420823.4081573669,422393.9639961306,423700.1597016278,424761.8820731036,425597.5883803031,426224.40856991825,426658.24017045484,426913.8364170742,427004.8880807102,426944.09945116885,426743.2588917961,426413.3043534717,411755.565303634,397025.53352876054,382242.0323414263,367422.1719956534,352581.49276525254,337734.096386448,322892.7667962005,308069.08102395886,293273.51102666673,278515.51719426364,263803.6341952493,249145.54977873556,234548.1771004409,220017.72109496538,205559.73937511552,191179.1981007527,176880.5232243632,162667.64748805124,148544.05351672627,134512.8133246886,120576.62452743019,106737.84352708666,92998.51591844941,79360.40434262279,65825.01399716083,52393.61599471608,39067.26874676478,25846.837534735474,12733.012417762955,2.928572939708829e-10,2.9162909500190014e-10,2.904005593039088e-10,2.891722324945328e-10,2.8794461690618294e-10,2.8671817472236976e-10,2.8549333088948847e-10
S3,161369.93910363608,160405.78548249404,159541.56416968536,158743.05389906757,157993.24348672127,157282.80219671008,156606.05629870965,155959.1554640136,155339.21061740367,154743.87820427737,154171.15409528138,153619.26755166033,153086.62370315738,152571.76999419316,152073.37478737565,151590.21237747258,151121.1515812819,150665.14647862795,150221.2285678851,149788.49993868655,149366.12723393954,148953.3362595671,148549.40714568025,148153.6699877645,147765.50091107466,147384.31851078107,147009.58062697746,146640.78141869177,146277.44870515427,145919.1415460945,145565.44803592245,145215.70222726755,144869.85610384264,169410.59918058544,193860.92635825323,218221.7369699023,242492.64924764365,266672.0905776852,290757.41804700874,314744.9840407786,338630.1183444988,362407.02362327656,386068.587750179,409606.11410156824,433008.96561911626,456264.11318039295,479355.574986306,502263.73200964555,524964.5058360365,547428.3906085755,569619.3418175749,591493.5431078374,612998.0994749148,634069.7411557034,654633.6643458573,674602.6755387206,693876.8340023777,712343.7869080809,729879.9509688681,746352.6093770751,761622.8750757221,775549.348495962,787490.9650624122,774645.2360878281,760698.1699063504,745627.7488123957,729514.4316097856,712480.34357408,694669.8638401413
E3,0.0,260.12231080385,386.106679557523,448.3693736167849,479.57764624193135,495.2086377971044,502.69504252061137,505.6477475941812,505.84520949340185,504.1822877295337,501.126492042761,496.9385542495895,491.779360037657,485.7617565562327,478.97550424218633,471.4991148210625,463.40529129188945,454.76326604868024,445.6396595398969,436.0986584802645,426.201905755698,416.0082923678128,405.5737414398776,394.95102441720513,384.18962488282864,373.3356533147422,362.4318103615521,351.51739366257436,340.62834230005467,329.7973128413736,319.05378119752015,308.4241649795847,297.9310904665161,287.5957091568803,294.52843626504165,312.6398729772492,338.7960546681945,371.85275594383444,411.9467356895569,460.05162135952855,517.7468944687648,587.1381599299415,670.8783739241373,772.2565145523118,895.3346414752288,1045.1239807688428,1227.79552900675,1450.9212535903391,1723.7386283715934,2057.4239150569542,2465.347943778581,2963.2719933233216,3569.421445257397,4304.35377045622,5190.520559501299,6251.41954600434,7510.253051511396,8988.063973745304,10701.412013896961,12659.770049270262,14862.935695238779,17298.828163341837,19942.042370096417,22745.33154117788,25243.81212052862,27467.24623512011,29367.776872467166,30890.14480810519,31993.067976915685
I3,0.0,0.0,7.803669324115497,18.625455917131088,30.25922805468032,41.69412664676683,52.482237602304615,62.44233119644663,71.51918713112629,79.7163267162163,87.06377346831083,93.60264676407692,99.37787586557411,104.43483280109692,108.8178480077675,112.56961935951944,115.73103399699383,118.34117074125996,120.4373724156712,122.05533687097082,123.2292044753185,123.99163376495319,124.37386347186137,124.40576201950647,124.11586667520977,123.5314147968547,122.67836947352826,121.58144156264247,120.26410978146919,118.74864017188534,117.05610594718468,115.20640845816546,113.2182997842255,111.10938112924843,108.89617087055821,107.1068881231372,106.03553103666418,105.85339305422397,106.6807275412129,108.6301573580535,111.83252543518887,116.45329263984715,122.70494376250392,130.85881987182356,141.25845629144771,154.33573096287407,170.6307197379973,190.8159324883524,215.72542047671612,246.3889797546753,284.07121573395403,330.31446959570786,386.9834327231467,456.3076176718066,540.9157247899323,643.8535165565551,768.5745085977323,918.8913223391205,1098.8758638884633,1312.699529408326,1564.4108930301795,1857.657432895956,2195.3683144812812,2579.424748411681,3010.1069900051098,3473.72144303527,3958.803476426461,4453.57136714731,4945.735172910812
A3,0.0,0.0,70.2330239170395,160.43522261416283,249.4079089678622,329.0122916596112,396.91616553290714,453.2605939068908,499.13336697594156,535.8849001439718,564.8371378021516,587.1738630932667,603.9125001220026,615.9104273077695,623.8840161163985,628.4305990385091,630.0492402324942,629.1588208348055,626.113138500988,621.2132188765626,614.7172128909215,606.8482848667757,597.80086683273,587.745603654951,576.8332595166062,565.1978063316487,552.9588714602994,540.2236859658586,527.088645061582,513.6405684702804,499.9577292433952,486.1107043180466,472.16308799892516,458.1718648250995,444.18833333243725,434.87334445751105,432.3114412698661,437.3240877763054,450.25951432587965,471.4332300968841,501.36052184458,540.8800789822304,591.2313663668685,654.1222540530119,731.8070621715337,827.1860029355388,943.9322771560186,1086.6506145566375,1261.0692301147014,1474.2648137520914,1734.9163080670507,2053.5769912738574,2442.9450312163826,2918.0998151926033,3496.6553701772623,4198.7648472071605,5046.8951551869,6065.284448057597,7279.00483135731,8712.585108838028,10388.206000373393,12323.557438013186,14529.529554512845,17007.97508353631,19747.619582947074,22613.924938900385,25507.296434602737,28335.136903248324,31008.44862078706
IH3,0.0,0.0,0.0,0.3121467729646199,0.9306735392863448,1.7639051267981858,2.716881598343904,3.7152071395087525,4.707384218423972,5.660574874668898,6.555388951489126,7.381494720523745,8.134391962492643,8.813201255824133,9.419214428739805,9.954973038429326,10.423696639918091,10.828935611165255,11.174364760655884,11.463663464417206,11.700448016205673,11.888234891079408,12.030421921727186,12.130279583834435,12.190947792716074,12.215435564147452,12.206622062505202,12.16725824979484,12.099968747926534,12.007253750000872,11.891490935672667,11.754937404222934,11.599731662934158,11.427895713358573,11.24133622800185,11.041847972136523,10.851627181560154,10.695635420817496,10.595570798699434,10.56914881775238,10.63141102858763,10.796537400225574,11.07958017691983,11.497991362341725,12.073004514403461,12.830990113402727,13.804907627835114,15.035963370192537,16.575565982985744,18.487653796566846,20.85144720590278,23.76464828250256,27.347060861580985,31.744528235897302,37.13297401378422,43.72218016206966,51.75874904336166,61.5274927853976,73.35031374131539,87.58154577714622,104.5987916277717,124.78858075454556,148.5267081216646,176.15385163783117,207.94788447292245,244.08528725699375,284.1232813932844,327.3399305440678,372.8345802526679
IN3,0.0,0.0,0.0,0.4492670207454783,1.4317044508654484,2.887425233676571,4.71032329944593,6.789726816940876,9.026664698840609,11.338780973539471,13.660393589974403,15.940685398763815,18.14136997443847,20.234404810534713,22.19996802640029,24.02475427632318,25.700577453835244,27.223242597678993,28.591643555541953,29.807045278704003,30.872514898184626,31.7924716225712,32.572331011585035,33.2182239659448,33.736774768788436,34.13492577286229,34.41979894918435,34.5985866021387,34.67846521025577,34.666527655531326,34.56973012749151,34.394850789050636,34.1484579162414,33.83688571059664,33.466214856704,33.04226088591313,32.6000864595955,32.18466754869588,31.84184650811384,31.61522035868867,31.546150556279276,31.675259057020533,32.04456921526402,32.699932730115535,33.69365240616469,35.087348246104355,36.95518000631054,39.38756833537596,42.495566988113104,46.41603634461045,51.31775135793121,57.40853690859036,64.94344741530476,74.2338790323799,85.65730451459261,99.66703963849297,116.80108538748502,137.6886657700323,163.05265738547732,193.7057862498893,230.53838567983266,274.4958038140459,326.54430905032814,387.62555183350395,458.60115617224335,540.1765559232882,632.1277406796318,733.6154689398127,843.2900589456112
D3,0.0,0.0,0.0,0.0,0.0003121467729646199,0.0012428203122509646,0.0030067254390491504,0.005723607037393054,0.009438814176901806,0.014146198395325778,0.019806773269994676,0.0263621622214838,0.033743656942007545,0.041878048904500184,0.050691250160324317,0.06011046458906412,0.07006543762749344,0.08048913426741153,0.09131806987857678,0.10249243463923266,0.11395609810364987,0.12565654611985555,0.13754478101093495,0.14957520293266213,0.16170548251649658,0.17389643030921265,0.1861118658733601,0.1983184879358653,0.21048574618566013,0.22258571493358667,0.23459296868358753,0.2464844596192602,0.25823939702348314,0.2698391286864173,0.28126702439977586,0.2925083606277777,0.3035502085999142,0.31440183578147435,0.3250974712022918,0.33569304200099126,0.34626219081874365,0.35689360184733127,0.36769013924755684,0.3787697194244767,0.39026771078681843,0.4023407153012219,0.4151717054146246,0.4289766130424597,0.44401257641265224,0.460588142395638,0.47907579619220486,0.4999272433981076,0.5236918916806101,0.5510389525421912,0.5827834807780885,0.6199164547918727,0.6636386349539424,0.715397383997304,0.7769248767827016,0.850275190524017,0.9378567363011632,1.042455527928935,1.1672441086834804,1.315770816805145,1.491924668442976,1.6998725529158984,1.9439578401728923,2.2280811215661767,2.5554210521102445
R3,0.0,0.0,0.0,14.0466047834079,46.349682033980116,96.89381157886174,163.98677964671745,245.41032449451706,338.92218960108653,442.4570653808247,554.1899800212807,672.5393760804523,796.1461129127321,923.8450582813492,1054.6365916428824,1187.6609245676345,1322.1761014304545,1457.5396436597132,1593.1934450907588,1728.6514233301698,1863.489441420809,1997.337067834753,2129.8708092176817,2260.80851524139,2389.904712757884,2516.9466755627473,2641.7510766416017,2764.1611026930873,2884.043937112811,3001.2885385876148,3115.803658980231,3227.5160571328097,3336.3688752964404,3442.320152688755,3545.341409630708,3645.4164130229956,3743.4629885592103,3840.8318554801303,3939.057111253997,4039.7604389325925,4144.642503958376,4255.521381673289,4374.396741672639,4503.530635773967,4645.542914782041,4803.523337345725,4981.164688316023,5182.9225478880235,5414.208183189797,5681.621496049865,5993.23094419626,6358.906552186809,6790.710059379766,7303.342277979851,7914.641131225597,8646.113956033267,9523.474183003205,10577.135908970913,11842.6018361813,13360.663786135825,15177.325118933339,17343.35604394679,19913.410073680203,22944.6639087478,26494.9908390715,30620.293915827024,35349.78099308962,40692.517194770975,46638.58853425535
G3,0.0,0.0,7.803669324115497,19.386869710841186,32.83795091934473,47.22528030660266,62.08153944051579,77.16239071613413,92.33182314395955,107.5071794287616,122.63264806064761,137.66644282193045,152.57459944941812,167.32798025054782,181.9008329472348,196.27009807450037,210.41507151913223,224.3172302578889,237.9601282393493,251.3293180255462,264.41227777995414,277.1983349526251,289.6785837236595,301.8457959668558,313.69432669937197,325.2200154458568,336.42008504529906,347.29303935614564,357.8385611660229,368.0574114350245,377.9513308202657,387.5229442561913,396.7756692055788,405.71360191957433,414.34147319428075,423.177326282232,432.5565224715495,442.7204041115953,453.87598678991037,466.23438886059705,480.03593750138293,495.5683443354459,513.1824891333441,533.3088403510683,556.4765357876377,583.3365750318945,614.6902944549598,651.5241603251624,695.0517979328725,746.7639567840204,808.486674235729,882.4471125490863,971.345272348786,1078.427915706508,1207.5585288201946,1363.2741456052336,1550.8167319853637,1776.1243235307056,2045.7662427430646,2366.8086031599732,2746.601704638081,3192.4897754952444,3711.4546203954997,4309.715891498392,4992.075837733728,5749.390201349586,6573.407588403189,7454.440894577204,8381.14523882036
H3,805625.1338383582,802108.5161906511,798811.4968527629,795715.46787185,792804.2851997986,790062.9872012683,787477.7098178844,785035.6077967391,782724.78154998,780534.2092432122,778453.6837391715,776473.754049812,774585.6709747254,772781.336626815,771053.2575675142,769394.5012936712,767798.655836648,766259.7922512799,764772.4297882315,763331.5035580255,761932.3345087231,760570.6015519467,759242.3156837444,757943.7959577624,756671.6471783719,755422.739190851,754194.1876545022,752983.3361927376,751787.739821732,750605.149566278,749433.498177996,748270.8868771219,747115.5730447149,721082.9037572698,695130.8826730995,669257.8804827234,643462.5463808246,617743.7817938749,592100.7162926449,566532.6855140092,541039.210930355,515619.9813177106,490274.8357855229,465003.7482418861,439806.81317805336,414684.2326652988,389636.30446570914,364663.4111663247,339766.0102532741,314944.6250492004,290199.8364434058,265532.2753497895,240942.61583285002,216431.56884681428,191999.87653736348,167648.30705948785,143377.64986873954,119188.7114465956,95082.31142381157,71059.27906856284,47120.45010885624,23266.66386116481,5.347828846424818e-10,5.338127569605907e-10,5.328360922597513e-10,5.318529410064428e-10,5.308633597420383e-10,5.298674105168807e-10,5.28865160366411e-10
S4,80684.96955181804,81637.36789221919,82660.8774505866,83712.08575983437,84771.39100336586,85829.92573837187,86883.84545167134,87931.69792503721,88973.17639434969,90008.51815419194,91038.2108243675,92062.84737221843,93083.05386493802,94099.45315853017,95112.64655529137,96123.20458238853,97131.66249706468,98138.51831269145,99144.23222254812,100149.22683734371,101153.88792308603,102158.56546314005,103163.5749390275,104169.19876187792,105175.68780698524,106183.26301592107,107192.11703824998,108202.41589015952,109214.30061130099,110227.88890436041,111243.2767446035,112260.25092879393,113279.18481342713,134806.05308194182,156707.49428982247,178983.83848086686,201632.72580199948,224649.12984798694,248025.49443909174,271751.7620539661,295815.2063033567,320200.04526229604,344886.8322027038,369851.61734795466,395064.8631937096,420490.0848210319,446082.17990597076,471785.4139844758,497531.03853308357,523234.54737535625,548792.6268689574,574079.9335425132,598945.9433705347,623212.2572117251,646670.9022020065,669084.3060103051,690187.6867716224,709694.5310192803,727305.5695552207,742721.194183488,755656.6464137186,765858.6889744139,772564.5386314592,750185.7110427006,725811.9695281504,699617.4470334739,672015.9946390415,643488.7886736229,614518.8626139703
E4,0.0,390.183466205775,584.6335714807951,686.0641030534434,742.41741872557,776.4386181126789,798.9769293847953,815.2005028774795,827.5557466837181,837.1899293056867,844.6376079521314,850.1514784277533,853.8607520098191,855.8457953032803,856.172224280594,854.905517611954,852.1164182068471,847.8821106108376,842.2855767819292,835.4142695441145,827.3586287207816,818.2106690138652,808.062728445469,797.0064015636632,785.1316533203601,772.5260983482457,759.2744269960153,745.4579594924138,731.1543109361915,716.4371515286068,701.3760481926452,686.03637531912,670.4771419874339,654.7562947307598,680.8444030663707,734.7861008927949,809.4919845821823,902.6425046135806,1015.1069250376943,1149.943440560229,1311.8921764752372,1507.2344511530086,1743.9093740586718,2031.8135899171675,2383.2420379600126,2813.449516968114,3341.3230599881945,3990.153760072478,4788.483460115387,5770.975272202494,6979.215248699356,8462.29452156581,10276.949039839637,12486.956839273169,15161.430770880404,18371.631354531608,22186.003663567644,26663.354861528584,31844.449410468587,37742.766612830594,44335.630721626956,51557.228900792245,59295.02817781101,67364.63061774988,74238.44385344855,80008.80828519026,84551.02807263473,87740.63249638656,89515.88001758489
I4,0.0,0.0,11.705503986173246,28.102390440031947,45.94232808497584,63.73220013117661,80.80692805328374,96.89180271608872,111.8939632089742,125.80300141951321,138.64394282291457,150.45540784367722,161.27982953723262,171.15937705094439,180.13451603377987,188.24373232980815,195.52372103117668,202.00971913119895,207.73584104196686,212.73536204838038,217.04093430881858,220.68473726435704,223.6985710087438,226.11390300139846,227.96187821873937,229.2733017313695,230.07860135953578,230.40777675339947,230.29034006652927,229.75525236765483,228.83085906378037,227.5448268727223,225.92408426769853,223.99470254943668,221.781947605181,220.56773718341813,221.0902497286675,223.80295658086644,229.04549682750053,237.15044846625327,248.50968528403538,263.6190492101846,283.11444180682713,307.8078922078616,338.72909818889286,377.17613680032616,424.7780740517355,483.57163693237305,556.0935592187606,645.4893176812284,755.6373743430078,891.2853463990971,1058.1903540449566,1263.2498665162152,1514.6016994054364,1821.6630369718057,2195.0700326030073,2646.474409074145,3188.1552308761084,3832.416412653749,4590.765739756884,5472.90789609022,6485.62628230825,7631.666444988754,8907.974106241832,10265.965226883409,11664.566385315391,13062.970869938532,14420.619409552008
A4,0.0,0.0,105.34953587555925,242.13069300026206,378.9418622246394,503.6061928356154,612.5233811589156,705.7424758610273,784.6981164657414,851.198544777197,907.000116734293,953.6522475345098,992.4626972031012,1024.5125608051321,1050.6884133759913,1071.7172312565535,1088.1982747604704,1100.6300527242252,1109.4322120443062,1114.9628753665659,1117.5321530701635,1117.4125522107418,1114.846922402337,1110.0544746021462,1103.235308103906,1094.573792879622,1084.241080857724,1072.3969599751033,1059.1912170430344,1044.764637587199,1029.2497409824832,1012.7713257980008,995.4468819745631,977.3863339162576,958.6932667103113,950.7826021961691,959.0183289979899,985.7774990355812,1032.3354754741317,1099.9472501394828,1190.442529062848,1306.5649108985924,1452.2052305301863,1632.6197154199904,1854.6854416136275,2127.2237035401054,2461.410332413475,2871.2854921275925,3374.3699089216434,3992.386461368469,4752.072492589448,5686.046111220385,6833.656409799076,8241.701368595963,9964.839441480526,12065.457861322131,14612.706754781238,17680.386392988257,21343.414927003323,25672.733282429177,30728.733611407602,36553.60718396536,43163.3375503862,50540.32764831793,58620.71238544681,66940.94974878855,75155.13803603221,82952.88800843715,90052.2811807741
IH4,0.0,0.0,0.0,0.46822015944692985,1.4025785715029295,2.6719037309317635,4.1384541881163415,5.693702423115061,7.262111238686589,8.79503899612159,10.263138819862576,11.64995710970055,12.947252587130109,14.151820915318158,15.263443019138576,16.283607225401212,17.214738178891924,18.059745787461722,18.821770254558434,19.504043853120834,20.109820051102254,20.642339997538144,21.10481860585825,21.50044001146762,21.832356738575477,22.103689610703675,22.317527000547358,22.476922890033507,22.58489367971423,22.64441391803171,22.65841121768647,22.62976064897407,22.561278884015657,22.45571833170995,22.315758892267333,22.14400512342054,21.99328284596296,21.924538371583203,21.99215954608044,22.242080151305878,22.714923308229842,23.450525351593164,24.492413385576743,25.891912055851364,27.712028848876365,30.031426591253762,32.94881459552061,36.58806476602105,41.10432138218825,46.69132884207921,53.59013942717567,62.09926210350319,72.58614551323376,85.49962161815728,101.38254063778678,120.88328581471208,144.76418293536122,173.90408607284647,209.29177951765905,252.00652434205992,303.18238843226493,363.95419191041697,435.38507824765384,518.3787085170167,613.5823744018903,721.2588939768875,839.6212217842367,965.9635412702019,1097.0442474836989
IN4,0.0,0.0,0.0,0.6739005311182175,2.1570102539527,4.370565595329451,7.1655950922897285,10.384632170439303,13.885888221146791,17.550586238530997,21.2831054098135,25.00838983273549,28.668618211718506,32.219976434468286,35.62984094179977,38.87444254447817,41.936981569380286,44.806130860440305,47.474857330661486,49.939498519894876,52.19904015986591,54.25455066162495,56.10873736475486,57.765596912163545,59.23013823924386,60.50816154962618,61.60608049272723,62.53077775581711,63.28948660616033,63.889692709227255,64.33905192240826,64.64532081221282,64.81629743945871,64.85977055874389,64.7834721311961,64.59504231450362,64.37439484580067,64.22795857276036,64.26698348674694,64.6000230286756,65.33306688331508,66.57346746339857,68.43565294025916,71.0477755006599,74.55910642869716,79.14834374276907,85.03317777983631,92.48154818080789,101.82506358313816,113.47505383875387,127.94167186804935,145.85632792561043,167.9974764856392,195.31932575064343,228.98233822883995,270.38338816689725,321.18213405939173,383.3186393792846,459.01575918435566,550.7586986488568,661.2439736947182,793.2913146809717,949.7152167069053,1133.1578047270198,1345.8908432614833,1589.555905321393,1862.6692053055026,2161.679066387686,2481.394853590727
D4,0.0,0.0,0.0,0.0,0.0004682201594469299,0.0018707987309498596,0.004542702461881623,0.008681156649997964,0.014374859073113026,0.021636970311799616,0.030432009307921205,0.040695148127783784,0.052345105237484334,0.06529235782461444,0.0794441787399326,0.09470762175907119,0.1109912289844724,0.12820596716336433,0.14626571295082605,0.1650874832053845,0.18459152705850532,0.20470134710960758,0.22534368710714572,0.24644850571300397,0.2679489457244716,0.28978130246304706,0.31188499207375076,0.3342025190742981,0.3566794419643316,0.3792643356440458,0.40190874956207756,0.42456716077976403,0.4471969214287381,0.4697582003127538,0.49221391864446373,0.5145296775367311,0.5366736826601516,0.5586669655061145,0.5805915038776978,0.6025836634237782,0.6248257435750841,0.647540666883314,0.6709911922349072,0.695483605620484,0.7213755176763353,0.7490875465252117,0.7791189731164655,0.8120677877119861,0.8486558524780071,0.8897601738601953,0.9364515027022745,0.9900416421294502,1.0521409042329535,1.1247270497461872,1.2102266713643446,1.3116092120021314,1.4324924978168436,1.5772566807522048,1.7511607668250513,1.9604525463427103,2.21245907068477,2.515641459117035,2.879595651027452,3.314980729275106,3.8333594377921223,4.446941812194012,5.1682007061709,6.007821927955137,6.973785469225339
R4,0.0,0.0,0.0,21.06990717511185,69.82009486677373,146.60683474789084,249.28225207841137,374.89293776159695,520.4199289585392,683.0722985556022,860.3773499527912,1050.1826706658712,1250.6240690185282,1460.0840097022062,1677.1511183074283,1900.584722163056,2129.2853916557387,2362.271169416207,2598.658710685504,2837.648462833359,3078.513071850752,3320.588318102624,3563.266007219354,3805.988355788907,4048.2435090447057,4289.561908213218,4529.513290088868,4767.704152996854,5003.775563900603,5237.401213101106,5468.285647541525,5696.1626326425485,5920.79360704381,6141.966205570744,6359.492718288832,6573.208781971295,6785.2355986331,6998.804504582539,7217.6681686545735,7445.878567555078,7687.778954890285,7948.116144524207,8232.223243605677,8546.252006888379,8897.451812055742,9294.502775820536,9747.916811318266,10270.524437333901,10878.067866191943,11589.922491280377,12429.968865115132,13427.634480164597,14619.117399177927,16048.789728346232,17770.755443234953,19850.50173943548,22366.534730405692,25411.830642157518,29094.869027463108,33539.95733733177,38886.52451943898,45287.07568018314,52903.576855226864,61902.183444590206,72446.42514840535,84687.77465644729,98685.4308096433,114428.39297261571,131841.77855262344
G4,0.0,0.0,11.705503986173246,29.244511130597097,49.82643422220039,72.09895678396748,95.39211532734784,119.3614232088917,143.81743829521608,168.64411069572762,193.75980857489822,219.09893681346216,244.60348116629476,270.2193037265893,295.8946775856877,321.5798443141055,347.2270098424641,372.7905023886695,398.22696570699463,423.4955330104525,448.55796109677595,473.3787199583994,497.9250400288154,522.1669218821794,546.0771139290893,569.6310635287,592.8068464791473,615.5850792890278,637.9488180738002,659.883447401886,681.3765619477442,702.4178433935235,722.9989346530971,743.1132489127201,762.7559377546429,783.181269846634,805.2248528734178,829.5096124108833,856.5888875492907,887.0420953004215,921.5403985172284,960.8971638114855,1006.1141973460757,1058.4314785678357,1119.3858862653508,1190.8831474041513,1275.2866329131946,1375.5263247128405,1495.2309375150148,1638.8854413184763,1812.014699484551,2021.3911569455317,2275.259992592506,2583.5684637876952,2958.1771689658904,3413.0200920923025,3964.1690327282504,4629.74914263528,5429.649788481137,6384.983270795195,7517.266269180112,8847.33519082892,10394.052057852688,12172.902903187018,14193.841821719514,16420.99513732297,18821.25938587868,21357.79022805772,23990.009202949313
H4,402812.5669191791,409526.1097011654,416210.3473360875,422867.1098098605,429498.0720421259,436104.7744187909,442688.6326454681,449250.94689395046,455792.9102922566,462315.6168051731,468820.06854886655,475307.18258002633,481777.7971971081,488232.6777885641,494672.52226045425,501097.9660735169,507509.5869176308,513907.90904960287,520293.40731836355,526666.5108999321,533027.6067629156,539377.0428838216,545715.1312300878,552042.1505274524,558358.3488271004,564663.9458869201,570959.1353801772,577244.0869439647,583518.9480789042,589783.845910752,596038.8888238043,602284.1679752877,608519.7586992637,594239.7570906669,579535.4577793407,564407.8512185289,548857.9134787845,532886.6089091669,516494.89254985313,499683.71231655957,482454.01097554853,464806.72792650276,446742.80080917355,428263.16694844037,409368.7646512513,390060.53436783707,370339.4197285997,350206.3684671634,329662.3332392325,308708.2723461278,287345.1503711572,265573.93873631925,243395.61618623277,220811.1692056287,197821.59237622545,174427.88867833783,150631.06974213335,126432.15605304964,101832.17711551805,76832.17157879873,51433.187328420696,25636.281546432594,5.966285243630409e-10,6.010850484017283e-10,6.055334880430665e-10,6.099737888118977e-10,6.144058966536181e-10,6.188297579848017e-10,6.23245319739109e-10
E_Om,0.0,0.0,0.0,0.0,0.0,0.0,0.0,0.0,0.0,0.0,0.0,0.0,0.0,0.0,0.0,0.0,0.0,0.0,0.0,0.0,0.0,0.0,0.0,0.0,0.0,0.0,0.0,0.0,0.0,0.0,0.0,1.251257450785007,1.993195714903245,2.5082654006399085,3.1939577831612214,4.066418055285235,5.172739611818487,6.590414048764288,8.431879971661946,10.855067835099234,14.08089138170125,18.419536593480935,24.308779382337054,32.36936767901064,43.48487866172521,58.916652959365756,80.46869080784347,110.72301449418421,153.37306635345638,213.6910061764071,299.1734352338939,420.4171343484653,592.2782209867031,835.3589607431121,1177.8386005844827,1657.6097705374264,2324.5948564799633,3243.00027269393,4493.13805041991,6172.3378074838465,8394.433653482785,11287.381562749893,14988.759815314439,19630.062261077248,24806.548832668763,30594.591465423542,36901.612318284875,43581.89605126229,50462.77904710495
I_Om,0.0,0.0,0.0,0.0,0.0,0.0,0.0,0.0,0.0,0.0,0.0,0.0,0.0,0.0,0.0,0.0,0.0,0.0,0.0,0.0,0.0,0.0,0.0,0.0,0.0,0.0,0.0,0.0,0.0,0.0,4.0,3.609714988123795,3.295048297394943,3.0333421778716763,2.812623142912064,2.634010712223219,2.4989995283562534,2.4103512015600206,2.37288263619128,2.3943139033794494,2.486349730878474,2.6661802137684356,2.958623767474184,3.399210520887825,4.038626321629537,4.949118851006109,6.233726712401665,8.039554910641293,10.576815899522058,14.1460147103864,19.17650051586758,26.280628389989538,36.328908579618194,50.55259808010781,70.6808865668842,99.1196219211244,139.17668933258443,195.33489106471865,273.5658291757788,381.66780996617786,529.5981377543395,729.7575934880558,997.1756776102434,1349.542791774982,1806.768078478463,2374.675918216897,3060.8135574437483,3869.214513087849,4799.147286577698
A_Om,0.0,0.0,0.0,0.0,0.0,0.0,0.0,0.0,0.0,0.0,0.0,0.0,0.0,0.0,0.0,0.0,0.0,0.0,0.0,0.0,0.0,0.0,0.0,0.0,0.0,0.0,0.0,0.0,0.0,0.0,0.0,0.0,0.3378395117119519,0.8084344523934377,1.3239792200875256,1.9215519775235503,2.6351744569458546,3.5047792607476747,4.583235201764498,5.943195753760323,7.685424918485052,9.95018060784738,12.933419366517755,16.91010592644521,22.26781401448904,29.555168450257042,39.55163105923439,53.367851365505246,72.58949500583392,99.48232392010038,137.2824308037102,190.60277215611956,265.99484399898125,372.7109948655949,523.7157152931162,736.9889943923033,1037.1458335589477,1457.3572780967484,2041.49589610476,2846.3439904971838,3943.6064004183854,5421.38220677506,7384.69878736252,9954.724180024914,13263.896154510789,17308.885108429196,22107.647782407716,27649.55355186309,33886.75477533129
IH_Om,0.0,0.0,0.0,0.0,0.0,0.0,0.0,0.0,0.0,0.0,0.0,0.0,0.0,0.0,0.0,0.0,0.0,0.0,0.0,0.0,0.0,0.0,0.0,0.0,0.0,0.0,0.0,0.0,0.0,0.0,0.0,0.16,0.2395516798094405,0.2742799052582347,0.284466941143063,0.28169711545573395,0.2729052110765718,0.26227560933259475,0.2524075159847815,0.24503953487307695,0.24151453694768038,0.2430994096690341,0.25123526254727546,0.26777195982447344,0.2952309490274582,0.33713934351996766,0.39848486913056,0.4863556159537257,0.6108515622245038,0.786388362592606,1.0335602064416296,1.3817898512875626,1.8730712515643941,2.5672015300046658,3.5489964563686645,4.9380694295927245,6.901796736711925,9.672044054321747,13.566030047942071,19.011290708244264,26.57404354852463,36.989349508247,51.190431470299245,70.3335217281954,95.8139277641936,129.25790126536447,171.86566195067834,224.6529534624949,288.3852495641321
IN_Om,0.0,0.0,0.0,0.0,0.0,0.0,0.0,0.0,0.0,0.0,0.0,0.0,0.0,0.0,0.0,0.0,0.0,0.0,0.0,0.0,0.0,0.0,0.0,0.0,0.0,0.0,0.0,0.0,0.0,0.0,0.0,0.4605700237524098,0.7840876484568293,1.0050330941475245,1.1492058311734152,1.2362416852951108,1.2818043722383066,1.2984175781753402,1.296194119755845,1.283475325132875,1.267402806662331,1.2544528622399929,1.2509710197884516,1.2637527136449098,1.3007281973613987,1.371828145762772,1.4901339220218213,1.673456820639322,1.9465483607094107,2.3442245755405553,2.9157976690807432,3.73135459107984,4.890607775946808,6.5352657407703845,8.866114688680728,12.166228992597306,16.831868761052206,23.41256802932231,32.66152357470836,45.596506532389675,63.57002122220176,88.34532666559853,122.17240478901087,167.85541931735264,228.80125533690386,309.01844756664883,411.94949863120974,540.67191394011,697.7046189293553
D_Om,0.0,0.0,0.0,0.0,0.0,0.0,0.0,0.0,0.0,0.0,0.0,0.0,0.0,0.0,0.0,0.0,0.0,0.0,0.0,0.0,0.0,0.0,0.0,0.0,0.0,0.0,0.0,0.0,0.0,0.0,0.0,0.0,0.00016,0.00039955167980944056,0.0006738315850676752,0.0009582985262107382,0.001239995641666472,0.0015129008527430441,0.0017751764620756387,0.00202758397806042,0.0022726235129334974,0.0025141380498811773,0.0027572374595502113,0.003008472722097487,0.003276244681921961,0.003571475630949419,0.003908614974469387,0.004307099843599947,0.004793455459553672,0.005404307021778177,0.006190695384370781,0.00722425559081241,0.008606045442099973,0.010479116693664367,0.013046318223669032,0.0165953146800377,0.021533384109630425,0.028435180846342348,0.038107224900664094,0.05167325494860617,0.07068454565685042,0.09725858920537507,0.13424793871362206,0.18543837018392131,0.2557718919121167,0.35158581967631025,0.4808437209416747,0.652709382892353,0.877362336354848
R_Om,0.0,0.0,0.0,0.0,0.0,0.0,0.0,0.0,0.0,0.0,0.0,0.0,0.0,0.0,0.0,0.0,0.0,0.0,0.0,0.0,0.0,0.0,0.0,0.0,0.0,0.0,0.0,0.0,0.0,0.0,0.0,0.0,0.1567909244659933,0.4780105112669436,0.9515763918999167,1.5612036866147734,2.3066330549311407,3.200345498435123,4.267004732020608,5.544921475368048,7.089308205672388,8.977501352678702,11.316696302959002,14.255131398379469,17.998144786070196,22.831194655863925,29.15287606415402,37.52230889720904,48.72717042897687,63.8813040863361,84.56449614166812,113.02193865180863,152.44732594671999,207.3815692951985,284.26856321178184,392.21954270113616,544.0467068784125,757.6321658013694,1057.6958726314977,1478.0111630440724,2064.0842107176454,2876.261540552666,3993.1592796687587,5515.226264514109,7568.1731564958345,10305.443574175577,13881.274303516842,18454.667144848612,24183.523869477667
G_Om,0.0,0.0,0.0,0.0,0.0,0.0,0.0,0.0,0.0,0.0,0.0,0.0,0.0,0.0,0.0,0.0,0.0,0.0,0.0,0.0,0.0,0.0,0.0,0.0,0.0,0.0,0.0,0.0,0.0,0.0,0.0,0.0,0.0375377235235502,0.09733359497064753,0.17258155698984476,0.2684002904846814,0.39039283214323833,0.5455750204977929,0.7432874419607215,0.9962438411105798,1.3218958761635566,1.744322617614594,2.296908715419022,3.0261720968891335,3.997253127259452,5.301799487111207,7.069299075892181,9.483359800127483,12.805050234953008,17.4062422255567,23.816972410848912,32.792175467865725,45.404689498319684,63.17303612792077,88.23380495021414,123.5689629677486,173.29725608387136,243.03510177827025,340.3251099590881,475.1192514716853,660.2893856962007,912.1223953006842,1250.743842183181,1700.4066366426139,2289.308504474931,3033.5049694549934,3951.342713417699,5058.391082966245,6365.847964504113
beta,48.31568616806899,48.31568616806909,47.05144205570973,46.111467773605696,45.325355959561534,44.62092241985875,43.96615903617004,43.346484129335174,42.75508893705698,42.18867015510107,41.64550213228351,41.1245567064416,40.62510058357042,40.14651278821026,39.68820415666393,39.24958419233636,38.830049747457686,38.428983536967,38.04575683511519,37.67973370063458,37.33027549989449,36.9967451777119,36.67851105137968,36.37495005909215,36.08545046707034,35.80941407255665,35.546257952936195,35.29541581464696,35.05633899422412,34.82849716032722,34.61137876118373,34.40449125722364,34.20706414521797,34.01897936210553,35.351827560635115,36.39249504753213,37.2193263359279,37.88372422814256,38.42007358505014,38.851721786759576,39.19462902328465,39.45961398031359,39.653745168385484,39.781209014995305,39.843855344655445,39.84154401752069,39.772372857767664,39.63284406026339,39.41801623388708,39.12168707401179,38.736653527519714,38.25509837996308,37.669149677960306,36.971646253122785,36.157112342692656,35.222892624031864,34.17032848377296,33.005781692059664,31.74126138114081,30.394419763004258,28.987775741673655,27.547194898927714,26.09984834799724,24.664929574000006,22.951434176024577,21.39036535759473,19.976233144273664,18.708118823014576,17.580949785226768
