series,2021-12-01,2021-12-02,2021-12-03,2021-12-04,2021-12-05,2021-12-06,2021-12-07,2021-12-08,2021-12-09,2021-12-10,2021-12-11,2021-12-12,2021-12-13,2021-12-14,2021-12-15,2021-12-16,2021-12-17,2021-12-18,2021-12-19,2021-12-20,2021-12-21,2021-12-22,2021-12-23,2021-12-24,2021-12-25,2021-12-26,2021-12-27,2021-12-28,2021-12-29,2021-12-30,2021-12-31,2022-01-01,2022-01-02,2022-01-03,2022-01-04,2022-01-05,2022-01-06,2022-01-07,2022-01-08,2022-01-09,2022-01-10,2022-01-11,2022-01-12,2022-01-13,2022-01-14,2022-01-15,2022-01-16,2022-01-17,2022-01-18,2022-01-19
S,3786466.0335706305,3784390.028084616,3782575.558507557,3780952.428137841,3779474.823116771,3778112.113220649,3776843.3603843017,3775653.9159902427,3774533.2690975484,3773473.6649933946,3772468.15589081,3771513.2808136684,3770605.2540435423,3769740.9268384045,3768917.6073661433,3768132.939137676,3767384.818203678,3766671.33618176,3765990.74058998,3765341.4068398243,3764721.818130226,3764130.5507301963,3783984.9116707733,3803828.5408191243,3823658.8735119426,3843472.326551729,3863264.129768212,3883028.0189610627,3902755.7289246367,3922436.1732402625,3942054.099141093,3961587.806707532,3981005.0898596356,4000255.543591123,4019254.7781793186,4037848.642002559,4055721.7925153608,4072135.6363031333,4085294.0013438445,4094697.3582392973,4105135.5124472617,4113228.4645302845,4121918.18130235,4129482.880508129,4136851.373239668,4143776.796616804,4147814.1780516957,4134710.828565715,4125878.592896031,4118204.6327774255
E,0.0,2076.005486015093,3371.722048437004,4152.325272184977,4592.345726543109,4807.518582928112,4874.966907018876,4846.2527767832025,4755.916242609935,4627.110246291851,4475.343419474017,4310.967528005586,4140.880389639082,3969.6337665981778,3800.1942117768335,3634.4573522790142,3473.5961740872954,3318.297239015492,3168.921063701284,3025.611073075238,2888.3676217276716,2757.0982524545693,2631.6517713660023,2548.2312905452854,2498.8931002162835,2478.6939252379184,2485.1089745198024,2517.733549025608,2578.2584205279372,2670.763454449306,2802.460833247273,2985.1846688961823,3238.279672523612,3594.3872863793586,4111.8459123168805,4903.8996415303445,6216.015524389794,8653.709007882706,13723.501823173741,21260.677542954705,25875.90129041427,31657.32698332274,35388.710682583216,39288.98728288048,42393.30081087673,45142.874105424344,47529.207925441064,48572.23713691811,45129.56498821261,41394.5730421209
I,32617.137149013663,29847.638179463884,27780.173200209454,26179.6519868122,24890.581621623158,23809.92257163572,22869.412273123828,22023.9286763236,21243.7769299922,20509.551344993204,19808.700875131173,19133.22794734465,18478.142089823818,17840.427834645918,17218.349411639334,16610.985588694923,16017.919666894784,15439.034124495225,14874.375820930778,14324.068714260266,13788.258492514868,13267.078553198606,12760.630174207858,12268.972031655234,11800.299621774768,11360.326087370371,10953.16776749962,10582.023679511634,10249.730200654743,9959.263114916246,9714.263064931061,9519.683533365196,9382.718807063386,9314.302788039393,9331.781798149457,9464.149154025281,9763.404097123232,10332.334305784616,11401.175606775454,13519.419843140866,17152.858417305164,21515.712616320227,26808.31812879675,32490.69167912296,38567.72104606668,44826.89028137758,51172.955654455254,57516.849101058,63556.65613316581,68309.39668615887
A,3624.126349890407,2899.3010799123253,2371.316165393574,1981.305646911611,1688.8029742005479,1465.7960833341715,1292.7673178929313,1156.029706743838,1045.9221080818013,955.5786965126416,880.0853582823636,815.8983326459015,760.441281313098,711.8254965756072,668.6537518686639,629.8823942733134,594.7238694542086,562.5774445599608,532.9796891413215,505.5688674418985,480.0591747640199,456.2219762100639,433.8720535379176,412.85745411540665,393.9612605334927,377.6114411527989,364.02684792072824,353.3194728225462,345.5687968120558,340.88065371955895,339.44165843657925,341.5813211569314,347.85896126107554,359.20542060675507,377.18101824002724,404.4917715296042,446.1322418876251,512.231818129527,626.0246535747494,843.7430913242451,1206.2570657130495,1611.5936260262006,2080.329352197921,2548.5578862952843,3020.600968758079,3475.806135377956,3908.6767073186907,4314.602962162442,4665.407218348348,4860.025004984456
IH,0.0,1304.6854859605464,1844.943584672868,2031.8337767601392,2061.0711340757975,2024.0977607687496,1962.421685489035,1894.0249119839814,1826.0755781329506,1760.9627906880305,1699.1024863530552,1640.2001756954214,1583.7890055658015,1529.4363973702875,1476.80587567361,1425.660108426705,1375.8438176527227,1327.2628516844998,1279.8655279703744,1233.6279312944482,1188.5430862863402,1144.6133397574786,1101.845198666926,1060.2459611031104,1019.8216158566615,980.902971183465,943.883626115364,909.1246401315512,876.9341426061096,847.5793451866383,821.3126178447824,798.4055189017888,779.1916952666004,764.1254082205689,753.8706902236397,749.4527463475744,752.5428865884509,766.0550642925662,795.5548493133751,853.0288940783923,966.4382118707523,1168.367004415712,1443.6436398562494,1792.7109014401383,2194.1904069835477,2637.6098549274575,3109.242928863904,3598.430447681298,4096.290757435288,4586.3153332868405
IN,1464.8134835892333,2833.68233171455,3988.514557234107,4974.857334136146,5824.716774290371,6561.019522033529,7200.563101168544,7755.979179727473,8237.045656452978,8651.566406436,9005.96265807634,9305.671393189985,9555.414308111947,9759.379711454507,9921.346156850786,10044.766752081858,10132.827055987493,10188.485261046559,10214.500521616897,10213.453373091352,10187.760893807837,10139.688387292503,10071.358771483523,9984.760462454406,9881.75427100946,9764.447179839566,9635.064738565345,9495.8715862836,9349.127694928806,9197.072389049481,9041.93195886483,8885.950372357995,8731.447076144766,8580.912684650773,8437.165712273805,8303.619073501968,8184.764208598113,8087.133621102233,8021.448063306446,8008.065817627094,8090.689013571744,8331.07568611798,8751.649957775331,9382.364120699787,10226.958322875429,11289.14724107305,12562.858295431684,14038.139326111634,15701.69004905072,17527.52256824299
D,8411.0,8411.0,8412.30468548596,8414.149629070633,8416.181462847395,8418.242533981469,8420.266631742237,8422.229053427727,8424.123078339711,8425.949153917843,8427.71011670853,8429.409219194886,8431.049419370578,8432.633208376146,8434.162644773516,8435.639450649189,8437.065110757618,8438.44095457527,8439.768217426952,8441.048082954923,8442.281710886218,8443.470253972504,8444.61486731226,8445.716712510926,8446.77695847203,8447.796780087889,8448.777683059072,8449.721566685186,8450.630691325316,8451.507625467922,8452.35520481311,8453.176517430953,8453.974922949856,8454.754114645124,8455.518240053345,8456.272110743568,8457.021563489916,8457.774106376506,8458.540161440797,8459.335716290112,8460.188745184189,8461.155183396062,8462.323550400475,8463.767194040334,8465.559904941772,8467.754095348755,8470.391705203683,8473.500948132547,8477.099378580227,8481.195669337665
R,0.0,820.7699054419982,2238.5778041344793,3896.5587694072265,5634.587742773284,7384.4002777942405,9119.35225238725,10830.750257892138,12516.981861966426,14178.726920890353,15816.997829609105,17432.45271628983,19025.2498321392,20595.10800315327,22141.426356851607,23663.40383131535,25160.138145050096,26630.700519401336,28074.188713610052,29489.76268294191,30876.667101830517,32234.244313647127,33561.94048456846,34859.3070407886,36125.99890739293,37361.95250266531,38567.49324912415,39743.3329117094,40890.53451635709,42010.47907704342,43104.849055102226,44175.63624085639,45225.181084738884,46256.254647240894,47272.20442200946,48277.20659417758,49276.71469927765,50278.31102747381,51293.488599459706,52341.87225605428,53461.66009140662,54716.067163332955,56168.251164352,57879.36805714971,59899.9757863412,62271.05243157684,65024.452738571694,68183.67120777389,71765.29894252334,75774.9795201507
G,1049108.0,1049108.0,1049574.8777131736,1050333.152144544,1051266.9782545853,1052299.7615903488,1053380.9356513792,1054477.2783232448,1055567.1634074252,1056636.73249785,1057677.3341075003,1058683.8045216803,1059653.3080584481,1060584.5603021742,1061477.3004936478,1062331.9350286531,1063149.2966149733,1063930.4817559428,1064676.741357383,1065389.4074025424,1066069.8441298371,1066719.4158574266,1067339.4661105557,1067931.3044121212,1068504.382087292,1069066.3639818258,1069623.8032368121,1070182.6851871856,1070748.904154172,1071328.734700601,1071929.3689197493,1072559.6208694184,1073230.9660084385,1073959.230272819,1074767.5804086109,1075692.3030210491,1076795.1524430243,1078193.0866645994,1080139.2394562399,1083225.5497724195,1088006.9131063025,1093826.2048674042,1100945.694929797,1108904.3445706293,1117740.1365081258,1127274.0647514693,1137426.350942616,1148115.3053093832,1159038.828946949,1169188.1220197012
H,507925.12904100405,507925.12904100405,507925.12904100405,507925.12904100405,507925.1290410041,507925.1290410041,507925.1290410041,507925.12904100405,507925.1290410041,507925.12904100405,507925.1290410041,507925.1290410041,507925.1290410042,507925.12904100417,507925.12904100417,507925.1290410042,507925.1290410042,507925.12904100417,507925.1290410042,507925.1290410043,507925.1290410042,507925.1290410042,493279.40181156667,478793.32654660376,464473.24376112176,450325.83155090065,436358.12530038063,422577.53674044914,408991.8719069341,395609.3474273401,382438.60441637936,369488.7190875681,356769.2089866656,344290.0335222824,332061.5872109,320094.6837722557,308400.528915598,296990.67936317495,285876.9853885234,275071.51393863495,264586.4493089782,254433.96841135313,244626.08799391106,235174.48182924927,226090.26697344697,217383.75980025888,210099.56835288717,210099.56835288717,210099.56835288715,210099.56835288715
S0,1325263.1117497208,1321139.5893297247,1315383.355394551,1309751.6207477106,1304219.2632053022,1298769.4472898105,1293390.6347684388,1288074.7266866425,1282815.88547964,1277609.7773700177,1272452.6383781196,1267342.326779434,1262276.6648894579,1257253.8146306153,1252272.1801635874,1247330.3425425715,1242427.0155723526,1237561.0157609063,1232731.2416778456,1227936.6596107087,1223176.2934518622,1218449.2174367683,1220364.9071966796,1222167.6194895029,1223853.5070370773,1225418.0496954364,1226855.9677778475,1228161.0632116145,1229325.9573423453,1230341.667232701,1231196.9113448923,1231876.932413741,1232361.4016974468,1232620.4441844511,1232606.476258149,1232235.6976620737,1231340.796201889,1229535.5377701367,1225888.9047009991,1220159.6713786537,1214844.6959584286,1208196.8253040817,1201734.053825347,1194573.9808485927,1187192.4851372817,1179465.3264256334,1171053.0366183515,1160335.0466849038,1151798.147407412,1143882.080383167
E0,0.0,1144.2549922917838,1862.0730290395961,2296.3706380497297,2542.7571418609377,2664.725090629233,2704.6459357131444,2690.893317943143,2642.510563737551,2572.2943167030403,2488.844423701411,2397.9269141052478,2303.407779372814,2207.8602067744832,2112.981787775202,2019.8765686114245,1929.246125120344,1841.5192433566706,1756.940075225773,1675.628151524131,1597.6192873845093,1522.893492972512,1451.3940330774703,1402.9596281766335,1373.1631551581831,1359.2269665989904,1359.6956218630853,1374.263625584214,1403.7511668722277,1450.2497591912309,1517.5054779479517,1611.6941970749172,1742.9292527175642,1928.2834640685073,2198.264348063497,2612.056464683741,3297.82561284103,4571.25725622736,7215.278763799663,11129.04481057524,13498.85656430907,16449.76864669568,18320.212371967144,20255.599254457928,21763.509986683806,23071.699772096807,24178.072078131212,24595.843716970427,22775.86946946236,20820.718390173
I0,32617.137149013663,29847.638179463884,27570.629659651302,25648.39215886153,23987.040740830296,22522.163978910092,21209.098564570693,20016.502534953597,18922.076166215436,17909.69588699428,16967.485034436508,16086.509424675662,15259.890205118338,14482.202033705511,13749.058920572445,13056.82906257774,12402.437322050671,11783.227448197713,11196.865161372129,10641.269291918245,10114.562262442278,9615.033973920847,9141.1150351171,8691.356551424764,8268.894228989462,7875.601897240232,7512.569608417523,7180.467541728722,6879.840268354673,6611.370574547876,6376.1536369822325,6176.034105254628,6014.088907702526,5895.408124508545,5828.489186710031,5827.96892084482,5920.551504107901,6159.497185427215,6664.539161987119,7721.318527597725,9568.543444514788,11791.874237549751,14490.061019649655,17379.795043655893,20459.41738132888,23616.668636949555,26800.04168249923,29961.931331131964,32949.30071423541,35273.71634022231
A0,3624.126349890407,2899.3010799123253,2348.0335497760016,1924.9563891787348,1597.3469053332879,1341.4160332790716,1139.7190752268934,979.3590523308519,850.7273830952037,746.613057664526,661.5670311557308,591.4449609521307,533.0754547144784,484.0180021081702,442.3844937637067,406.70686166347105,375.8382393413458,348.8786646272687,325.1188823069007,303.9975890855645,285.0687291674587,267.976352865797,252.4352009244334,238.21564823691926,225.62972539527578,214.81643175792175,205.81755885558937,198.63017130870514,193.24428708415874,189.67241547111473,187.97682671629553,188.30094408716582,190.91382916274245,196.2834436219249,205.210773041951,219.09892884021605,240.54930611293008,274.8456326356694,334.103250610144,447.57825169821933,636.1555825384784,846.234390501702,1088.0349365551733,1328.2140900212955,1568.718931419485,1798.8025333930586,2015.558509459964,2216.609362201673,2387.889337476762,2479.4357342406834
IH0,0.0,1304.6854859605464,1844.943584672868,2023.4520351378133,2035.6382518882301,1975.2651173254387,1886.5438527017977,1789.7493250810248,1693.7450146135752,1602.0618089407915,1515.816678141226,1435.091923769932,1359.5712469482226,1288.8216604318966,1222.4100899037367,1159.9449916848625,1101.0857133538561,1045.539263845601,993.0531905868634,943.40814855773,896.411437807037,851.8917979634026,809.6953661405718,769.6825891088293,731.7258740222965,695.8869802967045,662.2716790576649,630.9763521864757,602.0759014102002,575.6294855378768,551.6939362653155,530.3414196756817,511.6817326283503,495.8927408896478,483.26680268427606,474.289702007855,469.7893181357124,471.2469299140365,481.53210544419284,506.866087096137,561.7789185648813,663.0694181444674,802.5466091560793,980.0731987548697,1184.2483279249157,1409.316610887688,1647.9157343109387,1894.3116187211276,2143.7387509871214,2387.69766531199
IN0,1464.8134835892333,2833.68233171455,3988.514557234107,4965.44687600163,5792.064178834133,6489.92824965421,7076.295911633839,7565.287874796419,7968.692402630715,8296.524167122356,8557.417785027614,8758.90893665832,8907.638490466526,9009.503416357644,9069.770786887524,9093.165711861697,9083.940706669551,9045.931646477959,8982.603867906857,8897.090898645836,8792.227557790195,8670.57866431204,8534.464243288865,8385.981878886569,8227.026695562665,8059.510510394666,7885.304069694274,7706.204540222998,7523.921472407314,7340.076898198684,7156.217270639993,6973.836934424471,6794.41519728966,6619.472655732933,6450.658899898499,6289.897086363995,6139.641735743582,6003.385865103256,5886.785582053441,5800.503658248443,5767.332406097841,5819.291473120004,5967.695520587169,6227.552904986304,6600.165738611654,7086.676344637064,7683.110731331645,8383.442051517688,9179.9002972235,10058.351610700516
D0,8411.0,8411.0,8412.30468548596,8414.149629070633,8416.173081105771,8418.208719357659,8420.183984474985,8422.070528327686,8423.860277652766,8425.55402266738,8427.15608447632,8428.671901154463,8430.106993078232,8431.466564325181,8432.755385985613,8433.977796075516,8435.137741067201,8436.238826780555,8437.2843660444,8438.277419234986,8439.220827383544,8440.11723882135,8440.969130619314,8441.778825985455,8442.548508574564,8443.280234448586,8443.976121428883,8444.63839310794,8445.269369460126,8445.871445361536,8446.447074847074,8446.99876878334,8447.529110203015,8448.040791935644,8448.536684676534,8449.019951479218,8449.494241181226,8449.964030499363,8450.435277429277,8450.916809534721,8451.423675621818,8451.985454540383,8452.648523958527,8453.451070567684,8454.431143766438,8455.615392094363,8457.02470870525,8458.672624439561,8460.566936058283,8462.71067480927
R0,0.0,820.7699054419982,2238.5778041344793,3891.902246283712,5613.854116445336,7330.520266034997,9011.523461989622,10646.233456601622,12232.502940188726,13771.466752890721,15265.238933283752,16715.967759586107,18125.507375998553,19495.354472761825,20826.687393348908,22120.4353131237,23377.34751461005,24598.0521187055,25783.1020064683,26933.00895964353,28048.268071485447,29129.37455351082,30176.83479162193,31191.173149043407,32172.935678199083,33122.79117102225,34041.59232219894,34930.37560334038,35790.342803550695,36622.84314118796,37429.36415824817,38211.53555861509,38971.14969278418,39710.20451599909,40430.9801071206,41136.17096866234,41829.121083324666,42514.26942247973,43198.08113355118,43891.24968900115,44614.12880763762,45400.007105828314,46281.949711316134,47291.71142100826,48455.292799967414,49793.468687631765,51322.06166674163,53052.37159137367,54991.96102055884,57142.68767384788
G0,1049108.0,1049108.0,1049365.3341726153,1049784.1001168366,1050300.5362627492,1050872.3828438611,1051471.6590812937,1052079.9132106379,1052685.0744817127,1053279.3548424079,1053857.8441076248,1054417.5661318728,1054956.8415054479,1055474.8602504772,1055971.3910791718,1056446.5844790444,1056900.8392291395,1057334.7118875273,1057748.855442973,1058143.9777921336,1058520.8137132246,1058880.1060390112,1059222.5931066973,1059549.0004941737,1059864.5153554254,1060173.3292184006,1060479.0089394439,1060784.794057462,1061093.8554077966,1061409.5482800307,1061735.6983290853,1062076.9736735125,1062439.4313385496,1062831.402761175,1063265.0589244748,1063759.4317181346,1064346.8631855014,1065088.5188752094,1066116.559575724,1067739.220436615,1070242.057267234,1073277.8465874721,1076977.2734048564,1081097.3486718507,1085652.6776064727,1090547.12410079,1095735.7724454994,1101173.2354372027,1106704.6520666415,1111826.770444975
H0,177773.7951643514,177373.80412523163,176735.2584303808,176099.01150003143,175465.05505863132,174833.38086042023,174203.98068932272,173576.84635884117,172951.96971194935,172329.34262098634,171708.9569875508,171090.80474239562,170474.877845323,169861.16828507985,169249.66807925358,168640.36927416828,168033.26394478127,167428.34419458004,166825.60215547954,166225.0299877198,165626.619879764,165030.36404819685,157825.8983518557,150748.24948610307,143799.88071379258,136983.39067251442,130301.51715125312,123757.14018056585,117353.28418475187,111093.1188898041,104979.95861746806,99017.25952307116,93208.61425299881,87557.74340761836,82068.48309906575,76744.76779423073,71590.60753737505,66610.05856294296,61807.18624989081,57186.019351413335,52750.4944804967,48504.38996963581,44451.24848397421,40594.28818476218,36936.30284585537,33479.55214240246,30615.591805741104,30505.375675240437,30395.55632280957,30286.132320047458
S1,378646.60335706314,354276.1069755936,333473.22207189386,314174.0750131255,296262.53104615235,279633.63495201344,264191.72753645974,249849.13312821498,236525.19332940836,224145.51946820182,212641.3150845789,201949.10703760173,192010.05490202556,182769.66398436314,174177.44373708477,166186.59971820863,158753.7535455824,151838.68685495347,145404.10627729606,139415.42711457485,133840.57384234172,128649.79588093325,124489.8219124973,120602.42382400985,116969.40637275555,113573.66886261808,110399.13162829363,107430.66057777284,104653.98797111245,102055.62563890817,99622.7633151121,97343.13776687573,95204.84334097146,93196.01929054053,91304.25876312102,89515.32637012225,87809.95093335702,86154.7547311058,84480.90350406362,82770.47917179522,81189.23199125513,79613.56954656687,78138.98628862655,76701.91645270621,75328.18102903782,74004.81660870252,72706.16924670982,71328.95449939433,70145.72542449924,69054.22580295087
E1,0.0,326.9299977976526,514.400320104445,613.9247304292063,657.261908781092,665.063103058886,650.8367001232608,623.4448531204671,588.6997422883294,550.39681519503,510.9905748287098,472.03951082891314,434.50542722228226,398.95019263150544,365.6696314689027,334.78408462183637,306.2998515300349,280.1509335626938,256.2273727252365,234.39442309243253,214.50542806985413,196.41036438830926,179.96139917276184,167.0483513034442,156.96010089934097,149.20111294180396,143.44087130910702,139.48227445568125,137.2460329230992,136.77088169373928,138.23312366454803,141.99538838955823,148.70760205728823,159.51379964827083,176.49815199264424,203.73517441823702,250.05849032066206,337.1512220158071,518.2127116263637,782.6837261437609,936.5109840734099,1125.1349953176577,1238.095664726816,1352.2233986152546,1436.140445850611,1505.3449101819472,1560.3390838008245,1571.4800531000315,1444.7317563380118,1311.2535813654536
I1,0.0,0.0,73.52404931864955,182.965859329531,305.49731620068576,427.37090932686,540.6507271748148,641.1126236822258,726.8841524407154,797.5589699577124,853.6188021419707,896.056470781156,926.1309902070983,945.2107750491688,954.6744087240002,955.8499487080135,949.9797517616945,938.2021036721939,921.5437965673945,900.919709643027,877.1367369982456,850.9002779587001,822.8220977895066,793.4287707026019,763.6271656244858,734.0872244490886,705.310562733495,677.6818736573264,651.5088597374635,627.0552650878575,604.5711506892992,584.3249941839601,566.6440295654414,551.9738690267203,540.9795728256796,534.7384454417031,535.1526454125487,545.9494344437247,575.4159629036292,643.0998489136994,764.5142450865918,910.2139979421269,1085.9625773016194,1272.1924523827815,1468.2761273335962,1666.5827709512507,1863.6148854094326,2056.284904709461,2235.1009620428704,2370.229149432637
A1,0.0,0.0,8.169338813183284,19.3893251748295,30.85223389098498,41.105471871002166,49.50299878464637,55.86553043559692,60.27108727566687,62.927320639927764,64.09519237991043,64.0448051878118,63.03118481384143,61.282385452570786,58.994890453472735,56.33327856742441,53.43221987764844,50.39960786135464,47.320108124096116,44.25870551590138,41.2640208806561,38.37128623309151,35.6049383980225,32.98083278198057,30.558876573899276,28.369226035175554,26.423623727649534,24.723204751783477,23.26395200727487,22.040670525977344,21.050172244538594,20.294312175552108,19.7836357297305,19.54281961515425,19.62019238647197,20.106496224785616,21.1761390138957,23.189381967253667,26.976252713802708,34.530120474938,47.18182612486845,61.14703182548057,77.03254011868484,92.56361211642658,107.84029772794452,122.15856848090242,135.34246878410997,147.2637854603777,157.07922975213245,161.76439408279836
IH1,0.0,0.0,0.0,2.9409619727459817,8.786174397581485,16.604193672420593,25.380329015612276,34.29081326578312,42.75562076691481,50.41042086031911,57.057158807607735,62.61627433067509,67.08777972225312,70.52204168968825,72.9989298051212,74.61344232171548,75.46610566685658,75.65677679822922,75.28081576920414,74.42687893152865,73.17580097255387,71.6001941652342,69.76450800679987,67.7253734069734,65.5321121581838,63.245610591913156,60.92304866332821,58.61302379234058,56.355173818671005,54.18158612501537,52.11882207989697,50.19013824544056,48.41787875183324,46.826282679782445,45.44526981828025,44.31637255234903,43.50340772129029,43.1143062694258,43.35201620619246,44.6492946030352,48.00399196346254,54.53456179323148,63.62130625250758,75.18553491206606,88.40528001643223,102.84527982154353,117.98310546900024,133.41816504540841,148.82706054603722,163.6687416941874
IN1,0.0,0.0,0.0,3.3019151349184073,11.302513669378392,24.281881071505232,41.88436596785553,63.421215593903355,88.05908665501917,114.93512917700231,143.2247608670674,172.17904319148164,201.1426797117026,229.55983709497403,256.9725434179612,283.01473496103824,307.40396717591506,329.93208890592456,350.45570244497003,368.8869151106077,385.18467775574203,399.3468670004045,411.40317754985153,421.4088330819673,429.43908823848784,435.60499538315173,440.0404196345698,442.8929852193673,444.3179233521071,444.4741163825533,443.5218845059007,441.62227708431465,438.9378519665756,435.635215390722,431.89007310090403,427.89648959735484,423.8841992540749,420.15331359359027,417.15167575893304,415.66996566168433,417.3249442865977,424.32416063982924,437.40820839308975,457.52800617657107,484.69342334882776,518.8855024171244,559.7438321478376,606.7745378310656,659.3774328393607,716.5653692102244
D1,0.0,0.0,0.0,0.0,0.0029409619727459816,0.011727136370327467,0.028331330042748057,0.05371165905836033,0.08800247232414346,0.13075809309105826,0.18116851395137737,0.2382256727589851,0.30084194708966017,0.36792972681191327,0.4384517685016015,0.5114506983067227,0.5860641406284383,0.6615302462952948,0.737187023093524,0.8124678388627282,0.8868947177942569,0.9600705187668107,1.0316707129320448,1.1014352209388447,1.169160594345818,1.2346927065040019,1.2979383170959151,1.3588613657592434,1.417474389551584,1.473829563370255,1.5280111494952704,1.5801299715751673,1.630320109820608,1.6787379885724412,1.7255642712522237,1.771009541070504,1.815325913622853,1.8588293213441434,1.9019436276135693,1.9452956438197617,1.989944938422797,2.0379489303862597,2.092483492179491,2.1561047984319988,2.231290333344065,2.319695613360497,2.4225408931820405,2.540523998651041,2.673942163696449,2.8227692242424864
R1,0.0,0.0,0.0,1.633867762636657,7.198487765271977,18.502331389858877,36.615975073491825,61.950146788694205,94.4227210865148,133.62258016304528,178.94145486027242,229.67023124573123,285.0649806435495,344.38986404729735,406.9434298056152,472.073460764636,539.1841776354804,607.7384983665847,677.2572142719481,747.3163373270239,817.5434477213093,887.6135784557705,957.2449759903478,1026.194943888624,1094.2558893768319,1161.2617911609627,1227.0903762457483,1291.6590782319483,1354.9195257719382,1416.852530593807,1477.4643158470171,1536.7842486545176,1594.8642440848469,1651.7801458209954,1707.6357650628445,1762.57104726425,1816.7775636467527,1870.5287229282176,1924.243608713383,1978.6381176653356,2035.0949880117494,2095.8679485364964,2163.1576806924736,2239.0248860790643,2325.0982580532295,2422.6161625146606,2532.45728708916,2655.1803070786564,2791.0856106178258,2940.1039171287575
G1,0.0,0.0,73.52404931864955,189.2087364371954,327.27570019728785,475.0888630212155,624.6564546118173,771.0246372827356,911.2326036274396,1043.626661001988,1167.4066838137019,1282.3245453686532,1388.482611340981,1486.19954975446,1575.920388577205,1658.1566844190208,1733.447057632401,1802.331545265524,1865.3353417806356,1922.958912930256,1975.6724211416708,2023.9130468987705,2068.084231602714,2108.5561701747774,2146.124063309611,2181.423186294116,2214.977372389698,2247.2361243166724,2278.604618169305,2309.470198450722,2340.2289208645325,2371.3164902838234,2403.250164187423,2436.6933634697516,2472.5667937188887,2512.259874559361,2558.078352865966,2614.3145896712,2690.1373139311977,2806.67937866626,2982.6989463705227,3193.313084700795,3446.3473166254985,3724.785536818807,4028.890209132036,4351.867181818958,4690.4077078134505,5041.316001711258,5394.72981416573,5719.638906695562
H1,50792.51290410041,47564.46730721303,44805.55105154865,42241.40147821598,39858.114956886384,37642.78094389129,35583.41104756799,33668.87316036612,31888.83029580323,30233.683794208875,28694.520585200935,27263.064217127478,25931.62938440528,24693.07970290521,23540.788501381125,22468.60241351064,21470.807570504032,20542.098208526386,19677.54751844642,18872.580577745684,18122.9492158625,17424.708674868045,16099.871327941999,14875.704433115801,13743.62747408118,12695.835723805027,11725.234845132487,10825.380904070738,9990.425336818453,9215.064444641142,8494.493020417105,7824.3617373099305,7200.737953787682,6620.069610358922,6079.151912231718,5575.09650899903,5105.302897895229,4667.431791782676,4259.380207628416,3879.2580468553606,3525.3659568819676,3196.17428492208,2890.3029624110086,2606.502193018508,2343.6338606828513,2100.653627477539,1900.8040881258844,1875.248498046132,1851.1215291879882,1828.3225655795322
S2,378646.60335706314,401048.6762185216,421455.12220822636,440141.3440736129,457233.19652773545,472847.4419290653,487092.4182311478,500068.64587757416,511869.3861039516,522581.1581786147,532284.0939059884,541052.772014439,548956.2376371912,556058.5291257316,562419.0387539171,568092.8482369545,573131.0405924451,577580.9898297029,581486.6299062414,584888.7043347417,587824.9977610562,590330.5507660129,595649.5441130692,600579.0752635383,605139.2285498182,609348.5501384872,613224.1133481659,616781.5660171615,620035.1540677595,622997.7104016718,625680.5886896336,628093.5022002449,630244.18569077,632137.6996667644,633774.9429756869,635149.2170722926,636237.3808878266,636974.4538894163,637192.0989724882,636844.6389352233,636395.0737283818,635525.8464061228,634522.9318132063,633227.5831373561,631733.2135191843,630021.495627861,627904.7423351096,624372.5587853006,621192.4944921099,618077.5055143756
E2,0.0,114.42549922917839,192.47763551810527,245.2631305041928,280.44693456341525,303.298242775682,317.44490060158324,325.39138560512833,328.8743310971143,329.10605747635407,326.9409328783179,322.9877654229608,317.68897857218985,311.37127579849783,304.28095615005947,296.60777113470806,288.5010522481486,280.08064380711454,271.44435621701695,262.6730950123609,253.8344403185421,244.9851936697879,236.17323548075342,230.84049886389636,228.32872730552353,228.24317345853817,230.40298050376035,234.81680900613242,241.68330747524706,251.42099696294912,264.74026332011505,282.78575913128384,307.41120394914907,341.7287032608517,391.28491420298127,466.83018113079885,591.6461136855972,823.1287221379209,1303.9800856362936,2018.1436686814375,2454.7733786491535,3000.8629649935933,3352.1180253393063,3718.1517691880836,4007.8789564326876,4262.872223288907,4482.335767241526,4574.496299472427,4246.160154084584,3890.3655641420364
I2,0.0,0.0,25.733417261527336,66.8351544144947,116.31802398917762,169.51190441786878,223.32821254900426,275.7564893519761,325.5202203050559,371.8418343814218,414.2824251427554,452.6324942400383,486.83724796412906,516.9460427462183,543.07751730195,565.3956275812716,584.0930818046704,599.3798089766531,611.4748652402492,620.6007036401951,626.9790839184914,630.8281345999493,632.3602372938831,631.7805083694257,630.0507122653022,627.9029138129051,625.918243064744,624.5878134034699,624.3629858024987,625.7014710078462,629.1162380318254,635.2364603662003,644.8953123967957,659.2721115494826,680.1459288659148,710.3921763269055,755.0597866366969,824.0048465161624,939.1544916014917,1152.6666425654475,1508.6595347514901,1932.6199854794663,2443.3936022636835,2989.792347382046,3572.1149279597125,4170.150316124069,4774.752955726143,5377.374863697335,5949.554751550546,6399.310952486016
A2,0.0,0.0,2.8592685846141483,7.097053105541308,11.806286613048169,16.452847609347266,20.74110573672651,24.525209444859012,27.751059470995983,30.41877146200178,32.5587314420964,34.216597213058385,35.44410793601091,36.29371023359602,36.815525082317905,37.05580379305737,37.056288932178056,36.85410605367964,36.48195027495764,35.96842177993749,35.33842238623236,34.61356224259254,33.81254882684536,32.951544558815655,32.12948652561097,31.409075858934983,30.830609502918076,30.42180575601291,30.20505566749702,30.20323591305871,30.445105852690084,30.97142412216263,31.843400250989387,33.15632267516444,35.06418754989449,37.82879187194333,41.928203238991586,48.326637447463625,59.22968075081944,79.96764695580102,114.4035658080034,152.86282014666122,197.27593029256812,241.5835927803812,286.1761874288224,329.0899767619152,369.79278936215445,407.8390025530071,440.5788838757909,458.5663132531168
IH2,0.0,0.0,0.0,1.0293366904610934,3.1870451851198736,6.2430565069419215,9.89576137367877,13.871113427425877,17.951945174364557,21.97882945421015,25.841109272907737,29.46601053289118,32.80883902551423,35.84510059229677,38.56454690540482,40.966809597875006,43.058263092590494,44.849796555389474,46.35524084020547,47.590259788872494,48.57156778025518,49.31637567908699,49.841996847862376,50.16556591883865,50.303837728277514,50.303643517022564,50.21763466751047,50.095329421677484,49.98108191755586,49.91507930896032,49.935683415485045,50.08255554560006,50.40065363190244,50.945738658191146,51.79280805241669,53.05044837279252,54.88786079109969,57.59143400022662,61.69831942675958,68.3536410580127,80.21513259056624,100.37373255275216,127.39129196300198,161.30399878008532,200.0823892865444,242.72570937237418,287.92614162177745,334.6652628983127,382.09296073415146,428.6465774683634
IN2,0.0,0.0,0.0,1.1556702972214423,4.0814958100411065,9.037923121159388,16.058607688500018,25.03629438006611,35.78046487753972,48.05575232774245,61.60728611543061,76.17717854781591,91.51502503334177,107.38436162219992,123.56642921254857,139.86212531115416,156.09275170044322,172.0999692124172,187.7452375936258,202.9089285786128,217.48923971561425,231.40099564788866,244.57439597084684,256.95375008941113,268.49622675472796,279.2049923337469,289.11588233231646,298.28848320259146,306.8005340790262,314.7449525320024,322.2291255509639,329.3764434150871,336.33047014915394,343.26278369377826,350.3866860552171,357.98140492519605,366.4370115048663,376.3447716439032,388.6998537030073,405.4169757290424,430.62781938765806,470.1747630170522,526.1711753150532,601.4383437023009,696.3139425014958,811.1269432506949,945.277106458423,1097.7927873373108,1267.3820992880583,1451.5595965705309
D2,0.0,0.0,0.0,0.0,0.0010293366904610935,0.004216381875580967,0.01045943838252289,0.02035519975620166,0.03422631318362754,0.0521782583579921,0.07415708781220225,0.09999819708510999,0.12946420761800118,0.1622730466435154,0.19811814723581217,0.23668269414121698,0.277649503739092,0.32070776683168245,0.3655575633870719,0.4119128042272774,0.4595030640161499,0.5080746317964051,0.5573910074754921,0.6072330043233545,0.6573985702421932,0.7077024079704707,0.7580060514874932,0.8082236861550037,0.8583190155766812,0.9083000974942371,0.9582151768031975,1.0081508602186826,1.0582334157642828,1.1086340693961851,1.1595798080543762,1.2113726161067928,1.2644230644795853,1.319310925270685,1.3769023592709115,1.438600678697671,1.5069543197556838,1.58716945234625,1.6875431848990021,1.8149344768620042,1.9762384756420894,2.176320864928634,2.4190465743010083,2.706972715922786,3.0416379788210985,3.42373093955525
R2,0.0,0.0,0.0,0.5718537169228297,2.5816285767153886,6.803744662686968,13.807822406074774,23.955755943061593,37.43622075709284,54.306009866548386,74.52680941422996,97.99436033815607,124.56025655807298,154.0476913316054,186.2626118775136,221.0015368215019,258.0570097427015,297.22140529072357,338.2895966634088,381.0608371837026,425.3400965337621,470.93901393312404,517.6765771152382,565.3796000947306,613.8830489769687,663.0472492750116,712.768689744316,762.9805914301703,813.6503810447897,864.7772324581932,916.3910745122186,968.553802630823,1021.3633766280789,1074.9618805704013,1129.549574982546,1185.4089895213765,1242.9475958125558,1302.778629078367,1365.89008969853,1434.044854104332,1510.7698366674858,1601.9640478792662,1713.5197172607302,1851.1345286215278,2019.4971921361603,2222.3818796029686,2462.691185760374,2742.5280469341205,3063.3334210424937,3425.50864527712
G2,0.0,0.0,25.733417261527336,69.02016140217724,124.17795855971335,187.2483234298919,255.4577722731302,326.8486959724304,400.02672320840935,473.9880381752543,548.0014666277091,621.5279751621405,694.1654466522183,765.611261615304,835.6362736742738,904.0667272191013,970.7715402986906,1035.6532144701255,1098.6412033582508,1159.6869573979932,1218.7601220585345,1275.8455410609945,1330.9408323559364,1384.0543818319907,1435.9686397390167,1487.3180194850324,1538.6481588269633,1590.4640222100693,1643.2725217742495,1697.6252441857994,1754.1678982859873,1813.7059532460823,1877.302301825416,1946.4367240947724,2023.2888887826389,2111.2858652708887,2216.272392943821,2349.3290666502544,2534.444403785891,2827.6995249822003,3281.5645591724638,3833.6242666747903,4508.495334251943,5262.360971168883,6098.5447900095405,6999.886031379257,7958.573302952857,8966.616242522408,9995.385379022875,10950.314234395231
H2,50792.51290410041,53815.87676743972,56572.673518342555,59099.585813472906,61413.26227842318,63529.16022441003,65461.630765349764,67223.99785487427,68828.63167758049,70287.01679778572,71609.81544025557,72806.92625062402,73887.5388583876,74860.18454229289,75732.78327652073,76512.6874161846,77206.72226219508,77821.22372839542,78362.07331795212,78834.73060119887,79244.26337340452,79595.3756581875,76680.74867059528,73733.9597415418,70766.3824838407,67788.54065575046,64810.18851008869,61840.384227562165,58887.556836763935,55959.56695194679,53063.76158730889,50207.023232663596,47395.81329983102,44636.20997212608,41933.94041179219,39294.407203878625,36722.70884281599,34223.65400430118,31801.7692965224,29461.300160044066,27206.20459625742,25040.13946424033,22966.439211377343,20988.08711135018,19107.679390000067,17327.383036093855,15850.778250137768,15797.850229645119,15743.726905343116,15688.524551411983
S3,1135939.8100711892,1130785.4570892616,1125964.9718316514,1121445.3258201408,1117199.2917083076,1113202.7745879358,1109434.1702301172,1105873.9287111077,1102504.2443041785,1099308.8258899795,1096272.4921289235,1093381.7392259864,1090623.8845105115,1087987.2329407337,1085460.991799631,1083035.1961411054,1080700.6426498329,1078448.8302885296,1076271.906573238,1074162.6186280195,1072114.268380209,1070120.6714011806,1073949.0404758349,1077967.4383861166,1082175.7295520254,1086574.2564714407,1091163.8203581944,1095945.6483876493,1100921.3409241668,1106092.7868126053,1111462.0248848968,1117031.0098525512,1122801.1975682995,1128772.7635180706,1134943.0086984208,1141302.7649114744,1147827.2383323533,1154449.7821268742,1160998.0330602592,1167425.0968174576,1174211.579718178,1181025.5827017645,1188168.5569319786,1195472.1369310394,1203035.9377345317,1210839.1118756423,1217389.2106347475,1213331.8296108993,1209715.9022541987,1206213.785998225
E3,0.0,196.15799867859147,318.9663724401296,393.2728420914998,435.4579959235293,456.3959032367388,463.3398924469756,461.14398630731995,453.063146509484,441.28194394700944,427.26601255942825,411.9957614837399,396.1264834531015,380.09251179816414,364.17877106016965,348.5691409027765,333.37920708494426,318.67847232016493,304.5054359654364,290.87783983816087,277.799632114098,265.26569997788334,253.26508365778966,245.2868720807801,240.58013198962544,238.68028900337467,239.35415465606053,242.57222825909793,248.5074624956748,257.56498022953633,270.45574994390984,288.3434910366885,313.1291163684977,348.0203592768407,398.7530041811375,476.46966016029205,605.3488900687032,845.1310174739131,1344.962644386935,2091.7059066757197,2554.6555814719923,3138.7955147744287,3523.754654104271,3931.1825434012626,4263.7225243374205,4565.601435650454,4835.611282459235,4970.283420751504,4633.033297262189,4260.121148672338
I3,0.0,0.0,44.114429591189705,112.10179437439952,191.0273533520487,272.73851428835803,352.2204108127777,426.5152033892195,494.0078331206088,553.9523905868233,606.1575942709112,650.778014072886,688.1755819637717,718.8288688269984,743.2734886524291,762.0636541539832,775.7478733465357,784.8540751526118,789.8809930356249,791.2936715493723,789.52165862901,784.9589175006162,777.9648104072629,768.8657216193435,758.7449916827338,748.4250963023695,738.5541961139976,729.6729745761575,722.2695716034013,716.829575213661,713.8884515011798,714.0960918572475,718.3089174045354,727.7381318541525,744.2134910603493,770.6993214790257,812.4141379499175,879.5709281244104,994.9506424357621,1212.94184328861,1580.360392290912,2020.6955133178187,2555.010669491062,3130.5318467638062,3748.81331941931,4389.382623525038,5043.451875022866,5702.707694338613,6336.273280763256,6840.198276968153
A3,0.0,0.0,4.901603287909968,11.891626080084468,19.340417111312284,26.353574112300578,32.487296911368816,37.56779180848796,41.57731634277508,44.58301164803096,46.6931787691575,48.03108185687997,48.71983073136458,48.87428772766957,48.59719585108756,47.97786921077199,47.09235388584629,46.00437500080666,44.76664939161189,43.42231255037813,42.00631620398429,40.54672039109463,39.065845383422136,37.58127353515805,36.19425621213081,34.96703015914365,33.93777597031558,33.1312111989749,32.56637272349253,32.262811794575846,32.24629263781508,32.555192340298824,33.24929163482739,34.42391518813958,36.23547769228103,38.95243689298829,43.067990912466556,49.58087306664912,60.782863411519074,82.23426677022786,118.05503756900447,158.27985771440623,205.0562239754206,252.09669012099567,299.90988612505544,346.4699642065507,391.2613880141877,433.84154304639804,471.2708594185914,492.78709402268754
IH3,0.0,0.0,0.0,1.7645771836475883,5.364595789616127,10.318027433100395,16.05823626065142,22.101876326576168,28.08944442253029,33.776946091666964,39.01279172321475,43.713686840720605,47.84425029643502,51.401304176471946,54.40240553713944,56.877739909129744,58.86453838081507,60.40331958588815,61.53541947946266,62.301414041676864,62.74015246877165,62.888202427077445,62.77956971113629,62.44559770214752,61.91498211814535,61.24537574426388,60.49844634848246,59.73089257245265,58.99263437670017,58.32810741810944,57.77890861018305,57.38721345652854,57.20006318909765,57.27518822754114,57.68984419970913,58.555771898068826,60.04730303629738,62.46016973310909,66.35046182179785,72.90690614650761,84.89821989865169,105.57862742106367,133.5115556158235,168.8226930319384,209.4637976934895,254.47496782582368,302.55831388608755,352.7146736300723,404.1129299149506,455.1032832580905
IN3,0.0,0.0,0.0,1.9811490809510435,6.88580016475042,15.013692037587596,26.27880334568068,40.37553285208223,56.8854615004269,75.34504529901957,95.28760389703722,116.26843397722543,137.8789017222337,159.75339276813924,181.5717326236325,203.05877214563367,223.98227365496228,244.14984406026574,263.40540086206994,281.625482676821,298.7155996221594,314.6067415673602,329.2521111357433,342.6241148724517,354.7116243777013,365.5528922453422,375.2206023667212,383.81178632451685,391.4414019026674,398.23879923322966,404.3466634999967,409.9223814890472,415.142217402697,420.2093515070929,425.3680501870969,430.9287535804533,437.3146940216261,445.15574227259987,455.499171180166,470.3467346993087,494.0116261959608,532.6269953364506,588.4882261880049,664.6863020039411,761.7397028619239,880.2027500265611,1019.6740525095388,1179.383852348373,1358.2394621545373,1553.833108924599
D3,0.0,0.0,0.0,0.0,0.0017645771836475883,0.007129172973263715,0.017447200406364112,0.03350543666701553,0.0556073129935917,0.083696757416122,0.11747370350778896,0.15648649523100372,0.20020018207172433,0.24804443236815935,0.2994457365446313,0.35384814208177073,0.4107258819909005,0.46959042037171556,0.5299937399576037,0.5915291594370663,0.6538305734787432,0.7165707259475148,0.7794589283745923,0.8422384980857286,0.9046840957878761,0.9665990779060215,1.0278444536502853,1.0883428999987679,1.1480737925712206,1.2070664269479208,1.2653945343660302,1.3231734429762132,1.3805606564327417,1.4377607196218394,1.4950359078493805,1.5527257520490896,1.6112815239471585,1.6713288269834559,1.733788996716565,1.8001394585383628,1.8730463646848703,1.957944584583522,2.0635232120045854,2.197034767620409,2.3658574606523475,2.575321258345837,2.8297962261716605,3.132354540057748,3.4850692136878205,3.8891821436027714
R3,0.0,0.0,0.0,0.9803206575819936,4.370698854200539,11.372097037299321,22.78521576601777,39.03304327779893,60.24211935134421,86.32827740583083,117.06841993228663,152.1547474687119,191.23333827438415,233.93043666439266,279.8697228847257,328.68323302297813,380.01793660671524,433.53941645821766,488.93365807910044,545.9076349810282,604.1891490981274,663.5262282625075,723.6862760141286,784.4550976370847,845.6358792178158,907.0656760696797,968.6253227755444,1030.2388846838353,1091.8700755002294,1153.5189059703564,1215.2199872948836,1277.0432277927935,1339.097607717185,1401.5391293110038,1464.5850331779595,1528.5384700142947,1593.8324861533845,1661.113654940646,1731.4174187004342,1806.5842165933293,1890.2920261655297,1988.7096867024472,2108.0418046334107,2254.3545458340163,2432.7218892444757,2647.3293790276507,2901.5137467005893,3197.8333808064062,3538.208147059627,3923.482868085662
G3,0.0,0.0,44.114429591189705,115.84752063899815,204.29156686420055,302.2227306734573,404.8626692672125,509.06425778174867,612.772003845611,714.6624310099091,813.9033560665036,909.9922056404894,1002.6468928532348,1091.732701136436,1177.2125921570032,1259.1136049261206,1337.5041315811789,1412.4785586103455,1484.1469031290446,1552.6278404628422,1618.0440359359782,1680.519042787143,1740.175264422061,1797.1326394778441,1852.2957759338835,1906.4004026388345,1960.0777692258405,2013.9066830303425,2068.459316909156,2124.346739451192,2182.271128270582,2243.094552341003,2307.940792204298,2378.361129126797,2456.6282390027213,2546.3047316551924,2653.4591042378756,2789.5974272679587,2979.6609118917568,3282.13269626087,3752.5413136362695,4327.063762569093,5032.954802804154,5825.420201270086,6709.513007524416,7668.3915052829725,8695.160255123497,9782.652148838928,10900.430773672186,11942.364432062515
H3,152377.5387123012,151712.39866236656,151088.7938731259,150503.20479940154,149952.57792385266,149434.08337303987,148945.09887141228,148483.19484230943,148046.12057403868,147631.7913749405,147238.27664678966,146863.7888109266,146506.67302620012,146165.39764215308,145838.54533492433,145524.8048770919,145222.96349616596,144931.8997796764,144650.57708780287,144378.03743728492,144113.39582294086,143855.8349455283,143604.60031691304,143320.7613698744,143004.20692681047,142654.96213675183,142273.1772219902,141859.11727502226,141413.1530147252,140935.75241623062,140427.47313361854,139888.95563830636,139320.9169988522,138724.14522981213,138099.49413827946,137447.87859679133,136770.2701704357,136067.69302428703,135341.22003485015,134591.969026185,133821.09904811016,133029.80661075993,132219.3217873874,131390.90409643747,130545.83807553083,129685.42846525855,128810.99493085871,127926.26971417462,127048.2871121475,126176.97670651464
S4,567969.9050355946,577140.1984715143,586298.887001234,595440.0624832517,604560.5406292734,613658.8144618238,622734.4096181383,631787.4815867032,640818.5598803698,649828.384086581,658817.6163931997,667787.3357562075,676738.4121043562,685671.6861569611,694587.9529119233,703487.9524988353,712372.3658434651,721241.8134476673,730096.856155359,738937.9971517795,747765.6846947565,756580.3152453011,769531.5979726918,782511.9838559569,795521.0020002663,808557.8013837468,821621.0966557107,834709.0807668642,847819.2886192527,860948.3831543758,874091.8109065583,887243.2244741188,900393.4615621474,913528.6169312967,926626.0914839412,939645.6359865958,952506.426159935,965021.1077856002,976734.0611060344,987497.4719361672,998494.9310510182,1008866.640571749,1019353.652443192,1029507.2631384343,1039561.5558196326,1049446.0460789648,1058761.0192167773,1065342.4389852162,1073026.3233178116,1080977.035078707
E4,0.0,294.2369980178873,483.8046913347284,603.4939311103477,676.4217454141345,718.0362432275717,738.6994781339118,745.3792338071443,742.7684589774555,734.0311129704166,721.3014755061492,706.0175761647249,689.1517210186945,671.359579595527,653.0830653224998,634.619787008269,616.1699381038236,597.8679459688481,579.8038235678212,562.0375636081528,544.6088338406682,527.5435014460769,510.8580199772266,502.09594012053117,499.86098486361044,503.34238323521134,512.2153461877894,526.5986117204827,547.0704507616886,574.7568363718505,611.5262183707487,660.3658332637345,726.1024974311129,816.8409601248879,947.0454938766205,1144.808161137275,1471.1364174738017,2077.040790027704,3341.067617724486,5239.099430878548,6431.1047819106425,7942.764861541379,8954.529966445674,10031.830317217951,10922.048897572207,11737.355764206233,12472.849713808268,12860.133646623719,12029.770311065464,11112.114357768076
I4,0.0,0.0,66.17164438678458,169.35701983224652,290.6981872509497,418.13726469254544,544.1143580165375,664.0418249465796,775.2885579103807,876.5022630729638,967.1570191390297,1047.2515435749087,1117.10806457048,1177.2401143180216,1228.2650763885117,1270.8472956739115,1305.6616379312115,1333.3706884960523,1354.611004715381,1369.9853375094258,1380.0587505268436,1385.3572492184926,1386.367993600106,1383.5404795390987,1378.9825232127837,1374.3089555657764,1370.815157169861,1369.6134761459596,1371.7485151567068,1378.3062290590055,1390.5335877265247,1409.9918817031607,1438.7816399940866,1479.910551100492,1537.9536186874825,1620.3502899328266,1740.2260230161667,1923.3119112731044,2227.1153478474507,2789.3929807753834,3730.780800661383,4860.308882031062,6233.890260090731,7718.3799889384345,9319.099290025182,10984.105933827668,12691.094255797578,14418.550307180622,16086.426424573721,17425.94196704976
A4,0.0,0.0,7.352404931864953,17.97125337242084,29.457131251914596,40.468156462449734,50.31684123329606,58.71212272404229,65.59526189715963,71.03653509815516,75.17122453546841,78.1608874360206,80.17070311740264,81.35711105360066,81.861646718079,81.80858103858854,81.30476741719013,80.44069101685118,79.29209904375514,77.92183851011693,76.38168612568842,74.71405447748816,72.95352000519426,71.12815500253313,69.44891582657586,68.04967734162294,67.01727986425573,66.41307980706979,66.2891293296326,66.70152001483233,67.72326098523999,69.459448431752,72.06880448278581,75.79891950637186,81.05038756942872,88.50511769967088,99.41060260934117,116.28929301249116,144.93260608846418,199.43280542505886,290.4610536726947,393.06952583795066,512.9297212560739,634.0999012561856,757.9556660567714,879.2850925355287,996.7215516982748,1109.0492689009866,1208.5889078250705,1267.4714693851702
IH4,0.0,0.0,0.0,2.646865775471383,8.095066815250082,15.667365830847778,24.54350613729486,34.01178388317163,43.533553155565826,52.73478534104258,61.37474840809881,69.31228022120249,76.47688957337638,82.84629047993403,88.42990352220795,93.25712491312223,97.36919715860445,100.81369489939209,103.64086129463874,105.90122997463996,107.64412725772237,108.91676952267721,109.76375796055564,110.2268349663215,110.34480982975839,110.22136103356078,109.9728173783779,109.70904215860502,109.52935108298229,109.52508679667643,109.78526747390177,110.40419197853797,111.49136706541688,113.18545776540648,115.67596546895751,119.2404515165091,124.3149969040511,131.64222437576817,142.6219464144325,160.25296517469985,191.54194885319055,244.8106645041974,316.572876868837,407.32547596117894,511.99061206216567,628.2472870200279,752.8596335761006,883.3207273863773,1017.5190552530271,1151.1990655542095
IN4,0.0,0.0,0.0,2.971723621426566,10.382785812068143,22.757776149066355,40.04541253266778,61.858262105002595,87.62824078927713,116.70631250988086,148.4252221691913,182.13780081514176,217.23921117814442,253.17870361154954,289.46466470911923,325.6654078023357,361.4073567866194,396.3717123899915,430.2903128093751,462.94114807947255,494.1438189241279,523.7551187648091,551.6648435382159,577.7918855240077,602.0806360758775,624.5737894826597,645.3837645374638,664.6737913141255,682.6463631876909,699.5376227030127,715.617014667976,731.1923359450745,746.6213393366809,762.3326783262477,778.8620030320881,796.9153390349688,817.486568073964,842.0939284888827,873.3117806108974,916.1284832886147,981.3922176036856,1084.6582940046426,1231.8868272920151,1431.158563830671,1684.0455155515288,1992.2557007416053,2355.05257298424,2770.7460970771954,3236.790757545263,3747.212882837117
D4,0.0,0.0,0.0,0.0,0.0026468657754713833,0.010741932590721466,0.026409298421569243,0.0509528045588641,0.08496458844203572,0.12849814159760153,0.18123292693864412,0.24260767534674293,0.31191995556794544,0.38839684514132183,0.47124313562125586,0.5596730391434638,0.652930164056586,0.7502993612151905,0.8511130561145825,0.9547539174092213,1.0606551473838612,1.1682992746415837,1.2772160441642608,1.3869798021248165,1.497206637091138,1.6075514469208965,1.7177728079544572,1.827745625332835,1.9374546674914401,2.0469840185744226,2.156509105371099,2.266294372845001,2.376698564823539,2.4881899318889555,2.601375389654362,2.7170513551233197,2.836291806639829,2.9606068035438797,3.0922490279196477,3.2348709743340804,3.3951239395087804,3.586665888361971,3.8314765528661683,4.148049429735005,4.555374905696184,5.06736551775835,5.695612804778378,6.448472438354479,7.331793165740856,8.349312220993884
R4,0.0,0.0,0.0,1.4704809863729906,6.582811131759637,17.20183866939817,34.61977715204314,59.57785528096033,92.37786058274796,133.00330056420782,181.2222121185639,236.66561765112917,298.88388066463955,367.38553834814945,441.6631989348423,521.2102875825335,605.531506455146,694.1490805803166,786.6062381272966,882.4689138066246,981.3263369918718,1082.7909394849034,1186.4978638268135,1292.104250124741,1399.288411622234,1507.7866151374024,1617.4165381596038,1728.078754023076,1839.7517304894325,1952.4872668330975,2066.4095191999263,2181.7194031631698,2298.7061635245886,2417.7689755394076,2539.4539416655157,2664.517118715307,2794.035970340288,2929.6205980468426,3073.856348796181,3231.3553786901293,3411.3744329242327,3629.51837438643,3901.582250449254,4243.142675606838,4667.365646939927,5185.256322799798,5805.728852279933,6535.757881581037,7380.710743244561,8343.196415811273
G4,0.0,0.0,66.17164438678458,174.97560922914448,310.6967662149458,462.81882936320835,624.2996739332348,790.4275215698838,958.057595031216,1125.100525255063,1290.1784933675617,1452.3936636363744,1611.1716021536497,1766.1565391907566,1917.1401600675429,2064.013533044671,2206.7346563215447,2345.3065500694365,2479.7624661419045,2610.1558996179197,2736.5538374762737,2859.0321876687103,2977.672675477544,3092.5607264629434,3205.4782528838878,3317.893155007148,3431.090996925764,3546.284300166751,3664.712289522542,3787.744238482678,3917.0026432430454,4054.5302000350853,4203.041411671543,4366.336294952832,4550.037562631813,4763.020831428964,5020.4794074754045,5351.326705800569,5818.43725090681,6569.817735895397,7748.051019889225,9194.35716598738,10980.624071258799,12994.429189520737,15250.510894987143,17706.795932198147,20346.437231226813,23151.485479108116,26043.630913446646,28749.03400157267
H4,76188.7693561506,77458.58217875312,78722.85216760616,79981.92544988221,81236.11882321056,82485.72363924267,83731.00766735134,84972.2168246131,86209.57678163235,87443.29445308268,88673.55938120719,89900.54501993043,91124.40992668815,92345.29886857315,93563.34384892443,94778.66506004879,95991.3717673579,97201.56312982594,98409.32896132325,99614.75043705494,100817.90074903231,102018.84571422348,99068.28314426061,96114.65151596867,93159.14616259685,90203.1023620789,87248.00757191614,84295.51415322814,81347.45253387459,78405.84472471743,75472.91805756673,72551.11895621706,69643.12648119591,66751.86530236687,63880.517649530855,61032.53366835603,58211.63946707606,55421.84197986109,52667.429599631585,49952.96735413724,47283.285227231965,44663.45808179497,42098.7755487611,39594.700243680934,37156.81280137785,34790.74252902647,32921.39927802371,33994.82423578086,35060.876483398984,36119.61220933354
E_Om,0.0,0.0,0.0,0.0,0.0,0.0,0.0,0.0,0.0,0.0,1.1003627923767663,1.8169263544732575,2.286416279955276,2.595959217874234,2.8012890759761215,2.9382009822572295,3.0297826857348413,3.0909953565772685,3.1315847225304436,3.157936998787848,3.174265853896853,3.1833739929665503,3.1871434443117415,3.240714164731538,3.3383523376816964,3.4788003963405596,3.6647696409300012,3.903031021910695,4.205178694343717,4.589317685289966,5.083239191438502,5.730277851751307,6.600452521827904,7.812929099291294,9.585104591565903,12.351541616513348,17.09130257348329,26.35432644536321,47.17326355994199,82.98022067145669,113.42742939880146,161.18669355246396,205.26246037982938,261.19073978398933,320.00951944272606,385.34952574928303,456.5391363940611,519.5638544530461,522.1034616226365,518.1753109014362
I_Om,0.0,0.0,0.0,0.0,0.0,0.0,0.0,0.0,0.0,10.0,9.150906789612733,8.621372660676323,8.297950564972194,8.107574703603495,8.002977360256935,7.953438416754009,7.938896229070902,7.946184831453651,7.966620823796762,7.994449847033267,8.025842351639506,8.058241574283953,8.089938151559052,8.119791114678543,8.159156927163695,8.217138291559914,8.3017821889858,8.42106208748403,8.583797168172463,8.80066521804722,9.085509062201133,9.457246167855251,9.942933360907627,10.58307679419816,11.441542767137998,12.625665654796798,14.331395943482619,16.958229722058213,21.445203859805545,30.23321136919271,46.32774518289325,67.90304680490928,98.38709646321563,136.1950681103506,183.37063168595853,239.76844265998736,306.0720201299938,382.755803344204,467.10219435365,544.8579287469222
A_Om,0.0,0.0,0.0,0.0,0.0,0.0,0.0,0.0,0.0,0.0,0.0,0.027495905939809107,0.0673981473447072,0.11105157199976662,0.1537091820450542,0.1929660601299092,0.22779272234912754,0.2579424991004207,0.28359190497256637,0.3051256782400608,0.32301118850271376,0.3377276227450616,0.34972836465311474,0.35942314936845426,0.36851760427351815,0.37823295445549376,0.3895147558581241,0.40318720330610003,0.4200788454183984,0.4411422362634323,0.4675918281782394,0.5010936304777932,0.5440632981667972,0.6001829889888273,0.6753761509728293,0.7798138669618236,0.9324918699135242,1.1730715934501377,1.5970001535896716,2.456367368278441,4.03860670172042,6.06521414034863,8.879910341053577,12.233034184709343,16.313071163065356,21.046866575888508,26.46662138768623,32.58131384708226,39.047931788225235,44.28468593852906
IH_Om,0.0,0.0,0.0,0.0,0.0,0.0,0.0,0.0,0.0,0.0,0.4,0.5656362715845094,0.6271074059477232,0.6448446181668016,0.6460804526093737,0.6425132402623549,0.6387516435610755,0.6362929192998128,0.6353575599887528,0.6357082553862582,0.6369964133190735,0.6388949043117979,0.6411382202229452,0.6435254979536118,0.645910868065994,0.6486758002514789,0.6523747559878845,0.6576062907973863,0.6649880226072571,0.6751809100079199,0.6889418828158408,0.7072023620131499,0.7311838253587719,0.7625780632903322,0.8038495253498021,0.8587826238350713,0.9335591554855724,1.0391018563266055,1.1968410151893045,1.4550318209716848,1.9353893334325791,2.818869084698587,4.122737545460966,5.992729893713648,8.438174941377135,11.545474563185532,15.351929513429075,19.90349363240086,25.242075456336188,31.279883426857758
IN_Om,0.0,0.0,0.0,0.0,0.0,0.0,0.0,0.0,0.0,0.0,0.8981864207745339,1.6612776289942082,2.3189499194772747,2.8921370449174093,3.395974352265692,3.841696904108778,4.2378723408757235,4.591208584496323,4.907088407814528,5.189927519878568,5.443417869816255,5.670695734252255,5.874460078250403,6.057057697712104,6.220545897142342,6.367430459653276,6.500512030013368,6.622810554532787,6.737550239964819,6.848197361091087,6.958552647480099,7.0729111797019115,7.196319365313817,7.334987765881069,7.496976165809929,7.693392435912366,7.940646312997924,8.265100077142126,8.713890257847215,9.383963667733223,10.50335328383781,12.453946980054315,15.488978457137302,20.036770353012916,26.40729254752761,35.00331751993593,46.19136445902916,60.350233979604084,77.85825271801264,98.91564761042592
D_Om,0.0,0.0,0.0,0.0,0.0,0.0,0.0,0.0,0.0,0.0,0.0,0.0004,0.0009656362715845094,0.0015927436775322323,0.0022375882956990343,0.0028836687483084077,0.0035261819885707628,0.004164933632131838,0.0048012265514316525,0.005436584111420404,0.006072292366806663,0.006709288780125736,0.007348183684437533,0.007989321904660479,0.008632847402614092,0.009278758270680084,0.009927434070931563,0.010579808826919451,0.011237415117716835,0.011902403140324092,0.012577584050332012,0.013266525933147852,0.013973728295161001,0.014704912120519775,0.015467490183810106,0.016271339709159907,0.01713012233299498,0.018063681488480553,0.019102783344807157,0.020299624359996462,0.021754656180968147,0.023690045514400727,0.026508914599099313,0.030631652144560283,0.03662438203827393,0.045062556979651065,0.0566080315428366,0.07195996105626568,0.09186345468866654,0.11710553014500273
R_Om,0.0,0.0,0.0,0.0,0.0,0.0,0.0,0.0,0.0,0.0,0.0,0.25883081340069,0.6559610804963398,1.134884607271705,1.668950928352086,2.245167809507359,2.8566470901622325,3.499160220837703,4.169617312451742,4.865426594336292,5.5842438153475,6.32388572321021,7.08230676304059,7.857596083639523,8.64797806338059,9.452080023930334,10.26912839450427,11.098999387239516,11.942231136147175,12.800047478042433,13.674420279314862,14.568191707835796,15.485284169708772,16.431044478381313,17.412808563104804,18.44085717982215,19.530125067820297,20.703511841852425,21.999037489096885,23.487613986190752,25.32104884116806,27.784429843947407,31.222635234674115,36.07450731564182,42.8298786977044,52.04124638609335,64.31605880265383,80.31086178407601,100.73178500969249,126.26209022117582
G_Om,0.0,0.0,0.0,0.0,0.0,0.0,0.0,0.0,0.0,0.0,0.0,0.24746315345828196,0.6560759567940213,1.170273443910029,1.754084763917197,2.384073194361989,3.044852062568791,3.72622695355886,4.421368104788928,5.125637493146997,5.835833306342983,6.549701353828998,7.265617751942586,7.982381870756249,8.711193633765042,9.461963473095155,10.244319003738717,11.068497591315124,11.946259336276789,12.89197177563521,13.924074128142653,15.06725563955947,16.355951183620533,17.84034233771904,19.597410175754945,21.753026691406987,24.530793678503574,28.374496556177437,34.30138246564349,44.91028767430383,63.57190293818283,89.08086194893347,125.33051320790554,171.49246641470387,230.2322607523848,302.1999475613108,388.8621007040896,491.5342513364891,608.380177731524,725.797242303064
beta,1.0,0.9999999999999889,0.9738376311590661,0.9520672572767584,0.933401250199077,0.9170340567351152,0.9024402250064454,0.8892640838716179,0.8772562851634662,0.8662359826992273,0.8560676452635838,0.8466367435831788,0.8378711182081611,0.8297022823009164,0.8220731882953531,0.8149353933772396,0.8082470984257542,0.8019717614359587,0.79607709473855,0.7905343228538033,0.7853176204319016,0.7804036769301379,0.775771352223585,0.8191473271695728,0.8687028785986274,0.9258588223118958,0.9924977274663656,1.0711671859983196,1.1653986328545032,1.2802253768279952,1.423059391634249,1.6052480080708107,1.8449989159237885,2.1732625193633615,2.646572180508581,3.3779605147503573,4.619983078548239,7.003239265541511,11.919090337128273,16.2747409026516,12.336320117012457,11.901528685809458,8.984372057235904,7.874893350128147,6.587788458164193,5.7354338226506965,5.062674066435826,4.20330831802399,2.530933439904979,1.9957167822899484
