series,2021-12-01,2021-12-02,2021-12-03,2021-12-04,2021-12-05,2021-12-06,2021-12-07,2021-12-08,2021-12-09,2021-12-10,2021-12-11,2021-12-12,2021-12-13,2021-12-14,2021-12-15,2021-12-16,2021-12-17,2021-12-18,2021-12-19,2021-12-20,2021-12-21,2021-12-22,2021-12-23,2021-12-24,2021-12-25,2021-12-26,2021-12-27,2021-12-28,2021-12-29,2021-12-30,2021-12-31,2022-01-01,2022-01-02,2022-01-03,2022-01-04,2022-01-05,2022-01-06,2022-01-07,2022-01-08,2022-01-09,2022-01-10,2022-01-11,2022-01-12,2022-01-13
S,7488630.1558387745,7487566.186864482,7486834.309769491,7486301.103105846,7485888.465272551,7596195.104818653,7706535.464439171,7816895.540021926,7927266.3520068815,8037641.977393713,8148018.328422137,8258392.387252896,8368761.716695151,8479124.13454897,8589477.479782628,8699819.422341052,8810147.280510824,8920457.81316243,9030746.949052013,9141009.398785034,9251238.05862925,9361423.038582547,9471549.978626497,9581596.918091005,9691527.932523629,9690633.972002946,9689727.756332014,9688797.371549435,9687837.467895174,9686845.807490803,9685821.599926861,9684764.703739263,9683675.247255154,9682553.452217175,9681399.555060787,9680213.774833838,9678996.303040145,9677747.303467683,9676466.91627092,9675155.263590286,9673812.455450531,9672438.595381822,9671033.785542404,9669598.131277902
E,0.0,1063.9689742928701,1582.952637193888,1799.506984995487,1852.2029772593837,1819.6845888156129,1759.955916500016,1692.460621754668,1627.7300815487852,1571.1334196784817,1525.131031776712,1490.6215054786262,1467.743168631483,1456.351746294206,1456.3106702085372,1467.6797047967395,1490.8582950519237,1526.7253666819327,1576.8141012861481,1643.5690833163828,1730.7601473713685,1844.189162692921,1992.9672007933923,2191.9830052935954,2467.1099155677307,2867.579077257198,3200.203548428464,3490.4636109707467,3752.1802415365846,3993.298626123621,4218.727474916106,4431.74473863021,4634.702869507077,4829.390272951209,5017.222823448499,5199.350437603243,5376.720409115875,5550.118092048688,5720.195192887391,5887.490866542487,6052.448313823183,6215.428336125124,6376.720677217795,6536.553659594485
I,18410.09477139099,11451.001867552524,7290.697009043481,4785.060169435746,3260.8034768650255,2321.0538431841132,1731.3920948510304,1355.181387390413,1110.5083701000358,948.0883746179143,838.1154439076016,762.4394052196571,709.9130008076855,673.6245537365417,649.2522188975474,634.0862342215029,626.4505882678915,625.3659643059567,630.3621964371561,641.3892514067918,658.8025166031412,683.4190817387023,716.6644939602068,760.8659690730847,819.8250520244569,899.9970645546088,1013.1810177590627,1136.1714852643206,1258.563420270104,1376.0701314073376,1487.2815104501449,1592.0965813412126,1690.9708069633605,1784.559424365069,1873.5527490864683,1958.6040152996225,2040.3013427060562,2119.1603138182095,2195.6257894011196,2270.0775108650764,2342.836920372715,2414.174027107112,2484.3138211636156,2553.4420561887346
A,4877.934123977967,4682.816759018849,4540.07609249642,4424.786421390706,4323.180275742689,4227.845927105074,4134.962685495833,4043.2926079088875,3952.461806862948,3862.5525329536995,3773.868671174888,3686.8050225128554,3601.778239729763,3519.194104335489,3439.436122584455,3362.8667393357587,3289.8364053174223,3220.698286858927,3155.828243770405,3095.6513298237774,3040.6780056672324,2991.5562401978345,2949.1511366385425,2914.6748769371547,2889.9148780278815,2877.6709513427404,2882.693316984237,2901.4491597383285,2931.614402130913,2971.536920941001,3019.9635192180076,3075.896764570946,3138.5164424800028,3207.133696412069,3281.162144336908,3360.0981736063195,3443.506488617402,3531.0088898109934,3622.275205821795,3717.0157735592616,3814.975102843213,3915.926489758774,4019.6674133128313,4126.01559135669
IH,0.0,3470.5666751194126,4121.70593154898,3705.727374500518,2998.0924065766308,2310.4944502088474,1744.4178197461495,1313.072877131459,998.173687237089,773.9354870676713,616.4829876787678,506.69295638545924,430.327309234058,377.23125846450364,340.35808512600875,314.90728199225185,297.65274879311704,286.4537808804049,279.9149339113765,277.15828120804235,277.6778163624519,281.2543267607681,287.9178541005418,297.9541266840524,311.96347218074743,331.002094674013,356.8843268147707,392.86067727654824,436.39514906044616,484.0918266874624,533.2218037573267,581.9757258540104,629.3111473356757,674.7242995559308,718.0537615852409,759.3383646065444,798.723216383492,836.401262014354,872.578830134665,907.4564873368996,941.2192651451551,974.0324178673995,1006.0403175343738,1037.3670379635191
IN,3488.5262287190544,6935.968603148367,9024.133441344602,10299.370699545228,11084.796911458712,11572.14209278307,11875.674858563918,12063.898043658668,12178.616439088306,12245.620757945766,12281.059035165059,12295.241206134015,12294.916514023651,12284.642424894273,12267.613039531312,12246.16589645819,12222.097532927515,12196.865741471529,12171.725575829303,12147.828217489821,12126.301809854695,12108.328552653991,12095.231553240414,12088.58846365346,12090.399339949898,12103.361038032997,12131.361871329904,12180.480154106357,12252.325424296398,12346.516613713276,12461.86485741832,12596.928090352018,12750.262096501796,12920.525973768774,13106.518772433285,13307.184493974906,13521.603357460617,13748.97785679882,13988.617575665125,14239.924525268283,14502.379716387666,14775.531181890943,15058.983441396987,15352.388305379303
D,9663.0,9663.0,9920.29543228439,10225.864006145759,10500.593413762572,10722.8612892968,10894.153105304547,11023.478019369406,11120.82455818236,11194.825594437838,11252.20241048718,11297.906259932837,11335.47066812683,11367.373599670234,11395.34017942611,11420.57311365319,11443.91921612993,11465.986129069654,11487.222790479876,11507.974685102708,11528.522211328282,11549.1082540368,11569.95944646729,11591.304649043077,11613.39390506449,11636.521763983645,11661.061078455468,11687.519209285116,11716.644498394837,11748.997277936365,11784.88611900253,11824.417281300828,11867.562885457091,11914.217768896133,11964.239421432474,12017.47336570878,12073.768003173089,12132.982493045378,12194.990298806893,12259.680180407855,12326.95576709013,12396.734405672716,12468.945694339453,12543.529934501508
R,0.0,236.20121924886095,1755.4410122287154,3528.1307753674096,5161.374358978833,6544.883836258435,7682.617792637988,8616.286604440631,9393.116802779665,10054.22493353727,10631.745816082359,11149.415720666371,11624.219140024932,12068.107564572174,12489.444209366624,12894.106723312872,13286.285438497232,13669.043686357025,14044.704921851766,14415.119717505968,14781.852939384587,15146.320873286564,15509.900676806252,15874.0305159811,16240.31855518317,16610.684272956187,16987.57138965219,17374.31302501065,17775.343538722773,18194.109710497345,18632.76439656118,19092.41325797172,19573.45327037885,20075.856060020214,20599.368428734055,21143.64142910196,21708.30752147812,22293.023196154194,22897.489930222095,23521.462191191793,24164.748070098784,24827.205982405358,25508.739484180067,26209.291381981133
G,726223.0,726223.0,726391.2217910202,726641.4989458648,726926.0150316564,727218.8627647161,727506.5690870044,727784.8318404716,728052.4230615521,728309.7798794965,728558.1883238929,728799.3234320632,729035.0023150415,729267.063954573,729497.3245214093,729727.5785937965,729959.6301992007,730195.346520457,730436.7337054075,730686.0403098604,730945.9013974874,731219.5480722045,731511.1287586943,731826.2324130889,732172.8020179794,732562.8713326568,733016.2579444131,733522.2350786654,734074.1045920776,734667.3535454896,735298.7251955997,735965.7389044613,736666.4323036954,737399.2149659655,738162.7792247743,738956.0412744213,739778.0991199864,740628.2005410715,741505.7174878778,742410.1249504851,743340.9831635674,744297.9224353026,745280.6301193833,746288.8393802504
H,2212891.799772757,2212891.799772757,2212891.7997727566,2212891.799772757,2212891.799772757,2134799.395017315,2057778.8172327366,1981890.5053444766,1907198.2220770647,1833769.2803980992,1761674.744178293,1690989.5904104332,1621792.8166412215,1554167.4728884809,1488200.592252493,1423982.9887908718,1361608.8852716666,1301175.3276392326,1242781.3382325561,1186526.757213654,1132510.7230143605,1080829.7501157962,1031575.3787352203,984831.3986312808,940670.6902191598,940670.6902191598,940670.6902191597,940670.6902191597,940670.6902191597,940670.6902191598,940670.6902191598,940670.6902191598,940670.6902191599,940670.6902191599,940670.6902191599,940670.6902191598,940670.6902191598,940670.6902191598,940670.6902191598,940670.6902191598,940670.6902191599,940670.6902191599,940670.6902191599,940670.6902191599
S0,2621020.554543571,2614538.1381928003,2604722.3603927153,2595050.8471188666,2585480.3695721887,2614070.495869297,2641860.455494356,2668818.2561983615,2694913.0622353554,2720114.0709825153,2744389.8174928743,2767707.755425447,2790034.0244075875,2811333.3526084474,2831569.067755558,2850703.205154023,2868696.7103335946,2885509.7379575246,2901102.047298007,2915433.485811849,2928464.5309556043,2940156.814660577,2950473.4569921265,2959378.8120587533,2966836.660080824,2955679.198622616,2944556.6294198646,2933462.5728366673,2922394.1965564485,2911350.3442275524,2900330.635616073,2889335.0361838024,2878363.6534474203,2867416.642682704,2856494.165110127,2845596.371040468,2834723.3946824945,2823875.3542107115,2813052.3540330753,2802254.487815906,2791481.8416036316,2780734.496745321,2770012.5325175114,2759316.028415234
E0,0.0,586.4395921299283,874.0071504759941,994.7561582283745,1024.9069907198339,1007.811547908401,975.5626424475578,938.8965424374078,903.6327984020286,872.7372860377727,847.5649972853431,828.6041927888077,815.9196622173837,809.4167486915569,809.0013259986231,814.6829452311515,826.6521776122419,845.3549405231329,871.5845700607643,906.6168504599943,952.4272196198461,1012.0617899161166,1090.3078942731051,1194.9900942427914,1339.7035795577037,1550.3081828584593,1724.0832845166537,1874.6704074966046,2009.4460615873943,2132.6397842216215,2246.8604784986974,2353.8496738571866,2454.858111615249,2550.8380174323806,2642.5445920119096,2730.5923056072825,2815.488290621087,2897.653795405386,2977.439139081097,3055.134907168952,3130.9808018959598,3205.1729049892,3277.8697820695525,3349.197689634446
I0,18410.09477139099,11451.001867552524,7215.195890239117,4626.00898027419,3034.6369224589744,2049.5772470442603,1434.171330422216,1046.2926234830488,799.2364954441354,639.9931452929,536.0596268171471,467.43347834898896,421.7504502932361,391.3302749207975,371.3808918695574,358.9067775697365,352.04623900494016,349.67144170992583,351.1513803843502,356.21900499620216,364.909922978991,377.5586141423785,394.85473764590796,417.98417326336744,448.92165744150736,491.044973486041,550.5437296506267,615.0269054377749,678.9441691263341,740.0095213393406,797.4698028829134,851.2690398144816,901.6477659597474,948.9533443061421,993.5523874791368,1035.7923301166163,1075.9864276470255,1114.4097052224645,1151.2998299851515,1186.860018087063,1221.2626129605312,1254.6527102900334,1287.1515610337985,1318.8596532412457
A0,4877.934123977967,4682.816759018849,4520.071334868195,4375.882566100916,4242.519789981649,4115.754609690647,3993.3438708573767,3874.478583896027,3758.8318847227083,3646.3337776065214,3537.0413137113806,3431.066025751554,3328.5354394465658,3229.574693669108,3134.2999563517906,3042.818805555546,2955.2349163351746,2871.6558001915732,2792.2033486268842,2717.027812079672,2646.3268763826077,2580.3730753797586,2519.5556499182385,2464.4488231320875,2415.931637347828,2375.4175056416743,2345.3466299151464,2323.7584109843456,2309.3421470766134,2301.148582732813,2298.4436173512318,2300.6318070514476,2307.214482212341,2317.765316306346,2331.914926697255,2349.34034307518,2369.7572554549824,2392.9139711442867,2418.586512179725,2446.574535356054,2476.69788446375,2508.7936511959288,2542.71365787342,2578.322296587336
IH0,0.0,3470.5666751194126,4121.70593154898,3691.4943316992476,2960.058459714687,2246.345986290999,1656.9568248901633,1207.572663140966,880.2705134814814,648.5676790003754,487.4918632668825,376.7909211971611,301.2390484289438,249.8933606552442,215.11648400026039,191.68518165303936,176.08037815902014,165.96065209616052,159.78903162802663,156.57721851619718,155.71586702544414,156.86703046715104,159.90261308158085,164.8801717553289,172.05581724585073,181.94667748508368,195.48201183365336,214.35425944663848,237.18481579471967,262.14759510991735,287.77877992741907,313.1084219530176,337.5773454465243,360.91461252108604,383.03245771619174,403.950350711969,423.7448003907979,442.5181349776011,460.38007972405205,477.43750128083593,493.789154906417,509.5233879293618,524.7175241358093,539.4381570839737
IN0,3488.5262287190544,6935.968603148367,9024.133441344602,10285.064003326805,11040.520115955804,11485.530470421187,11738.641186962885,11872.15787701735,11930.603080103601,11941.545352314879,11922.18375933913,11883.35583739162,11831.981227031778,11772.555177352026,11708.064664730118,11640.553441533915,11571.473569830372,11501.907239023783,11432.71018054313,11364.608478891458,11298.269064310238,11234.35775995022,11173.595928193346,11116.827119459764,11065.1096619908,11019.863612780815,10983.132360700403,10958.108097917418,10945.597449923307,10945.34581113604,10956.66840073021,10978.74578641422,11010.75757973425,11051.938632549505,11101.598629517859,11159.124854412286,11223.977642213502,11295.68304218324,11373.824799707347,11458.03659785315,11547.994941147597,11643.412801208062,11744.034024102995,11849.628448414342
D0,9663.0,9663.0,9920.29543228439,10225.864006145759,10499.538226744691,10718.986401142076,10885.522478880206,11008.363346797552,11097.888476110038,11163.148591674775,11211.23108567508,11247.371993323844,11275.305928045591,11297.638716446436,11316.164918727964,11332.112887438416,11346.323742982413,11359.37771406443,11371.681444757578,11383.527633526051,11395.135709928338,11406.679928803911,11418.309490830356,11430.164100122602,11442.38772785782,11455.143332351081,11468.632209937512,11483.124548926167,11499.016009027398,11516.60004512983,11536.034732637685,11557.369624750412,11580.582366161154,11605.609146268494,11632.366068102641,11660.762728075655,11690.710166012224,11722.12509383264,11754.931809706733,11789.062746443065,11824.458259562434,11861.0660259482,11898.840272239486,11937.740957585078
R0,0.0,236.20121924886095,1755.4410122287154,3527.33058506228,5153.322189399067,6519.382387809671,7628.503719967675,8523.38684613509,9253.200799095552,9861.16926274847,10381.297617035856,10838.800009289374,11251.727010614188,11632.730813260168,11990.579470362401,12331.329557491163,12659.184393976126,12977.10082872462,13287.209277975151,13591.101429917693,13890.027507393655,14185.033983199823,14477.064330257035,14767.039941047937,15055.935845745837,15344.86696179649,15635.207758075536,15928.789134303863,16228.010847567155,16534.733095385065,16850.11727414787,17174.76002339349,17508.87509863449,17852.44520851998,18205.329394444947,18567.332175968706,18938.244951763336,19317.868954245852,19706.026629384152,20102.56608948321,20507.36161689644,20920.31205374478,21341.338171928695,21770.379654816137
G0,726223.0,726223.0,726315.7206722159,726453.9080176837,726611.1867228046,726773.2325096403,726932.5753736676,727086.8194342842,727235.2662985892,727378.1376899969,727516.1242599953,727650.1308948637,727781.1396786964,727910.1429393395,728038.1180386484,728166.0274563903,728294.8351824346,728425.5353374473,728559.192545109,728696.9968617233,728840.3400550291,728990.9262249006,729150.9410853302,729323.3272649742,729512.2645166818,729724.0820988056,729969.1979108781,730241.7889215157,730538.1889304834,730855.8980212617,731193.0850001783,731548.3311614838,731920.4931488122,732308.6253577528,732711.9327381961,733129.7396431527,733561.4675781713,734006.618230388,734464.7598895879,734935.5162337406,735418.5568846525,735913.589362921,736420.3521911935,736938.6089625786
H0,774512.1299204649,772769.4776281439,769987.5075086826,767215.5524816513,764453.5764927174,723616.4664364763,683642.1204964329,644554.6266672022,606379.7048168799,569144.7440378352,532878.8222240815,497612.70092762966,463378.7868490504,430211.04936516884,398144.88132716826,367216.8880674635,337464.5873069481,308926.00074416614,281639.1169758201,255641.2056721646,230967.96544423077,207652.49360752243,185724.07617015595,165206.81183154887,146118.10507349612,145592.07989523152,145067.9484076087,144545.7037933413,144025.33925968528,143506.8480383504,142990.22338541233,142475.45858122484,141962.54693033244,141451.48176138324,140942.25642704227,140434.86430390493,139929.29879241087,139425.5533167582,138923.62132481785,138423.4962880485,137925.17170141154,137428.64108328646,136933.89797538664,136440.93594267525
S1,748863.0155838775,701113.1909294312,660343.7352013079,622482.6803727569,587309.9561319866,562826.6327839099,539634.0895666609,517673.32591266016,496887.23086932953,477220.34712995245,458618.7668566094,441030.0973451906,424403.46170222096,408689.51537462045,393840.46838941675,379810.1082866723,366553.82154542464,354028.6126815888,342193.12056410086,331007.6309452731,320434.0824771448,310436.0597479292,300978.7589371446,292028.8936281789,283554.4621469712,273936.9888112263,264967.1220225515,256598.12171208402,248786.910637157,241493.63444910286,234681.34933178776,228315.7765855764,222365.095439824,216799.76022325768,211592.33496671828,206717.34178340476,202151.12092809853,197871.70119089467,193858.67965817938,190093.11007285106,186557.39914025096,183235.21019967322,180111.37373424764,177171.80423415187
E1,0.0,167.55416917997954,242.6091699892986,269.01466146624585,270.16713288747434,258.81331567109237,243.50494605232953,227.16868450933976,211.31854301341474,196.68063623805295,183.5510826423339,171.99985102200688,161.98598794046103,153.4221795619506,146.21068000251628,140.26345302001016,135.5141350211162,131.92654123550793,129.50303280845733,128.2957506990832,128.42453271528368,130.10788568796698,133.71959434974553,139.8988735431517,149.78341197235497,165.56354496376932,177.2935845374723,186.4139775996267,193.71690885252002,199.67446488460823,204.5941382231688,208.69349467732354,212.13682604435132,215.05381210156273,217.5495782920347,219.71056194687424,221.60827078425814,223.30192518282095,224.84046272989914,226.26414205492898,227.605868785813,228.8923119991092,230.14485306263407,231.380395427678
I1,0.0,0.0,26.491620633110106,54.83607861185189,76.64112689722397,90.38599035429047,97.14011084485531,98.92077290941155,97.44544692800275,94.02176938423807,89.57788908773014,84.73792934937337,79.90115486761736,75.3094315555793,71.09939400031071,67.34057395647247,64.06230066800802,61.27232420028683,58.969743967184854,57.15437312338183,55.8343393440711,55.03364530104481,54.80176818941244,55.22858089815122,56.47104883873483,58.80668129504521,62.754396973779976,67.06447031780526,71.18732315058905,74.9063707257356,78.16153880847364,80.96407844249985,83.35538658075549,85.38718776884487,87.1121578415281,88.57968209973524,89.83414440990992,90.9144572789692,91.85418732692145,92.6819502650171,93.42191014907054,94.09429955697664,94.71591965642838,95.3006012643576
A1,0.0,0.0,7.019213202885804,16.901877178206565,27.49541879339639,37.71349831025516,47.047218235251414,55.366288041600285,62.668233077300144,69.01410297267978,74.49292391587272,79.20256610197049,83.23991606522863,86.69626924886852,89.65561150948527,92.19447447903536,94.38264049210424,96.28432047279703,97.95964104852486,99.46642269517851,100.86235736923666,102.20784961864726,103.57004154187167,105.02904821918273,106.6885582453349,108.69577295699094,111.28376360861782,114.25963182858585,117.49853867376773,120.91382512081137,124.4420752543103,128.03529133472705,131.65650984306168,135.2771283463325,138.8751210803821,142.4337472479799,145.94055673397216,149.38659304362892,152.76573881410974,156.07417148041156,159.30990790279245,162.4724227563311,165.56232895546162,168.58111061063335
IH1,0.0,0.0,0.0,4.994050105708993,13.162129953496368,21.892737618310704,29.42206291047562,34.954061542551614,38.418760595875455,40.10034964329358,40.40608070301555,39.74127372426254,38.452842672921115,36.81227674987606,35.01873134205817,33.21061064519439,31.47930681456441,29.882042223579923,28.452644089509754,27.210076048735967,26.165029123402725,25.32508257138718,24.699048233363946,24.301237438331455,24.156687312639914,24.309149628794266,24.835685817479927,25.877707111997317,27.27960760567107,28.849769851968325,30.43898152749219,31.951520042916925,33.33536360287739,34.56889146736408,35.64962529365583,36.58609342688979,37.39242952145324,38.084994874481595,38.68037935662251,39.1942943483861,39.641021019909246,40.03319238239659,40.38176807259144,40.69611436025465
IN1,0.0,0.0,0.0,5.019893409972754,15.351655576191307,29.69357760196604,46.47110915947759,64.33089155146325,82.31775934410257,99.81323916176535,116.45392514824454,132.05656600939153,146.5583336113184,159.97279634840322,172.35919395939337,183.801959393833,194.3977068092429,204.24747014683305,213.45256204490195,222.11293134594655,230.3273144045254,238.19482488385327,245.8179574631314,253.30737518361002,260.78946782526555,268.4188800478436,276.4010204785098,285.0372085092083,294.3884046209188,304.4107118819325,315.01970971551384,326.1205882953308,337.62178631493106,349.440665074444,361.5053603744291,373.7548358858339,386.13813210899053,398.6132999791886,411.1462579849885,423.70968652187054,436.2820101112698,448.8464862093069,461.3904033148457,473.904383279074
D1,0.0,0.0,0.0,0.0,0.3702410589054854,1.3460344186603876,2.969083884839618,5.1503306678275536,7.741700094371293,10.589929948651838,13.562826815954185,16.5583894933497,19.50466575299384,22.355422330881076,25.084553203840343,27.680717018614416,30.142833215269782,32.476596722230106,34.69194473054689,36.80132226048368,38.8185802286539,40.75836214591326,42.635873422257994,44.46697274611632,46.2685797967937,48.05947041682499,49.86166404907709,51.70289319597655,53.62137408431191,55.64378687406423,57.78260589131074,60.03924339277675,62.40801510389877,64.87938003978913,67.44219433102633,70.08513037270089,72.79749282098747,75.56963415077618,78.39311980515895,81.26074514105426,84.16647030108238,87.10531418287043,90.0732322504288,93.06699247613831
R1,0.0,0.0,0.0,0.2807685281154322,2.8150278478912947,8.83718840111693,18.582104803918604,31.610334336429823,47.17451591149981,64.49073344320634,82.87260613062843,101.7797436515647,120.81952556423435,139.72743988879773,158.34058801970818,176.57187254214966,194.38811064011196,211.7929718777976,228.81449800995784,245.4965149785911,261.8931701222445,278.06593261434523,294.082585422747,310.0179786573418,325.956625832595,341.99769590033594,358.2638283111242,374.91716518250996,392.1666235307501,410.1607889820006,428.9752352163336,448.62825254981675,469.10061154800843,490.3517855056285,512.3313417016942,534.9862272479828,558.2650730751841,582.1205035003045,606.510184576112,631.3971126531534,656.7494693367544,682.5402474901598,708.7467727281073,735.3501935999321
G1,0.0,0.0,26.491620633110106,64.85002212753363,107.38333771846473,150.09886802736497,191.01927130417698,229.51930197888396,265.43644232338806,298.8475517075994,329.94429389310983,358.96515127884396,386.1596688759084,411.77091663775155,436.0281595195702,459.1452080901439,481.3219537019157,502.74779510576195,523.6064099582238,544.0818492313207,564.366407789272,584.6713277881487,605.2423990177717,626.384509548735,648.5036123024458,672.1855376554474,698.3624250782948,726.3939232214765,755.8674266230765,786.4955803995862,818.0656702381765,850.4135987922211,883.4096675659621,916.950153877839,950.9518384302487,985.3481230778425,1020.0860760913059,1055.1240716691418,1090.4298472134801,1125.9788775405937,1161.7530026699822,1197.7392652574945,1233.9289245479326,1270.3166203470694
H1,221289.17997727572,207225.46227121993,195205.6136570227,184034.3105656952,173650.97865707948,155799.4016898145,139642.72507893716,125024.90064441593,111804.10106881107,99851.49344079453,89050.11481046464,79293.8407243724,70486.4383364893,62540.696253869566,55377.62378264448,48925.71270465259,43120.25515559875,37902.71161661162,33220.12350466411,29024.565394251462,25272.63257123498,21924.96046160489,18945.773539487367,16302.462625743812,13965.191023667976,13493.70255738485,13053.998148051622,12643.814323172468,12261.049262316179,11903.751250628462,11570.107957093063,11258.436478631042,10967.174095335518,10694.869686046464,10440.17575709841,10201.841040443018,9978.703620476861,9769.684551809763,9573.781932906539,9390.065403039702,9217.671032316697,9055.796576704872,8903.697071982926,8760.680742409822
S2,748863.0155838775,793368.2811111349,833952.6840205459,871154.0025560705,905215.6428734323,950203.1408806528,993111.69715999,1033996.2279214305,1072909.669724822,1109902.739189621,1145023.746838914,1178318.4621026155,1209830.0276544234,1239598.9229985594,1267662.9791118025,1294057.4477418957,1318815.1304686682,1341966.573591002,1363540.3348891423,1383563.3265974652,1402061.2341916007,1419059.0002952756,1434581.341615537,1448653.2205004182,1461300.081023233,1464072.7510083502,1466124.144284871,1467508.007705516,1468274.7305065833,1468471.3208458025,1468141.51881596,1467325.9673563035,1466062.4032661992,1464385.8504038535,1462328.8068387194,1459921.4224308452,1457191.6655792727,1454165.4789600417,1450866.924571963,1447318.3186235204,1443540.3568730596,1439552.231048226,1435371.7369542615,1431015.3748512683
E2,0.0,58.64395921299284,89.91313368595962,105.04969063951862,110.95795842498944,111.78996333955877,110.97260816595448,109.62485397238653,108.3813894182769,107.5830810729054,107.39908786901275,107.9041366740343,109.12699132176083,111.0809053980922,113.78329681628594,117.26958008314716,121.60472438040027,126.89549063601824,133.30641353369109,141.0836383668089,150.59333103090373,162.38715863994625,177.32040251009204,196.77997188681155,223.16504330155388,261.0287939342567,292.7057057187707,320.4978354178967,345.64470833618157,368.8503675251188,390.5431642432869,411.0046686375844,430.4343298661595,448.98248748362846,466.7677086451817,483.88629294412056,500.4178054104748,516.4285471096656,531.973915066068,547.1001319096364,561.8455927075657,576.2419605314086,590.3150839876223,604.0857800690782
I2,0.0,0.0,9.272067221588538,19.983154514915896,29.03861364572567,35.605214517236725,39.821159230425465,42.314228964326205,43.65181745373796,44.28719045208662,44.556171022722495,44.69438505127467,44.86020575249119,45.15668838926613,45.65002839891717,46.38415297420606,47.3919839547809,48.704270721284985,50.35701899490496,52.39863839990149,54.89815701005766,57.95640368147966,61.72331641279475,66.42738265643061,72.43000181714095,80.33529132850362,91.23890251991803,103.02926977969565,114.75698126240948,126.0274853909613,136.7066874324649,146.77890669850365,156.27890830227292,165.25985046571077,173.77856723613874,181.8891555447858,189.64048917296748,197.07554725968248,204.23154536485956,211.1403901124646,217.82923544722797,224.32104156858765,230.63509580296494,236.78748165287357
A2,0.0,0.0,2.4567246210100313,6.125114849545589,10.280873179606147,14.517911527587891,18.62032286010128,22.52439693077986,26.215847646890317,29.70754886532134,33.026139140068196,36.20427792324945,39.27644876196969,42.27696084180223,45.239306202803235,48.19636687817779,51.18119321149708,54.22823523471342,57.37503742892618,60.6645352162957,64.1482581705973,67.8910141785386,71.97812936186881,76.52734641564929,81.70979901024731,87.79028225856017,95.21374208989545,103.6672791344089,112.94694822536943,122.90888844790936,133.44448723791282,144.4674211115397,155.9066151179454,167.70219266886195,179.80297029463395,192.16477890367992,204.74925037015515,217.52288444760717,230.45629839710722,243.52360549265265,256.70189084506,269.9707646146471,283.31197899112783,296.7090989316862
IH2,0.0,0.0,0.0,1.7479175369981477,4.755771151365053,8.164162379302331,11.329920946072516,13.915308832852478,15.84763981911916,17.19276284732191,18.07337060108496,18.62216819030049,18.958635367117367,19.18020809824896,19.36142567933871,19.556927945598787,19.805901281446552,20.136716596678518,20.57121779377448,21.128547853438697,21.828660369752104,22.695854310541655,23.762881384692374,25.076532132347793,26.70634545956161,28.759783050483286,31.41151236381335,34.966875088833795,39.200518749807244,43.806001347796304,48.535613997531186,53.22396838757402,57.77456125759594,62.13936198678372,66.30122449799673,70.26116462943992,74.029955008023,77.62290227393584,81.05676637934158,84.34804278401764,87.51207653459142,90.56266603085294,93.51194427442141,96.37040989229632
IN2,0.0,0.0,0.0,1.7569626934904639,5.52287630013155,10.960356959916302,17.578105480324176,24.9167965226924,32.64147232047158,40.52863521265227,48.44330889979822,56.31574174257532,64.12165227174003,71.86705509514113,79.57742191453212,87.29046781918794,95.05178749087155,102.91267700425617,110.9296550235228,119.16539731991953,127.69101467424969,136.5898605260745,145.96341271944294,155.94036573887925,166.69119450783924,178.45284781356068,191.57395805887558,206.6066666686017,223.6964923139933,242.80733599958143,263.82876034040453,286.6262189643684,311.0637787005735,337.01369487918055,364.3598002042006,392.99806494011267,422.835935313883,453.79120863033125,485.7907943940964,518.7695148568405,552.6690058404872,587.4367359103092,623.0251430113808,659.3908799727491
D2,0.0,0.0,0.0,0.0,0.1295843706169199,0.48216027789119886,1.0874221516024352,1.9273820718271044,2.9590134267833914,4.133900907603015,5.4085110110992956,6.748406231951709,8.12898734827074,9.534512940755363,10.956465145080536,12.39185217438639,13.84173304427182,15.310071909081675,16.802936241201845,18.32801294202144,19.89440810522772,21.51270711279001,23.195296785467438,24.95699203887638,26.816076672357404,28.79598985167062,30.928137568476775,33.256875036710476,35.849194413864126,38.75538102880849,42.00300169382396,45.60125896812151,49.547094111513594,53.83029397636064,58.43708459614196,63.35242085534509,68.56133294907815,74.04964971657776,79.80433477677882,85.81359427167959,92.06685725781985,98.55469041875389,105.26868340217163,112.20132535321936
R2,0.0,0.0,0.0,0.09826898484040125,0.9936380602488848,3.183142730757667,6.8340103920779995,11.867349371316724,18.07464282126967,25.216673086942308,33.07582691173538,41.47816602095946,50.298042993528945,59.45394539425633,68.9009044984168,78.6224434107888,88.6235282361073,98.92510062904049,109.56030473992864,120.57232119742025,132.01368227247443,143.94700699911522,156.44724187226257,169.60574005636397,183.53693594876307,198.38916777344198,214.36286826209252,231.74329629857533,250.91969412496164,272.1936785425846,295.7502935605279,321.6797029812154,350.00745334893827,380.7198828351739,413.78212747968524,449.1497311644702,486.775611812551,526.6139433806183,568.6221058185023,612.7614806262445,658.9975886006404,707.2998745241892,757.641319691555,809.9979861683216
G2,0.0,0.0,9.272067221588538,23.488034745404505,40.097209949265846,57.64052835909774,75.3153932333926,92.86102788150086,110.19357208263652,127.32951484198527,144.33923882720666,161.31987205222524,178.38035743138187,195.6341856654227,213.19694295036805,231.18696939013856,249.7282043983216,268.9548595227254,289.0180260463278,310.09480946853944,332.4012327789478,356.2112126503634,381.8858886278809,409.92162690164406,441.0340748277824,476.3182082793704,517.5888959445441,563.867950360189,614.5411571874314,669.190280703113,727.508399880217,789.256319365731,854.2393622423806,922.2943860599781,993.2820182241774,1067.0816325323824,1143.587828498584,1222.7077854884208,1304.3591655829496,1388.4683895647336,1474.9691863745475,1563.801355512671,1654.9097026578863,1748.2431203552073
H2,221289.17997727572,234461.1549759231,246471.7694836778,257480.83987008804,267560.89967394614,262940.3275909048,256896.12769176625,249627.41142818483,241317.20170121553,232133.92203636898,222232.7523325056,211756.85784143253,200838.49627701045,189600.0061271148,178154.67736153616,166607.50383540377,155055.8148658936,143589.7818561146,132292.79468203985,121241.70217457411,110506.91185854626,100152.3466931401,90235.26148498415,80805.92944954129,71907.22036846075,72048.69567528869,72154.8090046818,72228.25162234403,72271.5210784951,72286.93506058323,72276.64425633546,72242.64429783812,72186.7868522899,72110.78992038184,72016.24739890442,71904.63796013877,71777.33329683542,71635.60577809763,71480.63555824955,71313.51717776372,71135.26569253126,70946.8223651666,70749.05994963164,70542.78759823005
S3,2246589.0467516324,2236682.11438881,2227418.7317414028,2218734.382793433,2210576.6319175805,2235451.581044472,2261729.794242883,2289433.92664074,2318590.8975298144,2349231.870495945,2381392.2760875598,2415111.8368421476,2450434.561726862,2487408.679364786,2526086.478457128,2566524.020652468,2608780.686565996,2652918.5104515753,2699001.2539639445,2747093.1653686767,2797257.3681702,2849553.822229029,2904036.797626214,2960751.783299523,3019731.672064419,3011866.0687809684,3004097.820770189,2996416.241607728,2988812.093050375,2981277.1542193904,2973803.990503562,2966385.820738618,2959016.4334798325,2951690.128432585,2944401.6713371268,2937146.2565411497,2929919.4743811283,2922717.2819009726,2915535.9761252147,2908372.169443128,2901222.766829126,2894084.944710753,2886956.1313409256,2879833.9885564432
E3,0.0,100.53250150798772,149.695061816408,170.30382310043495,175.4189094995571,172.46349393431905,166.92884486585663,160.67266991328148,154.70509629118507,149.54575491656988,145.43823557355896,142.47835150051083,140.6906888041674,140.07455117406076,140.63232676457488,142.3884963414293,145.4047801179982,149.79562695389524,155.7481200082173,163.55153723164335,173.6449874947545,186.69871335193,203.76092571432676,226.54158189830514,258.0111700974908,303.8243736305393,341.66637446679636,374.41734435781353,403.66355106966085,430.3341629460399,455.0146750011889,478.10283066442867,499.88749692139544,520.5896215549315,540.3843539197325,559.4136680460701,577.7940832903876,595.6217628705563,612.9761372975854,629.922642119144,646.5148829114778,662.7964016550638,678.8021475650106,694.5597179499738
I3,0.0,0.0,15.894972379866063,33.55456277490245,47.79715991623123,57.4647307506022,63.01064508753798,65.585109411657,66.19726540051167,65.63450394140374,64.46873656929431,63.09420330865822,61.77126862417409,60.66576537794924,59.88073082378321,59.480631287967554,59.509435155491374,60.004249024720245,61.006248301585565,62.57062322239574,64.7774389826778,67.74592233517225,71.6562023948917,76.78604903556749,83.57859154060687,92.77911181445145,105.74522160575181,119.79320300999674,133.70917233864915,146.98890032235374,159.4656672269326,171.12834540284308,182.03289983619698,192.2598126368776,201.89407690755016,211.01625048090514,219.69888719280596,228.00553784418872,235.9909349217262,243.70168038611365,251.17710633210154,258.4501526175353,265.5481920227081,272.493776045778
A3,0.0,0.0,4.2115279217314825,10.314122663698395,17.035960019170304,23.70320611620616,29.979953501714622,35.773772351669706,41.07375349897032,45.91174059713161,50.34007203718392,54.419197187105766,58.21116126775024,61.776557657301275,65.17352682883623,68.45798368155667,71.68463207189362,74.90857329770442,78.1874991197472,81.58463095395493,85.17277985014276,89.04023965390604,93.29985039389996,98.10385036149827,103.67002219476556,110.33187751949201,118.64647463569807,128.21377263333147,138.77038897730012,150.1299286845603,162.15237747990014,174.7278493348779,187.76751601051615,201.19820367168515,214.95892142594474,228.99845540880568,243.27358791519936,257.7477112007476,272.38971031985375,287.1730424438054,302.0749676962592,317.0759014515865,332.1588665386519,347.30902897276565
IH3,0.0,0.0,0.0,2.9964300634253958,8.020361920236272,13.546940693360316,18.495369476553773,22.33979273989273,24.999605563628833,26.61945371902575,27.429586465422663,27.668051311078493,27.543812997737742,27.224148960488648,26.834936825454783,26.466799714427218,26.183148862277,26.02813971315667,26.033742672102022,26.225803049551455,26.629343665582773,27.273611408100898,28.197624904347272,29.457410857850185,31.13702279216149,33.36753942804475,36.36359805933883,40.50253147619276,45.49184802924867,50.9372736105845,56.52074376725368,62.03092526837747,67.34618572103892,72.40827740034922,77.19942615731819,81.72560096449564,86.00536430840059,90.06289297284394,93.92384210919187,97.61304068704959,101.15331764899568,104.56500020491984,107.86579550203922,111.07087924924852
IN3,0.0,0.0,0.0,3.011936045983652,9.334714230979294,18.28185769618532,28.955538600757233,40.554411669183665,52.50452141250623,64.42989384249705,76.10818534741314,87.42804225821514,98.3541267873826,108.90085374048442,119.11389180742415,129.05789635924566,138.80897704527027,148.45067874579624,158.07259376952274,167.77106163164987,177.6517452612382,187.83423475322053,198.4593040681247,209.70020193276906,221.7807713231958,235.00618755464765,249.8192552997151,266.9148180425948,286.4709988767546,308.4338045197341,332.6543312276948,358.95383717541506,387.15357697682913,417.0875151009096,448.6068219358781,481.58052594503187,515.8944629161775,551.4495613480556,588.1599587219268,625.951174960241,664.7584377251142,704.5251905258636,745.2017846981403,786.7443431467548
D3,0.0,0.0,0.0,0.0,0.22214463534329126,0.8167456560176607,1.8210675112401118,3.1922482232676908,4.848440761322479,6.701822333428947,8.675293669079167,10.708825356454158,12.760035976779063,14.802036011764562,16.820337295407974,18.809783779847617,20.77193789217961,22.71306314223818,24.642696566965494,26.572745375080842,28.517032854418048,30.4912373954243,32.51320564847979,34.60367696579211,36.787544319497016,39.0959321101112,41.569682446894404,44.26554988236774,47.268263076005084,50.64086639984084,54.41717415009395,58.60742045911506,63.20617196743431,68.19897792388618,73.56706929877667,79.29035935041374,85.34920385543624,91.7253347470132,98.40227633881632,105.36545492591661,112.60213753461596,120.10128364757837,127.8533597342931,135.85014500897506
R3,0.0,0.0,0.0,0.1684611168692593,1.6959365630057548,5.37657827250591,11.420183793937658,19.623192549241907,29.579474290629463,40.84666575231891,53.031357080726785,65.82255886232001,78.99614293011021,92.40532459677927,105.96617299867323,119.64296710944984,133.43563017366856,147.3700133007643,161.4910621852361,175.85860238416976,190.54543344907168,205.63752601625814,221.23632682272475,237.46351022185638,254.4690635847678,272.4446013477456,291.64589245320235,312.43352434947633,335.29619696756487,360.6088049423812,388.59611721678755,419.3609684282719,452.9235616897708,489.25462485235755,528.2990201715838,569.9910145313461,614.2634341021925,661.0527188354407,710.301387110886,761.9589435787918,815.9818984686603,872.3333135405587,930.9821238232227,991.9023794085354
G3,0.0,0.0,15.894972379866063,39.562928884311496,66.48929124237864,94.22438864448739,121.4922118011945,147.88496378434218,173.2885657256311,197.748647745748,221.3929976651244,244.387916748427,266.91485508040046,289.1591500009729,311.306028757958,333.5410961849991,356.05382771568577,379.04345723059885,402.7273138674269,427.35230607007276,453.2110793820554,480.6657058832373,510.18422822747317,542.4004193869843,578.218409918918,619.0119877258992,667.0489902350213,721.0691081453192,780.26740976758,844.0897647151601,912.1289513616458,984.0703194077098,1059.6621048915622,1138.6982159742518,1221.007494384111,1306.4464743281587,1394.8941372146269,1486.2478870705481,1580.4203320775234,1677.3366390002948,1776.9323204739176,1879.1513645930354,1983.9446437789193,2091.2685561962617
H3,663867.5399318271,660969.7054321247,658252.8287794275,655701.5762715475,653302.6445629761,651043.7046639269,648748.582453524,646400.631500837,643985.7144696179,641491.9906788141,638909.7231616855,636231.1034726298,633450.0925846606,630562.27629261,627564.733586923,624455.9164899074,621235.5398505321,617904.4795763716,614464.6777448556,610919.0529860537,607271.414475153,603526.3778290332,599689.2811887095,595766.0998155297,591763.3576676566,587688.0346914792,583648.3569699464,579643.6064833478,575673.1032343478,571736.2026249961,567832.2930205091,563960.793486485,560121.1516871672,556312.8419332538,552535.3633685764,548788.2382857299,545071.0105614457,541383.244203158,537724.5219988233,534094.4442626218,530492.6276696924,526918.7041735465,523372.32000025705,519853.134713941
S4,1123294.5233758162,1141864.4622423053,1160396.7984135193,1178879.1902647184,1197305.8647773636,1233643.2542403215,1270199.4279752811,1306973.8033487345,1343965.4916475601,1381172.9495956781,1418593.7211461794,1456224.2355374952,1494059.641204056,1532093.6642025558,1570318.4860687212,1608724.6405059928,1647300.9315971415,1686034.3784807378,1724910.192336819,1763911.79006177,1803020.8428347001,1842217.3416497346,1881479.6234554758,1920784.208604131,1960105.057208182,1985078.964779784,2009982.039834537,2034812.4276874396,2059569.5371446107,2084253.3537489544,2108864.105659477,2133402.1028749635,2157867.661621879,2182261.0704747746,2206582.576808096,2230832.3830379695,2255010.6474691504,2279117.487205064,2303152.9818824856,2327117.1776348804,2351010.091004462,2374831.7126778485,2398582.010995458,2422260.9352208055
E4,0.0,150.7987522619816,226.72812122622784,260.38265156091313,270.7519857275291,268.8062679622415,262.9868749683177,256.09787092225235,249.69225442387992,244.5866614131808,241.17762840646327,239.6349734932664,240.01983834770994,242.3573614685453,246.68304062653706,253.07523012100137,261.68247792016723,272.75276733337836,286.67196487501815,304.02130655885315,325.67007651058043,352.93361509696126,387.8583839461228,433.77248372253547,496.44671063862745,586.8541818701731,664.4545991887708,734.4640460988053,799.7090116908282,861.7998465462322,921.715018949764,980.0940707936868,1037.3861050599212,1093.9263343787059,1149.9765905796407,1205.7476090588953,1261.4119590096668,1317.112061480259,1372.9655387127423,1429.0690432898264,1485.501167522367,1542.3247569503417,1599.588810532976,1657.3300765133095
I4,0.0,0.0,23.8424585697991,50.677393259884425,72.68965394687082,88.0206605177243,97.24884926599552,102.06865262196925,103.97734487364812,104.15176554728586,103.4530204107076,102.47940916136184,101.62992127016676,101.16239349294952,101.24117380497891,101.97409843312023,103.44062948467106,105.71367864973874,108.87780478913056,113.04661166491064,118.38265828734353,125.12449627862699,133.62846931719997,144.43978321956803,158.42375238646684,177.03100663056748,202.89876700898617,231.25763671904798,259.9657743921223,288.1378536289464,315.47781409936033,341.9562109828844,367.6558462843877,392.69922918749364,417.21555962211426,441.32659705758,465.14139428334715,488.75506621290475,512.2492918024609,535.693472014418,559.1460554837839,582.6558230739793,606.2630526477155,630.0005439844797
A4,0.0,0.0,6.317291882597225,15.56274059834001,25.848233768867217,36.15670146037784,45.97132004138914,55.149566688810495,63.67208791707882,71.58536291204574,78.96822237038239,85.91295554897523,92.51527418824848,98.86962291840935,105.06772169153967,111.19910874144298,117.35302320675271,123.62135766213882,130.1027175463226,136.90792887867613,144.16773389464768,152.04406136698407,160.7474654226634,170.56580880873696,181.9148612297055,195.43551296602286,212.20270673487926,231.55006515765695,253.05637917786203,276.43569595490743,301.48096189465303,328.0343957383532,355.97131929613835,385.19085541884346,415.6102048386924,447.1608489706747,479.7858381430929,513.4377299747226,548.0769461109994,583.6704187863373,620.1904519353511,657.6137497402807,695.92058095417,735.0940562542686
IH4,0.0,0.0,0.0,4.494645095138095,12.095683836845922,20.544623226875267,28.213641522884338,34.29105087519604,38.63716777698403,41.45524185765461,43.08208664236216,43.87054196265659,44.132969767337926,44.12126400064571,44.02650727889662,43.98776203399213,44.10401367580896,44.446230250829274,45.0682977279636,46.01663574011907,47.33891617827013,49.0927480035873,51.355686496557304,54.23877450019414,57.90759937053366,62.61894508160704,68.79151874048524,77.1593041528859,87.23835888099948,98.35118676719588,109.94768453763054,121.66089020212439,133.2776913076392,144.69315618034776,155.8710279200784,166.81515487374998,177.5506671548174,188.11233691549165,198.537762565457,208.8636082366105,219.12369503524172,229.3481713198684,239.56328554951256,249.791477377746
IN4,0.0,0.0,0.0,4.517904068975479,14.067549395605306,27.67583010381498,44.02891836047268,61.938066897981756,80.54960590762502,99.30363741397136,117.86985643047333,136.08501873221297,153.90117432143225,171.34654235821824,188.49786711984373,205.46213135200776,222.36549175175912,239.3476765508604,256.56058444822526,274.1703483008501,292.3626712044433,311.35187254062515,331.394950796368,352.8134013384364,376.0282443027981,401.6195098361317,430.43527679239884,463.81336296853414,502.17207856142375,545.5189501759884,593.6936554044973,646.4816595026834,703.6653747752121,765.0454661647348,830.4481604009185,899.7262127916421,972.7571849080656,1049.4407446580044,1129.6957648567652,1213.4575510761827,1300.6753215631984,1391.3099680374025,1485.3320862696262,1582.7202505663847
D4,0.0,0.0,0.0,0.0,0.333216953014937,1.2299478021548702,2.753052876658855,4.844711608931325,7.386927789842478,10.25134957337775,13.324693315967627,16.518645527238352,19.77105100319534,23.042911940398177,26.313905053817976,29.577873241925413,32.83896899579664,36.108683231672394,39.40376818358596,42.744970999071136,46.156480211646596,49.66601857876166,53.305579780730795,57.112907169690615,61.133976418021035,65.42703925395693,70.0693844535086,75.16934224389564,80.8896577932566,87.35719850382233,94.64860462961815,102.79973373040227,111.81923811309284,121.6999706876038,132.42700510388812,143.98272705466405,156.34980753536172,169.51278059837279,183.45875817940657,198.17763962613668,213.66204243417874,229.90709147531425,246.91014671307295,264.67051407809697
R4,0.0,0.0,0.0,0.252691675303889,2.5475671086203295,8.104539044383099,17.277773680378147,29.798882048553352,45.08737066071423,62.50159850633336,81.46840892341174,101.53524284215254,122.37841792287007,143.7900414321718,165.65707348742492,187.93988275932077,210.65377547122105,233.85477182480338,257.6297789414907,282.09084902809525,307.3731461471417,333.6364244570239,361.0701924314819,389.90334599759984,420.4200840712079,452.9858461381725,488.09104255023504,526.4299048762267,568.9501765323442,616.4133426453136,669.3254764196611,727.9843106189255,792.5465451576405,863.0845583070715,939.6265449361445,1022.1822801894535,1110.7584507248587,1205.3670761919807,1306.0296233324398,1412.778564850392,1525.6574967962888,1644.720493105671,1770.0310960084873,1901.6611679882037
G4,0.0,0.0,23.8424585697991,59.689942423998,100.85846994171982,143.66647004496033,186.16683699798222,227.74711254256883,268.23818283119857,307.71647520432447,346.3875335121421,384.5195971200266,422.40775495744765,460.35676292929884,498.6753515331412,537.6778637408837,577.6910309501166,619.0650711504938,662.1894104265002,707.5144833672974,755.5826225079495,807.0736009819433,862.8751574909769,924.1985922772213,992.7814042484104,1071.2735001906303,1164.0597222771676,1269.115175422749,1385.2396680159986,1511.6798984100044,1647.9371739413089,1793.6675054117754,1948.6280201831935,2112.646852300627,2285.6051355397653,2467.4254013301634,2658.063500010697,2857.5025664552772,3065.7482534160636,3282.824810638834,3508.7717693963323,3743.6410870184623,3987.4946572050303,4240.40212077336
H4,331933.76996591355,337465.99946534546,342974.0803439465,348459.52058377507,353923.700386038,341399.494636193,328849.2615120765,316282.9351038364,303711.5000205404,291147.1302042865,278603.3316495559,266095.0874443687,253639.0025940107,241253.44484971766,228958.67619422096,216776.96769344455,204732.6880926942,192852.3538459687,181164.62532517637,169700.23098660997,158491.7986651956,147573.57152449564,136980.9863518833,126750.09490891715,116916.81608587842,121848.17739977557,126745.57768887123,131609.31399695412,136439.67738431535,141236.95324460158,146001.4215998099,150733.3573749808,155433.03065403487,160100.7069180946,164736.64726753838,169341.10862894318,173914.34394799094,178456.60236933632,182968.12940436264,187449.16708768616,191899.954123208,196320.72602045545,200711.71522190166,205073.1512219038
E_Om,0.0,0.0,0.10662897552643338,0.15123059109612283,0.1640104244207809,0.1611585719920796,0.15232494583212583,0.14139127766004875,0.13038713131425775,0.12031195202143996,0.11160507702610968,0.10441267143475164,0.0987382186261351,0.09452687507426541,0.09171292545520249,0.09024745124089167,0.09011650256468656,0.0913564699965259,0.09407191736547041,0.09846151981601989,0.10486039387832827,0.11381378553645775,0.12621275024747886,0.14356111689089684,0.1685484401582677,0.2064348514112641,0.24270128443676992,0.2803183695847494,0.32066381389719734,0.3645323034368072,0.41251584793208834,0.4651484950615796,0.5229625522914235,0.5865114564305178,0.6563800140612618,0.7331898200085659,0.8176027992992639,0.9103239822890492,1.0121039268736611,1.123740936655095,1.2460831221167366,1.3800303121403381,1.5265358072415394,1.6866079591510301
I_Om,0.0,1.0,0.6219958131528582,0.4037376640384733,0.2750338723007397,0.19700124400098717,0.14801437580323518,0.1161480837096164,0.09459868525456323,0.079455208298631,0.0684430646291344,0.06021693254517933,0.05396313742450804,0.04917612780815217,0.04553278161620378,0.04282172816269972,0.04090376136522525,0.03969009004066358,0.03913124007773006,0.03921297114304603,0.03995783789836567,0.041432853785319905,0.043765908525605746,0.04717743180633671,0.052042297041787006,0.05901891349434823,0.06934847675216246,0.08150742769519469,0.09501779875119482,0.10980012231726345,0.12593061594010746,0.14355028796887742,0.16283128210852127,0.1839648329837851,0.20715739040544193,0.2326298277720632,0.2606178064014347,0.2913725621545735,0.32516183348178035,0.3622708216338735,0.4030031386189307,0.4476817227152735,0.4966497101424494,0.5502712544371398
A_Om,0.0,0.0,0.0,0.004466922646498721,0.010623628303169284,0.01706944110048952,0.023137951006169367,0.02859366045877735,0.033373106090981874,0.03750038596966652,0.04104050320097018,0.04407426557164605,0.046685371735232135,0.04895431832553402,0.05095608459490246,0.052759897665929326,0.05443016627141431,0.05602813840420522,0.05761413661856482,0.05925045097569773,0.061005202873766595,0.06295782762458574,0.06520742468273165,0.06788645780033921,0.07118509088356392,0.07539855265237558,0.08103062116668625,0.08795668770055147,0.09618157412555489,0.10576762462095281,0.11680798074837823,0.12941685899849079,0.1437262796358747,0.1598852816467515,0.17806012714482222,0.19843492659507553,0.2212124660202448,0.24661514949948882,0.2748860202233045,0.3062898421780053,0.34111423148668857,0.3796708288437307,0.42229650512955874,0.4693545922477287
IH_Om,0.0,0.0,0.18851432967703244,0.22388292850909425,0.20274338853839638,0.1665238959556781,0.1313270946218031,0.10218429169565371,0.07969323586101511,0.06290943513411928,0.05056139001660335,0.04150112026704091,0.034825690875623774,0.029870992837516937,0.02616608796194221,0.02338369022379489,0.02129883312618485,0.019758028384519837,0.018657721276559423,0.01793001242034053,0.017533811941827765,0.01745013039157368,0.017680859918011046,0.01825117980660273,0.019216886163520196,0.020680207490289867,0.02282308603142364,0.025982415431647813,0.030061537337045377,0.03491567594399635,0.040447962127454676,0.04661797270328308,0.0534294255338171,0.060916875077997285,0.06913591655639606,0.0781569145825603,0.08806130671289764,0.09893958133579356,0.11089028221161748,0.12401962036888037,0.13844143559783795,0.15427735337386494,0.17165704620404484,0.19071854577295605
IN_Om,0.0,0.0,0.37897971434021854,0.6102403222275292,0.7538836924662242,0.8447852250248683,0.9033594246975681,0.9416826820755613,0.9670332185014205,0.983860518467766,0.9949352550858117,1.002022965332595,1.0062805739558982,1.0084913215600302,1.0092052364232837,1.008824227951544,1.0076546137589355,1.0059404671920282,1.0038857226692786,1.0016698516729787,0.9994601820959311,0.9974230636579375,0.9957358476618026,0.9946020543028604,0.9942734793563195,0.9950864007860827,0.9975276076820426,1.0023699819992422,1.0100173686133276,1.0207561007965058,1.0348503657624264,1.05257907761567,1.0742508983932104,1.1002111808986155,1.1308460165570846,1.1665853376155804,1.2079058036890014,1.255333742422216,1.3094482401589498,1.3708844126415252,1.4403368605455937,1.5185633046280318,1.6063883908301682,1.7047076532255736
D_Om,0.0,0.0,0.0,0.013975779890292778,0.030573661522940186,0.045604333076021346,0.057949820659579404,0.06768594295442257,0.07526152180527487,0.08116969401184869,0.08583357510759024,0.08958201618912458,0.09265876119331824,0.09524061367656954,0.09745514252282153,0.09939500293859288,0.10112858631207139,0.10270760581791802,0.10417239555693303,0.10555561245223408,0.1068848796089866,0.10818477387568023,0.10947846429076626,0.11078926016983057,0.1121423375308579,0.1135670089160958,0.11510016572420174,0.1167921879027749,0.11871843149238938,0.12094708662808198,0.12353561028328684,0.12653427790008115,0.12999036808987716,0.1339514350931374,0.13846759489463964,0.14359308511048266,0.14938735993819277,0.15591591106520541,0.1632509386652597,0.17147194859494058,0.1806663208175861,0.19092987497246822,0.2023674475777127,0.21509348860852262
R_Om,0.0,0.0,0.0,0.07237393275824872,0.16039131257255107,0.2427312808750007,0.3133518396156098,0.3722255986456421,0.42127045701243293,0.46270282383158173,0.498452227547741,0.5300253792424318,0.558539464284402,0.584803365968645,0.609399171727549,0.6327487941342356,0.6551637459609368,0.6768806814460722,0.6980862862644012,0.7189347559566339,0.7395604310779927,0.7600875453443507,0.7806386281661363,0.8013429432028576,0.8223465201227637,0.8438260606025135,0.8660108627444644,0.8892216518211866,0.9139046340514202,0.9404761441685268,0.9693062284785131,1.0007368739335307,1.0351033587538747,1.0727512163667938,1.1140484568887112,1.1593943155852553,1.209225803665138,1.2640229945408028,1.324313653971856,1.390677588842724,1.4637509379149982,1.5442305346571241,1.6328784163124253,1.7305265201518285
G_Om,0.0,0.0,0.0,0.01685887245878796,0.04076960811548201,0.06670093507019119,0.09218136191890769,0.11626512359247809,0.13862018707393226,0.15923540921445983,0.17825766694865755,0.1959032998551648,0.2124117573556632,0.22802303962117904,0.24296847563364232,0.25746900426985986,0.27173783000591606,0.2859859517352059,0.3004301219839832,0.31530362563520187,0.33087115966130903,0.3474504055712049,0.3654452525153671,0.385400472459946,0.40809860444288715,0.4347474270703864,0.46738638673223354,0.5057593522390549,0.5500798722229793,0.6007793215419985,0.6584147211170965,0.7236366932234665,0.797180297238459,0.8798647545004318,0.9725967890225944,1.0763755872988008,1.1922986148115415,1.3215679925513406,1.4654973123053554,1.6255188349164542,1.8031910392516697,2.0002064970585076,2.2184000500469985,2.4597572641719534
beta,1.0001578966991571,1.0001578966991589,0.9991169120674255,0.9984021023823529,0.9978819738143964,0.9974798286793153,1.0295658899018714,1.0642721534196766,1.101977167474002,1.1431418644662923,1.188329269629339,1.2382317417884727,1.2937084868533186,1.3558376119903661,1.4259893723791122,1.505931143071761,1.5979811983297367,1.705239844165843,1.8319473191437445,1.9840576046962253,2.1701969178091582,2.403345311997267,2.70396872053646,3.1063042598106407,3.6722433233873844,4.526207026804106,4.510931172569826,4.495550786832829,4.479868934302351,4.463803791125296,4.447327716393773,4.430438078695194,4.413143356582379,4.395456588994168,4.37739235561049,4.3589654439028935,4.340190313840199,4.3210809322509744,4.301650771652954,4.281912875977374,4.261879947516652,4.241564434373811,4.220978609605606,4.200134638878736
