series,2021-11-01,2021-11-02,2021-11-03,2021-11-04,2021-11-05,2021-11-06,2021-11-07,2021-11-08,2021-11-09,2021-11-10,2021-11-11,2021-11-12,2021-11-13,2021-11-14,2021-11-15,2021-11-16,2021-11-17,2021-11-18,2021-11-19,2021-11-20,2021-11-21,2021-11-22,2021-11-23,2021-11-24,2021-11-25,2021-11-26,2021-11-27,2021-11-28,2021-11-29,2021-11-30,2021-12-01,2021-12-02,2021-12-03,2021-12-04,2021-12-05,2021-12-06,2021-12-07,2021-12-08,2021-12-09,2021-12-10,2021-12-11,2021-12-12,2021-12-13,2021-12-14,2021-12-15,2021-12-16,2021-12-17,2021-12-18,2021-12-19,2021-12-20,2021-12-21,2021-12-22,2021-12-23,2021-12-24,2021-12-25,2021-12-26,2021-12-27,2021-12-28,2021-12-29,2021-12-30,2021-12-31,2022-01-01,2022-01-02,2022-01-03,2022-01-04,2022-01-05,2022-01-06,2022-01-07,2022-01-08,2022-01-09,2022-01-10,2022-01-11,2022-01-12,2022-01-13
S,1096333.790818865,1096282.7535393785,1096250.0111138131,1096223.9719322177,1096200.0470637933,1096176.4039134467,1096152.2986742598,1096127.4185675785,1096101.621565402,1096074.8331046281,1096047.004988464,1096018.098986037,1095988.0802650063,1095956.9147479152,1095924.5680377232,1095891.0049722726,1095856.1894314582,1095820.0842462673,1095782.6511491104,1095743.8507410912,1095703.6424664103,1095661.9845899737,1095618.8341766377,1095574.147071491,1095527.877880963,1095479.9799547135,1095430.4053683276,1095379.104906875,1095326.0280494075,1095271.122954485,1095214.3364468217,1095154.6110023814,1095093.2717515898,1095029.9208799156,1094964.398147919,1094896.60362405,1094826.4503090691,1094753.8511747166,1094678.7153069586,1094600.9464195026,1094520.4419340948,1094437.0921357952,1094350.7792603062,1094261.3764623557,1094168.7466371655,1094072.7410714026,1093973.1978991667,1109565.471386474,1125148.8455256626,1140722.3322066467,1156284.262280029,1171832.3555063074,1187363.6437284038,1202874.285978044,1218359.2702980968,1233811.9649728509,1249223.4460552929,1264581.4749041663,1279868.9099326874,1295061.1776499343,1310122.1358778803,1324997.112363414,1339600.8520048223,1353796.1063230631,1367273.4022988314,1364115.4412220742,1360092.386300154,1354831.1118107487,1348090.1422234504,1339658.246996365,1329387.878510054,1317216.246893789,1303174.3148084688,1287381.722535989
E,0.03451079918147385,51.064888125917136,73.59433606598678,84.91465044817528,91.85658878311816,97.12842137329149,101.80797628541812,106.32648770950638,110.85819234418416,115.47501464917305,120.20812788358947,125.07250473376939,130.07672481779832,135.2268969453719,140.52822774838043,145.9856476494268,151.60405893367852,157.3884323378856,163.3438430272289,169.47548244115208,175.78866063377333,182.28880494364398,188.98145729100335,195.8722709796255,202.9670073116891,210.2715320987785,217.79181206482087,225.53391110461857,233.50398635125163,241.7082840035684,250.15313486589656,258.8449495539033,267.78970569044634,276.994222995067,286.4651213139526,296.20901557892245,306.2325511613451,316.54240126798277,327.14525575798336,338.04780775836036,349.2567390653949,360.7787042067076,372.6203128726215,384.7881104239977,397.28855618609157,410.1279992218397,423.3126512458871,436.84855629651963,455.4578956942547,478.8620597132011,507.4008435425204,541.8199180526979,583.2191078704112,633.0903361203716,693.4212839036245,766.8670567854729,857.011673988071,968.7627880090886,1108.9546268014321,1287.2863688762925,1517.8135216728342,1821.3683882681212,2229.5601548155432,2791.4493779720196,3584.5530595521186,4730.128694263662,5974.215407971666,7390.82433701767,8954.753960953285,10605.98820673914,12262.657245521208,13833.804057867948,15233.34358038017,16391.813674964927
I,96.21659748787793,60.06009132867691,46.676604010518446,42.37778240311757,41.73192549574794,42.57812109400994,44.05502442768336,45.81899637744308,47.73316080712751,49.74344265004421,51.82903470827596,53.98256021624769,56.20210950981475,58.488034701256126,60.84165493727788,63.264730581205214,65.75924767491958,68.32732805448993,70.97119063125908,73.69313369990677,76.49552602781417,79.38080171465717,82.35145674460836,85.41004634798281,88.55918277894403,91.80153331924599,95.1398184043633,98.57680980656266,102.11532882752645,105.75824446254153,109.5084715037645,113.3689685536711,117.34273592236488,121.43272202814057,125.64199444918225,129.973659167379,134.43084524999227,139.01670165115604,143.7343947468654,148.58710478387724,153.5780212545292,158.7103373826757,163.98724381379162,169.41192151488337,174.98753383503055,180.71721764359313,186.60407343912433,192.65115430127983,198.86145353711305,206.08666897292971,214.80825025703498,225.38784704312357,238.18537906025688,253.6234217442759,272.2342214675567,294.7076953629207,321.9522845978956,355.1799951534979,396.03051218240597,446.757175129461,510.51192977536556,591.791578515168,697.1519092309667,836.3732985748238,1024.3894040019495,1284.4714960898295,1652.9665699117331,2106.856526335154,2645.093997479819,3262.4898622333794,3945.0044946127528,4669.141277959396,5403.865605803929,6114.314796338397
A,10.711249924060517,8.983854561615523,8.557516491869631,8.651328240661371,8.95680224720833,9.352071493066742,9.789189173649655,10.249537712060317,10.726142753649205,11.216645894680033,11.720510194975327,12.237909882796131,12.769291048342284,13.315199701063207,13.87621614780088,14.452931384745574,15.045939839157189,15.655838252097215,16.2832266765301,16.928710035176653,17.59289966435881,18.276414655659053,18.97988295447408,19.70394222718636,20.449240524358064,21.216436769109887,22.006201096807374,22.819215067878865,23.65617177134009,24.517775832829088,25.404743337750396,26.31780167745891,27.25768932421116,28.225145368630415,29.220926290960982,30.245799151164114,31.300539783594864,32.385931991238,33.50276681776785,34.651841713003094,35.833959564849266,37.04992759494549,38.30055611317173,39.586657121116595,40.9090427503365,42.26852351770389,43.66590637685577,45.101992541354576,46.5775750514379,48.18792572259578,50.00736398820551,52.105026683740135,54.55383570665764,57.43698266468858,60.85412753646179,64.9286740483093,69.8173105455207,75.72325041355234,82.91524439668551,91.75560525466082,102.74251100598877,116.57536230389954,134.25808838918698,157.2659262023747,187.81901265578352,229.3323188041977,287.09920325090206,360.47103818846267,450.3866203030678,557.1283858235486,679.7308101906722,815.7439164333397,961.290709871618,1111.395011708566
IH,0.0,17.9904158695987,29.0101335993239,37.39866540337409,44.88539175995386,52.163875299542994,59.51553075862881,67.05743179164574,74.84103100151472,82.8915869057337,91.2239520146826,99.84891479425644,108.77575835319973,118.01330026237633,127.57032089764084,137.45574468891195,147.6787209348497,158.2486633722816,169.17527247683722,180.46855026340614,192.13881160564566,204.1966937571257,216.65316480007556,229.5195313507451,242.8074456814138,256.52891234366007,270.69629434098056,285.3223188789106,300.42008270822896,316.0030570677873,332.0850922263267,348.6804216165749,365.8036655495956,383.4698344925784,401.6943148072638,420.49288663796995,439.88172649094497,459.8774069193845,480.49689561407877,501.7575540437835,523.677135447497,546.2737819853915,569.5660208920223,593.5727594946756,618.3132789623613,643.8072266433435,670.0746068352414,697.1357698135644,725.0113989226913,753.7224955078184,783.4490645277139,814.459028239587,847.0847988955557,881.7222017256414,918.841449221526,959.0067780147381,1002.9048312255311,1051.38408740887,1105.50972955772,1166.6410796596938,1236.5429017512079,1317.5486842562802,1412.805453507436,1526.6492532499149,1665.1941792291536,1837.2751545310125,2055.975089738792,2341.0201224002676,2707.6020072186643,3170.5391498155495,3743.5065512945403,4437.394316441285,5258.571942893136,6207.531703422841
IN,18.172301041533085,36.16287907265084,47.14472000235582,55.489021039349645,62.93796633560103,70.19044004215975,77.53020885098546,85.07552074378813,92.87853855816918,100.96505188921807,109.35037935001101,118.045756539644,127.0609134613004,136.40512214239988,146.08762839306658,156.1178347108106,166.50538204565134,177.26019003920183,188.39247988502032,199.91278964756958,211.8319860865327,224.1612746799468,236.91220857624327,250.09669680558636,263.7270119107963,277.81579708224126,292.37607284434984,307.4212433213432,322.9651020971484,339.0218376753575,355.6060385378571,372.7326977946409,390.4172174119242,408.67541200084685,427.5234948902867,446.9780966452522,467.05626814777776,487.77548075385766,509.15362584471313,531.2090139169842,553.9603730113275,577.4268462831773,601.6279885563636,626.5837617194535,652.3145288271444,678.8410467611279,706.1844572906309,734.3662763542333,763.4083813622312,793.3329962927476,824.3229819219631,856.6503011742548,890.6525016347659,926.7317329742276,965.3659346282693,1007.1287913039662,1052.7185545943444,1102.9980696538696,1159.0504631461793,1222.2577156264042,1294.413573073799,1377.8891478232695,1475.881146185291,1592.7924903618227,1734.829280087784,1910.9560541601174,2134.442919969527,2425.2920925422363,2798.9583669272147,3270.5441752417564,3854.0208628659693,4560.568416204116,5396.8172469995025,6363.469997952076
D,3364.0,3364.0,3364.0303119107357,3364.0791908575293,3364.1422035758324,3364.2178306207106,3364.305721125475,3364.405998376919,3364.5189829183187,3364.645081985039,3364.7847453703225,3364.9384478922907,3365.106682546466,3365.2899579694067,3365.4887976543305,3365.703739888439,3365.9353379956365,3366.1841607154092,3366.4507926483743,3366.7358347394047,3367.039904785689,3367.3636379638674,3367.7076873732044,3368.072724592999,3368.4594402529815,3368.8685446157015,3369.3007681700883,3369.7568622353933,3370.2375995748407,3370.7437750182667,3371.2762060930913,3371.8357336629438,3372.423222573255,3373.0395623031,3373.6856676225743,3374.3624792261335,3375.0709643960745,3375.8121176703644,3376.5869615099314,3377.3965469644377,3378.2419543357455,3379.12429383801,3380.044706252971,3381.0043635787606,3382.0044696703185,3383.0462608692737,3384.13100662092,3385.2600100756335,3386.4346086718137,3387.656174697061,3388.9261158239806,3390.2461430141198,3391.61841864914,3393.045665189501,3394.53127201849,3396.079420776739,3397.6952437827576,3399.385030274669,3401.156499085467,3403.019163766622,3404.984828180572,3407.068269626851,3409.2881970813555,3411.668621919991,3414.2408612847935,3417.046533909816,3420.1421444217904,3423.606240740982,3427.5506072022463,3432.1126246089034,3437.454641179797,3443.76204603598,3451.23857695073,3460.098703613984
R,0.0,1.9098097807658596,3.9007422236879634,6.042907507656651,8.367536126980795,10.890804748457462,13.623153236183638,16.572937827833606,19.747864332811563,23.15554951571239,26.803740131994275,30.70039802174488,34.85373337461112,39.27221848079113,43.964594616251205,48.93987694193177,54.20735923571514,59.77661907918565,65.65752366222158,71.86023620022466,78.39522290387805,85.27326042941685,92.5054437407966,100.10319432310334,108.0782686950349,116.44276717590695,125.20914286903283,134.39021082849752,143.99915738042486,154.04954957297795,164.5553447316839,175.5309000983633,186.9909825330833,198.9507782592274,211.42590099126903,224.43240248642877,237.9867823617272,252.10599767638072,266.8074723826204,282.10910664548805,298.0292860052976,314.5868903481251,331.8013026453461,349.6924174193009,368.2806488877992,387.58693873516677,407.63276345180475,428.44014117768813,450.03163797777063,472.4303734687561,495.67527008565133,519.8208691582277,544.9382649772164,571.1170161993406,598.4680828494454,627.1279849958014,657.2645311135201,689.0846577527243,722.8451998905433,758.8678341824452,797.5601036076121,839.4455092036442,885.2074349885007,935.7546700369189,992.3213986807857,1056.6231903557002,1131.1045594106622,1219.3275480906361,1325.1468365702608,1452.8750301687933,1607.1695090960275,1792.808345269883,2014.3950473986758,2276.0376329577603
G,178108.0,178108.00621075192,178117.19612695338,178130.4405656698,178145.72226999802,178162.25328346825,178179.733044728,178198.05496425115,178217.19005977182,178237.14070561234,178257.92222001354,178279.55553132633,178302.064262468,178325.47358039083,178349.80975142177,178375.0999789017,178401.3723534774,178428.6558480375,178456.9803300317,178486.37658026416,178516.87631381868,178548.5122014055,178581.3178904684,178615.3280258054,178650.57826961373,178687.10532092644,178724.9469344196,178764.1419385739,178804.73025316146,178846.7529060257,178890.25204911022,178935.27097368464,178981.8541247081,179030.04702290523,179079.8964163148,179131.45024431922,179184.7576367601,179239.86891941645,179296.835619014,179355.71046622205,179416.5473962417,179479.40154676643,179544.32925307503,179611.38803996216,179680.63661016134,179752.13482886172,179825.94370386432,179902.1253608644,179980.7430132752,180062.70970405475,180148.8883360329,180240.2029634378,180337.71183550055,180442.67113189978,180556.605526949,180681.39740891004,180819.40699334533,180973.6394954939,181147.9833385454,181347.55687068283,181579.22395723447,181852.37796942337,182180.16137352763,182581.40519762604,183083.7696755593,183728.86542423954,184580.12522167753,185655.27765975145,186985.37077871014,188596.91721552328,190505.6287868273,192712.48356765663,195202.09051098963,197943.56623156852
H,282437.9857507793,282437.9857507793,282437.9857507793,282437.9857507793,282437.9857507793,282437.9857507793,282437.9857507793,282437.9857507793,282437.9857507793,282437.9857507793,282437.9857507793,282437.9857507793,282437.9857507793,282437.9857507793,282437.98575077933,282437.98575077933,282437.9857507793,282437.98575077933,282437.9857507793,282437.98575077933,282437.9857507793,282437.9857507793,282437.98575077933,282437.9857507793,282437.9857507793,282437.98575077933,282437.9857507793,282437.9857507793,282437.9857507793,282437.9857507793,282437.9857507793,282437.9857507793,282437.9857507793,282437.9857507793,282437.9857507793,282437.9857507793,282437.98575077933,282437.9857507793,282437.9857507793,282437.9857507793,282437.9857507793,282437.9857507793,282437.9857507793,282437.9857507793,282437.9857507793,282437.9857507793,282437.9857507793,271008.1772946764,259749.40470446646,248671.9659065947,237787.03969120054,227106.75091162283,216644.23283722263,206413.68283807428,196430.40606198605,186710.8398261044,177272.54904403797,168134.18015198706,159315.35778917337,150836.5052050666,142718.56655270123,134982.60780830303,127649.27443115544,120738.08991992245,114300.2260842114,114300.22608421139,114300.2260842114,114300.2260842114,114300.2260842114,114300.2260842114,114300.2260842114,114300.2260842114,114300.22608421138,114300.22608421138
S0,383716.82678660273,382825.39643662784,381429.17503121257,380041.64642749506,378660.2588398012,377283.9826541904,375912.3913437542,374545.29786117707,373182.6103868768,371824.27495923697,370470.2526043464,369120.51019626047,367775.016793593,366433.7421648678,365096.656190582,363763.728617356,362434.928954016,361110.22642527637,359789.5899491156,358472.9881241864,357160.38922174263,355851.76117984665,354547.07159894693,353246.287738454,351949.3765141634,350656.30449646665,349367.0379093309,348081.54263004736,346799.78418975865,345521.72777478205,344247.33822875045,342976.1835400706,341708.77614619647,340444.9445807266,339184.61243077484,337927.7275811699,336674.24338895024,335424.11357481446,334177.29073506355,332933.72579701303,331693.3677040183,330456.16313686996,329222.05621645093,327990.9881689565,326762.89694423095,325537.7167797164,324315.37770244066,327738.9993182706,331056.5506190898,334263.6240581411,337355.1771388511,340325.5589065633,343168.46886444127,345876.87133139867,348442.8680357262,350857.518210778,353110.58154552855,355190.1392896584,357082.01516354084,358768.85785278847,360228.6372441821,361432.1021444468,362338.3628017791,362887.0475972704,362972.2221437683,360348.07822397794,357404.28873226495,354007.9548700201,350084.24200383294,345575.8020222168,340452.86223224446,334718.47784248105,328408.9706109239,321589.48812498304
E0,0.03451079918147385,28.158392608321847,40.64190702467558,46.949067174500385,50.84474205245316,53.82237512280687,56.47517516964138,59.03890543037822,61.607280506516915,64.217609077101,66.8848911932062,69.61539861319432,72.41207597699422,75.27667831300869,78.21060649253204,81.21522439510471,84.29197108325722,87.44239311026213,90.6681467541733,93.97098981643185,97.35277057323694,100.81541667707066,104.36092492362667,107.99135207936297,111.7088067058285,115.51544183773292,119.41344836026676,123.40504894310929,127.49249240676389,131.67804841504048,135.96400240362752,140.35265066834287,144.84601893610824,149.4465566838058,154.15656668081363,158.97831019253263,163.9140253057946,168.9659247887364,174.13618949370198,179.42696077607596,184.84033247293922,190.3783423843935,196.04296311368023,201.83609212510268,207.75954088412988,213.81502293992256,220.00414079835517,226.32837141563385,235.1989340274032,246.45031909414473,260.2305005477122,276.88896861646504,296.94726160530126,321.11462289933183,350.3357591053198,385.87093847690505,429.4181850533788,483.2974914753698,550.7315750498095,636.2816361460236,746.5377513698735,891.2352985229686,1085.0919230887375,1350.8555589056984,1724.2902526820574,2260.971882899941,2840.74803392746,3497.356235913771,4217.569627105995,4972.033772118744,5721.657736815203,6423.820483806255,7038.988529690749,7536.132417852481
I0,96.21659748787793,60.06009132867691,42.55422595387709,33.87448853235073,29.59207513898268,27.620280786908936,26.92545048551094,26.969182436541743,27.45786076787153,28.22508963570153,29.17372684410607,30.245840288568726,31.406400170584167,32.634072468863785,33.91585733393859,35.24389297886118,36.61351789672224,38.02208157542723,39.4682080160038,40.951336457373856,42.47143324236211,44.02880998962145,45.624008107747564,47.25772487281456,48.93076563872136,50.64401253779589,52.398403627487866,54.1949186828604,56.03456923726144,57.91839135231373,59.84744015011228,61.82278548779695,63.8455083738787,65.91664808397397,68.03729410634436,70.20854086734211,72.43147840616125,74.70718985239583,77.0367494665015,79.42122022949394,81.86165097420363,84.35907315117495,86.91449727702498,89.52890906921351,92.20326524431755,94.93848894110539,97.73546471910058,100.59503307451803,103.517984406721,106.93874823043458,111.09868904152162,116.1750854177647,122.34148249065561,129.8000578615229,138.80464060596236,149.6836734711375,162.86895975086193,178.935596459382,198.6600506872196,223.10693452951188,253.761587381434,292.73707450601114,343.1043037507819,409.4286594187787,498.65348237324685,621.5487730333302,794.8383984287589,1007.337325758851,1258.1359731549867,1544.2862440497001,1858.6652905101496,2189.7923474020454,2522.8313457141376,2841.4076464445934
A0,10.711249924060517,8.983854561615523,8.098595444991918,7.606259994915958,7.319715936755966,7.15744916852037,7.0810170182517345,7.070063580481829,7.112240453003688,7.199068977109713,7.32418585054837,7.482554905958659,7.670078131831571,7.8833776589717095,8.119655743876494,8.376594079473383,8.652275704700816,8.945121760083195,9.253839094040854,9.577376366831645,9.914887072099786,10.265698302944969,10.629284334727762,11.005244264846828,11.393283076210368,11.793195592014039,12.204852872464214,12.628190673487392,13.063199645910657,13.509917002977831,13.968419425843344,14.438817012046098,14.921248101894491,15.415869301230035,15.922861024213837,16.442420713022642,16.97475925914119,17.520098369162184,18.078668312695367,18.65070590144518,19.236452642446388,19.836153028541293,20.45005293399306,21.07839808542687,21.721432580275035,22.379397426674004,23.05252908016428,23.741057953477174,24.44520687611468,25.213470390205053,26.083203321483523,27.088698488600798,28.265717994224634,29.654703083517017,31.30377982474019,33.27223668423876,35.63504578591292,38.489102841744426,41.96215098914222,46.22588972955475,51.51569917005116,58.16101378588066,66.63316292604397,77.62229580200975,92.16296155978057,111.83931772930649,139.09338069896026,173.56598895204132,215.63184168607972,265.340192389326,322.144245756144,384.8022542596297,451.41891345538346,519.612660526305
IH0,0.0,17.9904158695987,29.0101335993239,36.62787016069229,42.53367174071372,47.56974628817879,52.17829209091367,56.60306934407889,60.98432047806615,65.40574940884666,69.9189695690908,74.55682781138165,79.34095512993015,84.28617995092425,89.40316843294943,94.700031411919,100.18331496594162,105.8586170822699,111.73097474803242,117.8051088117571,124.08558010921256,130.57688989013187,137.28354507355644,144.21010114732374,151.36119074438238,158.74154294956776,166.35599652847233,174.20950910262206,182.30716356094604,190.65417253415058,199.25588146495565,208.11777062009546,217.24545627004812,226.64469118491098,236.32135523627153,246.2814633007153,256.5311646056228,267.07674033899156,277.9246008155454,289.08128230956595,300.55344347405844,312.34786126536585,324.47142631069676,336.9311376657035,349.73409691060317,362.88750152965343,376.3986375122024,390.2748711050347,404.52363963568945,419.1524413148649,434.24991562978767,449.9487962480504,466.4134131058265,483.83862513543664,502.45481718786755,522.5371426211157,544.4189513225073,568.5104358678715,595.3245264393171,625.5133421819979,659.9204416593237,699.6572527794995,746.2173138870119,801.6509046218996,868.837975125404,951.9230777057094,1057.0160923980045,1193.2825061816445,1367.6893498858842,1586.9521732641526,1857.1568255095524,2182.986225323067,2566.921918053419,3008.642429491027
IN0,18.172301041533085,36.16287907265084,47.14472000235582,54.710432968183085,60.56115831976173,65.54456268505481,70.10572282494444,74.49003968678629,78.83877297554744,83.23631495914653,87.73478702069256,92.36744221187371,97.15625949418515,102.11638200796496,107.2587721338676,112.59182736442887,118.12237637199486,123.85629912956634,129.79891621171322,135.9552351041605,142.33010730757545,148.92832945083268,155.75470905151937,162.81410780716953,170.1114704919484,177.6518445384013,185.44039351190986,193.4824065118672,201.78330479548802,210.3486464543755,219.18412967880016,228.2955949566392,237.68902643338885,247.3705525817328,257.346436876234,267.6230859269114,278.2070489805362,289.1050156656672,300.32381328382655,311.87040375766713,323.75188015442865,335.9754627023429,348.54849423605435,361.4784350167931,374.7728568743251,388.4394366139084,402.48594862474226,416.92025661771686,431.7503044100179,446.98410566233775,462.7116440245096,479.0675895017945,496.21874776905213,514.3630336830001,533.7345679669642,554.6130704975906,577.3374964984132,602.3249657556214,630.0970446671911,661.3167342757577,696.8414774866828,737.8006768560774,785.7115327456578,842.6560718021068,911.5577584784788,996.6222021549646,1104.0470718001122,1243.1266742580221,1420.9498710072423,1644.3628433914641,1919.586507855796,2251.434288847287,2642.5031196981354,3092.561895747708
D0,3364.0,3364.0,3364.0303119107357,3364.0791908575293,3364.140904868967,3364.212569519212,3364.2927194120025,3364.3806342075054,3364.476004275532,3364.5787562792652,3364.68895791396,3364.80676383794,3364.9323840529323,3365.066065006558,3365.2080781307363,3365.358712828714,3365.518272169622,3365.687070252026,3365.865430606497,3366.0536852503865,3366.2521741551664,3366.4612449768247,3366.6812529554704,3366.9125609248854,3367.1555393943563,3367.4105666786572,3367.67802906056,3367.9583209756356,3368.251845212511,3368.5590131239346,3368.8802448453744,3369.2159695187934,3369.566625519813,3369.9326606868644,3370.314532551177,3370.7127085509283,3371.127666258715,3371.5598936079195,3372.009889115048,3372.478162097295,3372.9652328847737,3373.471633026709,3373.997905490766,3374.544604854574,3375.112297488417,3375.7015617279744,3376.3129880359115,3376.9471791509995,3377.6047502233414,3378.286328934135,3378.9925555982545,3379.7242198785516,3380.4823350797947,3381.2681913849733,3382.0834072933662,3382.929989477882,3383.810408215166,3384.7276954404765,3385.6855742193297,3386.688631849286,3387.7425543783443,3388.8544491597163,3390.0332961827885,3391.2905918880015,3392.6412872158958,3394.10518551244,3395.709073247312,3397.490031379187,3399.500583723936,3401.8049927930842,3404.4788360753178,3407.6079450589423,3411.2860414452894,3415.6110280720054
R0,0.0,1.9098097807658596,3.9007422236879634,5.968868026235967,8.10939796962645,10.321263937423193,12.60714557823656,14.972393188393774,17.42396457984257,19.969640371097004,22.617514248188943,25.375690629505538,28.25212242840369,31.25453750998328,34.39041849049923,37.667012900977525,41.09135933441366,44.67032086067416,48.41062060581192,52.31887664242433,56.4016347098041,60.66539810051192,65.11665452325991,69.7619000139669,74.6076601012609,79.66050849160939,84.92708355469786,90.41410288117325,96.1283761641505,102.07681662986828,108.26645121554282,114.70442966598308,121.39803269599972,128.35467934353227,135.5819327247653,143.08750649624906,150.87927038349866,158.96525512069763,167.35365691896465,176.05284151585445,185.07134783662593,194.4178912869907,204.10136668946816,214.13085086902808,224.51560488782198,235.26507592327022,246.38889877844937,257.89689700849505,269.7990836414836,282.10566146687137,294.8348122021207,308.012530392458,321.67301721095964,335.8595548231234,350.62587767253933,366.0381296205396,382.17756849502393,399.14427071346495,417.06221837143477,436.086347817488,456.41244753696503,478.29129079959074,502.0492080990854,528.1186786763208,557.0848492374506,589.7578083909174,627.2867245335087,671.3378213624028,723.7039756167741,786.379074608375,861.5005692128915,951.2407613919203,1057.666580677778,1182.5899647006538
G0,178108.0,178108.00621075192,178113.0737488967,178120.3878884852,178128.83709906615,178137.9873965777,178147.67356520143,178157.83714621214,178168.46211012456,178179.54929284504,178191.1062445536,178203.1432149214,178215.6715823195,178228.70325505245,178242.25045726923,178256.3256652273,178270.94160063544,178286.11124418382,178301.84785488888,178318.16498983992,178335.07652246972,178352.596658837,178370.7399519113,178389.52131401646,178408.9560276232,178429.0597546706,178449.84854456948,178471.33884101445,178493.54748770382,178516.49173304596,178540.18923391032,178564.65805846584,178589.91668813542,178615.98396890282,178642.87918757304,178670.62204537002,178699.23265046743,178728.73151381724,178759.13954459323,178790.4780444473,178822.76870040142,178856.03357629583,178890.29510270446,178925.57606520166,178961.89959083986,178999.28913267268,179037.76845213343,179077.3615990511,179118.09288905584,179160.4205739623,179204.77311958437,179251.605621933,179301.43607318966,179354.876324418,179412.66586599543,179475.71420286054,179545.15764471094,179622.43808692554,179709.41494343147,179808.52760596602,179923.03632479985,180057.38733638683,180217.77890894812,180413.057978579,180656.16532380547,180966.47801635493,181373.37486662128,181884.6113999668,182514.01473196552,183273.0315999008,184167.82595651978,185197.52673653397,186353.59255995532,187620.36738517717
H0,98853.29501277274,98630.875098994,98275.80394863762,97922.01105442253,97569.49181462661,97218.24164409396,96868.25597417522,96519.53025266819,96172.05994375859,95825.84052796106,95480.8675020604,95137.13637905299,94794.6426880884,94453.38197441128,94113.34979930341,93774.54174002592,93436.95338976182,93100.58035755868,92765.41826827146,92431.46276250569,92098.70949656067,91767.15414237305,91436.7923874605,91107.61993486565,90779.63250310013,90452.82582608897,90127.19565311505,89802.73774876383,89479.44789286828,89157.32188045395,88836.35552168431,88516.54464180625,88197.88508109575,87880.37269480381,87564.00335310251,87248.77294103135,86934.67735844363,86621.71251995323,86309.8743548814,85999.15880720383,85689.5618354979,85381.0794128901,85073.7075270037,84767.44217990649,84462.27938805883,84158.21518226182,83855.24560760567,78910.1723659552,74072.4385847504,69346.01444828474,64735.18478440773,60244.56666793768,55879.12433229982,51644.179630657694,47545.415681025406,43588.87057762991,39780.917149515764,36128.223718397734,32637.689717150864,29316.349016897377,26171.233121333218,23209.18641360782,20436.626943244788,17859.249523615767,15493.696553112819,15437.919245521613,15382.342736237735,15326.96630238728,15271.789223698686,15216.81078249337,15162.030263676394,15107.446954727158,15053.06014569014,14998.869129165656
S1,109633.3790818865,102658.25972996998,96699.1223267608,91161.73695945564,86015.32721941671,81231.7318511896,76784.95684271636,72650.92315612978,68807.29344564246,65233.33394738741,61909.79478333638,58818.80203025221,55943.75871023116,53269.25331118003,50780.97501449384,48465.63504300572,46310.89365114163,44305.29233873507,42438.190909497214,40699.709025883625,39080.67193837697,37572.560090739804,36167.46232431356,34858.03242429714,33637.44876932882,32499.376862752415,31437.934539780676,30447.65965946681,29523.4801040422,28660.68592085038,27854.90345387422,27102.039990050805,26398.36857631525,25740.37593827588,25124.806836859763,24548.640232818347,24009.071155360005,23503.494895597953,23029.492593967258,22584.817924307543,22167.38474479353,21775.255633011086,21406.631238186914,21059.840390885285,20733.3309153667,20425.661093834286,20135.491735400297,20147.008604832885,20161.694088481945,20178.92942749101,20198.06999904757,20218.44830300704,20239.372568580795,20260.12258499716,20279.9430529036,20298.033929997124,20313.53644733395,20325.512358811065,20332.91213634635,20334.524543356303,20328.894024228444,20314.18118439954,20287.92067415458,20246.591937590474,20184.182568412718,19976.121911130598,19755.49695751711,19514.749087366825,19249.594574172927,18956.748499209967,18634.460725070214,18282.783768820842,17903.57856567446,17500.258091989435
E1,0.0,8.037366848279047,11.287654220203056,12.689791513877763,13.338663397580929,13.657268685920931,13.81464283670003,13.882545919362979,13.894594014371696,13.868793017604641,13.816270010572328,13.744760148752645,13.660076440310672,13.566786782880992,13.468567013870791,13.368412279509894,13.268779662937863,13.17169276834682,13.078822301031646,12.991549865349096,12.911019226211225,12.838177844674725,12.773810712368864,12.718568019994665,12.672987857170888,12.637514891310769,12.612515781615176,12.598291934125182,12.595090084857969,12.603111103332687,12.622517333117088,12.653438725445454,12.69595611547183,12.75016158544715,12.816116236345266,12.89386234209906,12.98342777364675,13.084828370081375,13.198069628722614,13.323148041254457,13.460052161271276,13.608763435955485,13.76925682305411,13.941501210280197,14.125459651079963,14.32108942746073,14.528341947319461,14.747162480537877,15.125631860079743,15.650499509173184,16.327843602814607,17.17574273855906,18.222187122834722,19.505759217893317,21.078197207233536,23.008785624929608,25.39108225892838,28.353065658927918,32.07259531928343,36.80139082125802,42.90299064530127,50.91407304975304,61.64523264630441,76.347945210258,96.98711675932122,126.61040841577334,158.49626071074303,194.4954104280414,233.85668695852436,274.9511438630845,315.63066836541657,353.57117041277377,386.63384390737247,413.1570748063085
I1,0.0,0.0,1.446448440926788,2.9341930834951495,4.115109692000474,4.968956896476662,5.559226161831747,5.955966422398312,6.215813266659183,6.380165702068714,6.4781034838241585,6.529779319527076,6.549163643462631,6.546022285181506,6.527272680569419,6.497893891952531,6.461532639029759,6.420907223043313,6.378078458806065,6.334633279372548,6.291810814879362,6.250590310333418,6.211753474737156,6.1759294855122375,6.143628057521086,6.115264168385053,6.091176852419288,6.071643704910481,6.056892230474659,6.047108830767998,6.0424459985243395,6.043028128780344,6.0489562498086595,6.060307966247349,6.07714828689104,6.099528783240693,6.127489251652621,6.161059546949365,6.20026115359849,6.245108470523137,6.2956098534790605,6.351768457778826,6.413582913953929,6.4810478605058215,6.554154351901847,6.632890155657087,6.71723994906575,6.807185423514339,6.902705302095281,7.0304357403318,7.204617129148152,7.435231513219893,7.731762739115283,8.105167448819317,8.569227774251221,9.141856960882391,9.846704438306874,10.715368240158647,11.790602093647202,13.131099433163977,14.818794774278263,16.97025216362053,19.75480895463839,23.42403660315411,28.360176611366498,35.155421389896894,44.72786336740139,56.44088415483053,70.23020515855524,85.9205219338076,103.10926358166907,121.15857814800036,139.25209246391537,156.49535351656792
A1,0.0,0.0,0.1610249287290217,0.3611890967735346,0.5571511891712447,0.7344978185836291,0.8896155500574666,1.022860465114712,1.135968877101432,1.23107045594422,1.3103120236032333,1.3757169730038104,1.4291372256432344,1.4722423863969838,1.5065242121403268,1.5333074326297549,1.5537630602915664,1.5689224101793173,1.5796909533330528,1.5868615495073497,1.5911268231755284,1.5930905698662603,1.5932781544187504,1.592145909504904,1.5900895721776835,1.5874518140998868,1.5845289311150776,1.5815767623767725,1.5788159100635364,1.5764363290057875,1.5746013522251872,1.5734512140828778,1.5731061279089873,1.5736685320539037,1.5752261829238818,1.577853902979481,1.5816152902272531,1.5865642405463452,1.5927462719172323,1.6001996688673905,1.6089564690480884,1.6190433120307768,1.6304821678261996,1.6432909602295809,1.6574840980016696,1.6730729250758096,1.6900660993901142,1.708469908544228,1.7282885292427683,1.7524921953699406,1.7833064724787602,1.8227196405758512,1.8727613992204981,1.9356947596515077,2.014190614672908,2.1115255023592465,2.231835428017238,2.3804635064804054,2.5644548185761282,2.7932811681294885,3.0799293221859068,3.4425741685451747,3.9072104718673137,4.511879050631683,5.313556191638896,6.399391963796449,7.903534664768781,9.803826599878793,12.118763515549215,14.848807813095426,17.961712104102205,21.387395147927325,25.02052010789405,28.72989454932857
IH1,0.0,0.0,0.0,0.2704544711164209,0.8159246756152148,1.575826899980746,2.4865006479024885,3.496900815303545,4.569676385330782,5.678502409812518,6.805102260810208,7.936850154015044,9.065035955062378,10.183663474626991,11.288632586420817,12.37718448409444,13.447523574264528,14.498557102314175,15.529713345692615,16.540812590016607,17.5319739428915,18.503546810610054,19.456059614257242,20.390180762995342,21.30668849822261,22.20644727328915,23.090389032311244,23.95949822179869,24.814799689404893,25.65734884597538,26.488223623058627,27.308517869521395,28.11933591189694,28.921788062876765,29.71698617165164,30.506041250808366,31.29006097362307,32.070147511384164,32.84739573883139,33.622891754340436,34.39771165763079,35.172920536657756,35.94957162391371,36.72870558892205,37.51134993861111,38.2985185009811,39.09121097035212,39.89041249471045,40.697093287380966,41.512208246530435,42.34168149553274,43.194030579111164,44.079539941145455,45.01014712641035,45.99969884505375,47.06445696951093,48.22384274218445,49.501472400504895,50.92659437534032,52.53610935204798,54.377461234063716,56.51285952439399,59.025581762038996,62.029594807479704,65.68457223396355,70.21979271268067,75.97258294872691,83.44799138295504,93.02613119525383,105.07065528180514,119.90818916677651,137.78626976783266,158.83027708615,183.01148200349226
IN1,0.0,0.0,0.0,0.27318879690054915,0.8246340615166354,1.5936030256869511,2.5161472882564015,3.5409494807747137,4.630435457714666,5.7581035034182175,6.905535894965288,8.059991341426192,9.212662179912847,10.357467401543962,11.490231266790314,12.608126280450918,13.70929361116872,14.792581767008803,15.85736417290272,16.903409742890712,17.930789423812,18.939807485901387,19.93095010539585,20.904846237111588,21.86223737822103,22.803953880094323,23.730896166860372,24.644019691367834,25.544322780990175,26.432836748321947,27.310617798265113,28.178740374772822,29.03829167168414,29.89036709197547,30.73606574167844,31.5764880138891,32.41273303801346,33.24589646844846,34.07706864168777,34.90733304860299,35.737765064662526,36.56943088972057,37.403386657572476,38.24067768202595,39.082337811131495,39.92938886492825,40.78284013492176,41.64368792572343,42.512915120974995,43.39149075694051,44.28540491485598,45.20327733887501,46.15552687123656,47.15425936726887,48.21352899017385,49.3498523744814,50.58296423926877,51.93686859279561,53.441297281905555,55.13375967467695,57.062475396546276,59.29065673988444,61.902899170888844,65.0149347222479,68.7888520732272,73.45731246140046,79.3624971064337,87.01656431404344,96.80631353685007,109.10253602029786,124.2392055796072,142.47092326057395,163.9292738466961,188.5903389569515
D1,0.0,0.0,0.0,0.0,0.00045568661924905705,0.001830431712048546,0.004485530108498569,0.00867501556727485,0.014566916351155784,0.022266328287286294,0.031833992503904895,0.04329985598204223,0.056672592617675835,0.07194620066964016,0.08910457546435852,0.10812470405759778,0.12897892521392323,0.15163655231667791,0.176065057575513,0.20223094990923365,0.2301004354372888,0.25963992096259847,0.2908164020000074,0.32359776439690624,0.35795302019804565,0.3938524927010104,0.4312679617140615,0.47017277727079926,0.5105419480910347,0.5523522096523601,0.5955820756858314,0.6402118761209248,0.6862237839045011,0.7336018326545443,0.7823319267461921,0.8324018439005724,0.8838012337752148,0.9365216123376731,0.9905563525952688,1.0459006723011934,1.1025516191672817,1.1605080540173542,1.2197706322335815,1.2803417837813085,1.3422256920418054,1.4054282716347155,1.4699571453705356,1.5358216204368893,1.6030326638895234,1.6716028774890135,1.7415464718963745,1.8128876392816755,1.8856649229593514,1.9599341944227462,2.035771438640859,2.1132759707961224,2.192574505572414,2.273826480352764,2.3572311233336025,2.443036943163356,2.531554622166075,2.6231747805269645,2.7183928547354053,2.8178445949537214,2.9223577732144785,3.0330291943026912,3.151341972839959,3.2793475825701877,3.419948449397989,3.5766874489464073,3.753720172753878,3.9557525411452437,4.187907547458356,4.455519436812638
R1,0.0,0.0,0.0,0.025978765410766543,0.08968721154915527,0.1959801235481213,0.3461737550157419,0.5397253013537935,0.7751257812277287,1.050397087728331,1.3633764350734232,1.7118804489405168,2.0937985259464456,2.507143662288263,2.9500774458983097,3.4209193768724604,3.9181468159911867,4.440389503684968,4.986421123906653,5.555149460726497,6.1456061052970865,6.756936293061296,7.388389208860952,8.039308942622755,8.70912617980221,9.39735064900742,10.103564311418957,10.827415254437458,11.568612239962773,12.326919852235193,13.102154188866109,13.89417903997026,14.70290250313449,15.528273985624049,16.370281478630314,17.22894924097235,18.104335716918758,18.99653167927372,19.90565857432585,20.831867044065365,21.775335602963658,22.736269449000382,23.714899390896868,24.711480875542883,25.726293101375695,26.75963820500265,27.811840509671473,28.88324582530631,29.974220790759688,31.085152249697472,32.21692548428181,33.370903977693146,34.548943362791405,35.753433764462706,36.98737084182158,38.25446016803078,39.55926371769704,40.90740230254014,42.30583496181524,43.76324714729299,45.29059653348611,46.901892634815496,48.615331407568256,50.45498137253096,52.45334530963905,54.65533582283675,57.12454516789785,59.953003335939215,63.23933760021916,67.09282834957793,71.63017501523842,76.96948042775105,83.22256232367145,90.48681369410694
G1,0.0,0.0,1.446448440926788,3.47783635151212,5.761560548431744,8.162059273907897,10.6198959474073,13.106054532713598,15.604433327686321,18.104980363647723,20.600884111296853,23.087335531701402,25.56091764676099,28.01925961907731,30.460812675061828,32.88468956490452,35.29054206167142,37.678464128531786,40.04891390751896,42.4026502099171,44.740680488077224,47.06421803253156,49.374646644079476,51.67349139490182,53.96239436904959,56.24309448812079,58.517410698490046,60.7872279325246,63.05448536526922,65.3211665757301,67.58929129248929,69.8609084603641,72.13809041090579,74.42292402320149,76.7175127479632,79.02397103196792,81.34442092984052,83.68098951201219,86.03580669940376,88.4110034022638,90.80870989946514,93.23105440992292,95.68016181368588,98.15815248406217,100.66714119522278,103.20923607223511,105.78653755240322,108.4011373281309,111.05511724229089,113.77720857332544,116.59375795350162,119.53220587666,122.62324635980877,125.90261069039722,129.41297366653242,133.20632117243588,137.34710791553746,141.9166257738314,147.0191983441792,152.79115778957723,159.41413710384654,167.13519365152425,176.29796834804273,187.39198114290582,201.1319744021394,218.5863057117203,241.37180640058236,269.8956592401312,304.89811570275907,346.98424249488,396.46595222385065,453.2685713880601,516.8991705450118,586.4799090239447
H1,28243.79857507793,26448.80430492253,24914.675147784445,23488.848388586364,22163.59274348326,20931.729146624253,19786.59130606983,18721.989077143302,17732.17445197124,16811.809978342255,15955.939434361324,15159.960597771504,14419.599960323845,13730.889248263546,13090.14361992403,12493.941420635521,11939.105383711363,11422.685174220836,10941.94117963513,10494.329458284114,10077.487762923127,9689.222562616236,9327.496991627619,8990.419659106217,8676.234258078432,8383.309916655418,8110.132238439666,7855.294982902333,7617.492340019144,7395.511756717816,7188.227275721892,6994.593350191248,6813.639100173804,6644.462979310477,6486.227822489594,6338.156247240077,6199.526383596356,6069.667908972728,5947.958366260794,5833.819744919739,5726.715306274262,5626.14663557675,5531.6509046362435,5442.798329973725,5359.189812537551,5280.454746010452,5206.248981665849,4850.823139671186,4511.089855617825,4186.301562345039,3875.8136299138127,3579.0778119229567,3295.6361635142475,3025.1152847864764,2767.220715044063,2521.7312670594138,2288.49304625234,2067.4128486752325,1858.4505776585572,1661.610269557755,1476.9292876799275,1304.4652512911207,1144.2803435601465,996.4228258087207,861.5744699156323,855.8107439414362,850.2579143723543,844.9016400533563,839.7286015952822,834.7264284009343,829.883630903558,825.1895376453961,820.6342368505998,816.2085221714701
S2,109633.3790818865,116155.82176880793,122103.49936207835,127555.10689829571,132546.37663551126,137110.59074704483,141278.69572953635,145079.44278605608,148539.53323384913,151683.7600670728,154535.14222001555,157115.0504390792,159443.3246719514,161538.3832861679,163417.3245765559,165096.0210601267,166589.20705168802,167910.55999093823,169072.77596350372,170087.63982899807,170966.09034060405,171718.28061360237,172353.63427490523,172880.8976020038,173308.18793774294,173643.03864689404,173892.4408615082,174062.88224439733,174160.38298371437,174190.52921639575,174158.5040641084,174068.97987474993,173926.60560244016,173735.47413025383,173499.41113894957,173221.97257807775,172906.45815886566,172555.9280801287,172173.21966690558,171760.9631053496,171321.5961176592,170857.37759208216,170370.4002244686,169862.60223494517,169335.7782214513,168791.58920789364,168231.57194032392,170061.72331071153,171824.10701859108,173517.20250351616,175139.25111250978,176688.2532195171,178161.9524851867,179557.811912678,180872.98224811882,182104.26043689196,183248.03267185006,184300.19164243742,185256.00891945697,186109.9274519275,186855.20913662016,187483.3150433847,187982.78506738076,188337.170840969,188514.98853278815,187396.25636031068,186184.8479012719,184840.34981576458,183335.41870683376,181645.143347983,179751.13361172372,177644.19745092717,175325.71581838772,172807.40153556457
E2,0.0,2.8130783968976663,4.174224306040415,4.9567715821997105,5.526091376755805,6.031515081682601,6.53182487835093,7.048442905152614,7.587756642574237,8.150382933064481,8.734949195655537,9.339593257890687,9.962524862232728,10.602208341200786,11.257397550016185,11.927117298420473,12.610628871514958,13.307393987757987,14.01704214747081,14.73934263131892,15.47418103758449,16.221539806149394,16.981482095233613,17.75413842315786,18.53969557040849,19.338387322641395,20.1504867113591,20.97629947311198,21.81615850073681,22.67041910288595,23.53945492259642,24.423654393428627,25.323370647315087,26.23903726791699,27.17106992436554,28.119882909460614,29.085891049889412,30.06950829823083,31.07114571576736,32.09120941534705,33.130098536531584,34.18820322624417,35.26590258639952,36.363562552894315,37.48153367310559,38.62014874978192,39.77972031827879,40.960537921937906,42.60026486340378,44.669158061244694,47.1943070458215,50.23933087678456,53.899029457354594,58.302220381494614,63.62040184677883,70.082287426433,77.99598742123364,87.78246234965677,100.02653677106554,115.55613406134844,135.5679316231788,161.83081901683062,197.02127552618995,245.28134563345412,313.1353219270295,410.75248956434234,516.4359189901036,636.4559918084487,768.6088272639565,907.7825430035134,1047.0764754447687,1178.878182188389,1296.0235228161755,1392.7617049066448
I2,0.0,0.0,0.5062569543243757,1.0671980177074447,1.5581425627923775,1.9670249867845038,2.313189000176013,2.619286800873774,2.903312071811432,3.177645150539235,3.450124272551834,3.7253946790916435,4.006020584814453,4.293280267534332,4.58769520111016,4.889366602008247,5.1981821442266885,5.513938775983091,5.836412889806299,6.165398243270332,6.500724588028991,6.842265074703604,7.18993736965571,7.543701450393895,7.903555825548924,8.269533178314761,8.641695981349503,9.020132363392399,9.404952352282471,9.796284531441792,10.194273099888374,10.599075302717722,11.010859189557484,11.429793200642955,11.856060498540934,12.289850210809313,12.73135494038113,13.180769555436626,13.638290180707624,14.104113204872942,14.578434290807404,15.061447393422384,15.553343783234347,16.054311067566495,16.564532197920343,17.08418445045015,17.613438365604747,18.152456632291262,18.7013929010849,19.339107352071334,20.10946807796499,21.044730661481754,22.176476755697994,23.541478853395155,25.185871335112164,27.169312866533176,29.570200128387384,32.49291385899844,36.078361966497816,40.51974077050372,46.08663195185738,53.162656334755184,62.30559104542839,74.3452481974411,90.5449824836891,112.86746789218947,144.36783343884576,183.04824918804138,228.7902156623826,281.1231486352339,338.83336926589124,399.9214751199151,461.769556399504,521.4543389370542
A2,0.0,0.0,0.05635872505515758,0.13089481118046378,0.2090836793445808,0.28606409829239343,0.36075090312794633,0.4334116765692897,0.50470001383298,0.5752920333467614,0.6457671309290348,0.7165837272376893,0.7880889764146606,0.8605381579191447,0.934114599614363,1.0089470864462236,1.0851240885085678,1.1627050028663921,1.2417288596080247,1.3222209691591384,1.4041979361627819,1.487671394386138,1.5726507488675463,1.6591451526404053,1.7471648969185636,1.836722354655807,1.9278325864176582,2.020513693051127,2.114786980415022,2.2106769863668276,2.3082114084225394,2.407420961317837,2.508339186549831,2.6110012890730747,2.715445480740824,2.821712136281284,2.929843416778589,3.0398829921693795,3.151875780301521,3.2658676876780435,3.3819053508140384,3.500035878754466,3.620306596675753,3.7427647897348435,3.8674574457506097,3.9944309948726593,4.123731044046817,4.25540210377788,4.389487304388256,4.534791199735945,4.698101982566499,4.885655406836257,5.103955766997429,5.360357267120963,5.663608430444732,6.024482234708623,6.456595782792267,6.977542125894817,7.6105097105757125,8.386662592594035,9.348724073874,10.556499621702569,12.095584943907374,14.091388291553299,16.732069270762327,20.30614216683511,25.25931108226994,31.53068502608467,39.19482097925335,48.27009362890544,58.66949900440465,70.18181821291488,82.477397346669,95.13623657819788
IH2,0.0,0.0,0.0,0.09465906489074731,0.2930958554778736,0.5810099102014725,0.9420118609488887,1.363520701717977,1.8373379036702457,2.3587251651456533,2.9253144055017577,3.5362307948140694,4.191478284763935,4.891540233355958,5.637133360821709,6.429063516889983,7.268146060305236,8.155165819907996,9.090860487621248,10.075917325772494,11.11097700324477,12.196640870027876,13.333479531320597,14.522041530257718,15.762861516969224,17.056467615402294,18.403387889480804,19.804155913790048,21.259315506315716,22.769424703407314,24.3350590631295,25.956814380300322,27.635308889360335,29.371185022381084,31.165109199353548,33.01777430064842,34.9299004731533,36.902235461486164,38.935554709070885,41.030661269427576,43.18838553290395,45.409584771537844,47.69514250559546,50.04596769494007,52.46299375683536,54.94717740962579,57.49949733929914,60.12095268336625,62.812561323819224,65.57535797813227,68.42511041566,71.38560454249044,74.48637942299895,77.76253404459537,81.25563292500874,85.01538103312424,89.10205741653998,93.58989524680369,98.57177722190596,104.16584743670424,110.52499300453555,117.8507204938098,126.41391066012507,136.58657126573158,148.8915200609478,164.08168564035185,183.26817615562655,208.12035941044869,239.91454597985467,279.88997605656044,329.1834204063677,388.6914351443844,458.9262553551652,539.9046383869171
IN2,0.0,0.0,0.0,0.09561607891519219,0.29622019104205527,0.587542306556768,0.9531762815508137,1.3805334544769527,1.861429340951656,2.391159744444579,2.9674057683090953,3.589352101997787,4.25706892861568,4.971110029254835,5.732265073830244,6.541414325633225,7.399448361941813,8.307227639398393,9.265565659958334,10.27522555811121,11.336923884268485,12.451337868758367,13.619114011732023,14.840876798094106,16.1172369089054,17.448798636743156,18.836166404090303,20.27995038833295,21.780771309841334,23.339264462593892,24.956083073009502,26.63190106991997,28.367415341541225,30.163347546517137,32.020443939988766,33.93947790821662,35.92125082386937,37.966592422549326,40.07636094699726,42.2514430993443,44.492753806369315,46.80123580017083,49.17785901753301,51.62361982088072,54.13954004216067,56.726665848807315,59.386066428492704,62.11883248676033,64.9260745489362,67.8089210548732,70.78338337755284,73.87359808466361,77.10955244730589,80.52689864876143,84.16787752237592,88.08302083237129,92.33362267831912,96.99517089581423,102.16211269357892,107.95456389780405,114.52792790883981,122.08696962722802,130.90686026032046,141.36536592878645,153.99320060441508,169.55437924304155,189.17596428164097,214.55076569441727,246.97733786797986,287.71886880608287,337.93703601425136,398.55267431145063,470.09978568483876,552.6125909534251
D2,0.0,0.0,0.0,0.0,0.00015949031673716995,0.000653325227091193,0.0016322642723101506,0.003219452675727338,0.005516838022240997,0.008612554259748632,0.012586751808807514,0.017515591129455464,0.023473758687645226,0.03053594760748648,0.03877766541920352,0.04827562724932301,0.05910790599426542,0.07135394834201109,0.08509452333250421,0.10041164293702991,0.11738847708978388,0.1361092751829429,0.15665929981856977,0.17912477500695567,0.20359284899442157,0.23015157085510318,0.2588898794950367,0.2898976035510262,0.3232654706755134,0.3590851247956034,0.39744915006947384,0.43845110040857593,0.4821855335743813,0.5287480489867266,0.5782353284942117,0.6307451767912577,0.6863765660009936,0.7452296816163961,0.8074059689994901,0.8730081800508495,0.9421404197296316,1.0149081921131844,1.0914184456897953,1.1717796175841253,1.2561016764201869,1.3444961635294266,1.4370762322105328,1.5339566847425468,1.6352540068434729,1.7410863992527081,1.8515738060970148,1.9668627384941928,2.087139784248836,2.2126413013036528,2.343662785610221,2.4805697648503635,2.6238115142185165,2.7739388726041003,2.931627753785625,3.0977105688716655,3.2732187890305107,3.4594414837297682,3.6580072392752645,3.8710010468354574,4.101134690542569,4.3520008460598145,4.628460792539874,4.937247906554155,5.2879082694062145,5.692138408087011,6.163722835678194,6.7183614014175905,7.373264554916444,8.146505806666367
R2,0.0,0.0,0.0,0.009092567893768288,0.03211307805393403,0.07173850531649059,0.12957583863926805,0.20672903807170467,0.30409353712739384,0.42250638619481834,0.5628192914431627,0.7259305654041552,0.9127955779565636,1.1244264480277266,1.3618868511439606,1.6262851037158754,1.9187671606503993,2.2405103094320804,2.5927178731551512,2.9766149837255202,3.3934453604446975,3.8444689736974795,4.330960456591839,4.854208130639927,5.415513524328047,6.0161912797751596,6.657569359441259,7.340989480428835,8.067807717638724,8.839395228710718,9.657139063373949,10.522443027748194,11.436728580515089,12.401435742960388,13.41802385702648,14.487972556270986,15.612782650726608,16.793976967629984,18.033101154457263,19.33172444231381,20.69144036613259,22.11386743806454,23.60064977058371,25.153457645885734,26.773988028083686,28.463965014506634,30.225140222094417,32.05929310446585,33.96823119471966,35.95379026840702,38.01924820488007,40.16929583991945,42.41010927199353,44.74950922553697,47.19721041846069,49.76517705478055,52.46811375139759,55.3241377557863,58.35570187948891,61.59087331356836,65.06512966417851,68.82392415572619,72.9264213712611,77.45105589520779,82.5039926418896,88.2322883491746,94.84471629959776,102.64433862299542,111.95801545135465,123.15038412815295,136.61407073713218,152.75064916259646,171.94579044926348,194.54244369133144
G2,0.0,0.0,0.5062569543243757,1.257473161513384,2.149520851067103,3.144026440673094,4.229490841018866,5.404993725240269,6.673470011513362,8.039004143893223,9.505791576771404,11.077780747370973,12.758584966187849,14.551495359192543,16.459526685247354,18.485469440193334,20.631938619305792,22.901416274691748,25.296287586371704,27.81887105722018,30.471443668599978,33.25626181351587,36.17557872475784,39.231659001414144,42.426790731362956,45.763295616519045,49.243537432140826,52.869929089727314,56.644938522797155,60.57109357408229,64.65098602960055,68.88727491821167,73.28268917340071,77.8400212802042,82.56214175374274,87.4519959152243,92.51260364425215,97.7470594749061,103.1585324384332,108.75026554291428,114.52557488271663,120.4878483835433,126.64054418406876,132.98718864821885,139.5313739957422,146.27675553280827,153.22704845858703,160.3860242178182,167.75750636304286,175.42408272541613,183.46298840869153,191.95633369647882,200.99767810587204,210.69764186237904,221.19002790936403,232.6395029426099,245.25189420185077,259.28847813955485,275.08628956252886,293.08761149979904,313.8837245935237,338.281270087917,367.40522825475375,402.8622531976036,447.00442397034874,503.3579669590505,577.279228654895,670.219857590076,784.7599544212865,923.0829973861057,1086.4525024509564,1274.890104470142,1487.0474615819571,1720.2869340819955
H2,28243.79857507793,29924.97706168971,31457.9276422593,32863.04815707415,34149.59627819848,35326.167232754444,36400.74113331386,37380.72692739844,38273.0032075825,39083.95610644256,39819.51448458078,40485.18260507587,41086.070473903885,41626.9220130472,42112.14122110118,42545.81646513026,42931.74303725743,43273.44409993613,43574.19013500029,43837.01700336708,44064.742714633,44259.98299871521,44425.16576510786,44562.54452921092,44674.210879513616,44762.10605414406,44828.03169040345,44873.65980635862,44900.54206934737,44910.1184023327,44903.72497540382,44882.60162634343,44847.898751043474,44800.68370163871,44741.94672752233,44672.606491896324,44593.515194176616,44505.46332640758,44409.18408982935,44305.35749587382,44194.61417413149,44077.538908220944,43954.6739189976,43826.521913150216,43693.54891394417,43556.18688967371,43414.83619427357,40865.29200309589,38366.668861263155,35921.940732403775,33534.13837001988,31206.36678263,28941.820507632856,26743.795847182184,24615.69890436595,22561.047869933842,20583.467547374334,18686.67357894262,16874.443282028773,15150.569496183647,13518.793503730538,11982.713122663003,10545.66276594119,9210.5639757699,7985.9449003638665,7952.415161305889,7918.872891095683,7885.333302942569,7851.810404578017,7818.317085589847,7784.865198504321,7751.465634062857,7718.128391108209,7684.862641465297
S3,328900.1372456595,327459.64632109343,326110.52720051113,324844.0854855572,323653.2937856245,322531.86825043795,321474.076391916,320474.6426834968,319528.6940307405,318631.7222379235,317779.55435174925,316968.32719007187,316194.46451448573,315454.6561636374,314745.83881007653,314065.1781458931,313410.0523635339,312778.03682662745,312166.8898407279,311574.53944336175,310999.07113974344,310438.7165162759,309891.84266900056,309356.9423887304,308832.62504879344,308317.6081451906,307810.7094425637,307310.8396827,306816.99581539293,306328.25471435016,305843.7673435057,305362.5413592498,304884.152155393,304407.86996154196,303933.0702617346,303459.1922304347,302985.72498097277,302512.2013665954,302038.19395589153,301563.3117405343,301087.19717790926,300609.52344965475,300129.9918919374,299648.32957373135,299164.28700521134,298677.6359602173,298188.1673974379,301961.4120595416,305895.08284921,309997.20658992935,314276.5263712537,318742.56163971993,323405.6472963336,328276.95144682267,333368.4643885103,338692.94501863053,344263.8028625838,350094.8821707677,356200.095759816,362592.82451210206,369284.941895637,376285.2173827573,383596.6484311394,391211.8680115509,399057.0581696725,397491.5804189812,395772.1949986607,393827.12440719036,391603.94199176255,389052.03852375725,386130.6479561751,382814.4389242652,379096.95820064715,374991.1242658635
E3,0.0,4.822420108967427,6.956996247621656,8.033988183151493,8.698369161700201,9.206057865546715,9.658873600548052,10.097456376294812,10.538118004066241,10.987491178001001,11.448363846526686,11.922005852614667,12.40909693912998,12.910096214240514,13.425388374227847,13.955340731239232,14.500324699559659,15.060723222567601,15.636932730555243,16.229363049239126,16.838436605669596,17.464587448812825,18.108260272225994,18.76990949688465,19.44999842304466,20.148998442641698,20.867388298724727,21.60565337802671,22.364285023933448,23.1437798586422,23.944639104778336,24.767367898029,25.612428006558737,26.4803546512413,27.371660491882423,28.286853528113532,29.226440177705033,30.190924859165097,31.180808802642655,32.196588675560534,33.23875511163525,34.307791130733406,35.40417042283446,36.52835546997683,37.68079548079522,38.86192411118672,40.07215694208268,41.31188868165404,43.02516509107711,45.19229943574047,47.852150968792756,51.08261105099669,54.99649479441049,59.74616338061021,65.5347639903689,72.63455968107796,81.41482856795895,92.3841316449552,106.25523216127412,124.04679496093122,147.24623354456935,178.0762895312826,219.94010163228307,278.1734213425589,361.30711203939376,482.88125621231205,613.9735403405609,762.4263251543703,925.8154979742311,1098.1517865360634,1271.210212732361,1435.8150165019886,1583.2389902153823,1706.3828108541957
I3,0.0,0.0,0.8678690645560725,1.793702150016066,2.5653850244952814,3.166598856523098,3.63321472201915,4.005945620057762,4.317516490368282,4.591288265802208,4.843035399181346,5.083105297412629,5.3181848537168355,5.552570042978412,5.789024834539422,6.029343600275627,6.2747124063253885,6.525938381202796,6.783594213195313,7.048108691191956,7.3198231995503376,7.599026836630082,7.885978157870351,8.180918570912786,8.48408053114864,8.79569250435878,9.115981922419564,9.445176894839232,9.78350714970567,10.131204497339937,10.488502997698966,10.855638942774911,11.23285072190744,11.62037022884575,12.018438522047372,12.427298319937242,12.84719253834355,13.278363931623986,13.72105479355577,14.175506556648893,14.641959294717685,15.12065114768372,15.611817678193528,16.115691161222173,16.632499802692326,17.162466880061054,17.705809795713083,18.26273903221939,18.83345699675227,19.498002923075646,20.302790608931392,21.283782690137528,22.477443109454136,23.926833770935563,25.686251642835394,27.826145818562914,30.439485260028352,33.650754132973404,37.629173020676596,42.608634230124,48.91844684236301,57.03183317552083,67.64417309509994,81.80193748072384,101.11853528443353,128.1362413594897,166.87857145669105,214.65179758638257,271.18597534444024,335.8763615547323,407.26764178112927,482.9712651250419,559.8450904109827,634.3573447567012
A3,0.0,0.0,0.09661495723741298,0.22040790124510898,0.34580589330774525,0.4642835151533938,0.573817999205396,0.6747528214056071,0.7681902472154519,0.855381509005993,0.9375088560219198,1.0156196559895154,1.090617741525129,1.1632747448186698,1.2342470057180674,1.30409268147444,1.3732872386315134,1.4422368760170088,1.5112899309472987,1.5807464844496217,1.6508664150042447,1.721876137036472,1.7939742326398722,1.8673361551318863,1.9421181553917501,2.018460557755307,2.0964904916180123,2.1763241675011065,2.258068771738342,2.341824041721326,2.4276835734242925,2.515735904389821,2.606065408221276,2.6987520975187254,2.79387379904729,2.891506054385659,2.9917223952394885,3.0945946360100223,3.200193110799063,3.30858684835402,3.4198436912535994,3.534030366394406,3.651212512448225,3.7714546685095036,3.8948202269484384,4.021371352489861,4.151168868682035,4.284272112150205,4.420738754311446,4.56951341375396,4.737703225035786,4.932047228782,5.159757747911259,5.429143712409932,5.75022602675341,6.135478844550541,6.600818481144029,7.166991728368707,7.861587003448081,8.722021661268556,9.80008485142702,11.169010024429532,12.934747199776606,15.254333387189957,18.36636953136936,22.64187408082801,28.663276956266508,36.33959726050628,45.75165046254976,56.918647787055455,69.73670873792352,83.95392862180836,99.17521137912695,114.89435773344827
IH3,0.0,0.0,0.0,0.1622726826698525,0.49575992332490393,0.9696383538609372,1.5503935065331131,2.211609639347505,2.934792122778377,3.707781288663267,4.522927540771531,5.3756201479581165,6.263236995531318,7.184436911856295,8.138697650826638,9.126019871015336,10.146739731903665,11.201411233616334,12.290732818364113,13.415501847418513,14.576586539188275,15.77490879851063,17.011433812984134,18.28716383635091,19.603134549116728,20.960412994086308,22.36009646392767,23.80331195438803,25.291215943918992,26.824994351813594,28.405862583525664,30.03506560676031,31.713878023384346,33.443604115312795,35.22557628316625,37.061156431308405,38.95173593347592,40.89873532534208,42.90360393357121,44.96781945328053,47.092887455519545,49.280340807496174,51.5317389920281,53.848667314647756,56.23273598714342,58.68557907570784,61.208853300685966,63.80423667335255,66.47342695327494,69.2181399076321,72.05503685494388,75.0092628010373,78.11239316758136,81.40245238689137,84.92507222152395,88.73550358665248,92.90152424821574,97.50750317475523,102.66009933025151,108.49636595724857,115.19548763196991,122.99612883047243,132.22264756490668,143.32563270442012,156.94607538231512,174.01914928334327,195.9444509198347,224.8575328065597,262.3653250761669,310.00550731010054,369.18471761845376,441.0210454768579,526.1729084185283,624.7035182221617
IN3,0.0,0.0,0.0,0.16391327814032947,0.501048289321393,0.9805586704967965,1.5688244062137424,2.2393366036646203,2.973540869059205,3.759249068470018,4.588807097685253,5.457616693499339,6.363079876345255,7.303887591097517,8.27955524825548,9.290125131434017,10.335978002046028,11.417714824627351,12.536082995359472,13.691930599338681,14.886178225598563,16.119801734092807,17.393821827798973,18.709297835687412,20.067324087779586,21.469027874337904,22.915568362750903,24.408136083489804,25.94795274446113,27.536271224931337,29.17437565708183,30.86358153836555,32.605235839415805,34.40071708543768,36.25143381384879,38.158826005083455,40.124365081678356,42.149553631134815,44.23592506377242,46.38504321751163,48.59850189093136,50.87792428704736,53.22496235401607,55.641296010916726,58.128632247103965,60.68870408298855,63.323269378894054,66.03410947704063,68.82302765978999,71.69184740505415,74.65749085979623,77.7454770618756,80.98786207406022,84.42326829495408,88.09806494382997,92.06841254408359,96.40321564062884,101.18824865735169,106.53193943303211,112.57359199498845,119.49529225979802,127.53950145385721,137.03563306232806,148.4411419076127,162.4065538297503,179.8806118173769,202.2827275059481,231.77803449326518,270.0012542116263,318.5197768377466,378.77110160568503,451.903489451515,538.6025962644958,638.9537693423224
D3,0.0,0.0,0.0,0.0,0.00027341197154943415,0.0011087139818528637,0.002742450046711301,0.005354695917823726,0.009081019670183025,0.014025827922408085,0.02027303956350745,0.027893684737738747,0.0369510250045805,0.04750390394301266,0.059608905402436324,0.07332173330387994,0.08869809267799642,0.10579425494791472,0.12466742496723307,0.145375984389358,0.16797965833545475,0.19253963478108255,0.21911865501203728,0.247781086551137,0.27859298561067675,0.31162215341292065,0.34693818903219376,0.38461254036263975,0.42471855416470616,0.4673315257403221,0.5125287485375414,0.5603895638315437,0.6109954105338401,0.66442987512264,0.7207787416505317,0.7801300391214693,0.842574091201398,0.9082035658709701,0.9771135245602629,1.0494014706584947,1.125167397311808,1.2045138343912098,1.2875458944836555,1.3743713177364802,1.4651005153658891,1.559846611621313,1.658725483977507,1.761855801304354,1.8693590597397862,1.9813596159635278,2.097984717537979,2.2193896845505656,2.3457722037120075,2.477383162913588,2.614537517114659,2.757627105873758,2.907136860583482,3.0636659108631887,3.2279555389462615,3.4009267359187723,3.583731412801281,3.777823387302832,3.985058601038134,4.207839503895072,4.449327739416588,4.713764952083665,5.006968453191209,5.337113723231268,5.715974418394994,6.158031698863002,6.680357549094256,7.30239398707776,8.045466890999267,8.932011501587237
R3,0.0,0.0,0.0,0.015587259246459921,0.05440836552724228,0.12016663027207738,0.2145732293793856,0.3383416531137905,0.4917115596745714,0.6747299497154249,0.887402211955963,1.1297714348875192,1.4019575928846737,1.7041742781398816,2.0367330709398495,2.4000413730241617,2.7945970651907164,3.2209819062758362,3.67985473836733,4.1719450605236785,4.69804723948276,5.259015457242483,5.855759401750755,6.489240657867189,7.160469732830868,7.870503642535962,8.62044398526718,9.411435434179655,10.244664586376965,11.12135911360598,12.042787166612642,13.010256991714467,14.0251167239797,15.088754326516566,16.202597499242184,17.368113907542668,18.586811423062887,19.86023840856074,21.18998404411691,22.5776786844506,24.02499423628228,25.533644545330464,27.105385783320433,28.74201682602427,30.445379613798238,32.2173594863427,34.05988548349602,35.97493060379807,37.96451201232758,40.030691188932046,42.17700807531426,44.40848506893508,46.73173844279844,49.15518437629497,51.68934602846416,54.34728327887203,57.145182624210456,60.10316522409047,63.246400831039175,66.60666101010021,70.22451758347556,74.15251041916584,78.45980567385578,83.23920053962016,88.61790802468873,94.77455070673082,101.9664481503832,110.57307564048195,121.0022370281228,133.70719094764937,149.17534615107408,167.90579332753117,190.37964592609674,217.02771577708543
G3,0.0,0.0,0.8678690645560725,2.1198881108262477,3.5657285087212296,5.13113453659725,6.787906996790859,8.526170650093322,10.34336405541178,12.239861334312009,14.217230264227076,16.27754035701783,18.42308965242257,20.65629852041858,22.979669954596858,25.395776180592563,27.907255527541274,30.516813166322088,33.22722318439626,36.04133101298587,38.96205583778757,41.9923928667774,45.135415421754324,48.3942768539989,51.77221229487267,55.27254025378192,58.89866407440058,62.65407325761674,66.54234465716631,70.56714355162481,74.73222459441106,79.04143264170546,83.49870345666582,88.10805590477126,92.87360517277284,97.79955870848062,102.8902153820932,108.14996520151736,113.58328895256994,119.19475762518326,124.98903159227203,130.9708595238746,137.14507701692293,143.51660491618514,150.09044729722325,156.87168907763888,163.8654932181177,171.07709746955982,178.5118106167038,186.25485434500288,194.3879074076138,202.9996418811527,212.19274759698857,222.09021721029188,232.8424631267197,244.63645722824202,257.70816934383305,272.3600266092086,288.9859795744926,308.10825155749876,330.43239036567354,356.9316268648123,388.9792086438751,428.5608307234263,478.62243910881045,543.6452405773091,630.5471891116879,741.0412211697194,878.2516272839074,1044.8664414275993,1242.4958354219975,1471.269769100369,1729.6668823941664,2014.5952192787631
H3,84731.39572523379,84361.5364581792,84014.77338128591,83689.14940837352,83382.9665937451,83094.65135163293,82822.7455336164,82565.8981438519,82322.85764655074,82092.46482339593,81873.646141611,81665.40759619973,81466.8289924823,81277.05863747238,81095.30841088686,80920.8491886664,80753.00659382192,80591.15705122171,80434.72412460363,80283.1751156486,80136.0179063916,79992.79802758397,79853.09593686262,79716.52449173528,79582.72660346143,79451.37305890299,79322.16049834242,79194.80953812294,79069.06302776189,78944.68443192754,78821.45632835591,78699.17901342204,78577.66920767142,78456.75885416754,78336.29400302136,78216.13377594289,78096.1494050945,77976.2233409351,77856.24842412263,77736.12711689576,77615.77078968204,77495.09905898386,77374.03917287591,77252.52544070905,77130.4987038597,77007.90584458878,76884.69933028474,76760.83679055944,76607.65472210354,76426.00365729153,76216.762445057,75980.83869099128,75719.1694016929,75432.72180557917,75122.49431252295,74789.51756116103,74434.85548469819,74059.60630265158,73664.90331654546,73251.91535178888,72821.84664643092,72375.93594227888,71915.45448945827,71441.70263973589,70956.00468887821,70459.7754224276,69967.28223630387,69478.4938473239,68993.37941410743,68511.90851904437,68034.05115145221,67559.77769183896,67089.05889719342,66621.86588723
S4,164450.06862282974,167183.6292828792,169907.68719325028,172621.3961614142,175324.79058343964,178018.23041058372,180702.17836633683,183377.11208071883,186043.4904682931,188701.74189300742,191352.26102901634,193995.40913037324,196631.51557474496,199260.8798220621,201883.77344601488,204500.44210589095,207111.10741107882,209715.96866469027,212315.20448626604,214908.9743186613,217497.41982594325,220080.66618950898,222658.82330947134,225231.9869180055,227800.2396109343,230363.6518034098,232922.2826151442,235476.18069026346,238025.3849564993,240569.92532810656,243109.82335658313,245644.86623826047,248175.36927124506,250701.2562691173,253222.49747960022,255739.07100154948,258250.9526249206,260758.11325758003,263260.5183551307,265758.1278522981,268250.89618971443,270738.77232417715,273221.6996892623,275699.61609383754,278172.4535509053,280640.1380297411,283102.58912356396,289656.32809311757,296211.41095028986,302765.36962756916,309315.2376583668,315857.5334375,322388.2025138616,328902.52870214765,335395.0125728379,341859.2073765533,348287.4925279966,354670.74944249174,360997.8779535274,367255.04328976007,373424.4535772125,379482.2966084257,385395.13503036834,391113.4279356825,396544.9508841898,398903.4043076737,400975.55771043926,402640.9336304069,403816.9449468481,404428.51460319816,404418.7739848406,403756.3489072945,402439.09161283565,400493.4505175886
E4,0.0,7.233630163451142,10.533554267446075,12.285031994445923,13.448722794628061,14.411204617334375,15.327459800177735,16.259137078317742,17.23044317665507,18.250738443401918,19.323653637628727,20.450746861317068,21.63295059913072,22.871127294040903,24.16626831773357,25.519552945152476,26.932354616408826,28.406229248951057,29.942899093997895,31.544237078813087,33.21225319107108,34.94908316693637,36.756979287548205,38.63830296022535,40.59551875523654,42.631189604451734,44.74797291285513,46.94861737624538,49.235960334959536,51.61292552366707,54.08252110177723,56.647837868657334,59.31193198499244,62.07811280665576,64.94970798054572,67.9301066067166,71.0227668543093,74.23121495176903,77.55904211714878,81.00990085012236,84.58750078301757,88.29560402938101,92.13801992665323,96.11859906574371,100.2412264969809,104.50981399348775,108.92829123985095,113.50059579675602,119.5078998522909,126.899783612898,135.79604137737928,146.43326476989247,159.15413489051016,174.42157024104156,192.85216175392333,215.27048557612724,242.79159068657125,276.9456368801788,319.8686874999996,374.60041288673114,445.5586144899112,539.3119081472863,665.861621922028,840.7911068800499,1088.833256144317,1448.9126571712923,1844.5616540027982,2300.090373713038,2808.9033216505773,3353.0689612177353,3907.082152163459,4441.719204958543,4928.458693750489,5343.379666545299
I4,0.0,0.0,1.3018035968341088,2.708200619548174,3.9012130774771308,4.855259567316746,5.623944058145512,6.268615097571489,6.838658210417082,7.369253895932523,7.884044708612558,8.39844063164762,8.922340257236666,9.462089636698089,10.021804887120295,10.604233508107622,11.211302588615492,11.84446209883349,12.504897053447603,13.193657028698073,13.911734182993364,14.660109503368599,15.439779634597574,16.251771968349335,17.097152726004026,17.977030930391507,18.892560020687064,19.84493816056014,20.83540785780221,21.86525525067808,22.935809257540548,24.04844069160115,25.2045613872126,26.405602548430558,27.653053035358536,28.94844098604964,30.29333011345372,31.689318764750226,33.13803915250202,34.64115632233833,36.20036684132142,37.81739723261582,39.49400216138483,41.23196235637535,43.0330822381985,44.89918721631945,46.832120609640185,48.8337401387368,50.90591393045962,53.280374727016365,56.09268539946882,59.44901676051969,63.45821396533388,68.24988380960298,73.9882301093956,80.88670624580472,89.22693502031102,99.38536246198535,111.87232441436475,127.3907661661575,146.9264688254329,171.88976233526031,204.34303238501798,247.37341687472605,305.7122272492135,386.76359241492327,502.1539032200359,645.3782696470487,816.7516281594543,1015.2835860599051,1237.1289294739136,1475.297612164393,1720.1675208153888,1960.6001126834808
A4,0.0,0.0,0.1449224358561195,0.3325764365463067,0.5250455486287949,0.7097768925169565,0.883987703007111,1.0484491684888793,1.205043162495652,1.3558329192733471,1.5027363338727693,1.6474346206064576,1.7913689729276883,1.9357667529566998,2.081674586451628,2.229990104721771,2.3814897470247254,2.5368522029513008,2.6966778386008676,2.8615046652289,3.03182141791647,3.2080782514252135,3.3906954838201493,3.580070745062335,3.7765848236596966,3.9806064505848475,4.192496215192415,4.412609771462463,4.641300463212533,4.878921472757319,5.1258275778350315,5.38237658562228,5.648930499636575,5.925854148754675,6.213519804035149,6.512306344495046,6.822599422208343,7.144791753350072,7.47928334205467,7.8264816066584615,8.18680141128715,8.560665009224547,8.948501902228493,9.350748617215798,9.767848399360748,10.200250818591554,10.648411284572525,11.112790463405087,11.593853587380748,12.117658523530876,12.70504898664095,13.375905918945236,14.15164279830382,15.057083841989163,16.122322639850555,17.384950782452133,18.89301506765425,20.70915021106399,22.916541874943366,25.627750103113975,28.9980735884507,33.246264703341616,38.68738284759173,45.78602967099001,55.24405610223238,68.14559286343166,86.17969984863655,109.2309403499516,137.68954365963572,171.75064420516628,211.2186445880977,255.41852019105943,303.19866758254454,353.02186232128633
IH4,0.0,0.0,0.0,0.2434090240047788,0.7469395648221473,1.4676538473210443,2.35833265233065,3.382331291197822,4.514904111669163,5.740828633265589,7.051638238508303,8.443385886087547,9.915051987911944,11.467479691612835,13.102688866622247,14.823445404993185,16.63299660243468,18.534912134173197,20.532991077126812,22.631209688441444,24.833694011108587,27.14470738784527,29.568646767957162,32.11004407381736,34.77357037272288,37.564041511314585,40.48642442678851,43.545843686311784,46.74758800764333,50.09711663244046,53.600065491657276,57.26225313989741,61.089686454905895,65.08856610709678,69.26528791682085,73.62645135448949,78.17886450506995,82.9295482821805,87.88574041705995,93.05489925716897,98.4447073273843,104.06307460433376,109.91814145978822,116.01828123046221,122.37210236916829,128.9884501273753,135.87640771270185,143.04529685710042,150.50467772252682,158.26434806065873,166.37732013178956,174.92133406889775,183.99307325800345,193.7084430323077,204.20622804207198,215.65429380433477,228.25845549608354,242.2747807189347,258.02673219090497,275.9294147316951,296.52451822131513,320.5317226281045,348.9259996333533,383.0565498503838,424.8340364265231,477.03144918892747,543.773787316599,631.3117326186597,744.6066550815045,888.6208379029307,1068.0733985933896,1286.9093407291434,1547.7205839798733,1851.2696353192428
IN4,0.0,0.0,0.0,0.2458699172104942,0.7549054739592161,1.4841733543644353,2.3863380500200733,3.4246615180855517,4.574359914896211,5.8202246137387466,7.153843568358828,8.571354190846973,10.071842982241465,11.656275112538596,13.326804670322922,15.086341608863556,16.938285698499932,18.88636667860092,20.93455084508659,23.08698864306848,25.347987245278198,27.72199814036157,30.213613579797048,32.82756812752369,35.56874304394186,38.44217215266458,41.453048398738424,44.60673064628535,47.9087504663678,51.36481878513477,54.98083233070051,58.76287985494329,62.717248125894145,66.8504276951838,71.16911451853674,75.68021879115159,80.39087022368041,85.30842256605783,90.44045790842912,95.79479079385811,101.37947209493568,107.20279260389565,113.27328629118766,119.59973318883699,126.19116185242318,133.05685135049546,140.20633272358006,147.64938984699197,155.39605962251215,163.45663141354208,171.88505874524844,180.76035918704616,190.1808124731111,200.26427298024313,211.15189520492547,223.01443505543938,236.06125553771443,250.55281575228673,266.81806907047155,285.2790657831771,306.4864000219321,331.17134314622245,360.32422094609603,395.3149760010689,438.08291510191236,491.4415484833342,559.5746592753917,648.8200537824883,764.2235903035162,910.8401501861648,1093.4870118106294,1316.2070403332891,1581.682471505336,1890.751402951668
D4,0.0,0.0,0.0,0.0,0.0004101179573241513,0.0016686305774784287,0.0041414690450876715,0.008115005252380073,0.013813868742800117,0.021420995304204087,0.03109367248636418,0.04297492250160242,0.057201117223264875,0.07390691062871141,0.09322837730813949,0.115304995113926,0.1402809021282959,0.1683057077765702,0.199535036001889,0.2341309117823241,0.2722620596604567,0.3141041561163749,0.35984006090290543,0.4096600421583082,0.46376200382133964,0.5223517200754451,0.5856430792863406,0.6538583385733059,0.7272283893986868,0.805993034143942,0.8904012734240225,0.9807116037897843,1.0771923254291436,1.1801218594712628,1.2897890745062996,1.406493615392007,1.5305462463821233,1.6622692026194048,1.8019965487289507,1.950074544132513,2.106862014763041,2.2727307307794535,2.44806578979831,2.6332660050847836,2.828744298073469,3.034928094513653,3.2522597234495167,3.4811968181505857,3.722212717999513,3.975796870220922,4.2424552301944685,4.522783073241801,4.817506658425493,5.127515145887666,5.45389298375818,5.797958457336679,6.161312687217161,6.5459035703726745,6.954110450071824,7.388857669382322,7.853768978230057,8.353380815575356,8.893442203518182,9.481344886304951,10.126753865723858,10.842553404929106,11.646299955907025,12.562500149439385,13.62619234111118,14.880774259922868,16.378004546953107,18.177593047397465,20.34589651206624,22.953638796912287
R4,0.0,0.0,0.0,0.023380888869689885,0.08192950222401466,0.1816555518975799,0.3256848349126813,0.51574864690054,0.7529688749393026,1.0382757209768143,1.372627945332785,1.7571249430071534,2.193059249419741,2.681936582351981,3.2254787577698636,3.8256181873417496,4.484488859469183,5.204416499118597,5.98790932098052,6.83765005282464,7.756489488849405,8.747441604903669,9.813680150333132,10.958536578006576,12.185499156812872,13.498213112979018,14.90048165820758,16.39626777827832,17.989696672295885,19.685058748557783,21.486813097288387,23.3995913729473,25.42820202945433,27.57763486059411,29.853065431604755,32.259860285393714,34.803582187520256,37.48999550021863,40.32507169075577,43.314994958803844,46.46616796329313,49.785217628739,53.279001011076915,56.95461120281995,60.81938325671963,64.88090010604459,69.14699845809344,73.62577463562289,78.32559033848011,83.25507829484818,88.42727611905451,93.85965387922197,99.57445668867337,105.59933400992247,111.96827788815965,118.72293487357842,125.91440252519115,133.60568175684236,141.87504384676515,150.8207048939956,160.56741228950696,171.27589119434586,183.1566684367302,196.4907535532393,211.66130346711776,229.2032070860407,249.8821252592747,274.81930912881677,305.2432708737902,342.5455521350379,388.2493479796912,443.9416609600838,511.18046802186615,591.3906950945825
G4,0.0,0.0,1.3018035968341088,3.1974795607634467,5.408361023627971,7.828666639379669,10.422185741358144,13.18059913094757,16.106682252658416,19.207566925439878,22.492069507634913,25.969659768821273,29.650087883120214,33.54327183968664,37.659284837623524,42.00837848869766,46.60101663343633,51.447910284151455,56.56005046455792,61.94873814410748,67.62561135447287,73.60266985568794,79.89229776653288,86.50728453860444,93.46084459525926,100.76663589738192,108.43877764507593,116.49186727956143,124.94099691236885,133.8017692782942,143.09031328339503,152.8232991985279,163.01795353168646,173.69205279423505,184.8639690672979,196.55267329351176,208.77774633647167,221.55939141078093,234.9184463303754,248.87639520440817,263.45537946582493,278.6782081532684,294.568367355885,311.1500287119951,328.4480568332922,346.4880155063485,365.29617250179496,384.89950279776593,405.3256899973252,426.83298444871554,449.6705626787207,474.10916005049523,500.4620902482232,529.1043377187019,560.4941962509372,595.2009247061715,633.9421771731799,677.6362780457712,727.476927632717,785.0422438699296,852.4573803715765,932.6425424322614,1029.7000593328275,1149.5321539831202,1300.8455142725238,1496.7978946365492,1757.5521308890914,2089.509521784714,2503.446349336675,3008.9519343138627,3612.388540210716,4315.528386164094,5114.884436513159,6001.836784006651
H4,42365.69786261689,43071.79282699384,43774.805630812,44474.928742322714,45172.33832072583,45867.19637567371,46559.651803603985,47249.841349717455,47937.89050091622,48623.91431463748,49308.01818816578,49990.2985726792,50670.84363598087,51349.73387758489,52027.042699563826,52702.83693632122,53377.177346226774,54050.11906784196,54721.71204326881,55392.00141097384,56061.02787027091,56728.828019490844,57395.43466972071,58060.87713586123,58725.18150662569,59388.37089498787,60050.46567047873,60711.48367463158,61371.4404207826,62030.34927934728,62688.22164961335,63345.06711901631,64000.89361079483,64655.70752085876,65309.513844643494,65962.31629466868,66614.1174094682,67264.91865451066,67914.72051568513,68563.52258588615,69211.32364519361,69858.12173510763,70503.91422726584,71148.6978870398,71792.46893237904,72435.22308824453,73076.95563694944,69621.0529953947,66191.55268073152,62791.705506269645,59425.14046180215,56095.90095814092,52808.482432082834,49567.870269868756,46379.57644902771,43249.67255032021,40184.81581619734,37192.263703319906,34279.87089578972,31456.061070638956,28729.763993526645,26110.307078462207,23607.24988895105,21230.150954992172,19003.005471940876,19594.30551101486,20181.470306201758,20764.53099150429,21343.518440231986,21918.46326868288,22489.39583967492,23056.34626593702,23619.34441336901,24178.419904178954
E_Om,0.0,0.0,0.0,0.0,0.0,0.0,0.0,0.0,0.0,0.0,0.0,0.0,0.0,0.0,0.0,0.0,0.0,0.0,0.0,0.0,0.0,0.0,0.0,0.0,0.0,0.0,0.0,0.0,0.0,0.0,0.0,0.9903081083808103,1.4081604161912011,1.7043472805579976,2.0029678336614514,2.342299435612576,2.7387305248708755,3.2038775155357246,3.749295120533672,4.387907838080933,5.134593066039498,6.006567364038704,7.023753852960446,8.20918271136426,9.589443495539413,11.19519965949025,13.061774024516327,15.229814176792623,18.005056889629344,21.498310810970658,25.90804680932774,31.51982066495596,38.732429839707336,48.10546962408452,60.43433616291465,76.86741065896332,99.0918901340284,129.6346963701653,172.36134252760172,233.32450007791152,322.24783708434666,455.19757274497204,659.5374621312967,983.3770414194448,1513.9487901746784,2412.179160004631,3623.845788981358,5340.8319038544405,7671.148148158401,10708.44868214901,14498.931191558922,19024.406270021318,24196.605468620037,29864.992084434805
I_Om,0.0,0.0,0.0,0.0,0.0,0.0,0.0,0.0,0.0,0.0,0.0,0.0,0.0,0.0,0.0,0.0,0.0,0.0,0.0,0.0,0.0,0.0,0.0,0.0,0.0,0.0,0.0,0.0,0.0,0.0,1.0,0.6241530270732363,0.5677882577983518,0.6078070002042435,0.6860882254043005,0.788689074982382,0.9137956744619143,1.063225241502172,1.2402025513402843,1.4488198064562843,1.6939571307126031,1.9813378859752677,2.3176327119917617,2.7105905824139596,3.169192679335855,3.7038298365393905,4.32650588706052,5.051069947491793,5.89348114751613,6.918722486000739,8.187295027956527,9.772678597865822,11.77212602862844,14.318107739896433,17.594013370277466,21.85744995279758,27.47587265102503,34.98226690971798,45.164055854438,59.20837087569204,78.94543544423288,107.26751349829209,148.87118489620713,211.61236500652583,309.0524021083368,465.3544862981235,724.5613490862587,1104.4042422314456,1650.4825338118674,2410.695392848556,3431.793744931708,4751.271309659296,6389.256440687953,8342.427038662358
A_Om,0.0,0.0,0.0,0.0,0.0,0.0,0.0,0.0,0.0,0.0,0.0,0.0,0.0,0.0,0.0,0.0,0.0,0.0,0.0,0.0,0.0,0.0,0.0,0.0,0.0,0.0,0.0,0.0,0.0,0.0,0.0,0.0,0.019840365082494222,0.044851286248454844,0.07176106707279528,0.10031211511898158,0.1310552655322275,0.16478081991190321,0.20238430697418025,0.2448482697057921,0.293255670035115,0.34881281330310077,0.412876312824967,0.4869830648352082,0.5728834112212021,0.6725780140097352,0.7883590889221076,0.9228567161750009,1.0790910107162253,1.26572013573542,1.4922253999881483,1.7705347286432125,2.116372647275845,2.550916506588968,3.103138267507007,3.8132711280978207,4.738064597701436,5.958914783302415,7.594711557329816,9.822607604954946,12.912437368009911,17.285311063408567,23.616278865354964,33.019702712088936,47.394012597416236,70.07901996556538,107.09979880621336,162.4230550094715,243.21982241798344,357.6681479605621,514.5030008885454,721.9756538495252,986.6417538829327,1312.230882944924
R_Om,0.0,0.0,0.0,0.0,0.0,0.0,0.0,0.0,0.0,0.0,0.0,0.0,0.0,0.0,0.0,0.0,0.0,0.0,0.0,0.0,0.0,0.0,0.0,0.0,0.0,0.0,0.0,0.0,0.0,0.0,0.0,0.3758469729267637,0.610432998795316,0.8238344967521873,1.0522769179026492,1.3101411005815506,1.6065675019940884,1.9500148401141693,2.3496248286720878,2.8157512034093832,3.3602857419823176,3.9969544018283556,4.741634248617273,5.6127094877754224,6.631476753019503,7.822608228169543,9.214681460468704,10.84078560147022,12.73921495127636,14.954262000571248,17.55464290345496,20.631812956170766,24.3048446245648,28.729362557337165,34.11078000941651,40.72343667626831,48.93849307692551,59.265216641334526,72.41319576546812,89.38796944345393,111.64125640900792,141.31265934710808,181.62882958882193,237.58161378808194,317.1154806096581,433.2718904178215,608.1739654308603,880.4981551846627,1295.5851465148278,1915.914010716513,2821.9665767671386,4111.795867508723,5897.54680679795,8298.929499283346
G_Om,0.0,0.0,0.0,0.0,0.0,0.0,0.0,0.0,0.0,0.0,0.0,0.0,0.0,0.0,0.0,0.0,0.0,0.0,0.0,0.0,0.0,0.0,0.0,0.0,0.0,0.0,0.0,0.0,0.0,0.0,0.0,0.0,0.17822125659366786,0.43164149695643084,0.7383651433069496,1.0988301755639325,1.5203631764560026,2.013240081616341,2.589827380012373,3.2645710098656675,4.05424287269492,4.978292287803622,6.059266960609035,7.323300070189382,8.800669432355358,10.526438064708934,12.541187347529224,14.891855548962013,17.63269609879249,20.872984486571983,24.741937931411485,29.404491554036582,35.076970653193236,42.0474702972336,50.704793379693974,61.58088662906588,75.41436572795052,93.2474835510525,116.57725161990612,147.59634031914595,189.58669185324084,247.58017284540017,329.50001448502906,448.1939787946078,625.167882717995,897.6263767159451,1331.7353145171191,1983.9023974161087,2945.067680326695,4325.609403565069,6252.760321698846,8862.067177168019,12285.803247485903,16640.356537945703
beta,1.0,1.0,0.9996234882879284,0.9993820904450259,0.9991901963642916,0.9990139485272899,0.998839837101249,0.9986623852582464,0.9984792953041494,0.99828952889433,0.9980925455032137,0.9978879995268257,0.9976756194783725,0.9974551596591663,0.9972263807428116,0.9969890419206249,0.9967428976813624,0.9964876964544938,0.9962231800066891,0.9959490831458369,0.9956651335535741,0.9953710516744219,0.9950665506328087,0.9947513361666249,0.9944251065731174,0.9940875526657311,0.9937383577417771,0.9933771975612806,0.9930037403376143,0.9926176467406741,0.9922185699133957,0.9918061555024889,0.9913727666906684,0.9909280616006725,0.990469191020164,0.989995035832168,0.9895049184438511,0.9889982589282986,0.9884744812903171,0.9879329858846474,0.9873731390821423,0.9867942671053698,0.9861956504787537,0.9855765180711124,0.9849360403771592,0.9842733218543286,0.9835873921666112,0.9828771961852778,1.0133360647134573,1.0463495938714868,1.0823114788312322,1.1216942125277627,1.165071511404968,1.213146982534502,1.2667919120399738,1.3270959279279946,1.395435693759052,1.473568778600075,1.5637623841736836,1.6689691516691314,1.7930625740121777,1.9411350707825639,2.1198190689741097,2.3374447834828884,2.603392150467105,2.9222072469254647,2.7592771309204482,2.5762845938457346,2.3706742592561025,2.1507503194825524,1.9271285212720481,1.7105033616670111,1.509422061806477,1.3291604570745734
