series,2021-11-01,2021-11-02,2021-11-03,2021-11-04,2021-11-05,2021-11-06,2021-11-07,2021-11-08,2021-11-09,2021-11-10,2021-11-11,2021-11-12,2021-11-13,2021-11-14,2021-11-15,2021-11-16,2021-11-17,2021-11-18,2021-11-19,2021-11-20,2021-11-21,2021-11-22,2021-11-23,2021-11-24,2021-11-25,2021-11-26,2021-11-27,2021-11-28,2021-11-29,2021-11-30,2021-12-01,2021-12-02,2021-12-03,2021-12-04,2021-12-05,2021-12-06,2021-12-07,2021-12-08,2021-12-09,2021-12-10,2021-12-11,2021-12-12,2021-12-13,2021-12-14,2021-12-15,2021-12-16,2021-12-17,2021-12-18,2021-12-19,2021-12-20,2021-12-21,2021-12-22,2021-12-23,2021-12-24,2021-12-25,2021-12-26,2021-12-27,2021-12-28,2021-12-29,2021-12-30,2021-12-31,2022-01-01,2022-01-02,2022-01-03,2022-01-04,2022-01-05,2022-01-06,2022-01-07,2022-01-08,2022-01-09
S,45062051.056744486,45061940.62567635,45061858.36536774,45061791.298127934,45061732.420560695,45061677.946312115,45061625.82612727,45061574.950430065,45061524.71879778,45061474.80709361,45061425.0412951,45061375.32902238,45061325.62232284,45061275.89741473,45061226.14364636,45061176.35747035,45061126.53915102,45061076.69096333,45061026.81620702,45060976.91866712,45060927.002318986,45060877.07116789,45060827.129162595,45060777.18014975,45060727.22785093,45060677.27585228,45060627.327601075,45060577.38640627,45060527.455441184,45060477.53774728,45060427.6362388,45060376.68680471,45060326.04401696,45060275.521920346,45060225.03578247,45060174.54556969,45060124.030794665,45060073.479294896,45060022.8822032,45059972.23167205,45059921.519822575,45059870.73823713,45161472.57637597,45263072.622268215,45364670.69898388,45466266.51195735,45567859.66118916,45669449.637050524,45771035.80254398,45872617.36182017,45974193.31196252,46075762.37174152,46177322.876218185,46278872.61813299,46380408.60292202,46481926.65773791,46583420.78236227,46684882.019226074,46786296.368927866,46887640.656350285,46988873.52960014,47089913.22363815,47190571.61477766,47290288.21183422,47284541.27347127,47276784.70681544,47263425.99949101,47243408.53207984,47215093.68549245,47177825.83748911
E,0.0,110.4310681367963,170.58473519441213,203.5034726143815,221.64270054815466,231.7474087893707,237.47524245085347,240.81196217842935,242.8366557968411,244.1361080494243,245.02952381758226,245.6905653665608,246.21370314620415,246.6503251695226,247.02840228394422,247.36320167019505,247.66312256535505,247.93287217071125,248.1751905630489,248.39178405361875,248.58382701276707,248.75222880955687,248.8977732981056,249.0211895216804,249.12318564067317,249.20446350427818,249.26572330737562,249.307663413098,249.33097804158166,249.3363542304254,249.3244687714866,249.295985452726,249.25149367652637,249.1916523722565,249.11708315514215,249.02838064088604,248.92611633151114,248.8108399938031,248.68308015282048,248.54334434787285,248.39211939146531,248.2298717063916,248.05704775212104,249.52784853709883,252.4623796752554,256.8239314480189,262.6770278632566,270.1686589933729,279.5251573248074,291.0613315929494,305.20148536811297,322.5146832437862,343.7699102748973,370.0217075741621,402.74537976119007,444.05681560658445,497.08381677172736,566.6236890710402,660.3774545558321,791.441279260007,983.8321393105577,1286.406591360966,1815.0134906647947,2924.6300790821183,6518.399650522236,10515.6462283044,16727.954231734144,24899.570764436983,34739.82078665095,45510.922893089686
I,394.48025116009745,289.24111478849693,231.97357118989913,200.8214933260339,183.91099590808807,174.77994884727315,169.90540522350767,167.36325223419067,166.10045791739432,165.53933282380416,165.36202199317805,165.39297758716776,165.53477240385163,165.73299120375754,165.95699400058305,166.18935432913426,166.42004537740945,166.64322853957822,166.85547090846765,167.05474907522816,167.23988685455825,167.41023342513867,167.5654754290859,167.7055243301311,167.83044656080548,167.94041841758929,168.03569561442623,168.11659179774202,168.1834627612421,168.2366944554639,168.27669364850777,168.3038805264048,168.318682770625,168.32152015666193,168.3128191896156,168.29300458611527,168.2624948870372,168.22169994075682,168.17101930616596,168.11084117064627,168.04154160282303,167.96348405132224,167.8770190379817,167.7824840097274,167.97815797033945,168.6503343424586,169.92899347253572,171.92106471437967,174.7314335761049,178.47778181953004,183.30311414026244,189.3887298345046,196.97008767978605,206.35837627717183,217.97175853861523,232.3826406449457,250.39193494050812,273.1504120239106,302.3661545279315,340.67903019296216,392.3841350823148,464.9577770147264,572.6840542570865,746.9084453937837,1074.5691082860037,1962.2935434159838,3333.3614045881327,5457.90653681007,8487.918586507536,12482.469619654326
A,43.831139971659624,39.275120075790966,37.40333903970672,36.93030605194222,37.165426095742085,37.73922674069098,38.45566487081008,39.21229560032769,39.95707460552442,40.66496901872766,41.32529455879827,41.93486752277747,42.49431159497054,43.0060767875115,43.473387157340916,43.8996915717592,44.288386032218725,44.642681683533596,44.96555011975556,45.259708905355204,45.52762728584662,45.771541350598056,45.99347296327726,46.1952495168824,46.37852305072951,46.54478805951546,46.69539774292405,46.83157865939367,46.95444385314975,47.06500457048247,47.16418069733106,47.25281005061457,47.331656648562756,47.40141689261991,47.46272798768521,47.51617334831376,47.56228764945422,47.601561429977195,47.63444524528504,47.66135339815877,47.682667286926915,47.6987384107935,47.7098910695256,47.71642479105813,47.751722589745796,47.84209627302987,48.01038779884372,48.27835649571556,48.66844244329425,49.205284027812624,49.91726060118603,50.83829554922738,52.01017791640852,53.485746918901896,55.33345974006894,57.64419117742368,60.54172698081196,64.19959990636448,68.86933973972714,74.93049394879024,82.98532359191888,94.05427161722328,110.02974613323622,134.92656939328583,179.44835514712605,291.284203577883,471.5141705890276,757.3712462770409,1177.098455301978,1750.184228331225
IH,0.0,26.350740141526973,32.45017495329742,31.663826915381495,29.191112641070045,26.829483893786534,25.042860168768527,23.827061480141946,23.051477050365055,22.580688924949815,22.308636200307692,22.16124172082554,22.08987016448642,22.06378096262977,22.064022753449233,22.079106305635747,22.10214304194121,22.12903094919956,22.157336187142,22.18561678056451,22.213019103912153,22.23903927040692,22.26338274432475,22.28588184126766,22.306447098328114,22.325038378185226,22.341647458769003,22.356287324771365,22.368985396970693,22.379779104310693,22.38871287674174,22.395836023052787,22.401201179215043,22.404863139654445,22.40687724613928,22.407299562679874,22.40618639367643,22.403593750771694,22.399576919094763,22.394190134465664,22.387486350284536,22.379517071469074,22.370332238231477,22.359980147677163,22.3485074048469,22.355861859378013,22.404426679191197,22.514036794025767,22.70171769839694,22.9829585587097,23.37333783759594,23.890170026833765,24.554192622127914,25.39146641113568,26.435763161894506,27.73184237829617,29.340241446184564,31.344622984799535,33.86354182038462,37.0701655128164,41.227114402535044,46.75214569062073,54.35281415509522,65.3358173832876,82.44605288570878,112.85851654063025,187.310312138698,315.99139771268614,522.0234938115913,827.0797053377755
IN,78.88839623007354,143.64909152056129,175.76635492393112,190.6795118344393,196.69214010135104,198.24622755756778,197.69596955868505,196.26944017652207,194.5899990383948,192.95878566938575,191.50748344660212,190.28062845067677,189.2796748722083,188.48633292855015,187.87470626431653,187.41740876113823,187.0884737791906,186.86457973743745,186.72541398417223,186.65361503701155,186.6345259460827,186.65587938203254,186.70747475427282,186.78087557592835,186.86913849989924,186.96657691119785,187.06855783617485,187.171329133479,187.2718733358846,187.36778451006998,187.45716477106257,187.53853746168627,187.61077440045415,187.6730349738632,187.72471305634065,187.76539636284525,187.79483137734377,187.81289368468788,187.81956311229564,187.81490300421066,187.79904299047504,187.7721646928083,187.73448988994093,187.6862707410031,187.62778173013317,187.61889819889583,187.74602780410677,188.10609746479508,188.80005977252097,189.93176332573114,191.60999310183328,193.9526505229139,197.0927790175191,201.18668316512873,206.42490747639002,213.0474973335618,221.36597980520864,231.79625917238116,244.9098894345426,261.5176514274516,282.8130499109031,310.6347871368064,347.98739850804157,400.19389575478,477.89250843538775,607.2022672089329,890.8822956380465,1397.9465548090184,2239.071192306091,3535.506936671316
D,22900.0,22900.0,22900.239591757538,22900.534642082792,22900.822542608556,22901.08796020004,22901.331904892497,22901.55960486789,22901.77625030199,22901.98584380376,22902.191156706423,22902.393995993923,22902.595495110258,22902.796345287068,22902.99695825013,22903.197573411653,22903.398325719038,22903.599287485893,22903.80049372865,22904.00195733426,22904.20367807865,22904.40564797622,22904.60785445984,22904.810282284325,22905.01291467985,22905.215734063135,22905.41872248598,22905.621861925407,22905.82513447652,22906.028522483713,22906.232008631738,22906.43557600928,22906.63920815341,22906.842889079733,22907.04660330212,22907.25033583758,22907.454072212917,22907.657798466862,22907.861501147436,22908.06516730532,22908.26878448435,22908.472340709824,22908.675824475333,22908.879224728564,22909.082530856336,22909.28573266921,22909.489001351812,22909.692711605712,22909.897418479817,22910.10383182583,22910.31280232931,22910.525322321617,22910.74254156456,22910.965798373803,22911.196668020395,22911.437032842172,22911.689182148777,22911.955955680634,22912.240953873094,22912.54885511069,22912.88591228858,22913.260766153973,22913.685855874206,22914.180053995417,22914.774114095166,22915.52374748713,22916.54990349587,22918.253005824274,22921.126129460954,22925.872581579053
R,0.0,18.68372083545444,61.47339704359672,112.82515108725364,166.41105323816535,219.87996369226792,272.5233574079327,324.2624852403813,375.2258193464296,425.58370993859893,475.4911200206963,525.0732328181698,574.4263817068456,623.6232647699318,672.7184147729604,721.7527254396796,770.7568842990216,819.753887942425,868.7608693194078,917.7904335280599,966.8516485686398,1015.9507937270961,1065.0919355853998,1114.2773790134006,1163.5080253727351,1212.7836602245204,1262.1031863154487,1311.4648133051737,1360.8662127938217,1410.3046452036776,1459.7770636447492,1509.280198851091,1558.8106284891815,1608.364833532742,1657.9392437967103,1707.5302740469097,1757.134353478502,1806.7479492012812,1856.367584627714,1905.989853627188,1955.6114311973336,2005.2290812827905,2054.8396622646524,2104.4401305538695,2154.0275426475173,2203.602497150254,2253.1888778504494,2302.839444354976,2352.6363479858487,2402.690539388278,2453.1417587804294,2504.159852829561,2555.94783880831,2608.747120257845,2662.8454238695017,2718.588353608176,2776.395998941355,2836.786930123097,2900.413454308454,2968.114787315304,3041.0001076135277,3120.584315791273,3209.0234766646345,3309.557009242404,3427.438676260409,3572.292262969142,3766.9109208155496,4067.7455066836665,4552.496551850665,5333.0117865216935
G,1710158.0,1710158.0,1710177.8959773483,1710208.6296294322,1710245.2941347184,1710285.2267209361,1710326.9798369168,1710369.7649165532,1710413.1511612535,1710456.9021878855,1710500.8873322615,1710545.0334402164,1710589.2986457031,1710633.658103085,1710678.0962251215,1710722.602463983,1710767.169022473,1710811.7896166563,1710856.4588106775,1710901.171662352,1710945.9235369142,1710990.7100111807,1711035.5268258078,1711080.369862673,1711125.2351350063,1711170.118783621,1711215.0170757829,1711259.926404908,1711304.843290235,1711349.7643760762,1711394.6864305264,1711439.6063436156,1711484.521124965,1711529.4278903878,1711574.3238744135,1711619.2064235648,1711664.0729914962,1711708.9211348267,1711753.7485092243,1711798.5528655807,1711843.3320462282,1711888.0839812069,1711932.8066845906,1711977.4982508898,1712022.4548061963,1712067.9400656621,1712114.211130579,1712161.5367273008,1712210.2120648688,1712260.5731298502,1712313.0126267963,1712367.9997055412,1712426.1060422866,1712488.0418585676,1712554.707368885,1712627.268588187,1712707.2727436633,1712796.8305875338,1712898.9171857433,1713017.895070308,1713160.4862634414,1713337.7398415187,1713569.5071949833,1713896.5117952854,1714423.4321156908,1715597.829266616,1717492.396281952,1720506.2129921594,1724992.2811274065,1731251.2325177565
H,2236356.4681703094,2236356.4681703094,2236356.4681703094,2236356.4681703094,2236356.4681703094,2236356.4681703094,2236356.4681703094,2236356.4681703094,2236356.468170309,2236356.4681703094,2236356.4681703094,2236356.4681703094,2236356.4681703094,2236356.468170309,2236356.4681703094,2236356.4681703094,2236356.468170309,2236356.4681703094,2236356.4681703094,2236356.468170309,2236356.468170309,2236356.468170309,2236356.468170309,2236356.468170309,2236356.468170309,2236356.468170309,2236356.468170309,2236356.468170309,2236356.468170309,2236356.468170309,2236356.468170309,2236356.4681703094,2236356.468170309,2236356.468170309,2236356.4681703094,2236356.468170309,2236356.4681703094,2236356.468170309,2236356.468170309,2236356.468170309,2236356.468170309,2236356.468170309,2162551.5813483545,2089643.022280385,2017672.2807724562,1946683.705518962,1876724.6817861702,1807845.8058437165,1740101.0507016566,1673547.915912302,1608247.5519708958,1544264.8471391548,1481668.4612774474,1420530.787493627,1360927.818145761,1302938.8871132636,1246646.2555612712,1192134.504157395,1139489.6916247173,1088798.2387375752,1040145.4998731889,993613.9928556628,949281.2740935426,907218.6729975543,907218.6729975543,907218.6729975541,907218.6729975541,907218.6729975541,907218.6729975541,907218.6729975541
S0,15771717.869860569,15736170.774087427,15679475.210970255,15622992.052749276,15566716.70347145,15510646.3414405,15454779.107186345,15399113.664255252,15343648.961281467,15288384.102915352,15233318.279713705,15178450.73001197,15123780.71916655,15069307.52824281,15015030.447845528,14960948.774752175,14907061.810075447,14853368.858261092,14799869.226542395,14746562.224644598,14693447.164626166,14640523.36079504,14587790.129665924,14535246.789939996,14482892.662496766,14430727.07039246,14378749.33886176,14326958.795321204,14275354.769373242,14223936.592810439,14172703.59961949,14121654.703974467,14070789.781537488,14020108.097666606,13969608.960616952,13919291.69880451,13869155.650722604,13819200.160459204,13769424.575695818,13719828.24680661,13670410.526445288,13621170.769347902,13602727.34381385,13583846.394717444,13564511.32887666,13544704.486587377,13524407.105084674,13503599.27898996,13482259.922097214,13460366.734065538,13437896.175134823,13414823.451498719,13391122.512998011,13366766.06259483,13341725.572255416,13315971.289551908,13289472.197279211,13262195.84019027,13234107.821969489,13205170.499573914,13175339.637915414,13144555.333759423,13112713.771490319,13079551.83932516,13029905.98424246,12979600.146301974,12927147.605019951,12872182.735700745,12814156.059120234,12752930.152175551
E0,0.0,60.86751787067513,94.19492909912717,112.51983299462171,122.69064415139479,128.42076544122457,131.72472433014786,133.6955824046604,134.92629734768323,135.73834440635926,136.3058623984088,136.7231034173132,137.0410850171085,137.28750036129406,137.4775224883843,137.61965508147705,137.71888936917446,137.77839740715095,137.80043168180077,137.78679578027706,137.7390845498583,137.65880150995338,137.54741186958012,137.4063625916205,137.2370863084653,137.04099795322847,136.81948868133173,136.57391935614618,136.30561465171263,136.01585818984162,135.70588880801614,135.37689790149733,135.0299959371673,134.66629015319987,134.2868274031364,133.89260063006208,133.4845520924682,133.0635754099246,132.63051725553817,132.18617900231604,131.73131841853845,131.26665142499988,130.79285389833362,131.16965228469022,132.29808561349978,134.15355324947916,136.76336995843036,140.1964951061754,144.56137111453918,150.00999727041352,156.7479262644245,165.05125222829895,175.29327869098128,187.98595840731787,203.84531760435183,223.89777866528286,249.6596654186533,283.45490130658874,329.0109212609714,392.66086588769775,486.0082915889205,632.6354972461179,888.4084170642841,1424.3526597749724,3156.6236829604713,5075.1468819566335,8045.824177147093,11937.202055039146,16602.012640460336,21682.154163343093
I0,394.48025116009745,289.24111478849693,223.04388056904193,180.51117583275595,152.62684669486586,134.0139166154472,121.39890543983034,112.74457984967522,106.75413111961552,102.58354325458706,99.6718852592481,97.63924485409186,96.22404353212866,95.24367815156607,94.56924967549871,94.10898032542669,93.79710880632166,93.58631682270448,93.44248111549503,93.34098762484022,93.26411375669892,93.19915227499202,93.13705685406228,93.07145852157433,92.99794810892352,92.9135508344379,92.81634044992487,92.70515522977725,92.57938855461673,92.438834300379,92.28357259824753,92.11388539906505,91.93019408454259,91.73300768941867,91.52289893574738,91.30047636315862,91.06636506061557,90.8211931197312,90.56558207062022,90.3001401741913,90.02545780053585,89.74210434571609,89.45062628768589,89.15154608575028,89.00014070953421,89.092433008584,89.4943967209135,90.25932636705863,91.43872276310441,93.08988506717667,95.28221138949988,98.1036195718065,101.66831571115469,106.12729487487681,111.68350651117441,118.6147612996707,127.30968271429859,138.32640829297947,152.49286919013647,171.08768057565283,196.18936933317826,231.41252651859992,283.6561852716035,368.0440289859386,526.4781392133866,954.7425008244884,1614.4084077861921,2633.305639639112,4081.4781287548667,5983.750806009096
A0,43.831139971659624,39.275120075790966,36.411151171352415,34.51204173487514,33.17717194985103,32.18465933284752,31.41002168563049,30.782043905019783,30.258794780808543,29.814571757456978,29.432779378728487,29.102033197777928,28.8140189074372,28.562307724530044,28.341693480140133,28.147814901087376,27.97693427691084,27.825802329689107,27.69157102689758,27.571733465631993,27.464079427663,27.366660361942515,27.27776035740919,27.195871194350637,27.119670390703604,27.048001608712774,26.979857030777872,26.91436144555937,26.850757857843384,26.788394476131884,26.726712955457486,26.665237787585784,26.603566740844087,26.541361623337863,26.47834156171371,26.414275834384302,26.34897757930577,26.28229822037592,26.21412251413079,26.144364145191897,26.072961812501653,25.99987575631315,25.925084681358673,25.848583035938788,25.787576278200014,25.75550039799767,25.763902315871768,25.82367551040542,25.945961602503424,26.142914953790324,26.428469340508222,26.819225051332023,27.335583850967655,28.00329982261074,28.85569857152524,29.936975449100352,31.307279364120337,33.050861584598536,35.28973735426181,38.20785671592692,42.09682902578224,47.450238137538214,55.1824446410905,67.2311182138997,88.75619374240352,142.72131448658462,229.48299477532981,366.69474761896606,567.5435928256118,840.8977460478146
IH0,0.0,26.350740141526973,32.45017495329742,31.06733582006696,27.537209384584997,23.915687763040943,20.86794521079466,18.50674103003851,16.752173186323926,15.477805419287229,14.564261709118911,13.914593493186853,13.455118498861534,13.131651423941669,12.9049967842757,12.747015138061164,12.637555369397575,12.56218441381715,12.510550194941708,12.47521540039063,12.450830201374057,12.433545198955205,12.42059360290046,12.409992576915423,12.4003287335448,12.390603325606865,12.380120015653038,12.368403182582556,12.355138246348048,12.34012794599496,12.323260227383187,12.304484612154024,12.283794783378617,12.261215741365898,12.236793945350861,12.210590800710833,12.18267755230841,12.153131453005734,12.122032949725572,12.089463642533342,12.055504819683403,12.020236418988063,11.983736304365042,11.94607977551517,11.907339250104549,11.877923099022542,11.869431491218004,11.892051169944587,11.954417684290558,12.06427388334506,12.2293051494325,12.457976425461514,12.76037816334011,13.149166744794353,13.640734479716048,14.256805586865529,15.026761538001654,15.991201176484092,17.207635711895218,18.760024789647044,20.775611071520466,23.456636002552656,27.145316177585716,32.473007085480575,40.7645231286496,55.478955137018744,91.41789811456803,153.38926671505448,252.32746006901704,398.3593848053482
IN0,78.88839623007354,143.64909152056129,175.76635492393112,188.8937469708283,191.16450889321993,187.45228741339966,180.6826429494272,172.6025804352845,164.23883589959235,156.17493612377342,148.72112037622674,142.0198935186506,136.11226489470295,130.97958907797255,126.57004266638228,122.81530572736592,119.64093960470701,116.97268547993376,114.74012040820419,112.87860912347406,111.33016920939767,110.04365783550763,108.97454986664275,108.08448484634351,107.34069841623214,106.71541206345884,106.18522708184894,105.73054990210258,105.33506353986724,104.9852518201397,104.6699778865922,104.38011534761225,104.10822859294582,103.84829788417558,103.59548332271129,103.34592629481308,103.09658090135626,102.8450717226633,102.58957434639753,102.32871537843312,102.06148901883235,101.78718765355221,101.50534425952851,101.21568473534734,100.91808854867477,100.64350913379258,100.4365593467959,100.34705603352825,100.42655247740751,100.72766872402086,101.30506009629792,102.21747226324416,103.53071230870754,105.32164128136364,107.68355167952541,110.73361469882852,114.62357471781557,119.55571818031586,125.80772181106025,133.77310486206787,144.03061155261008,157.47100694278248,175.54838182056884,200.83609439977798,238.47109717322397,301.0499965819241,438.0665384196591,682.4659026834761,1086.8567689536183,1708.4338371956442
D0,22900.0,22900.0,22900.239591757538,22900.534642082792,22900.817119066403,22901.06749868985,22901.28494995054,22901.47468988355,22901.642960777874,22901.795278420366,22901.93600898745,22902.068433239725,22902.194950441615,22902.31728990805,22902.436688278915,22902.55402581266,22902.66992691236,22902.78483275886,22902.899053301666,22903.01280436493,22903.126234149728,22903.23944221427,22903.352493116472,22903.46542625744,22903.578263009524,22903.69101189397,22903.803672351012,22903.91623748949,22904.02869609371,22904.141034087676,22904.253235601824,22904.365283747742,22904.477161178052,22904.588850487937,22904.700334499896,22904.811596458847,22904.92262016804,22905.033390078508,22905.1438913437,22905.254109848524,22905.364032219823,22905.47364582355,22905.582938752483,22905.691899807374,22905.800518473632,22905.908784895113,22906.01678385286,22906.12470560142,22906.232833017395,22906.341527495348,22906.451220831004,22906.562414698747,22906.6756877397,22906.791710341513,22906.911267968873,22907.03529513208,22907.16492386695,22907.30155335772,22907.446951929996,22907.603410824933,22907.77398467928,22907.962885072353,22908.1761624458,22908.422978815168,22908.71823673955,22909.088884534987,22909.59332199277,22910.4245310883,22911.819209332716,22914.113474287256
R0,0.0,18.68372083545444,61.47339704359672,112.72201829920422,165.44288565620636,216.69251639814001,265.39000977960484,311.2931516708224,354.5207389597489,395.33171834855114,434.0245758403002,470.89282005453225,506.20653427656976,540.2059815998974,573.1007229869793,605.0711875301898,636.2712528384891,666.8311495908126,696.8603615518463,726.4503647539173,755.6771354197411,784.6034006384768,813.2806296271899,841.7507763952711,870.0477915528135,898.1989243354585,926.2258370381873,954.145553793723,981.9712645353877,1009.7130034091733,1037.378219089192,1064.9722525681707,1092.4987361470278,1119.9599256010329,1147.3569758259875,1174.6901686592914,1201.9591011893392,1229.1628407067,1256.3000517162059,1283.3690996522412,1310.3681352242102,1337.2951626935078,1364.1480948478386,1390.9247969849362,1417.6231218350522,1444.2427246382636,1470.7953282806698,1497.307560276189,1523.8211204649087,1550.3923535684428,1577.092105704674,1604.006245524199,1631.237057954864,1658.90570475533,1687.1560245802443,1716.1601031533019,1746.1263062328449,1777.3109018292016,1810.0351431477693,1844.7110272008372,1881.8815082416468,1922.286183033233,1966.9751118896766,2017.5223990033214,2076.4754501150082,2148.4906482444553,2244.571333236949,2391.91358623748,2627.8171097449813,3005.76064682363
G0,1710158.0,1710158.0,1710168.9662867275,1710185.93705598,1710206.2093587501,1710228.314100813,1710251.4512186854,1710275.1835992164,1710299.2710623187,1710323.5802590058,1710348.0357593568,1710372.5935074296,1710397.22642835,1710421.9166388975,1710446.6512452313,1710471.4200871838,1710496.214536666,1710521.0268648409,1710545.8499143699,1710570.6769337365,1710595.5014963709,1710620.3174630404,1710645.118965397,1710669.9003990735,1710694.6564203976,1710719.3819438086,1710744.0721386701,1710768.7224249847,1710793.3284679372,1710817.8861713742,1710842.3916704082,1710866.8413233482,1710891.231703153,1710915.5595828507,1710939.8219349557,1710964.0159205908,1710988.1388797741,1711012.1883222868,1711036.1619189105,1711060.0574929689,1711083.873012166,1711107.6065807308,1711131.2564318767,1711154.8209205878,1711178.4532957396,1711202.2889767576,1711226.458950857,1711251.0991264584,1711276.3578361494,1711302.402950207,1711329.4297240856,1711357.6704469451,1711387.407150855,1711418.989124669,1711452.8578939687,1711489.5839882647,1711529.9228639796,1711574.9031682701,1711625.9722414105,1711685.248982523,1711755.9933104105,1711843.5557158426,1711957.53542948,1712117.5968509633,1712374.2174626526,1712942.9352551424,1713857.306628217,1715306.8944867535,1717457.5782182016,1720448.7044746315
H0,782724.7638596082,780963.633140924,778152.1640616168,775350.816270995,772559.5533324194,769778.3389404226,767007.1369202371,764245.9112273243,761494.6259469059,758753.2452934971,756021.7336104405,753300.0553694429,750588.1751701129,747886.0577395004,745193.6679316382,742510.9707270843,739837.9312324668,737174.5146800299,734520.6864271818,731876.4119560439,729241.6568730022,726616.3869082594,724000.5679153897,721394.1658708942,718797.146873759,716209.4771450134,713631.1230272914,711062.0509843931,708502.2276008492,705951.6195814862,703410.1937509929,700877.9170534894,698354.7565520968,695840.6794285092,693335.6529825666,690839.6446318293,688352.6219111547,685874.5524722745,683405.4040833743,680945.1446286741,678493.7421080109,676051.1646364221,642998.3688605843,610567.6621522969,578774.8921651257,547636.9175716254,517171.6519824618,487398.1026040819,458336.40092974296,430007.8220148592,402434.7879928222,375640.8504298093,349650.6448946974,324489.8097486943,300184.85968284466,276763.0030375878,254251.8905765358,232679.28239011928,212072.61931349084,192458.48611961614,173861.95637809765,156305.81392811923,139809.65407769507,124389.30542440055,123941.50392487271,123495.31451074316,123050.73137850448,122607.74874554186,122166.36085005791,121726.56195099771
S1,4506205.105674448,4219803.39214211,3975027.5823053005,3747534.2647851356,3536088.616966624,3339544.5403823997,3156838.0667554038,2986981.360820548,2829057.2154777637,2682213.972744897,2545660.8241459057,2418663.455303048,2300540.0059959684,2190657.3210304133,2088427.4700557415,1993304.5165615417,1904781.5179672942,1822387.7401502966,1745686.0710184178,1674270.6188707333,1607764.4823265125,1545817.679557139,1488105.2254367368,1434325.3460430747,1384197.8206965756,1337462.4424268226,1293877.588407083,1253218.892501797,1215278.0126331502,1179861.4861938786,1146789.6672172616,1115895.7061171297,1087024.743707367,1060032.9330008063,1034786.7027535032,1011162.0217004274,989043.7163566259,968324.837982034,948906.0749510286,930695.2071771128,913606.5995428622,897560.7315291618,884474.6656073969,872199.686229453,860677.588296812,849854.0390217812,839678.3076394107,830103.0131779606,821083.8893306896,812579.5654857499,804551.3630093015,796963.1059140024,789780.9450527885,782973.1949138483,776510.1818788438,770364.1022844395,764508.8874530247,758920.0702301385,753574.6414554077,748450.869537208,743528.0139897447,738785.7278146233,734202.4034160144,729748.6933489812,724567.8462167099,719532.281559991,714547.1759340182,709581.27589581,704594.1500718715,699568.9168862619
E1,0.0,17.390719391621463,26.113879566590782,30.312401607869372,32.08710435987231,32.544548197291135,32.27606497174972,31.603726840202647,30.707268454495573,29.68999510216297,28.61329753875219,27.514936493500326,26.418883912183897,25.34073520222441,24.290771572888477,23.275755855208192,22.300030966244172,21.36622339716911,20.475714863421796,19.628971996943367,18.82578499218706,18.065445074008917,17.346879056137837,16.668752689381996,16.02955064797603,15.427638651117597,14.861311714541712,14.328831522112798,13.82845520573654,13.358457313445182,12.917146365931956,12.50287711192015,12.114056856293104,11.749157899417522,11.40671688425605,11.085337631640801,10.783692338112456,10.5005216238222,10.234633745702851,9.984903197405874,9.75026886070253,9.529731834953889,9.322353043645132,9.183110248847774,9.10324637034413,9.079077606265699,9.110367217537787,9.199550827205375,9.351505996749788,9.573718683141347,9.876806467670143,10.275446304086968,10.789850634962605,11.448072847039148,12.28965446362014,13.371556755545477,14.778176717778063,16.639071438123608,19.16219425582905,22.70092056848825,27.902552899982446,36.08202400371583,50.35257820653814,80.23903880240366,176.7336613366162,283.17881435944093,447.49286328333983,662.0358921306943,918.3845174931369,1196.6156086306084
I1,0.0,0.0,3.1332247792481485,7.002191378889908,10.595431017893874,13.54981092070781,15.798439685667953,17.398809328522553,18.451100797853684,19.061151006648252,19.325173928591532,19.324776204486984,19.126596736453546,18.783815493033632,18.338234901616097,17.822357699666906,17.261234004977368,16.67401353238467,16.07521045629099,15.47571580968808,14.883599195644155,14.30473961483291,13.743319975148125,13.20221391935223,12.683288075026935,12.18763808137475,11.71577284119177,11.267758311558161,10.843329667267797,10.441978726560407,10.06302201139722,9.705653633601498,9.36898628008216,9.052082404168072,8.753979336891453,8.473707581474073,8.210304738045842,7.962825929348188,7.730351453706688,7.511992254589373,7.306893678756083,7.114237898756078,6.933245298096855,6.763175055656399,6.613389136128058,6.4891741941443675,6.393742817069924,6.3294078882494595,6.298304079439517,6.302875349422084,6.3462623780970695,6.432680909506309,6.567866309919425,6.759665473752759,7.018886187071235,7.360577000383937,7.806034335462914,8.386078681049364,9.146650104808469,10.158899040791384,11.538660868435437,13.487490714488867,16.39007979664098,21.0893939933801,29.91956732824789,53.779130783545284,90.45130738352469,146.94399364898635,227.01906808067048,331.91720676377946
A1,0.0,0.0,0.3481360941594063,0.8347098160801762,1.354754828889226,1.8562707419462976,2.314814013248387,2.720319456257611,3.0702155094924115,3.3657959298638818,3.6102880117235387,3.8078125396591065,3.9628178771621174,4.079769885753885,4.1629824204335,4.216526747699168,4.244186328715705,4.249438292142943,4.235450915542944,4.2050908103098905,4.160935959707364,4.105292179004038,4.040211417304306,3.9675108506570007,3.888792059410332,3.8054598133867312,3.7187401480160083,3.6296975274722008,3.5392509719144463,3.4481890845153567,3.357183956275738,3.2668039569428333,3.177525441712975,3.0897433677628157,3.0037810562637275,2.919898926615552,2.838302379559934,2.7591488848638015,2.682554333233806,2.608598712231027,2.5373311641765968,2.4687744813080696,2.402929090236822,2.3397765743281624,2.2804010035216917,2.225598460704457,2.1760085358891286,2.132199597859627,2.094729693926546,2.064196506732326,2.041285450525672,2.02682324233314,2.0218444768099872,2.0276808306137024,2.0460871462001395,2.07942742117858,2.1309602069838123,2.205294846649641,2.3091551042825746,2.452728757207243,2.652218661031822,2.9351014932327053,3.3523208526906694,4.01184749276103,5.201101829492066,8.198416819087445,13.015048606873819,20.620337057633925,31.72992453134784,46.81644258255119
IH1,0.0,0.0,0.0,0.2092951211629947,0.5720181501416169,0.9927685012667085,1.3997560298044813,1.75274301871304,2.035521400179512,2.2467074491839636,2.3926814850206277,2.4830494654446484,2.5280487738118236,2.537231577059112,2.518909594501335,2.480016487863905,2.4261780946861427,2.3618708038986185,2.2906041524559564,2.21509629525161,2.137429059927614,2.0591787562128214,1.9815234901328318,1.9053296659147052,1.831220925146044,1.759632685616014,1.6908550815775794,1.6250666665264668,1.5623608106428608,1.502766345688741,1.4462636912538174,1.39279743599598,1.3422861389701706,1.2946299509004664,1.2497164950197717,1.2074254745994302,1.1676321906989697,1.130210225038178,1.0950334731616904,1.0619776686719926,1.0309215080380125,1.001747462070594,0.9743423420599381,0.9485976743811474,0.9244099261794969,0.9023528785871944,0.8830655595250438,0.867080961296615,0.8548191449290417,0.8466319991141981,0.8428581056050479,0.8438759559837112,0.8501557397290369,0.8623148435090708,0.8811850422258503,0.9079027132933102,0.9440392796794235,0.9918002751793473,1.0543433741359938,1.1363106223822077,1.2447676722547372,1.390972631934293,1.5939984637378586,1.8890451234973855,2.3499599661114563,3.169454414140113,5.171553930040666,8.61875180601671,14.109953293984802,22.194851459713234
IN1,0.0,0.0,0.0,0.6265841626705365,1.914674970320967,3.6906666937599732,5.739424215956435,7.870962834864402,9.940818480224495,11.850432625372243,13.540062392105048,14.979904862659096,16.16181410917686,17.092429501897417,17.78783636362578,18.26959905713521,18.561920015659414,18.689676925630103,18.67712183308664,18.547066168122846,18.32041417910825,18.015940248421177,17.65023224078214,17.237743889359294,16.79091515835063,16.32033149460075,15.834901760478116,15.342041148524519,14.84785009424651,14.357283578881585,13.874307596087618,13.402041208584349,12.942883740832707,12.498627389707007,12.070555905985811,11.659530625271872,11.266064750637028,10.890387117059078,10.532496621565096,10.192208436217534,9.86919303886936,9.56300900566697,9.27313041537166,8.99896962299464,8.739896071894652,8.497264339737544,8.273243648470922,8.070257200825953,7.890756772910031,7.737181958293811,7.612024201120629,7.517956841170044,7.4580175311104115,7.435846888612899,7.456002779234028,7.5243881722781385,7.64885832396793,7.840120605848931,8.113128363311843,8.48934414926994,9.000615609125637,9.696251792168539,10.657038368410378,12.026224313779561,14.089981731125668,17.550015208102547,25.16185954586863,38.74426317267515,61.191707920178914,95.63262105954372
D1,0.0,0.0,0.0,0.0,0.0019029972461543654,0.007104021323643835,0.016130680490285588,0.028857837507631618,0.04479449727921613,0.06330229429572287,0.08373028165134751,0.10548552492513984,0.128062431011385,0.15104848930063303,0.1741180414104463,0.19702100252588858,0.21957033153364414,0.2416301397471005,0.2631052396472608,0.28393235386727517,0.30407291962154204,0.3235073029568557,0.34223020237580987,0.3602470282050958,0.3775710684746641,0.3942212816200497,0.4102205850742506,0.42559453429011584,0.4403703082022499,0.4545759347053036,0.4682397038441552,0.48138972763054666,0.49405361425352756,0.5062582314076088,0.5180295389166544,0.529392474828783,0.540370883404824,0.5509874750915976,0.5612638108889724,0.5712203052032889,0.5808762425597377,0.590249804541958,0.5993581041099056,0.608217225065275,0.6168422649229882,0.6252473798347082,0.6334519430059329,0.6414811379466081,0.6493649943517238,0.657137361283742,0.6648352873217109,0.6724988995691086,0.6801717665304089,0.6879017318660401,0.6957422527697158,0.7037543492743557,0.7120093738232925,0.7205929668832206,0.729610822540408,0.7391973457538151,0.7495291488706458,0.7608470880526012,0.7734943828071961,0.7879876718528834,0.8051636463710723,0.826530448039614,0.855348429980164,0.9023703234314779,0.9807355565100103,1.109029049987618
R1,0.0,0.0,0.0,0.036186943175235936,0.33827307136078855,1.1037906117411853,2.4467767074891205,4.4048323886437535,6.96066571360271,10.062861120294297,13.641805504402758,17.62066550025595,21.922431276097253,26.474140095111046,31.20918837736307,36.06839640910327,41.00028542883184,45.96087584027196,50.9132100139722,55.82673181459621,60.676607371963655,65.44304004143572,70.1106116400826,74.66766830891228,79.10576035706809,83.41913961788133,87.60431414602186,91.65965781344848,95.58507105050334,99.38168830877594,103.0516275763341,106.59777730378327,110.02361629827905,113.33306244134322,116.53034643173123,119.6199071125894,122.6063053832405,125.49415396630474,128.28806065251715,130.99258295505,133.61219238077817,136.1512467712418,138.6139693832706,141.00443357037665,143.32655209324133,145.58418646677026,147.78180621607112,149.92465064442166,152.01871467503528,154.07069725883693,156.0879697270492,158.07858764031977,160.05135771299686,162.01596983941312,163.98320847356194,165.9652664999279,167.9761995040841,170.03258270990096,172.15447455671665,174.36686595015325,176.70193731389702,179.20273764393275,181.92954887715942,184.9718121805725,188.47318692833198,192.69483882458522,198.25141486408984,206.65816817717075,219.9861389055628,241.1941667978629
G1,0.0,0.0,3.1332247792481485,7.838070662723439,13.29934950332478,19.08037030014758,24.94380714510727,30.75887231111939,36.452804679438756,41.98522529172258,47.3343673401344,52.489524573458,57.446793958323646,62.206591402563646,66.77214258374296,71.14852550875861,75.34203662000131,79.35975480796195,83.20923216881309,86.89826973754079,90.43475262056755,93.82652812438809,97.08131585797095,100.2066420780868,103.2097926545197,106.09778044613739,108.87732386918042,111.55483415886783,114.13640936411124,116.62783352740442,119.03457982262555,121.36181667577218,123.61441609370289,125.79696313299587,127.91376760995672,129.96887569299773,131.9660820058385,133.90894194651702,135.80078401503096,137.64472199921894,139.44366690839726,141.20033857394108,142.91727685880886,144.59685243584454,146.25134112802132,147.89144102595336,149.52718652262175,151.16856935856077,152.82602009194676,154.51084805406202,156.23571129474092,158.01518079611483,159.86647183547862,161.81044129485238,163.87300033632954,166.08718417925692,168.49629055491283,171.15882270447753,174.1566257142096,177.6090108924821,181.69895595083312,186.72606082106793,193.22683224679378,202.29867925800852,216.75506481500096,248.5965473067443,299.6158788323038,380.23909493983115,499.51577437236284,664.9778844949424
H1,223635.64681703097,209422.80276307,197275.5002164438,185985.74084874822,175492.3080124132,165738.3575463804,156671.1054561102,148241.53790215804,140404.14190385086,133116.65527841324,126339.83444158317,120037.23879389623,114175.03050794793,108721.78861656405,103648.33638038597,98927.58098634086,94534.36469621974,90445.32662749807,86638.77440695345,83094.56499188035,79793.99400407352,76719.69296852537,73855.53389221472,71186.5406586948,68698.80675163753,66379.41885526609,64216.385911897705,62198.57324680326,60315.641398432555,58557.98931790757,56916.70162569324,55383.4996356473,53950.695877350765,52611.151866841836,51358.23889372434,50185.80160919555,49088.12421492759,48059.89906702721,47096.19752256831,46192.442868513586,45344.38518428299,44548.077999851615,41808.95146315667,39203.69149331518,36723.665621110245,34361.13698726742,32109.194445385132,29961.688378769184,27913.17159524721,25958.84466386834,24094.505046191585,22316.499352309558,20621.678018045943,19007.35165605205,17471.24828248106,16011.470567519651,14626.452210592022,13314.912512261184,12075.808223080501,10908.281819662177,9811.6055211334,8785.120650522278,7828.1724007263865,6940.064477371809,6892.147085658807,6846.040279384148,6801.620534523956,6758.773129306289,6717.391515554076,6677.376734931851
S2,4506205.105674448,4774424.343575134,5018994.839318261,5243170.653039568,5448428.618729693,5636139.97361874,5807577.872924536,5963924.377956245,6106276.952308231,6235654.498846719,6353002.968531509,6459200.570480714,6555062.611011341,6641345.987693457,6718753.362778881,6787937.038738856,6849502.557090144,6904012.040217256,6951987.294515147,6993912.691881923,7030237.845382955,7061380.093782383,7087726.808591044,7109637.536306417,7127445.987615707,7141461.884492879,7151972.675339955,7159245.127598068,7163526.806580545,7165047.448655262,7164020.236322939,7160642.83696174,7155098.976134725,7147558.920955518,7138180.650456035,7127110.728162902,7114485.116003138,7100429.931690065,7085062.152719768,7068490.270388216,7050814.897219516,7032129.331053158,7028339.874519256,7023411.401364104,7017403.861940686,7010371.981257766,7002365.561530231,6993429.764002432,6983605.373214018,6972929.046859632,6961433.554484653,6949148.008386832,6936098.090161712,6922306.2761716535,6907792.064514321,6892572.20416264,6876660.922430486,6860070.136518934,6842809.610412481,6824886.957014916,6806307.215140146,6787071.183969778,6767169.523844777,6746557.3295665,6717806.3020759495,6688823.241493594,6659251.3673599465,6628984.59856634,6597844.305059476,6565754.194324315
E2,0.0,6.086751787067512,9.701284259993141,11.924837073722623,13.378157238808646,14.41074488860872,15.215668826592324,15.89709236423677,16.5094392324072,17.079824657174942,17.620740465935622,18.137128755989178,18.630258992731292,19.09980398901792,19.544913505976545,19.964738519967604,20.358660690409483,20.726368484558975,21.067857505097745,21.383396744888017,21.673482608308127,21.938791633885977,22.18013697156377,22.39843057233483,22.594651480535425,22.76981987745514,22.92497622000948,23.061164736486226,23.1794205672652,23.28075991056338,23.36617262008335,23.436616787477735,23.493009326204913,23.536237233382057,23.5671460755663,23.586540327979385,23.595183698161712,23.593799668240365,23.583072299815157,23.563647274833958,23.536133124744193,23.501102598675725,23.459094126802015,23.565970656732045,23.804424693113674,24.17050751802372,24.669597028925033,25.314553023110413,26.12533250297824,27.129729471549318,28.365183912950535,29.88185335240488,31.74743253754686,34.054640630430306,36.9330391844274,40.5682344796686,45.234292311471464,51.35110050210047,59.5919533701502,71.10057229618704,87.97209858048551,114.46388324636683,160.66007580131304,257.42809126281054,570.1037049325105,916.2001283654117,1451.8488620278204,2153.2153425627816,2993.7038815962296,3908.8290311243272
I2,0.0,0.0,1.096628672736852,2.55191720562453,4.019574683015655,5.357531218750193,6.524586431472291,7.525315873332856,8.381841171881945,9.120187696251822,9.764323042685035,10.334071359260943,10.844858523460957,11.308223824217889,11.732569159728259,12.12390179173569,12.486473403736404,12.823290014142186,13.136499570338122,13.427676199717427,13.698022548682946,13.948509857991962,14.17997215111188,14.393167453741006,14.588815869072686,14.767621782703602,14.930285467262323,15.07750783265201,15.209990935513677,15.328436035963918,15.433540397348192,15.525993606097781,15.606473897314132,15.675643764137345,15.734148767452425,15.782614588664835,15.821644929851235,15.85182003241798,15.873695688649292,15.887802661967338,15.894646449385716,15.894707328787327,15.888440640090192,15.876277255052704,15.886614377164918,15.937155195331407,16.04016862878252,16.20561942084428,16.4431308327957,16.763354422680315,17.179107681943243,17.706534091900515,18.366507093406497,19.186527851619054,20.20346567761245,21.467696565785587,23.049597272734957,25.05014696927099,27.619035394004797,30.98732324338061,35.530489280530105,41.90131657752356,51.34547121124993,66.59312719380478,95.20737848102624,172.52160810317224,291.56498330840805,475.3560083066684,736.4781390594223,1079.3661751943116
A2,0.0,0.0,0.12184763295579219,0.3033873495407655,0.5105691423974189,0.725308749254413,0.9383981411805933,1.1454513637404553,1.3446235528560762,1.5353510898990916,1.7176717475960894,1.8918694400253717,2.05829750323641,2.217297958618506,2.3691707264142465,2.514167531205195,2.6524969359282773,2.784333446233611,2.9098271923953316,3.029112611395743,3.142315551022675,3.2495587151088943,3.3509655963451865,3.446663129038079,3.536783309220433,3.6214640116192185,3.7008492020957697,3.775088710391519,3.8443376961052556,3.9087559127557947,3.9685068510741304,4.023756823161966,4.07467403339629,4.121427557411534,4.164186652656641,4.203119910118768,4.238394501011699,4.270175508246147,4.298625338245652,4.3239032100137855,4.346164718146921,4.3655614658753406,4.382240763636777,4.396345388275975,4.411123417944145,4.429138839824255,4.452610080511748,4.483632630085466,4.524341597123855,4.577049665958653,4.644385523582464,4.72945411087006,4.836041704535325,4.968896164665688,5.134127934321162,5.339805935458392,5.596875926488669,5.920632296727311,6.333185186805057,6.867824844260056,7.57727675289828,8.550727439144204,9.953318728185582,12.13489634230762,16.026860662146102,25.773571833567534,41.435493694804435,66.1923234261244,102.41611298457458,151.69994606258325
IH2,0.0,0.0,0.0,0.07325329240704814,0.20696304882025698,0.37162148673207596,0.5430362701720546,0.7064014308238123,0.8546455307457461,0.9857229180740392,1.10035280508893,1.200494542125559,1.288448602051691,1.366391623700397,1.4361789267680045,1.4992961601845192,1.5568848258665624,1.6097976841479142,1.6586604210538456,1.7039282647925744,1.7459331825202056,1.7849209121122862,1.8210787700971514,1.8545557986208796,1.8854768930592547,1.9139523844805093,1.9400842973679593,1.9639702427056371,1.9857056750191844,2.00538505097866,2.0231022768655142,2.0389507177510593,2.053022956241131,2.065410426824611,2.0762029403992917,2.0854883678567364,2.093352285557784,2.0998776584235475,2.1051445830838196,2.109230093873454,2.112208027444167,2.1141489394395396,2.115120066136412,2.115185324114181,2.11440534147238,2.1147072204561352,2.118233689145721,2.126871909497713,2.1422277917714645,2.1657443019434934,2.198851907762708,2.243119531114832,2.300407250269628,2.3730361670751408,2.463999811428192,2.5772525300289115,2.7181296247989675,2.89399048255438,3.1152471904003822,3.3970866435305487,3.7625102552937992,4.2480599541943995,4.915547782630862,5.8789803976861785,7.377533535825755,10.035580896957214,16.5244384431495,27.709448151613636,45.559371479738374,71.8957020799333
IN2,0.0,0.0,0.0,0.2193044569346878,0.6903643216223965,1.370567613532868,2.196522283129795,3.1079495471001453,4.056280648680131,5.006068646270278,5.933419170313902,6.823510020308386,7.668137869334203,8.463653356605484,9.209368299733203,9.906397975850956,10.556859268866953,11.163340215477511,11.728566520086664,12.25520530307632,12.74576083944075,13.202529432905752,13.627590383751555,14.022817410003649,14.389900265979957,14.730370103602084,15.045624732435808,15.336951676746576,15.605548053346618,15.852536991507517,16.0789807237037,16.28589069201746,16.47423510868473,16.64494442785135,16.79891495938061,16.93701159744773,17.060069471097194,17.16889487928152,17.264265762209373,17.346931890611266,17.417614905173966,17.477008301408087,17.525777426680335,17.56455953400494,17.59396392015379,17.620169655912928,17.651789529620963,17.698347457214453,17.76965452278613,17.87568926139203,18.02677331055522,18.233943110535357,18.509487027570586,18.867667053283533,19.325690774931925,19.905057311856538,20.633489842552187,21.54782073557346,22.69848012247995,24.15680191562962,26.02755287462748,28.47182610776027,31.752409368798652,36.33413820426256,43.14458507839143,54.457680510345355,79.20612000614906,123.32885911389332,196.30453181725682,308.4307412756923
D2,0.0,0.0,0.0,0.0,0.0006660490361540278,0.0025478421222620323,0.005926777388087856,0.010864286303522964,0.017287178390387813,0.025057966750909096,0.03402056457995876,0.04402542444600277,0.05494081413589971,0.06665591828114306,0.07907971240793131,0.09213804137153866,0.10577025815780085,0.11992609475705086,0.13456303680699674,0.14964425893979816,0.1651370749095484,0.1810118168521376,0.1972410512532001,0.2137990477572189,0.2306614311611142,0.24780496186188553,0.2652074034319424,0.2828474470922211,0.30070467158283554,0.31875952355567133,0.33699330850147285,0.35538818574548386,0.3739271635265425,0.3925940918825836,0.4113736522114877,0.43025134250872343,0.449213459728014,0.46824707891852074,0.48734002948056004,0.5064808690859202,0.525658855834217,0.5448639191782453,0.5640866300917042,0.5833181708881512,0.6025503050369481,0.6217753472630515,0.6410031342969248,0.660262985433237,0.6796013788186479,0.6990793941958034,0.7187712313469586,0.738764096454956,0.7591594609851319,0.7800757089988034,0.8016523289690884,0.8240560277730421,0.847489466832856,0.8722038183282008,0.8985171690078327,0.9268422765950527,0.9577299843049323,0.991940273654561,1.0305653803909713,1.075259560750779,1.1287136663449537,1.1957932328636318,1.287040858247102,1.4372878428725648,1.6892335319644385,2.1034780589304836
R2,0.0,0.0,0.0,0.012665430111332577,0.11956380184482977,0.398230321642851,0.9021520555645457,1.6605878696743457,2.684251460087057,3.9714830447251535,5.51320844784842,7.296432630305876,9.30650092390535,11.528459642629054,13.947809444234387,16.550872955452686,19.324930613232304,22.25822600418399,25.339904450097542,28.559923258614102,31.90895562320914,35.37829984182823,38.959799264145865,42.64577472987573,46.42896925373009,50.302503710401766,54.259841867157235,58.294763045109775,62.401340803992376,66.57392624318668,70.8071347376034,75.0958351493116,79.43514075839468,83.82040133235344,88.24719588914613,92.71132580149629,97.20880814579178,101.73586909361143,106.288937245085,110.86463685898593,115.45978096803255,120.07136438912877,124.69655665170079,129.3326948752728,133.97727663148322,138.62827609743832,143.2859899410809,147.9535434730508,152.63691513053232,157.34485346211017,162.088845298062,166.8832038842408,171.74531460683318,176.69607345472411,181.7605675437342,186.96907553758854,192.3585131225535,197.97452701076273,203.87457545411684,210.1325757919322,216.8461624553035,224.14854434812744,232.22905280120915,241.37169818728006,252.03626664858865,265.06330422595954,282.4389700159322,309.07145988678184,351.689375546964,419.9352837076861
G2,0.0,0.0,1.096628672736852,2.844474954966266,4.992930931197222,7.403226492719995,9.999559741255183,12.74091330615033,15.605036554416895,18.579484185340736,21.65669615317092,24.831363020785904,28.09906575136173,31.45561402319224,34.89675856641369,38.41809692661351,42.01507368377457,45.68302201363079,49.417218964156895,53.21294079107821,57.065512213618454,60.97034738643319,64.92298235374632,68.91909966214837,72.95454616123453,77.02534509157647,81.12770349622252,85.258015873686,89.41286485742005,93.58901957848119,97.78343225278648,101.99323343471498,106.21572629465076,110.44837920005251,114.68882032553144,118.93483018845295,123.18433424565517,127.43539554847912,131.68620749549743,135.93508673025644,140.18046622654933,144.42088859514095,148.65499963699352,152.88154216014084,157.12734025198293,161.41609976932318,165.77081514233768,170.21544971808353,174.77628374809,179.48319306685374,184.3710610566915,189.48151653024746,194.86522500516668,200.58504832380837,206.72055321402362,213.37464905328733,220.68368525010422,228.83338868389885,238.08513594700284,248.82160870229959,261.6315488732891,277.4811726264982,298.1037280964732,327.04928918574484,373.429203452419,476.14278388637774,641.2113402985913,902.7858460904796,1290.7230851690047,1830.0881897585114
H2,223635.64681703097,236947.29246090187,249085.2629861104,260211.06939459316,270398.0143433776,279714.15522112884,288222.6789122854,295982.2497911471,303047.33285807323,309468.49379337125,315292.6775776225,320563.4672094306,325321.32394221565,329603.81036013796,333445.7975189385,336879.6572899311,339935.44096407533,342641.0450975663,345022.3655102737,347103.4402832671,348906.5825412197,350452.5037493533,351760.42820246995,352848.1993352178,353732.37843780057,354428.33631961036,354950.338424515,355311.62386554916,355524.47881335,355600.3046416505,355549.68120433856,355382.42559183645,355107.64668971795,354733.795839413,354268.71387943253,353719.6748256577,353093.426430771,352396.2278457566,351633.88459047576,350811.7810255345,349934.9105039339,349007.90336824063,332215.257278441,315676.11734687485,299408.55544273916,283430.1544748319,267758.1156962709,252409.3559484351,237400.5940335668,222748.42497844397,208469.38045215042,194579.9730233665,181096.72128614664,168036.15215640859,155414.77586768055,143249.02841970345,131555.17553482082,120349.17167523605,109646.4675438182,99461.75996898203,89808.6794586002,80699.41334121296,72144.26663562603,64151.38855627958,63883.40044089805,63615.179989386794,63346.859295183436,63078.56005604011,62810.39432651389,62542.46521659497
S3,13518615.317023346,13459595.068319192,13404262.382897912,13352303.781119514,13303447.693341263,13257442.696281375,13214055.949523833,13173071.798193943,13134290.504797695,13097527.087506844,13062610.250027606,13029381.39259746,12997693.69620075,12967411.273628667,12938408.381988272,12910568.691934055,12883784.609386632,12857956.645889107,12832992.834071869,12808808.184973335,12785324.184209919,12762468.32421061,12740173.669934468,12718378.455675883,12697025.710734846,12676062.911888823,12655441.660750618,12635117.384233618,12615049.056473047,12595198.940669784,12575532.349432949,12556017.196974512,12536624.52908187,12517327.494451692,12498101.513977977,12478924.103548506,12459774.71536237,12440634.593211776,12421486.639297249,12402315.291116055,12383106.407421224,12363847.162476998,12372373.759824092,12381680.332146956,12391788.289953528,12402722.425609572,12414511.001699934,12427185.837259147,12440782.386472752,12455339.80239701,12470900.97580329,12487512.536278233,12505224.799044833,12524091.636410268,12544170.246971529,12565520.788092474,12588205.826287594,12612289.54246353,12637836.594903948,12664910.464365652,12693570.891162554,12723869.317359095,12755838.438673094,12789454.505747972,12762473.257285355,12735087.492014678,12706771.48663901,12677333.273197562,12646453.600108562,12613960.146442262
E3,0.0,10.434431634972876,16.1311869041461,19.25916925128054,20.9924778825554,21.967478726209354,22.529392551065207,22.865596134075407,23.077800562403247,23.221189374785865,23.325666860724603,23.407405284002895,23.4751245570952,23.533508429627393,23.58506259401255,23.63112442010896,23.672410587810006,23.709313038563316,23.742057951105213,23.770790294288837,23.795618069191853,23.816634832579904,23.83393062099074,23.84759676887491,23.85772758975299,23.86442051318226,23.867775521743532,23.86789432656162,23.8648795013518,23.858833678451266,23.84985884916496,23.838055779569594,23.82351794308542,23.806344964100116,23.786632336878185,23.76447229422767,23.739954094438307,23.7131640940236,23.684185755871944,23.653099650461133,23.619983469799486,23.58491205863047,23.547957461837207,23.665465333228873,23.92057858300526,24.309928863672965,24.839658049237052,25.5236414569583,26.383192773901115,27.447926861931887,28.757743182216878,30.366151756687554,32.345473815988974,34.79491537270164,37.85331541381968,41.7198755146168,46.68918480620894,53.21326158944254,62.01802761499916,74.33848968209654,92.44047901584318,120.935212691776,170.7613887686188,275.45027630318435,614.8412857499513,991.3763806424081,1575.2265476798225,2341.5368354535176,3262.331135025065,4267.988366165506
I3,0.0,0.0,1.8799348675488887,4.28470653585901,6.611492661690231,8.629824707068181,10.28537016464454,11.60048852373396,12.625333241599796,13.415002803987532,14.019838789408274,14.482140439701695,14.835836137593034,15.107373914076746,15.316989869594916,15.479972975155121,15.607774371127888,15.70891939320737,15.789729609336298,15.85488087427765,15.907827740405015,15.951122615455503,15.986653833597362,16.015822182236093,16.039671203203213,16.058983035182802,16.07434871204644,16.08621960561658,16.09494499602572,16.100799463068395,16.104002825261276,16.104734633522025,16.10314469298314,16.099359684657248,16.093490442670106,16.08563543777105,16.07588348801984,16.06431579801524,16.051007467205405,16.036028597280993,16.019445104357587,16.00131931699645,15.981710420307804,15.960674790117258,15.96642200919668,16.016598847027566,16.123537418247405,16.297386445335516,16.548087049570725,16.886768279658558,17.326925790853878,17.885643423598083,18.585088117137527,19.454542993701793,20.533352645363358,21.875379476571396,23.556005968729778,25.683579211328084,28.418980089386544,32.01095657981115,36.86440270017355,43.684422001881515,53.818797826824266,70.22653969558878,101.11846573052475,184.91595273701674,314.19701537070216,514.1788082703991,798.873043836843,1173.513043467984
A3,0.0,0.0,0.20888165649564372,0.5100916352414246,0.8426099080312595,1.1752628659002142,1.4928563255441718,1.7886862618115194,2.060496500001878,2.3083014863547726,2.5332188570984395,2.7368487149476297,2.920948584672685,3.0872678650072567,3.2374678753868347,3.37308740989986,3.495532085099118,3.606075757835254,3.7058677202189516,3.795942329159615,3.8772293275840757,3.9505639784786757,4.016696596436106,4.076301307131102,4.129983992745969,4.178289445164539,4.221707778370543,4.260680163039717,4.295603948545937,4.326837235226257,4.354702955288448,4.379492515523313,4.401469049681211,4.420870211320082,4.437910945472561,4.452785766400659,4.465670815979046,4.476725713864134,4.486095216803848,4.493910705633931,4.500291517732984,4.505346141254803,4.509173285851111,4.511862843047187,4.516625165883176,4.52599945420378,4.542193541926274,4.567308721168783,4.603505628642317,4.653146982084334,4.718942752040377,4.804119948971988,4.912641342629883,5.049505555845915,5.2211775859455924,5.436229775365461,5.706331132444862,6.047834964716287,6.4844434659104735,7.051926973177507,7.8070606645082234,8.846076771828836,10.347514328367145,12.690330473181069,16.88533738146098,27.438393551018166,44.4321815319237,71.34735713371963,110.80522121566081,164.59456429312002
IH3,0.0,0.0,0.0,0.1255770726977968,0.34878134192594246,0.6154190663865102,0.8830932142799468,1.1270501136222641,1.3364498224966668,1.509241518508748,1.6480838820651882,1.7576643499991857,1.8431439706291446,1.9093606074342562,1.9604914196981273,1.9999694221754627,2.0305263978999664,2.054288379144284,2.072884142923753,2.08754749999365,2.099205537656087,2.10855093682654,2.1160993233363774,2.1222337460591363,2.1272386299002015,2.1313253968258428,2.1346516336920534,2.1373353384539637,2.1394654546504306,2.1411096298629326,2.1423199110750204,2.143136914288917,2.143592870196236,2.143713844527152,2.1435212866582756,2.143033287316218,2.1422654379225277,2.141231439832757,2.139943544107696,2.1384128713826005,2.136649645214485,2.1346633626001577,2.132462918883853,2.1300566996579944,2.1274526488746366,2.126539086078359,2.129435647116069,2.1380222095981063,2.153913343911226,2.1785775635556144,2.213489961064021,2.2602869930483735,2.320925201678657,2.397860155892584,2.494271416148583,2.61437136431323,2.763856755827466,2.9506014473982454,3.1857660277921855,3.4856578866430104,3.8750182101151847,4.393220667770068,5.106983154228139,6.139577962396064,7.750083333165523,10.616056482397411,17.64158582844972,29.777855926109616,49.18326616050422,77.86920291625597
IN3,0.0,0.0,0.0,0.37595049760232185,1.1654817058690672,2.278932072037002,3.596607815393562,5.009385026952117,6.432153678955331,7.805075361636396,9.090046434069762,10.265854371519822,11.323544514495174,12.262550863819076,13.087697875114399,13.806992845502927,14.430066585646031,14.967115181725429,15.428213659107053,15.82289695168391,16.159927513264666,16.447189420119017,16.691665263489853,16.899464789896133,17.0758837143332,17.22547805864119,17.35214434363832,17.459199478376977,17.54945663001477,17.625295019899013,17.688722697982698,17.741432062731214,17.78484833672047,17.820171465158044,17.84841183522687,17.870421053948085,17.886917910835578,17.89851023312233,17.90571323485735,17.90896488159376,17.908638724954255,17.905054601143537,17.898487533113997,17.889175127302153,17.877323712549938,17.86874403658143,17.871735242890505,17.895576409401944,17.949914421187643,18.044656585639828,18.190161557266862,18.397631783743485,18.679679962922393,19.0510930098076,19.529865786156915,20.138638705204162,20.906769065482322,21.87343175760338,23.092453366216198,24.64019401629325,26.62908367543052,29.232388777125074,32.733353425362345,37.634027570173785,44.93829621248986,57.11226826980156,83.86394028444198,131.6785025600766,210.92268900107644,332.9087811986169
D3,0.0,0.0,0.0,0.0,0.0011417983476926191,0.00431306163136082,0.009908704673858498,0.017938151062929307,0.028185753828742603,0.04033730479516006,0.054059948866099786,0.06904500476025494,0.0850264112981898,0.10178503367258199,0.11914572491885961,0.13697131852115538,0.15515586234446246,0.17361824274767362,0.19229667684874377,0.21114419127555598,0.2301250309703837,0.2492118703342142,0.2683836819075581,0.2876241265128681,0.30692034781035943,0.32626207556836423,0.3456409618906105,0.36505009172527736,0.38448362290644017,0.4039365219793786,0.42340437056898145,0.44288322353269904,0.46236950502536417,0.4818599322565022,0.5013514594359683,0.5208412358001637,0.5403265750738102,0.559804932745241,0.5792738888811442,0.5987311349398869,0.6181744634932218,0.6376017600696829,0.657010996548402,0.6764002256886357,0.6957675764948928,0.7151112502013589,0.7344466174194756,0.7538083213608158,0.7732480978566735,0.7928323630757661,0.8126408855150031,0.832766845818754,0.8533183039673642,0.8744211096265803,0.8962234395039843,0.9189023801774067,0.9426733189315804,0.9678034402926451,0.9946315211274827,1.0235978149622027,1.0552908488105746,1.0905241067177398,1.1304690743121066,1.1769038637360048,1.2327274294745048,1.3031943718405197,1.3997199197785832,1.5601244674946793,1.8308769700321694,2.278071436583668
R3,0.0,0.0,0.0,0.021712165905141557,0.20392696906188934,0.6720614491699837,1.5055363626644174,2.739870584747982,4.378148648475729,6.402638293473439,8.783882267678369,11.487025532480047,14.475889833853222,17.715418589226843,21.17301910377491,24.81919326202847,28.627728181854767,32.575627650798964,36.64290123500383,40.812284674802825,45.06893663271194,49.40013837048497,53.79501114246919,58.24425869605524,62.73993772413962,67.27525640320152,71.84439961016385,76.44237861014012,81.06490266570071,85.7082699555647,90.3692752902237,95.04513229954935,99.73340799599701,104.4319678575845,109.13892979842606,113.85262558708602,118.57156863315274,123.29442706064638,128.02000118782385,132.74720468215833,137.47504877905033,142.20262905247426,146.9291143097057,151.65373725312256,156.3757866117499,161.09492567815178,165.8130525916271,170.53482548758362,175.26770879564953,180.02191457132068,184.8103981828909,189.64897847713127,194.55662213050093,199.55593037414917,204.67388188355793,209.9429163742791,215.40249442347388,221.10135353077203,227.10082577170627,233.47984480229263,240.3427713000475,247.8321908346608,256.1511189008096,265.604722927529,276.68820140556574,290.30923868619874,308.61932550389366,336.94782044166703,382.61588424289437,456.13702235263673
G3,0.0,0.0,1.8799348675488887,4.786234106159128,8.256090928466232,12.038231873775837,15.996035293669227,20.055076752093022,24.174690828212384,28.332537030222024,32.516217090504405,36.718720492159,40.935950418200825,45.16538108762235,49.40533057412136,53.65456839318945,57.91210500954434,62.17708000960079,66.4487035944864,70.7262267151566,75.00892644109548,79.29609929996164,83.58705867520726,87.88113417185103,92.17767185031853,96.47603476317079,100.77560351650969,105.07577672994722,109.37597134803119,113.67562279565512,117.97418498861991,122.27113021814138,126.56594893010515,130.85814841117437,135.14725389698793,139.43280782805064,143.71436926212814,147.99151333833834,152.26383075434862,156.53092724504157,160.79242306139955,165.04795245190093,169.2971631495384,173.539715867378,177.8034395653312,182.1131261206978,186.49296054745054,190.96823441941103,195.56673917753596,200.3201062748565,205.2653027699612,210.44648426709853,215.9174470830647,221.7450173965507,228.01389498479557,234.83379375726477,242.35031707098824,250.7621433711808,260.3493896513423,271.5229596749624,284.91626403913057,301.57094018769465,323.3594123352053,354.12489147268326,403.75179946475214,514.5255925687143,693.1383900868349,976.9414197934605,1398.8078802401674,1986.570612775422
H3,670906.9404510928,667978.3784094412,665232.693023421,662654.3879980604,660230.0189242027,657947.1260801125,655794.1637820774,653760.4347852302,651836.0293738194,650011.7688059193,648279.1528015053,646630.310785036,645057.9566143205,643555.3465466085,642116.2402106265,640734.864369811,639405.8792773236,638124.3474376802,636885.7046030515,635685.7328445769,634520.5355504348,633386.5142130052,632280.3468772939,631198.9681319173,630139.5505324276,629099.4873546312,628076.3765828618,627068.0060449631,626072.3396120355,625087.5043868561,624111.7788103187,623143.5816202844,622181.4616019229,621224.0880729749,620270.2420514075,619318.8080566865,618368.7664993767,617419.1866170102,616469.219917175,615518.0940915614,614565.1073672929,613609.623264279,612651.0657295557,611500.5837208385,610162.7945391991,608642.4921495003,606944.6398872406,605074.364503612,603036.951417849,600837.8410373856,598482.6259927698,595977.0491148796,593327.0019558672,590538.5236215462,587617.7996408477,584571.1605470274,581405.0797855606,578126.1704960954,574741.180642857,571256.9858939738,567680.5795825833,564019.0590319975,560279.607508412,556469.471096266,552595.9325104194,548751.4830780813,544935.8776237328,541148.8745875253,537390.2358713916,533659.726695398
S4,6759307.658511673,6871947.047552485,6984098.3498760145,7095790.546434436,7207050.788051674,7317904.394589107,7428374.829737152,7538483.749204073,7648251.084932624,7757695.145079797,7866832.718876369,7975679.180629188,8084248.5899482295,8192553.786819383,8300606.480977934,8408417.33548372,8515996.044631504,8623351.406445574,8730491.390059194,8837423.19829653,8944153.325773433,9050687.61282272,9157031.295534426,9263189.05218438,9369165.046307037,9474962.966651293,9580586.064241659,9686037.186751593,9791318.810381195,9896433.069417916,10001381.783646157,10106166.24277686,10210788.013555514,10315248.075845717,10419547.207978005,10523685.993353343,10627664.832349924,10731483.95595182,10835143.439539336,10938643.216184048,11041983.089193685,11145162.743829906,11273556.932611376,11401934.807810266,11530289.629916191,11658613.579480853,11786897.685234912,11915131.743621022,12043304.231429305,12171402.213012243,12299411.243530462,12427315.26966374,12555096.528960837,12682735.44804239,12810210.537301911,12937498.273646452,13064572.94891195,13191406.429823197,13317967.70018654,13444221.865858588,13570127.77139229,13695631.660735229,13820647.477353457,13944975.843845606,14049787.883650804,14153741.545445208,14255708.364538088,14355326.64871938,14452045.571132302,14545612.427660717
E4,0.0,15.651647452459319,24.44345536455494,29.48723168688731,32.4943169155235,34.4038715360369,35.72939177129837,36.74996443525411,37.61585019985184,38.40675450894125,39.16395655376105,39.907991415755205,40.64835066708528,41.38877718735881,42.13013212268234,42.87192779343327,43.6131309517169,44.35256984326889,45.08912856162338,45.821829237221465,46.549856793221736,47.27255575912871,47.98941477983313,48.70004689946817,49.40416961394343,50.101586509294684,50.79217116974916,51.475853471791176,52.15260811551549,52.82244513812395,53.48540212829019,54.14153787226118,54.790913613775615,55.43362212215695,56.06976045530517,56.6994297569761,57.32273410833049,57.93977919779234,58.550671095892355,59.15551522285582,59.75441551768067,60.34747378913167,60.93478922150307,61.94365001359992,63.336044415292555,65.11086421057739,67.29403560912638,69.93441857992343,73.10375493663912,76.89995930591333,81.4538255408509,86.93997960230787,93.59387459541755,101.73812031667312,111.82405309497103,124.49937019147072,140.72249751761558,161.9653542347849,190.5943580538823,230.64043082553746,289.50871722532617,382.2899741729898,544.8310308240405,887.1600129387473,2000.0973155426861,3249.744022980505,5207.5617815960695,7805.580639250844,10963.388612076178,14455.335723826152
I4,0.0,0.0,2.8199023013233337,6.4715023729045065,10.057650850622437,13.228865385299798,15.898103501892546,18.094058658926077,19.88805158644338,21.35944806232947,22.58080097324511,23.61274472962628,24.50343747421541,25.28989982086319,25.999950394145053,26.654141537149854,27.267454791246102,27.850688777139503,28.411550157007223,28.95548856670479,29.486323613127208,30.006709061866275,30.518472615166242,31.022862253227448,31.520723304579125,32.012624683890245,32.498948144000835,32.97995081813804,33.455808607818206,33.92664592949216,34.39255581625355,34.85361325411844,35.30988381570299,35.7614266142806,36.208301706854236,36.65057061504668,37.08829667050471,37.5215450612442,37.95038262598436,38.374877482617265,38.79509856978778,39.21111516106632,39.62299639180096,40.03081082315076,40.5115917383156,41.11497309737125,41.87714788752237,42.829324592891766,44.00318885119454,45.43489870059242,47.16860689986838,49.260251837693204,51.78231044816793,54.83034508322142,58.53254751739379,63.064226302534095,68.67061464928186,75.70419886928266,84.6886197495952,96.43417075332616,112.26121289999743,134.47202120223255,167.47352015076783,220.95535552507147,321.8455575328182,596.3343509677611,1022.7396907393058,1688.122086944904,2644.070206775733,3913.9223882191545
A4,0.0,0.0,0.31332248474346563,0.770075516204711,1.2803202665731463,1.7977250507425393,2.29957470520644,2.7757946134983174,3.2229442623655062,3.640948755152933,4.031336563651711,4.3963036303674405,4.738228722462126,5.05943335360181,5.3620726549662034,5.648094981867604,5.919236405564785,6.177031857632679,6.422833264700753,6.657829688857958,6.883067019869511,7.099466116063928,7.307838995782474,7.5089030357055755,7.703293298649175,7.891573180632198,8.074243583663858,8.251750812930867,8.42449337874073,8.59282786185318,8.757073979235264,8.917518967400675,9.074421382928195,9.228014132787616,9.378507771578573,9.526092910794477,9.670942373597768,9.813213102627191,9.953047842870951,10.090576625088126,10.225918074368764,10.359180566042141,10.490463248442214,10.619856949468016,10.755996724196773,10.905859120299699,11.0756733246448,11.271540036196264,11.499903921098106,11.767975919246988,12.084177534529292,12.458673195720174,12.904066541465674,13.436364545165858,14.076368502076804,14.851752596320894,15.80028035077428,16.974976213672697,18.45281862846722,20.35015665821852,22.85193848769832,26.272127775479323,31.194147582902332,38.8583768711364,52.57886153162336,87.15250688762526,143.14845198009584,232.51648104059694,364.6036037447829,546.1755293451558
IH4,0.0,0.0,0.0,0.18836560904669525,0.5261407155972326,0.9339870763602964,1.3490294437173844,1.7341258869443206,2.0726871106192033,2.3612116198958333,2.603256319014033,2.8054398700692955,2.975110319132229,3.1191457304943393,3.243446028206068,3.3528090973506988,3.4509983540909666,3.540889668191594,3.624637275766737,3.703829320136044,3.779621122434191,3.8528434663000706,3.9240875578579293,3.9937700537575163,4.062181916677817,4.129524585655998,4.195936430478376,4.2615118945027435,4.326315210310172,4.390390131785399,4.453766770164202,4.516466342862806,4.5785044304288895,4.639893176036316,4.700642578711083,4.760761632196654,4.820258927188734,4.879142974471477,4.937422369015989,4.995105858004277,5.052202349904469,5.108720888370719,5.164670606786229,5.2200606740086695,5.274900238215833,5.3343395752337806,5.40426029218636,5.490010543688746,5.596339733494652,5.727730810751335,5.888832713731665,6.084911121225337,6.3223262671104825,6.609088499864535,6.955572412375835,7.375510183795191,7.8874542478770575,8.51702960318347,9.300549516160842,10.29108557061359,11.569207193350858,13.263256434169316,15.590968576912644,18.955206814227402,24.203952921956443,33.55846961011676,56.55483582249008,96.49607511389168,160.84344280834682,256.7605640765248
IN4,0.0,0.0,0.0,0.5639257464034829,1.7571102103187126,3.453773764838278,5.480772294778054,7.67856233232093,9.921910330942492,12.122272912333422,14.222835073886685,16.191465677538872,18.013913484499096,19.68811012825562,21.219761059460865,22.61911315528324,23.898688304311147,25.071761934670647,26.151391563687657,27.14983749065442,28.078254204871364,28.946562445078946,29.763436999606512,30.53636464032575,31.271740945003295,31.974985190894987,32.65065991777367,33.302586927728356,33.93395501840949,34.54741709964217,35.14517586669635,35.72905815074103,36.300578621270404,36.86099380697121,37.411347033036066,37.95250679136447,38.48519834341772,39.01002973256167,39.5275131472663,40.03808241735498,40.54210730264512,41.03990513103751,41.5317502552464,42.01788172135407,42.49850947686002,42.98921103287136,43.512700036328475,44.09486036382448,44.76318157822966,45.54656679638462,46.47597393659266,47.58564652422084,48.91488218720817,50.51043493206107,52.429796456541766,54.745798445394456,57.55328785539061,60.979167893039524,65.1981057714744,70.4582064841909,77.12518619910938,85.76331351696999,97.29621552490134,113.36341126678607,137.2485482401569,177.03230663875928,264.58383738192776,421.7290272788973,683.7954946139603,1090.1009559418192
D4,0.0,0.0,0.0,0.0,0.001712697521538929,0.006496585111978615,0.01498877940863032,0.027254709460463954,0.04302209461976749,0.0618678175479013,0.08333692387623329,0.10700680007109972,0.13251501219438103,0.1595659377623254,0.18792649247808607,0.21741723657870765,0.24790235464398147,0.27928024977993127,0.31147547368224765,0.3444321652466,0.3781089034203272,0.4124747718052748,0.4475064078295226,0.4831858244101733,0.5194988228778036,0.5564338501152313,0.5939811845717765,0.6321323628117159,0.6708797801171446,0.710216415799179,0.7501356469972359,0.7906311246344606,0.8316966925514658,0.873326336253606,0.9155141516569625,0.9582543255928696,1.0015411266674732,1.0453689015970544,1.0897320744814414,1.1346251475694713,1.1800427026429547,1.225979402483155,1.2724299920999553,1.3193892995477121,1.3668522362478037,1.4148137968005996,1.463315804230656,1.5124535595513968,1.562370991395696,1.6132552119270036,1.6653340941245716,1.718877781024792,1.7742042933794109,1.8316894818001714,1.891782030278824,1.9550249528688362,2.022086122239407,2.0938020974110847,2.1712424304212887,2.255806848447989,2.349377627317531,2.4545696131927786,2.5751645908922685,2.716924083908056,2.8892726134261872,3.1093448993953494,3.4144722950954765,3.9286921021739976,4.806074069732773,6.268528746294004
R4,0.0,0.0,0.0,0.03256824885771234,0.30640373969149304,1.013364911573929,2.27888250260975,4.164042726492826,6.682014564515201,9.81500913155484,13.527647960466537,17.776289100595612,22.515025396420135,27.699264843067443,33.28767486060871,39.243075282905444,45.53268723661368,52.12800885635752,59.0044920684881,66.14112902612953,73.52001352101388,81.12591483487031,88.94588391151207,96.96890088328618,105.18556648498384,113.58783615757719,122.16879365391824,130.9224600427524,139.84363373823768,148.92775728697703,158.17080695139603,167.56920153027605,177.11972728948308,186.8194763004281,196.66579585141952,206.65624688644658,216.7885701269778,227.06065837401854,237.47053382608217,248.01632947875248,258.6962738452624,269.5086783764378,280.45192707213687,291.5244678701613,302.7248054759907,314.05238426962995,325.5127008210006,337.11886447373064,348.8918889197228,360.8607205275677,373.0624398677531,385.5428373036702,398.35748640311544,411.5734418342285,425.2717413884033,439.5509920430781,454.532485658399,470.36756504245983,487.24843537814525,505.4244735700888,525.2277283026332,547.1146599313194,571.7386441957799,600.0863769437009,633.7655711629147,675.7342329879434,733.0298771946848,823.1544719405672,970.3880434102628,1209.9846668398775
G4,0.0,0.0,2.8199023013233337,7.223793728354684,12.536404605009873,18.39079145651135,24.589216051339477,31.026454967357616,37.647566872624836,44.42468237225417,51.34429232098875,58.400324700348584,65.59040722529053,72.91387767396212,80.3707481659724,87.96118597059728,95.68527049358941,103.54289498406041,111.53374158027516,119.65729137155333,127.91284926789366,136.29957332976562,144.81650352382368,153.46258768766984,162.23670394242782,171.1376795114525,180.1643062308852,189.31535316098194,198.58957672809137,207.98572880036718,217.5025630543304,227.1388399387213,236.89333049359158,246.76481679306204,256.7520976251764,266.85398926455906,277.0693262085492,287.39696170642316,297.83576804896876,308.38463663732875,319.0424778658371,329.8082208551518,340.6808130684579,351.6592198386263,362.8193895112617,374.23042198857047,385.9612175093774,398.0853473465654,410.6851857018721,423.8560322474103,437.7108275893756,452.38607700269813,468.04974750781355,484.91222688342174,503.2420263811876,523.3889729325721,545.8195868077313,571.1730645041343,600.3537930203235,634.6925085151538,676.2461841674216,728.4059520408402,797.2817928248635,895.4420844056497,1055.278585306066,1415.6290877116912,2001.124044517312,2939.3521445821902,4345.656169423343,6320.891356096163
H4,335453.4702255464,341044.36139597214,346610.8478827175,352154.4536579127,357676.5735578965,363178.49038226483,368661.3830995991,374126.3344644497,379574.33808765997,385006.3049991085,390423.0697391578,395825.39601250365,401213.9819357123,406589.4649074983,411952.42612872,417303.3947971419,422642.85200022365,427971.2343275347,433288.9372228487,438596.3180945408,443893.6992015789,449181.37033116585,454459.5912829409,459728.594173585,464988.5855746843,470239.7484957879,475482.24422374315,480716.2140286003,485941.7807456417,491159.05024240864,496368.1127789658,501569.04426905175,506761.9074492208,511946.7529625701,517123.62036317826,522292.53904694,527453.5291140791,532606.6021682406,537751.7620567157,542889.0055560254,548018.3230067884,553139.6989015158,532877.9380166167,512694.96756705944,492602.3730042821,472613.00433573686,452741.079774812,433002.2944088181,413413.9327252505,393994.9832177449,374766.25248696195,355750.4752187899,336972.4151226904,318458.95031092607,300239.1346719071,282344.22454142536,264807.6574537618,247664.96708368303,230953.61590147068,214712.724935341,198982.67893277435,183804.58590381095,169219.5734710832,155268.4434432364,159905.6890357053,164510.65513995878,169083.58416560944,173624.71647914054,178134.29043403658,182612.54239963152
E_Om,0.0,0.0,0.0,0.0,0.0,0.0,0.0,0.0,0.0,0.0,0.0,0.0,0.0,0.0,0.0,0.0,0.0,0.0,0.0,0.0,0.0,0.0,0.0,0.0,0.0,0.0,0.0,0.0,0.0,0.0,0.0,1.0532821105737118,1.6123180263340045,1.962662895721842,2.2319823993457084,2.47794109886484,2.727191715579681,2.992694791152653,3.2814246631921566,3.5978058446509538,3.945251462315663,4.3268574885031,4.7457214857757055,5.2522063019646215,5.85432204854249,6.56821310757861,7.4174554183225645,8.434006511704006,9.660496156767673,11.153993190469418,12.991774203316087,15.280107466852646,18.16783285003854,21.86786656045718,26.692277993926844,33.111532434618475,41.85873129129275,54.12218937346944,71.92287697282121,98.9106264664581,142.21021451061597,217.28250900385348,363.30279960398366,708.6308427323637,1987.6940280222375,3807.773723922287,7587.571274933831,13701.476523102541,23040.462377185184,35878.51979080739
I_Om,0.0,0.0,0.0,0.0,0.0,0.0,0.0,0.0,0.0,0.0,0.0,0.0,0.0,0.0,0.0,0.0,0.0,0.0,0.0,0.0,0.0,0.0,0.0,0.0,0.0,0.0,0.0,0.0,0.0,0.0,2.0,1.466441546505253,1.2649915399211882,1.2180037460872373,1.2466717231102802,1.316214027620626,1.4115174041820029,1.5263024270615386,1.6582999460989616,1.8071027151491705,1.9732092818239724,2.1576001226437906,2.361551933810146,2.5865588924571496,2.8427902575518282,3.1391454946435005,3.485058553308902,3.891694195449686,4.372996332427955,4.946869385347295,5.636723139434354,6.473644787176157,7.49957408480604,8.77207808879354,10.37172652545377,12.413819237844272,15.067658542471587,18.589460718505464,23.38118336623058,30.1016612612827,39.891543216439025,54.87082260066316,79.37945281098082,123.65765205791726,218.33988714786386,518.2071865807511,1065.993480434084,2148.6346080459157,4043.970389159538,7116.242208183988
A_Om,0.0,0.0,0.0,0.0,0.0,0.0,0.0,0.0,0.0,0.0,0.0,0.0,0.0,0.0,0.0,0.0,0.0,0.0,0.0,0.0,0.0,0.0,0.0,0.0,0.0,0.0,0.0,0.0,0.0,0.0,0.0,0.0,0.0210851265991774,0.05116962331067995,0.08514037079213516,0.12097140722987554,0.15800171699824836,0.1961725410886026,0.23569067877367303,0.27688104938189,0.32012337066796437,0.3658262163677167,0.41441766781200046,0.4663433180476045,0.5230106316385237,0.5858411249062732,0.6564317412081587,0.7366853848238737,0.8289469047853589,0.9361707991948914,1.0621468938257514,1.2118180430278598,1.3917406483116883,1.6107691579502947,1.8810999090290734,2.2199086533925354,2.652003821170933,3.214290724348114,3.9636268374586434,4.991416386386675,6.452626766160188,8.628744646520467,12.081500980853122,18.09846818695786,30.402951822833835,67.03337289651182,136.29151458617437,274.01650379469055,519.8168984579622,927.0200921877556
R_Om,0.0,0.0,0.0,0.0,0.0,0.0,0.0,0.0,0.0,0.0,0.0,0.0,0.0,0.0,0.0,0.0,0.0,0.0,0.0,0.0,0.0,0.0,0.0,0.0,0.0,0.0,0.0,0.0,0.0,0.0,0.0,0.5335584534947471,0.9247745953416411,1.2622480602037849,1.5871861577603423,1.9197722760595186,2.2709108365821957,2.6474743582103297,3.0546601394844464,3.497060116819939,3.9791575818205143,4.505568828236253,5.0811717205852025,5.711184719410837,6.401224900677098,7.159622287391741,7.997081095100237,8.926822321121305,9.965045489320614,11.131670069454843,12.451392058898051,13.955152699425378,15.682186649985397,17.682917225264593,20.023125434760512,22.790086617256293,26.10183571451006,30.121574009364085,35.08085596549765,41.31846998437919,49.348967899475554,59.991202952516595,74.62959857691382,95.80638761745692,128.79568041486385,187.04422667627978,325.2911392072245,609.6760556351709,1182.8871349323063,2261.734428341563
G_Om,0.0,0.0,0.0,0.0,0.0,0.0,0.0,0.0,0.0,0.0,0.0,0.0,0.0,0.0,0.0,0.0,0.0,0.0,0.0,0.0,0.0,0.0,0.0,0.0,0.0,0.0,0.0,0.0,0.0,0.0,0.0,0.0,0.18976613526282904,0.4802518062910222,0.8338578808706223,1.2359863036801446,1.6824282407641982,2.1737767852718686,2.712960085583408,3.304162831969109,3.952366863644486,4.663168950880044,5.442723654395348,6.297743611867986,7.244015158228927,8.298767782035243,9.482139648409138,10.818516516570991,12.33804182174857,14.078539454802138,16.088115198332403,18.428797486601532,21.18176073479144,24.45499531405813,28.394851960214282,33.203905855100565,39.16949425698164,46.711034727869546,56.46203933172823,69.42013124566189,87.24051111591459,112.86202555317973,152.00905138789466,217.46403967537415,345.1355675627277,703.2514132570309,1389.2846196413086,2756.310663681086,5224.857524091844,9375.97663652555
beta,1.7593252783040896,1.7593252783040896,1.7591140411086867,1.7589567230908196,1.7588284817473399,1.7587159155428878,1.758611780739325,1.75851215758636,1.7584149240475784,1.758318931993252,1.7582235616977289,1.758128480495629,1.7580335118249524,1.7579385640586358,1.757843591771971,1.7577485746336394,1.757653505886344,1.7575583860531592,1.7574632194952822,1.7573680125281759,1.7572727723907784,1.757177506682144,1.7570822230551413,1.7569869290514495,1.756891632014714,1.7567963390467718,1.756701056988101,1.7566057924113438,1.7565105516225208,1.7564153406662868,1.7563201653332952,1.7562250311691727,1.7561279098317333,1.7560313836772028,1.7559350981350743,1.7558388916705618,1.7557426879837694,1.755646448045522,1.755550148701465,1.755453773083913,1.7553573062744987,1.75526073330175,1.755164038174954,1.8096511497042187,1.8693603779091108,1.9350888942302518,2.0078051620068615,2.0886974471079434,2.1792397017960927,2.2812825549739832,2.397181327075343,2.529979910843631,2.6836811619844636,2.863655268360028,3.0772757802017714,3.33494635679311,3.6518298187020704,4.050911226084427,4.568770838523998,5.2673415205369665,6.2603790270908135,7.7816990263179004,10.399021673863789,15.931683371921135,34.949036401566474,31.188261441718975,27.233036416247792,22.35126865008454,17.61867696187986,13.558006267677138
