series,2021-11-01,2021-11-02,2021-11-03,2021-11-04,2021-11-05,2021-11-06,2021-11-07,2021-11-08,2021-11-09,2021-11-10,2021-11-11,2021-11-12,2021-11-13,2021-11-14,2021-11-15,2021-11-16,2021-11-17,2021-11-18,2021-11-19,2021-11-20,2021-11-21,2021-11-22,2021-11-23,2021-11-24,2021-11-25,2021-11-26,2021-11-27,2021-11-28,2021-11-29,2021-11-30,2021-12-01,2021-12-02,2021-12-03,2021-12-04,2021-12-05,2021-12-06,2021-12-07,2021-12-08,2021-12-09,2021-12-10,2021-12-11,2021-12-12,2021-12-13,2021-12-14,2021-12-15,2021-12-16,2021-12-17,2021-12-18,2021-12-19,2021-12-20,2021-12-21,2021-12-22,2021-12-23,2021-12-24,2021-12-25,2021-12-26,2021-12-27,2021-12-28,2021-12-29,2021-12-30,2021-12-31,2022-01-01,2022-01-02,2022-01-03,2022-01-04,2022-01-05,2022-01-06,2022-01-07,2022-01-08,2022-01-09,2022-01-10,2022-01-11,2022-01-12
S,7475516.597198369,7475056.936237113,7474749.722338613,7474503.65966788,7474282.457004573,7474071.609588188,7473865.339655343,7473661.384716796,7473458.901727067,7473257.620209279,7473057.498867193,7472858.585994706,7472660.962650716,7472464.719544064,7472269.947684244,7472076.734666392,7471885.163266435,7471695.310984232,7471507.249975147,7471321.04713967,7471136.764276093,7470954.458256874,7470774.181212411,7470595.980715457,7470419.899963313,7470245.977956629,7470074.249674295,7469904.74624419,7469737.49510973,7469572.52019215,7469409.842048513,7469248.719310281,7469090.231009657,7468934.149934799,7468780.410524199,7468628.993706017,7468479.892442346,7468333.101436119,7468188.614091514,7468046.421655136,7467906.5130115915,7467768.8746727705,7467633.490821473,7467500.3433670355,7467369.412000057,7467240.674242284,7467114.10549038,7466989.679053161,7476322.563089597,7485653.583910599,7494982.453911559,7504308.550069971,7513631.012624389,7522948.7612089235,7532260.463222819,7541564.464959839,7550858.682058116,7560140.434387464,7569406.196249068,7578651.209701695,7587868.866642309,7597049.682534717,7606179.512422898,7615236.277455536,7624183.556499148,7632957.021476647,7631977.706553331,7630853.143319089,7629504.421269765,7627898.260231562,7626009.939418187,7623820.9358644225,7621319.459128041
E,328.4557105582592,720.9521296126687,880.7415255749941,946.7050247570355,974.3199149079595,985.9327040989274,990.5933587877109,991.98598128512,991.6218833807498,990.1307664020969,987.7843860297628,984.7093376236245,980.9735645776186,976.6214668892804,971.6880647241246,966.2046314824852,960.2008648024834,953.7056656452935,946.7473696360838,939.3537730286761,931.5520903407157,923.3688969414864,914.8300759695179,905.9607754767096,896.785376543583,887.3274713165226,877.6098494461176,867.6544914266256,857.482567518124,847.1144411459654,836.5696758705599,825.8670451905953,815.023060446511,804.0558945737687,792.9821985886699,781.8177138170678,770.577434629436,759.2756562527359,747.9259962081553,736.5414112247854,725.1342142326744,713.7160919789347,702.2981230550781,690.8907960942029,679.5040279740895,668.1471819247513,656.8290854767705,645.5580482078548,634.3418792571201,627.0790902147257,623.2189827280741,622.645049229513,625.4875066673659,632.053481556571,642.8167570412329,658.4438944341189,679.8513642751682,708.2997478650432,745.5422145512287,794.0606018696567,857.4511479300503,941.0783764096789,1053.234253904521,1207.3057773946439,1426.095760222562,1751.1224170003156,2264.543720174897,2782.510748107742,3361.2980209396173,4004.881864603282,4704.84023779053,5446.359473334296,6209.984451515253
I,1069.0664320581031,701.8879472160506,553.8148206129689,494.37814676422903,470.8558838993522,461.82469481313694,458.54316722896203,457.43198478269517,457.0215697392422,456.70831313361055,456.24593809177736,455.5366916593312,454.545220326392,453.26281610287583,451.6924254484844,449.8422612542363,447.7230067255535,445.34653725754515,442.7252969408929,439.871967040734,436.7992718624558,433.5198544744659,430.04619157587274,426.3905326479559,422.56485555797116,418.5808340534509,414.4498142168195,410.18279784231134,405.7904312363355,401.2829982993296,396.6704170004991,391.96223854536015,387.1676486804231,382.29519755539627,377.35335975729674,372.3502844456991,367.2937581067783,362.1912121550497,357.0497362935794,351.8760904754519,346.6767151933984,341.45774078092757,336.2249962350256,330.984017827476,325.7400576206128,320.49809192682,315.2628297166955,310.0387209671114,304.82996493607817,299.6405183509437,295.1902266271258,291.8096479996889,289.67567567651395,288.91841035229965,289.67243516519284,292.10569374828356,296.441624396977,302.98295481270753,312.1433155409976,324.493533386736,340.83285500501734,362.30267018573704,390.5750850249216,428.1793939667392,479.0968798799048,549.9128797025915,652.219493925898,808.0921107253192,996.9409117855,1216.7686144367674,1467.1086411944852,1746.1310761880914,2050.0117032253306
A,118.78515911756702,101.74458151418571,96.13811546505285,94.92040952720316,95.29510493740861,96.15954666920751,97.08856515104155,97.92708372586857,98.62637574398656,99.17836407186316,99.58946350322508,99.8703628919428,100.03220201697573,100.08528204769621,100.03875183668575,99.90064657880923,99.67803392671536,99.37717527717375,99.00367073133519,98.56257979353464,98.05851846127386,97.49573603090714,96.87817536819162,96.209520039268,95.49323113910303,94.73257610224556,93.93065130232412,93.09039985432815,92.2146257202346,91.3060049714686,90.36709486838615,89.40034126638233,88.40808474123996,87.3925353871189,86.35583289014612,85.30002948893036,84.22708886218413,83.13888856652319,82.03722296439072,80.92380600476861,79.8002737936068,78.66818699765085,77.52903312772835,76.38422873401164,75.23512153433455,74.08299248907346,72.92905783132582,71.77447105807111,70.6203248859915,69.46765317427061,68.39700205236755,67.46154742227331,66.70144759078539,66.15149195556069,65.84579233709442,65.82132638624975,66.12130645877835,66.79904296419173,67.92296133283926,69.58365173984225,71.9043363888711,75.05713102028874,79.28942513995092,84.96868932882587,92.66264518526751,103.29175523428609,118.44137819902254,141.0598152669714,169.7462572525003,204.53079106482997,245.51879646657784,292.6223584478623,345.4682264818983
IH,0.0,213.81328641162065,337.9594971444144,423.066672148401,489.82570346076574,546.8123505586881,597.6666870026093,644.0041720873801,686.6017661838628,725.8835321029778,762.1206186439276,795.514335295844,826.2311587890111,854.4178572708031,880.2083155630328,903.7268440740875,925.089958915282,944.4074676584363,961.7832170445271,977.3156592321129,991.0983087554674,1003.2201259664436,1013.7658465123632,1022.8162687755259,1030.4485073223857,1036.7362182332,1041.7498008249077,1045.5565793513829,1048.2209675855124,1049.8046186673002,1050.3665621927983,1049.9633301910483,1048.6490733711416,1046.475668805462,1043.492765410721,1039.7479379831827,1035.2867795675363,1030.1529793645036,1024.3883962445368,1018.0331293528493,1011.1255857468486,1003.7025449568761,995.7992205061253,987.449318524888,978.6850936374342,969.5374023094574,960.0357538376144,950.2083591498842,940.0821775709235,929.6829616922541,919.0353004738283,908.3058853173342,897.7148650940171,887.5010549796789,877.9111609219608,869.2000771105711,861.636936475717,855.5151287036913,851.1663166955897,848.9797116710157,849.4291437085085,853.1123219765888,860.8098592284621,873.577530157398,892.8968204783266,920.9330072720908,961.0040605994682,1018.4944909093128,1102.795127645119,1218.4659430545441,1369.321288037595,1558.7926361322702,1789.6849815122291
IN,213.81328641162065,425.4884399591251,561.611145002744,666.7579976753103,758.9660470514029,845.5475633607596,929.4570266897792,1011.8710898686737,1093.238775926526,1173.7107021151094,1253.3152577206802,1332.0312927618288,1409.8183181660766,1486.6291790496944,1562.4154504797723,1637.1297810646713,1710.7269355048722,1783.1642674949344,1854.401932271494,1924.4029723369576,1993.1333360217347,2060.5618570340084,2126.660209358562,2191.402845580151,2254.7669236539405,2316.7322255289955,2377.2810700843957,2436.3982222269155,2494.070799573108,2550.288177824645,2605.041895706264,2658.3255601493015,2710.1347522568803,2760.4669344703966,2809.3213046367714,2856.698763541863,2902.601832795584,2947.0345660889843,2990.0024628591045,3031.5123854892286,3071.5724797294274,3110.1920979708125,3147.38172514729,3183.152907142822,3217.518181636889,3250.491011344642,3282.0857196165607,3312.3174283637336,3341.2019982735187,3368.755971277999,3394.9965152354084,3420.084595408479,3444.245679054332,3467.738357399092,3490.844655895561,3513.8706963696436,3537.153128155604,3561.069921753443,3586.0558134984503,3612.623918471666,3641.3963859642963,3673.148993105657,3708.8780372117476,3749.9042738446146,3798.0411098995164,3855.880074776502,3927.3038499692557,4018.4747102547426,4139.908385297259,4297.897483801386,4498.272231850726,4746.711237771116,5048.470340631023
D,4432.0,4432.0,4432.381170978728,4432.983660910289,4433.737873804147,4434.611099906826,4435.585917713245,4436.651394980167,4437.79947938923,4439.023503731238,4440.31755678574,4441.676210716901,4443.094396568985,4444.567342169029,4446.090536991784,4447.6597091922495,4449.270808537102,4450.919992509572,4452.603614349947,4454.318212429035,4456.060500631082,4457.82735955133,4459.615828377153,4461.423097356555,4463.246500779097,4465.083510408652,4466.931729317863,4468.788886082225,4470.65282929808,4472.5215223940195,4474.39303870943,4476.265556817416,4478.137356072336,4480.006812364539,4481.872394067097,4483.732658063606,4485.586246050596,4487.431881004601,4489.268363788125,4491.094569886665,4492.909446271596,4494.7120083836335,4496.5013372314015,4498.27657659967,4500.036930362074,4501.781659893473,4503.5100815774285,4505.221564404552,4506.9155276578695,4508.591438681564,4510.248810729682,4511.887200891706,4513.506463422586,4515.106845042874,4516.689018215673,4518.254095213743,4519.803642716908,4521.339707195859,4522.864858155359,4524.382256364984,4525.895756452132,4527.410057754457,4528.930925162606,4530.465515187611,4532.022866499838,4533.614658856041,4535.256432113521,4536.969641168431,4538.785340035625,4540.75132402659,4542.923517644001,4545.364645341506,4548.14354895746
R,0.0,25.89516468762961,66.34917312174656,116.24620685183098,173.2602538806471,236.22023891791224,304.4434085976489,377.461362988853,454.9062090837082,536.4623956784963,621.8456985452898,710.7935608584218,803.060275351043,898.4142989195408,996.6365572251672,1097.5192464754778,1200.8649116666872,1306.485696436566,1414.2027103919922,1523.8454829824786,1635.2514843473018,1748.2656996410417,1862.7402469407132,1978.5340311805458,2095.5124282043903,2213.546994239976,2332.515197025486,2452.3001655393214,2572.790455850933,2693.87983106025,2815.46705365175,2937.4556888763527,3059.7539180051804,3182.274360485558,3304.933898110947,3427.653513117832,3550.3581339688335,3672.976486939611,3795.4409530812577,3917.6874303545887,4039.6552007265955,4161.286801999226,4282.527904137631,4403.3271898746225,4523.636239383401,4643.409418827335,4762.603772611848,4881.178919178226,4999.096950192543,5116.322332994668,5232.821816182797,5348.58025206552,5463.6070947964345,5577.938404734488,5691.63748965497,5804.7955885277015,5917.533292649994,6030.003153395776,6142.393913217293,6254.936933541994,6367.915677627383,6481.679600195401,6596.66464570764,6713.424067158791,6832.676084923193,6955.3804218852565,7082.867323035538,7217.068896595462,7360.967693293465,7518.067411553649,7692.278728891522,7887.874462950061,8109.42101325905
G,332249.0,332309.4480879812,332442.1301402645,332604.21939466096,332778.44839050184,332957.7595549754,333139.20790531643,333321.51398976176,333504.0763686314,333686.5717399215,333868.7926901331,334050.5818189373,334231.8050242681,334412.3407081751,334592.0754439619,334770.9022499471,334948.71989992005,335125.4326331422,335300.9500077286,335475.18679660483,335648.0628882429,335819.5031795998,335989.43745849107,336157.8002761935,336324.5308121627,336489.5727328813,336652.87404666597,336814.38695597823,336974.06770850916,337131.8764480667,337287.77706608764,337441.73705443274,337593.72735998593,337743.72196833306,337891.69820955716,338037.6364781485,338181.52006558777,338323.3350228788,338463.0700318793,338600.7162805787,338736.26734148676,338869.71905315167,339001.0694049181,339130.3184250046,339257.4680719287,339382.52212928317,339505.4861038438,339626.3671269809,339745.17385933665,339861.91639872594,339977.32231434254,340092.01782636595,340206.6077132427,340321.720718189,340438.0421071429,340556.3443397921,340677.5225479401,340802.64052811457,340932.994070768,341070.2016148301,341216.33834980306,341374.14130698575,341547.3347898992,341741.16913285106,341963.3583763509,342225.8131281255,342548.08489422983,342964.84530859964,343476.9309539499,344095.53502131545,344832.5824938479,345698.44838531927,346700.78144283174
H,170193.54433447364,170193.54433447364,170193.54433447364,170193.54433447364,170193.54433447364,170193.54433447364,170193.54433447367,170193.54433447364,170193.54433447364,170193.54433447367,170193.54433447364,170193.54433447367,170193.54433447367,170193.54433447367,170193.5443344736,170193.54433447364,170193.54433447364,170193.54433447367,170193.54433447364,170193.5443344736,170193.54433447364,170193.54433447364,170193.5443344736,170193.5443344736,170193.5443344736,170193.5443344736,170193.54433447364,170193.54433447364,170193.54433447364,170193.5443344736,170193.5443344736,170193.54433447364,170193.54433447364,170193.5443344736,170193.54433447364,170193.5443344736,170193.5443344736,170193.5443344736,170193.5443344736,170193.54433447364,170193.5443344736,170193.5443344736,170193.5443344736,170193.5443344736,170193.5443344736,170193.5443344736,170193.5443344736,170193.5443344736,163303.905744656,156517.139567844,149839.44739024303,143277.56263812695,136838.79017292405,130531.04424630941,124362.8825245862,118343.53297603659,112482.90924406952,106791.60867575012,101280.88544218283,95962.58923569767,90849.05802303803,85952.95159998101,81287.01178813937,76863.73588564307,72694.95357055035,68791.3051701291,68791.3051701291,68791.3051701291,68791.30517012911,68791.30517012911,68791.30517012911,68791.30517012911,68791.30517012911
S0,2616430.809019429,2610291.053315777,2600724.6478209863,2591226.119485374,2581775.3149385895,2572364.1073007034,2562989.1990700797,2553649.2413896387,2544343.672591495,2535072.247848353,2525834.8481236366,2516631.402420037,2507461.856128714,2498326.1581882434,2489224.2559382934,2480156.093129128,2471121.609228553,2462120.739263263,2453153.4138802253,2444219.559497966,2435319.0984935034,2426451.9494020147,2417618.0271193446,2408817.243102921,2400049.505568974,2391314.7196849687,2382612.7877566395,2373943.6094092596,2365307.0817629145,2356703.0996016334,2348131.555536313,2339592.040182419,2331084.865121291,2322609.8223233437,2314166.7678975514,2305755.576084908,2297376.12559263,2289028.295575598,2280711.9645012203,2272427.0098756063,2264173.308224845,2255950.735149227,2247759.165395608,2239598.472931464,2231468.531015766,2223369.212265293,2215300.388716074,2207261.931879949,2202040.7652667696,2196784.0169237023,2191489.068170407,2186152.946169249,2180772.3656600374,2175343.7303732885,2169863.1134038796,2164326.2238253085,2158728.3603311637,2153064.347774981,2147328.4465377117,2141514.2148469216,2135614.285751437,2129619.983649412,2123520.627921173,2117302.1991400514,2110944.6331482935,2104415.946418874,2096385.4980079723,2088320.9291962697,2080188.1292968204,2071974.463854385,2063671.9173197981,2055275.7626281925,2046784.6304828965
E0,328.4557105582592,514.6476036947424,579.3790490300131,597.3149188489185,598.0051897416572,592.9601585347916,586.5189649313422,580.1896848772019,574.386854254903,569.1242862008344,564.2876086221327,559.738054145506,555.3490401942936,551.0165056060247,546.6594574217421,542.2172572309215,537.6461674809606,532.916070188765,528.0076363741246,522.9099838506652,517.6187776447748,512.1347053977698,506.46226095295333,500.60877754714454,494.5836616875704,488.3977877802444,482.06302126920116,475.591844398483,468.9970638646945,462.2915837772763,455.4882306690939,448.59961995978574,441.6372580516177,434.6135720252048,427.5401325110088,420.42793851668233,413.2874717930488,406.12869916454156,398.96106847906725,391.79350822649224,384.63443193151096,377.49174652438705,370.3728637106998,363.2847135228843,356.2337594193676,349.22601444372947,342.267058067166,335.36205342146684,328.5157646944118,323.714755473887,320.6652426257836,319.29495983343963,319.65591190615794,321.88769705501676,326.2111667456621,332.94026307987025,342.5089940255303,355.5162201287393,372.79634390705985,395.5317019362217,425.4361140323515,465.06582901195304,518.3703363936626,591.7215273020452,695.9633502338817,850.8188540460402,1095.2679355316318,1340.6608619389858,1613.704658223929,1915.9744444361472,2243.153796115009,2587.9554481661785,2940.992511612341
I0,1069.0664320581031,701.8879472160506,515.8471015789219,416.1355918307104,359.60955426320146,325.82096728430713,304.6193413927316,290.71294625590633,281.20428583455487,274.43115255181544,269.39876399330103,265.48920198414396,262.30617725269707,259.5886203257933,257.1607383886424,254.90215003037645,252.72946667773942,250.58460584757375,248.42717521899314,246.22938214696936,243.97254831675627,241.64466894285394,239.23866770558396,236.75112584773376,234.18134170376402,231.5306254221382,228.80176438778744,225.99861471544227,223.1257872718944,220.18840548653185,217.19191825389146,214.14195547061934,211.0442167819279,207.9042395816543,204.72763335192843,201.5198932091188,198.28634045024353,195.03209688618236,191.7620698704918,188.48094257131805,185.19316806433193,181.9029665969415,178.61432548734777,175.33100115643504,172.05652284089336,168.79419759989577,165.547116292992,162.3181602664858,159.11000853677086,155.92514530173378,153.13066279345975,150.89274930907783,149.2978181321813,148.40728805537543,148.28370162605702,149.00522927058194,150.676550287997,153.44034589360933,157.4924374687669,163.10387899275327,170.65489683325728,180.68903350865696,194.0028595500982,211.8011704933965,235.9795090238116,269.67089128770954,318.38490278204694,392.60104808467986,482.29217630262144,586.357084512658,704.4249317340791,835.4788304611484,977.5675199122279
A0,118.78515911756702,101.74458151418571,91.9194800168254,85.38306522272225,80.52069652981949,76.64491663789852,73.44112897944629,70.74638556358674,68.46116601542619,66.51433070690568,64.84925039465918,63.418282936634384,62.18047702288647,61.1004831709953,60.14789389159252,59.2967270018508,58.52495678587104,57.81406829991129,57.1486337188678,56.515915532380184,55.90550120685689,55.3089720713522,54.71960725040083,54.13212193636326,53.5424382374377,52.94748618993681,52.34503218911662,51.733531982712165,51.112005413128514,50.47993023310228,49.837152515589864,49.18381140339238,48.52027617822016,47.847077555075856,47.16489422216467,46.47450573306082,45.776760644756685,45.072552139809375,44.36279857171221,43.64842781837232,42.93036475709131,42.209521334377754,41.48678879296697,40.76303168593206,40.039083365082575,39.315742680439364,38.59377167024644,37.873894057384994,37.1567943988946,36.44311776130137,35.77400261042104,35.176352269781496,34.67021165435126,34.272680120821754,34.00029174030538,33.870789869460715,33.904788865085,34.12765506104702,34.571927374682204,35.28069928991167,36.31262270277437,37.749664318742006,39.709669171094056,42.36767475502387,45.994007218216176,51.0266708716199,58.21937758723161,68.97218056039104,82.59236083184766,99.07186408004316,118.43645582253278,140.61848370477077,165.4148115899876
IH0,0.0,213.81328641162065,337.9594971444144,415.47312834159163,467.16010342060775,503.6181163823588,530.5507457039039,551.1984916556299,567.4975097573123,580.6574754011577,591.4637914102008,600.4432812130627,607.959191435862,614.2679354192588,619.5542472986418,623.9536787765379,627.5674150286882,630.4722821651546,632.7276576375402,634.3803328653827,635.4679886248266,636.0217095382251,636.0678195190781,635.6292288686883,634.7264249289229,633.3781994366017,631.6021796061173,629.4152119800498,626.8336354388889,623.873470690004,620.550546933893,616.8805814952266,612.879224516189,608.5620780062688,603.9446670459199,599.0424600441951,593.8708501677351,588.4451262888358,582.7804410056007,576.8917780955672,570.793920494436,564.5014195242413,558.0285659103729,551.3893629786147,544.5975022932779,537.6663418873593,530.6088871466669,523.4377743406831,516.1652567409371,508.8031932298535,501.36303927662453,493.9287991686814,486.61133776834396,479.5303864218479,472.80887097267487,466.57289400609125,460.9546192664045,456.09711330589613,452.16111819450776,449.3343377373658,447.8444372266403,447.9778442909569,450.1079512533737,454.73911891365776,462.57837923468736,474.6581992345317,492.55927066751457,518.8442060722508,557.9769812514065,612.0772644701021,682.8835713395559,771.9282719512961,880.4240308615688
IN0,213.81328641162065,425.4884399591251,561.611145002744,659.1644538685009,735.799927695958,800.3638392716387,857.5243943357837,909.8730186709721,958.9168777354437,1005.5685661250002,1050.3991109741132,1093.7748726630323,1135.9349643332307,1177.0368501404378,1217.184205704192,1256.4445113248785,1294.860496217705,1332.457784591076,1369.25012791468,1405.2430616793317,1440.4365074919324,1474.8266520803643,1508.4073193481315,1541.170979695767,1573.1094950683562,1604.2146684584254,1634.4786468582688,1663.8942132672437,1692.4549940776596,1720.155601591262,1746.9917266726557,1772.9601930567073,1798.0589822202642,1822.287235754447,1845.6452113132334,1868.1342858704868,1889.7569216536058,1910.5166205271184,1930.4178736990837,1949.4661089361912,1967.667636361093,1985.0295936103485,2001.5598909936332,2017.2671571811663,2032.1606858406417,2046.250383550414,2059.5467192348888,2072.0606753011384,2083.803700601424,2094.7876653027643,2105.0248177100834,2114.6007020916745,2123.6332449325732,2132.2564761096837,2140.615368959662,2148.865955595277,2157.1783418934406,2165.7418685321054,2174.7725190255064,2184.523281329005,2195.2988243142654,2207.4768154377743,2221.539853985128,2238.1250273552964,2258.1040111804227,2282.718872873381,2313.825862402189,2354.3645843345766,2409.3411481081666,2481.7061718876093,2574.160527071265,2689.303908147368,2829.506635158124
D0,4432.0,4432.0,4432.381170978728,4432.983660910289,4433.72433657934,4434.557156077286,4435.454970303653,4436.4007980882525,4437.383435192166,4438.395129015549,4439.430283481012,4440.48470267094,4441.555129850708,4442.638955855702,4443.734028636605,4444.838525474856,4445.95086530374,4447.069647442207,4448.193608169282,4449.321589617851,4450.452517337181,4451.585384051124,4452.719237898962,4453.853173948364,4454.986328109839,4456.117872817256,4457.247014005046,4458.372989032172,4459.495065290402,4460.612539299289,4461.724736138954,4462.831009108677,4463.930739527459,4465.023336614251,4466.108237402145,4467.184906601234,4468.252836497578,4469.311546819071,4470.36058454951,4471.399523685659,4472.427964936281,4473.445535364097,4474.451887972882,4475.4467012428895,4476.429678618496,4477.400547952417,4478.35906091111,4479.3049923461,4480.238139635949,4481.158322003468,4482.065379812635,4482.959173849415,4483.839714656587,4484.707210418848,4485.562082769345,4486.404972484594,4487.236745147747,4488.058501953994,4488.871599147305,4489.67767953107,4490.478720533553,4491.277105448356,4492.075728191698,4492.878148336825,4493.688824595214,4494.513476124173,4495.359662689096,4496.237761999166,4497.162720205248,4498.157441513828,4499.248608923818,4500.4660047349635,4501.8421430464105
R0,0.0,25.89516468762961,66.34917312174656,115.4024797621855,169.87020496348913,227.96342193935627,288.62979356860217,351.2235578500696,415.3324991950823,480.6830988752047,547.0864107136929,614.4060957082365,682.5390040164552,751.4031145265131,820.9299190669888,891.05955926393,961.7377037025907,1032.9135440825567,1104.538520558503,1176.5655269488104,1248.9484336226997,1321.6418209750009,1394.600851869954,1467.7812346556195,1541.1392437876873,1614.6317755115151,1688.2164231612087,1761.8515615441142,1835.4964332993484,1909.111232517127,1982.6571825934132,2056.096606482979,2129.3929883486035,2202.5110261859636,2275.4166721433085,2348.0771675738956,2420.4610702011523,2492.5382731940945,2564.280016757359,2635.6588929566756,2706.648844474485,2777.2251579447584,2847.364452472209,2917.0446638999592,2986.2450253499746,3054.946044521574,3123.129478195145,3190.778304351135,3257.876692278818,3324.40997101553,3390.364596425227,3455.736223754267,3520.532971684121,3584.776365674988,3648.5015671700003,3711.757606784204,3774.607972244699,3837.1317726485104,3899.425689442841,3961.606987675162,4023.8179956532276,4086.232695824457,4149.066473838557,4212.590790317236,4277.155873061053,4343.227144892459,4411.446588055153,4482.742668038225,4558.543226225347,4640.518540606046,4730.52391776402,4830.575704123169,4942.816308816107
G0,332249.0,332309.4480879812,332404.1624212305,332510.78975211387,332620.71795127867,332730.77318600507,332839.8999470272,332947.8412884475,333054.6178065285,333160.3263875796,333265.0664600418,333368.91640362993,333471.92905969213,333574.1339736663,333675.54153985943,333776.14724685665,333875.93542351614,333974.88234935707,334072.95876106754,334170.1318380831,334266.3667571117,334361.6278970645,334455.8797634044,334549.08768862876,334641.2183548239,334732.24017522373,334822.1235643582,334910.841120441,334998.3677388836,335084.680672007,335169.75954696897,335253.58635148726,335336.14539498684,335417.42310449935,335497.4081941023,335576.09150730027,335653.465911825,335729.52620444103,335804.26901617984,335877.69271682884,335949.79731935036,336020.5843851087,336090.0569306379,336158.21933650196,336225.077258649,336290.63754254434,336354.9081402774,336417.8980307681,336479.61714314495,336540.0762833246,336599.65185893705,336658.6662105701,336717.4283791168,336776.2569762929,336835.4963050857,336895.5313133807,336956.80472610635,337019.83914182713,337085.26737175975,337153.87578827125,337226.66835770884,337304.9644531175,337390.5538925624,337485.95334732573,337594.8521540535,337722.9353399269,337879.51770793635,338081.0878143518,338327.8193618036,338624.8011405347,338977.41182156117,339390.23569298186,339866.5159146174
H0,59567.74051706577,59433.71310090237,59219.751733739125,59006.56062749767,58794.13700923868,58582.47811600542,58371.5811947878,58161.44350248657,57952.06230587762,57743.43488157646,57535.558516002784,57328.430505345175,57122.04815552593,56916.408782166036,56711.509710550235,56507.34827559225,56303.92182180012,56101.22770324164,55899.26328350997,55698.02593568934,55497.513042320854,55297.7219953685,55098.65019618517,54900.2950554789,54702.65399327917,54505.724438903366,54309.50383092331,54113.98961713199,53919.179254510316,53725.07020919408,53531.65995644098,53338.94598059779,53146.92577506764,52955.596842277395,52764.956693645196,52575.00284954807,52385.7328392897,52197.14420106826,52009.23448194441,51822.00123780941,51635.4420333533,51449.55444203322,51264.336046041906,51079.78443627615,50895.89721230556,50712.67198234126,50530.10636320483,50348.19798029729,47379.891997147766,44475.9331917765,41638.70214544877,38870.76860224151,36174.90216278984,33554.08139194595,31011.500289214324,28550.57070612271,26174.91884181022,23888.3734044031,21694.94240338097,19598.774876019852,17604.103231695128,15715.16146906046,13936.074518380967,12270.714722265135,10722.52342048677,9294.299199064852,9260.839721948218,9227.500698949205,9194.281696432989,9161.18228232583,9128.202026109457,9095.340498815463,9062.597273019728
S1,747551.6597198369,699974.2948518486,659330.2435171199,621565.2314096141,586468.3270483026,553846.9720284976,523523.61765851156,495333.877806875,469125.29371364077,444756.3692359123,422095.744542647,401021.4554681766,381420.25599607563,363186.99306517205,346224.0275361233,330440.6970869943,315752.8176831465,302082.22072850703,289356.3232978967,277507.72906905366,266473.857755822,256196.60100578776,246622.0028728055,237699.96311031937,229383.96165671453,221630.8028001594,214400.37761827194,207655.443388109,201361.418755,195486.19353514025,189999.952107101,184874.98571754474,180085.62187414864,175607.98283599966,171419.90202628283,167500.79819516224,163831.56108041352,160394.44596740537,157172.97599702634,154151.8515177704,151316.8659347425,148654.82757846877,146153.48715957097,143801.4704090312,141588.2155331527,139503.91513904557,137539.46231112033,135686.40054191538,134106.61168507693,132616.13425585665,131208.44913796897,129877.46341063043,128617.48208368782,127423.17944595961,126289.57114402752,125211.98733554507,124186.04686256501,123207.63210807432,122272.86387227266,121378.07507144174,120519.78105849629,119694.64235493579,118899.41135701402,118130.84517176374,117385.54431418693,116659.61895670657,115877.561163526,115119.04855958717,114380.40712078844,113659.28568559866,112953.7083065945,112261.98982391707,111582.72982219997
E1,0.0,72.38755295365834,103.16428130791721,116.65119569771392,122.26193184320435,123.8926577586679,123.27787858308228,121.27469622318468,118.36298736699072,114.84524974244366,110.9299519460663,106.76885097566074,102.47554198241778,98.13593460101116,93.81494746126343,89.56121274533359,85.41059019191204,81.38888428729122,77.5139840608268,73.79756375273077,70.2464404206667,66.8636596773531,63.64936434354759,60.60148905242967,57.71631498816297,54.98891207406301,52.41349051489205,49.98367929833282,47.6927458282008,45.53376811372612,43.49976873451597,41.583818029346595,39.77904952501529,38.0788869598676,36.47694712672607,34.967096496574406,33.54347729050748,32.20052046343992,30.932951238207913,29.735789511701338,28.604346445673407,27.534218172855788,26.52127734557711,25.561663111615026,24.65176998931326,23.788236021661255,22.9679305129537,22.187941589049213,21.445563770880035,20.859002626040517,20.40562322405872,20.076806323613475,19.8717273459322,19.794966605162255,19.855994479107707,20.069741760364334,20.458038679515745,21.05204981746104,21.896142092987994,23.054051696652188,24.618968244662305,26.73062683048831,29.605587239755437,33.59379797461176,39.291206653485,47.78176821104421,61.20697460711064,74.63484000769257,89.53701216422817,105.9925857319658,123.75803792686912,142.430026663525,161.49411852632295
I1,0.0,0.0,13.322006678612988,26.97927534816516,37.65573127811276,45.094189325434215,49.857378478049384,52.602149696550256,53.880352241083614,54.11141085704568,53.602651243740496,52.57683480940236,51.19554734056129,49.57664604915656,47.806655835857526,45.94943908761945,44.05226337001665,42.15008875033508,40.26864025581907,38.426645150706264,36.63748828868413,34.91045517455764,33.25167761742003,31.664860987067698,30.151848400934377,28.713061328814888,27.34784533479686,26.054742219299357,24.83170455894333,23.676264851167794,22.585668690242656,21.556979327420592,20.587159397610407,19.673122794864643,18.81180757845935,18.000201836021052,17.235369622270447,16.514471320478776,15.834778248827783,15.193682442706569,14.588702598833176,14.017487014309493,13.477814191744873,12.967591646961257,12.484853348799547,12.027756135610499,11.594575385058555,11.183700159092616,10.793628001552635,10.422959529796376,10.092609342647759,9.810960528887165,9.581456680253602,9.406012198575077,9.286618673399772,9.226213960809375,9.229308596565426,9.302626477878746,9.455937387056643,9.703268359513892,10.064765450173859,10.569666653328298,11.261231228845825,12.205269801546887,13.50567230871205,15.334449277655573,17.994295117535504,22.06094077978542,26.972155691354416,32.661439523695826,39.10344844306826,46.23815888406249,53.955326736445016
A1,0.0,0.0,1.4802229642903322,3.293741853765307,5.020345268480431,6.516359610180629,7.746517119565487,8.718071763399125,9.45435323551413,9.983838089788584,10.335493219554543,10.536755027105642,10.612675850008944,10.585620418320465,10.47523724647455,10.298572640080188,10.070258102891371,9.802732118793662,9.506473140103598,9.190229733995636,8.861239475892106,8.525431825307814,8.187612628322412,7.851629482281895,7.520518231235934,7.196631505905888,6.8817505977811475,6.577182146938389,6.28384118725779,6.00232207378421,5.732958745643144,5.475875675767292,5.231030740742506,4.998249832182716,4.777259188139569,4.567709271505593,4.369195030610898,4.181272640834997,4.003473163394722,3.8353135855391,3.676305661010084,3.5259629126980214,3.383806106064992,3.2493674550646974,3.122193781898735,3.001848817333518,2.8879147987215097,2.7799934976502616,2.67770678768655,2.5806968444675507,2.491094544992922,2.410141738583061,2.33865565341326,2.277273210555377,2.226597607805938,2.1873050592191405,2.1602418496064013,2.1465314041228423,2.1477097344459843,2.165912890587888,2.204153027410924,2.266745464509182,2.3599998423683286,2.4933922143657066,2.6816593745796675,2.948777043266883,3.336091140273747,3.9204688799150107,4.662551906541249,5.560946648442242,6.616155621959434,7.823601144036607,9.171373293674566
IH1,0.0,0.0,0.0,2.664401335722598,7.857991579616988,14.792607846983888,22.68848266282019,30.937589460568457,39.109429471958194,46.91655457743511,54.177222885109714,60.78495436028702,66.68590455380162,71.86263371045065,76.32259743547893,80.08999033095196,83.19994277218383,85.69437176737571,87.61900425887774,89.02124088860789,89.94862938855921,90.44778493252342,90.56364106034971,90.3389465980224,89.81394621972939,89.0261980970641,88.01049351211398,86.7988517214111,85.42056963818744,83.90231065103568,82.26822052893114,80.540061162666,78.73735506549359,76.87753524951444,74.97609409947427,73.04673552620237,71.10152074212998,69.15100815818401,67.2043867328676,65.2696021195773,63.353475194057744,61.461812772811285,59.599510514263606,57.77064812933571,55.97857712576079,54.226001379357974,52.515050872132825,50.84734896659932,49.22407360204667,47.64601280468642,46.11361490213872,44.631477107535964,43.20552425985589,41.8419201393926,40.54674349083142,39.326009916169035,38.185865921421495,37.13289351513887,36.174519820043535,35.31956209422263,34.57897365129378,33.96690550821796,33.502282023366426,33.211242787158724,33.1311051593823,33.31713158475463,33.85479143137112,34.88360464478361,36.64764587181743,39.2600150111649,42.81192605290564,47.382599819920856,53.03323846843614
IN1,0.0,0.0,0.0,2.664401335722598,8.033612391998405,15.484422523700973,24.348416163550805,34.07640769752518,44.25607355985998,54.5895832724781,64.86596961116246,74.93784016379894,84.70382872404141,94.09589990491327,103.07027011569545,111.60089858171,119.67477741341679,127.28848231328595,134.44561524022012,141.15488713898174,147.42866729773317,153.28187828249267,158.73115053457929,163.7941745527175,168.48920500460386,172.8346826347447,176.84894807416023,180.550027660378,183.95547582763407,187.0822619811464,189.94669233156847,192.5643591463013,194.95011142032243,197.1180421856413,199.0814863227578,200.85303297522208,202.44454301267407,203.86717150700142,205.13139405602715,206.24703576523243,207.22330189612143,208.06880939692684,208.79161870581947,209.39926535711027,209.89879103293143,210.29677379236202,210.5993572815605,210.8122787857566,210.94089602971755,210.9902126697309,210.9649024489929,210.8737752930325,210.72722964587962,210.53624868547155,210.31208863833186,210.0662914866285,209.8108713639241,209.55862436959794,209.3235634214777,209.12151526467426,208.9709537839303,208.89419733612576,208.91918869343016,209.08224305226503,209.43247458205175,210.03928429797364,211.005781310525,212.49458252092685,214.78182485167466,218.0284377414288,222.38044126875369,227.9773265446798,234.94518505604552
D1,0.0,0.0,0.0,0.0,0.004749903441014401,0.018758566754254444,0.045129766157256404,0.08557716438763524,0.14073047806648134,0.2104519615135626,0.29409142717516545,0.3906746910988025,0.49903774436965204,0.6179205880540686,0.7460321328747193,0.8820945808721115,1.0248732664865394,1.1731961520696228,1.3259659266062482,1.4821667977916804,1.6408674757830062,1.801221435420763,1.9624652537311187,2.1239156120295934,2.284965401170008,2.4450792573224174,2.603788772669133,2.760687562792728,2.915426324907864,3.067707984663074,3.2172830012820817,3.3639448793322684,3.5075259189177728,3.6478932234779666,3.7849449747747888,3.9186069732816047,4.04882944982029,4.175584137076445,4.29886159051275,4.41866874700749,4.535026708379455,4.647968736215087,4.757538444076453,4.8637881731540356,4.966777537654089,5.0665721266102715,5.163242349331958,5.256862412307546,5.347509416039591,5.4352625609762555,5.520202452402266,5.602410494848649,5.681976288427996,5.758999995630523,5.833592767291497,5.905876590995855,5.975984178511952,6.04405919915785,6.110257056183975,6.174746393381994,6.237711573318362,6.299356485340778,6.359910246214171,6.419635709691116,6.478842329309593,6.537906085317838,6.59730147588359,6.657655367828733,6.719843354118834,6.785176146479266,6.855166083016073,6.931488111589145,7.015958409254647
R1,0.0,0.0,0.0,0.29604459285806645,1.1789518992659815,2.8458784018244643,5.40058639894514,8.875295484124974,13.25311052802152,18.485765770015675,24.5064036187711,31.238377468440788,38.60116059059492,46.51423151561593,54.89956853831154,63.68319451246448,72.79607471697521,82.17457490491601,91.76062163583597,101.50166296650713,111.35049763689469,121.2650203591853,131.20791659584665,141.14633025436976,151.05152068291946,160.89852032591244,170.66580078880745,180.33495245664392,189.89038092760376,199.3190221625169,208.6100772728043,217.75476717151207,226.74610682119956,235.5786984744923,244.24854282050154,252.75286761181397,261.08997247060523,269.25908872799806,277.26025320721095,285.09419488701127,292.7622334144603,300.266188478801,307.6082991088581,314.79115201132856,321.8176181243797,328.6907966182953,335.41396563131116,341.9905390834407,348.42402896346744,354.71801253403606,360.8761039467079,366.9024235008823,372.8017687614074,378.57964393786034,384.24224738344134,389.7964612770238,395.2498644031272,400.61078059163754,405.88837424980306,411.09280769694124,416.2354823626008,421.3293988270105,426.3896929479174,431.4344448218253,436.4859306636884,441.5726315647867,446.7326144347687,452.0195823940782,457.51458093790365,463.3116387742916,469.51449940785596,476.23522883796073,483.59224516284655
G1,0.0,0.0,13.322006678612988,32.308078019610356,53.77624408882402,76.27699464739058,99.07785953017944,121.76558213990006,144.08464456305353,165.86784407544906,187.00364880496215,207.41889286812022,227.0683393230401,245.9276569678599,263.98832517422346,281.2537707603284,297.7363706777734,313.4551014060985,328.4336884117165,342.6991494089313,356.28065060719166,369.2086128085388,381.5140173212243,393.22787173783996,404.38080354653374,415.002755834788,425.12276437229593,434.76879939071716,443.96765861808086,452.7449007338827,461.1248105134247,469.1303886266997,476.78336042785776,484.10418758415614,491.1121214856967,497.8252387746422,504.2604872953,510.43373684241647,516.359832298957,522.0526477923669,527.5251409255761,532.7894063805857,537.8567283637449,542.7376314956592,547.4419298562821,551.9787739826128,556.356695686305,560.5836506143625,564.6670585204595,568.6138412493243,572.4526748740942,576.2080697973927,579.9029501603139,583.5600883507368,587.2030997049916,590.857342461761,594.5509226818408,598.3159640017803,602.1903255021098,606.2200314293897,610.4628358638552,614.9936432470791,619.913074483928,625.3616055481674,631.5441159759513,638.7751618683797,647.5687874193218,658.8331511285859,672.5687423520691,689.0468884609522,708.553473189803,731.3295630080245,757.541994414032
H1,17019.354433447366,15937.713675793097,15013.266923256839,14154.081820694239,13355.499594617928,12613.194231092764,11923.148707232329,11281.632920445541,10685.183194165527,10130.583247454864,9614.84652392462,9135.19978287333,8689.067862487334,8274.059531383846,7887.95435075794,7528.690474947496,7194.353323386235,6883.165061702842,6593.474834170023,6323.749693835657,6072.5661805015925,5838.602500275262,5620.631263724641,5417.51274273629,5228.18860902628,5051.676119900208,4887.062719315959,4733.501024584714,4590.204171164624,4456.441489969103,4331.534493438694,4214.853148321975,4105.812414686272,4003.8690321417816,3908.518535620996,3819.292484316619,3735.7558885523763,3657.5048204486498,3584.1641952547348,3515.385711157254,3450.8459362449926,3390.2445321189934,3333.302604387528,3279.761170982741,3229.3797398831393,3181.934988427215,3137.2195369616998,3095.0408100862587,2885.4855359467538,2684.936835790899,2492.9850721013654,2309.2788799278555,2133.521546800039,1965.4676521473582,1804.9198808278893,1651.7259081947734,1505.7752321437158,1366.995800711482,1235.3502527675896,1110.831556343355,993.4577987094439,883.2658624689731,780.303725368138,684.6211663084857,596.2587688802898,515.2353102425644,511.89226519901473,508.66755496952726,505.55316070220675,502.54163475920785,499.6260599213517,496.80001150667783,494.05752219479365
S2,747551.6597198369,792018.5777539817,832566.8579713835,869732.7927778289,903759.9848060856,934875.4369747473,963290.2696621048,989200.6484737142,1012788.7619130213,1034223.7804878326,1053662.7697758654,1071251.548054966,1087125.486914754,1101410.2565148114,1114222.5184019438,1125670.5691828732,1135854.9383685146,1144868.9435788842,1152799.2061170698,1159726.1297261412,1165724.345150717,1170863.12294156,1175206.7567692057,1178814.9193516576,1181742.9929513137,1184042.3762569209,1185760.7693368685,1186942.4382298356,1187628.460627064,1187856.9539967643,1187663.2874047672,1187080.1748941417,1186138.2091959617,1184865.60684085,1183288.564482738,1181431.3895345072,1179316.6312409453,1176965.20531121,1174396.5105214892,1171628.537246399,1168677.9683106828,1165560.2726541162,1162289.7923062975,1158879.8231442897,1155342.689875875,1151689.81566062,1147931.7867518384,1144078.4125152535,1141582.3669374909,1138975.3888629829,1136263.6906606155,1133452.8253415502,1130547.7279744672,1127552.7475991084,1124471.6736492983,1121307.7587780014,1118063.738887632,1114741.8503695915,1111343.8435412464,1107870.9894553493,1104324.0736465175,1100703.362906978,1097008.5151792702,1093238.366728972,1089390.444810322,1085459.831025927,1080781.0822408677,1076088.6512426124,1071376.9051051803,1066644.2181704268,1061889.4927486286,1057112.003696486,1052311.485260558
E2,0.0,25.33564353378042,38.205216741564726,45.676936584668205,50.766526688466456,54.74941797628455,58.15794162394745,61.20984823606676,63.99168611596551,66.53671622374837,68.85766075129237,70.9602201598455,72.84846319070792,74.52682148263771,76.00069382656064,77.27650338851822,78.36155840057688,79.26385882700508,79.99190439503849,80.5545233579441,80.96072682517269,81.21958792515224,81.34014318191251,81.33131307461204,81.20183889034666,80.96023330032175,80.61474243975631,80.17331759870062,79.6435949182254,79.03288173274338,78.34814840827987,77.59602470335555,76.78265885123766,75.91409199658582,74.99595994594672,74.0335571423325,73.03185939020597,71.99553674477964,70.9289646967985,69.83623549364043,68.72116983681207,67.58732884328862,66.43802611504155,65.27633978289248,64.10512441919604,62.92702273769334,61.74447701769073,60.559740204642246,59.37488665128909,58.55147109901966,58.037292117027974,57.820164010304694,57.9102920563166,58.33362090109151,59.13067895075678,60.35871258951187,62.09655533628247,64.452710609134,67.5781051160178,71.68636023788963,77.08689019267999,84.24096336613636,93.86099703178247,107.0960651561927,125.90132171308301,153.8322605440157,197.91496243373783,242.13577484499748,291.3087619247915,345.7117366561082,404.56141514101614,466.54142291241794,529.9600064911488
I2,0.0,0.0,4.662702337514546,9.828804690536419,14.303540926529232,17.9250568695254,20.830966822426536,23.201808136329777,25.185977445852387,26.888440844096827,28.378299242783793,29.69935454624038,30.878936994313932,31.93419353090074,32.876227908979146,33.712695959008656,34.44937328112381,35.09107022238756,35.64214528251685,36.10677782782664,36.48910020562029,36.79325020414467,37.02338029001521,37.183645000295435,37.27817875773794,37.3110709384931,37.28634181690858,37.20792115369864,37.07963013890142,36.90516682099571,36.68809485084926,36.431835226025555,36.139660667634686,35.814666312327915,35.45982103778765,35.07794336900054,34.67169879572731,34.24360234522854,33.796022498011425,33.33118559569454,32.85118056923097,32.35796392861724,31.853364958050854,31.339091054267573,30.81673314606161,30.287771138375234,29.75357933196147,29.21543177765623,28.674507531862357,28.13189578660986,27.65478959993765,27.273897798537785,27.00540305654267,26.86089312970254,26.852095452953492,26.993505223947018,27.304355028788976,27.81069272371701,28.548115693897707,29.565758507753905,30.932416199303603,32.74630953286845,35.15126153544477,38.36467734401111,42.72847246152735,48.80761736389081,57.595437670132355,70.98098938598699,87.15059742914099,105.90202391031468,127.16505403525804,150.75340550747916,176.31304700311756
A2,0.0,0.0,0.5180780375016163,1.1957050175599253,1.8905926931820938,2.5505777449465485,3.16001027381405,3.717255779370557,4.225459352835838,4.688906857444826,5.111707123325383,5.497407365390318,5.84896192193111,6.168817463579597,6.459021947579089,6.721324137354512,6.957254388296789,7.168186427716684,7.355382825404938,7.520027444581343,7.6632479011011085,7.786130552077831,7.889730015832088,7.9750747711419265,8.043170012198061,8.094998641297375,8.131521052350424,8.153674182275171,8.162370173229275,8.158494887211738,8.142906438464038,8.11643385249523,8.079875918887224,8.033997391970567,7.979533608064331,7.917188080487905,7.847631883759989,7.771503625651565,7.689409688396175,7.601924650371128,7.50959185494293,7.412924104740862,7.312404461668302,7.208487133716537,7.101598430695571,6.992137772416264,6.880478734481493,6.766970118527344,6.651937035407277,6.535681991380538,6.425840273990179,6.327452667922721,6.244302620718177,6.17962557388309,6.136540411898913,6.1183709908719,6.128947003188716,6.172944236600264,6.2563220625766,6.386934215774089,6.575431938691634,6.836663307985117,7.191939070357393,7.672875747701943,8.328263493174964,9.237114559759348,10.535343564673909,12.475355605506637,14.93161823968851,17.90214630873193,21.391032567993236,25.3855341750973,29.848538862147848
IH2,0.0,0.0,0.0,0.9325404675029093,2.8275087166016686,5.473569975346496,8.643061861857433,12.153127570986051,15.87089912243735,19.703274375903828,23.58521214680425,27.47042895627264,31.32491526099028,35.12270935922158,38.84324978940073,42.4697567392048,45.98825538169188,49.3869868921415,52.656047172294514,55.787155681553294,58.77349635987242,61.609597049674996,64.29122856330038,66.81531326011029,69.17983804226996,71.38376951839827,73.42697062100908,75.31011874279928,77.03462580515604,78.60256078315867,80.01657519782525,81.27983201331551,82.39593828067848,83.36888177023917,84.20296655286053,84.90276373657439,85.4730611242365,85.9188161563542,86.24511294074794,86.45712332740369,86.56007181985417,86.55920409591502,86.45975891607327,86.26694320344819,85.98591008319448,85.62173967292179,85.17942242020438,84.66384478893623,84.07977710314383,83.43186336471796,82.72461287013232,81.97563120964517,81.20732923162437,80.44365302664029,79.70904839772237,79.02845086112546,78.42780202288185,77.93492068039562,77.58072337174178,77.40089912019135,77.43825457338382,77.74610577054509,78.39336548071446,79.47247964827756,81.11235732223479,83.50050467662649,86.92318767478595,91.84360586723604,99.0676067683698,108.97712793040446,121.88466499737784,138.06494792316926,157.73459440803856
IN2,0.0,0.0,0.0,0.9325404675029093,2.888976000935164,5.720794426231659,9.248597855874422,13.322305241800986,17.829443816648933,22.688344867652923,27.83914958779576,33.23641794047456,38.84392467031789,44.6312728224775,50.57179880043287,56.64132639422437,62.81745232208386,69.07915245508778,75.40657497501441,81.78093828176763,88.18448446451528,94.60045966099419,101.01310510521319,107.40765011216409,113.77030261110154,120.08823533653812,126.34956717087135,132.54333986254434,138.65949069465861,144.6888218154923,150.62296696153652,156.454356262091,162.1761797446752,167.7823500807554,173.26745984241344,178.62674945154683,183.85607063083148,188.95184968366863,193.91105165587766,198.73114563892116,203.41007130167085,207.94620670250035,212.3383374211988,216.58562703859698,220.68758897906451,224.6440597184862,228.4551733489764,232.12133748187892,235.64321046259138,239.02167986433795,242.25784222301655,245.36622172077392,248.36733906327373,251.28474628394952,254.14407744705053,256.97305576317075,259.8020262503284,262.66487699358294,265.60036676839053,268.6539862394862,271.8805980786421,275.3482753377164,279.14405449091294,283.38286625309274,288.221973059364,293.88544782107584,300.7081168156432,309.22012318151326,320.3241198268955,334.5509981144548,352.3858929153732,374.2950447932711,400.7027754468342
D2,0.0,0.0,0.0,0.0,0.0016624662043550405,0.006703145775566145,0.01646103341507238,0.031869263672321894,0.05353498711066345,0.08182848679591744,0.11695406998137053,0.1590000931653282,0.20797240198236824,0.2638162122945672,0.3264304573057717,0.3956774147221246,0.47138944840487457,0.5533740088969618,0.6414175839527053,0.7352890050109998,0.8347423415573694,0.9395195118947703,1.0493526789564422,1.1639664661834495,1.2830800104200506,1.406408859704192,1.5336667198178457,1.6645670521889095,1.798824525852355,1.93615632691525,2.0762833299049155,2.2189311362900077,2.3638309862446376,2.5107205503345997,2.659344608236367,2.8094556126149857,2.9608141651787707,3.1131894029872815,3.2663593008691523,3.4201108972354834,3.5742404505002763,3.7285535329473967,3.8828650684785666,4.036999320281647,4.190789834073265,4.344079342191663,4.49671963344409,4.648571393249495,4.7995040182638915,4.949395409334537,5.098131746301895,5.2456072478564915,5.391747518671369,5.53651811587131,5.679927285952431,5.82202685563368,5.962913104882422,6.102728560499078,6.241665342639146,6.379970687242902,6.517955454079425,6.656006815536392,6.794606992008991,6.934361056630251,7.076038888526745,7.220640176624052,7.369498882394961,7.524459301722492,7.688191489398205,7.864802107315691,8.059078708219777,8.276365939657424,8.522498218016263
R2,0.0,0.0,0.0,0.10361560750032327,0.42121223849150713,1.037826784127085,2.0109118771333474,3.3761193355543404,5.153717896222775,7.35363094097518,9.978920575874165,13.028050512321606,16.49630846051781,20.376689581926502,24.660449833856994,29.337463885952552,34.3964704929976,39.82525447916085,45.61079347852382,51.739384919541244,58.19676134197503,64.96819794782448,72.03861401499186,79.39266864317653,87.01485077218938,94.88956322687514,103.00120053347416,111.3342203248734,119.8732082546734,128.6029364449806,137.50841558712077,146.57494089272342,155.78813215373088,165.13396821483136,174.59881561597547,184.16945295547754,193.8330907996648,203.57738737194435,213.39046038068145,223.26089535149967,233.17775081138674,243.13056065073025,253.10933396873745,263.1045526877153,273.10716720216016,283.10859030945653,293.1006896502647,303.07577886850584,313.02660768333936,322.94635104877443,332.8285975606342,342.66880811658245,352.4649021342882,362.21742226815724,371.92956893055066,381.6072348449073,391.2591032344976,400.896849790266,410.53548647877903,420.1938966047045,429.89563479177593,439.67010784154314,449.55432527644905,459.59553771033427,469.85532148535407,480.41613976439913,491.39239892340953,502.9502577267496,515.345994868054,528.8795474201368,543.8840777772132,560.7215838697881,579.7765434910079
G2,0.0,0.0,4.662702337514546,11.693885625542237,20.10014373774962,29.44307605135748,39.51900875206878,50.22223679494263,61.48712935899715,73.26398373558254,85.50921847190824,98.18159347247834,111.24091773904804,124.64774907336043,138.36346086379913,152.3504200774203,166.5721757831389,180.99362203685217,195.5811251859365,210.302615844253,225.1276493531773,240.0274394339498,254.97486960147822,269.9444864277645,284.9124781853252,299.8566418691755,314.75634112298826,329.59245718654176,344.347334633224,359.0047233708789,373.5497181291307,387.96869644464675,402.2492559766661,416.3801258884132,430.3511471388041,444.15319788513204,457.778130659459,471.21871372725116,484.4685748181255,497.5221469150132,510.37461612682745,523.0218717139061,535.4604583147866,547.6875303942237,559.7008089077248,571.498540158463,583.0794568073993,594.4427409858787,605.5879894511473,616.5151807186397,627.2908328466115,637.9718568851866,648.6129212626066,659.2705725583836,670.0061321335156,680.8883800856905,691.9966319801113,703.4247116865549,715.2864117462225,727.7233008376378,740.9162619322891,755.1031217455754,770.6065975612992,787.8805179840434,807.5901840391641,830.7607179261386,859.0715851779364,895.495311961844,940.0573157593927,993.6689812122228,1057.292820901292,1131.7471939876164,1217.6081976862465
H2,17019.354433447366,18032.41124496209,18956.147802221574,19802.855584808713,20578.113148372482,21287.099867650282,21934.62445716107,22525.151454616225,23062.825812569285,23551.495733431475,23994.733873327874,24395.85703130668,24757.9444320916,25083.854702839602,25376.241637190356,25637.56883323032,25870.123285807163,26076.028007884666,26257.253750293385,26415.629884278227,26552.85450664413,26670.503823029434,26770.040860870173,26852.823559935383,26920.11228489351,26973.07680119427,27012.802752601496,27040.29767597405,27056.496586349454,27062.26716302372,27058.414565128372,27045.685903170084,27024.774391107723,26996.32320178641,26960.92904691813,26919.14550128489,26871.486089435064,26818.427151838387,26760.41050625331,26697.845918935156,26631.11339926859,26560.565330437654,26486.528447845707,26409.30567616094,26329.17783508636,26246.405223231748,26161.22908879522,26073.87299514016,24540.958306065848,23038.985713083977,21569.692029825565,20134.852472428156,18736.29083824897,17375.888415763184,16055.59111762286,14777.414139868499,13543.443217022877,12355.831264205119,11216.788880138049,10128.566849441282,9093.428471799829,8113.609335727102,7191.26216669775,6328.384786180129,5526.730237379332,4787.69999304134,4767.506086712936,4747.313795099617,4727.131551465302,4706.967115902778,4686.82762414864,4666.719632903158,4646.649161904787
S3,2242654.9791595107,2232822.2399781775,2223615.129875133,2214973.2002575146,2206848.055869468,2199196.6562457653,2191979.845585232,2185161.6401217114,2178708.825698677,2172590.688137313,2166778.8048597258,2161246.8684204617,2155970.5295724203,2150927.2543766294,2146096.192686319,2141458.0565128606,2136995.007289464,2132690.551282896,2128529.442524178,2124497.592701682,2120581.987511142,2116770.608997835,2113052.3634613063,2109417.014524506,2105855.120997931,2102357.979195926,2098917.5693868063,2095526.5060812521,2092177.9918845266,2088865.7746576983,2085584.1077512396,2082327.5527642886,2079091.4909779495,2075871.4307101972,2072663.2880322945,2069463.334978448,2066268.1668018042,2063074.6761671568,2059880.030573584,2056681.6518137113,2053477.197034559,2050264.5411980918,2047041.760814867,2043807.1188516119,2040559.0507262095,2037296.151311456,2034017.16287508,2030720.96388886,2029972.1169621751,2029302.4845779566,2028716.257251276,2028218.1633432936,2027813.5057314064,2027508.1888565612,2027308.7372222752,2027222.3031039557,2027256.658681518,2027420.1652088119,2027721.7086284158,2028170.5866404956,2028776.3256600236,2029548.395265809,2030495.7676663205,2031626.2274697733,2032945.2369073632,2034453.8970576972,2030319.2476324162,2026146.1251818095,2021925.0558370252,2017651.3830084596,2013320.9570323734,2008930.0367835718,2004475.4435405026
E3,0.0,43.43253177219499,63.62932209475295,73.94420664288633,79.82307892631874,83.54300848451982,86.09072756527117,87.91847324186256,89.25147719619613,90.21460319427581,90.88544975061573,91.31728032629877,91.5494090630319,91.61225839719995,91.53007180433087,91.3225343219299,91.00584067933335,90.59345387655307,90.09667096053651,89.52505748905011,88.88678668151776,88.18890656558644,87.43755145699498,86.63810985378854,85.79535797282993,84.91356610776317,83.99658344955627,83.04790582554233,82.0707298861778,81.06799653844645,80.0424258469603,78.99654516556205,77.93257073725525,76.8527982286299,75.75931336988813,74.65406120202618,73.53887026030226,72.41546406712777,71.28546873648044,70.15041905726173,69.0117637207503,67.87086992392149,66.72902747122238,65.58745246489067,64.44729065765249,63.3096205288213,62.17545613353451,61.045749765082824,59.92139446210147,59.168664452319604,58.73578827051904,58.61168613782051,58.80828997521216,59.35395993542868,60.29249991757083,61.685576250609,63.618024230398035,66.20659884735652,69.61376548255404,74.06962585863086,79.90774411928854,87.62588455849155,97.99369867564508,112.25413310372952,132.52499444436157,162.6634532398983,210.30481112524626,258.2140828999935,311.59269430462507,370.78462843260905,434.98823170825324,502.8174161482797,572.467009370979
I3,0.0,0.0,7.99320400716779,16.50608830042627,23.512141933762873,28.797705642417803,32.65364949932828,35.43609104442384,37.441929272094676,38.89075459987703,39.93730086327302,40.688689381333916,41.21899540676064,41.57989935797052,41.808008347754125,41.92974834651948,41.964597716815646,41.92722390973519,41.82890508952535,41.67848723226566,41.483038342615785,41.24830340025427,40.97902649266288,40.67918301497215,40.35214988865939,40.000832268460734,39.62775914034622,39.23515629044488,38.82500255290708,38.39907353100428,37.9589758231534,37.50617398163439,37.042011865083595,36.56770365996581,36.08440036634187,35.593176436313286,35.09503450115045,34.59091265822866,34.08169095830986,33.56819669740708,33.05120871146747,32.53146091522831,32.00964527271296,31.486414334407797,30.962383438724565,30.4381326498991,29.91420848684737,29.391125484844792,28.869367622501578,28.349389639364578,27.898872483302902,27.548896844594054,27.316072045292636,27.212559596639508,27.25087573009347,27.446591733961426,27.820399283253735,28.400326238113237,29.224676582790565,30.34633239090783,31.839370196478797,33.80962414991563,36.412201916704916,39.881812646850875,44.588030319151116,51.14235463847052,60.621548513702564,75.07684965860369,92.56712130259422,112.88493750852524,135.969148419046,161.63552999469917,189.51845598155884
A3,0.0,0.0,0.8881337785741991,2.0116365668733147,3.1213635816661087,4.129359807795119,5.011824081111384,5.769892747647649,6.413722492055939,6.956044331046998,7.409596365209466,7.78615585476425,8.096233770251432,8.34904280663605,8.552575215639042,8.713720543385346,8.838392957919828,8.931654952963173,8.997831822779899,9.04061481139619,9.06315251614544,9.068130945659107,9.057843029028431,9.03424854759768,8.999025513597712,8.953614003685402,8.899253400644964,8.837013921208989,8.767823223482763,8.692488800926213,8.611716785691064,8.526127704968667,8.436269661319708,8.342626455824172,8.245632072477381,8.145676348705035,8.043110927782081,7.938254515285486,7.831397319269795,7.722804757907077,7.612720549994908,7.501369294256796,7.388958626913879,7.275681031617772,7.161715362858649,7.047228133249626,6.932374606256136,6.817299728642284,6.702138930868793,6.587018818679883,6.4795304660199236,6.384688078883974,6.306276456277868,6.2475674282960645,6.211758383982382,6.202302962286499,6.223225063482186,6.279478569470305,6.377414060012091,6.525434185924505,6.734966322287837,7.021973283611198,7.409403896528463,7.931355505759207,8.640522485834097,9.62236648277615,11.02413048962317,13.119740008407666,15.7759043964408,18.992352931260275,22.77590300211165,27.115615839830607,31.97439689239108
IH3,0.0,0.0,0.0,1.5986408014335582,4.778499566075627,9.118173900326447,14.185519813968629,19.63937302310621,25.235691828482967,30.808340462068436,36.24771323653333,41.48347181569533,46.472041777452006,51.18797165013404,55.61807816364375,59.757500262549435,63.60703110668283,67.17129931660996,70.45751562694704,73.47459901090609,76.23256056378106,78.7420650015284,81.01411643694361,83.0598324363187,84.89028166828611,86.51636792109508,87.94874826595964,89.19777655253262,90.27346578763789,91.18546461954844,91.94304435165216,92.55509378716444,93.03011985694172,93.37625247013409,93.6012472009007,93.71250106832001,93.71706444607604,93.62165301346072,93.43266025651742,93.15617031763165,92.79797092803327,92.36356621748006,91.8581892592807,91.28681425707664,90.65416831391434,89.96474274817514,89.22280393804962,88.43240368853789,87.59738912378734,86.72141211386068,85.8079382494024,84.87370622448145,83.940400173376,83.03137996977802,82.17066445288658,81.38295234687683,80.69418165961864,80.13245968128471,79.72936554291789,79.52174188062486,79.55421088078846,79.88282259693503,80.58053894021211,81.74580453905403,83.51653254622387,86.09408139897471,89.7868235917298,95.09507447333098,102.89141609686517,113.59396214327651,127.54760050841445,145.05880736647742,166.37394831328348
IN3,0.0,0.0,0.0,1.5986408014335582,4.8838720535044775,9.537461719722007,15.201628231008348,21.580341848563922,28.45175663896305,35.65562492699236,43.07721959769784,50.63390757437547,58.2653063748985,65.92645239250164,73.58316774017074,81.20893773231985,88.78279802430055,96.28788958742066,103.7104554734935,111.03913193666364,118.26443806375013,125.37840135163579,132.3742780181703,139.24634053652116,145.98971373415037,152.60024657454073,159.0744105624875,165.40921828493185,171.6021573601715,177.6511362971512,183.55443964038054,189.3106904086074,194.91881830084822,200.37803249085644,205.68779289794105,210.84779504223002,215.85795237907038,220.71837975550977,225.4293784896004,229.99142289636637,234.40514800688413,238.6713382691088,242.79091706946338,246.76493695331132,250.59457045065977,254.2811014338981,257.82591694953896,261.23049947741305,264.4964195796079,267.62532890831216,270.61895354710197,273.49253850829155,276.26739249212744,278.9679329762647,281.62076556582997,284.2547330561904,286.9015040724208,289.5965688883473,292.38066844708646,295.3017970791737,298.41804558656355,301.80173916999365,305.54564660827685,309.7726305255351,314.6512667496499,320.4223601459836,327.44660747221786,336.2964511002362,347.94885652095456,362.9827922162639,381.9299517958063,405.3044819616574,433.5785431409807
D3,0.0,0.0,0.0,0.0,0.00284994206460864,0.011368708073120945,0.027623933967301898,0.05291286040400699,0.08792452484476146,0.13291290472784756,0.18783580257012586,0.2524556237369767,0.3264093794571736,0.4092563996076943,0.5005106410088228,0.5996625582932557,0.7061939401530096,0.8195879892685136,0.9393361598926828,1.0649427610584936,1.1959280019041287,1.3318299386298285,1.472205639725889,1.6166317910249828,1.7647048979589095,1.9160411983873578,2.0702763686609935,2.2270650837920405,2.3860804768926465,2.5470135315447555,2.709572432247838,2.873481891715517,3.0384824689817167,3.204329888626036,3.3707943686465103,3.537659953122064,3.7047238730062504,3.8717959281527246,4.038697890646108,4.205262930418993,4.371335063776274,4.53676862497462,4.701427760638125,4.865185946538327,5.027925526099954,5.189537269887712,5.349919955266317,5.508979965393267,5.66663090669316,5.822793243967365,5.977393952309054,6.1303661850176265,6.281672935934705,6.431315855819938,6.579338239738937,6.725826201819677,6.8709098873026315,7.01476568184678,7.157620078770378,7.299755868399644,7.441521521467747,7.583345057938599,7.725754419788067,7.86940762024974,8.015138172574073,8.164025451680361,8.317507799855607,8.477573303733777,8.647101976238325,8.830529406939863,9.033036568465691,9.260419274826534,9.519019703756515
R3,0.0,0.0,0.0,0.17762675571483982,0.7144494304824149,1.741796153843925,3.3389827215473677,5.5449515843711,8.370621291453524,11.808632197204721,15.840252560352278,20.440025801696898,25.578810207183416,31.225732213502262,37.34942441543775,43.91879878932798,50.903519718639,58.274283574786466,66.0029737622391,74.06273571431022,82.42800064868862,91.07447682660533,99.97912057279311,109.12009510663889,118.47672248561673,128.02943215017223,137.75970835520866,147.65003796732776,157.68385956430197,167.84551440661897,178.12019960316977,188.49392362636252,198.95346422072572,209.48632867617818,220.08071581345766,230.72548077830606,241.4101019880918,252.12464997513786,262.8597580018457,273.6065943413705,284.3568361176381,295.10264459935433,305.8366418464783,316.5518886134022,327.2418634197411,337.9004427065158,348.5218820022314,359.1007980297323,369.6321516906545,380.1112318697771,390.5336400065857,400.89676992413365,411.20041159410056,421.4469325030487,431.6413303707709,441.7912889931734,451.9073022647601,462.0029083586213,472.09507475046473,482.2047874361599,492.3579240690864,502.5865365760879,512.9307477493667,523.4416065787925,534.1855079550758,545.2512950517122,556.762238336491,568.897523826399,581.933935974765,596.1960562026686,612.0451966861245,629.8749169238903,650.1044495346767
G3,0.0,0.0,7.99320400716779,19.70336990329339,33.3118588568005,48.00227933896058,63.37730545283817,79.22120679766505,95.40148144310541,111.82707847972563,128.42992658307244,145.15623544644254,161.9620172244028,178.81051933831694,195.67058807128876,212.51553140915576,229.32228011805972,246.07074539770554,262.74331614138976,279.3244603199402,295.8004063231966,312.15888671788144,328.38893117039174,344.48069828976617,360.4253383694423,376.21488070470735,391.8421404839771,407.3006412902143,422.5845500688544,437.68862206811446,452.6081537726653,467.33894226040763,481.8772497365106,496.2197462774262,510.3635244477886,524.3060606642968,538.0451893036592,551.5790812611975,564.9062246245702,578.0254067469914,590.9356974400146,603.6364331283623,616.1272018519384,628.4078290227184,640.4783638607983,652.3390664474626,663.9903953443705,675.4329957371069,686.6676880687016,697.6954571345652,708.5846958342494,719.3942691888617,730.181003127398,741.0039194968618,751.9272594689716,763.0233257648769,774.3757700077538,786.0838566759147,798.2683375158373,811.0798639570708,824.7114347190048,839.4174367510332,855.5438641777887,873.5783556746167,894.2372984056573,918.6268348526371,948.5629705832573,987.2668911336394,1034.7879026410715,1092.13256736804,1160.370753281971,1240.4247942252425,1332.9619322099818
H3,51058.06330034209,50835.19080180885,50626.2357742338,50430.01890233211,50245.51702558421,50071.78192118497,49907.93492740903,49753.16195131349,49606.70883332178,49467.87704319374,49336.01968370797,49210.537780073835,49090.87683466021,48976.52362808675,48867.003249076966,48761.87633672978,48660.736520033584,48563.20804053101,48468.94354504902,48377.622036343775,48288.946970377554,48202.644489751125,48118.46178356307,48036.165564662784,47955.54065590887,47876.38867764408,47798.52682915412,47721.78675739452,47646.01350674926,47571.06454403051,47496.808853342445,47423.12609581612,47349.9058295792,47277.04678565542,47204.45619579622,47132.04916853266,47059.74811000066,46987.48218633916,46915.186824689175,46842.80325003407,46770.278055318726,46697.56280246808,46624.61365209558,46551.39101985008,46477.8592574961,46403.98635695847,46329.74367568896,46255.105681829584,46180.04971775648,46087.37023565691,45977.58245646791,45851.21798397146,45708.82512544346,45550.96933080583,45378.23373418915,45191.21977589975,44990.54787467045,44776.85810925085,44550.81085434287,44313.087298177365,44064.389747471614,43805.44160043078,43536.98684109061,43259.78888130411,42974.628554747775,42682.30105771272,42383.6116440537,42087.170905195075,41792.960121402975,41500.9608293373,41211.15481190119,40923.52408875617,40638.05090745586
S4,1121327.4895797553,1139950.7703373283,1158512.843153991,1177006.3157375485,1195430.774342127,1213788.4370384747,1232082.4076794141,1250315.9769248557,1268492.3478102328,1286614.534499868,1304685.331565319,1322707.311631065,1340682.8340387535,1358614.0573992082,1376502.9531215644,1394351.3187545347,1412160.7906967564,1429932.856130683,1447668.8641557773,1465370.0361448273,1483037.4753649088,1500672.1759096764,1518275.0309897491,1535846.840626053,1553388.3187883794,1570900.100018655,1588382.7455757086,1605836.7491357333,1623262.5420802257,1640660.4984009138,1658030.9392490918,1675373.965751887,1692690.0438403054,1709979.307224409,1727241.888085333,1744477.8949129907,1761687.4077265519,1778870.4784147486,1796027.1324981935,1813157.3712016495,1830261.1735067621,1847338.4980928665,1864389.2851451302,1881413.4580306385,1898410.9248490536,1915381.5798658691,1932325.3048362667,1949241.9702271826,1968620.7022380845,1987975.559290101,2007304.9886912918,2026607.1518052476,2045879.93117479,2065120.9149340056,2084327.367803338,2103496.1919170287,2122623.8772952375,2141706.4389260053,2160739.3336694217,2179717.3436874854,2198634.4005258353,2217483.2983575813,2236255.1902991207,2254938.638944976,2273517.6973189823,2291967.728017442,2308614.3175085485,2325178.38913881,2341633.923909951,2357968.9095126907,2374173.864010793,2390241.142932255,2406165.1700218837
E4,0.0,65.14879765829251,96.36365640074594,113.11776698284855,123.46318770831272,130.7874613446636,136.54784608406788,141.39327870680398,145.6288784466944,149.40991104079467,152.82371495965583,155.9249320163136,158.75111014716737,161.32994680240688,163.6828942102276,165.82712379578203,167.7767080497005,169.54339846567908,171.1371738455575,172.56664457828595,173.83935876858374,174.96203737562467,175.94075603410954,176.78108594873498,177.48820300467304,178.06697205413042,178.52201177271172,178.85774430556685,179.07843302082554,179.18821098377316,179.19110221170985,179.09103733254523,178.8915232813851,178.59654536348063,178.20984563510027,177.73506045945226,177.17575589537148,176.53543581284694,175.8175430576012,175.02545893568976,174.16250229792757,173.23192851448178,172.2369284125373,171.18062721192047,170.06608348856014,168.89628819284587,167.67416374542563,166.40256322761365,165.08426967843775,164.785196563459,165.3750364906848,166.8414329243347,169.24128538374697,172.68323705987186,177.32641694813555,183.38960075376346,191.1697520034416,201.07216846235238,213.65785795260894,229.71886214026233,250.40143134106802,277.4150726426096,313.40363456367544,362.64025385806485,432.41488717775064,536.0260809593173,699.8490364771703,866.8651884160726,1055.1548943220437,1266.4184693464513,1498.3787568993826,1746.6151594438948,2005.0708055144617
I4,0.0,0.0,11.989806010751689,24.92838659439082,35.77491549774592,44.18677569145238,50.58183103642628,55.478989649484944,59.30902494565663,62.38655428077553,64.92892274867896,67.08261093821055,68.94556333205908,70.58345683905468,72.0407949672512,73.34822783071225,74.52730567985793,75.59354852751358,76.55843109403854,77.43067468296609,78.21709670877932,78.9231767526554,79.5534394701906,80.1117177978869,80.60133680687544,81.02524409554394,81.38610353698036,81.68636346342618,81.92830671368924,82.11408760962999,82.24575938236237,82.32529453966029,82.35459996816653,82.33546520658362,82.26969742277944,82.15906959524548,82.00531473738653,81.81012894493134,81.57517471793847,81.3020831683257,80.99245524953486,80.64786232583108,80.26984632516917,79.85991963540431,79.41956484613365,78.9502344030394,78.4533502198361,77.93030327903197,77.38245324339074,76.81112809343912,76.41329240777773,76.28314351859208,76.47492576224374,77.03165737200709,77.99914368268907,79.43415355898381,81.41101120037183,84.02896347938923,87.42214840848575,91.77429513580711,97.34140632580379,104.48803634096771,113.74753079382788,125.92646368093378,142.29519576670262,164.95756713486506,197.62330984248052,247.3722828162632,307.95886105978894,378.9631289815736,460.44605856303394,552.0251513407021,652.6573535919813
A4,0.0,0.0,1.332200667861299,3.036260866282351,4.742106864260485,6.318332868386703,7.729084697104345,8.975477871864497,10.071674648154449,11.035244086677066,11.883416400476502,12.631761708048222,13.293853451897773,13.8813181881648,14.404023535400551,14.870302256138388,15.287171691736331,15.660533477788933,15.995349224178968,16.29579227118128,16.565377361278323,16.80707063651019,17.023382444607858,17.216445301883233,17.388079144633622,17.539845761420086,17.673094062430955,17.788997621193428,17.888585723136245,17.972768976444158,18.042360382998034,18.098092629758746,18.140632242070367,18.170584152065594,18.18851379930017,18.194950055171006,18.190390375274497,18.17530564494176,18.150144221617815,18.11533519257899,18.071290970567574,18.01840935157741,17.95707514011421,17.88766142768057,17.81053059379902,17.726035085634685,17.63451802162024,17.53631365586623,17.43174773313427,17.321137758441267,17.226534156943487,17.162912667102063,17.142001206024815,17.17434562200439,17.270604193101825,17.442557504411504,17.70410367741604,18.07243369295129,18.56958810112239,19.224671157644096,20.077162397706335,21.18208464544123,22.618413159602678,24.503391105975147,27.018192613462602,30.456826276863804,35.3264354172201,42.57207021275107,51.783821877982085,63.00348109635237,76.29924945198076,91.67912358412703,109.05910584369718
IH4,0.0,0.0,0.0,2.397961202150338,7.201600177863724,13.809882453672353,21.598876960059144,30.07559037708939,38.88823600367207,47.79788728641265,56.64667896527965,65.33219895052642,73.78910576090529,81.976607131738,89.87014287586761,97.45591796484335,104.72731462603527,111.68252751715445,118.32299234886754,124.652330785663,130.67563381842822,136.39896944449163,141.8290409326914,146.97294761238612,151.83801646317733,156.43168326004078,160.7614088197077,164.8346203545899,168.6586709156422,172.24081192355348,175.58817518049673,178.70776173267566,181.60643565183898,184.29092130930533,186.7677905115655,189.04347760789105,191.12428308735875,193.01637574766895,194.72579530880307,196.25845549266944,197.62014731046744,198.81654234642838,199.85319590613489,200.73554995641277,201.46893582128655,202.05857662164328,202.5095894605606,202.82698736512785,203.01568100100846,203.08048017913558,203.02609517553043,202.89627160699024,202.7502736608169,202.65371542202004,202.67583360784545,202.8897699803085,203.3744676053904,204.21774152097598,205.52058976637866,207.40317083861112,210.01326737640215,213.5386438099338,218.22572153079528,224.4088842692499,232.55844621579834,243.36309037720318,257.8799872340668,277.82799985171135,306.21147765666007,344.55757349959623,394.1935251393412,456.3580090714065,532.119169460902
IN4,0.0,0.0,0.0,2.397961202150338,7.359658909006998,14.441045419466112,23.133990103561928,33.01901640981156,43.78462417561043,55.208582922985656,67.1338079499109,79.44825442014758,92.07029406358821,104.93870378936414,118.00600811928143,131.23410703153885,144.59141152736592,158.05095854806385,171.58915866808593,185.18495330021278,198.81923870380388,212.4744656585217,226.13435635246756,239.78370068298102,253.40820723572858,266.9943925247464,280.5294974186077,294.00142315181773,307.3986816129848,320.71035613959276,333.92607010012284,347.0359612755941,360.03066057077024,372.90127395869587,385.63935426042565,398.2369002023773,410.68634511940263,422.9805446156859,435.1127649585153,447.0766722525178,458.8663221636578,470.4761499919282,481.90096095717513,493.1359206126372,504.1765453335917,515.0186928494825,525.6585528015955,536.0926373175467,546.3177716001777,556.3310845328541,566.1299993062133,575.7513577947068,585.2504729204782,594.6929533437221,604.1523552846863,613.7106604683773,623.4603845754904,633.5079829698099,643.9786958359896,655.0233385593268,666.8279642008949,679.6279658240468,693.7292934339998,709.5415066584254,727.6313843280279,748.8141096380882,774.3174819686803,806.0989691174897,847.5124359895674,900.6290838416295,967.415418799528,1049.8304763241395,1149.7372018290384
D4,0.0,0.0,0.0,0.0,0.00427491309691296,0.01711340893724317,0.041732676052612966,0.08023760345192611,0.1338542070421406,0.20318136265202413,0.2883920050019601,0.38937763795888397,0.505847192467639,0.6373931133707468,0.7835351239894759,0.9437491635064502,1.1174865783178283,1.3041869171297713,1.5032865102138022,1.7142242473233595,1.9364454746553559,2.1694046142598085,2.4125669057767882,2.665409538952867,2.9274223597093814,3.1981082759809443,3.476983451668029,3.763577351279613,4.057432680025809,4.358105251608145,4.665163807040418,4.978189801401395,5.296777170732453,5.620532087849353,5.949072713294349,6.282028923354553,6.6190420650130815,6.959764717312702,7.303860456585907,7.6510036263444166,8.000879112658861,8.35318212539894,8.707617985327591,9.063901916807765,9.421758845750228,9.78092320236751,10.141138728277133,10.502158287500652,10.863743680924472,11.225665463817231,11.587702766033237,11.949643114568767,12.311352022965506,12.672800656704066,13.034077153345796,13.395393080701494,13.757090398464895,14.119651800360954,14.483716530460484,14.850103884888783,15.219847369714218,15.594243947285108,15.974925312897497,16.36396246421534,16.76402251421364,17.178611018245373,17.612461266291835,18.072191195979638,18.56748301062208,19.11337485202705,19.727627360480117,20.43036728046937,21.243929580022442
R4,0.0,0.0,0.0,0.2664401335722598,1.0754353489180986,2.6313156387604906,5.063134031420809,8.441438734732994,12.796260172928102,18.13126789509596,24.43371107659941,31.681011367725908,39.84499207629152,48.89453108198295,58.79719537057214,69.5202300238026,81.03114303548482,93.29803939514619,106.28980095689022,119.97617243330957,134.32779109704396,149.31618353242567,164.91374388712725,181.09370252074083,197.83009047597696,215.09770302550103,232.87206418678733,251.12939324636187,269.84657380500545,289.0011255290068,308.57117859524203,328.53545070277545,348.8732264609208,369.56433893409263,390.5891517177043,411.9285441983387,433.5638985093196,455.477087670436,477.65046473416015,500.0668528180317,522.7095359086254,545.5622503255814,568.6091767413473,591.8349326622176,615.2245652871447,638.7635446714932,662.4377571328959,686.2334988454123,710.137469576263,734.1367665265499,758.2188782436436,782.3760267696547,806.6070406225172,830.918040350434,855.3227758002064,879.8429966283927,904.5090505029102,929.3608420067411,954.449288295405,979.8384541290259,1005.6086407506929,1031.8608611263012,1058.7234058953495,1086.361687730603,1114.9934517580223,1144.913210611899,1176.5334832857156,1210.45886461001,1247.6299552873966,1289.1616285505054,1336.3110372563087,1390.4670291952525,1453.1314662544112
G4,0.0,0.0,11.989806010751689,29.724308998691495,50.542192539802926,73.26401893260775,97.3337845541626,122.46367558179179,148.48530673775747,175.28644605113902,202.78343623135268,230.90869352035585,259.6046902894886,288.8208091293078,318.5115299931262,348.63528084348775,379.1536498249183,410.03081494451715,441.23311692204754,472.7287329485905,504.4874248475902,536.480343574978,568.6798769935754,601.0595311093479,633.5938372374911,666.2582792489098,699.0292363285638,731.8839376698018,764.8004263054353,797.7575298868518,830.7348367034361,863.712675613679,896.6720988580494,929.594804083733,962.4632223825623,995.2604735241401,1027.9703465043794,1060.577286606879,1093.0663839578585,1125.4233622954212,1157.6345676439605,1189.6869568200707,1221.5680857497412,1253.266097590044,1284.7697106549351,1316.0682061502944,1347.1514157283068,1378.0097088754371,1408.6339801514087,1439.0156362988134,1469.3422518505276,1499.7774199244532,1530.4824595755417,1561.6291614902025,1593.4093107496874,1626.0439780990578,1659.7944971640393,1694.9768539232055,1731.9816242440577,1771.3026303347733,1813.5794595790928,1859.6626521245782,1910.7173611138255,1968.3953063184626,2035.134623876605,2114.7150735514483,2213.36384311301,2342.1621400237846,2501.6976313938158,2695.885443739516,2928.953624913606,3204.711141116488,3526.153403904048
H4,25529.031650171044,25954.515511007226,26378.1421010223,26800.027399140912,27220.277556660345,27638.990198540214,28056.255047883424,28472.154505611834,28886.764188539448,29300.153428817128,29712.38573751041,30123.519234874642,30533.60704970859,30942.697689997425,31350.835386898147,31758.060413973788,32164.409383446535,32569.915521113482,32974.60892145124,33378.516784326646,33781.66363462951,34184.07152604932,34585.76023013058,34986.747411660275,35387.0487913658,35786.678296831706,36185.64820247874,36583.96925938836,36981.65081569998,37378.70092825622,37775.12646612314,38170.93320656766,38566.12592403279,38960.70847261262,39354.68386249308,39748.05433079138,40140.82140719582,40532.98597477916,40924.54832633199,41315.50821653773,41705.864910288015,42095.61722741567,42484.763584102904,42873.3020312037,43261.23028970245,43648.54578351491,44035.2456698229,44421.32686712031,42317.52018773914,40229.91359153571,38160.48568639942,36111.44469955796,34085.25049964176,32084.637455647087,30112.63750273198,28172.602445950848,26268.224078422267,24403.550097179563,22582.99305155335,20811.328655715806,19093.67877336201,17435.47333229369,15842.384536601901,14320.226329585199,12874.81258905619,11511.76961006762,11867.455452215227,12220.652215915674,12571.378640125633,12919.65330780399,13265.494648048467,13608.920938147643,13949.950305553944
E_Om,0.0,0.0,0.0,0.0,0.0,0.0,0.0,0.0,0.0,0.0,0.0,0.0,0.0,0.0,0.0,0.0,0.0,0.0,0.0,0.0,0.0,0.0,0.0,0.0,0.0,0.0,0.0,0.0,0.0,0.0,0.0,0.7490896368375938,1.0431002956590087,1.2103729265550043,1.3497456503584815,1.4914120708426934,1.645062771447668,1.8143323108562184,2.001143405731751,2.2070142262673826,2.43345154573973,2.682069167123319,2.9546245957845825,3.25303218445613,3.579370226564678,3.9358871447764816,4.325008205119082,4.749343082696366,5.211694290813059,5.766563987589818,6.421998904555094,7.1971061216939844,8.11965352396289,9.227162453459723,10.570036067357012,12.21671739617716,14.261678893414569,16.837883816345094,20.13668775451414,24.440599161457133,30.179148753349867,38.02815818858601,49.0947853523072,65.28259012681995,90.06233155654513,130.23862823348387,200.42201027297847,287.9453818037395,408.4516377914627,569.9063323526987,781.199146320308,1050.9417038209838,1386.6423811844913
I_Om,0.0,0.0,0.0,0.0,0.0,0.0,0.0,0.0,0.0,0.0,0.0,0.0,0.0,0.0,0.0,0.0,0.0,0.0,0.0,0.0,0.0,0.0,0.0,0.0,0.0,0.0,0.0,0.0,0.0,0.0,1.0,0.6,0.49786040192875264,0.49068555823209004,0.5171650481570623,0.5587025158862061,0.6096968959431145,0.6685709774359151,0.7350473280394771,0.8093133398592336,0.8917608480362783,0.982902256075852,1.0833420059536933,1.1937662093218535,1.3149388453971942,1.447700785131099,1.5929703446342258,1.7517448528799084,1.9251029846996421,2.1142077118533247,2.329787245072038,2.579759409191861,2.872391313702089,3.2177535496733265,3.6287937966224906,4.122556721044388,4.721865190426524,5.457799376454235,6.3734775752750075,7.5299873223679485,9.015973219857585,10.963671683773871,13.576800927892794,17.18135018060619,22.32323891801581,29.96876779964611,41.950020561070275,62.05512932777706,90.2257557981376,129.3057724704887,182.4674615730559,253.250224917887,345.36256327385996
A_Om,0.0,0.0,0.0,0.0,0.0,0.0,0.0,0.0,0.0,0.0,0.0,0.0,0.0,0.0,0.0,0.0,0.0,0.0,0.0,0.0,0.0,0.0,0.0,0.0,0.0,0.0,0.0,0.0,0.0,0.0,0.0,0.0,0.015317822436528069,0.03358418206864895,0.05161775823467563,0.0688945940312926,0.08561294038185528,0.10212955673548937,0.11880417223038353,0.13596388701047876,0.15390142562179837,0.17288177908122593,0.1931499401881121,0.2149378416782272,0.23847017554303535,0.26396919353362636,0.2916586741108529,0.3217672332997238,0.3545311280810787,0.3901966714685896,0.4300754058370987,0.47538110935286104,0.5274755172808413,0.5880158317637924,0.6590950728353111,0.7434183297205704,0.8445492368653332,0.9672705297365245,1.1181273070561604,1.3062685986674776,1.5447905263158506,1.8529532823703827,2.2599846167439144,2.8119065404918557,3.5844617667992735,4.709216574421266,6.430568801901748,9.24280137386972,13.282316454814817,18.97811082958587,26.836266229308997,37.4434294250087,51.44501335368782
R_Om,0.0,0.0,0.0,0.0,0.0,0.0,0.0,0.0,0.0,0.0,0.0,0.0,0.0,0.0,0.0,0.0,0.0,0.0,0.0,0.0,0.0,0.0,0.0,0.0,0.0,0.0,0.0,0.0,0.0,0.0,0.0,0.4,0.64,0.8391441607715011,1.035418384064337,1.242284403327162,1.4657654096816446,1.7096441680588903,1.9770725590332563,2.2710914902490473,2.5948168261927407,2.951521165407252,3.3446820678375926,3.77801887021907,4.255525353947811,4.781500892106689,5.360581206159128,5.997769344012818,6.698467285164783,7.4685084790446385,8.314191563785968,9.246106461814783,10.278010225491528,11.426966750972364,12.714068170841696,14.165585689490692,15.814608377908447,17.703354454079054,19.88647420466075,22.435865234770752,25.44786016371793,29.05424945166097,33.43971812517052,38.87043849632764,45.742978568570116,54.67227413577645,66.65978125563488,83.43978948006301,108.26184121117382,144.35214353042886,196.07445251862433,269.0614371478467,370.3615271150015
G_Om,0.0,0.0,0.0,0.0,0.0,0.0,0.0,0.0,0.0,0.0,0.0,0.0,0.0,0.0,0.0,0.0,0.0,0.0,0.0,0.0,0.0,0.0,0.0,0.0,0.0,0.0,0.0,0.0,0.0,0.0,0.0,0.0,0.1378604019287526,0.3298297190035911,0.5525834322213993,0.8009869192133681,1.0754623056247588,1.3782151454948053,1.7121198870727334,2.080404830108281,2.486577674229019,2.934423421483104,3.428024073791286,3.9717850795409237,4.570464199345006,5.229201677237788,5.953551550793355,6.7495141968927275,7.623570269864425,8.582716190897965,9.643978808858009,10.825865871006647,12.150401539193618,13.644720300645693,15.342861967464188,17.28814241053508,19.536473568334973,22.161153830533294,25.25995177993576,28.9658525571387,33.46383338357552,39.01792113543483,46.016519053063305,55.051788676933825,67.06621748658591,83.64104193542255,107.60980181670516,144.49491880784004,197.4875970093114,272.65791600091757,377.54191409168027,521.3116620657337,714.7240903888614
beta,1.0,1.0,0.9939494354732638,0.989946203746198,0.9867630019580418,0.9839188259802711,0.9812230160713781,0.978599988565389,0.9760201519562305,0.973472354284609,0.9709528236994192,0.9684607118652183,0.9659962940421812,0.9635602420080801,0.9611533315020369,0.9587763260745436,0.9564299326662984,0.9541147863507078,0.9518314468906113,0.9495804000212634,0.9473620605594467,0.945176776151124,0.9430248311717906,0.9409064505821332,0.9388218036609168,0.9367710075853474,0.9347541308503126,0.932771196525694,0.9308221853550195,0.9289070386999303,0.9270256613357274,0.9251779241033062,0.9233550997085483,0.9215690734591407,0.9198169144530153,0.9180975441808689,0.9164104204082252,0.9147551452833802,0.9131313489890899,0.9115386557455796,0.9099766744431198,0.9084449966070631,0.9069431964979777,0.9054708317831751,0.9040274443090505,0.9026125608334935,0.9012256936781722,0.8998663412896403,0.8985339887076652,0.9255031906473603,0.9553035112167144,0.9884047960427829,1.0253831448817696,1.0669549449715874,1.1140229378384876,1.1677406108791255,1.229604470229988,1.3015894731661926,1.3863529717644076,1.4875507496727467,1.6103429711822146,1.7622350144978605,1.9545365232007834,2.205023228227927,2.543082302566051,3.0203302875764524,3.734056989560426,3.5637797018443327,3.3864498160436174,3.1957366630282986,2.9948818144166935,2.7888107245124485,2.5827960398681946
