series,2021-11-15,2021-11-16,2021-11-17,2021-11-18,2021-11-19,2021-11-20,2021-11-21,2021-11-22,2021-11-23,2021-11-24,2021-11-25,2021-11-26,2021-11-27,2021-11-28,2021-11-29,2021-11-30,2021-12-01,2021-12-02,2021-12-03,2021-12-04,2021-12-05,2021-12-06,2021-12-07,2021-12-08,2021-12-09,2021-12-10,2021-12-11,2021-12-12,2021-12-13,2021-12-14,2021-12-15,2021-12-16,2021-12-17,2021-12-18,2021-12-19,2021-12-20,2021-12-21,2021-12-22,2021-12-23,2021-12-24,2021-12-25,2021-12-26,2021-12-27,2021-12-28,2021-12-29,2021-12-30,2021-12-31,2022-01-01,2022-01-02,2022-01-03,2022-01-04,2022-01-05,2022-01-06,2022-01-07,2022-01-08,2022-01-09,2022-01-10,2022-01-11,2022-01-12,2022-01-13,2022-01-14,2022-01-15,2022-01-16,2022-01-17,2022-01-18,2022-01-19,2022-01-20,2022-01-21,2022-01-22
S,1286128.2594188552,1189852.7305576734,1148745.592540796,1118169.9406672209,1092790.3529400143,1070685.1129795925,1050973.8354558754,1033185.4160377979,1017032.0985620904,1002316.0821939489,988887.409173832,976623.8075450326,965420.5759109228,955185.277963197,945834.8200399514,937293.7408806125,929493.1320552294,922369.8940720453,915866.1762878131,909928.921682159,904509.4752485165,899563.2343885703,895049.3299441942,890930.331821119,887171.9758829814,883742.910154678,880614.4590251698,877760.404430949,875156.7831170991,872781.699109849,870615.1505417925,868638.1899109499,866834.9873613125,865190.2489205729,863690.0349978311,1215912.9638404516,1567332.5970302133,1917954.9831345815,2267787.116886646,2616791.4552952396,2964858.707551422,3311792.0592387905,3657294.096958954,4000949.03969909,4342195.142659032,4680284.021835115,5014224.909614271,5342712.9823316615,5664042.802314692,5976011.665003477,6275824.198327348,6560019.187493455,6824450.785401553,7064364.501920851,7274606.022750874,7449980.340824606,7585738.943031016,7678125.612269014,7724878.43927017,7725585.01904709,7681820.807292854,7597051.653866896,7476330.373081382,7325850.418265648,7152433.464227713,6609433.172633893,6102348.990804713,5630685.224693521,5196518.128317006
E,0.0,96275.52886118174,118076.04581914059,124973.30818158014,125291.36332535962,122271.28948806782,117462.88396818178,111695.874337084,105450.2505119335,99019.79226410633,92591.52313922162,86287.27609803756,80186.88175847832,74341.89681064637,68784.19637317407,63531.63108383983,58591.91907069205,53965.42176814461,49647.179281823024,45628.43272730251,41897.77766995668,38442.04425613897,35246.97020969221,32297.714277318715,29579.245439759376,27076.63476317288,24775.270724622314,22661.014376588166,20720.307317957093,18940.242801547003,17308.60822941419,15813.905631218577,14445.351614253168,13192.87838809082,12047.108513725769,10999.330818694209,10964.792036130106,11734.238274579166,13139.41311901738,15090.305865196227,17586.657546947907,20715.72073077652,24647.756996478456,29637.111912979213,36032.87309999672,44300.42583300458,55053.6866063746,69096.6961907345,87471.6003955908,111506.87561170568,142854.31377802585,183495.95179724216,235694.73668011333,301859.80789789604,384305.5876781841,484908.7848529527,604706.5017146524,743517.2322594058,899683.0249336709,1070011.7574822349,1249949.3137626066,1433954.1267973837,1616003.0223507583,1790138.2732168706,1950970.1769807776,2094070.0333569914,2171717.086998734,2197509.471658749,2179866.30186939
I,19979.246716548634,15184.227504576962,13470.891199232634,12605.981406169543,12086.979758699945,11698.917342254917,11343.420048670687,10976.805908671355,10582.51743743057,10157.597506045198,9705.690671290426,9233.317694485497,8747.877806088545,8256.595484459858,7765.995341432388,7281.675361528147,6808.2480209788255,6349.373594595805,5907.841140075318,5485.670866846473,5084.222468046534,4704.300585927683,4346.252617260361,4010.0565428920613,3695.3979757458974,3401.7365232230663,3128.362075928112,2874.441905615042,2639.059571567642,2421.246654888071,2220.008302671209,2034.3434938525666,1863.260851961753,1705.790661812913,1560.9940227395223,1427.9692986278314,1305.8565369018768,1212.358136673382,1156.7311767560554,1142.6365278273938,1171.0512190860468,1242.712598961307,1359.930968244365,1527.8768798482834,1755.5810460762127,2056.9080236050477,2451.728527977356,2967.456861019035,3641.0535357914036,4521.509561913086,5672.70170200539,7176.304227978722,9134.140830462145,11668.982622254736,14922.452756987728,19048.602313613203,24202.148922266188,30521.47785000539,38108.12166008361,47005.99363254147,57184.44744242667,68528.85565102591,80840.96110241546,93849.28905902908,107228.03201076631,120621.48170571213,133670.4789502017,145144.9870406552,154382.89890389924
A,179790.8507811761,144014.83504482242,132733.5188839885,127631.57898577626,124789.67133314504,122570.66832171379,120248.15684104354,117519.97681523989,114293.84272585502,110582.46091715983,106449.0305137085,101977.9287289539,97258.73115101324,92377.59677983442,87412.84502383028,82432.96355873764,77496.03358428815,72649.9718675793,67933.22560042042,63375.69633048161,58999.75479296272,54821.2619761503,50850.54585383637,47093.30522278375,43551.42635469345,40223.70738973853,37106.49125844844,34194.21152225822,31479.85760295112,28955.36692408965,26611.95185489538,24440.36926611925,22431.14014375891,20574.725493514703,18861.66742749901,17282.69761928719,15828.819831016312,14658.011073350766,13859.04700689648,13472.671298127438,13515.275088087992,13999.941158196158,14952.89627293613,16425.87711096855,18506.229549431788,21326.92188324264,25078.45588649316,30024.225221033623,36520.32441069888,45040.07562587735,56202.37867387166,70801.09473585429,89829.83374271849,114492.9054673896,146189.77774321282,186459.1480710218,236872.24052610155,298874.80177333637,373592.135815765,461626.3999708724,562883.8180861587,676467.350409098,800658.3180204313,932992.9780724891,1070422.5935521661,1209532.3561620037,1346787.6707119702,1470744.6701259871,1574690.8484759508
IH,0.0,799.1698686619454,1366.3842765003424,1836.5652586733195,2248.5253689902984,2619.0262702892005,2955.3886706382564,3260.6304811170867,3535.870697572896,3781.5097919502036,3997.8098291229544,4185.165488654591,4344.212449687981,4475.850420565792,4581.222882466522,4661.676846254552,4718.715560936201,4753.951243064004,4769.0615135507,4765.751262709619,4745.720526159242,4710.638308098104,4662.121938458715,4601.721379487799,4530.907834032654,4451.0660081298565,4363.489416860171,4269.378177612175,4169.838798142286,4065.8855315390488,3958.442932478097,3848.3493068037697,3736.3607984186847,3623.1559033356207,3509.3402375862124,3395.451431693065,3281.9640372179856,3169.2943635376378,3058.5458983189556,2951.136967088113,2848.5610657183515,2752.2757297988965,2663.6947542467574,2584.2533091732953,2515.5212759616998,2459.350885006925,2418.0558827224145,2394.628588790054,2393.007544356047,2418.411817106539,2477.757880429304,2580.16975652992,2737.5799974017264,2965.3945455815947,3283.1561087804057,3715.0903876677617,4290.367893546238,5042.882155899284,6010.359117442153,7232.690464437634,8749.520036492813,10597.273895539327,12805.962760142034,15396.159158967463,18376.54295412065,21742.325583261787,25474.730757699755,29541.559245073906,33863.02821151911
IN,3995.849343309727,7317.464669541216,9119.608064574324,10275.002068260412,11062.460331676004,11613.247603415908,11993.486076486817,12238.466087054729,12368.786912208394,12398.260542033378,12337.776994119997,12197.117685616933,11985.717732275883,11712.900074958314,11387.859456888176,11019.544081594446,10616.511886977507,10186.799294572837,9737.818766597062,9276.289845422712,8808.202302779819,8338.807173320158,7872.6303942017985,7413.503704298188,6964.607895584433,6528.524176161486,6107.290139093195,5702.457545165428,5315.149775341868,4946.117370336556,4595.790545652543,4264.327954404227,3951.661275383063,3657.535440169431,3381.544475917459,3123.163130904947,2881.7744537972994,2656.6936031601663,2450.891773137445,2268.6902333721555,2114.4132842893105,1991.850977405408,1904.3013249124924,1854.967913713681,1847.5478885658158,1886.9207041674335,1979.9153986289252,2136.1828650315906,2369.228426955931,2697.670708821348,3146.7849495745913,3750.356958803389,4552.8065994309045,5611.423349431243,6998.384249874433,8802.01228107957,11126.537585335931,14089.546704544742,17816.462434306854,22431.851043918585,28048.042944490197,34752.28536826342,42594.178520755435,51575.301955404546,61642.67375440872,72687.0903273045,84546.6327474409,97014.87141171447,109674.20098495414
D,38145.0,38145.0,38145.79916986866,38147.16555414516,38149.002119403835,38151.25064477282,38153.86967104312,38156.82505971375,38160.085690194865,38163.62156089244,38167.40307068439,38171.40088051351,38175.586046002165,38179.93025845185,38184.40610887243,38188.98733175488,38193.64900860114,38198.367724162075,38203.121675405135,38207.89073691869,38212.6564881814,38217.40220870755,38222.112847015655,38226.774968954116,38231.3766903336,38235.90759816763,38240.358664175765,38244.72215359262,38248.991531770225,38253.16137056836,38257.227256099904,38261.18569903238,38265.034048339185,38268.77040913761,38272.39356504094,38275.902905278526,38279.29835671022,38282.58032074743,38285.74961511096,38288.80816100929,38291.75929797638,38294.6078590421,38297.3601347719,38300.02382952614,38302.608082835315,38305.12360411127,38307.58295499627,38310.00101087901,38312.39563946779,38314.78864701216,38317.20705882926,38319.68481670969,38322.26498646622,38325.00256646363,38327.967961009206,38331.251117117994,38334.96620750566,38339.2565753992,38344.299457555106,38350.30981667254,38357.54250713697,38366.29202717348,38376.88930106901,38389.695263829155,38405.09142298812,38423.46796594224,38445.2102915255,38470.6850222832,38500.22658152827
R,0.0,36450.24975343193,66381.36630578851,94399.66413806388,121620.85108260077,148429.69360978255,174908.16552794995,201005.2115332109,226615.75372260384,251619.88148375307,275902.56286790955,299363.1921385947,321919.6234054205,343509.1584677759,364087.8610332744,383628.98711556755,402120.99707218644,419565.42669572553,435974.7819942048,451370.55280804896,465781.3967632867,479241.51736297645,491789.2424552303,503465.798343036,514314.2681867586,524378.7196466181,533703.4849555916,542332.5761481088,550309.2185450603,557675.4864970718,564472.0265968861,570737.8549362125,576510.2163984561,581824.495376452,586714.1685028387,591210.7917375097,595344.0146135184,599141.6157999657,602662.7142598834,605984.6498277695,609193.6687816334,612380.0822237749,615637.5158440918,619065.4402223199,622774.2320855118,626892.3499841199,631575.6259531972,637019.0656062091,643471.8622208535,651256.5399609917,660793.2064830093,672629.7277558523,687478.0878053639,706256.06871903,730131.5197298931,760563.9068540835,799334.9727429942,848558.1366262796,910656.0122174432,988298.1548051003,1084296.924068322,1201466.9256593485,1342460.7814710836,1509598.9659994561,1704712.9809308592,1929019.1569802477,2183035.6607738286,2466549.075151467,2777032.3865723684
G,2991850.0,2991850.0,2993780.878295754,2996148.982390507,2998655.416280518,3001168.229006161,3003620.471874718,3005976.2785463994,3008216.4234932396,3010331.307746838,3012317.2243135343,3014174.217097839,3015904.773456118,3017512.981807951,3019003.964581194,3020383.4834832335,3021657.658229451,3022832.7633281024,3023915.0805362854,3024910.7921366747,3025825.9047459182,3026666.1962561305,3027437.1804280854,3028144.08498186,3028791.8399850084,3029385.0740466644,3029928.1163649424,3030425.003092852,3030879.4868161525,3031295.0481966496,3031674.909041605,3032022.046225428,3032339.2060220623,3032628.9184363843,3032893.5115561457,3033135.1253974917,3033355.7252674364,3033575.6324360645,3033810.9714289485,3034074.492262441,3034377.139720379,3034729.853392835,3035145.3227858683,3035639.652129851,3036234.046747243,3036956.71317583,3037845.191605868,3038949.3347856235,3040335.12110704,3042089.4299817523,3044325.7844167035,3047190.835351158,3050870.984968357,3055598.0205594595,3061652.046523534,3069359.584741837,3079084.795905757,3091212.64057484,3106124.4390689195,3124168.2602397967,3145628.152521492,3170696.828116274,3199455.8589239097,3231866.0175451026,3267768.5898710075,3306896.7672485374,3348894.9201023984,3392450.3431408997,3436523.0518939015
H,10607739.843929,10607739.843929,10607739.843929,10607739.843929,10607739.843928998,10607739.843929,10607739.843929,10607739.843929,10607739.843928998,10607739.843929,10607739.843928998,10607739.843928998,10607739.843929,10607739.843928998,10607739.843929,10607739.843929,10607739.843928998,10607739.843929,10607739.843928998,10607739.843928998,10607739.843929,10607739.843928998,10607739.843929,10607739.843928998,10607739.843929,10607739.843929,10607739.843929,10607739.843929,10607739.843929,10607739.843929,10607739.843929,10607739.843929,10607739.843929,10607739.843929,10607739.843929,10254148.515798032,9900557.187667066,9546965.859536098,9193374.531405132,8839783.203274164,8486191.875143198,8132600.54701223,7779009.218881264,7425417.890750296,7071826.56261933,6718235.234488363,6364643.906357397,6011052.57822643,5657461.250095464,5303869.921964496,4950278.59383353,4596687.265702563,4243095.937571596,3889504.60944063,3535913.281309663,3182321.9531786963,2828730.6250477294,2475139.296916763,2121547.9687857963,1767956.6406548296,1414365.3125238628,1060773.984392896,707182.6562619294,353591.32813096273,0.0,0.0,0.0,0.0,0.0
S0,450144.89079659927,396186.209481385,372602.46087791014,354930.271686519,340198.77050089155,327337.77131956763,315853.74358411,305479.0711487993,296047.3248669351,287441.9631171143,279573.3095698323,272367.5733465498,265761.34267134813,259698.68072695716,254129.50016026868,249008.5827519092,244294.93285556647,239951.30869923066,235943.85255636158,232241.77948272362,228817.10395950533,225644.39378101972,222700.54558443706,219964.5789408839,217417.4471511503,215041.86345878814,212822.14164266142,210744.05005193638,208794.6781857168,206962.3149389859,205236.33765502743,203606.90115462907,202065.5307067912,200604.27781451328,199215.93909899166,307122.9513843785,413837.0692346487,519364.7378674271,623715.9195319745,726879.7345408975,828810.0463914303,929417.4417306916,1028563.0470213979,1126050.3657639483,1221612.568121021,1314893.7296673204,1405423.2708081445,1492583.5503135072,1575571.6793956647,1653358.6821812673,1724652.5780943108,1787876.8344982541,1841180.998771707,1882503.6554055926,1909705.1213780425,1920774.6694211937,1914094.5783954768,1888717.8826853565,1844600.4304212132,1782730.5956258026,1705122.0389832435,1614667.0769977903,1514878.441425677,1409567.0410327718,1302509.8942811063,1099129.1713837087,921072.6294389042,766667.6119235092,634910.2568260522
E0,0.0,53065.252128210406,64661.34081953835,68084.29724425076,67933.36783077072,65988.66993308361,63098.472612169695,59715.98970969002,56102.964103103266,52419.18358089313,48765.851583595635,45208.25786749904,41788.44930683025,38532.76804390581,35456.60519916394,32567.559673446667,29867.63206588254,27354.802465764067,25024.194308070266,22868.947394054703,20880.878921934276,19050.985602359375,17369.824251097165,15827.798242114206,14415.370495754714,13123.218965819307,11942.347142518045,10864.159480637247,9880.509639116424,8983.727820489112,8166.632222182268,7422.528584916671,6745.19917384743,6128.892081270885,5568.297963484032,5058.527738145682,5063.610399818073,5479.556151154857,6219.664317477847,7235.485029233214,8523.685984254946,10125.174843580278,12122.5793753338,14640.235273691947,17848.759795326485,21974.81141029827,27315.760383902416,34258.344710172845,43299.44965729942,55065.44655636826,70323.7642109297,89976.7228779746,115024.25266555646,146481.42510543147,185242.27342939388,231895.76183070065,286521.1994914955,348510.5113412199,416471.676463304,488254.08087642805,561106.2610900812,631942.1079996268,697666.0006596352,755497.2895943539,803239.8544698881,839458.7366617856,843710.206951852,824016.8425194353,786148.4038879903
I0,19979.246716548634,15184.227504576962,12604.276531059515,10876.082090052832,9631.304285923688,8682.246151640225,7921.959587496019,7286.176713086429,6735.143484493141,6243.896279025562,5796.667407971556,5383.5031391885395,4998.148071520472,4636.6913818427965,4296.689156099517,3976.592700129001,3675.377408052212,3392.30470292449,3126.772755436214,2878.2263721250306,2646.106019503046,2429.8223398621894,2228.746853590494,2042.2125260055934,1869.5199431806536,1709.946277210531,1562.755218224609,1427.206738936565,1302.5660284709302,1188.1112495523494,1083.1399822825108,986.9743510750529,898.9649120689232,818.4933865709988,744.9745239302026,677.8570507620128,616.6239450628588,570.1887213422269,543.240056862732,537.6024989655718,553.6910049786941,591.7541106397889,652.801137084377,739.2563305430949,855.4557642117842,1008.1167113988579,1206.890106271982,1465.0746436019163,1800.5336533755494,2236.8086749470303,2804.3536273767772,3541.7048522295695,4496.24668194215,5724.045561147157,7288.070012410807,9254.106623194552,11683.965320776819,14626.21225531374,18105.56229706778,22112.880718767636,26598.092943338765,31467.959618079218,36589.72459079104,41800.408174522985,46920.37778613482,51769.067813891845,56180.46921611048,59618.400722866725,61836.263401098
A0,179790.8507811761,144014.83504482242,124934.95717138716,111744.57846241602,101796.68458869409,93801.05117955727,87045.4659365574,81112.53247593164,75749.70653674073,70801.93602463497,66173.86056639928,61807.36037841174,57667.664201283995,53734.50839074551,49996.41571349189,46446.97053383982,43082.405287784044,39900.063173813716,36897.45150686441,34071.69349425164,31419.246663155674,28935.79661970986,26616.262570096376,24454.8704321283,22445.26309744786,20580.627192960077,18853.822680611047,17257.506612012818,15784.245870749684,14426.6161866941,13177.286381979295,12029.08791985368,10975.070532723148,10008.544792267878,9123.114278025274,8312.697146331815,7571.539382163737,6978.7795850098055,6579.040804677232,6392.4190111724,6426.26714075183,6685.873580364262,7182.857384656824,7941.438173223547,9003.456202301733,10433.218955028071,12323.144739184072,14800.931019936656,18038.66335894412,22263.86207272359,27771.821002823595,34937.57943316461,44224.39891424368,56183.82475221209,71440.851416074,90657.46220880342,114470.21032054216,143403.29689276565,177766.86895087603,217558.12733972972,262386.68853286654,311443.2679114151,363522.6389589234,417100.70380320493,470454.7902634025,521808.6609537017,569480.5460088477,608433.6551443179,636081.3624665955
IH0,0.0,799.1698686619454,1366.3842765003424,1801.9006719463948,2146.40654922859,2423.8114431209165,2649.315663105559,2833.0778474748367,2982.175493410133,3101.7403239274818,3195.6476711290966,3266.9474415564287,3318.138148375759,3351.3425496553627,3368.420311490817,3371.0399035563505,3360.7240146610557,3338.8778411131443,3306.806431347174,3265.725187809777,3216.766236701337,3160.9824386318865,3099.350178391782,3032.7716426416096,2962.077005831748,2888.026753322342,2811.3142463875893,2732.568555620611,2652.3575425544554,2571.1911437985696,2489.524800449747,2407.7629729416767,2326.2626843665007,2245.337041256933,2165.2586868026115,2086.2631550728224,2008.5520946735944,1932.2963413950954,1858.0146878775988,1786.3874068545172,1718.1335723069787,1653.9527262750735,1594.5192033864525,1540.5138288313683,1492.6801892448943,1451.8979523051446,1419.2712772772675,1396.2348817550185,1384.683343015263,1387.130577545356,1406.905850407431,1448.3893028270754,1517.28244729167,1620.895694221055,1768.4147965688476,1971.0827054101464,2242.2089275821563,2596.9066241423166,3051.472233769174,3622.371967186913,4324.879292982111,5171.497273540726,6170.371174477147,7323.926752346805,8627.948692867854,10071.248179020877,11635.97595706054,13298.539256313732,15015.083485949202
IN0,3995.849343309727,7317.464669541216,9119.608064574324,10101.679134625789,10572.4029361723,10714.744258512683,10643.256191235003,10431.773249582146,10128.818009666275,9766.774850203286,9367.571092790764,8946.280645524217,8513.44319539602,8076.568949911241,7641.118727652981,7211.143140852486,6789.699588552751,6379.12466269498,5981.212978277655,5597.335972600458,5228.52263672735,4875.516429665249,4538.81749236992,4218.715879294223,3915.3192960245274,3628.5773918112545,3358.303746186686,3104.196132104322,2865.855312915877,2642.802454432125,2434.495150422002,2240.3420328270563,2059.7159421288943,1891.9656529158815,1736.4261676413646,1592.4276460539072,1459.303017777579,1336.394365217099,1224.9374864788817,1126.8973944670558,1044.2724478662394,978.8068065855341,932.0000393132217,905.3005513518534,900.397202619181,919.5611002700042,966.0235940503201,1044.400983286539,1161.1903814871737,1325.365286851215,1549.0933748549264,1848.5800091841897,2245.003432596055,2765.4452733395356,3443.6308681494274,4320.188661028883,5442.049030135697,6860.58560775247,8628.216798628737,10793.459235789938,13394.816220993027,16454.279340129393,19971.48158924519,23919.566659842792,28243.61386746382,32862.04297544458,37670.92595123052,42550.669104284396,47294.62196319746
D0,38145.0,38145.0,38145.79916986866,38147.16555414516,38148.96745481711,38151.113861366335,38153.537672809456,38156.18698847256,38159.02006632004,38162.00224181345,38165.10398213737,38168.2996298085,38171.56657725006,38174.88471539843,38178.23605794809,38181.60447825958,38184.97551816313,38188.33624217779,38191.6751200189,38194.98192645025,38198.24765163806,38201.46441787476,38204.625400313394,38207.72475049178,38210.75752213442,38213.719599140255,38216.60762589358,38219.41894013996,38222.151508695584,38224.80386623814,38227.375057381934,38229.86458218238,38232.272345155325,38234.59860783969,38236.843944880944,38239.009203567744,38241.095466722814,38243.10401881749,38245.03631515888,38246.894329846764,38248.68071725362,38250.39885082593,38252.0528035522,38253.64732275558,38255.18783658442,38256.68051677366,38258.132414725966,38259.551686003244,38260.947920885,38262.33260422802,38263.71973480556,38265.12664065597,38266.5750299588,38268.092312406094,38269.713208100315,38271.481622896885,38273.45270560229,38275.69491452987,38278.291821154016,38281.343293387785,38284.96566535497,38289.29054464795,38294.46204192149,38300.63241309597,38307.956339848315,38316.584288541184,38326.6555367202,38338.291512677264,38351.59005193358
R0,0.0,36450.24975343193,66381.36630578851,92847.85287882175,116876.78309675014,139022.60549468288,159615.08066291356,178862.3258085363,196902.36037576507,213831.48674441205,229720.87101272526,244626.5945367507,258595.86726850623,271670.8815762967,283891.1693901939,295294.9918254579,305920.09900917416,315804.08224422304,324984.46762606455,333498.6523182043,341383.752300871,348676.4080262566,355412.5787340517,361627.3451259116,367354.73230760964,372627.55945983744,377477.31894623215,381934.08504625235,386026.45087220194,389781.49104392837,393224.74716579646,396380.2329404266,399270.4557600652,401916.4517639798,404337.83151862846,406552.8340059114,408578.3865752346,410430.1689757633,412139.5058976829,413746.8355003258,415296.9598409304,416836.5167157886,418413.5249883407,420078.6017967164,421887.4615871584,423904.4660525599,426207.1997613065,428892.2369222134,432082.41143908777,435935.9895609517,440658.1490184599,446515.04418167524,453850.4073993154,463104.0082333589,474830.2960962575,489714.22903775645,508579.9001304411,532386.6423281652,562207.5104334641,599186.921701771,644477.7336660946,699162.3716198432,764166.5502952047,840176.4993835693,927570.7610320528,1026375.6137207019,1136249.5717152017,1256498.084041119,1385403.0033611453
G0,2991850.0,2991850.0,2992914.263627581,2994211.0955540286,2995576.577451512,2996939.0323458505,2998262.4848581,2999527.972284689,3000725.6214672364,3001850.8086980474,3002902.1149339597,3003880.15084309,3004786.836528827,3005624.935376314,3006397.739082213,3007108.8480237066,3007762.014979661,3008361.0328524658,3008909.6540336795,3009411.533111673,3009870.187088361,3010288.968853401,3010671.0507286964,3011019.4156459733,3011336.85406939,3011625.965189783,3011889.1612373274,3012128.6740104132,3012346.5629172926,3012544.723985207,3012724.8994178297,3012888.6873823702,3013037.5517876223,3013172.831841021,3013295.751391157,3013407.427803732,3013508.8803902157,3013610.43491331,3013720.3315419527,3013845.071597703,3013990.184703468,3014161.133650324,3014364.201663322,3014607.329129681,3014900.95008268,3015258.920413278,3015699.641818887,3016247.4799817223,3016934.55690596,3017802.960004342,3018907.339038759,3020317.735134182,3022122.2861284297,3024429.1842113007,3027366.9795972398,3031082.153011002,3035732.9972981513,3041479.3959096745,3048469.0368927037,3056821.6902656998,3066613.993862775,3077867.402843917,3090541.478124968,3104533.6956104897,3119685.7631839872,3135795.343880417,3152631.3215579693,3169552.5656765923,3186078.8445283114
H0,3712708.9453751496,3704355.3502480555,3691019.6709871627,3677732.0001716088,3664492.1649709907,3651299.993177095,3638155.3132016575,3625057.9540741313,3612007.745439464,3599004.517555882,3586048.101292681,3573138.3281280273,3560275.0301467665,3547458.0400382383,3534687.1910941005,3521962.3172061616,3509283.2528642192,3496649.833153908,3484061.893754554,3471519.2709370377,3459021.8015616643,3446569.3230760423,3434161.6735129687,3421798.691488322,3409480.216198964,3397206.087420648,3384976.1455059336,3372790.231382112,3360648.1865491364,3348549.8530775597,3336495.0736064804,3324483.691341497,3312515.5500526675,3300590.494072478,3288708.3682938167,3167640.0508956937,3047400.803722384,2927986.2265136624,2809391.9399464275,2691613.585540981,2574646.825567712,2458487.342954182,2343130.84119261,2228573.0442477567,2114809.6964652045,2001836.5624800331,1889649.4271258889,1778244.0953444447,1667616.3920952515,1557762.1622659767,1448677.2705830312,1340357.60152258,1232799.059221937,1125997.5673913432,1019949.069226122,914649.527319217,810094.9235741046,706281.2591180829,603204.5542159352,500860.84818396467,399246.1993044017,298356.6847401791,198188.40045007595,98737.4611042273,0.0,0.0,0.0,0.0,0.0
S1,128612.82594188553,106241.08842555604,94461.39231676959,85138.19569668535,77278.53103448432,70477.98286461874,64517.20301908917,59254.07861364515,54585.113531412775,50429.191511412166,46719.8812878814,43401.36604062709,40426.042417278135,37752.95016909035,35346.65020691941,33176.36736378648,31215.30446206618,29440.077020863206,27830.238946394395,26367.88031941129,25037.284210649414,23824.632808803628,22717.755235446526,21705.910836337796,20779.602772817452,19930.417540478393,19150.886693879584,18434.36759891302,17774.940493829614,17167.319531884237,16606.775814222037,16089.054115614377,15610.369790105848,15167.296821314698,14756.748405582011,22310.838162771077,29511.74269218372,36392.3939019309,42982.756602060064,49308.45145884727,55390.1674485801,61243.53133968516,66879.08491263703,72302.11143139961,77512.15900606631,82502.18734183218,87257.31371289122,91753.17461195985,95953.98174434865,99810.4662452361,103258.09667965848,106216.22268567659,108589.07965420486,110269.74622040967,111147.95182266214,111121.88677219226,110112.8995106809,108080.58676291768,105034.96923877201,101042.713874067,96225.67904108668,90751.87112601615,84820.53463227765,78644.10944790657,72430.05359490203,60930.915552139464,50912.224901037946,42262.68329363196,34910.92591008912
E1,0.0,15161.50060806012,18084.293256221852,18612.87166494331,18119.189944541715,17138.470072966404,15928.488590404011,14627.983998233576,13316.569769258615,12041.30048314718,10829.87080337221,9697.81368261097,8652.748769310088,7697.057743565143,6829.654712833132,6047.199001546765,5344.943677581784,4717.334939584732,4158.435369485412,3662.219939317345,3222.778965458571,2834.4526988355365,2491.915763580702,2190.225055108097,1924.8413358033972,1691.6322412658951,1486.8624939701617,1307.17565673318,1149.5706358458374,1011.3752836685358,890.2187934491434,784.0040796652414,690.8808162270531,609.2203355803074,537.5915220952868,474.73884838014544,453.5979035346421,464.71065688433737,500.3769865786738,555.9918440691283,630.3096675789279,725.1735209922516,845.1645784704336,997.4504125622748,1191.9502414225549,1441.8324293592193,1764.3058959659256,2181.6324858601474,2722.237575694555,3421.702554267409,4323.2702644186675,5477.296733111597,6938.906921525311,8763.10102426178,10996.905323374913,13668.998509975701,16778.445570115968,20285.247080758072,24105.7008367401,28114.708577531914,32155.405728515405,36054.58007398482,39640.99109834155,42763.246096623094,45304.281656791696,47190.4686915332,47294.89204243312,46074.21623525774,43856.334835828646
I1,0.0,0.0,304.07532216600686,593.7913765277513,824.576616227791,990.0722394011677,1096.1798368038592,1152.5545202142525,1169.3166797985593,1155.7545202861536,1119.87079233241,1068.3030237852845,1006.4072608826068,938.4069165577787,867.5595510296137,796.319131671005,726.4836739189277,659.3244662038903,595.6963020609446,536.129745182203,480.90718749664086,430.1247237110157,383.7418752689474,341.62107404074084,303.55863055965693,269.30870299932104,238.60157388900154,211.15734414483,186.69597458555938,164.94444623713215,145.64167274431105,128.5416801607858,113.41546965660083,100.05189243663834,88.25781126125446,77.85773972571059,68.69312761425034,61.30402482638756,55.91118135190422,52.52793543561371,51.07206642403308,51.45610594028177,53.650542053275224,57.724824596100724,63.87548651168765,72.45083023303364,83.97966708062464,99.20903151112535,119.15314778452132,145.1529186918429,178.9410419248978,222.70163553545427,279.1045573177669,351.2844718405024,442.7267945331377,557.0235886531455,697.4799950420351,866.5891683298878,1065.443687458325,1293.1952016107336,1546.6900242629476,1820.3853163812355,2106.594618761098,2396.041864800004,2678.640949074845,2944.378636503031,3184.1681815802576,3368.5025248468382,3484.115052373186
A1,0.0,0.0,2736.337443018006,5455.683360725851,7729.312665978975,9461.42028390271,10671.861593023174,11423.064349340577,11790.073437612878,11847.369383168156,11663.10444485458,11296.867792209829,10799.194510268486,10211.939055520475,9569.057241865334,8897.552141470438,8218.450647248184,7547.738853725041,6897.2194864365565,6275.275102473797,5687.532847266314,5137.43356254935,4626.711940076764,4155.79637048947,3724.137872128059,3330.4774649115075,2973.0608828935115,2649.808795610997,2358.449864500054,2096.623082135243,1861.954983119847,1652.1165088592863,1464.8635722149047,1298.0646842779029,1149.7185535853987,1017.9638325789042,901.082960654281,803.6443421801209,727.6003500914386,673.1251479574714,639.5271270187776,626.0275014144044,632.3350883631397,659.0434538639147,707.921650762871,782.1769274741562,886.7549496834022,1028.7231148674991,1217.7603040742101,1466.7496211432426,1792.4323067580997,2216.022754011919,2763.602192574338,3466.0109462363685,4357.8789179563,5475.43238704488,6852.8649903715,8517.397529896283,10483.615156844808,12748.094251338594,15285.514798838007,18047.284321801708,20963.218382599385,23946.19295082749,26899.097279107846,29723.01685619992,32325.431330040185,34428.84579169563,35893.40167788938
IH1,0.0,0.0,0.0,12.163012886640274,35.303531242527484,66.51275219292955,102.77367505321801,141.45695348712923,180.4515584597861,218.15734625948738,253.42610138999686,285.4874110469013,313.8750733188812,338.3605526938458,358.89573305888774,375.5652183281663,388.5475201445009,398.0841013608355,404.4551439447386,407.9609437211794,408.9079305479203,407.5984332374258,404.32343372705935,399.3576742780091,392.9565898630595,385.3546334175347,376.76464399794736,367.3779777564453,357.36518009563036,346.87702571125,336.045792789603,324.98666967872083,313.79921807225094,302.568837183227,291.36818934643,280.25856045146656,269.29113759137994,258.508193929326,247.97148058807866,237.74847597375435,227.90380153577885,218.49554296018246,209.57536865338594,201.19117043947668,193.3912117870561,186.22919246016755,179.77004614849807,174.0965963686288,169.31738650612445,165.57607509990177,163.0627386049147,162.0272108966278,162.79413754373982,165.77864644669737,171.50039377836464,180.59234194278986,193.79933235970213,211.96098715041126,235.97446738528805,266.7355589827659,305.0611046142127,351.60075681881676,406.7498124555574,470.57624812556605,542.7735822473305,622.6472883437569,709.1372073669068,800.8729786737059,895.3728137030294
IN1,0.0,0.0,0.0,60.81506443320137,169.31179540392284,305.65853106120085,452.098116741818,595.0499444428441,725.1559333014878,836.6611030964541,926.6391730431302,994.2581743591091,1040.1540249135558,1065.9265511162369,1073.7503175051852,1066.0844785743234,1045.4640403184692,1014.3558711498663,975.0648535960219,929.6779177809742,880.0359713488613,827.7257773683034,774.0855776153476,720.2197118114908,667.0186668431086,615.1819366513056,565.2418186858955,517.5868504412547,472.4840302675157,430.0992970875991,390.5159865589187,353.7511555429344,319.7697880463232,288.49697668413944,259.82822370462367,233.63803618921006,209.78699880944,188.12751024300405,168.6448844489512,151.37106341274452,136.3352670828327,123.54534089007664,112.99031280222277,104.65515975122607,98.54128353190919,94.6891559978035,93.20208052777518,94.27169201449486,98.20669699796746,105.4665577064946,116.70139021392096,132.7981537113979,154.93097118919766,184.60982320558418,223.7168387874873,274.51365165438983,339.59869459356395,421.7929856600265,523.9401733222616,648.6226028135513,797.8172208140866,972.5366593825612,1172.5141177251974,1395.9905214638866,1639.6483978403166,1898.7128221099879,2167.211912720679,2438.364096051025,2700.6306658715525
D1,0.0,0.0,0.0,0.0,0.012163012886640274,0.04746654412916776,0.11397929632209731,0.21675297137531535,0.3582099248624446,0.5386614833222307,0.7568188295817181,1.010244930971715,1.2957323420186162,1.6096074153374973,1.947967968031343,2.3068637010902306,2.682428919418397,3.0709764395628976,3.469060540923733,3.873515684868472,4.281476628589651,4.690384559137572,5.097982992374997,5.502306426102057,5.901664100380065,6.294620690243125,6.67997532366066,7.056739967658607,7.424117945415052,7.781483125510682,8.128360151221932,8.464405944011535,8.789392613690255,9.103191831762507,9.405760668945733,9.697128858292164,9.97738741874363,10.24667855633501,10.505186750264336,10.753158230852415,10.99090670682617,11.21881050836195,11.437306051322132,11.646881419975518,11.848072590414995,12.04146380220205,12.227692994662219,12.407463040810716,12.581559637179346,12.75087702368547,12.916453098785372,13.079515837390286,13.241543048286914,13.404337185830654,13.57011583227735,13.741616226055715,13.922208567998505,14.116007900358207,14.327968887508618,14.563943354893906,14.830678913876673,15.135740018490885,15.487340775309702,15.894090587765259,16.364666835890826,16.907440418138158,17.530087706481915,18.239224913848822,19.040097892522528
R1,0.0,0.0,0.0,544.4951786814478,1640.964963909024,3209.303700991876,5146.8522717906,7351.757715242887,9732.16838477342,12209.482598021816,14718.869459657624,17208.509171595717,19638.261076668612,21978.12467764479,24206.68665401865,26309.65499844584,28278.530068291177,30109.43282775067,31802.09339820505,33358.993197067975,34784.648583852715,36085.02135929128,37267.040634955425,38338.220839166555,39306.361513382035,40179.315793001784,40964.81586681925,41670.34514559429,42303.04826341747,42869.67133804977,43376.52610225932,43829.47257603317,44233.91587789005,44594.813577100715,44916.690670799086,45203.65987143952,45459.44535096534,45687.40850602392,45891.79696213652,46077.2474043088,46248.439886501175,46409.92495432567,46566.10236949263,46721.314645253195,46880.02223024983,47047.04020467374,47227.831322420556,47428.86308828307,47658.045740172245,47925.27292052425,48243.08644132503,48627.47845820439,49098.82447513486,49682.90391924915,50411.908264308324,51325.26304863319,52470.015148024875,53900.49064549585,55676.94955392469,57863.07813971643,60522.36125574616,63713.619208003125,67486.20589576504,71875.4838862171,76899.18574244702,82555.14540351479,88820.67422858014,95653.61337793687,102955.37440962518
G1,0.0,0.0,304.07532216600686,666.769453847593,1040.064623914293,1403.4586349823394,1747.183569841311,2066.6414140846305,2360.016658520358,2627.0905021596063,2868.5878590745397,3085.7890806871924,3280.286043492983,3453.8234417799804,3608.193736225682,3745.167609114181,3866.448742963145,3973.64561698865,4068.255324734638,4151.655880350523,4225.104461508689,4289.739722722258,4346.586807970833,4396.564056807174,4440.490671095868,4479.094814869849,4513.021774479366,4542.841922468555,4569.058315504043,4592.11382105615,4612.397714660241,4630.251723535351,4645.975516269755,4659.831651767377,4672.050024776786,4682.831827943943,4692.353073366653,4701.45032120621,4710.770443690059,4720.805881298226,4731.956716791193,4744.598052249209,4759.14195378787,4776.0923664234815,4796.0969862421325,4820.002446726284,4848.919482829803,4884.303967359654,4928.05825119572,4982.654777571327,5051.279601290425,5137.986044962957,5247.837359273779,5387.002367552778,5562.752963487134,5783.304188295096,6057.44625596074,6393.950628058681,6800.786547586291,7284.244546728698,7848.1062177674885,8493.007115708884,9216.108894020243,10011.138848561812,10868.787980388654,11777.399495594802,12723.839913432756,13672.374620278599,14596.427753768188
H1,1060773.9843929,993358.0092062155,935739.5449523788,882188.6768427626,832415.0351260402,786148.9901252186,743140.1708059978,703156.0891616668,665980.8628562146,631414.02910721,599269.4432913248,569374.2562208838,541567.9644720816,515701.52854688984,491636.5540233925,469244.5311953746,448406.1290233615,429010.53951771825,410954.868951521,394143.5725582145,378487.9296080011,363905.5559787658,350319.9515433563,337660.0798863347,325859.97804095445,314858.39410205965,304598.4507237697,295027.3326530361,286095.9965822234,277758.9017264986,269973.7596456851,262701.3019359766,255905.06451509337,249551.18731563346,243608.22828603484,230112.0909879366,217317.67182126333,205166.85158920623,193606.42589517252,182587.6985172076,172066.1078012547,162000.88343087275,152354.73114005342,143093.54312841833,134186.13211561396,125603.9871353276,117321.0493201073,109313.50606708402,101559.60210268587,94039.46608235604,86734.95146992223,79629.4905413411,72707.96044972565,65956.56037347268,59362.69884751094,52914.89044971249,46602.661080834965,40416.46113743683,34347.58593344266,28388.102777811753,22530.784163429966,16769.04656622488,11096.894393896575,5508.868660833515,0.0,0.0,0.0,0.0,0.0
S2,128612.82594188553,129942.03467280125,133035.47077776768,135878.38567810954,138323.0832049929,140364.65137483962,142034.92286664038,143375.34932975788,144427.77409703445,145231.03142038092,145819.80875728367,146224.46485008197,146471.2573964411,146582.73370392472,146578.16848840256,146473.99417931616,146284.1990803771,146020.683806717,145693.57403280996,145311.49134378074,144881.78570714837,144410.73372529825,143903.7069027682,143365.31394683244,142799.52076966042,142209.75146099337,141598.9730982755,140969.76688071276,140324.38772631335,139664.81416085505,138992.79005514583,138309.76311670686,137617.22743472934,136916.40111888683,136208.3802796859,191420.93168280943,246338.3962048719,300929.25937545457,355165.39790681005,409017.4758412257,462452.08477259637,515429.97656767233,567904.5550166098,619819.9192067481,671107.9642660122,721684.2185893101,771442.2050989002,820246.2010150533,867922.4173638453,914248.9229446553,958945.1864075762,1001662.9375162674,1041981.0449158424,1079407.9177975482,1113394.9501221771,1143363.1102546293,1168741.823338745,1189015.6646874202,1203771.693171453,1212739.8152260275,1215820.4173444032,1213096.5002737327,1204830.370421019,1191446.8900822548,1173506.3281081768,1101173.9438823937,1030498.3333520687,961830.8539061574,895878.3070204671
E2,0.0,5306.525212821041,6795.111233961845,7480.6138860173305,7789.682152677179,7889.4992497105895,7859.656696190123,7742.678536230408,7563.655084820932,7338.904257223343,7080.0540861200225,6796.039146496111,6494.098926079492,6180.286860921967,5859.737986993694,5536.818766908331,5215.221000670148,4898.030457025982,4587.784842088518,4286.527551918781,3995.859584548377,3716.9900638360277,3450.785019951233,3197.8138270717786,2958.392722643902,2732.6249678800473,2520.4373755296497,2321.613089230302,2135.8206321729954,1962.639346420778,1801.581418927014,1652.1107396834004,1513.6584974973664,1385.6374975742028,1267.4524922138435,1158.5092242330254,1148.5851712103477,1216.4653901911959,1345.453922252122,1526.680114156346,1759.9959036614252,2053.618223109418,2423.6052805992326,2893.9001564707833,3497.309714839953,4277.5374604474755,5292.25653402805,6617.12608631711,8350.53033528046,10618.568052992043,13579.381007917871,17425.29071230976,22380.560535366436,28692.271821334154,36612.33154420155,46370.44770342061,58140.846327549254,72008.46177401493,87941.71582569058,105777.86643707396,125223.77868556419,145871.41588131795,167224.76903511205,188733.81307531038,209831.09448765824,229967.1775640518,244370.40885967822,253906.95947424156,258919.95065410173
I2,0.0,0.0,106.42636275810239,217.16511307990692,315.07483568602885,395.68482190436004,458.9503185450779,506.43358108834906,540.1747754548877,562.2276329225323,574.4802573520922,578.6008166374666,576.0363080134813,568.0316427615071,555.6543596779786,539.8187752649285,521.3073427626927,500.78876846558234,478.83315657528624,455.9246818938884,432.4722991191177,408.81892304347014,385.24941879956606,361.99765277598726,339.25278265633807,317.16491066049537,295.85018545701087,275.3954122085113,255.8622136207968,237.29077493303126,219.70320031499685,203.1065054774051,187.49527027010535,172.85396744179377,159.15901964729323,146.38056996299636,134.4840088512498,125.2435880430313,119.5822571828791,117.86660796041483,120.19734242313059,126.64802462725132,137.43936002686442,153.0611442338344,174.36581843568715,202.6592043218572,239.81023310393772,288.39597080936466,351.89238891252984,434.9143953790718,543.4983261795289,685.4034490121375,870.3839602116415,1110.3508198927016,1419.311760330575,1812.964842284212,2307.8475589941063,2920.022639642774,3663.4011809635504,4547.922291528269,5577.875779467629,6750.642857147611,8056.04976260761,9476.416602628602,10987.275490989554,12558.650126235098,14156.739172014437,15660.154506391884,16994.012870948223
A2,0.0,0.0,957.718105056302,1993.5219025168765,2946.933419248505,3766.4090110125658,4440.834655624911,4975.6724990949,5382.972503093284,5676.915128521312,5871.80415736299,5981.195726553955,6017.560986081886,5992.196068916378,5915.241846138907,5795.7480566415625,5641.751716485487,5460.356874776314,5257.810885709167,5039.575965617583,4810.396212340365,4574.360657662388,4334.962891660259,4095.157626455948,3857.4143855714883,3623.768364134737,3395.868416712462,3175.0220887030314,2962.2376030692253,2758.2627349467684,2563.62054198796,2378.6419600776157,2203.49531643593,2038.2127847172828,1882.7141599197705,1736.8277668775036,1600.3088403885606,1489.1642991420683,1412.3870367878733,1374.1672039132068,1376.2601966869088,1420.0453883429993,1508.1106614037585,1645.4271183988772,1840.297908858664,2105.2949255052067,2458.3759988537486,2924.334396914801,3536.6847659931877,4340.029095925783,5392.85238857978,6770.54321942748,8568.198885810612,10902.46847526406,13911.382515397494,17750.969274819145,22587.66699326994,28586.239085390156,35893.99210808457,44623.22133454721,54834.50517983534,66523.4629569074,79612.94349022288,93951.62830481195,109319.04115758116,125436.16405039321,141980.33811126652,157831.92453426472,172250.40389493143
IH2,0.0,0.0,0.0,4.257054510324095,12.729761186692375,24.693141355279394,39.27981491378843,55.66419358219982,73.1246613984227,91.05746699446394,108.9713440448509,126.47523430236501,143.26445515402983,159.10751280752498,173.83434144391163,187.32612183879021,199.50657755958483,210.33456285108454,219.79774759903378,227.90722539004213,234.69289939995897,240.19952849241932,244.48333919112355,247.60912749508967,249.64778835129067,250.6742208617453,250.76556487418307,249.99973025259487,248.45418444714156,246.20496742518625,243.32590589722082,239.88800128029612,235.9589681179504,231.602901796389,226.88005610682026,221.84671426457507,216.5551372295533,211.05357570191094,205.45882607032482,199.91873421591015,194.58838109664634,189.61908363161263,185.15749830736678,181.35174099963763,178.3620772518926,176.37481763219262,175.619144307897,176.38748132146188,179.06064236322445,184.13934580692893,192.28374749819992,204.36228685870455,221.51013884213447,245.19560881858757,277.28966482029807,320.1295764399051,376.5630984131666,449.95639833523194,544.1490181832395,663.3440240842343,811.9308613348018,994.2500176682274,1214.319139321321,1475.5470533948585,1780.464113027208,2130.4948170407065,2525.7930375390692,2965.152861790671,3442.573443878704
IN2,0.0,0.0,0.0,21.28527255162048,61.12675465041179,113.8275848425129,173.7580118419948,236.22926188755054,297.656165957762,355.46652666611476,407.9329089887836,453.9969749924767,493.1125974848528,525.1151987239749,550.116953017917,568.4246148599882,580.4760422560565,586.7917025054711,587.9379838489465,584.4997266446046,577.0599239959836,566.1849894250703,552.4143464236201,536.2533726459604,518.168944836661,498.5869934863786,477.8916007476572,456.42527094511684,434.4900774505664,412.3494482515776,390.2303992326958,368.32606190653854,346.79838315380607,325.7808999461007,305.3815116317374,285.6851958452642,266.75662025489953,248.64261901331682,231.73697412452594,216.55161326902004,203.58540306829303,193.27317499582801,185.9911026594507,182.09602763333626,181.98253945306416,186.14913538159132,195.27136378544543,210.28457157029345,232.4816944031259,263.6327005651071,306.13188682282146,363.1768188406504,438.97737907898204,538.9839406711936,670.109407731207,840.9017916782788,1061.6063794030483,1344.0472323751244,1701.2658415241265,2146.885379502747,2694.2181538072914,3355.1882000842506,4139.183811074738,5051.97440676071,6094.819933516811,7263.874165194606,8549.944602912383,9938.629563883911,11393.67978861865
D2,0.0,0.0,0.0,0.0,0.004257054510324095,0.01698681569701647,0.041679957052295866,0.0809597719660843,0.13662396554828413,0.20974862694670682,0.30080609394117075,0.4097774379860216,0.5362526722883867,0.6795171274424165,0.8386246402499415,1.0124589816938532,1.1997851035326434,1.3992916810922282,1.6096262439433127,1.8294239915423465,2.0573312169323885,2.2920241163323474,2.5322236448247666,2.77670698401589,3.02431611151098,3.2739638998622707,3.524638120724016,3.775403685598199,4.025403415850794,4.273857600297935,4.520062567723121,4.763388473620342,5.003276474900638,5.239235443018589,5.470838344814978,5.697718400921798,5.919565115186373,6.136120252415926,6.347173828117837,6.552632654188162,6.752551388404073,6.947139769500719,7.136758853132331,7.3219163514396985,7.5032680924393365,7.681630169691229,7.8580049873234215,8.033624131631319,8.21001161295278,8.389072255316004,8.573211601122932,8.765495348621132,8.969857635479837,9.191367774321971,9.436563383140559,9.713853047960857,10.033982624400762,10.410545722813929,10.86050212114916,11.4046511393324,12.067995163416633,12.879926024751434,13.874176042419661,15.088495181740981,16.56404223513584,18.344506348163048,20.475001165203754,23.000794202742824,25.965947064533495
R2,0.0,0.0,0.0,190.57331253850668,591.0591451822115,1188.4011750364116,1958.2896177646317,2873.2105019907167,3905.904941433534,5030.8713589809795,6224.966154673757,7467.576324150933,8740.58852106747,10028.263839725376,11317.071986564151,12595.511120651629,13853.92608860069,15084.331122647314,16280.239861482212,17436.50404667212,18549.161557550928,19615.294129673573,20632.894939326394,21600.7461290609,22518.306255396656,23385.60754661722,24203.16276530754,24971.881380787432,25692.994675417518,26367.98933952267,26998.5490546267,27586.50352468939,28133.78438983564,28642.38744561015,29114.34057827447,29551.676887822163,29956.41242342255,30330.52801441279,30679.19993514367,31009.46612352917,31329.29196250727,31647.08394837408,31971.603876920508,32312.199193835502,32679.274034062073,33084.959223012265,33543.980515669056,34074.762313104824,34700.83477580177,35452.63395330861,36369.79441604033,37504.02498893037,38922.61813583688,40712.555683475526,42985.02306196697,45879.93053775953,49569.79338827154,54262.114875781575,60199.34490106065,67655.63505098125,76929.98786450169,88335.92258271902,102188.31248248044,118788.46074232488,138408.7015179075,161277.83429472873,187568.558807294,217387.82641047068,250617.30562229443
G2,0.0,0.0,106.42636275810239,242.7074401418515,392.7367898871511,548.9647366701292,707.1945905678936,864.8259295619835,1020.111183389726,1171.8059869665435,1318.993243297511,1460.9890643473875,1597.2887517163942,1727.5328003876557,1851.483111566889,1969.0045734765538,2080.0496470379007,2184.6448350038368,2282.8785275452806,2374.8900104419513,2460.8595513217138,2540.9995270346544,2615.5465643211833,2684.7546588095,2748.889225356088,2808.2220211977665,2863.026874552801,2913.576145813984,2960.137846156312,3002.9733387375377,3042.3355501034307,3078.4676233414384,3111.601949448716,3141.9595114852295,3169.7495158767597,3195.169230907813,3218.4040065871854,3241.439747903267,3265.836878173442,3292.820970674869,3323.439691048084,3358.7377354337564,3399.9245967439097,3448.531827357327,3506.5711761753,3576.712358486035,3662.5015963053615,3768.6417899557337,3901.353241053146,4068.8294208586954,4281.79280655013,4554.1375276658255,4903.614866628242,5352.473876760097,5927.919013972219,6662.206918405193,7592.201197263298,8758.259692070551,10202.443666905594,11966.181060901565,14087.63589880771,16599.093163559923,19524.65435473535,22878.47313778217,26663.672010773986,30871.992763857023,35484.157839932785,40385.1905755937,45477.48602168409
H2,1060773.9843929,1123915.2929877155,1181489.4925383055,1234262.680361829,1282582.5539415283,1326771.93080837,1367130.5261648335,1403936.6035299662,1437448.507475681,1467906.0868764143,1495532.0164926862,1520533.024150487,1543101.0302597112,1563414.2059331967,1581637.9555206746,1597925.828956623,1612420.3689353804,1625253.8975687707,1636549.2468489795,1646420.436930648,1654973.3059594415,1662306.0949081148,1668509.9906338823,1673669.6301413379,1677863.5688220125,1681164.7152437235,1683640.7348790644,1685354.4249917257,1686364.0627408507,1686723.7284164757,1686483.605582458,1685690.2597764062,1684386.8972983044,1682613.605510117,1680407.5759670655,1621876.5345533716,1563177.2978604306,1504373.2089031755,1445521.7873284693,1386675.2163877517,1327880.7903004186,1269181.3251786074,1210615.5364332362,1152218.3853499875,1094021.3973108786,1036052.9539407354,978338.5612769888,920901.0958944988,863761.0307635395,806936.6424775658,750444.2013570233,694298.1458153758,638511.2422629037,583094.7317219374,528058.464233351,473411.0220477128,419159.83251490403,365311.2715127296,311870.7581875629,258842.84171794017,206231.28075481803,154039.11613955768,102268.73745222707,50921.94389820344,0.0,0.0,0.0,0.0,0.0
S3,385838.47782565653,375069.99646685005,369285.57935254247,364545.86094387044,360353.52222688874,356524.0724247721,352971.333502025,349648.6033231017,346527.0706338591,343586.6896535427,340811.99234619306,338190.0648786479,335709.53654270817,333360.063560343,331132.0618438182,329016.5670175124,327005.1596864226,325089.9237172875,323263.4206098374,321518.6710900943,319849.1393635224,318248.7177879786,316711.7109780631,315232.8190178726,313807.1198005192,312430.05067459604,311097.38964080304,309805.236351801,308549.9931509213,307328.3463552997,306137.24795456056,304973.70966685936,303835.39751219517,302719.93850924156,301625.1658667219,398469.8769028567,494933.56900567433,591018.9125902281,686726.7754450564,782052.2205143115,876982.2488087929,971494.5444944922,1065556.3512955136,1159122.7669303538,1252133.9643197223,1344511.0152080692,1436150.0841641484,1526914.8260684602,1616626.9413499506,1705055.1187669293,1791903.117522094,1876798.5500873292,1959284.9295890247,2038820.407711622,2114786.7611809797,2186510.9704371626,2253299.04474008,2314478.396626756,2369442.584296469,2417691.8435405926,2458864.4932087404,2492756.877346829,2519331.7445599586,2538716.2717622183,2551191.417147248,2464039.5752077485,2376288.8555305838,2288264.287736046,2200849.777964844
E3,0.0,9096.900364836067,11483.113020958417,12429.130534024947,12710.285775534829,12635.466945682325,12354.620847391088,11949.176769516334,11467.190337389904,10939.030545957565,10385.011795105396,9819.34980902815,9252.3252786355,8691.529276528463,8142.618575426244,7609.7994391566035,7096.155254185731,6603.880654729934,6134.4570645477115,5688.78963461014,5267.317336648837,4870.103370553475,4496.910423371612,4147.263799612548,3820.504544883912,3515.8341398163752,3232.3519982251037,2969.086777202786,2725.022348747552,2499.1191648772074,2290.331655172291,2097.622218358754,1919.971857987848,1756.3899476630882,1605.9198948320022,1467.6439625488993,1437.8740891429743,1491.904567945948,1611.2578442294403,1786.4859727786595,2017.649107208894,2313.683058870456,2691.7501754945056,3177.2881975799187,3805.104075160071,4621.620947734983,5688.269948322362,7085.9520948852305,8920.386128630964,11327.91662380281,14480.918873627354,18591.30366255605,23909.93329220692,30719.35796671538,39317.70020458966,49993.19979492162,62991.74415022004,78482.59507176893,96528.93296343758,117068.85718009547,139909.63222949018,164734.78719318676,191121.4924121431,218564.8404691548,246505.86293692587,274360.7284316667,296725.6748521517,314361.285736623,327356.2737186786
I3,0.0,0.0,182.445193299604,368.96083355340306,529.6858143997354,657.4755801227396,753.0952540473533,820.1336260505242,862.9513022013131,885.8261348985479,892.6183650485846,886.6691963412645,870.8030506442174,847.3726755817603,818.3184040309034,785.2283398186603,749.3938016449571,711.8580313613159,673.4579078182331,634.8591700121365,596.5859330652628,559.04532837945,522.548043341517,487.32544087531824,453.5438364271315,421.316413909124,390.7131781867339,361.76927102297077,334.49191914359875,308.86623564724863,284.86005757057274,262.4279713586008,241.51465283394748,222.05761887998582,203.98951456904655,187.23996497146166,171.73707923452434,159.35782882525493,151.0332204902607,147.10023807004995,147.62550362105517,152.66085633225848,162.42490841898416,177.42800898416974,198.56819640459432,227.22605946409783,265.38189669095215,315.7727826409653,382.10142486822224,469.30215015068836,583.8595400412047,734.1589929476718,930.8234421628972,1186.9575495273905,1518.1876153465914,1942.3686996611425,2478.85151432322,3147.274057727712,3965.9558816548756,4950.086976077412,6109.97026928095,7449.570531197547,8965.55392417704,10646.906564099576,12475.131600225039,14424.96089287786,16465.48147745943,18464.82297903072,20338.01798876177
A3,0.0,0.0,1641.8024658108027,3387.5698813386753,4956.6891365565425,6264.316997049283,7298.2408515179595,8075.740536007764,8625.35372969712,8978.612535742628,9166.255559103976,9216.571155692753,9154.78431483033,9002.956036764223,8780.127504394071,8502.571886081643,8184.083347284804,7836.267683394112,7468.817375198507,7089.763593593954,6705.702773086725,6321.99796975767,5942.956468305064,5571.985630314501,5211.7291244867265,4864.1856365592785,4530.812023843809,4212.612711009557,3910.2169481056826,3623.9453825947576,3353.8672403882288,3099.849268504418,2861.597463972433,2638.692418753138,2430.6193939071018,2236.7934315958178,2056.580340353313,1906.854438397615,1796.6734071145752,1729.9577517058246,1708.142689573202,1732.3887052073273,1805.238091169867,1931.8247062117034,2120.851824997204,2385.5728199035366,2744.982233462628,3225.381993561504,3862.441251574567,4703.811514049721,5812.269641320854,7269.21090089933,9178.079488100364,11667.011022917428,14889.638292465885,19022.82813075222,24260.27452041743,30801.506482902107,38836.89764360343,48530.34253599768,60001.95104914879,73313.14801104092,88456.01905766505,105347.9126666333,123831.49853053903,143679.87075865341,164605.90525366805,185404.34448569998,205247.03093469917
IH3,0.0,0.0,0.0,7.29780773198416,21.689559050986574,41.787188814161766,65.98659368186955,92.79487422725633,120.93769410175867,149.3791708708967,177.30658463051654,204.10246063341748,229.31399760949583,252.62412239110495,273.82580321649056,292.8000240540658,309.49727304574276,323.9221788296642,336.12086714977994,346.1706212928359,354.17147096778893,360.2393844454049,364.5007883683813,367.08818450458415,368.1366715208074,367.78121260117564,366.15451699317475,363.38542609596385,359.5977132782642,354.9092219226101,349.4312788354043,343.26833063308754,336.517759417081,329.2698413090036,321.6078171366343,313.60805105335106,305.34025526001767,296.86776359876484,288.32580652962463,279.88006005995555,271.7013550763471,263.9546038637549,256.79850617392117,250.39253229828697,244.90855382734173,240.54572811206359,237.54842929343062,236.22796475182295,236.98948305381694,240.36588417447715,247.06066533248338,258.00135943674337,274.4043109745624,297.8496659238983,330.36236150623785,374.4906429652595,433.36892008123885,510.7481411112994,610.9763059649928,738.915729178888,899.7920154469335,1098.980323456141,1341.7443251367765,1632.9498630672865,1976.7777377515542,2376.4588092379695,2834.0508757983876,3350.271822010675,3920.5286469831467
IN3,0.0,0.0,0.0,36.4890386599208,104.12427876970415,192.49217796662094,291.5073971642594,392.93935744261296,490.6640130113151,580.4627715441683,659.6844294356534,726.8971783718522,781.5790449382148,823.8610145434435,854.3225204824532,873.8332927637636,883.433929491955,884.2477086544619,877.4170218781821,864.0588767162092,845.234951822998,821.932608023395,795.0540314829775,765.4113167313471,733.7258032549814,700.630379426234,666.6737808708098,632.3261540537289,597.9853442902996,563.9835123714431,530.5937950240767,498.0368090411149,466.48686304031725,436.0777890845879,406.9083406486634,379.04713719312554,352.5371447844838,327.39970149992394,304.0279392596028,282.9348567715588,264.6142893966824,249.4900702923206,237.92488556211387,230.2639464233423,226.89628518481248,228.32489901140008,235.24403030581334,248.62683916134176,269.8296957832596,300.720646669384,343.83940147551954,402.5940518324509,481.4947095061557,586.4150655577355,724.8586544190483,906.1881722576,1141.757525883823,1444.8749789870362,1830.5308437856634,2314.8499736122667,2914.2744153533577,3644.532475903925,4519.491522410009,5550.012263802593,6742.920065747437,8100.189255289449,9618.407396242235,11288.555252118545,13076.7613596226
D3,0.0,0.0,0.0,0.0,0.007297807731984161,0.028987366782970734,0.0707745555971325,0.13676114927900207,0.22955602350625842,0.35049371760801706,0.49987288847891376,0.6771794731094303,0.8812819337428477,1.1105959313523435,1.3632200537434485,1.637045856959939,1.929845881014005,2.2393431540597475,2.5632653328894115,2.8993862000391912,3.245556821332027,3.5997282922998157,3.9599676767452205,4.324468465113602,4.691556649618186,5.059693321138994,5.4274745337401695,5.793629050733344,6.157014476829308,6.516612190107572,6.871521412030182,7.2209526908655866,7.564221021498674,7.900738780915755,8.230008622224759,8.551616439361393,8.865224490414743,9.17056474567476,9.467432509273525,9.75575831580315,10.035638375863105,10.307339730939452,10.571294334803207,10.828092840977128,11.078485373275415,11.323393927102757,11.56393965521482,11.801488084508252,12.037716049260075,12.274705532313892,12.515071416488368,12.762132081820852,13.020133441257595,13.294537752232158,13.592387418156056,13.922749779662293,14.297240422627553,14.730609342708792,15.241357483820092,15.852333789785085,16.591249518963973,17.491041534410908,18.59002185786705,19.931766183003827,21.564716046071112,23.541493783822666,25.917952593060637,28.752003468859023,32.1022752908697
R3,0.0,0.0,0.0,326.6971072088685,1007.2952906910656,2012.248644103713,3293.3031024365,4797.99372120237,6475.831722384789,8280.91086337595,10172.836544775559,12116.843375562885,14083.522973642648,16048.376025305191,17991.299553082372,19896.067099062067,21749.83124357054,23542.66257013987,25267.13082568303,26917.92946469995,28491.542321671644,29985.949901695152,31400.37219937923,32735.044757420106,33991.024691419785,35170.02353950271,36274.26398783898,37306.35774351902,38269.2020552999,39165.892609577655,39999.65074731845,40773.76315422074,41491.53236938176,42156.23663652257,42771.09777033593,43339.255921497635,43863.750180762894,44347.50412595363,44796.805821741094,45219.81868637163,45625.58098600055,46023.50831544625,46423.3268267648,46835.33756738911,47270.92925707654,47743.29655954981,48268.36606552597,48865.97320632224,49561.36668642242,50387.141719482875,51385.716987651205,52612.466121413636,54139.580075822894,56060.65474775987,58495.85224206725,61597.27138591235,65553.9104722854,70595.38049145855,76993.42635440428,85060.41830954279,95144.29971443092,107619.9458787412,122877.37344154173,141307.62329036565,163287.361933654,189163.30677107009,219237.51615360135,253754.44005615878,292717.21155418886
G3,0.0,0.0,182.445193299604,412.747679945308,662.0232608444571,916.9376220233978,1170.351435177469,1418.1326681520047,1657.7824145549193,1887.7655597804694,2107.1560623061578,2315.435301210498,2512.369762635354,2697.9321197275094,2872.247290316275,3035.5536430714487,3188.173906454224,3330.4926485653723,3462.9384525490054,3585.969612619285,3700.062576475324,3805.7025957251744,3903.3761894983095,3993.5651174340746,4076.7416187959643,4153.364717020469,4223.877420636269,4288.704676237322,4348.251949403463,4402.904326501577,4453.026044980241,4498.960372585207,4541.029767186617,4579.536249912803,4614.761974133061,4646.969908032047,4676.40461388826,4705.242262495277,4735.163533078344,4767.478523575795,4803.307846263612,4843.773319843869,4890.175977450337,4944.161056036079,5007.883965612704,5084.19819580931,5176.888287307548,5290.97082846339,5433.084938524478,5611.9900057753175,5839.179911701999,6129.605654218355,6502.468261741022,6981.999995224611,7598.099872930386,8386.645984928118,9389.29728750887,10652.644194350936,12226.67179213275,14162.632298152457,16510.536465614576,19316.5295921586,22620.409912625506,26453.49549435053,30836.97810585989,35780.83898256672,41283.350181438975,47234.40723760053,53539.15976229895
H3,3182321.9531787,3168430.865287841,3155407.218707915,3143177.5096536623,3131677.9670775225,3120849.490613085,3110637.3154628375,3100990.701240705,3091862.6430581035,3083209.603264473,3074991.26236675,3067170.287757654,3059712.118980513,3052584.7683492433,3045758.63582649,3039206.3371412773,3032902.544200298,3026823.8369145263,3020948.565625581,3015256.7233745223,3009729.827309862,3004350.808581797,2999103.9101163307,2993974.591706241,2988949.4418960856,2984016.096175785,2979163.161031984,2974380.143438611,2969657.385397953,2964986.0031713136,2960357.8308641296,2955765.3680543387,2951201.7311750334,2946660.608383078,2942136.21766453,2839702.492347321,2737575.794794083,2635751.49111973,2534225.874293912,2432996.0750459176,2332059.9802024304,2231416.157860489,2131063.78884527,2031002.6039459568,1931232.8264631312,1831755.1196381573,1732570.5385691645,1633680.4862496709,1535086.673394869,1436791.0817472783,1338795.9305780649,1241103.6461229827,1143716.8337127452,1046638.2523768654,949870.7917176927,853417.4508676836,757281.3193579444,661465.5597399131,565973.3918147702,470808.0783368839,375972.91206838423,281471.2040718857,187306.2731375206,93481.43624885479,0.0,0.0,0.0,0.0,0.0
S4,192919.23891282827,182413.401511081,179360.6892158062,177677.2266620366,176636.44597275663,175980.6349957945,175596.63248401092,175428.3136224938,175444.81543284905,175627.2064914989,175962.41721264162,176440.3384291259,177052.39688314727,177790.84980288168,178648.43934054242,179618.22956808825,180693.53597079692,181867.90082794704,183135.09014240975,184489.09944614905,185924.16200769105,187434.75628547012,189015.61124347927,190661.7090791922,192368.28538883413,194130.8270198221,195945.06794955037,197806.98354758587,199712.78356031803,201658.90412282426,203641.9990628366,205658.7618571402,207706.4619174909,209782.3346566165,211883.8013468497,296588.36570763594,382711.8198928346,470249.6793995408,559196.267400745,649533.5729399574,741224.1601300227,834206.5651062494,928391.0587127955,1023653.8763666406,1119828.4869462103,1216692.8710285826,1313952.0358301864,1411215.2303226811,1507967.7824608828,1603538.474865389,1697065.2196237082,1787464.6427059274,1873414.7324707739,1953362.7747856781,2025571.2382470125,2088209.703939428,2139490.5970460335,2177833.081506564,2202028.762142264,2211380.050780601,2205788.17871538,2185779.328122528,2152469.2820424507,2107476.1059404965,2052795.77109628,1884159.5666079028,1723576.947582118,1571659.7878341766,1429968.860595554
E4,0.0,13645.350547254104,17052.187488460127,18366.394852343798,18738.83762183519,18619.18328662491,18221.645222026866,17660.045323413666,16999.871217360782,16281.373396885123,15530.734871028357,14765.815592403285,13999.259477622996,13240.25488572499,12495.579898757058,11770.254202781454,11067.967072371845,10391.373251039899,9742.307697631115,9121.948207401549,8530.942861366617,7969.512520554559,7437.534751691498,6934.613353412086,6460.136340673449,6013.324448391253,5593.271714379357,5198.979372784651,4829.384062074284,4483.381186091369,4159.844139683471,3857.6400085945093,3575.641268693471,3312.7385260023375,3067.846641100604,2839.911045386456,2861.1244724240682,3081.6015084028286,3462.660048479297,3985.6629049588805,4655.016884243716,5498.071084224115,6564.657586580486,7928.23787267429,9689.749273247658,11984.62358516463,14993.093844155845,18953.64081349916,24178.9966986854,31073.241824275152,40146.979421132266,52025.337811290185,67441.0832654582,87203.65198015328,112136.3771766241,142980.37701393417,180274.26617527154,224230.416991644,274634.99884449877,330796.24441110546,391554.2360289557,455351.2356492675,520349.76914552646,584579.0839814285,646089.0834295138,703092.922007954,739615.9042926192,759150.1676931916,763585.3387727907
I4,0.0,0.0,273.6677899494061,549.9819929556497,786.3382064626994,973.4385491864233,1113.2350517783786,1211.5074682318,1274.9311954826694,1309.8929389124019,1322.0538485857828,1316.2415185329419,1296.483115027767,1266.0928677160152,1227.7738705943755,1183.7164146445516,1135.6857946000364,1085.097625640526,1033.08101818464,980.530897633214,928.1510288624665,876.4892709315577,825.9664262598368,776.8998491944218,729.5227829221168,684.0002184435949,640.4419201707567,598.9131393021647,559.4434357467564,522.0339485183099,486.66338975881786,453.29298578072195,421.87054713217606,392.3337964834963,364.6131533317254,338.63397320565014,314.31837613899353,296.26397363648124,286.9644608682795,287.53924739574336,298.4653016391339,320.1935014217266,353.6150206608641,400.4065714910837,463.3157805124595,546.4552181872011,655.6666248298596,799.0044324556634,987.372920850581,1235.331422744453,1562.0491664829804,1992.3352982538895,2557.5821888276896,3296.344219846984,4254.156574366618,5482.138559820152,7034.00453313001,8961.379728991276,11307.758612939082,14101.90844455741,17351.81842607637,21040.297328220295,25123.03820607867,29529.51585297791,34166.60618434205,38924.42423620429,43683.6209030371,48033.10630751902,51730.489590718054
A4,0.0,0.0,2462.7036987162046,5050.225378778848,7360.051522666934,9277.47085019195,10791.753804320097,11932.966954864993,12745.736518711,13277.627845092762,13574.005785987663,13675.93367608564,13619.527138548534,13435.997227887834,13152.002717940066,12790.12094070417,12369.342585485629,11905.545281870112,11411.926346211785,10899.388174544642,10376.876297113628,9851.673166471031,9329.651983697906,8815.495163395526,8312.881875059324,7824.648731172932,7352.927254387611,6899.2613149218205,6464.7073165264765,6049.919537718777,5655.2227074200455,5280.6736088242515,4926.113258412495,4591.210813498502,4275.501042061466,3978.4154419031543,3699.308307456418,3479.5684086211563,3343.3454082253625,3303.002183378536,3365.0779340572735,3535.605982867164,3824.355047342541,4248.143659270511,4833.701962511314,5620.658255331673,6665.197965309308,8044.854695753167,9864.774730112791,12265.62332203501,15433.003334389326,19607.738428350956,25095.5542619895,32273.590270759658,41590.02660131914,53552.456069602136,68701.22370150052,87566.36178238216,110610.76195635616,138166.61450925918,170375.15852547006,207140.18720793276,248103.49813102063,292646.5403470115,339918.1663215356,388884.6435430556,438395.4500081478,484645.9001700089,525218.6495018352
IH4,0.0,0.0,0.0,10.946711597976243,32.395968281501666,62.221744805913644,98.03292388382121,137.63661234566416,179.18129020279568,221.17548389787362,262.45812792849335,302.15294111547814,339.620775229815,374.4156830179538,406.2466932564145,434.94557847718016,460.44017552531653,482.73255890927487,501.88132350997296,517.9872844957855,531.1819885422364,541.6185232909672,549.4641987803692,554.8947505685063,558.0897784657489,559.2291879270585,558.490444607277,556.04648788656,552.0641777667942,546.7031726814329,540.1151545061216,532.4433322699887,523.8221684449016,514.3772817900681,504.22548819371667,493.4749508508499,482.22541246344065,470.5684889125406,458.77509725332857,447.2022899839757,436.23395570260027,426.25377306827306,417.644177725631,410.8040366045258,406.17924385051487,404.3031944973566,405.84698569532117,411.6816645931219,422.95668941761846,441.19993447987514,468.4448785862747,507.3895965107691,561.5889627496196,635.6749301713562,735.5888921066576,868.7951209096606,1044.4276151099743,1273.3100051600252,1567.787092139458,1941.3231850048328,2407.8567621147536,2980.9455240554166,3672.778308751233,4493.159242032947,5448.578828226701,6541.476489618479,7769.773679934852,9126.72232628512,10589.469821005025
IN4,0.0,0.0,0.0,54.73355798988122,155.49456667966524,286.5250510328915,432.86635950374216,582.4742736995759,726.4927902715538,858.8952905233571,975.9493898616652,1075.6847123692792,1157.4288695432408,1221.4283606634156,1268.550938229638,1300.0585545438848,1317.4382863582732,1322.2793495680578,1316.185928996256,1300.7173516804671,1277.3488188846259,1247.4473688381404,1212.2589463099334,1172.9034238151658,1130.375184625154,1085.5474747863138,1039.1791926021467,991.9231376210064,944.3350104176085,896.8826581938114,849.9552144148498,803.8718950865828,758.8902990137224,715.214121538721,673.0002322910697,632.3651156234398,593.3906721708972,556.1294071868225,521.5444888254832,490.93530545177646,465.6058768752629,446.73558464164876,435.39498457548353,432.65222855392284,439.7305777768488,458.1964135066345,490.1743299595712,538.5987789989217,607.5199582844043,702.4855170291472,831.018896207403,1003.2079252346999,1232.4001070605138,1535.9692466571942,1936.0684807872633,2460.220004460417,3141.5259553197984,4018.2458997700855,5132.508777046066,6528.033852200079,8246.916933522436,10325.748692763296,12791.5074803003,15657.758103534563,18921.671489840333,22562.271109265883,26540.142884335095,30798.653395376583,35208.507207643874
D4,0.0,0.0,0.0,0.0,0.010946711597976243,0.04334267987947791,0.10556442468539155,0.20359734856921277,0.3412339609148769,0.5204152511176726,0.7415907350155462,1.0040488629440396,1.3062018040595178,1.6458225792893328,2.0202382623072865,2.426484955563701,2.861430534040881,3.321870709566198,3.8046032684754727,4.306484591985446,4.8244718764812315,5.355653865023468,5.897272388314436,6.446736587094805,7.001631337663311,7.55972111612906,8.118950304056119,8.677440748663395,9.233487236549955,9.78555141431675,10.332254586998182,10.872369741504304,11.404813073774292,11.928635242219194,12.443012524009262,12.947238012202979,13.440712963053828,13.922938375517269,14.39350686442981,14.852281961683138,15.299484251667113,15.735718207369715,16.161971980437986,16.579616158163617,16.99042019476814,17.396599438618658,17.800902633116014,18.206749618811333,18.618431283404455,19.041387972822072,19.482587907301948,19.951032785888223,20.458422382398993,21.020011345148614,21.65568627531997,22.391275167426627,23.260070288336287,24.30449790344626,25.577807908606285,27.145595000745743,29.086918185750577,31.49477494786533,34.475720471920745,38.14849878067198,42.641658022704924,48.090236850931625,54.63171334055011,62.40148702048496,71.52820934677008
R4,0.0,0.0,0.0,490.04566081330285,1504.7485860683344,2997.13459496769,4894.639873044692,7119.923786238647,9599.488298247026,12267.129918962268,15065.019696077374,17943.668730534475,20861.38356553559,23783.512348803895,26681.633449415327,29532.762071950154,32318.610662549836,35024.91793096462,37640.85028276996,40158.473781404595,42572.29199934033,44878.843946059875,47076.35594751747,49164.44149147681,51143.84341895051,53016.213307658945,54783.92338939376,56449.9068319558,58017.522678723486,59490.442165993416,60872.55352688512,62167.88274084262,63380.52800128341,64514.605953238766,65574.20796480078,66563.36505083888,67486.02008313306,68346.00617781201,69155.40564317914,69931.28211323409,70693.3961056939,71463.0482898404,72262.95778257307,73117.98701912578,74056.54497696493,75112.58794432407,76328.24828827521,77757.23007628554,79469.20357936928,81555.50180672425,84136.45961953285,87370.71400562872,91466.6577192539,96695.94613518644,103408.44006529302,112047.21284402198,123161.3536039713,137413.50828537834,155578.78097458946,178532.10160308884,207222.5415675485,242635.066370042,285742.3393560915,337450.89869697916,398546.97070479783,469647.2567902325,551159.3398691511,643255.1112657817,745339.491625115
G4,0.0,0.0,273.6677899494061,615.6622625435073,984.0141543599129,1359.8356666346847,1733.2574210313817,2098.7062499116137,2452.891769538115,2793.8369998836883,3120.3722148960455,3431.8528085037924,3727.9923694465238,4008.758069741436,4274.30136087164,4524.909633864467,4760.970953334644,4982.947375079142,5191.354197776983,5386.74352158987,5569.691068251094,5740.785557247177,5900.62013759903,6049.785502835976,6188.864400370333,6318.427303793119,6439.029057946744,6551.206337919133,6655.475787796245,6752.33272514702,6842.250314031922,6925.679123595943,7003.04700153477,7074.759182197812,7141.19865020208,7202.726626875618,7259.683183378318,7317.065191149164,7378.869032053718,7448.315289189569,7528.2507628079375,7621.610634983922,7731.878594564274,7863.537750353101,8022.544536532337,8216.879761530068,8457.240420537655,8757.938218122625,9138.067770306901,9622.995773204913,10246.19305840211,11051.370990128935,12094.778352283669,13447.360108621608,15196.295075904518,17445.27463920604,20312.853866872734,23928.3901506852,28425.500169590912,33933.51206831462,40567.88007652736,48420.795400929615,57553.20763756086,67989.21445391898,79713.38858999782,92671.19212610216,106772.25060962401,121605.80503083483,136831.13382783844
H4,1591160.97658935,1617680.3261991725,1644083.9167432378,1670378.976899137,1696572.1228129175,1722669.4392052302,1748676.5182936727,1774598.4959225296,1800440.0850995355,1826205.6071250197,1851899.020485557,1877523.9476719466,1903083.7000699271,1928581.3010614314,1954019.5074643418,1979400.8294295627,2004727.54890574,2030001.7367740758,2055225.2687483635,2080399.8401285766,2105526.979490031,2130608.0613842797,2155644.3181224614,2180636.850706764,2205586.6389709827,2230494.5509867836,2255361.3517882484,2280187.7114635147,2304974.2126588365,2329721.3575371527,2354429.574230247,2379099.2228207816,2403730.600887901,2428323.9486476933,2452879.453717552,2394817.347013709,2335085.6194689046,2273688.0814103247,2210628.50394115,2145910.6277823066,2079538.171271382,2011514.8375880797,1941844.3212700947,1870530.3140781778,1797576.5102645024,1722986.6112941103,1646764.3300652476,1568913.3946707319,1489437.5517391176,1408340.56939132,1325626.2398454885,1241298.3817002836,1155360.8419242848,1067817.4975770111,978672.2572849863,887929.0624943703,795591.8885199415,701664.7454086003,606151.6786340852,509056.769638229,410384.13623282884,310137.9328750487,208322.35082820922,104941.6182188437,0.0,0.0,0.0,0.0,0.0
E_Om,0.0,0.0,0.0,0.0,0.0,0.0,0.0,0.0,0.0,0.0,0.0,0.0,0.0,0.0,0.0,0.0,0.0,0.0,0.0,0.0,0.0,0.0,0.0,0.0,0.0,0.0,0.0,0.0,0.0,0.0,0.0,0.7013883282280144,1.088795811203333,1.292437957895809,1.3894321680131152,1.4252941954476963,1.6224243601037083,1.9623010251350501,2.4489499553371323,3.117863920991627,4.04187493946186,5.3401523730045275,7.195945133492031,9.888371443230568,13.844940459518831,19.725062706799996,28.550640340470736,41.907937725252324,62.255072603589475,93.38029081200361,141.0638514143548,213.9929935632249,324.9528735887886,492.2535417430739,741.2502854290822,1105.6923385959087,1628.5446144792154,2361.9339636072787,3366.0113884574657,4706.765187129281,6453.081171142263,8673.531892063207,11433.433372667008,14792.63309460298,18804.322899276332,23514.9588594495,28245.828755616705,33056.20142817186,37874.6509301111
I_Om,0.0,0.0,0.0,0.0,0.0,0.0,0.0,0.0,0.0,0.0,0.0,0.0,0.0,0.0,0.0,0.0,0.0,0.0,0.0,0.0,0.0,0.0,0.0,0.0,0.0,0.0,0.0,0.0,0.0,0.0,4.0,3.04,2.3244668715704857,1.7884314430304895,1.385128714080432,1.0805639320684157,0.8498139377292816,0.6783975360639501,0.5549375534861117,0.47086807781742746,0.4203908500618413,0.4005598943852567,0.4115263005337188,0.4570800917595292,0.5456996120587643,0.6924024212387223,0.9218268398291714,1.2731930093836088,1.808121964910614,2.622745097065044,3.8660983882589663,5.767376637327205,8.674997020303712,13.110172537557688,19.836246927758957,29.941880831859223,44.93132266118135,66.80949492663078,98.14558201270138,142.09853774308792,202.39261207864524,283.2397918600118,389.2164612920003,525.1106344367754,695.7614883340859,905.9136000050854,1160.1045595398036,1448.1708502879576,1763.5768808613277
A_Om,0.0,0.0,0.0,0.0,0.0,0.0,0.0,0.0,0.0,0.0,0.0,0.0,0.0,0.0,0.0,0.0,0.0,0.0,0.0,0.0,0.0,0.0,0.0,0.0,0.0,0.0,0.0,0.0,0.0,0.0,0.0,0.0,0.12658609422907782,0.29790226207017,0.4718819624817473,0.6287474395592927,0.7608711035020026,0.9022818149152463,1.07689436592098,1.304591386723319,1.6077048368306,2.017267582949014,2.579644965707397,3.365048872971429,4.4800950191696405,6.087340558626321,8.436005877372532,11.91015199533314,17.10370476518049,24.93604604137555,36.827312839057555,54.95827084897796,82.64360914370914,124.84589367036115,188.8447905588365,285.0475133139969,427.8814158363608,636.6572769387956,936.2511032743505,1357.4449157102367,1936.8050413328538,2716.0540538271657,3740.9882112429123,5060.079110231187,6722.9543702052015,8778.966394528503,11276.031467891777,14130.03763888749,17284.306929177135
IH_Om,0.0,0.0,0.0,0.0,0.0,0.0,0.0,0.0,0.0,0.0,0.0,0.0,0.0,0.0,0.0,0.0,0.0,0.0,0.0,0.0,0.0,0.0,0.0,0.0,0.0,0.0,0.0,0.0,0.0,0.0,0.0,0.16,0.27356071945767174,0.3527941982637325,0.40660513390027747,0.44158020282989924,0.4626153405345872,0.4733635573828692,0.47671506859845597,0.4749597821427864,0.46992991191192734,0.46313368093257856,0.4558856917728753,0.4494405377230019,0.4451413753318201,0.4446030073311059,0.4499598022687948,0.4642244190919028,0.49182694984425235,0.5394397357652047,0.6172451185759569,0.7408752624087231,0.9343446773932187,1.2343979395503966,1.6967818951969689,2.4049761118408775,3.4818121097359547,5.1041196140216885,7.520040351719915,11.068015419246063,16.19583892270624,23.47777532636458,33.62771436102506,47.50673137679531,66.12415712184703,90.63217509441345,122.31485983370808,162.5732705109331,212.3315287079438
IN_Om,0.0,0.0,0.0,0.0,0.0,0.0,0.0,0.0,0.0,0.0,0.0,0.0,0.0,0.0,0.0,0.0,0.0,0.0,0.0,0.0,0.0,0.0,0.0,0.0,0.0,0.0,0.0,0.0,0.0,0.0,0.0,1.6,2.5460262510819187,3.0438583884348596,3.2401838891361496,3.2390264001478886,3.1136038496446092,2.914919744746369,2.678970833142856,2.4307245269904545,2.1871871086686347,1.95982004504584,1.7564770532063483,1.5830050509557956,1.4446559772491527,1.3474795042581769,1.2999074595730042,1.3148084839095144,1.4124017029707168,1.6245897797835087,2.0015227253298167,2.62154325835803,3.6060740945170426,5.141410842706065,7.509607710994079,11.130394541698799,16.61497609042286,24.830360393362504,36.969622349032306,54.61989255921179,79.81706134678876,115.07549803295376,163.38329903501494,228.158571198821,313.16898503596775,422.4236900179225,560.0520163350806,730.1859655655657,933.4015451096664
D_Om,0.0,0.0,0.0,0.0,0.0,0.0,0.0,0.0,0.0,0.0,0.0,0.0,0.0,0.0,0.0,0.0,0.0,0.0,0.0,0.0,0.0,0.0,0.0,0.0,0.0,0.0,0.0,0.0,0.0,0.0,0.0,0.0,0.00016,0.00043356071945767176,0.0007863549177214043,0.0011929600516216818,0.0016345402544515812,0.0020971555949861683,0.0025705191523690382,0.0030472342209674937,0.00352219400311028,0.0039921239150222075,0.004455257595954786,0.004911143287727662,0.005360583825450664,0.005805725200782484,0.006250328208113589,0.006700288010382385,0.007164512429474287,0.007656339379318538,0.008195779115083743,0.008813024233659704,0.009553899496068425,0.010488244173461643,0.011722642113012039,0.013419424008209007,0.015824400120049886,0.019306212229785843,0.02441033184380753,0.03193037219552744,0.04299838761477351,0.059194226537479744,0.08267200186384432,0.1162997162248694,0.1638064476016647,0.22993060472351176,0.32056277981792525,0.4428776396516333,0.6054509101625664
R_Om,0.0,0.0,0.0,0.0,0.0,0.0,0.0,0.0,0.0,0.0,0.0,0.0,0.0,0.0,0.0,0.0,0.0,0.0,0.0,0.0,0.0,0.0,0.0,0.0,0.0,0.0,0.0,0.0,0.0,0.0,0.0,0.0,0.27785302946040996,0.7461137908266138,1.336367115266377,1.9970167666721985,2.6904076434288244,3.389962280730253,4.084660409030463,4.77445667870697,5.467587730999755,6.1796937329365775,6.934598191743783,7.7667406320719845,8.725580175764396,9.882743393193309,11.343303896126175,13.263454717464992,15.878131716020583,19.544083995250315,24.806717195022436,32.50298897788141,43.91778957223491,61.01725945405098,86.78826831642225,125.71658101371744,184.4337945900502,272.5515395252112,403.6790388691099,596.5890456489835,876.4639993288697,1276.1281326896733,1837.160460694201,2610.792199713826,3658.518930174161,5052.396913932435,6875.036110369799,9219.341181220176,12162.245818978176
G_Om,0.0,0.0,0.0,0.0,0.0,0.0,0.0,0.0,0.0,0.0,0.0,0.0,0.0,0.0,0.0,0.0,0.0,0.0,0.0,0.0,0.0,0.0,0.0,0.0,0.0,0.0,0.0,0.0,0.0,0.0,0.0,0.0,0.014066871570484902,0.03590349220740566,0.06182430958466575,0.08969041895195339,0.11827576830923907,0.15081471169893526,0.19017013777644476,0.23928567494442732,0.3018167858650238,0.38287963420328114,0.4899804150042048,0.6343005183581077,0.83261926067963,1.1102899767536913,1.5058909764414337,2.0784955875548725,2.9189908653339436,4.16756326906692,6.040375383556454,8.869517245806843,13.161308021741881,19.678482823868748,29.55099862308386,44.41733178984629,66.59282501881461,99.25451472294758,146.62488059140955,214.13277600484446,308.53049939874285,437.9519060789843,611.9061255573756,841.2122494122309,1137.8896555743675,1515.0245244455475,1986.6347479814863,2553.1261330191933,3216.093167661673
beta,36.05248506523029,36.05248506523045,21.54043813446283,18.38128507778809,16.573342157166447,15.322380694559625,14.377191878889867,13.627589579667818,13.015196655860528,12.504907917052838,12.073654521196206,11.705290616791778,11.387990413009645,11.112797755736533,10.872756124227811,10.662354699628416,10.47715835774737,10.313550843968116,10.16855092519135,10.039677450295942,9.924848252314924,9.822303094536938,9.730544080266204,9.6482889846623,9.574434300818403,9.508025689193175,9.448234137234145,9.394336570283077,9.34569996560954,9.301768247292829,9.262051406108768,9.226116412716571,9.193568429236132,9.16408075254838,9.137348904622478,9.11310164640307,10.839052325535102,12.332655585974,13.630712057304162,14.762955875381975,15.752742206863584,16.61769684167806,17.37042534636819,18.019183055299376,18.568402837399965,19.019042093678472,19.368780699470964,19.612160722327115,19.740811881552357,19.743960100009236,19.6094607407547,19.32559505807676,18.88374840112919,18.28177897343442,17.527392081583077,16.640351057235037,15.652274833061492,14.603429838192703,13.537172970541084,12.493802444494271,11.505751959033873,10.59524735235752,9.774390178076718,9.0468570112839,8.410242519148426,7.858325217281502,7.212383876663324,6.698218978504828,6.281683415485994
