series,2021-12-01,2021-12-02,2021-12-03,2021-12-04,2021-12-05,2021-12-06,2021-12-07,2021-12-08,2021-12-09,2021-12-10,2021-12-11,2021-12-12,2021-12-13,2021-12-14,2021-12-15,2021-12-16,2021-12-17,2021-12-18,2021-12-19,2021-12-20,2021-12-21,2021-12-22,2021-12-23,2021-12-24,2021-12-25,2021-12-26,2021-12-27,2021-12-28,2021-12-29,2021-12-30,2021-12-31,2022-01-01,2022-01-02,2022-01-03,2022-01-04,2022-01-05,2022-01-06,2022-01-07,2022-01-08,2022-01-09,2022-01-10,2022-01-11,2022-01-12,2022-01-13,2022-01-14,2022-01-15,2022-01-16,2022-01-17,2022-01-18,2022-01-19
S,331797.8705741293,331715.632497525,331651.6836136637,331600.1694940269,331557.41987270623,331521.1655053906,331489.94948181283,339338.5838414462,347189.243091658,355041.66432754614,362895.61199193704,370750.8736276287,378607.2558069479,386464.58019846625,394322.6796776716,402181.39433642756,410040.56718221714,417900.0392260442,425759.6435124857,433619.19740379817,441478.4920127527,449337.2769304664,457195.23699465726,465051.9550872544,472906.8491915618,477638.8448194424,477612.9393639686,477586.5071661555,477559.08852592506,477530.44525662187,477500.4244107825,477468.90165987547,477435.7567790351,477400.862104413,477364.07611277443,477325.23884223134,477284.1677436092,477240.6533196445,477194.45422131324,477145.291593138,477092.84250264877,477036.73229949275,476976.5257467893,476911.7167601624,476841.7165832146,476765.84022537165,476683.29099226487,476593.1429539013,476494.32122647343,476385.57999564125
E,57.036629382221186,122.16371717180408,149.2847612238125,155.87802354184743,151.75138758594503,142.379935262596,130.78904203381614,118.62038262979422,108.07643655622876,98.93211262358773,91.00241790224965,84.13466101931103,78.20280706984872,73.10337791731986,68.75252463125155,65.084060485225,62.04836711094289,59.612199901426955,57.75954840304687,56.493888820589376,55.84245800443633,55.86369400117688,56.6599611406193,58.39962779613292,61.35673546842052,65.98611440054115,71.4044504126293,75.59494072687578,79.341358301771,82.9742988247084,86.63464111626733,90.38373478396774,94.2495165740196,98.24581736089272,102.38043992622273,106.65852691568332,111.08394855597041,115.65985327149367,120.38885966290425,125.27308951223733,130.31412432153775,135.5129184761689,140.86968110966632,146.38372964627175,152.0533139057059,157.87540769458457,163.84546380298838,169.95712782437244,176.2019060984042,182.568783375467
I,902.9571828018077,701.8552854083873,566.5558465534966,471.01979762874777,400.170580853192,345.19466895825485,300.87002372070856,264.0435449140604,232.76140243495533,206.1329049356703,183.420147258841,164.01220346615952,147.40340248739003,133.17528843689317,120.98179938104272,110.53720934654635,101.60643037946332,93.99734453837605,87.55492190224484,82.15698120769686,77.71157513347738,74.15615649104367,71.45895328606875,69.62344985533203,68.69775455798239,68.79243203074572,70.1143410244207,72.58224699730076,75.58985624066928,78.88786461498462,82.37600439904958,86.01608631626391,89.79564211606441,93.71273597826178,97.76963056983061,101.97015278976914,106.31860047692139,110.81928593973993,115.47633760029478,120.29360103224434,125.27457263829227,130.42233749521102,135.73949865583936,141.2280915058306,146.88947911154324,152.72422516862662,158.73194114337053,164.91110391400395,171.25883986746322,177.7706711077833
A,100.32857586686752,81.97395957496066,69.24407917512265,59.87380617681249,52.57538564770542,46.612850145742684,41.56167817447202,37.1730138005921,33.29702251936751,29.879911112180874,26.871892268452328,24.227586351829352,21.90610891204281,19.87097134172971,18.089878410903363,16.53447846766024,15.180104588684943,14.00553468427624,12.9927937444638,12.127021447662447,11.396433822747637,10.7924207983312,10.309847458700265,9.947676801178792,9.71013027482702,9.608806283914232,9.66662845914762,9.875436279696975,10.168197245563853,10.514798545504213,10.90106780114462,11.319893474403717,11.767426823042006,12.241426955654191,12.740516085350135,13.263826066066791,13.810816660323932,14.381171784938259,14.974733026095416,15.591452210763459,16.231354453977886,16.894507292828443,17.58099338854782,18.290885144128247,19.024220004690747,19.780975420923777,20.561042567576557,21.364197968150897,22.190072209251888,23.038114950353638
IH,0.0,180.3835000145477,234.28743656737464,235.37200269337302,216.85244272374342,193.04014188946329,169.63844726993756,148.57870254080143,130.2382952565589,114.4237337004582,100.85617019226206,89.2427621802641,79.30873476835578,70.80976288025575,63.53482532556031,57.304732488504,51.968949630693714,47.402002747501655,43.500072227023466,40.17804124805977,37.367109492307726,35.01302624831905,33.07500232688375,31.525417272230698,30.3505618551112,29.552896696937346,29.155792587127635,29.212762544093014,29.73548778194077,30.60894145051808,31.723328522341607,33.00135556075193,34.39508154524261,35.87701232584262,37.432421764168254,39.054081537452305,40.738986252912014,42.486427042797104,44.29689566973243,46.171473343469074,48.11149219206297,50.118345454825985,52.19337607283927,54.33780446063865,56.55267372701316,58.83880019889669,61.196722236355484,63.62664300080186,66.1283641763304,68.70120827152407
IN,36.118287312072304,66.21046748787994,83.2378823831973,92.01240355555832,95.50150957094888,95.57451170838281,93.43629742644796,89.88184482505415,85.44737094170381,80.50147519833385,75.31563088748351,70.0865014985184,64.95350142752648,60.012557820117856,55.32685475070712,50.935191954330335,46.85846663741157,43.10468592187836,39.67283627449789,36.555872066786705,33.7430359381478,31.221687432514642,28.978793186194046,27.0022234897801,25.282011772412517,23.811778656726105,22.59063170947308,21.62610174426421,20.921213724559728,20.454236169505478,20.197091192401306,20.122374814994348,20.20572766791318,20.426355858029652,20.76685738857882,21.212824182252422,21.752405134009198,22.375898334065084,23.075393067081453,23.844463607278296,24.677910143409353,25.571540275860038,26.52198448336957,27.526539550039878,28.583034689824856,29.689715821215056,30.845144067900506,32.04810507960824,33.297526187834755,34.59239874748976
D,1977.0,1977.0,1977.9315339435213,1979.1414378409704,1980.3569426396123,1981.476808986126,1982.473704182292,1983.3497486749732,1984.1170367289799,1984.7896115086469,1985.380516951095,1985.9013569721615,1986.3622231942816,1986.771788251221,1987.1374630366108,1987.4655686914057,1987.7615009880578,1988.0298783096323,1988.2746710680976,1988.4993135316372,1988.706800409338,1988.899771112648,1989.0805848922519,1989.2513903558724,1989.4141934740646,1989.5709294203716,1989.7235460754446,1989.8741120110374,1990.0249721500836,1990.1785317394797,1990.3366020060735,1990.5004271747707,1990.6708523127934,1990.8484749110191,1991.0337504754193,1991.2270584634487,1991.4287410041593,1991.6391247061952,1991.8585325174754,1992.0872899254737,1992.325728001231,1992.5741846951457,1992.8330051525631,1993.102541454026,1993.3831519825246,1993.6752005078572,1993.9790550154864,1994.2950862710659,1994.6236660894128,1994.965165261204
R,0.0,26.091822309638175,138.9073713242426,277.5301304186367,416.2561239414513,545.339419964467,661.972231457357,766.1622400858791,858.914081748733,941.4705041418772,1015.0334168261097,1080.7080892859858,1139.4849272711149,1192.2393714514485,1239.7399326520376,1282.659329997791,1321.5862768674933,1357.0367930234231,1389.4646039791883,1419.270534214587,1446.8109755665885,1472.405605681081,1496.3445948141925,1518.8956065320826,1540.311000710919,1560.835830197148,1580.7175677503915,1600.219183153402,1619.6285978050396,1639.2263599183964,1659.2289281647902,1679.7932770794969,1701.0338043908162,1723.0373837992704,1745.8739587529985,1769.6033239752232,1794.2792755605917,1819.9521018479727,1846.670073756477,1874.4803434167986,1903.4294929607254,1933.563872472289,1964.929805475852,1997.573705447248,2031.5421269401963,2066.8817635099854,2103.6393979051904,2141.861805843146,2181.595611893795,2222.887093915255
G,125205.0,125220.3998899332,125253.38409356959,125293.69097909999,125335.77804545632,125376.75092010452,125415.19350262542,125450.50654397454,125482.53404728459,125511.71468515477,125538.42635556312,125562.99700839675,125585.71336687195,125606.8281247808,125626.56603681849,125645.12921846892,125662.70191479992,125679.45497391987,125695.55026789325,125711.14534596208,125726.39869594363,125741.47615960485,125756.55935698516,125771.85754649312,125787.62544599808,125804.19176457456,125822.0080154627,125841.2872170741,125861.69785107036,125883.12001781185,125905.52307849452,125928.9144315959,125953.31803998757,125978.76540946256,126005.29178014999,126032.93449893009,126061.73230119732,126091.72496730743,126122.95312769074,126155.45811979972,126189.28185396802,126224.46666753483,126261.05515552338,126299.089969423,126338.6135764275,126379.66797118205,126422.29433125957,126466.5326064864,126512.42103099899,126559.99554564554
H,146519.80242571264,146519.80242571264,146519.80242571264,146519.80242571264,146519.80242571264,146519.80242571264,146519.8024257126,140946.364227724,135456.22930322366,130054.3780481468,124746.10948641677,119537.06196930708,114433.2310608063,109440.98305618965,104567.06210071927,99818.58830109524,95203.04355952896,90728.24113302291,86402.27418198949,82233.43791991676,78230.11956665566,74400.65037392228,70753.11484436212,67295.11427932985,64033.485345703026,62186.08827250503,62186.08827250503,62186.088272505025,62186.08827250503,62186.08827250502,62186.088272505025,62186.08827250503,62186.08827250503,62186.08827250502,62186.088272505025,62186.08827250502,62186.08827250502,62186.08827250502,62186.08827250502,62186.088272505025,62186.08827250502,62186.08827250502,62186.08827250502,62186.08827250502,62186.08827250502,62186.08827250502,62186.08827250502,62186.08827250501,62186.08827250501,62186.08827250502
S0,116129.25470094524,115822.7377923151,115370.54689809804,114926.77740750162,114489.40529085233,114057.17347682807,113629.27056390242,115896.59765338503,118103.38427580561,120247.41494209888,122326.34068009864,124337.67289081673,126278.77919609747,128146.88209707166,129939.06145177546,131652.26200504182,133283.30745017077,134828.92274424023,136285.76659226848,137650.4760847305,138919.72529740952,140090.2990516802,141159.18168356994,142123.658070687,142981.41935341054,143224.97176187846,142695.772397636,142168.25722828574,141642.18740674443,141117.4425586431,140593.94913171293,140071.650704075,139550.49533656266,139030.42987216357,138511.39703200985,137993.33358033226,137476.16882651855,136959.82314282935,136444.20634485927,135929.2158499274,135414.73455489852,134900.6283839666,134386.74345905855,133872.90284531147,133358.90282379286,132844.50864466256,132329.44971750712,131813.41420288378,131296.04298171896,130776.92299896246
E0,57.036629382221186,85.25371428643237,94.95740467886029,94.95055068620186,90.13833866605148,83.19653184015064,75.55763780422912,67.96450056949885,61.5273677863307,56.039764942882165,51.34315604123086,47.31458610423452,43.857986640632475,40.89805134486184,38.37594701309494,36.246373447767866,34.475665233399944,33.04076675089167,31.929034079142923,31.138949181457996,30.68200843508493,30.586330347906085,30.903038222695937,31.71748012167997,33.1694869831789,35.49178814500402,38.21796829042505,40.299604307846124,42.14716660918,43.93143425870542,45.72355286332908,47.55332128988801,49.43342491285674,51.36948639469469,53.36421254330449,55.41908613047537,57.53503855268259,59.71270009673499,61.95247487446752,64.25454186224418,66.61882291412441,69.04493347134422,71.53212126440594,74.07919397423933,76.68443500413359,79.34550573921936,82.05933234222317,84.82197503315498,87.6284778694291,90.47269730172422
I0,902.9571828018077,701.8552854083873,556.5901457744462,448.7751838286027,366.809134116548,303.19676362433603,252.96242529938087,212.71025862091236,180.05919546400148,153.4988425975317,131.82520522833923,114.080165333505,99.5021347325802,87.4861925342497,77.55212685504031,69.31898111339011,62.48490952578374,56.81135012433077,52.11071585928555,48.23698351585776,45.078731954096384,42.5543594709955,40.60942197783644,39.216332721342376,38.37716339303731,38.131243308903386,38.57130872720628,39.64192842438249,41.017887665471825,42.56277537138754,44.218998056096986,45.961980721224776,47.78108640282394,49.67165360988082,51.631656654622546,53.66028638599206,55.757328011234584,57.922869715441486,60.1571487170282,62.46045446681349,64.83305533769376,67.27513425546834,69.78672645500328,72.36765561014641,75.0174657462681,77.73534673653421,80.52005127197691,83.36980117448155,86.28218087859781,89.25401589381937
A0,100.32857586686752,81.97395957496066,68.1367790885615,57.358145411215006,48.73503284955806,41.69217643962799,35.84963710690691,30.9464388196524,26.796086072806887,23.28268989183543,20.30734486175481,17.786170570640774,15.648374039639656,13.834438830930699,12.294492605090415,10.98687249446518,9.87688919900518,8.935781316206143,8.139848055491663,7.4697494667676185,6.909968048857834,6.448434692138815,6.076337664148235,5.788161277999466,5.5820534260499715,5.460727350335344,5.433335524618396,5.493207468407468,5.603554103961359,5.747258281444487,5.915749652916752,6.104306308233274,6.310044685283259,6.531038495612309,6.765915388330688,7.013658686963685,7.273499533485209,7.544850783368645,7.827261629596966,8.120383549911597,8.423943095796604,8.737719164061016,9.06152333538914,9.39518230624349,9.73852166422197,10.091350381501584,10.453445477377848,10.824536352168973,11.204288332729828,11.592285002266735
IH0,0.0,180.3835000145477,234.28743656737464,233.3811574784927,211.3703283548099,183.51636906185982,156.28146719778425,132.04195696053478,111.35881206750497,94.04893992008849,79.71511877066959,67.90965814060496,58.207664599446204,50.23539510054596,43.677081173693246,38.272103747833526,33.80843481605418,30.115192710823443,27.05559759764758,24.52083850723534,22.42499467101043,20.70099602321296,19.297560997150494,18.177067698404123,17.31438364050156,16.696814976924365,16.32559810930766,16.21990377199003,16.37865687444634,16.736328653967902,17.23149214835108,17.820605034687233,18.476048717561504,19.18129392974721,19.926788699639346,20.70714657880324,21.519396651308927,22.36194654348275,23.233983378452496,24.13513059388764,25.0652496193188,26.024321796870034,27.012373938665505,28.029427067277787,29.075456922286662,30.150359760883383,31.253919637778687,32.38577475335647,33.54538118691357,34.731972702825445
IN0,36.118287312072304,66.21046748787994,83.2378823831973,91.61377552439632,94.27960554624468,93.22201675008053,89.79638511648089,84.9329248588397,79.27081542865314,73.24735051531452,67.166448400693,61.23316073738405,55.58000288949309,50.28691734596425,45.39631186289159,40.924310255922386,36.869107921075624,33.217127509757105,29.947514489147554,27.035390290956457,24.45418624961382,22.177309667274375,20.179340600928068,18.436922500266196,16.929492237115152,15.640000378464169,14.55581525369342,13.670122156632736,12.97502612266756,12.450940822552349,12.076091338674754,11.830032020864346,11.694745446057905,11.654794805386187,11.697132363982082,11.81080629126711,11.986659634084015,12.21705462711621,12.49563134514676,12.817100464876177,13.177066731079558,13.571878943902608,13.998502400058783,14.454410126650126,14.93748970713179,15.44596292927499,15.978315859208571,16.533237260966047,17.10956354286006,17.70622862847749
D0,1977.0,1977.0,1977.9315339435213,1979.1414378409704,1980.346661544646,1981.4382172329426,1982.385929894905,1983.1929964582343,1983.874885682403,1984.449963299495,1984.9356495173624,1985.3473132168733,1985.6980113219981,1985.998606528007,1986.2580314515649,1986.4835880222265,1986.6812322841918,1986.8558253295976,1987.0113457858674,1987.1510659239202,1987.2776960945914,1987.3935029378872,1987.5004067315201,1987.6000629256541,1987.6939326839934,1987.7833473814073,1987.8695728393814,1987.9538812644084,1988.0376438642197,1988.1222262945785,1988.2086558085298,1988.2976424388614,1988.389671357707,1988.4850851096364,1988.58414087901,1988.6870465220293,1988.7939820782751,1988.9051122449655,1989.0205934960045,1989.140578107449,1989.265216410718,1989.3946580216268,1989.5290524596378,1989.6685493826765,1989.8132985572324,1989.9634496245103,1990.1191516899673,1990.2805527438793,1990.4477989081213,1990.6210334956609
R0,0.0,26.091822309638175,138.9073713242426,277.30867040132455,414.5227732790555,540.0394941818306,650.7881522272647,746.9067124658179,829.7608436394719,901.0510624664754,962.4410113947861,1015.4372569869663,1061.3519132340873,1101.3039464697367,1136.2368682646124,1166.9418406829836,1194.0810346050412,1218.2090309304567,1239.7915161589995,1259.2212204654447,1276.8313559064497,1292.9069326636363,1307.6943665879337,1321.4097989026595,1334.2465646821324,1346.3823027617489,1357.9863421470777,1369.228320002591,1380.2844757499995,1391.3218649395897,1402.4698376365627,1413.8233239762599,1425.452290277664,1437.4100484106916,1449.7391262937783,1462.4750795772989,1475.648883973109,1489.288427532927,1503.4194529100932,1518.0661667557245,1533.251645302729,1548.9981111896443,1565.327124824222,1582.2597152993042,1599.8164653874294,1618.017559053106,1636.882796271267,1656.431577625391,1676.6828595709671,1697.6550800579685
G0,125205.0,125220.3998899332,125243.41839279053,125269.05689205382,125294.6935407391,125319.03089217894,125341.49395577578,125361.89451798292,125380.24493313668,125396.85732243898,125411.98805897355,125425.8507111047,125438.62564935283,125450.4673057458,125461.50977960891,125471.87128530245,125481.65780613334,125490.96623574635,125499.8872427691,125508.50808197046,125516.91559824946,125525.19974052694,125533.45804972087,125541.80187004099,125550.36558967385,125559.3213511593,125568.90413395845,125579.22298539686,125590.10387855998,125601.48361354446,125613.34510079431,125625.6904600674,125638.52985681567,125651.87688154215,125665.74664286872,125680.15498025541,125695.11813351064,125710.65259391986,125726.77502294598,125743.50219116209,125760.8509174649,125778.8379996517,125797.48013168896,125816.79380443036,125836.7951868034,125857.49998425452,125878.92327080411,125901.07929053651,125923.98122379546,125947.6409128202
H0,51281.93084899942,51166.546504589176,50982.34693717265,50798.81048819883,50615.934770441316,50433.71740526773,50252.15602260877,47379.79872836396,44571.27756575966,41828.65610854545,39154.1458819765,36550.11043240686,34019.06745311961,31563.688140418577,29186.792734545223,26891.34094633441,24680.41569006724,22557.198253016242,20524.93276502117,18586.877640587292,16746.241632492984,15006.102372672749,13369.30592658508,11838.347111789792,10415.232274467031,9607.013799446398,9572.428549768392,9537.967806989225,9503.631122884064,9469.418050841681,9435.328145858652,9401.36096453356,9367.51606506124,9333.79300722702,9300.191352401001,9266.710663532358,9233.350505143642,9200.110443325126,9166.990045729155,9133.98888156453,9101.106521590898,9068.342538113171,9035.696504975964,9003.16799755805,8970.75659276684,8938.461869032879,8906.283406304361,8874.220786041666,8842.273591211915,8810.441406283553
S1,33179.78705741293,31058.965287032537,29248.49843091199,27567.833025950684,26007.06947547771,24557.262321062943,23210.244826273814,22480.578072278426,21775.865200053817,21096.362726957374,20442.123476481658,19813.022480865915,19208.780452680556,18628.98510147439,18073.110561563124,17540.535190726245,17030.557994537012,16542.41392450955,16075.288286433883,15628.330472649333,15200.667190299408,14791.415284267141,14399.694128757299,14024.637351478177,13665.4032920917,13274.31525901245,12840.536928113308,12435.852466521204,12058.168696863713,11705.552426975644,11376.212520372364,11068.487145874227,10780.833470094505,10511.818691204006,10260.111949633618,10024.476904687215,9803.7648686686,9596.908432826503,9402.915538027555,9220.863951873196,9049.896118728335,8889.214352156114,8738.076341511978,8595.790946348929,8461.714254014072,8335.245877481339,8215.825472147764,8102.929452100322,7996.06788832697,7894.781573604552
E1,0.0,12.950878205393584,18.526228866049358,20.188643059432618,19.81055288375148,18.433173320800666,16.632345756912425,14.721732528487788,13.01153822397443,11.499593325509888,10.17524291327503,9.023457843960655,8.027469118439319,7.170405745718195,6.43627138652114,5.81049252857816,5.2801994868214255,4.834352864373042,4.463796564728046,4.161300593991275,3.9216516818789384,3.7418593354050564,3.621577159217143,3.5639141952160003,3.5769785918838437,3.676887126660014,3.813318040064395,3.8883573000257847,3.9409970255861824,3.9870063549949695,4.032779635408304,4.080923715699933,4.132514340947754,4.188007415179049,4.247606428292608,4.311409852040429,4.379469484111486,4.451812733708277,4.528450263902528,4.609377608936512,4.694574196806093,4.784001104594208,4.877598021711526,4.975279550257971,5.076930830491573,5.182402421160361,5.291504340872507,5.403999169545523,5.51959411274481,5.6379319465052085
I1,0.0,0.0,3.496737115456268,7.6604072440115765,11.274607200326537,13.920147111930337,15.55947418813053,16.319516834505624,16.381458699698044,15.966796319242999,15.243332297421274,14.335758427381464,13.334811317741543,12.304944056471317,11.290600665371393,10.321249824150524,9.415359667238397,8.583495414748189,7.830708429809489,7.158366765592297,6.565558359194805,6.050182249801567,5.609833790269079,5.242591368271463,4.9478335572377965,4.727277129959811,4.586578759013062,4.516451943136238,4.483400014179339,4.472485662744681,4.476610761194765,4.49210557167239,4.51688409752027,4.549650952078353,4.589544437265609,4.635964406377891,4.688481197088936,4.746782152462468,4.810636981711719,4.879873489835838,4.954359563225848,5.033989210674167,5.118671345267351,5.2083204361162085,5.302848402615544,5.402157271091525,5.506132209852245,5.6146346253921635,5.72749505130894,5.844505599614062
A1,0.0,0.0,0.38852634616180753,0.8666079429109268,1.29894564611172,1.6334731034019203,1.8597736823455562,1.9867893185838177,2.031083430721688,2.015212891296583,1.9571581128025632,1.8709837776403013,1.7674907574310605,1.654816679498028,1.5389655159699682,1.4242605543716087,1.3137232193546318,1.2093845600883482,1.1125382340018697,1.0239444841433372,0.9439946051344079,0.8728452345638945,0.8105319677132673,0.7570728889471281,0.7125757370141825,0.6773699473678613,0.6522025716940895,0.6361615985572034,0.6255799978465363,0.6186939090448145,0.6145653178857007,0.6126356433708097,0.6125362261676457,0.6140044111625491,0.6168437513854107,0.6209031939571068,0.6260648507268983,0.6322359651048632,0.6393431540951389,0.6473280311931869,0.6561437532226448,0.6657522284822986,0.6761218159236652,0.6872253933902779,0.6990387012199615,0.7115388858907163,0.7247031813473839,0.7385076753040822,0.7529261153296315,0.7679287156460495
IH1,0.0,0.0,0.0,0.6985421806597677,1.8946381471341511,3.2404630073424956,4.4708691925163135,5.440068560882397,6.097382574077878,6.4525751299225735,6.554986834722093,6.463872884327799,6.235047138814702,5.915745431259957,5.5434791212828145,5.146690618295446,4.746100851617479,4.356206080008073,3.98667735716308,3.643567676422474,3.3303072381997874,3.0485028417876214,2.798572796024176,2.5802548918672237,2.3930284957087067,2.2364979317927847,2.1107997968552636,2.0171353640338876,1.9542759888944796,1.9148892589195978,1.8921669733162578,1.8811403620985936,1.8784848885826135,1.8820499402960247,1.8904550983076815,1.902808271664182,1.9185243041818412,1.9372121774051,1.958605498458167,1.982519326501607,2.0088228073286194,2.0374213023614023,2.0682442795456035,2.101236756875948,2.1363529723136683,2.1735514630859174,2.2127910323424285,2.254027254201886,2.2972092718091286,2.34227670680073
IN1,0.0,0.0,0.0,0.13986948461825072,0.4229494380756915,0.8033672951546051,1.2261364422709449,1.6439423219041096,2.0224416465581823,2.3402684343588755,2.588481343402567,2.766342942137697,2.8782265065154284,2.9314051234792995,2.934516535068999,2.8965350917269417,2.82611657763774,2.7312113396764595,2.6188658685763992,2.495153047313756,2.3651872589878273,2.233193101802741,2.1026062881166796,1.976193117588176,1.8561814858316044,1.744402721146999,1.642451277235494,1.5518818502149836,1.473618284967225,1.4070904219894913,1.3512257368996015,1.3048467240999169,1.2668255478184458,1.236139104661492,1.211883174080552,1.1932699310668422,1.1796189883488786,1.1703462904626123,1.1649527216160003,1.1630132286894919,1.1641667881803468,1.1681073265228914,1.1745755969361271,1.1833519628435003,1.1942500114025119,1.2071109083467912,1.2217984009528575,1.2381943761322023,1.2561948834757106,1.275706537384567
D1,0.0,0.0,0.0,0.0,0.003607401742473594,0.013391665517172694,0.030126019179349192,0.05321441922445724,0.08130794506876313,0.11279596273074868,0.1461182608132202,0.17996943198678347,0.21335007377426787,0.24554901685272496,0.27609902652658813,0.3047265837380855,0.3313050513216405,0.3558147988445597,0.3783110572505344,0.3988990006032563,0.4177150617498182,0.4349133877302299,0.45065642339489603,0.46510877381886273,0.47843368998091396,0.4907917342110492,0.5023414254960734,0.5132419882337406,0.5236588504197123,0.5337510951012772,0.5436399393837315,0.5534114415572224,0.563126000259551,0.5728268456027527,0.5825461015360647,0.5923087632686205,0.6021352190859505,0.6120428354182195,0.6220469594035625,0.6321615624777578,0.6423996610076915,0.6527735956047885,0.6632952181492561,0.6739760162806545,0.6848271937012429,0.6958597177896009,0.7070843418028373,0.7185116062498642,0.7301518222160798,0.7420150381526232
R1,0.0,0.0,0.0,0.07770526923236151,0.6049772058720952,1.8320487210415821,3.8264633761856204,6.519015172601636,9.765392090123823,13.394879115888926,17.242329001931957,21.168051261602137,25.063090283987375,28.847796506234843,32.467717673291865,35.88879728118536,39.09280234487153,42.07335536472222,44.83267247059839,47.37898141274305,49.72454004174891,51.88416125389318,53.87415460468266,55.711607977473044,57.41395031075749,58.998757389617346,60.483789161799876,61.88728565993712,63.228132457813615,64.5240543539969,65.7888578796152,67.0327607561188,68.2633208532792,69.48626066211088,70.70606157789045,71.9263615026189,73.15021446513317,74.38026044894586,75.61883837462702,76.86806313038448,78.12987947879817,79.4061006471596,80.69843638636141,82.00851348319028,83.33789063252134,84.68806891671719,86.0604987229721,87.4565836542514,88.87768179825576,90.32510457862067
G1,0.0,0.0,3.496737115456268,8.498818909289595,13.949752535336401,19.2986018139493,24.275558610565483,28.76629196493184,32.74115974762354,36.25427506809664,39.35916526598431,42.106480852568566,44.542814470437946,46.71023113241656,48.646240683760475,50.38403395812118,51.95286694083728,53.37852080227907,54.68379607565979,55.889021148136365,57.01257230851401,58.07141826262132,59.08172028318069,60.059546116169315,61.021802948877635,61.987587168686275,62.98034669288448,64.00994256370187,65.05979903470883,66.1238682316171,67.20035994746574,68.28921044902599,69.39105985226497,70.50683872432087,71.63760072641921,72.7844544620582,73.94853512210912,75.13099188281922,76.33298132092045,77.55566289217414,78.800194846587,80.06772987972465,81.35941017796509,82.6763616438272,84.01968712239686,85.39045844662958,86.78970710034288,88.21841327237846,89.67749304815575,91.16778345859686
H1,14651.980242571264,13720.794569654994,12924.93738209616,12185.264018063113,11497.763734530407,10858.712261523251,10264.651339787697,9190.306583005326,8218.038272295264,7338.473779847511,6543.103311074165,5824.205510998384,5174.779183580358,4588.480550545352,4059.5655081334717,3582.8363676495924,3153.5925899506396,2767.585046915011,2420.9733672665543,2110.2859538458074,1832.3822999138113,1584.4172900976253,1363.8072547640356,1168.1976620753348,995.4324838502624,890.3931228107081,861.3788637165217,834.3125448016507,809.055475706694,785.4788709128842,763.4631422592796,742.8972419944222,723.6780527528557,705.7098211047293,688.903631566123,673.1769181800435,658.4530109844711,644.660714875526,631.7339185518159,619.6112313913111,608.235646265564,597.5542264386081,587.5178148302007,578.0807640459569,569.2006856910261,560.8382175899135,552.9568076334381,545.5225130651738,538.5038141045543,531.8714408825919
S2,33179.78705741293,35149.370474150615,36945.02771200684,38590.70117972151,40097.252744494246,41474.78102754131,42732.66914193753,44921.99368093221,47040.700091692765,49087.3158843294,51060.535916910645,52959.18757217712,54782.200265249565,56528.57941545532,58197.38515160552,59787.71617254178,61298.69934916175,62729.48582031662,64079.25448399132,65347.22388507167,66532.67350162384,67634.97525834541,68653.63564155583,69588.34790112422,70439.05226425196,70955.75273782953,71056.73763936391,71125.47923010789,71164.39545522368,71175.74698061834,71161.63738970496,71124.01976036675,71064.7053134324,70985.37244816648,70887.57550671345,70772.75302026105,70642.23535534479,70497.25174468751,70338.93671193649,70168.33590768902,69986.41137527348,69794.04626306817,69592.04899750269,69381.15692813108,69162.03945375541,68935.30063686121,68701.48131295758,68461.06070221231,68214.45753356122,67962.03069689755
E2,0.0,4.532807371887754,6.920260656751491,8.03626914942434,8.407547263164984,8.349090881856599,8.048706105967755,7.618227349144759,7.225536860962196,6.866048034826497,6.537231326438959,6.237794156512852,5.967196576806138,5.725387755457302,5.512689641774048,5.329783100916992,5.1777729350622295,5.05832516884182,4.973886133748058,4.928012159018655,4.925866932858226,4.974991412590405,5.086539985442797,5.2773537493581895,5.573620109844814,6.017739824056295,6.531355283693778,6.933004125691683,7.2935743473631,7.642714811055249,7.992833123180926,8.34914413544774,8.713871166888438,9.087997381173391,9.471991739979156,9.866106402933402,10.27049539277761,10.685258859191004,11.110456330788761,11.546106844461889,11.992183188815657,12.448603057475278,12.915218059404662,13.39180076281585,13.87802962522045,14.373471523573443,14.877561539941969,15.389579640481939,15.908623898451093,16.433579959005687
I2,0.0,0.0,1.2238579904096938,2.79888428488529,4.297589264983249,5.5371952682688415,6.4637980691782415,7.087125690131526,7.444768960059873,7.610633772900649,7.639667243607098,7.572958856021651,7.441397083705739,7.268318493660369,7.071450526240504,6.864357044773962,6.657533542523266,6.459257307899112,6.276270812870946,6.114360398321539,5.978885224717407,5.875313683956986,5.809839071643347,5.790181403202844,5.826756764599702,5.934554379311361,6.1364177133897275,6.428556507277133,6.7590944528461,7.107733368913191,7.46704715626742,7.834740323128441,8.210475777089334,8.59459754643271,8.987632626068546,9.390108273139564,9.802493407592559,10.225186102712033,10.658516026277486,11.102749874444633,11.558095537668235,12.024703713491167,12.502666744028048,12.992014764971149,13.492709279803613,14.004634205835636,14.527584350268828,15.061251191481935,15.605205772857321,16.15887846836335
A2,0.0,0.0,0.13598422115663264,0.31639519662785087,0.4942042317850109,0.6475898033229582,0.7685445691140645,0.8562968384702843,0.9135842912505702,0.947633538829322,0.9640882721082524,0.9673875574797707,0.961043870679202,0.9478509938475458,0.9300424277417556,0.9094146314466259,0.8874251981848105,0.8652733465997152,0.8439684323450267,0.8243913298884631,0.8073534286813301,0.7936587509308108,0.7841767431223607,0.7799375940611725,0.7822706877296837,0.7930251534790913,0.8149523175049619,0.8479025125147829,0.8863121337825768,0.9278569374469544,0.971566994289221,1.0170385891268046,1.064105195364876,1.1127002912985537,1.1628001544740447,1.2143998757786105,1.2675030927108906,1.3221173359520408,1.3782516345373628,1.435914997553553,1.495115203376699,1.555857658365829,1.6181442184169215,1.681971916515677,1.747331556097017,1.8142061336342272,1.882569052614585,1.952382088289927,2.0235930598464,2.0961331648306527
IH2,0.0,0.0,0.0,0.2444897632309187,0.6866445873581705,1.216643831092826,1.7406977115060664,2.199122260071508,2.5627330011115252,2.823818443795867,2.9931208626611085,3.0872196004590036,3.122969955188273,3.1153332948359216,3.0767745765554584,3.0173362347559936,2.944965494058742,2.8659038667225065,2.7850601301106526,2.7063413713115674,2.6329412454177907,2.5675959833444133,2.5128250701174286,2.471179761963939,2.445532877588864,2.4394635380546354,2.457832806850159,2.507739377175466,2.592128353688274,2.7021724239055414,2.829212790484232,2.9672499963706453,3.112696488554067,3.2636138579736285,3.4190598646580797,3.5786483662441793,3.742283302351877,3.9100082492318755,4.081925456821007,4.258154110640611,4.438809649048,4.623993808489868,4.813789753846294,5.008259306453332,5.2074407290817035,5.411346287027224,5.61995918738034,5.833229680585931,6.0510701867651155,6.273349336580221
IN2,0.0,0.0,0.0,0.04895431961638775,0.15274197330574155,0.2991615145159696,0.47073612415986377,0.6507487105352268,0.8256604435490625,0.9856949941885433,1.125663387681935,1.2434402813821337,1.3388985119351497,1.4131676713284547,1.4681223489715607,1.506033468535902,1.5293356190161325,1.5404770134064802,1.5418284874287638,1.5356350167818316,1.5239984708445864,1.5088844018410805,1.4921491577504058,1.4755870984904589,1.4610020070256864,1.450313360013054,1.4457199505438343,1.4499674556712525,1.465191843265989,1.4910976561830505,1.5266268051806355,1.5706006925269365,1.621945542374526,1.6797532478687793,1.7432809751548624,1.8119309072911527,1.885226059586436,1.96278778601754,2.0443165381798503,2.129575932131178,2.218379690936912,2.3105809324055975,2.4060633086094527,2.5047335772190245,2.606515258223774,2.7113430919571275,2.8191580636063382,2.9299027968938938,3.0435171475453915,3.1599338477124066
D2,0.0,0.0,0.0,0.0,0.001262590609865758,0.004808550967701867,0.011091525994505125,0.02008081272830829,0.031437489093079356,0.04467191895237955,0.05925464259686594,0.07471167542085332,0.09065465162821101,0.10678224931658309,0.12287040987055659,0.13875944603181106,0.1543415315411026,0.16954988108523197,0.18434994168116045,0.19873251018513505,0.21270856037780456,0.22630555866870214,0.23956510187271685,0.2525417978940098,0.26530342979840604,0.27793261642183686,0.2905304598470792,0.30322316559287366,0.3161735981499286,0.3295598310771636,0.3435143520500477,0.35812493310412497,0.37344836396287756,0.38952290755879315,0.4063768165194451,0.42403347756994864,0.4425142833244365,0.4618401303233728,0.482032140143085,0.5031119623975917,0.5251018621971111,0.5480247007970087,0.5719038648385828,0.5967631704420401,0.6226267529844649,0.649518945439006,0.677464144119081,0.706486658616399,0.7366105416067141,0.7678593934869965
R2,0.0,0.0,0.0,0.02719684423132653,0.21435850537703863,0.6636663642002743,1.4189245969728097,2.475030116779025,3.795688448395196,5.329081023081204,7.019553693540654,8.81679952936419,10.678891673944882,12.572562017134423,14.472370757380652,16.359537113748406,18.220771484243745,20.047243334373423,21.833724496302466,23.577907514374896,25.27988485853011,26.941773489684504,28.56747414769736,30.162563632224035,31.734331645901573,33.29199439831738,34.84715214467848,36.41462295969087,38.01301283389701,39.66156530231291,41.37483186488383,43.16289536585271,45.03272177339831,46.98936663967805,49.03680326828756,51.17843032713283,53.417363002470104,55.756592161632724,58.1990676276681,60.747739445695956,63.40557643297513,66.17557251929732,69.06074636035008,72.06413693230955,75.18879632056496,78.43778012042844,81.81413544340452,85.3208862875082,88.96101588689993,92.73744555408257
G2,0.0,0.0,1.2238579904096938,3.0923283677325966,5.262121038077169,7.5321587991317145,9.786413337232997,11.95956398584429,14.016485370113376,15.967380322573169,17.821213291976324,19.586265750114844,21.270470172373315,22.881613248110973,24.427467942084444,25.91589414536344,27.354935582611027,28.75293427507783,30.118682070665123,31.4616313267771,32.79219460971213,34.122178681583854,35.465426362983266,36.83879215905282,38.26367767137953,39.768555101037634,41.39334485353283,43.15681078013015,45.028721894066905,46.99798696785494,49.06151996683986,51.21958491009871,53.4738538266696,55.82659904172947,58.28035833464629,60.837796104440656,63.501644833232675,66.27467858928263,69.1596984812642,72.15952169057717,75.27697053858188,78.5148599995621,81.87598282508043,85.36309170111969,88.97887790707996,92.72594590588949,96.60678321725432,100.62372483303865,104.77891133596877,109.07423978855057
H2,14651.980242571264,15524.121923676697,16319.367703370188,17048.299329432175,17715.719386324396,18326.08680323937,18883.541407595323,18349.56421258705,17737.757205553942,17060.422849730636,16328.916146945443,15553.735916498372,14744.607534777853,13910.55732680171,13059.978632672963,12200.689389406452,11339.980875005334,10484.657065554218,9641.063873874939,8815.107397612726,8012.260247798981,7237.555115428811,6495.565039466897,5790.370450885892,5125.51406255987,4754.192769845046,4761.194745642893,4766.0409175078485,4768.896088356682,4769.913192712438,4769.234145483449,4766.990630103356,4763.3048303636315,4758.290109960697,4752.051643492455,4744.687002372268,4736.286698880695,4726.934691345292,4716.708853225147,4705.68140867855,4693.919337007946,4681.484748205391,4668.4352316628465,4654.824179964256,4640.701089539392,4626.111839832331,4611.098952519321,4595.701832201242,4579.956989893977,4563.898250545565
S3,99539.36117223879,99097.10422624793,98683.66943996935,98296.22806540137,97932.43245763208,97590.21594236228,97267.72586170518,99265.63392384461,101356.44942499856,103543.51087705014,105830.43304659774,108221.12680845699,110719.81564247154,113331.04728880042,116059.6986057352,118910.97111395559,121890.37406694099,125003.69118172549,128256.92644796852,131656.22379776282,135207.7550090201,138917.57023935803,142791.4063073015,146834.44952236747,151051.05265656355,153536.3035988057,153098.50473929517,152665.48537062487,152236.76431433862,151811.91907224176,151390.56672911803,150972.35486676943,150556.95645444278,150144.0663727889,149733.39862493446,149324.68383578298,148917.66685999406,148512.10440760452,148107.7626315504,147704.41463468672,147301.83785811256,146899.81131305525,146498.11261759288,146096.5147982337,145694.78281552627,145292.66977304302,144889.91277092337,144486.22836949315,144081.30763631227,143674.81076262743
E3,0.0,7.77052692323615,11.47639844499897,12.905688047507631,13.08345044777419,12.597007724442406,11.781803042531568,10.827985709102492,9.969609602941341,9.205004538535364,8.529972693153308,7.9390855855742135,7.426550849234884,6.986789401179341,6.614825697435181,6.306567695744427,6.059036745668121,5.87059982604352,5.741257663527677,5.673054678057473,5.670706454544707,5.742600852641708,5.902449023955114,6.172108392494865,6.586629547178634,7.2038053346686155,7.909972395853926,8.443905621910408,8.904041488709616,9.334356425610691,9.75528073070227,10.17684067824984,10.604313946076926,11.040708569055985,11.487879278804726,11.94704924419095,12.41906545685385,12.904530074129683,13.40387075392923,13.917378762605122,14.445228528735946,14.987485440858851,15.544105415007593,16.114928104489483,16.699664727406407,17.2978809649103,17.908975062106663,18.532151064815558,19.16638701462609,19.810397890773736
I3,0.0,0.0,2.0980422692737606,4.693622850256672,7.052770005027103,8.894260964447621,10.162878624117777,10.907214923635582,11.215551239945684,11.218196296582384,11.01376378135075,10.676089393994646,10.259839579566261,9.805009486138042,9.34049828408757,8.886932601044336,8.458888572578362,8.066643182754408,7.717568390372223,7.417268777960807,7.1705571122705525,6.982365412260878,6.858707870211872,6.807858668162144,6.842009594355033,6.979892874436391,7.251353382226753,7.648390987665188,8.094392970221321,8.557693868097564,9.026094274207127,9.495836010320343,9.966769089586222,10.440204460470802,10.917950915114222,11.401884329615568,11.893761057388605,12.395145019230378,12.907387737573288,13.431632148335792,13.968825787930927,14.519736097951242,15.08496416564159,15.664955053057918,16.26000381624636,16.87025679463617,17.495707973804215,18.136190307582382,18.791361894786263,19.460686883010414
A3,0.0,0.0,0.23311580769708448,0.5307845995076367,0.8117983210313383,1.0419421702582963,1.211463967939909,1.3226252656278743,1.3829397837753743,1.4054401151085396,1.4005022282428925,1.3763009633889132,1.3392133382783569,1.294167196099732,1.244937438915166,1.1943947220551883,1.1447128085164835,1.0975413491832304,1.0541510741278899,1.0155585892081422,0.9826385117082379,0.9562320030029315,0.9372636279815965,0.9268843731039306,0.9266707502579904,0.9389354866217513,0.9672625493374595,1.0111092113455853,1.0622045377337805,1.116884874848313,1.173538592646971,1.231489296038645,1.290496657178411,1.3505267441250366,1.4116426523717087,1.4739505002615088,1.5375718775349354,1.6026294657335638,1.6692394748107415,1.73750770246647,1.8075275248513296,1.879378875743142,1.953127663820279,2.028825293506451,2.1065080779398455,2.1861964041740687,2.267893552286564,2.351584093692451,2.4372318068984273,2.5247770559575247
IH3,0.0,0.0,0.0,0.4191253083958606,1.1562361643440238,2.0119583656081073,2.8261296194350285,3.504187472608928,4.006520604547698,4.330105898164813,4.499398400352431,4.546852532444157,4.504144853131271,4.398716794628115,4.252870101791596,4.084009303971785,3.9053322116469804,3.72663393951669,3.5550761050538426,3.395866503910492,3.252840858640571,3.12896111393486,3.0267573235068532,2.9487504762035273,2.8979083106537677,2.8782141844155245,2.8954877267412846,2.95872623468542,3.0710240144913565,3.218689982846702,3.388257831516372,3.570267210671824,3.759033357576806,3.951561453192211,4.146551454201951,4.343686672178292,4.543176683278743,4.745481656998786,4.951154016178471,5.1607518671127135,5.374794611001862,5.593742427716969,5.817988633084884,6.04785843780339,6.283610363613455,6.525438184345646,6.773472195843684,7.027779151676481,7.288360496028955,7.555148680605146
IN3,0.0,0.0,0.0,0.08392169077095042,0.2576648029994039,0.49678586521255325,0.7696707333400518,1.0477711985421294,1.3092458171238304,1.5394285068061193,1.731312477051226,1.8830045233900667,1.9958807385002015,2.073274280526715,2.119561997243623,2.1395464539517146,2.1380540034996542,2.119688797800125,2.088697894586346,2.0489146353002323,2.0037569759805276,1.9562651190513485,1.9091693092050204,1.8649848348163607,1.8261382916311082,1.795139084816688,1.774827230231571,1.768762700055557,1.7795915024890527,1.8064536672268958,1.8473660860825623,1.9001885436079333,1.9629875785976303,2.034146316110223,2.1123700844709083,2.1966525714472023,2.28623039666344,2.380537799053992,2.4791659680302347,2.581828361354426,2.688331961980367,2.798553857988211,2.9124223421959985,3.0299017148000282,3.1509800347646375,3.2756591555820656,3.403946475078299,3.535847916222058,3.671361731925578,3.8104727905442286
D3,0.0,0.0,0.0,0.0,0.0021644410454841564,0.008135459646001781,0.01852558684923515,0.0331202458345767,0.051216521685383945,0.07190693925823667,0.09426841147081166,0.11750414165131999,0.1409849337959227,0.16424517554137158,0.1869609671841929,0.2089235793792455,0.2300141630080126,0.2501820248999423,0.2694270556785797,0.2877861298920864,0.3053230161139666,0.32212129130239736,0.33827982844882976,0.3539105662126548,0.369138462108547,0.3841037996054287,0.3989674329715144,0.4139202701228687,0.4291996826909482,0.4450590218801592,0.4616809355942844,0.47917852921678783,0.49761605312509266,0.5170284005245458,0.5374349988179709,0.558848561742713,0.5812801675981757,0.6047419769740187,0.6292485268607632,0.6548172070632213,0.6814682895509141,0.7092247285777643,0.7381118548521374,0.7681570302384815,0.7993892960497737,0.8318390286533439,0.8655376051006229,0.9005170753150123,0.9368098339477589,0.9744482831081488
R3,0.0,0.0,0.0,0.046623161539416896,0.3651502902754732,1.1177363338825024,2.3612529447058024,4.069543282898184,6.167384134800051,8.558663226840332,11.145997045852923,13.844482597397924,16.585896384667276,19.318512149775778,22.005133113841406,24.62060295189184,27.149378161767945,29.58340165056348,31.92035037271205,34.16225355531748,36.314448120292624,38.38483159181747,40.38337882780823,42.32190257585032,44.21405860309095,46.0756274463552,47.925156155142986,49.78513679153313,51.68280517435441,53.64564891369412,55.69379953622964,57.840361885632106,60.09347094289843,62.45820048836285,64.9379303285257,67.5352215818986,70.25233880793726,73.09154270946658,76.05524192624273,79.14606158954237,82.36686432934113,85.72074507529997,89.21101203594007,92.84116079063097,96.61484516277001,100.53584660221472,104.60804265696572,108.83537443322273,113.2218125335688,117.77132070831814
G3,0.0,0.0,2.0980422692737606,5.196669849423483,8.681205622250543,12.213737243149573,15.614929328749023,18.796016150232546,21.71957229169022,24.411366884484384,26.896718109888933,29.199810737040327,31.343363845145365,33.348532574438785,35.23496571275721,37.020968651064706,38.7237419289157,40.35968185024609,41.94474380327784,43.49488337243031,45.026608135505825,46.5576988782329,48.10820110844616,49.70186234491404,51.36833161088765,53.14672158862588,55.091749028986406,57.22744157586697,59.50729609378278,61.91138729573437,64.43166353064926,67.06558932793887,69.81333631106632,72.6765010765071,75.65749239015221,78.75921979542949,81.98492309136104,85.33807076471157,88.82229388472659,92.44133898828748,96.19903125419087,100.09924295694958,104.14586402598147,108.34277248803352,112.69380307624567,117.20271255264541,121.87314041317119,126.70856367993999,131.7122444674402,136.88716896138925
H3,43955.94072771379,43764.06955787059,43584.17995350353,43415.25664083588,43256.41877989359,43106.85004466024,42965.79399432663,42832.54977541671,42694.05905362856,42549.43900443825,42397.96061808854,42239.036138496675,42072.20769349133,41897.137004792916,41713.59606935776,41521.45870488302,41320.69285126383,41111.35351649146,40893.57624987254,40667.571017717346,40433.616347303185,40192.05359497803,39943.28118544166,39687.74866412806,39425.9504068185,39158.4188446493,38888.6962205849,38621.304641909104,38356.199018911146,38093.336599567316,37832.67680876988,37574.181099000176,37317.812811628784,37063.537048083825,36811.32055018266,36561.13158897271,36312.939861473795,36066.716394757714,35822.43345684122,35580.06447390594,35339.583953393376,35100.96741255566,34864.19131207253,34629.23299437267,34396.070626323904,34164.68314598001,33935.050213094844,33707.15216313476,33480.9699645396,33256.48517900051
S4,49769.68058611939,50587.45471777884,51403.9411326775,52218.629815451764,53031.25990424985,53841.73273759606,54650.039087993864,56773.78051100592,58912.84409910727,61067.05989711036,63236.17887184836,65419.863875311974,67617.68025044874,69829.0862956645,72053.42390699226,74289.90985416214,76537.62832140662,78795.5255552523,81062.40770182351,83336.9431635838,85617.67101439982,87903.0170968156,90191.31923347263,92480.86224159753,94769.92162524411,96647.50146191631,97921.38765956025,99191.43287061583,100457.57265275462,101719.78421814305,102978.05863987419,104232.38918279,105482.76620450281,106729.17472008998,107971.59299948304,109209.99150116781,110444.33183308323,111674.56559169668,112900.63299493954,114122.46124896167,115339.96259563585,116553.03198724665,117761.54433112327,118965.3512421372,120164.27723612598,121358.11529332351,122546.621718729,123729.51022721172,124906.44518655396,126077.03396354929
E4,0.0,11.655790384854228,17.4044685771524,19.796872599280967,20.31149832520288,19.804131495345715,18.768549324175268,17.487936473560328,16.342384082020093,15.321701781833818,14.41681492815148,13.619737329028782,12.923603884735895,12.322743670103167,11.812790892426246,11.390843712217547,11.055692709991167,10.808155291276913,10.65157396190017,10.59257220806397,10.642224500069522,10.817912052633634,11.146356749308309,11.668771337383896,12.45002023633433,13.595893970152217,14.931836402592157,16.03006937140177,17.0555788309321,18.078786974342066,19.130194763646752,20.223504964682224,21.365392207249734,22.559617600789608,23.80874993584176,25.114875286043173,26.47987966954485,27.90555150772971,29.393607439816208,30.945684433989623,32.563315493055654,34.24789540189633,36.000638349136594,37.82252725446912,39.714253718453875,41.67614704572112,43.70809051784406,45.809422916374416,47.9788232031531,50.21417627745817
I4,0.0,0.0,3.147063403910642,7.091699420991574,10.73648026630709,13.646301989272018,15.721447539901115,17.01942884487531,17.660428071250276,17.838435949412528,17.698178708122676,17.34723145525676,16.865219773796266,16.31082386637375,15.72712305030294,15.14568876318741,14.589739071339551,14.076598508643583,13.619658409906641,13.23000174996446,12.917842483198232,12.693935674028737,12.571150576108012,12.566485694353199,12.703991248752557,13.01946433813476,13.568682442584883,14.346919134839704,15.235081137950694,16.187176343841646,17.187254151283277,18.231423689917964,19.320426749044664,20.456629409399085,21.642845936759677,22.881909394644076,24.176536803616713,25.529302949893566,26.942648137704094,28.41889105281457,29.960236411773494,31.568774217626107,33.246469945899086,34.99514564153891,36.81645186660964,38.71183016052908,40.682465337468344,42.72922661506592,44.852596269912894,47.0525842629761
A4,0.0,0.0,0.3496737115456268,0.8018730265510734,1.2354045992192877,1.5976686291315165,1.8722588481655846,2.0608635582577257,2.1733289408129903,2.228934675110995,2.2427987935438103,2.2267434826795927,2.1899869060145374,2.1396976413537065,2.08144042318606,2.0195360653216357,1.957354163623835,1.8975541121988029,1.8422879484973498,1.7933775776548848,1.7524792283658268,1.721250117694747,1.7015374557348066,1.6956206670670946,1.7065596737751925,1.7387483461101838,1.7988754959927136,1.8870554888719355,1.9905464722396013,2.104104542719644,2.225647243405977,2.3544236376341843,2.4902440590478143,2.6331570134557434,2.783314138788283,2.9409138091058793,3.1061773058659985,3.279338234779144,3.4606371330552066,3.6503179296386516,3.84862487673061,4.055799366176157,4.272076354997815,4.49768023447235,4.732820005211954,4.977683615723179,5.232431303950177,5.497187758695464,5.772032894447603,6.056991011652675
IH4,0.0,0.0,0.0,0.6286879625937911,1.7445954700971738,3.0547076235600286,4.319283548695904,5.393367286703831,6.212847009316827,6.768294308486446,7.093545323856837,7.235159022428159,7.23890822177534,7.144572258985802,6.984620352237203,6.784592583647253,6.564116257316332,6.338066150430951,6.117661037048317,5.911427189179895,5.726025479039147,5.566970286039197,5.4392861400847945,5.348164443791886,5.2997085306583,5.301906065750038,5.3660741473732685,5.509257796208215,5.739402550420317,6.03686113087834,6.382198778673665,6.76209295692364,7.1688180929676175,7.59849314463355,8.049566647361189,8.521791648562411,9.015605311790628,9.531778415678598,10.071227319822292,10.634917445326503,11.223815505365684,11.838866119387713,12.48097946769698,13.151022892228188,13.849812739717667,14.578104503554531,15.336580183010344,16.125832160981087,16.946343034813616,17.798460844712523
IN4,0.0,0.0,0.0,0.1258825361564257,0.3885478103233686,0.7531802834191609,1.1733690101962062,1.6064577352329905,2.0192076058196045,2.388732747665789,2.7037252786547827,2.960553014224452,3.1604927810826022,3.307793398819135,3.408342006531348,3.468766684193392,3.4958525161824188,3.4961812612381875,3.4759295347588237,3.440779076434424,3.3959069827210406,3.3460351425450994,3.2955278301938766,3.2485359386189083,3.2091977508089635,3.1819231122851908,3.1718179977687537,3.1853675816896807,3.2277859711699017,3.2986536015536934,3.395781225563752,3.5167068338952165,3.6592235530646753,3.821522384002973,4.002190790890417,4.200164481180117,4.41467005532643,4.64517183141473,4.891326494108608,5.152945620227026,5.429964971232171,5.722419215040731,6.030420835569208,6.354142168527196,6.693799678302147,7.049639736054082,7.42192526905444,7.81092272939404,8.216888882028016,8.640056943371068
D4,0.0,0.0,0.0,0.0,0.0032466615682262357,0.012256077052336247,0.028031155364099655,0.050336738951173285,0.07818909072967203,0.11027338821041,0.14522611885145364,0.18185850622916033,0.21922221308495754,0.2566052815034955,0.2935011814646849,0.3295710600300412,0.36460795799532414,0.39850627520514126,0.43123722762004435,0.46282996703639145,0.4933576765050053,0.5229279370596714,0.5516768070150819,0.5797662922928669,0.6073852081833119,0.6347538887260415,0.6621339177487034,0.6898453226794604,0.7182961546034636,0.7479354968427376,0.7791109705156847,0.8120698320310409,0.8469905377392276,0.8840116476965709,0.923251679535787,0.9648211388380469,1.0088292558754257,1.0553875185138968,1.1046113950636491,1.156621086086259,1.2115417777574458,1.2695036485395608,1.3306417550854732,1.395095854388428,1.4630101825567376,1.534533191465093,1.60981723449656,1.6890181870052878,1.7722949835208777,1.8598090507953877
R4,0.0,0.0,0.0,0.06993474230912537,0.5488646608711336,1.686474363512084,3.577438312227949,6.191939047782407,9.424773435942168,13.136818309591398,17.18452568999815,21.441498910655028,25.80513569442809,30.19655430856667,34.55784284291127,38.84855196798165,43.042290271569186,47.123761743307334,51.0863404805759,54.93017126670707,58.660746639567066,62.28790668204972,65.82522064607069,69.2897334438758,72.7020954690366,76.08714820110902,79.47512814169258,82.90381773964955,86.42017158897511,90.07322640880265,93.90160124749899,97.93393509563333,102.19200054357604,106.69350759842703,111.45403728451649,116.48823098627385,121.81047531194213,127.43527899500084,133.37747291784584,139.65231249545155,146.27552741688206,153.2633430408879,160.6324858689785,168.40017894181298,176.58412943691064,185.20250881751898,194.2739248105814,203.8173838427727,213.85224210410382,224.398143016265
G4,0.0,0.0,3.147063403910642,7.846269919741791,13.191425521547652,18.67553006935243,24.022645573095772,29.090153890623096,33.811896738484386,38.22434044062981,42.36119992172494,46.25373995232584,49.93106903116361,53.4204420800423,56.747582870970156,59.93703641192524,63.01256421422398,65.9976012459216,68.91580317456636,71.7917281442794,74.65172264045668,77.52512325547545,80.44595950968653,83.45547583199978,86.60604409309343,89.9675495569037,93.6384409288448,97.67003675754468,101.99815548782315,106.60316177217481,111.48443425524718,116.6495868414318,122.109933181896,127.87858907785342,133.96968583006662,140.3980483127439,147.17906463997556,154.32863215075267,161.8631310578397,169.79940506659008,178.15473986376728,186.94683504689232,196.19376680540432,205.9139391596712,216.12602151837785,226.84887002236042,238.10142972470513,249.90261416452302,262.2711583519441,275.2254406167954
H4,21977.970363856894,22344.269869921176,22708.970449570097,23072.171949182626,23433.965754522924,23794.435911022036,24153.659661394206,23194.14492835096,22235.097205986236,21277.38630558494,20321.983528332115,19369.973970906773,18422.569195837146,17481.120033631087,16547.12915600986,15622.26289282176,14708.361553241923,13807.447251045982,12921.727925954283,12053.595910153577,11205.619039146699,10380.52200074507,9581.155438104448,8810.450390450764,8071.356118007367,7776.069735753582,8102.3898927923265,8426.462361297201,8748.306566646443,9067.941558470702,9385.386030133763,9700.658336873512,10013.776512698514,10324.758286128754,10633.621094862785,10940.382099447641,11245.058196022414,11547.666028201362,11848.221998157676,12146.742276964687,12443.242814247236,12737.73934719218,13030.247408963478,13320.782336564082,13609.359278183854,13895.993200069886,14180.698892953053,14463.490978062177,14744.383912754965,15023.391995792796
E_Om,0.0,0.0,0.19126894126073585,0.2783931576503597,0.3149343824930154,0.32695995995371413,0.32717181332811596,0.32176313917112637,0.318757715213032,0.31806483946812947,0.3197017961401574,0.32377744055683544,0.33049124245522005,0.3401440424648828,0.35315996478720935,0.3701214771425718,0.39182228929387214,0.41934645086925615,0.45418780066432307,0.49843382235582234,0.5550557878670489,0.6283806145703176,0.724885976869402,0.8545975323191597,1.0336704410761943,1.2894588327994967,1.621281117282863,1.9849539132758438,2.4157846998488495,2.934472901340227,3.56053719063465,4.316024416412775,5.226939155377297,6.32420934052119,7.644644403748835,9.23201390945835,11.138296447774989,13.425131411986298,16.165504058647354,19.445695530939744,23.3675313307238,28.0509630555515,33.63701846486699,40.29115345976635,48.20703553095336,57.61078057418179,68.76565229834955,81.97721398889394,97.59889394481878,116.03788584524362
I_Om,0.0,1.0,0.7602302839489782,0.6295926987735427,0.5538015887264109,0.5060490223219888,0.4729929811194512,0.4479199779409054,0.42739837959263866,0.41098577458456353,0.3983213387678084,0.3891354294322306,0.38325244696221783,0.380592752041137,0.381177027418675,0.3851355102818733,0.39272447716891745,0.40435305890118567,0.4206249825187855,0.4424025560756575,0.47090495286122286,0.5078612687507709,0.5557542824830726,0.6182204497327054,0.7007312417695327,0.8118081299929444,0.9653150100324894,1.1716076058435831,1.4266291394517274,1.7368285447344627,2.1126973410960326,2.5674815409910434,3.1172038133728304,3.7810663121191346,4.582017638032967,5.547442559033215,6.709977587398222,8.108468207458277,9.78908856898357,11.806647678234862,14.226108910263765,17.124352275634337,20.592211217946726,24.736817566871068,29.68428927699338,35.58279525922969,42.60602929865162,50.95711987220679,60.87299348667125,72.62919448829746
A_Om,0.0,0.0,0.0,0.005738068237822075,0.01294224931976845,0.019801830930605224,0.025650263543095603,0.03033536523431996,0.033921186362589756,0.03669968054646276,0.0389016896212141,0.040712405581176,0.04228324768164586,0.04374133541897329,0.045197389609125116,0.04675271063091638,0.04850581281901025,0.05055931893402437,0.05302784867329717,0.05604791295856744,0.059791345037528615,0.06448474966603436,0.070439218169937,0.07809795384203166,0.08811628904320012,0.10150314446684593,0.11988628055746164,0.1445474579644552,0.17518658376983948,0.21262280801133704,0.25813243344927644,0.3133220624784607,0.38013838247515175,0.46091888064144027,0.5584613847287879,0.6761084398954954,0.8178471692001469,0.9884266287933672,1.1934952453942826,1.4397613180748468,1.7351799203880698,2.0891698762321695,2.5128647926522802,3.0194023880678342,3.624256514247257,4.345616277326407,5.204816439086579,6.226822720219749,7.440774595842617,8.880586495018656
IH_Om,0.0,0.0,0.1997697160510218,0.2560597659910874,0.2593200933937533,0.24587973038129698,0.2293304675968976,0.21409569619198693,0.2011412596529732,0.19028535185923492,0.1813447724277067,0.17415189248553226,0.1685654196840326,0.164476584303696,0.1618127485820232,0.16054016048730008,0.16066723428204613,0.16224955466907873,0.16539784348726438,0.17029045347173744,0.17719266652901,0.18648639285546514,0.19871623656991733,0.21466221690805837,0.23545760225691936,0.2627864766670012,0.29922949667703785,0.34890217576367966,0.4160196969954225,0.5019700441407831,0.6087654140603613,0.7395511446242992,0.8986138213527963,1.0913899329749146,1.3245508586070747,1.6061604541785646,1.9458950259569683,2.3553209841443405,2.848230876661615,3.441042326519498,4.1532670327881815,5.008058927970595,6.032852113936981,7.260100464306379,8.728131810533565,10.482130366711072,12.575261368230993,15.06995160436622,18.03933833605158,21.568896633632143
IN_Om,0.0,0.0,0.08,0.1274709301635779,0.15516202107159444,0.1704508900530511,0.17778456458879818,0.1799485507865416,0.1787459041950696,0.17537369526013266,0.17071054222840593,0.1653969241816907,0.15989702625390728,0.15454619153574348,0.14958734639338522,0.14519913020909214,0.1415179400513676,0.1386557088016492,0.13671497664799187,0.1358027009922605,0.13604430761717734,0.13759978236815884,0.14068427498238475,0.14559701551273727,0.1527649122886222,0.16281227211143778,0.17667855785310504,0.1958291339682796,0.2219953008311253,0.2564238720352641,0.30047708531006656,0.35581173331323385,0.4244650908645624,0.5089280883126529,0.6122265602279797,0.7380172154203936,0.8907018535764979,1.0755629492377738,1.2989240057512674,1.5683385576745503,1.8928122502931222,2.2830630175482596,2.7518249997313324,3.314202472652444,3.9880806747469357,4.794600978713808,5.758708302995068,6.90977891553449,8.282336737375292,9.916865757909543
D_Om,0.0,0.0,0.0,0.0010316479687672736,0.0023539882247861615,0.003693165417899246,0.004962934076648925,0.006147239264390007,0.00725286925908784,0.008291600134108368,0.009274269082196616,0.010210767215246098,0.011110119978473682,0.011980623157128752,0.012830010829399106,0.013665641958557132,0.01449470120610592,0.015324416686365177,0.016162303563398126,0.017016448789437012,0.017895860363410048,0.018810916249350346,0.019773966666576447,0.020800174271367124,0.021908729884409686,0.023124676735118144,0.024481754976165348,0.02602703175056531,0.027828827478367978,0.029977230568969004,0.032569497238095144,0.035713275060308886,0.03953245471993412,0.04417306362618113,0.04980920422718722,0.05664943121365366,0.06494394252809352,0.07499290635827752,0.08715622198549125,0.1018650159737538,0.11963519854581789,0.14108344196740677,0.16694598971807845,0.19810076008190508,0.235593269182409,0.28066696519332107,0.3347986359737377,0.39973962454649853,0.4775636574849786,0.5707221557807868
R_Om,0.0,0.0,0.0,0.1078967826013826,0.25150299938952736,0.40271322020954414,0.5514849998375118,0.6948174191927852,0.8322374198586471,0.9640427072943341,1.0907030540188472,1.2127942856324179,1.3309567887011833,1.4458718075330128,1.5582504804289936,1.668832241747861,1.7783906162253265,1.8877455708478847,1.9977825802076414,2.109479554711063,2.223943964930035,2.342464130229109,2.466581138361824,2.598191948165647,2.739701260174678,2.8942524345317984,3.0660918396586485,3.2611695420518605,3.487884284267457,3.7568586566900732,4.079744023442461,4.469626645407731,4.941679190680743,5.513832375306102,6.207473052098721,7.048209987139492,8.066747107932198,9.299899891560036,10.791789256268453,12.59524873648558,14.7734841056816,17.402029406341594,20.57104922232272,24.388043794107563,28.981021097991658,34.50220815249801,41.13238240158624,49.08591279206531,58.61660872180174,70.02448281807806
G_Om,0.0,0.0,0.0,0.05164261414039868,0.1268087667059958,0.21184104997910996,0.3001202391666128,0.38845662876520415,0.4753326763414083,0.5613972594489269,0.6472747661053219,0.7335942510631643,0.82101416001351,0.9102467954764195,1.0020856869419377,1.0974388774344843,1.1973716762629787,1.3031636943723242,1.4163872361070236,1.5390179422863908,1.6735950743224628,1.823460137046566,1.9931229029805517,2.18884211673529,2.4195834504614635,2.698674469552036,3.0468283544079005,3.484574256074273,4.020511812658752,4.67277368161794,5.4650813649798025,6.426426406451157,7.5917529988826065,9.003026570834477,10.7105630927752,12.774617081787383,15.267260837341137,18.27460087824039,21.899386359476686,26.264072455311474,31.514410248665207,37.82364370796063,45.39740373295953,54.479398718473625,65.35801015261055,78.37390974596795,93.92882050099703,112.49554662155141,134.62939439855276,160.98109576365385
beta,1.0,1.0,0.9988721519250277,0.9979968864188923,0.9972929296948985,0.9967094961963537,0.996215242573034,0.9957900689577293,1.0272892134128238,1.0610112329352892,1.097292972401941,1.1365376301760932,1.1792318855225479,1.225968557539117,1.2774769849089405,1.334664362560267,1.3986729176501342,1.4709604606022944,1.5534162417510933,1.648531551022636,1.7596577755866298,1.891409068494208,2.050313876668361,2.2459153431252887,2.49272814602568,2.8139451367127335,3.061325231380145,3.0586697457368808,3.055965009575486,3.0531643833918607,3.050244146769712,3.047189453203539,3.043988515343989,3.040630105226165,3.0371023954756082,3.0333923335902204,3.0294852132373418,3.0253642997062253,3.02101044621782,3.0164016705847096,3.0115126752066654,3.00631429899749,3.000772892386254,2.994849608134966,2.9884996023865513,2.981671142707825,2.9743046234028148,2.966331493521124,2.957673110308166,2.948239540933365
