series,2021-11-15,2021-11-16,2021-11-17,2021-11-18,2021-11-19,2021-11-20,2021-11-21,2021-11-22,2021-11-23,2021-11-24,2021-11-25,2021-11-26,2021-11-27,2021-11-28,2021-11-29,2021-11-30,2021-12-01,2021-12-02,2021-12-03,2021-12-04,2021-12-05,2021-12-06,2021-12-07,2021-12-08,2021-12-09,2021-12-10,2021-12-11,2021-12-12,2021-12-13,2021-12-14,2021-12-15,2021-12-16,2021-12-17,2021-12-18,2021-12-19,2021-12-20,2021-12-21,2021-12-22,2021-12-23,2021-12-24,2021-12-25,2021-12-26,2021-12-27,2021-12-28,2021-12-29,2021-12-30,2021-12-31,2022-01-01,2022-01-02,2022-01-03,2022-01-04,2022-01-05,2022-01-06,2022-01-07,2022-01-08,2022-01-09,2022-01-10,2022-01-11,2022-01-12,2022-01-13,2022-01-14,2022-01-15,2022-01-16,2022-01-17,2022-01-18,2022-01-19
S,18115.127525407694,12429.745200350662,11315.71591842027,10506.976661578448,9882.64971883275,9385.495133427328,8982.101298989423,8650.55518793357,8375.43924382241,8145.408016564932,7951.855257887883,7788.109411449327,7648.91386705544,7530.073944265305,7428.207956304984,7340.5665356018835,7264.898480361046,7199.349282267934,7142.383183352823,7092.7225214781665,7049.300000448735,7011.220767574465,6977.732031091594,6948.19854120959,6922.08267784105,6898.928190251065,6878.346854875357,6860.0074814035615,6843.626820220268,6828.962017707041,6815.8043376208725,6803.389777006493,6792.196468147949,6782.073865658847,6772.896342902271,6764.5575458185185,6756.966407102317,15677.15718379269,24580.93737566169,33466.34839026769,42332.30405110346,51176.19627117141,59992.43596304082,68771.4208242432,77498.2232137272,86150.3616593521,94694.05997968861,103078.26128896911,111225.36711306588,119017.36350490138,126276.04515534038,132737.29302064684,138023.34807879565,141625.4916940522,142921.5514019526,141259.09136231313,127191.28580055744,111135.61616392306,93699.69281460733,76177.65020695709,59803.78646902821,45501.439349920474,33743.10308812063,24568.422297738525,17709.213453317498,12745.436558737978
E,0.0,5685.382325057029,5093.796909470312,4374.397093471041,3686.404908175426,3077.6380211282208,2557.74044922766,2121.964425515214,1760.4910419718117,1462.3749566377446,1217.2152283234695,1015.7965062649846,850.2530987793767,714.0170919356984,601.6779523153109,508.81598732381656,431.8392463675095,367.83667055036847,314.45176830036826,269.77689968491495,232.26635080887235,200.66567844048018,173.9547113912082,151.30178785584985,132.02711486763485,115.5734679973305,101.48276297383775,89.3773075534825,78.94477647073191,69.9261460427401,62.10598231608561,55.30460286923404,49.370297160877875,44.17786741529764,39.621816042789625,35.613078046297964,32.07630566702612,28.947616381694008,42.24920816926601,68.8110318703305,105.49713146854853,151.3748305831667,208.32721029377655,281.0004128190239,376.8586839297968,506.78126658353244,686.3715114085212,938.0390452100191,1293.8653419116436,1799.084703062892,2515.4465576601915,3522.437569495566,4912.124118653835,6770.942535182929,9142.258468737007,11972.630396216591,15064.161636927522,17347.79019961528,18667.460081710993,18833.595404843545,17900.75424523268,16126.054888623554,13864.284157657718,11458.712698475181,9169.737517457015,7152.23831398328
I,1811.7050750079582,1666.7686690073215,1704.0067531996654,1720.5163439875448,1714.1208817416593,1687.5950996592258,1644.9264346074535,1590.0726797273464,1526.53255657822,1457.2302904808182,1384.5277736104836,1310.2858854058147,1235.9401450764797,1162.575234492631,1090.9920026380541,1021.7648973427065,955.289805755581,891.8231740955656,831.513591845425,774.4270590767079,720.5670605814228,669.8904260282587,622.3198014200517,577.7534126945061,536.0726752113081,497.1480951472233,460.8438196772372,427.02112021520395,395.5410344916077,366.2663464657711,339.0630458447945,313.8013794544494,290.3565833295107,268.60932282253344,248.44605372584118,229.7591501046707,212.44692386545557,196.4135612893679,181.56899707592174,168.31108811879156,156.91075118875872,147.52314104642176,140.2630168095313,135.29245529642526,132.8999662445118,133.57492975898023,138.0939874757521,147.63979991544645,163.9727749359248,189.67503416372733,228.4793026131535,285.67236683938415,368.5029235522294,486.40205835897933,650.6397352197715,872.8854285872928,1162.2716390536057,1521.2627364410096,1920.0506762824625,2326.529880552342,2705.4753373161534,3026.1169516484024,3267.8606037125683,3422.4044379354827,3492.409959892157,3488.1384942683476
A,16303.422450399736,13042.737960319788,11969.22548806001,10950.689332245249,9941.624748564393,8948.617382847242,7989.846369695295,7082.458870636045,6238.890732934338,5466.439560510158,4767.988229031319,4143.034818037925,3588.6896758067064,3100.5173692569088,2673.1962360814023,2301.0081196440187,1978.185191712069,1699.1433744794767,1458.6294290711874,1251.8045191681433,1074.2825190091378,922.137190156622,791.888846183388,680.4782949760145,585.233636805204,503.83380995163384,434.27151621871434,374.8172357549771,323.98537697640637,280.5031397888526,243.28234854761905,211.3942962556825,184.04750363389894,160.56782589599894,140.38214421227792,123.00347950576244,108.01820124934085,95.07506136643174,83.87581331795033,78.50780229619649,81.38500127858586,93.59189051066953,115.7442345366623,148.84307088580636,194.9436731825517,257.705582910951,342.9937942063303,459.71315734986615,621.0380804291847,846.1699856941643,1162.6831282916746,1609.3090614961143,2238.4941739855653,3117.0532060936744,4321.775483900308,5925.801055556245,7973.212918556677,10445.845997411905,13040.524899057375,15472.57468538672,17463.07052255444,18803.603050295813,19396.86589862768,19260.80528367954,18502.460159494673,17277.76805166528
IH,0.0,72.46820300031833,134.20535357633375,193.22899559846132,248.8947235297051,300.51494022938226,347.5598491272732,389.6952193926728,426.76788617524784,458.77506086745973,485.83111372149705,508.1371044114635,525.954839754808,539.5857236704046,549.3540279356586,555.5939820395727,558.6400392209591,558.8197188084332,556.4485006400773,551.8263304360197,545.2353737763597,536.9387259523311,527.1798440563542,516.1825165933859,504.1512257051443,491.2717891137867,477.71219441821256,463.6235585991689,449.14116153139247,434.3855148179122,419.4634370551776,404.46911427547406,389.48513024982645,374.58345593204973,359.8263891463331,345.26744474628015,330.95218928572626,316.91901964834943,303.199886129938,289.8209612553517,276.8225500138172,264.25305012345916,252.16377060227308,240.60711774268577,229.6384131177277,219.32075242706378,209.73251105335555,200.97779429091116,193.200926422562,186.6068225261009,181.4897320363794,178.27318104596026,177.5633336816036,180.21503461156544,187.40217456432399,200.66952497894823,221.92346906600778,253.30590451873064,296.91148458322647,353.4999378633977,422.49504792842595,501.9508263740178,588.8229628401175,679.4506371809814,770.09018168949,857.3592557603811
IN,72.46820300031833,130.442765400573,171.02495908075124,204.9802373925876,232.80484367357187,254.8087102085239,271.35077215318813,282.87767510684864,289.9050472745728,292.98534008278705,292.67748368546233,289.52309789278917,284.02991373046393,276.66153678743035,267.83223880964954,257.9054711532417,247.19497281630169,235.96757048326458,224.4469833504343,212.8181303541644,201.23158664639982,189.80795174037678,178.64197843343177,167.8063748035475,157.35523635061824,147.32709608894692,137.74760067704645,128.63183332872663,119.98631147158947,111.8106905569359,104.09920630417955,96.84188687713542,90.0255646798863,83.63471507708947,77.6521449745729,72.05955812869198,66.8380125071404,61.96828696033056,57.43117201983916,53.20769749890819,49.29860152387822,45.71531126665292,42.4731746551792,39.589060396524616,37.08294652907671,34.982355873041826,33.32888188879267,32.18686501006422,31.655084004669234,31.88297820117238,33.093383927487,35.613879246515744,39.91799807078796,46.674515398719535,56.79569465333481,71.4621451314587,92.08513324865868,120.15897216107118,156.97768718649732,202.3841768004964,254.9685366624908,312.19384282263877,370.7997523240471,427.3542260077404,478.7795583236117,522.7200450545756
D,820.0,820.0,820.9670163000216,822.7578536477877,825.3363029627193,828.6575562114235,832.6676300585772,837.3054715590433,842.5055677887168,848.2003619904633,854.3222601959458,860.8051945944188,867.5857803170903,874.6041260475049,881.8043624055927,889.1349470965629,896.5487977866889,904.0032950890293,911.4601900372704,918.8854434306671,926.2490185466437,933.5246438824581,940.6895586811098,947.7242508790529,954.6121946484014,961.3395927726592,967.8951275885519,974.2697230607126,980.4563196600157,986.4496630331021,992.2461069344405,997.8434305067335,1003.2406697118774,1008.4379625102918,1013.4364072433989,1018.2379335553022,1022.8451851927542,1027.2614139429786,1031.490383961532,1035.5362857489824,1039.4036590522862,1043.097581448509,1046.6237763342663,1049.9886517741365,1053.1993151426948,1056.2636120260454,1059.1902299598314,1061.9889023214482,1064.6707516702006,1067.2488264298172,1069.7389094125176,1072.1607098974137,1074.539588699298,1076.9089952920838,1079.313786204004,1081.814482370878,1084.4922181713832,1087.453566777519,1090.8336828618135,1094.7956721670305,1099.512778260706,1105.1505556735578,1111.8485916509476,1119.705850135622,1128.7724450560331,1139.0485348077962
R,0.0,3275.1781306800112,5913.780855708339,8349.176735894585,10590.887126335478,12639.396410104355,14496.530449956832,16167.79372394496,17662.191177270386,18991.30966668134,20168.30590735964,21207.03123575898,22121.355933295337,22924.68822735982,23629.658477325054,24247.933313613896,24790.126719795546,25265.78016804163,25683.389607218116,26050.462350186914,26373.591343998134,26658.537870040705,26910.316482558566,27133.278074803755,27331.188492386344,27507.301212493057,27664.423377386738,27804.97499389987,27931.041452993686,28044.419735403346,28146.65878919253,28239.09462120409,28322.880657829337,28399.01391634464,28468.35741950477,28531.65953757932,28589.570514933497,28642.656575526562,28691.41195114335,28736.26913118108,28778.475712603085,28819.764440705265,28862.08989133801,28907.53567126848,28958.391836993203,29017.366523392622,29087.9087317797,29174.653070898585,29284.033685886785,29425.14725890784,29610.971860560472,29860.061085614358,30198.803536998934,30664.20498082955,31306.814676597707,32192.786455135727,33403.222832529194,35028.42952439355,37155.49533161699,39811.24743333168,42965.58818483251,46532.321454310106,50382.95533855623,54368.71796006955,58343.53990009551,62181.939078232186
G,65384.0,65384.0,65554.57957771294,65707.4097087568,65838.65555402993,65949.25944248681,66041.59838540776,66118.33874529626,66182.00443652533,66234.82477495418,66278.70068132233,66315.22101500648,66345.69814550961,66371.20844653189,66392.63123343674,66410.68348835241,66425.94958855271,66438.90614135313,66449.94241303063,66459.37696760955,66467.47113384039,66474.43986413375,66480.46047360777,66485.67966899583,66490.2192045282,66494.18043848101,66497.6480106228,66500.69281673497,66503.37442062859,66505.74301536208,66507.84102245835,66509.7043997356,66511.363713967,66512.84498012638,66514.1704568555,66515.35923753238,66516.42774330155,66517.3901346347,66518.2586553244,66519.52626613334,66521.59081625284,66524.75606620559,66529.29779325242,66535.54827308409,66543.97918045589,66555.28614126991,66570.49119336739,66591.08452480515,66619.22868381887,66658.04876504155,66712.02703622406,66787.49844465933,66893.18279071935,67040.56215941028,67243.71200093978,67518.0088731249,67877.2259178782,68329.19874638988,68849.68770514661,69409.7709635191,69974.83881072709,70511.91845204464,70995.75146024066,71411.72414276059,71755.52201975213,72030.6433509197
H,169615.16616336847,169615.16616336844,169615.16616336844,169615.16616336844,169615.16616336847,169615.16616336847,169615.16616336847,169615.16616336847,169615.16616336847,169615.1661633685,169615.1661633685,169615.16616336847,169615.1661633685,169615.1661633685,169615.1661633685,169615.1661633685,169615.1661633685,169615.1661633685,169615.1661633685,169615.1661633685,169615.1661633685,169615.16616336853,169615.1661633685,169615.1661633685,169615.16616336853,169615.1661633685,169615.16616336853,169615.1661633685,169615.1661633685,169615.1661633685,169615.1661633685,169615.1661633685,169615.1661633685,169615.1661633685,169615.1661633685,169615.1661633685,169615.16616336853,160688.05322350364,151760.94028363877,142833.8273437739,133906.71440390905,124979.60146404419,116052.48852417932,107125.37558431443,98198.26264444958,89271.1497045847,80344.03676471984,71416.92382485498,62489.81088499011,53562.69794512524,44635.58500526037,35708.4720653955,26781.359125530635,17854.24618566577,8927.133245800898,0.020305936030382554,5.712763541301097e-12,5.712763541301097e-12,5.712763541301097e-12,5.712763541301098e-12,5.712763541301098e-12,5.712763541301098e-12,5.712763541301098e-12,5.712763541301098e-12,5.712763541301097e-12,5.712763541301098e-12
S0,6340.294633892692,3199.4044431097755,2661.33270630404,2286.7008490606377,2008.0843506837025,1793.6122139881263,1624.8474064965696,1489.9044862835194,1380.6188050216365,1291.1513072539287,1217.209393118281,1155.5725180412733,1103.7855300738088,1059.951922180419,1022.5901215242201,990.5312505105488,962.8450340300122,938.7852706625011,917.7491644836342,899.2466341580241,882.87690340232,868.3104708253198,855.2750985271234,843.5448340387613,832.9313438416236,823.2770242590472,814.4494904160929,806.3371420028243,798.8455765230023,791.8946740031776,785.4162169689457,779.2574505073238,773.472056627051,768.0143587451045,762.8458278931341,757.9336463263437,753.2496418124115,3486.6512394716024,6192.250739506948,8869.062811626656,11516.69463086223,14134.09717758619,16718.821490517992,19266.531188696707,21770.426515378855,24220.282763023362,26600.851648958007,28889.350113179666,31051.68600120443,33037.03403557891,34770.57281248587,36145.01322387318,37013.61047170344,37191.114972360825,36473.417406276465,34686.46854335798,29206.17419948555,23395.662703675855,17625.260323724484,12429.52531626734,8188.682790385488,5048.264988704481,2930.5153711105963,1620.1302370380395,866.9350390270625,457.8308165776692
E0,0.0,3133.675297275528,2722.0290316682813,2271.7903136377968,1861.6144954600636,1511.1219503478524,1220.6795879664987,984.0355967127018,793.1224137961033,639.988248940321,517.5359025496072,419.73691546776587,341.6148441418841,279.13438526415655,229.06124525330506,188.8229465229419,156.38351336764367,130.13638513515372,108.81574177895324,91.42456534469426,77.1770862197437,65.45318127388465,55.76248442205376,47.716270341588185,41.005492806552645,35.383659040004915,30.65348360381801,26.656485338982044,23.264870697355633,20.37519114646074,17.903376684718733,15.780837247332288,13.950930564786473,12.367734842481285,10.993274611607976,9.796046150760702,8.749828959813382,7.832727326053628,14.996812835641787,28.85965194191336,47.85508844056328,71.45687769207916,100.5453825588867,137.39253103418258,185.67605759312488,250.75194004613468,340.26931297595104,465.14637400938955,640.888461162087,889.1228130114719,1238.9160923269728,1726.7702708430625,2393.0891516558895,3271.8223979904838,4370.657607669986,5644.464179856102,6975.108053069405,7830.905935156476,8153.788769131965,7899.8303023714725,7158.18072710727,6108.593650734785,4951.471933893311,3848.6075864928944,2896.2021582111797,2128.837336664865
I0,1811.7050750079582,1666.7686690073215,1627.4474151710276,1578.9211625787234,1520.768414641106,1454.9613055818493,1383.9028725740693,1309.8149182756013,1234.553926871514,1159.5858112331466,1086.0206321673613,1014.6667070239955,946.0868147895515,880.6494029750348,818.5723713388827,759.9591485501833,704.8277064635564,653.1334934295005,604.7873199940055,559.6691532263455,517.6386491161171,478.543115582691,442.22347024288774,408.5186447598128,377.2687932657518,348.31758519131637,321.51380084428047,296.7123989162977,273.7751864641559,252.57119176663304,232.97681705474636,214.87583001322125,198.15923899160154,182.72507222297628,168.47813788168835,155.32972010311695,143.19725507982932,132.0039974104711,121.67868438467706,112.39434178386986,104.26867591750309,97.36298691593225,91.71788188380818,87.39713304724097,84.5275759301459,83.33624296237602,84.19270037251555,87.66644749086268,94.60900440459122,106.26897911892226,124.44397703880732,151.65988759730027,191.33570448374363,247.82914467146145,326.16790580245066,431.20812212706676,566.0633753893774,730.0537626921714,906.6015811923952,1078.7130876147435,1229.4361106619453,1345.8494424511327,1421.4587524677547,1456.3019807413666,1455.2683077045392,1425.7421322478162
A0,16303.422450399736,13042.737960319788,11280.272717754196,9759.157343082465,8420.70202348863,7239.191603316891,6199.3513963191,5289.060717937772,4496.935051306067,3811.688566672331,3222.1456421870944,2717.4495590845345,2287.2872775804817,1922.064741938303,1613.0171885280388,1352.2595574800114,1132.7892401435038,948.4544426420675,793.8999636153351,664.4998745940935,556.2842411308039,465.864960374703,390.36411877511574,327.34698821035266,274.7608315840345,230.8800177223687,194.25748942162704,163.6823344788874,138.14303372364247,116.79586796851108,98.9379310893031,83.98419955400351,71.44813543796451,60.925215169104675,52.07942115147794,44.63168605270107,38.35025010242735,33.04262603285777,28.548912257058653,26.88822150637249,29.302591311329188,36.362794509402924,48.38336499399558,65.85362504872502,89.77844582255058,121.95470082933613,165.26598583017972,224.08441940878072,304.8555750168439,416.92230329540286,573.598170290365,793.3819352087863,1100.9280215257204,1526.8688661709257,2104.8767196291797,2863.965009215527,3815.159358296776,4935.384445224298,6062.627217210784,7051.598771590477,7774.208037927441,8152.052427831991,8170.942772073316,7873.635869355614,7338.0204860098775,6652.381747111615
IH0,0.0,72.46820300031833,134.20535357633375,190.16662207731582,240.3770274902468,284.84302565939373,323.6495182875739,356.9717485023819,385.06190108009275,408.22925156079754,426.82065668743763,441.2037618152,451.75351589572404,458.84185271766,462.8301229183196,464.0637925688096,462.8689457431602,459.55018576165594,454.38959664880315,447.6464907226635,439.55772514128125,430.33841819468194,420.1829353524761,409.26604649258087,397.7441805203878,385.75672291104945,373.4273166289536,360.86513830445335,348.1661302294435,335.41417527859164,322.68220675684006,310.033248798298,297.5213855953973,285.1926596518937,273.08590005203763,261.23348474393487,249.66203876785787,238.39307199339672,227.4435600937641,216.82647253907925,206.56081687618604,196.66901488076644,187.1744138713184,178.1003959776718,169.47130237591014,161.3148905289309,153.66610948371886,146.5723116241285,140.1004055824666,134.34680569091762,129.4513067661278,125.61609068520379,123.13061046940052,122.40137308193722,123.98151939010498,128.58764063489176,137.08178828201042,150.39186906798244,169.3554222231602,194.08985964498575,224.02485016122142,257.95080358641314,294.223629667388,331.051393708308,366.76567256237087,400.0071956482717
IN0,72.46820300031833,130.442765400573,171.02495908075124,201.9178638714421,224.69113760030262,240.58364666588633,250.66536955598303,255.8884105477492,257.1033251692234,255.06481721023928,250.43528621751727,243.78905426070827,235.61791168952644,226.3378019432032,216.29621767356394,205.77986899240645,195.0222611359325,184.21091716728824,173.4940734710106,162.9867515765687,152.77616739030879,142.9264798768917,133.482908524821,124.4752656295723,115.92095829405035,107.82751836587035,100.19471810034894,93.01632651405036,86.2815571678922,79.97625319288,74.08385022496931,68.5861528621653,63.46395549026109,58.697533951872934,54.2670300504174,50.15274955560145,46.33538844860584,42.79620096207785,39.51712066608112,36.48084390825198,33.68044879795637,31.11510607506522,28.786604336689464,26.6979987447039,24.854284317652755,23.26453049132804,21.94507411155747,20.923767304146597,20.245671742951785,19.98089757054508,20.23547722119295,21.166140858506655,22.999308190697334,26.052874731907615,30.75546557238455,37.651088690005665,47.369195837087204,60.53789168524486,77.63246385588275,98.37003433240201,121.84455097051135,146.6530852028869,171.15644586035484,193.78350678699405,213.2788846592499,228.8338400355815
D0,820.0,820.0,820.9670163000216,822.7578536477877,825.2954386251326,828.5030316674599,832.3039793570124,836.622761205057,841.3861951686047,846.5244643604057,851.9718788685747,857.667377240472,863.5548038861173,869.5830065374411,875.7057960139249,881.8818050009423,888.0742760859762,894.2508031250893,900.3830446035689,906.4464231382575,912.419821611714,918.2852835303727,924.0277229409083,929.6346475044295,935.0958970127407,940.4033986462532,945.5509395463115,950.5339567469988,955.3493441362567,959.9952758567632,964.4710453849691,968.7769194199496,972.9140056553467,976.8841334847131,980.6897466931523,984.3338072013893,987.8197089817562,991.1512012913428,994.3323204151163,997.3673291615678,1000.2606634039048,1003.0170126521972,1005.6413656128748,1008.1390225391785,1010.5155956956833,1012.7770221558186,1014.9296093888286,1016.9801312243292,1018.9359933625382,1020.8054943330159,1022.5982192189686,1024.3256185267917,1026.0018406795205,1027.644896563699,1029.2782214981496,1030.9326319180013,1032.6485064578283,1034.47772697409,1036.484557318411,1038.7444374728298,1041.334374164716,1044.323763617561,1047.7658612734201,1051.6919838204165,1056.1095363552758,1061.0036605224586
R0,0.0,3275.1781306800112,5913.780855708339,8211.386181833423,10214.010079337077,11956.245856929032,13467.791918831128,14775.510374846255,15904.039210733124,16875.923423430537,17711.61871302157,18429.497120489526,19045.894330713367,19575.20230168569,20029.99772690385,20421.193624360218,20758.202251337323,21049.099892794144,21300.78665212757,21519.13667973605,21709.136138207163,21875.00761090397,22020.320667009266,22148.08897557534,22260.8547885976,22360.761854279674,22449.61793028701,22528.948084948992,22600.039933789983,22663.9818826572,22721.69535355369,22773.961866422294,22821.44574707356,22864.713132933008,22904.247832037538,22940.46460259305,22973.720222714543,23004.322715092818,23032.539033164085,23058.601465932334,23083.14337410717,23107.046181912854,23131.306529555157,23156.98559966399,23185.24433018982,23217.44696464191,23255.32045443674,23301.17365046408,23358.19798960975,23430.886698058966,23525.62087143575,23651.473176792715,23821.25844557314,24052.78352119906,24370.06756392387,24803.98018553164,25391.341707810883,26171.350652350997,27178.766886741094,28416.088568625877,29856.705926106923,31448.178545434956,33122.03870200314,34806.56300910067,36438.167132169925,37968.502091358845
G0,65384.0,65384.0,65478.020239684294,65559.68978030568,65627.85072537436,65683.7050894864,65729.04356092516,65765.66783643262,65795.19203849058,65818.98823700193,65838.1899228348,65853.71764826482,65866.3110925923,65876.56062596095,65884.9355465628,65891.80811348121,65897.4734032786,65902.16540676162,65906.06991280048,65909.33473163233,65912.07775978021,65914.39331817607,65916.35712208287,65918.03017421922,65919.46181430595,65920.69210969277,65921.75373216104,65922.67343430061,65923.47321376177,65924.17123398138,65924.78255461082,65925.31971293368,65925.79318831311,65926.2117606638,65926.58283210035,65926.91266535231,65927.20657793728,65927.46910067431,65927.70410744136,65928.15405959132,65929.01994106767,65930.4557461395,65932.59968006065,65935.6163617748,65939.73857530148,65945.30944840812,65952.83280525525,65963.0419684034,65976.99784111639,65996.2265361831,66022.90305243249,66060.0744811541,66111.88308904832,66183.68338559473,66281.84847829943,66412.98212708825,66582.33403012074,66791.60948745468,67026.56160697028,67271.20123988802,67508.2213099444,67722.98953058655,67906.26679599927,68054.8267244703,68170.29720989279,68257.19249905243
H0,59365.30815717896,59231.73621382531,59018.501963455536,58806.035356387096,58594.333629104105,58383.39402803933,58173.213809538385,57963.79023982405,57755.12059496068,57547.20216081882,57340.03223303988,57133.608117000935,56927.92712777973,56722.986590119726,56518.7838383953,56315.31621657708,56112.5810781974,55910.57578631589,55709.297713485146,55508.7442417166,55308.91276244642,55109.80067650162,54911.40539406621,54713.72433464757,54516.75492704284,54320.49460930549,54124.94082871199,53930.09104172862,53735.942713978395,53542.49332020807,53349.740344255326,53157.681279016004,52966.313626411546,52775.63489735647,52585.64261172598,52396.33429832377,52207.707494849805,49281.87798364819,46376.43783303811,43491.278158373745,40626.29059473265,37781.36729458484,34956.40092547198,32151.284667696596,29365.9122120212,26600.177757377376,23853.97600858472,21127.202174079634,18419.75196365391,15731.521586203078,13062.407747484442,10412.307647884823,7781.118980197915,5168.739927411235,2575.0691605026364,0.005836246321398903,1.6360282076993693e-12,1.6301385061516516e-12,1.6242700075295057e-12,1.6184226355023996e-12,1.612596314014591e-12,1.6067909672841384e-12,1.6010065198019155e-12,1.5952428963306287e-12,1.5895000219038384e-12,1.5837778218249847e-12
S1,1811.5127525407695,857.9506358752079,674.6954710479209,548.5178355230604,456.15041049587256,386.17654899292563,331.89605040113753,288.9982519099109,254.55806516604147,226.52126306690195,203.40954018994336,184.13875493976371,167.9013215760379,154.0874677826391,142.23116681759737,131.97227295972317,123.02957141073776,115.18132917957514,108.25108712816385,102.0971664957298,96.60484103239904,91.68044366096164,87.2468915436254,83.24026096501449,79.60714601724356,76.3026072274989,73.28856757317753,70.53255017483899,68.00667866556151,65.68688076482749,63.552249982074,61.5770645302755,59.753807510011654,58.06806250108743,56.50714498739559,55.0598216287073,53.71609085976546,244.3130541101452,426.73274486063355,601.6397656329966,769.6717080530528,931.359779349265,1087.0889104382845,1237.0768903899093,1381.3485598674322,1519.6865426475722,1651.5443465145706,1775.9070068833698,1891.0805205851761,1994.3898477616265,2081.777637236358,2147.344100826194,2182.9868429463804,2178.5109409377033,2122.8123626517454,2006.703801005313,1680.1554954589767,1338.8007684479787,1003.615008105042,704.488369248637,462.1144668488139,283.736195647665,164.08437385363874,90.39208208793531,48.208579156080404,25.380138702844455
E1,0.0,895.3357992215795,768.4456330652088,630.7932929247048,506.6475534583841,401.9000808764183,316.4022580020983,247.9458590285919,193.79279015152594,151.29082256815556,118.10448803080357,92.27565953141692,72.20966146388645,56.63193386558801,44.53662270261859,35.13690462608245,27.821084640673448,22.11564740858296,17.655086683198988,14.157759208429816,11.406827897620161,9.235370710244124,7.5148281688488225,6.14608756033944,5.052627532201677,4.1752603601872105,3.468106088512211,2.8955125974194047,2.4296999129321066,2.04895793950595,1.736266582440231,1.4782380739692826,1.2642684782471303,1.0860092801372612,0.9368163157081022,0.8113829510698876,0.7054550802189532,0.6156093442861491,1.097575056043071,2.0336932743054037,3.2994705558444455,4.846419907592391,6.7218528207946875,9.062461601425701,12.090474901304031,16.12682413228805,21.625470897102968,29.228768036523434,39.84162641759852,54.71610861953127,75.52015643506857,104.32567941719927,143.38918665602827,194.54016275580514,258.0388002029408,331.0785993006868,406.70042878104283,454.30009973196354,470.9222867752374,454.4722906978851,410.42037651665464,349.2505392988003,282.4391974663172,219.12856650582611,164.67006885488917,120.91303458432807
I1,0.0,0.0,26.86292562408338,47.76970806795657,62.8739392889532,73.04506442369603,79.25974174915919,82.41203789151143,83.25824033941666,82.41198204747678,80.35823002248583,77.47308242479002,74.04379951502541,70.28681538574688,66.36300854374853,62.39020839061554,58.45321076930442,54.61167505722544,50.90628091331391,47.36348727225334,43.999186159235144,40.821492434208935,37.83286357546533,35.03170326924576,32.41356920982518,29.972078591640354,27.699583413332586,25.58767096885053,23.62753189148212,21.81022807615365,20.126885094184246,18.568827814137432,17.127673439418594,15.79539164531174,14.564344051034013,13.42730400018555,12.377463752960145,11.40843255200663,10.51422818889245,9.706020681242473,8.990556302291939,8.370306423608382,7.84608994281067,7.4200797411327795,7.098376073854639,6.893258743187319,6.82565413168835,6.928434805261597,7.251116155657746,7.866402551442958,8.878747876897584,10.434293271741996,12.729652470147274,16.013412567242757,20.569164055589347,26.66561679164932,34.465779913754844,43.910825726275746,54.02840960742957,63.83530533110917,72.36409712128275,78.88888783731542,83.05640535339913,84.88596841888035,84.66964586574258,82.83670073683537
A1,0.0,0.0,241.73781414239048,400.8681247396752,491.00667980271845,529.598569601831,532.1905974650314,511.1800798903696,475.8886561416471,433.034361023562,387.27552905048907,341.70825884552926,298.2807412516299,258.12097160854637,221.7872190576521,189.45452152654036,161.05046955911888,136.35197989003177,115.05273827393381,96.8090077921022,81.26975612744863,68.09561210353235,56.970010359906006,47.6049879587618,39.74341443299219,33.15892488745306,27.65444690899515,23.059935125165232,19.229727279218373,16.039793061264234,13.385046566740284,11.17682370063637,9.340578532287724,7.813811288257684,6.544268077300114,5.488351883318263,4.609752319186138,3.8782724801313004,3.2688305463445344,2.911406206427129,2.8782156718844614,3.1934190787611048,3.8632532021956423,4.905481414247957,6.371220899813594,8.361366435001033,11.043284299731226,14.673435704807556,19.630422839985997,26.46145050903052,35.942335463513736,49.14407007633534,67.48285722608341,92.70090948296794,126.6859519193899,171.01841573588706,226.20489991347822,290.77174035947417,355.27697226791247,411.36909535462723,451.801347276405,472.2532722903851,472.09915107887923,453.9370046092454,422.31361871877147,382.3112890911317
IH1,0.0,0.0,0.0,1.0745170249633353,2.912152808018417,5.2288525866848214,7.794677699009949,10.434409914239389,13.02052242933484,15.464421896790965,17.708091674613755,19.716863542784434,21.473473401423313,22.97332289168688,24.220784072224376,25.226366494561454,26.004577401686213,26.57232822502492,26.947765449967658,27.149427345321435,27.19564846193634,27.10415082533452,26.891774549494556,26.574311581647436,26.166414909221583,25.68156225993342,25.132058492841296,24.5290648387795,23.882646169763376,23.201829772080114,22.49467083503118,21.768321177826643,21.029098722423665,20.282555958195505,19.533546151044234,18.786286623914954,18.044418520424713,17.31106278750423,16.588872269405996,15.880079917838943,15.187213467068695,14.512898415504479,13.85968037390223,13.229964405115005,12.626078751863039,12.050437161568787,11.50578024712016,10.995499097259742,10.524068839873204,10.097640554222846,9.724854732154197,9.417941780858243,9.194145113588048,9.07739877068717,9.099950859743355,9.303197674270898,9.736465664701653,10.452243528852954,11.497093454472248,12.875513915800894,14.55236808433526,16.456214596868648,18.491439894053773,20.554808851075073,22.550887284722307,24.40242087279792
IN1,0.0,0.0,0.0,1.0745170249633353,2.770401942688931,4.731279125709273,6.70682587751526,8.535850371978576,10.125161813243318,11.43045906417132,12.440846533236126,13.167006427488333,13.632528438982266,13.86777473178683,13.905692400859339,13.779074262437412,13.518867745574552,13.153222627231818,12.70704510407447,12.201887319792132,11.656049346723838,11.084806923748477,10.50070523636714,9.913878732112325,9.33237111645969,8.762439661560759,8.20883487291422,7.6750512348646796,7.163547826645765,6.675939536975896,6.213160752626862,5.77560400586886,5.363236317260585,4.975695991385211,4.612372458920639,4.272471729177871,3.955069543349719,3.6591541847981808,3.3836606499188098,3.127497647490746,2.8902389452422956,2.671813408285514,2.4722629835727465,2.291653984570624,2.13012637730181,1.9880361447956334,1.8661592655639994,1.7659535777187334,1.6899002543854507,1.6419648497346704,1.6282279818454546,1.657732300552267,1.7435575713114935,1.9040321558550857,2.1637622273737787,2.5537763441225967,3.10964574696405,3.8663477941214337,4.849511264348177,6.0407453957757244,7.386008529864946,8.803370708743266,10.19825208048723,11.480857878525748,12.580125039575812,13.450885866290353
D1,0.0,0.0,0.0,0.0,0.014338364065486636,0.05319815521409319,0.12297200736427827,0.2269842510282145,0.3662211031981395,0.5399670621521242,0.7463244358066163,0.9826213575275995,1.245723347666481,1.5322655542831303,1.8388217648989875,2.162024107822259,2.4986449509036035,2.8456502467640634,3.200231614305461,3.5598228192807038,3.922105002254938,4.28500396019145,4.646681972908621,5.005526034845004,5.3601338683135715,5.7092987252126965,6.051993704350837,6.387356100677465,6.71467214469859,7.033362372655613,7.34296778097279,7.643136854587019,7.9336135123698694,8.214225979595746,8.48487657400316,8.745532375350946,8.99621673939019,9.23700160932251,9.46800057429117,9.689362623015073,9.901266540739194,10.103924842815443,10.297585079268215,10.482528768772875,10.659069523183389,10.82755202244383,10.988353155563837,11.141886382314082,11.288610413181457,11.429043674796363,11.563786673841733,11.693555215795133,11.819228308788807,11.941915057204021,12.063043941454277,12.184473760967364,12.308615707654004,12.43853918598732,12.578014010058101,12.731431320175428,12.903242284325849,13.097429204365843,13.317021068010563,13.563770994848673,13.838054534109727,14.138973760493446
R1,0.0,0.0,0.0,48.3475628284781,128.7949053570035,227.7097197078281,334.86189306580866,443.06802294539096,547.5823411462557,645.4977889244003,735.2372050723687,816.1497406001215,888.2040051029388,951.762019324782,1007.4172238171252,1055.8815416853172,1097.9090374285313,1134.246277201043,1165.6017661143007,1192.6287209261059,1215.9169361397858,1235.990663359655,1253.3103051256023,1268.2763816937863,1281.2347120016882,1292.4820996723606,1302.2720645137829,1310.8203354644331,1318.309942200188,1324.8958246667464,1330.7089338381722,1335.8598312894032,1340.44181574089,1344.5336159453786,1348.2016922798634,1351.5021978749305,1354.482638496888,1357.1832722825018,1359.6382864706975,1361.876784140349,1363.9537682714283,1365.9387381964334,1367.9061547559365,1369.9318738700852,1372.0954490383356,1374.4868126277468,1377.2162792747622,1380.4279420761989,1384.3176635514337,1389.1577678405697,1395.3311498374037,1403.377556850894,1414.0534126314178,1428.4019412841883,1447.819785141336,1474.0878178988717,1509.3114710494222,1555.7073100355763,1615.2070359456563,1687.8616312649597,1772.0483464955998,1864.6823481091317,1961.7944150616202,2059.26603302377,2153.474682285171,2241.687764057011
G1,0.0,0.0,26.86292562408338,49.91874211788324,68.8445499843164,84.04559026217548,96.10387274153433,105.59694822381931,113.03611370304546,118.85051463825891,123.38972117706611,126.93323198116917,129.70179566538778,131.86831549731127,133.56745388617267,134.90369441653957,135.9579134664777,136.79263461594306,137.45617447660956,137.98588330861412,138.4106611773762,138.7529023450888,139.0299928810819,139.25546166089956,139.43986386301864,139.59145878161985,139.7167298906433,139.82078411922785,139.90765871936748,139.98055745535757,140.04203271948046,140.0941262469684,140.13847809738056,140.1764101784272,140.2089939157744,140.23710138900867,140.2614454617981,140.2826113610814,140.30108160212774,140.33401234958916,140.39502962513802,140.4940242506378,140.63943228372875,140.8411092774757,141.1130119894882,141.47576474472925,141.95962083268526,142.6084538367936,143.48540997161066,144.6807856598485,146.32244318941858,148.5882884144148,151.71839107455943,156.0205233692667,161.8573478629927,169.59933372349983,179.5327461889373,191.73505439455857,205.36550433381447,219.49467282608845,233.13028904275077,245.44420752848606,255.922836071555,264.39691156530813,270.97146648568076,275.91209302603295
H1,16961.51661633685,15883.551658523584,14962.246504713099,14105.981218587745,13310.112858828757,12570.330112834336,11882.629608989968,11243.293920919308,10648.871142859867,10096.155923940307,9582.17185715209,9104.155126251599,8659.539320740545,8245.941335490512,7861.14827753705,7503.105308102627,7169.904353046402,6859.773619710313,6571.067862561742,6302.259344147307,6051.929441692679,5818.760853230866,5601.530360435495,5399.102108394455,5210.421365399583,5034.508728465538,4870.454742740071,4717.414905242,4574.605025474937,4441.29691742562,4316.814399276539,4200.5295788532485,4091.85940439676,3990.2624617092156,3895.236000074755,3806.313170614486,3723.0604619017026,3453.2292723069404,3195.985667551742,2950.264639459056,2715.0938247605955,2489.5856781570146,2272.930290957835,2064.3888030082576,1863.2873597866208,1669.0115704030545,1481.0014257726018,1298.7466394985647,1121.7823770060452,949.6853412318286,782.070185723579,618.5862283460257,458.91444095025804,302.76469234910246,149.87322377029508,0.00033764226130938367,9.41164114524884e-14,9.328351218217124e-14,9.248890279130495e-14,9.172992461903225e-14,9.100410863405287e-14,9.030916189064447e-14,8.964295495210706e-14,8.900351021252916e-14,8.83889910527102e-14,8.779769177065615e-14
S2,1811.5127525407695,1545.7513715882396,1490.2124726290035,1443.0827165642513,1401.209715070198,1363.544076194924,1329.56373363899,1298.8886438379077,1271.178176746289,1246.1081958500279,1223.3705253289997,1202.6771622024526,1183.763973612845,1166.3926869528436,1150.3512676060905,1135.453104963681,1121.5354321763425,1108.4573194131258,1096.0974849575382,1084.3520881527163,1073.1326075318932,1062.3638642354683,1051.982221219018,1041.9339691885853,1032.1738977456232,1022.6640426924017,1013.3725962536419,1004.2729649901963,995.342959635018,986.5641014334543,977.9210304539739,969.321703774218,960.8424837919808,952.4724029405505,944.2030200380073,936.027731204241,927.9413015645716,2326.6387694153864,3717.6264411511297,5099.994206213175,6472.986545529963,7835.76194735092,9187.241689971286,10525.996897463858,11850.101917736076,13156.88732005659,14442.52585059668,15701.363382611316,16924.863651862335,18099.98124651098,19206.743953420624,20214.896837561133,21079.812198130614,21738.75189731653,22110.051187207362,22099.15183045025,20291.98279647718,18151.317403674522,15720.30029964264,13147.666981871167,10606.487751632645,8260.070105534978,6228.910087107854,4573.020833185665,3293.245870922525,2347.3585510944167
E2,0.0,313.36752972755284,308.71819267167507,287.9048043210564,261.47074774290877,233.82621803081625,207.02089218939614,182.0198587674691,159.23794897251108,138.7946774465816,120.64757822368149,104.66672778045049,90.67831197898774,78.49073417129455,67.91032995472575,58.750650038866816,50.8376663346355,44.0123681142162,38.13169320947583,33.06841630970955,28.71040833559773,24.959542804445295,21.730431759281153,18.94911008145114,16.55174332654031,14.483404380416424,12.696944012196742,11.151966896514551,9.813915855576862,8.653261499951867,7.644791113618733,6.7669888181858955,6.001346496788923,5.33229216191578,4.746511129270629,4.232621585759124,3.7808922530836955,3.3829988223317056,4.59011551533359,7.0714384372628825,10.515548918499038,14.827981906988985,20.183341463883433,27.01653376572291,36.025790349589386,48.22789024089241,65.08147678332726,88.68518827167212,122.05491711426941,169.4724015753757,236.8529851889581,331.9739246005457,464.2126018407487,643.2115446516391,875.8528883320756,1161.5539546396612,1487.4029341684861,1758.1405143758268,1956.3069701279833,2053.750568054659,2040.4576644295275,1926.029232512554,1735.0386998944482,1499.1404117744232,1249.1326184397715,1009.3369095681837
I2,0.0,0.0,9.402023968429184,17.912391099554036,25.11746091896067,30.95301926291407,35.492309000071266,38.86421040796319,41.216249072193094,42.696594788978985,43.44514959075774,43.58934923313707,43.242536491768426,42.50377174251551,41.45844202149703,40.17929285304108,38.72765604697548,37.15473547138933,35.50286785664043,33.80671067396051,32.094331632348585,30.388188794572667,28.70599947136532,27.061501677930444,25.465115199116855,23.924511000340107,22.445098381415505,21.03043927107619,19.68259865533641,18.40243949593076,17.189869741920912,16.04404824466039,14.963555602514559,13.946530663525197,12.990793958668554,12.093940893506591,11.253417750512371,10.466583140218031,9.730757228532806,9.090014735243052,8.574979232095943,8.204480853140787,7.993009069269851,7.959132871653051,8.132984302640512,8.563234011176526,9.325165603496638,10.531803943432203,12.350097738721221,15.024126178360062,18.906907901503395,24.500699202580954,32.500918342421706,43.828701448898904,59.620800303400365,81.12951252339198,109.48946971383835,145.3571375449746,186.47838165591475,230.25555107135122,273.45416522952974,312.79806080835874,345.5612273284439,369.97301624291083,385.3541620638038,392.00378614334994
A2,0.0,0.0,84.60823494983667,151.0395167127727,198.56499355916412,229.44826395273367,246.6909452932415,253.2477377635144,251.7429723441853,244.3881169245402,232.9846143887096,218.96215336843215,203.42940583159856,187.2263800888866,170.97335230411488,155.11425463644582,139.95389209863902,125.68912167112998,112.4344965482066,100.24303295555671,89.12279344505332,79.04995356391001,69.97895991210314,61.85031529319251,54.596451603568504,48.14607926366429,42.42733646395375,37.3700036146481,32.906998434726525,28.975324771433016,25.51661286146736,22.477359541166358,19.808953060961855,17.467506888594357,15.413707411224848,13.612508816229546,12.032801400225067,10.647069986358513,9.431054896254107,8.784160486610492,8.936594244794923,9.988440111773132,11.994259977134874,15.04484589294814,19.33025478335568,25.191052478814104,33.17421874210477,44.1111664404667,59.2336515231114,80.3413600940334,110.03009673042729,151.97362900783142,211.21080551038162,294.30456838665896,409.1087231344055,563.7644687628834,764.6274432098874,1013.2960094102124,1285.3291467263798,1556.4599684715893,1799.6740869497826,1990.656340091493,2112.5468304422066,2158.492387221357,2131.5570461890866,2042.5074654385503
IH2,0.0,0.0,0.0,0.37608095873716735,1.0669732138372154,1.9990326895261867,3.101060392449381,4.309634233074361,5.570805074627115,6.840197631899123,8.082384457019735,9.269946064963777,10.382427104685885,11.405298525436077,12.328982821439688,13.147969999795597,13.860035005921446,14.465557538144171,14.96693959985691,15.36811313657131,15.674128707918019,15.89081574251133,16.024505127119518,16.081805437582688,16.069424862069347,15.994031690308613,15.862147077077108,15.68006459244318,15.453791820767846,15.189009952748771,14.891047925153702,14.564868201571143,14.215061757798473,13.845850242410929,13.461093450346793,13.06430122502526,12.658648277840587,12.246991038846089,11.831885818298565,11.415607700867303,11.002039873475525,10.596026100644478,10.20283359138061,9.827950544777062,9.477234285938831,9.157348658130134,8.87645065971678,8.645153309263632,8.477868091307622,8.394703312598821,8.424161484766325,8.606925429382704,9.00099855524187,9.688252160776543,10.781829235683356,12.432640127184369,14.831413192134614,18.201277367896715,22.776429720901653,28.684957933145057,35.942323507286865,44.43355611275284,53.92046600419678,64.07203884652426,74.50896964021102,84.850605646055
IN2,0.0,0.0,0.0,0.37608095873716735,1.0173604109718954,1.8185867655359433,2.6929901829453176,3.5740845063591045,4.413836021405811,5.179718780012372,5.851638815569057,6.419117036085555,6.878867598193927,7.232795538225878,7.486387300281323,7.647447521084939,7.725129730989595,7.729210026670695,7.669557440192129,7.555760666419321,7.396876960093877,7.201274833369045,6.976547418478143,6.729477913637127,6.46604239802692,6.19143852638621,5.910131261122572,5.625908944154678,5.34194472616679,5.060859727146888,4.784785361554741,4.515423078920629,4.254100392922919,4.001822538438918,3.7593192572921423,3.5270871641804558,3.3054273670846284,3.0944786036881977,2.8942462085592795,2.704627255988736,2.527302394200711,2.3648410846444063,2.2200521018411568,2.0957620442437195,1.9949749502610976,1.9212993323144985,1.8795688262986598,1.8766616851787934,1.9226015058803227,2.032085114253107,2.226633138536888,2.537582826889646,3.010094229614955,3.7081121173888323,4.7196377518670225,6.160542213629633,8.173614271839385,10.918470206025042,14.549061666619018,19.098384599531805,24.488929722479494,30.529310387164784,36.935370742066176,43.3707456867907,49.49551719914899,55.010580241871345
D2,0.0,0.0,0.0,0.0,0.005018427422920322,0.019256126810365894,0.04593123554790629,0.08731181106509486,0.14481960590437437,0.21915647488101023,0.31043212863753933,0.4182835336591897,0.5419817705963021,0.6805249637257383,0.8327173615510222,0.9972354102594313,1.1726820306474128,1.3576304523646694,1.550658971758518,1.750377937529414,1.95545016629123,2.16460586936731,2.376653046024626,2.590484174935531,2.8050799196630294,3.0195104578885124,3.2329349490066503,3.444599570755372,3.653834482323635,3.8600500081557825,4.062732282551801,4.261438549187966,4.45579227089571,4.645478172525464,4.830237312641153,5.009862254942273,5.184192398507925,5.353109505792304,5.516533455475855,5.674418237664226,5.826748201211704,5.973559512250982,6.114952972148579,6.251099667951546,6.382243921281007,6.508708213952722,6.630903950162063,6.749351381158041,6.864712378397147,6.977841120304693,7.089860110717521,7.2022721912233205,7.317123075317219,7.437232474460877,7.566512591399174,7.710385409866998,7.876286662520329,8.074197162786012,8.317075158475946,8.621004024992883,9.003776340827187,9.483391002888556,10.076312743044902,10.795827887232821,11.650805703364506,12.645054010302305
R2,0.0,0.0,0.0,16.921646989967336,47.2253514857285,87.20022354143771,133.56301164394745,183.6095366830455,235.2097909169467,286.746073126704,337.03404158029656,385.2436851918169,430.8273339653867,473.45727549713627,512.9733847984305,549.3401651731053,582.6121656922193,612.906605346084,640.3820505233931,665.2220835328532,687.6230228840983,707.7848874927523,725.9049241627255,742.1731341683222,756.7693377075913,769.8614037494103,781.6043478695474,792.1400632127045,801.5975011554152,810.0931600759943,817.7317743087466,824.6071221999742,830.8028933758429,836.3935719044782,841.4452966683743,846.0167010434449,850.1597006788861,853.9202232740787,857.3388775885608,860.4515614339076,863.3741574356815,866.2691383945562,869.3197729173316,872.7210920466982,876.6871509545115,881.4709376084775,887.3946395933542,894.8912536506319,904.5620156542152,917.2573062063636,934.1914831325751,957.1039293973058,988.4772757224002,1031.814129399418,1091.9469563663386,1175.3027768457603,1289.968285224395,1445.3403008332662,1651.1794519096177,1912.4017717756938,2229.083526542796,2595.883449218902,3002.5526701153676,3435.4004714588445,3879.280110080372,4319.56890492779
G2,0.0,0.0,9.402023968429184,18.66455301702837,27.302614124399327,35.14756934186958,42.1631006200599,48.37438674795753,53.83556224482449,58.613207887385826,62.7774902722829,66.39730188192284,69.53763707920517,72.25827524929373,74.6132472676765,76.65077346094031,78.413480083118,79.93877199128988,81.25928321425214,82.40335546010346,83.39551327240837,84.25691696522034,85.00578274557881,85.65776490985316,86.226298565274,86.72290358242661,87.15745184352922,87.53840060370314,87.87299512964945,88.16744386267072,88.42706926833533,88.65643735042848,88.85946856785547,89.03952807706727,89.19951382529264,89.34192427682416,89.46891640531047,89.58235521505712,89.68385595458933,89.8215740395822,90.03373971525454,90.34923967486706,90.79412635924739,91.39969088717217,92.21027294789188,93.29116140063914,94.73815171385337,96.69080330206867,99.35164141283227,103.0136776715688,108.09838948898094,115.20473342217878,125.165008498226,139.09286507209694,158.3912600425103,184.66963628677394,219.51995447909167,264.146779887335,316.89659500187315,375.5920349497828,437.21109319366946,498.4313219908608,556.2183333756146,608.275020476357,653.2540075966829,690.7319646413333
H2,16961.51661633685,17971.130700642614,18891.728072672366,19735.558441191486,20508.18140393357,21214.758734279272,21860.08280502602,22448.602981798802,22984.450131128768,23471.459377867228,23913.19123698359,24312.9512358637,24673.808134930914,24998.610846710824,25290.004146308827,25550.443259629224,25782.207409498114,25987.41239412645,26168.022267032826,26325.860182608274,26462.618466921078,26579.867969102444,26679.06674470105,26761.568118723808,26828.62817267194,26881.41269671629,26921.003645217206,26948.405131065105,26964.548991783995,26970.299957987154,26966.460452589137,26953.775047149495,26932.934599839613,26904.580097774626,26869.306224827968,26827.664674537737,26780.167226313322,25320.589370159614,23862.156914858686,22405.993889766167,20953.114938400427,19504.43468721756,18060.776340012693,16622.87956069469,15191.407702169392,13766.954434450416,12350.049820865443,10941.165887310837,9540.721725902567,8149.088171051997,6766.592082938952,5393.520270540952,4030.1230837873254,2676.617702022835,1333.191143770947,0.0030207672484721115,8.465146986158523e-13,8.431597434979841e-13,8.397852355169728e-13,8.363941424363877e-13,8.32989206784933e-13,8.295729620827829e-13,8.261477479073197e-13,8.227157238811925e-13,8.192788826596922e-13,8.158390619889371e-13
S3,5434.538257622308,4874.3607004482965,4691.3979777116165,4541.097804890098,4412.841673447663,4301.492142967842,4203.882638686932,4117.754664842034,4041.353691985548,3973.2503194524234,3912.2500167027706,3857.341299441649,3807.6620699952377,3762.4753478847056,3721.1503797452974,3683.1471954997082,3648.0036184091286,3615.3241752951126,3584.77056381084,3556.0534386928102,3528.9253346203786,3503.174575769711,3478.6200435683727,3455.106690200578,3432.501698665429,3410.6912017944815,3389.5774830733876,3369.076591578865,3349.1163119145554,3329.634437747674,3310.57730444774,3291.6597626549046,3273.10231359785,3254.8635155174793,3236.9094769513817,3219.2119305803435,3201.7469321603157,5649.114817870477,8087.09844456427,10515.56203385654,12934.375650881972,15343.178525154777,17741.234293020152,20127.313407579517,22499.517670326706,24854.966088620797,27189.252662058294,29495.54595145556,31763.12360264404,33975.02867398992,36104.429703298345,38109.265836747436,39925.11195926398,41457.32827713246,42575.774508803195,43117.99185720996,40517.43661107162,37293.3196646089,33448.150073383236,29161.333988283393,24682.3574916744,20289.116972481872,16232.867144282525,12693.676498650213,9759.221484295813,7430.263850534379
E3,0.0,537.2014795329476,537.0639248602553,505.11217040082863,461.356333321246,414.3634118284866,368.1859056406365,324.77083569267984,284.9904619423553,249.1402113785326,217.19967376560976,188.9775188213698,164.19521063665385,142.53651858749265,123.67700900294953,107.30139801086743,93.1133595489651,80.84057760489178,70.23679238892169,61.081965586307554,53.18130035499164,46.363601242302586,40.47929415067914,35.398315818632284,31.008007252288625,27.211094413788373,23.92380466182741,21.074143906186503,18.60034375544711,16.449477734597114,14.576239265849193,12.941870368023334,11.512956353025302,10.261317163245605,9.162808490857982,8.196750887106367,7.345430928363373,6.59366933429868,7.698477073920008,10.185069035652425,13.686956590500646,18.107050625483872,23.64447672293082,30.77287357595499,40.24100906295295,53.13342154499239,71.0053914031482,96.09938975166794,131.6499250695266,182.27362401532773,254.39849286001538,356.57933813710537,499.3479134302256,693.994286693041,949.6007381319115,1268.2205396657332,1639.5638604216338,1965.732594845554,2227.9101744178906,2391.573674967358,2438.1433969991585,2368.5394053701507,2200.913166633753,1964.477661796689,1691.9443876768219,1412.87190558058
I3,0.0,0.0,16.117755374450024,30.941963240651198,43.62158007733148,53.97401309220628,62.08831414850034,68.16799885914779,72.45871841736559,75.2126424977963,76.67063095171308,77.05366247021253,76.55929693124943,75.36093245812964,73.60860739837989,71.43062298827438,68.93555684484052,66.2144096500756,63.342731683719215,60.3826406251018,57.38468288894217,54.389516651091355,51.42941102449406,48.52956589373859,45.70926284054962,42.98286079147838,40.36065142799808,37.849589651008806,35.45391391733066,33.17567035876305,31.01515345374007,28.971274780785865,27.04187012926296,25.223945878316158,23.513902405276813,21.907703651155288,20.40101599235432,18.9893210360383,17.6680064340425,16.48554475121125,15.472285681661967,14.645155117845338,14.016811898197432,13.604876555764918,13.439770650284919,13.571947437895616,14.080363519334377,15.084322332284906,16.760864315121438,19.36991222743756,23.289108511788413,29.058744876673956,37.43256113700629,49.419984073682855,66.28842432264241,89.4763970022315,120.3689407185735,159.93156328997097,206.11527693685548,256.470455915604,307.7076468613189,356.2431025170469,398.8073802825064,432.93719477452106,457.2428059142098,471.42710191976187
A3,0.0,0.0,145.04268848543427,261.0396999502668,345.21043718452967,400.7330903229362,432.4632737032244,445.379640812243,443.99080389064875,432.1391601414056,412.97839167294376,389.02593347340144,362.2440749664782,334.12744388279856,305.78636114558606,278.0214874355888,251.3882256561032,226.25089103674978,202.82741130521768,181.22563928477052,161.47244758986017,143.53673978512109,127.34741649529764,112.80721369023779,99.8032034794698,88.2146259810897,77.9186096091703,68.79423874863389,60.7253427323605,53.60230775770369,47.32315280286402,41.79406041870097,36.92951211442781,32.652071238055605,28.892179942192218,25.58767306271055,22.683235083008892,20.1298310218438,17.884134536877383,16.38587191978576,15.858633735976719,16.38234167521524,17.994719338037633,20.779708877886073,24.93234495611416,30.810820244143724,38.99451078234229,50.36683815232101,66.23999967793786,88.53706020568244,120.04294610659841,164.72113969745473,228.05219734862914,317.26410408033394,441.1875302973252,609.3391990520331,829.886865664826,1106.5865128294677,1416.010750007158,1734.3372511973967,2033.1870760291615,2284.8406125184433,2467.370585658977,2568.1360136026924,2584.91152269951,2524.7488139839656
IH3,0.0,0.0,0.0,0.644710214978001,1.8384972208061403,3.4581965244532658,5.381724893470189,7.498872530572671,9.715073286566108,11.952025072430203,14.146843350129158,16.250559121119252,18.226376317516642,20.047906323016193,21.697492969013904,23.164683643244924,24.44486939110215,25.538098137804003,26.44805457312577,27.181194546339267,27.74601910315219,28.152472399253103,28.411447924607383,28.53438831077529,28.532965176514043,28.418826806338366,28.20340283289621,27.89775643286682,27.51247580386256,27.057597842984467,26.542557986062963,25.97616108868224,25.366569039747,24.72130150274082,24.047246461677837,23.35067898542787,22.637285497196103,21.91219194661823,21.179994575729317,20.44479222295846,19.712343582618427,18.989229287983054,18.282259002059295,17.598285143205917,16.944398442156615,16.32842375890965,15.75967137145942,15.249975983124203,14.815138734509173,14.476966650622295,14.266179056351424,14.226509619212592,14.420326310559217,14.935900716481235,15.895872012320899,17.46522658992966,19.855259261298823,23.31828154579771,28.128048043339387,34.45771677710485,42.3706722356815,51.79440559125574,62.51799448763546,74.21409834489425,86.4791303379529,98.88139001200801
IN3,0.0,0.0,0.0,0.644710214978001,1.753446701608449,3.147620564380018,4.677056975192265,6.225178146093826,7.706862471240972,9.063838713687401,10.259576670861772,11.27448657475794,12.101735758614854,12.74376048414186,13.209445685638673,13.511900844446135,13.666745595087884,13.690818749863928,13.601231385894167,13.414694376064102,13.147061125855354,12.813036216241969,12.426009639037229,11.997984152209545,11.53956995751718,11.060026479635729,10.567335615367718,10.068294549414096,9.568619225571629,9.07305193715053,8.585468364070945,8.108980829406358,7.6460356547565205,7.198503328975734,6.767760498313233,6.3547644948616595,5.960119741935539,5.5841364332426044,5.226881988035616,4.888225847790192,4.570002468280603,4.274893401890961,4.005720926226582,3.7652492169091625,3.5563944357579267,3.382706374617738,3.249042997210015,3.162448938541387,3.133332044124506,3.1771002079044623,3.3164766554210723,3.5847456648083944,4.030146326913674,4.72141950701119,5.753934968556266,7.254684947750709,9.382803838289828,12.321000699374801,16.25406309109868,21.247861550353164,27.257107476906693,34.113991855978114,41.54091758546436,49.185029279671745,56.66551121471824,63.62212120834298
D3,0.0,0.0,0.0,0.0,0.008603018439291978,0.03313594055488461,0.07928214357042401,0.15109592504633956,0.2511609420968576,0.38079896035945493,0.5402868817483004,0.729062476382068,0.9459100716579762,1.1891229879391627,1.4566424156746014,1.7461739412534292,2.0552836713202955,2.3814762105914653,2.7222568032977135,3.075179862200643,3.437885946967919,3.808129055291417,4.183795879758743,4.562918475777671,4.943681589326126,5.324425712559233,5.70364677243699,6.079993213031956,6.452261105537768,6.81938781014455,7.180444619480331,7.534628732706873,7.881254841051654,8.219746548055184,8.54962779970967,8.870514455322956,9.182106108773768,9.4841782336191,9.776574704130264,10.059200726870296,10.332016203336117,10.595057879089172,10.848450311715721,11.092408927001497,11.327240589459466,11.553346782372135,11.771233404018522,11.981530589104187,12.185026394713617,12.382719728482185,12.575900491167275,12.76626850245157,12.956107164438688,13.148532117957659,13.347836900612153,13.559951548175613,13.793007676198503,14.05795641994953,14.369115761698048,14.744456667358115,15.204260724936836,15.7696553255811,16.460800302039935,17.29504093739738,18.285354479332405,19.439332709593156
R3,0.0,0.0,0.0,29.008537697086854,81.38070823549444,150.8741159900526,231.83954411917162,319.56218140221654,410.2935993752059,501.16489158015173,590.0596908519944,675.4816183932003,756.4311841099674,832.2979752104552,902.7695473084353,967.7563307708057,1027.3309378684196,1081.6799331064785,1131.0661144217763,1175.799489195231,1216.2153309108219,1252.6579235650981,1285.4688170815928,1314.9786157672527,1341.5014979922046,1365.3318174401666,1386.7422652775351,1405.983180338997,1423.2826833211454,1438.8473835256964,1452.8634653266035,1465.4980084822944,1476.9004336637377,1487.2039938527478,1496.5272403906952,1504.975465395644,1512.6420628879857,1519.6097959184012,1525.9519631512378,1531.733463043613,1537.107337551051,1542.2720288380513,1547.4428599114835,1552.843635683832,1558.715877403613,1565.341084598333,1573.073533585405,1582.3848570853384,1593.9254288398079,1608.6110085069436,1627.7462439103442,1653.1989942290743,1687.63886574326,1734.844637564408,1800.0592655663302,1890.3176263672399,2014.5923702478938,2183.53309074901,2408.5909301470874,2696.5834942047877,3049.5865754748065,3463.9945900942544,3930.620501196982,4435.824752564554,4963.3511033970135,5496.399984512112
G3,0.0,0.0,16.117755374450024,32.2313836706072,47.38635756653958,61.2285169876009,73.66073909127147,84.70748893379894,94.45164840074857,103.00226995456853,110.47726980830902,116.99395180294552,122.66387926159942,127.59025854297958,131.8668080798802,135.5775122616451,138.7968959572732,141.59059331009553,144.01606811574518,146.1233955918253,147.95604910567383,149.55165749893837,150.94271320442837,152.15722095563243,153.21928317394256,154.14962215211528,154.96604165195325,155.6838319892038,156.31612342760636,156.8741929824252,157.36772970610326,157.80506330944826,158.19336064038822,158.53878599978245,158.8466581970084,159.121571635309,159.36750026860048,159.5878865916728,159.78571767256005,160.0166965044522,160.32228101499982,160.73293330571616,161.27620249549588,161.98561210491917,162.90889632390036,164.11625476353385,165.71042664000424,167.84081453450153,170.72410230392086,174.67401936144668,180.14280862399255,187.77557366982117,198.47408952028744,213.4561173479245,234.2781563227787,262.76920294817916,300.8198584246997,350.01199625358305,408.9902349636653,475.83463609736225,547.5894635163254,620.7415309209589,691.8052568877822,757.8396618023974,816.7802485240478,867.5439690027367
H3,50884.54984901054,50662.43475046327,50454.189826359914,50258.639769148256,50074.76489537192,49901.620204623985,49738.33002118402,49584.08301868637,49438.12760045683,49299.76761010932,49168.358348809204,49043.30287729513,48924.04858231605,48810.08398859354,48700.93579876849,48596.166145044335,48495.37003740265,48398.17299434689,48304.2288431336,48213.21767738169,48124.84396081551,48038.83476670063,47954.938143276966,47872.92159618657,47792.57067953649,47713.68768783407,47636.09044158684,47559.61115987383,47484.095413673276,47409.40115417581,47335.39781072419,47261.96545340375,47188.99401566288,47116.382572673305,47044.03867144596,46971.87770900329,46899.822355172764,44363.18115309113,41834.094788607326,39312.51856747715,36798.42435055514,34291.798852986656,31792.64208852903,29300.96594717673,26816.79289521027,24340.154787659914,21871.091783976826,19409.65135844298,16955.88739753106,14509.85937705174,12071.631612502222,9641.27257656051,7218.854278158539,4804.451698016885,2398.1422759376833,0.005445533298825467,1.5293669108906727e-12,1.5266997425691534e-12,1.524014860708434e-12,1.521312180149161e-12,1.5185916517721608e-12,1.5158532595167373e-12,1.5130970176169881e-12,1.510322968040505e-12,1.5075311781149437e-12,1.504721738328982e-12
S4,2717.269128811154,1952.2780493291439,1798.07729072769,1687.577455540401,1604.3635691353143,1540.670151283511,1491.9114697657933,1455.0091410601988,1427.730504902894,1408.3769309416502,1395.6157825478886,1388.379676824189,1385.800971797511,1387.1665194646978,1391.8850206117777,1399.4627116682223,1409.484824334824,1421.6011877176188,1435.514882972647,1450.973193978886,1467.7603138617437,1485.691413083005,1504.6077762334542,1524.3727868166504,1544.8685915711305,1565.9933142776351,1587.6587175590578,1609.788232656837,1632.3152934821308,1655.181923757907,1678.337535768139,1701.5737955397715,1725.025806621056,1748.6555259546262,1772.4308730323519,1796.324416078883,1820.3124407052526,3970.439302925078,6157.229005578711,8380.089572938317,10638.575515776247,12931.798841730255,15258.049579093107,17614.502440113218,19996.828550418122,22398.538945003773,24809.88547156105,27216.094834839198,29594.613336769886,31910.929701059948,34112.52104889919,36120.7730216389,37821.82660675125,39059.78560630469,39639.49593701383,39348.77533028962,35495.53669806412,30956.515623515785,25902.367109751925,20734.63555128655,15864.143968486858,11620.251087551476,8186.726111766015,5591.202646776673,3741.602479916015,2484.6032018286683
E4,0.0,805.8022192994215,757.5401272048914,678.7965121866546,595.3157781928235,516.4263600446469,445.45180542902995,383.19227531377123,329.3474271093161,283.1609963041539,243.72758575376758,210.13968466398146,181.55507055796468,157.22352004716677,136.49274540171191,118.80408812505794,103.68362247559175,90.73169228752383,79.61245423981853,70.04419323577378,61.79072800091912,54.6539824096035,48.46767289034532,43.0920040538388,38.40924395005158,34.32004980293358,30.740424607483376,27.59919881437999,24.835946249420182,22.399257722224434,20.245308669458716,18.336668361723234,16.640795268030047,15.130513967517711,13.782405495344939,12.576276471601886,11.494698445546714,10.522611554723845,13.866227688327559,20.661179181196424,30.140066963141116,42.13650045102231,57.23215672728091,76.75601284173774,102.8253520228256,138.54119061922495,188.38985934899182,258.8793251407661,359.4304121481622,503.4997558411857,709.7588308491768,1002.7883564976535,1412.0852650709428,1967.37414309196,2688.108434400093,3567.3131227544072,4555.386360486954,5338.711055505459,5858.531881257916,6033.968568752167,5853.5520801800685,5373.642060707263,4694.421159769889,3927.358471905348,3167.788284274353,2480.2791275853233
I4,0.0,0.0,24.17663306167504,44.9711190006597,61.73948681530824,74.66169729856036,84.18319713565332,90.81351429312276,95.04542187773075,97.32325991341956,98.03313087816589,97.50308425367992,96.0076973488849,93.77431193120398,90.98957333554598,87.80562456059222,84.34567563090413,80.70886048737475,76.97439139774588,73.20506727904676,69.45021078477977,65.74811256569485,62.12805710583932,58.61199709377851,55.21593469606463,51.95105957244806,48.8246856102106,45.84102140797073,43.001803563302566,40.306816768290645,37.75432050020291,35.34139860164447,33.06424516671305,30.91838241240402,28.898875429173486,27.00048145670634,25.2177712897994,23.54522715063383,21.977320839776908,20.635166167224924,19.604254055205793,18.940211735894984,18.6892240154452,18.91123308063355,19.701259287585838,21.21024660434476,23.670103848717183,27.42879134360504,33.00169232183318,41.145614087564496,52.9605612841568,70.01874189108699,94.50408711891046,129.3108155976933,177.99344073568875,244.4057801429533,331.88407331806144,442.00944718761696,566.8270268898675,697.2554806195344,822.5133174420765,932.3374580345487,1018.9768382804642,1078.306277757804,1109.875038343862,1116.1287732205842
A4,0.0,0.0,217.5640327281514,378.5846477600699,486.140614529351,549.6458556528511,579.1501569146972,583.590694232145,570.3332492517895,545.1893557483191,512.6040517320816,475.8889132660283,437.4481761765177,398.97783173837365,361.63211504601065,326.1582985654322,293.00336425470385,262.39693923949767,234.4148193284942,209.02696454162037,186.13328071597167,165.5899243293556,147.22834064096548,130.86878982346963,116.32973570513894,103.43416209705802,92.0136338149681,81.91072378764252,72.98027480645852,65.08984622994059,58.119605227244286,51.961853041175246,46.52032448825703,41.709221311986624,37.452567630082825,33.68325969080301,30.342162344493406,27.37726184524036,24.742881081415657,23.538142177000626,24.408966314600566,27.66489513551713,33.50863702529858,42.25940965199917,54.53140672071769,71.38764292365605,94.51579455197232,126.47729764349018,171.07843137130544,233.90781159001506,323.0695797007703,450.08828750570655,630.8202923747508,885.9147579727878,1239.9165589200074,1717.7139627899141,2337.334351471709,3099.807289588453,3921.28081284514,4718.809598772631,5404.19997437165,5903.800397563502,6173.906559374302,6206.604008890631,6025.6574858774275,5675.818736040017
IH4,0.0,0.0,0.0,0.9670653224670016,2.700072796796526,4.985832769324272,7.632867854769806,10.48055421240449,13.399584304627037,16.289164705541904,19.073137552296814,21.69597386739604,24.119047035458085,26.31734321260547,28.276645154660976,29.99116933316116,31.461611679089053,32.69354914580408,33.69614436832384,34.48110468512427,35.0618523620718,35.452868790550255,35.66918110265665,35.72596477079959,35.63824023695157,35.420645446156925,35.08726938644442,34.65153443062608,34.12611750755518,33.522901971507224,32.85295355208972,32.126515009096025,31.353015134460023,30.541088576808797,29.698603031226654,28.83269316797719,27.949798222406972,27.055701881984184,26.15557337274008,25.25400887460772,24.360136214468508,23.48588143856074,22.64458376361254,21.850521671916013,21.119399261859066,20.46965231952429,19.924499291340346,19.514854277135058,19.283445174405404,19.290706317739318,19.62322999697963,20.405713531302908,21.817253232813975,24.11210988168331,27.643003066471397,32.88081995267155,40.41854266586226,50.94223300820081,65.15449114135298,83.3918895923612,105.60483393990087,131.31584648672742,159.66943278684352,189.55829743017983,219.78552186423295,249.21764358124844
IN4,0.0,0.0,0.0,0.9670653224670016,2.5724970179999893,4.527577087012321,6.608529561552271,8.65415153466795,10.55586179945927,12.246506314676646,13.690135448278099,14.873433593749114,15.798870245146489,16.479404090072588,16.93449574930623,17.18717953286682,17.261968608717147,17.18340191220988,16.975075949262894,16.659036415320152,16.255431823417993,15.782353890125584,15.255807614728262,14.689768376016183,14.096294584564086,13.485673055493855,12.866580827293006,12.246252086242828,11.630642525313093,11.024586162782576,10.431941600957686,9.855726100774264,9.29823682468519,8.761159266416675,8.245662709629501,7.75248518487054,7.282007406164686,6.834316776523725,6.409262507244333,6.006502839386543,5.630608918198231,5.288657296766816,4.988534306849252,4.73839640609721,4.54716644810311,4.425783529985921,4.389036688162527,4.458033504478709,4.663578457327169,5.0509304587350625,5.68656893049063,6.667677595758776,8.1348917522505,10.28807688655682,13.402894133153188,17.8420529359501,24.04987355447821,32.515261776305024,43.692587308548696,57.62715092243366,73.99193996272831,92.0940846678657,110.96876605567451,129.53408637575816,146.75952021091868,161.8026177024894
D4,0.0,0.0,0.0,0.0,0.012904527658937969,0.04893432138426897,0.11546531508224615,0.21731836684675762,0.3571709689129303,0.5359751326649926,0.7533378811786374,1.0078499863779644,1.297361241052243,1.6192060041157175,1.97038484954311,2.3477086362852906,2.7479110478414928,3.1677350542197424,3.603998044339805,4.053639673398879,4.513755819415588,4.981621467235251,5.454704841509552,5.930674689065126,6.4074022583579,6.882959230745678,7.355612616445964,7.82381742924901,8.28620779119885,8.741586985382952,9.188916866466494,9.627306950302028,10.056003432213478,10.474378325402295,10.8819188638926,11.278217268296778,11.662960964326194,12.035923302901924,12.396954812518441,12.745974999865116,13.082964703094351,13.408026562155927,13.72142235825923,14.023591871231966,14.3151654130876,14.59698285145833,14.870130061258275,15.13600274454267,15.396409121370464,15.653727573218085,15.911142917822389,16.172995461151864,16.44528947123312,16.736419078762303,17.05817127238845,17.427039733866717,17.865801667182023,18.405147034705923,19.084920613170496,19.954342681674362,21.06712474589986,22.476316523161117,24.228596264432316,26.359226495726816,28.888693983950617,31.821513804948683
R4,0.0,0.0,0.0,43.51280654563028,119.47608192017559,217.36649393600504,328.4740822967766,446.04360806805346,565.0662350988522,681.9774896195443,794.3562568334116,900.6590710843117,999.999079403678,1091.9686556417555,1176.50059449721,1253.7616516244527,1324.0723274690522,1387.8474595938792,1445.553024031076,1497.6753767966777,1544.6999158562635,1587.0967847192344,1625.3117691793777,1659.7609675990516,1690.8281560872551,1718.8640373514452,1744.1867694388657,1767.0833299347416,1787.8113925269586,1806.601484477709,1823.6592621653192,1839.1677928101258,1853.289767975306,1866.1696017090253,1877.935358128294,1888.7005706722487,1898.5658901551924,1907.620568958763,1915.9437907687688,1923.6058566308775,1930.8970752377538,1938.238353363368,1946.1145741981056,1955.0534700038768,1965.6490294069226,1978.6207239161542,1994.9038248894403,2015.775367622337,2043.0305882315768,2079.234478294995,2128.082112244403,2194.907428344369,2287.375537328713,2416.3607513824713,2596.921105599834,2849.098048492215,3198.0089981966003,3672.4981704246975,4301.751026873537,5098.311967460358,6058.163810212387,7159.582521452858,8365.949050179126,9631.66369392171,10909.266872163023,12155.780333376433
G4,0.0,0.0,24.17663306167504,46.9052496455937,67.27130698029501,85.13267640877177,100.62711202974955,113.99208495807126,125.48907368612906,135.37054547203633,143.86627722985622,151.17888107562354,157.4837409111229,162.93097128135278,167.6481776401911,171.74339473208104,175.30789576724032,178.4187346741833,181.1409744235444,183.52960161666496,185.63115050472172,187.48506914841917,189.1248626938192,190.57904725022556,191.87194462001395,193.02434427208254,194.05405507564092,194.9763657222179,195.8044295901874,196.5495870802397,197.2216361536152,197.82905989507302,198.37921834827316,198.87849520730117,199.33245881706296,199.7459748789297,200.12330322855928,200.46818079257767,200.78389265377146,201.19992364840164,201.8198248297605,202.72412283486617,203.98835205328797,205.70549903971192,208.0084238931149,211.09351195288068,215.25018892560067,220.9024847283859,228.66968901410243,239.4537461655804,254.56034248917788,275.8553679988406,305.94221257795107,348.30926802624674,407.33675841205763,487.98857307817724,595.0193286647217,731.6954283997221,891.8737638769821,1067.6483797578385,1248.6866550299433,1424.3118610177817,1585.538237906461,1726.385824446238,1844.2190872529202,1939.2628251971514
H4,25442.27492450527,25866.31283991369,26288.49979616755,26708.951378053884,27127.77337613012,27545.063083591554,27960.90991863009,28375.396002139954,28788.59669396234,29200.58109063281,29611.41248738372,30021.14880695713,30429.842997601256,30837.543402453888,31244.294102358836,31650.13523401524,32055.103285223944,32459.231368868965,32862.54947715519,33265.084717514634,33666.86153149282,34067.90189783295,34468.22552088879,34867.8500054161,35266.79101871765,35665.06244104712,36062.6765051124,36459.64392545896,36855.974018457906,37251.67481357185,37646.753156523315,38041.214804946016,38435.06451705771,38828.3061338549,39220.942655293846,39612.97631088923,40004.40862513092,38269.17544429776,36492.26507958291,34673.7720886978,32813.79069546023,30912.41495109812,28969.73887920778,26985.856605738176,24960.8624752621,22894.851154693955,20787.917725520256,18640.157765522963,16451.667420896527,14222.543469586597,11952.883376611177,9642.785342063193,7292.348342436599,4901.67216586571,2470.857441819337,0.005665746900376689,1.6067373126427142e-12,1.6194820369001366e-12,1.6322045347548796e-12,1.6449046585941166e-12,1.6575822600953597e-12,1.6702371905267944e-12,1.6828693010227671e-12,1.695478442836242e-12,1.7080644675699128e-12,1.7206272273875374e-12
E_Om,0.0,0.0,0.0,0.0,0.0,0.0,0.0,0.0,0.0,0.0,0.0,0.0,0.0,0.0,0.0,0.0,0.0,0.0,0.0,0.0,0.0,0.0,0.0,0.0,0.0,0.0,0.0,0.0,0.0,0.0,0.0,0.6618622370181833,1.0676557524757597,1.3122723214556247,1.4539889499179002,1.5289512204875757,1.5598632059808368,1.5612141894685039,2.4639089187072476,4.180488030184704,6.695931900743991,10.251300107235686,15.441367488214455,23.333849039466365,35.73067242296914,55.68810534102371,88.46378335905642,143.19060357575668,235.7953631987537,393.9781280484706,665.3622464992432,1129.869856975328,1916.0699544679076,3217.0974615027444,5293.646208837773,8442.844739213104,12914.412374957665,17904.285412856094,23135.01894021975,27840.566633558432,31333.93967887787,33164.18994032489,33213.226931209014,31673.922113527064,28945.279377626717,25502.18126118956
I_Om,0.0,0.0,0.0,0.0,0.0,0.0,0.0,0.0,0.0,0.0,0.0,0.0,0.0,0.0,0.0,0.0,0.0,0.0,0.0,0.0,0.0,0.0,0.0,0.0,0.0,0.0,0.0,0.0,0.0,0.0,10.0,9.2,8.483857975143925,7.837182410193733,7.24958016661352,6.713238052741516,6.222052414851437,5.771089086012138,5.3562433572875,5.001669003823646,4.726963439291284,4.549705647735208,4.493300849557685,4.597126987045236,4.929446617650781,5.60712486323581,6.829375401204503,8.937220627317897,12.518417146943825,18.591555680150538,28.92482988881335,46.57383007360728,76.7476180161522,128.0960098979415,214.37149941707924,356.0480260092589,580.876416592898,921.8798069596635,1385.315009995915,1968.614062513493,2646.4306088145518,3374.8341491756332,4099.878743504281,4768.391036196137,5337.238298251329,5778.709806529096
A_Om,0.0,0.0,0.0,0.0,0.0,0.0,0.0,0.0,0.0,0.0,0.0,0.0,0.0,0.0,0.0,0.0,0.0,0.0,0.0,0.0,0.0,0.0,0.0,0.0,0.0,0.0,0.0,0.0,0.0,0.0,0.0,0.0,0.17870069596152935,0.4312242094506303,0.699288714761906,0.9520033573278177,1.1744146456792837,1.3606898139888624,1.5100747098753087,1.8733073283932746,2.627364315996501,3.9097717394331704,5.89563577007595,8.885628657072932,13.40856784792909,20.374022030236926,31.334828699469092,48.95280270908245,77.82324907018159,125.92259631080917,207.1109168001136,345.33442081396487,581.3287993953369,982.3958245335602,1654.5227277666986,2752.8857983191447,4481.849827754868,7072.330070996996,10491.964093061402,14639.952703197796,19228.826481323627,23843.125099656016,28028.72573555958,31390.44607563817,33664.21494961777,34746.50520084436
IH_Om,0.0,0.0,0.0,0.0,0.0,0.0,0.0,0.0,0.0,0.0,0.0,0.0,0.0,0.0,0.0,0.0,0.0,0.0,0.0,0.0,0.0,0.0,0.0,0.0,0.0,0.0,0.0,0.0,0.0,0.0,0.0,0.4,0.7407682156862326,1.0296914340018353,1.273077892808405,1.4763906429939864,1.6444082862214555,1.7813399533801266,1.8909108533207521,1.976428396326771,2.0419409769787773,2.092005273884105,2.1315709087893246,2.166186744677502,2.202598998623312,2.249825111178769,2.3209432252799065,2.4361096780397817,2.6277494698398463,2.949590388734361,3.4924460927404444,4.4116754414805595,5.974284159212994,8.637462835726968,13.173269419242885,20.851300317096133,33.67367607522461,54.61624702911006,87.7731946596862,137.21024329576557,206.6136064186307,298.4046878555083,413.082823577788,548.9555174294785,702.3185632560936,867.9946261007846
IN_Om,0.0,0.0,0.0,0.0,0.0,0.0,0.0,0.0,0.0,0.0,0.0,0.0,0.0,0.0,0.0,0.0,0.0,0.0,0.0,0.0,0.0,0.0,0.0,0.0,0.0,0.0,0.0,0.0,0.0,0.0,0.0,0.8,1.376,1.778732478085191,2.0479945421886674,2.2150146065167293,2.3042864096354405,2.3349994344013836,2.3221600619166374,2.277473584430469,2.211393706053973,2.133174434083024,2.0510182525210268,1.9725768023494097,1.9058547820146798,1.860575792893914,1.850254980396285,1.8955313320520935,2.029779193800381,2.3087866240273773,2.82758008566692,3.749550028753448,5.356025407601326,8.127843407950284,12.871874392412613,20.89878371817135,34.23343258984241,55.78934873921405,89.37858816944124,138.11025408928367,204.03344793888,287.2646878305709,385.6127857235397,494.79080420560183,609.1234696506281,722.481994255523
D_Om,0.0,0.0,0.0,0.0,0.0,0.0,0.0,0.0,0.0,0.0,0.0,0.0,0.0,0.0,0.0,0.0,0.0,0.0,0.0,0.0,0.0,0.0,0.0,0.0,0.0,0.0,0.0,0.0,0.0,0.0,0.0,0.0,0.005337603307300185,0.015222420502274415,0.02896263151134158,0.045950593439103814,0.06565156238638319,0.08759456015410187,0.11136477522057117,0.13659710528180782,0.1629705821439973,0.19021825942408152,0.2181339950960146,0.24657769492726148,0.2754833087588126,0.3048748080080823,0.3348964928937693,0.3658671784820443,0.3983746461681722,0.4334393568206058,0.47279871535582924,0.5194019448937768,0.5782713784617307,0.6579922756791466,0.7732506511757936,0.9490348672260615,1.2272747910611657,1.6766166030313512,2.4054162549686056,3.5766624902382156,5.407597111265569,8.164650783648824,12.146565405677425,17.658746018971677,24.98401298245235,34.35575769748745
R_Om,0.0,0.0,0.0,0.0,0.0,0.0,0.0,0.0,0.0,0.0,0.0,0.0,0.0,0.0,0.0,0.0,0.0,0.0,0.0,0.0,0.0,0.0,0.0,0.0,0.0,0.0,0.0,0.0,0.0,0.0,0.0,0.0,0.1818941810064672,0.5333806036939532,1.0317325677932299,1.6508717137345426,2.365086216438364,3.1508338591689764,3.987474157280416,4.85742097286305,5.795757858066548,6.875276025862883,8.198372115898378,9.904375418680656,12.194583722269572,15.378028501159632,19.94809326132841,26.712147875001513,37.01515624883494,53.12959295796214,78.93731670959417,121.11617670402475,191.1744459242123,308.83841603171464,507.4159250569219,841.6158903515237,1397.5141121173938,2302.5739080841963,3731.1872370273113,5852.260078801968,8815.38293501603,12713.264010111852,17555.67528323189,23261.1532627637,29668.247967390205,36561.357375614214
G_Om,0.0,0.0,0.0,0.0,0.0,0.0,0.0,0.0,0.0,0.0,0.0,0.0,0.0,0.0,0.0,0.0,0.0,0.0,0.0,0.0,0.0,0.0,0.0,0.0,0.0,0.0,0.0,0.0,0.0,0.0,0.0,0.0,0.019857975143925618,0.05189104820524664,0.09126339744053236,0.13488769689760946,0.18076110322685268,0.22756196757566824,0.2744033657320006,0.34832848085114726,0.4737564366246775,0.674655720211905,0.9822273738531984,1.4455175793053636,2.1456073688745274,3.217641343871618,4.888461870899177,7.5426571291089335,11.838831298920294,18.913443203882508,30.734041866957362,50.697028442856364,84.59672279128986,142.08492411437135,238.60809442534435,397.4343409708904,650.7465736352702,1038.2200773294676,1575.4056649224922,2269.5299182397434,3104.8355895418817,4044.953578608127,5039.9849048708265,6036.487497043025,6986.806041993907,7855.256614131781
beta,28.796574055225516,28.796574055225445,11.851668990346587,10.626425381842575,9.884580518226663,9.37911524701502,9.012137069760001,8.734824003755092,8.51936509484441,8.348485649959864,8.210784276357371,8.098390605284868,8.005680643270633,7.928523693082786,7.863817293849242,7.80918774557924,7.762790492684873,7.723173150354649,7.6891791508771625,7.659878486454715,7.634516978176425,7.612478489595539,7.593256361773208,7.576431532859929,7.561655580121243,7.548637438983433,7.537132904674336,7.526936264577363,7.517873579667799,7.509797254666244,7.5025816241071475,7.496119345568005,7.490032242409357,7.484552411753002,7.47960365928925,7.475122591603112,7.471055697833249,7.467357288621741,9.880212820279851,11.79049684122915,13.333034626882535,14.598238204288787,15.647916188351207,16.52434680635723,17.25591016786678,17.86052885004838,18.347508089086464,18.71815391379658,18.96546203483489,19.073201916895492,19.014991335435948,18.75463063648949,18.250063028971546,17.46417640583912,16.384092967084634,15.043712166407028,13.534179344279254,11.66292655101321,10.073367053483915,8.774647305152335,7.768179640819684,7.016149211508512,6.469111888077114,6.079422119880842,5.806502927879259,5.617950239554005
