series,2021-11-01,2021-11-02,2021-11-03,2021-11-04,2021-11-05,2021-11-06,2021-11-07,2021-11-08,2021-11-09,2021-11-10,2021-11-11,2021-11-12,2021-11-13,2021-11-14,2021-11-15,2021-11-16,2021-11-17,2021-11-18,2021-11-19,2021-11-20,2021-11-21,2021-11-22,2021-11-23,2021-11-24,2021-11-25,2021-11-26,2021-11-27,2021-11-28,2021-11-29,2021-11-30,2021-12-01,2021-12-02,2021-12-03,2021-12-04,2021-12-05,2021-12-06,2021-12-07,2021-12-08,2021-12-09,2021-12-10,2021-12-11,2021-12-12,2021-12-13,2021-12-14,2021-12-15,2021-12-16,2021-12-17,2021-12-18,2021-12-19,2021-12-20,2021-12-21,2021-12-22,2021-12-23,2021-12-24,2021-12-25,2021-12-26,2021-12-27,2021-12-28,2021-12-29,2021-12-30,2021-12-31,2022-01-01,2022-01-02,2022-01-03,2022-01-04,2022-01-05,2022-01-06,2022-01-07,2022-01-08,2022-01-09,2022-01-10,2022-01-11,2022-01-12,2022-01-13
S,484132.81142561254,484115.5648506768,484103.9273521295,484094.9829657846,484087.4093760621,484080.6005320579,484074.27381129004,484068.29338064475,484062.5905212152,484057.1275678585,484051.88151805726,484046.83653459174,484041.98048178374,484037.3032982107,484032.79621032317,484028.45133461466,484024.2614620651,484020.2199302978,484016.3205397349,484012.5574932556,484008.9253495179,484005.4189850327,484002.033562389,483998.7645031344,483995.6074643688,483992.55831839447,483989.6131349332,483986.76816552295,483984.01982977806,483981.3647032474,483978.79950664967,483975.85196550126,483973.1674962367,483970.62226143276,483968.169997205,483965.7920428767,483963.47961541056,483961.22750867787,483959.03184718895,483956.8892810945,483954.79669454036,483952.75109736645,483950.7495825928,483948.7893077289,483946.8674848882,483944.98137430474,483943.1282792926,483941.30554192216,489451.4413404653,494961.5065008233,500471.49063556147,505981.37422960263,511491.12989187625,517000.7214132141,522510.1010528026,528019.2047601412,533527.9443198622,539036.1942989464,544543.7695290935,550050.3841725175,555555.5721841009,561058.5190321379,566557.6631761894,572049.5904321816,577525.1180893091,580412.2564733368,580171.8716116501,579775.8991303802,579007.7294253691,577792.4105672056,576005.5075705536,573651.0188138311,570759.0497172177,567408.1823793149
E,10.0501254165883,24.87020840601688,30.503069409107166,32.082826041255906,31.91037123417374,31.014808020099604,29.85334543126642,28.626015052893127,27.417438843376225,26.260753958398865,25.166434327018127,24.135259766599006,23.16412027407934,22.248582467171023,21.38399548140608,20.56594130944285,19.790394136613163,19.05375349340981,18.352825405263566,17.684784590427835,17.047132121380628,16.437654556177876,15.854386786234036,15.295579197782857,14.759669049867925,14.24525570572543,13.75107927738691,13.276002246662149,12.818993660475305,12.379115543142614,11.955511213285755,11.547395234946178,11.154011481468347,10.77471484979091,10.408892509846387,10.055970161371146,9.715410756385909,9.386711321466723,9.069399595925779,8.763030954053892,8.467185697957142,8.181466700542057,7.9054973548245995,7.638919785839889,7.38139328690501,7.132592947821995,6.892208447670143,6.659942989040713,6.435512354049319,6.290995272574818,6.211348438991976,6.1901827596557855,6.22651912146219,6.323474149157206,6.488098450594345,6.732088972545023,7.073443945123795,7.539490494053714,8.172292233629515,9.038632607859231,10.249588808919537,12.002239775070953,14.67915045380398,19.126750283345714,27.652678004434947,49.67395140809795,104.3189712399049,170.03867242778284,271.08033743974346,392.96305932770485,523.7954322501965,645.1085141050136,745.2389886263652,817.9112328003354
I,69.59700864797075,45.19574784557487,33.320680033130145,27.199675857022893,23.758058699254363,21.59335166898282,20.06141099898042,18.86304379662307,17.85661060280718,16.972877815065377,16.176223186381105,15.446894769449248,14.772852053719632,14.145979178033713,13.56029975892173,13.011112814558945,12.494556137486278,12.007370892914444,11.54676328590396,11.110314972800326,10.695919500508083,10.301733852392092,9.92613965027986,9.567711129718342,9.225188235793233,8.897453796897754,8.583514053368612,8.282481998743242,7.99356310389461,7.716043071377191,7.449277324619722,7.192681981784693,6.945726101108445,6.707917809469449,6.47881341691998,6.258006003318309,6.04511971778421,5.839805978459282,5.641740435563837,5.450620366421715,5.266162398990045,5.08810051867213,4.916184326034418,4.7501775159261745,4.5898565503012465,4.435009499339685,4.285435028150805,4.140941509093933,4.001346242365951,3.8664747698736024,3.751822331224253,3.6637105718548204,3.604664041593743,3.5760312953656834,3.5793205829375356,3.616990466616398,3.6930927333011505,3.8140280495894654,3.989668452150717,4.235221791748957,4.574545327496397,5.046431186138584,5.7175202516856825,6.711820287552019,8.289213389562121,11.109881922619463,17.620433373033034,33.473971940123185,57.50008035228343,94.22416059300308,143.3087893756087,201.97122959504023,264.4933592228052,324.81583178592825
A,8.026773073331567,7.527089033677137,7.444133462235653,7.509566712516525,7.608321802085445,7.693536571642563,7.7484238856163925,7.769181205426084,7.757355616168915,7.716462226369891,7.650514751354272,7.563413071518344,7.458711851487318,7.339555707584757,7.208684512358531,7.068465813188682,6.920935462662476,6.767838427542639,6.6106666093086535,6.450692657410898,6.288999676808416,6.126507100464234,5.963993122119276,5.802114103784688,5.641421348548708,5.482375590343231,5.325359510366182,5.170688549905983,5.018620253183805,4.869362341946242,4.723079695753511,4.579900387845197,4.439920905698092,4.303209836412034,4.16981324756919,4.039757598811137,3.9130525373582543,3.7896934002201226,3.6696634030836717,3.552935540582356,3.439474232027597,3.329236745657142,3.22217443085351,3.1182337839373666,3.017357369654685,2.9194846174533016,2.8245525090495507,2.73249617155983,2.6432493885591826,2.556745039782015,2.474721818108869,2.3983802529502505,2.3286490982320474,2.266345813617712,2.2122892271098014,2.1673976239554387,2.1327954479434372,2.10995134264901,2.100878872358529,2.108453480610352,2.136949056098785,2.1930130109442443,2.2875914705160314,2.4401581856493317,2.6894980622988705,3.128382277751851,4.076014561526793,6.29931402815035,9.955484142838806,15.792392047822577,24.126436323173657,34.94754456411544,47.785485768029275,61.92281165270134
IH,0.0,13.919401335109542,21.042081377312478,24.809073748950045,26.833213335716177,27.890339269072467,28.36897520940487,28.4753228431239,28.327354748777054,27.99847275860637,27.538125777415253,26.98182997183941,26.35626113572919,25.682014149257384,24.975225149107708,24.248613318569433,23.51220642531793,22.77387913929756,22.039770152877907,21.314614203962435,20.60201046734348,19.90464128090194,19.22445106603999,18.56279285415674,17.920548233925103,17.298225402994365,16.696039154363493,16.113975955693043,15.551846736533387,15.009329552459615,14.486003925936327,13.98137835685703,13.49491224011333,13.026033214548686,12.574149348964475,12.138661473222683,11.718971528888055,11.314488630017282,10.924633529430784,10.548841862664782,10.186566424290271,9.837278675526854,9.500469645645872,9.175650360808781,8.862351909685593,8.560125234603088,8.268540719672792,7.98718763296746,7.715673467964702,7.453623219780352,7.200678623826883,6.9596297904052395,6.734147007242067,6.527900134646809,6.344323465385841,6.186680097369423,6.058275566829076,5.962770650178298,5.904602229294353,5.889570708742568,5.925719444245939,6.024755807362695,6.204533685094504,6.4937769585807485,6.942056261864686,7.644093597630283,8.813605798793168,11.124205940371361,16.28738262632652,25.544897594244112,40.872623084558896,63.90690204900288,95.50223291762828,135.25183957362827
IN,12.6574373279374,23.54486916989616,28.472014141538665,30.550461798833577,31.225049045815023,31.179384099967752,30.746414941823595,30.095381536166077,29.31744399433107,28.4652550525053,27.571513186596277,26.657865814166897,25.739340957721733,24.826675355490785,23.927628317408242,23.04778718776545,22.191103025246306,21.36027196558015,20.557020442829895,19.782325367322144,19.036587220826423,18.319767386615442,17.631497463176075,16.97116623548535,16.337988660034217,15.731060310045685,15.149400055768327,14.59198323518387,14.057767156466,13.545710437879976,13.054787416119712,12.583998628220286,12.132378186126491,11.698998709686869,11.282973047058718,10.883457412170603,10.499652007723517,10.130800524328027,9.776189018541379,9.435144395477582,9.107032629847566,8.79125682175155,8.487255161851715,8.194498864228724,7.91249011170705,7.640760047133671,7.3788668347923,7.126393808621994,6.882947717947303,6.648157076774195,6.421670619134725,6.206004281037966,6.004471874255,5.820382943568616,5.656829488155497,5.516745426291885,5.403101532266688,5.319190038317697,5.269006867211888,5.257784558312338,5.292789751571428,5.3846117872899,5.549414230229435,5.813220159915508,6.220966598018373,6.858570730153046,7.920000902409077,10.017059594082198,14.704111536399555,23.105299472525033,37.01059072494691,57.89827873184471,86.5338440344534,122.53578217926577
D,280.0,280.0,280.0274746432641,280.06900830304284,280.11797739550275,280.1709418115921,280.2259928230175,280.2819885842491,280.338194258481,280.39410786766587,280.4493723170817,280.5037281161338,280.5569858773868,280.6090088671007,280.65970100249274,280.7089980508997,280.7568608852658,280.803270171724,280.84822211973017,280.89172505552426,280.93379665095193,280.9744616820468,281.0137502193428,281.051696171347,281.0883361172308,281.12370837627924,281.157852270877,281.19080754737536,281.222613925415,281.253310751442,281.2829367364366,281.3115297614242,281.33912673728895,281.3657635078476,281.3914747871692,281.41629412094625,281.44025387220654,281.46338522350726,281.48571819109264,281.5072816478669,281.5281033527699,281.5482099846469,281.56762717909317,281.5863795670782,281.6044908144164,281.62198366136704,281.63887996182245,281.65520072168266,281.67096613612944,281.68619562560036,281.700907870334,281.7151208434129,281.728858025145,281.7421501403917,281.7550351577244,281.76755782445167,281.77976932870916,281.79172738322507,281.80349692650753,281.8151516547506,281.82677671320715,281.83847312341146,281.85036501535245,281.8626117596997,281.8754294234109,281.8891319178445,281.90422012024754,281.9216167502722,281.9435741306545,281.9757227853697,282.0261442748953,282.1068202114159,282.23296208301224,282.4214680192352
R,0.0,2.520603611310791,8.405964882322621,15.939191832151588,24.280402503705606,32.99987657909181,41.86439549825264,50.73845641510349,59.53785079919643,68.2072725413369,76.70906847526578,85.01724397698788,93.11401614451141,100.98765614306986,108.63102553355037,116.04051696934584,123.21525194074059,130.1564556901165,136.86696232755187,143.3508199753515,149.61297492269537,155.6590191870281,161.494989382171,167.1272072516995,172.56215406417203,177.80637250160464,182.86639082302864,187.7486650217673,192.4595354642824,197.0051951326561,201.39166711654636,205.6247894331113,209.7102056105815,213.65335976569156,217.4594950699816,221.13365461360942,224.68068465361705,228.1052393439925,231.41178645218417,234.60461372952315,237.68783568738746,240.66540058741168,243.5410974976016,246.3185633014564,249.00128957588436,251.5926292768704,254.0958031903631,256.5139061204727,258.8499127984799,261.10668350494706,263.28696940389136,265.3935865070199,267.4301935605193,269.40149765353345,271.3132431561385,273.17214945715483,274.9858749259098,276.7630471036933,278.51338805237486,280.2479690392897,281.9796491035127,283.72379466365635,285.4994633556634,287.3314196485662,289.2537861857374,291.3173236178376,293.6063370575158,296.2911087085181,299.7906063981464,304.9881246210926,313.1626103024452,326.1410494930554,346.17827691769753,375.70816283919265
G,55155.0,55157.17557786065,55162.55929921288,55169.16238123799,55176.1074374586,55183.01516192021,55189.72902138802,55196.191455904445,55202.38820689076,55208.32333411264,55214.00807062565,55219.455916805055,55224.68054183537,55229.69494167027,55234.51115255722,55239.14020395839,55243.59216895799,55247.87624916122,55252.00086676988,55255.973752577476,55259.8020257811,55263.492264628236,55267.050568216604,55270.482610251565,55273.79368569482,55276.98875121733,55280.072460290416,55283.049193654006,55285.923085806455,55288.698048072845,55291.37778873216,55293.96583061525,55296.46552652751,55298.88006559349,55301.212497290646,55303.46573843538,55305.64258152376,55307.74570279563,55309.777669610856,55311.740947097685,55313.637904135096,55315.4708187489,55317.241882997696,55318.95320741503,55320.606825064206,55322.20469525489,55323.74870696251,55325.24068198653,55326.68237787783,55328.075490661904,55329.43731944207,55330.78190685649,55332.121912479015,55333.469783932174,55334.838643502684,55336.243139741455,55337.70045326914,55339.231660832,55340.86375475318,55342.63283298029,55344.58945025392,55346.80820649518,55349.40636383655,55352.583999280556,55356.72441870199,55362.710468782,55373.463523540515,55396.04573369889,55432.85446551609,55491.53596013886,55576.6017375784,55689.989153026254,55829.63753977055,55990.96144144777
H,96679.52270173108,96679.52270173108,96679.52270173107,96679.52270173107,96679.52270173108,96679.52270173107,96679.52270173107,96679.52270173108,96679.52270173108,96679.52270173107,96679.52270173107,96679.52270173107,96679.52270173108,96679.52270173107,96679.52270173107,96679.52270173107,96679.52270173107,96679.52270173107,96679.52270173107,96679.52270173107,96679.52270173107,96679.52270173107,96679.52270173107,96679.52270173107,96679.52270173107,96679.52270173107,96679.52270173107,96679.52270173108,96679.52270173107,96679.52270173108,96679.52270173108,96679.52270173108,96679.52270173108,96679.52270173108,96679.52270173108,96679.52270173108,96679.52270173108,96679.52270173108,96679.5227017311,96679.52270173108,96679.52270173108,96679.52270173107,96679.52270173107,96679.52270173107,96679.52270173107,96679.52270173108,96679.52270173107,96679.52270173108,92663.19056979353,88708.53581334549,84819.39875763301,80999.95781243703,77254.75514435269,73588.72113892011,70007.19602593165,66515.94637774093,63121.173339486355,59829.50839401491,56647.991210692766,53584.022734171434,50645.28528135994,47839.62031258849,45174.85419547875,42658.56338340495,40297.77388693068,39110.115881005164,39110.11588100517,39110.11588100517,39110.115881005164,39110.115881005164,39110.11588100517,39110.115881005164,39110.115881005164,39110.11588100517
S0,169446.48399896437,169055.74481225054,168440.7286865175,167829.40132319252,167221.02497583686,166615.25688311105,166011.93306852502,165410.970827392,164812.32463146417,164215.9661343157,163621.87507364983,163030.03511101007,162440.43191402074,161853.05226034953,161267.88360931523,160684.91388911288,160104.1313846882,159525.52467359096,158949.0825855097,158374.79417414736,157802.6486960381,157232.63559364603,156664.74448136697,156098.96513366073,155535.28747484193,154973.7015702102,154414.19761828738,153856.76594398162,153301.39699253283,152748.0813241205,152196.80960903372,151647.38708810325,151100.06213340262,150554.7774795079,150011.50693431616,149470.23536140454,148930.9516017343,148393.6459653464,147858.30933965655,147324.93287056522,146793.50784693807,146264.02565749234,145736.47777358702,145210.8557413719,144687.15117739307,144165.35576553823,143645.46125455655,143127.45945586995,144236.06148400865,145308.66777135746,146343.78782068825,147339.80649943498,148294.97774211725,149207.41838208327,150075.1030753587,150895.8612377826,151667.376953327,152387.19277329056,153052.71794987898,153661.24032863104,154209.93727048862,154695.86986172898,155115.90998719772,155466.42250811122,155741.9105006106,155568.07439563394,154917.19319893915,154212.89651772988,153378.9070366452,152392.2651981452,151213.97996854683,149850.0625085603,148314.97999191808,146638.81324721297
E0,10.0501254165883,17.129619655322628,19.432485352996494,19.69931705228618,19.148777106058752,18.311548581589214,17.41199457094033,16.53933518111654,15.724237363281823,14.972884465139499,14.281956012164557,13.645068412330389,13.055425023839861,12.506807907944793,11.993864037161435,11.512107552767407,11.057821232996048,10.627934003631761,10.21990448711351,9.831620428071078,9.46131553699294,9.107502189857962,8.768917524733254,8.444480464623815,8.133257495430842,7.834435398866853,7.547299489769029,7.271216205755698,7.005619140695692,6.7499978076066505,6.50388856955677,6.266867296959499,6.038525362608588,5.818513177826876,5.606496901595609,5.402161599915139,5.205210463950275,5.015363108757243,4.8323538487234945,4.655930176219526,4.485851470179564,4.321887909011005,4.163819553825908,4.011435571198134,3.864533569938959,3.722919031248021,3.5864048155799053,3.454810732740436,3.3279631642521856,3.2425629215442426,3.1906254448879743,3.1686091224486788,3.1757233195677905,3.2132295133972204,3.2843275902793416,3.3944763076294544,3.552171497535869,3.7703822038181123,4.069121531181707,4.480194585728691,5.056504842981371,5.891873493070856,7.168284317543712,9.288001240214813,13.346618968711802,23.810611021988926,49.69709179148385,80.6935493565428,128.1620594050188,185.13681459481995,245.93301710229898,301.86873969590215,347.5388695378302,380.11629830101975
I0,69.59700864797075,45.19574784557487,31.645053827847246,23.767437607684915,18.955789115292276,15.862376135627573,13.769000043108294,12.280287442409037,11.171158923212909,10.30912415445751,9.613625088237706,9.034147388325673,8.538084630483556,8.103810438116986,7.716610831879999,7.366231839207726,7.04536408085674,6.748684715212477,6.472238717356559,6.213031219135342,5.968753749698221,5.737597014812454,5.518120600988007,5.3091607667526395,5.109764142066078,4.919139337637945,4.736621130496836,4.561643614900426,4.393719837177348,4.2324261839892525,4.077390299683041,3.928281654401858,3.784804124433059,3.646686209460708,3.5136844099198354,3.3855759433567254,3.262154926090173,3.1432298437221786,3.0286216192993245,2.9181620458604085,2.8116924882128975,2.709062800901785,2.61013042404558,2.514759625987827,2.422820866903563,2.3341902618538306,2.248749125525482,2.1663835840701453,2.0869842421068734,2.0104458951381132,1.9446482368704414,1.8927335224749986,1.8558774195594478,1.8346354956059656,1.8296242402822247,1.8419174139220265,1.8733604146370104,1.9269330586723243,2.007284711196852,2.1216215866909884,2.2812830176536467,2.504730372135704,2.823684947995816,3.29714923096275,4.048673733292258,5.391795389533644,8.487191171605916,16.004272355492507,27.360711315468293,44.65613173332659,67.68047197919536,95.07328256454633,124.11422520883153,151.9517111147882
A0,8.026773073331567,7.527089033677137,7.2508798789737,7.057993497136283,6.889806061795504,6.723601213222064,6.552036013360222,6.374055683842527,6.1909315732990375,6.004581783443647,5.816899425907999,5.6295176841734715,5.443757645323892,5.260647172436713,5.080962772545472,4.9052746950029436,4.7339878689757455,4.5673765528283905,4.405612685277695,4.248788678035412,4.096935566100847,3.950037384683694,3.8080425214759392,3.670872661585638,3.538429823034796,3.4106018799585414,3.287266888562668,3.168296465220052,3.0535584140039003,2.942918759823505,2.8362433108893312,2.7333988486476524,2.6342540231223204,2.5386795652172047,2.446549566100834,2.357741556142145,2.272136655342242,2.189619690179015,2.110079257050979,2.033407736732535,1.9595012694951157,1.8882597003128803,1.819586502051735,1.7533886829528038,1.6895766833624357,1.628064265560943,1.5687683996666508,1.5116091478975682,1.45650954892287,1.4033955036007604,1.353116124086622,1.3062417758892095,1.2632010677863603,1.2243627893771014,1.1900927384471631,1.1608023955747113,1.137001047821315,1.119362467078548,1.1088212081784443,1.1067240864918177,1.1150860289181583,1.1370543450270416,1.1778243983689054,1.2466491797719383,1.3619594434615727,1.5678153572172335,2.0156681001219052,3.067930036069016,4.795658794283501,7.5469358587269095,11.463382795766467,16.531449717954104,22.522098524011636,29.092763406651105
IH0,0.0,13.919401335109542,21.042081377312478,24.473948517391126,25.857781625412034,26.088754337270124,25.669243382880737,24.888816879288626,23.91809956943786,22.85920813584246,21.773701432540992,20.698551077567792,19.655535447193298,18.6569131140599,17.708929574737304,16.81402762935938,15.97226295079323,15.182221670873997,14.44162001919513,13.747697657461233,13.097475326280687,12.487922266403874,11.916063144714903,11.37904419912443,10.874171834670118,10.3989326454614,9.95100100180042,9.528238429797067,9.128687706582857,8.750563695483775,8.392242320689407,8.052248643396627,7.729244693291573,7.422017491503115,7.129466766046301,6.850595034115069,6.58449759314984,6.330353126300339,6.0874150954615605,5.8550039329773345,5.632499994925532,5.419337224973605,5.214997474209246,5.019005422202789,4.83092404588485,4.65035058500521,4.476912955691573,4.310266566749405,4.150091496671937,3.9960899927293227,3.8479842568746734,3.707110677912792,3.575250097228723,3.454173297583126,3.3455183679954077,3.2508211578941943,3.171620807933397,3.109613624396609,3.06685832373302,3.0460600445009574,3.0509927156790457,3.0871785256420536,3.1630716230877933,3.29230642091688,3.49844059772193,3.826498434645136,4.378012505833162,5.472671432197988,7.920030286722824,12.301716397208835,19.539201439330036,30.385073492162046,45.216211925819074,63.813538469989346
IN0,12.6574373279374,23.54486916989616,28.472014141538665,30.24571976910503,30.338709132124478,29.54361222580143,28.297109573827765,26.844199636247986,25.32371490261109,23.81413900232969,22.358884787818976,20.98064339973312,19.689745950049307,18.489148806223664,17.377461783662756,16.350813104679407,15.40400755290096,14.531247067799914,13.726576332646122,12.984153526552081,12.29840907466563,11.664132410905902,11.07651255850362,10.531149339201086,10.024046245192272,9.551592249919862,9.110537361740583,8.697965082662847,8.311263835453419,7.948098682592289,7.606384160756833,7.284258716667524,6.980061002449156,6.692308136435063,6.419675224798059,6.160978361090574,5.915158678457234,5.681267937540831,5.458455669731494,5.245957766954428,5.043086381983501,4.849221004981833,4.663800591105157,4.486316624536474,4.316307014703207,4.153350730302931,3.9970630860495096,3.8470916057196707,3.7031123931138032,3.564826949937161,3.4319593863637023,3.305705453346036,3.1876651632641475,3.079428599885771,2.9824645306857596,2.898148451383878,2.8278587916842235,2.773116840860089,2.735773084235508,2.7182648054533343,2.7239990370029505,2.7579686313904848,2.8278257685337924,2.9459216285577767,3.1336108502731754,3.4317316863467697,3.9324337958015434,4.926070181335768,7.147870407777849,11.124343652858123,17.69022590098117,27.525320958638943,40.96694782165058,57.81051382513673
D0,280.0,280.0,280.0274746432641,280.06900830304284,280.1173159125866,280.16835498450183,280.2198499591322,280.27051688710026,280.3196433795809,280.3668538333501,280.41197420697193,280.45495196621573,280.4958075528354,280.53460439557136,280.57143011960056,280.60638467769843,280.63957284433206,280.67109950385776,280.70106674988523,280.72957216823124,280.756707896252,280.7825601907284,280.80720932621347,280.83072970443465,280.85319009425535,280.874653947819,280.8951797562129,280.914821420108,280.9336286191744,280.9516471698412,280.9689193649669,280.9854842917476,281.001378126089,281.01663440296016,281.03128426310644,281.0453566755145,281.0588786403015,281.0718753718483,281.0843704633895,281.0963860346143,281.1079428638554,281.1190605063689,281.12975740010734,281.1400509602812,281.1499576638955,281.1594931253426,281.1686721640311,281.1775088649366,281.1860166328674,281.19420824115855,281.20209587542945,281.20969117297125,281.21700840888997,281.2240653733841,281.23088335189044,281.23748686316804,281.24390345749407,281.2501637231599,281.2563015966907,281.26235507818444,281.26836750724436,281.2743896725981,281.2804832628785,281.2867266538384,281.29322513335296,281.30013048833837,281.3076833763478,281.3163248637874,281.3271270306106,281.34275988733555,281.3670414826005,281.40560870085125,281.46558391348094,281.554833390704
R0,0.0,2.520603611310791,8.405964882322621,15.921120338665359,24.132009038682586,32.527973043825504,40.8285544282442,48.881850936624126,56.60941919658116,63.97550433551338,70.9693641325399,77.59485833185782,83.86418990863336,89.79408560135143,95.40344528624054,100.71189462290872,105.73890268097196,110.50325745631605,115.02276991996862,119.31412440545155,123.39282236845297,127.27318500837144,130.96839208774898,134.4905419988947,137.8507232109391,141.05909061586516,144.1249425646284,147.0567959188942,149.86245748312777,152.5490908854444,155.12327845003057,157.59107792062878,159.9580741022451,162.22942562036178,164.40990703461287,166.50394654128854,168.5156599599641,170.44888114576366,172.30718912224748,174.09393225430793,175.81224976716302,177.46509089438572,179.0552319130854,180.58529130018428,182.0577432208631,183.47492953888556,184.83907051872166,186.1522743711902,187.41654577771195,188.63379351316004,189.80583727364333,190.93449987726015,192.022006051461,193.0710860251259,194.08496718130496,195.0673388048814,196.0223294365268,196.95451687569954,197.86898486814772,198.77144270918964,199.6684335779373,200.56767766747433,201.4786370911274,202.41347717263346,203.38880599743467,204.42913835932026,205.5749302070798,206.90746502796614,208.62590364379446,211.14872978662305,215.07953586316538,221.27693879028115,230.79548493995435,244.766619423559
G0,55155.0,55157.17557786065,55160.8836730076,55165.090275727365,55169.354640227546,55173.49982785493,55177.463778356745,55181.23299996624,55184.813314634805,55188.217182871784,55191.45840371254,55194.550057400316,55197.50384230493,55200.32998550871,55203.03736807998,55205.6337123027,55208.12576939483,55210.5194858973,55212.82014354726,55215.032473943,55217.160751437164,55219.208868028916,55221.18039368743,55223.07862500673,55224.90662455719,55226.66725282883,55228.36319427215,55229.996978627765,55231.570998487376,55233.08752383118,55234.548714132885,55235.956628501466,55237.313234233414,55238.62041016857,55239.87995947038,55241.09361303482,55242.26303358325,55243.38981958601,55244.47550881776,55245.52158153948,55246.52946335112,55247.500527764765,55248.43609854237,55249.33745183515,55250.20581815461,55251.042384200104,55251.84829456297,55252.624653323954,55253.37252555752,55254.09293875448,55254.794865129676,55255.485548458666,55256.17146585473,55256.858923280306,55257.554499773214,55258.265467059326,55259.00027853652,55259.769226718454,55260.5854115628,55261.46626531821,55262.43610517076,55263.53070046511,55264.80613027299,55266.35786818806,55268.36846696473,55271.25764571019,55276.41199314773,55287.17005716769,55304.638008282775,55332.3815962938,55372.45866382563,55425.696449926065,55491.042793347915,55566.2754734331
H0,33837.83294560588,33761.697821478265,33640.15570932094,33519.05114876739,33398.38256463182,33278.148387399146,33158.34705320451,33038.97700381297,32920.03668659925,32801.52455452749,32683.439066131188,32565.778685493115,32448.541882225338,32331.727131449326,32215.33291377611,32099.357715286515,31983.800027511483,31868.65834741244,31753.931177361756,31639.617025123254,31525.71440383281,31412.22183197901,31299.137833383887,31186.460937183707,31074.189677809845,30962.32259496973,30850.858233627838,30739.79514398678,30629.131881468427,30518.86700669514,30408.999085471038,30299.52668876334,30190.448392683793,30081.762778470133,29973.468432467642,29865.563946110757,29758.047915904757,29650.9189434075,29544.175635211235,29437.816602924475,29331.840463153945,29226.24583748659,29121.031352471637,29016.195639602738,28911.737335300168,28807.655080893088,28703.947522601873,28600.613311520505,26872.931861157325,25183.447877276234,23533.639781427715,21925.10668457222,20359.57537756702,18838.906225354836,17365.0972234063,15940.285211213097,14566.742909263054,13246.870052028658,11983.176441611453,10778.254278769797,9634.736710524361,8555.239290617446,7542.281175843762,6598.183650820651,5724.945317484406,5282.970048352072,5263.951356178004,5245.001131295763,5226.119127223098,5207.305098365095,5188.55880001098,5169.87998833094,5151.268420372949,5132.723854059606
S1,48413.28114256126,45333.900836572255,42702.7393138803,40257.745121643355,37985.425841448254,35873.364605174116,33910.079607846405,32084.93017903488,30388.045071605073,28810.26248086432,27343.07717465444,25978.59261486446,24709.47702487339,23528.922825466925,22430.60907117722,21408.66661738682,20457.64579882815,19572.48642919857,18748.489951049745,17981.293579891655,17266.84629875913,16601.386570297058,15981.421643181558,15403.708338634138,14865.235211028392,14363.205984213928,13895.024172246982,13458.27879976827,13050.731143345907,12670.302420740132,12315.06236027957,11983.203926369184,11673.083662314653,11383.152058253238,11111.972645280815,10858.21237477604,10620.633696978775,10398.087553439309,10189.506990149473,9993.901268570131,9810.350411904017,9638.0001461375,9476.057204382145,9323.784967414562,9180.499415986542,9045.565372480407,8918.393011177663,8798.434617922909,8784.128701667114,8772.038418547592,8761.869598080704,8753.330987702197,8746.13368327183,8739.990550323753,8734.615695204477,8729.72403988966,8725.031054374425,8720.252696858095,8715.105589618166,8709.307383940311,8702.577052833443,8694.634234768511,8685.194834975722,8673.953058837247,8660.506130556221,8624.013856056783,8563.036973519247,8501.012308281392,8433.632315997967,8359.56055858455,8276.596508339077,8185.016579447968,8085.555311756807,7979.7915444671735
E1,0.0,2.715996052875176,3.7868266840722984,4.129630701193695,4.14139717065786,4.001526275667195,3.793618603486697,3.5581470691099324,3.3155391081759347,3.07649164862011,2.8467162169766675,2.629213744225145,2.425426180391607,2.2358584182692733,2.0604374829287093,1.8987328603651439,1.7500980676860758,1.613764399463657,1.4889039245296178,1.3746718639067177,1.2702347638775313,1.1747887375607668,1.0875707255521234,1.0078648591364585,0.9350054158901231,0.8683774388978256,0.8074157903004325,0.7516031919710028,0.7004676473349574,0.653579522519036,0.610548480622472,0.5710204016145667,0.5346729504906561,0.5012165752458846,0.470388601062667,0.44195123820846427,0.4156893958919385,0.3914085702266077,0.36893288263854473,0.34810328399533774,0.3287759204744119,0.31082065129140635,0.29411970683181266,0.27856647560087605,0.26406440880354065,0.2505260319739179,0.2378720537712325,0.22603056278963052,0.21493630396049385,0.20677533875595186,0.20097754084697483,0.1972573134485062,0.19550387838427957,0.19573461320641874,0.19808457807848817,0.20282191325646698,0.21038952701188318,0.22148377457363227,0.23719639129973524,0.25927741330326204,0.2906511139591875,0.3365151154652607,0.40696027949404556,0.5242955611417336,0.7492682365082262,1.329439113631613,2.762182871749177,4.4718449363747705,7.082856903735009,10.207007724338704,13.529648246088056,16.574673571862974,19.048429828651496,20.799806421201257
I1,0.0,0.0,0.5879390193975081,1.1831688163896348,1.6253073872988322,1.901154708160637,2.0413866591256475,2.08306224285722,2.0578501132344673,1.9897476754051042,1.8959040973380674,1.7881562259861625,1.6744704202989393,1.5600830881369712,1.4483403186691843,1.341294641135765,1.240121595947611,1.1454078768855553,1.0573497346727858,0.975889253749396,0.9008077630354905,0.8317896748562159,0.7684658946567846,0.7104430915777151,0.6573231690092022,0.6087159397799774,0.5642470951464985,0.5235629258027505,0.4863328159494714,0.45225022685372285,0.42103267296739677,0.392421043518669,0.3661785164075461,0.3420889274761729,0.3199559785359652,0.29960146937624443,0.2808637736756283,0.26359642367291547,0.24766677810799564,0.2329547742016942,0.21935176745694007,0.20675946075730178,0.195088921536682,0.18425968378212826,0.1741989303603843,0.1648407504588466,0.15612546663047294,0.14799902589704342,0.14041244950156737,0.13332133614323616,0.1271714625827206,0.12211496111443737,0.11818404573804463,0.11537464852055514,0.11368801670631458,0.11315415809683108,0.11384966653542114,0.11591776471543382,0.1195977251341184,0.12527378079712728,0.13356227365226228,0.1454772100375757,0.16277052353288118,0.18870953729539205,0.23014316973087984,0.3044550869408862,0.47598085558350745,0.8921564210831783,1.5195032223162313,2.472499472370605,3.737870773420149,5.239298835417026,6.826545130006246,8.343174297467783
A1,0.0,0.0,0.06780827482875564,0.15601031512569863,0.2445229581105316,0.3250523879105607,0.39455931079407597,0.452375837248034,0.49890699080631923,0.5350299172703467,0.561806801273096,0.5803430961138034,0.5917158041818469,0.5969372155227328,0.5969375643884995,0.592558275225768,0.5845513410269187,0.5735822942914754,0.5602352406636896,0.5450189946601551,0.5283736996530234,0.5106775321828423,0.4922532347629416,0.47337431892555054,0.45427084707544585,0.4351347474623144,0.416124647599931,0.3973702320741568,0.37897614392739865,0.3610254568500054,0.3435827498079354,0.326696817616612,0.31040305114544564,0.29472548429852,0.27967867449407435,0.2652692598508586,0.25149732102381517,0.2383575611121881,0.22584032250262537,0.21393245965180485,0.2026180854173813,0.1918792068000081,0.18169626422918358,0.17204858691805824,0.1629147753518583,0.1542730206605757,0.14610136945061802,0.13837794162153447,0.13108110776164542,0.12418963188955387,0.11773884162715904,0.11174652712177016,0.10622168464694763,0.10116970350116718,0.09659590287237424,0.09250847648930757,0.08892154633070751,0.08585897156833103,0.08335976564803202,0.0814865503508079,0.08033978344503835,0.0800835368922321,0.08099630519548116,0.08358247144899911,0.08885622423335449,0.09925354605356712,0.12316329478869409,0.180607458597589,0.2753637890163193,0.42644649733680307,0.6413995618271996,0.9192058958100761,1.2470569616155642,1.6060105310333652
IH1,0.0,0.0,0.0,0.11758780054698924,0.338031679340316,0.6165518265642058,0.9118938601912299,1.194618613984061,1.4467520039250803,1.6591284080027746,1.8286436382901972,1.9560507352304684,2.0443664274882303,2.0977853622802574,2.120971935446131,2.118617551174637,2.095178191426389,2.054731431884934,2.0009107728634152,1.9368886924628388,1.8653892883817613,1.788717861311853,1.7087991929782336,1.6272192358752142,1.5452669171360476,1.4639740808182171,1.3841524658403175,1.3064271864719228,1.2312665473206716,1.159008252107026,1.0898822006400388,1.024030142253705,0.961522487611408,0.902372588584571,0.8465487258843986,0.7939842878022123,0.7445861939088481,0.6982418541335097,0.654824886627787,0.6141997819634096,0.5762256755437846,0.5407593685776606,0.5076577189348482,0.4767795062549507,0.44798686066231574,0.4211463312360967,0.39612965885801243,0.37281430806085436,0.35108380387098487,0.3308279122237301,0.311942696185577,0.29442768455381946,0.2783128974605212,0.263630664566299,0.2504080506904602,0.23866864372722496,0.2284387854715562,0.219756509661083,0.2126832579603448,0.20731986704013308,0.20383013664343086,0.20247858240824151,0.203696101845432,0.20820465177566302,0.21728025222664726,0.23339302020540004,0.26214971195124803,0.3212522399043405,0.45545244682834063,0.6966448815418693,1.09522838773023,1.692007849891399,2.506906343320903,3.527056163511713
IN1,0.0,0.0,0.0,0.10692702797492881,0.30715445330226,0.5597929002366102,0.8272702732603993,1.0828474744901473,1.3102644091581515,1.5012942810334422,1.6532250714514012,1.766842885309944,1.844976637587528,1.891508472320509,1.9107299904181698,1.9069412039290439,1.8842141032614648,1.8462650477314564,1.7963974046253615,1.7374882927394208,1.672001964014599,1.602018302281215,1.5292689469916547,1.455176260258853,1.3808921681443462,1.3073351114749652,1.235224134693641,1.1651096570542538,1.0974007993967188,1.0323893431588762,0.9702705178576976,0.9111608773231755,0.8551135527540685,0.8021311752718898,0.7521766948189058,0.7051825421162926,0.6610581878814454,0.6196963677883813,0.5809781795324316,0.5447772248673353,0.5109629454489517,0.47940328119485226,0.4499667621388982,0.42252412901768044,0.39694956391895486,0.373121600128961,0.3509237697000573,0.33024503807434546,0.31098006719133237,0.2930293417306551,0.2762991873556875,0.2607901013974872,0.2465301795681456,0.23354944737992991,0.22187299177749936,0.21152261840135314,0.20252254105468653,0.19490751743713272,0.18873349232067102,0.18409210310943405,0.18113205222403272,0.1800933402614498,0.18136682118183184,0.18560731211816228,0.19397228117326146,0.20870293307378196,0.23488858907882632,0.28860743577757764,0.41050311346514745,0.6294470258239031,0.9910930954512345,1.5322968562739467,2.270880174776377,3.1948492096844587
D1,0.0,0.0,0.0,0.0,0.00023209926881640473,0.0008993190420131708,0.002116292464998375,0.003916223216351921,0.006274206829706161,0.009129860908680912,0.012404711603894714,0.016014157901883083,0.019875085169022165,0.02391033330535592,0.028051021764992825,0.032237476763787055,0.036419284589444406,0.04055482691618277,0.04461053389204378,0.04856000760605277,0.05238311210505854,0.056065088363457444,0.059595727645747804,0.06296862042373476,0.06618048758251968,0.06923059414055616,0.0721202418093064,0.07485233454135459,0.07743101016358324,0.07986133086030406,0.08214902538826424,0.08430027628918982,0.08632154589502844,0.08821943551697062,0.09000057282063803,0.09167152286291483,0.0932387192199635,0.09470841174225857,0.0960866280457146,0.09737914628895158,0.09859147715693084,0.09972885329072038,0.10079622468017282,0.10179825877576505,0.10273934428186056,0.10362359777002347,0.1044548724013195,0.1052367681740931,0.10597264322152745,0.10666562577407698,0.10731862647801056,0.10793435082492832,0.10851550337635257,0.109064847948683,0.1095852121718319,0.11007947709728028,0.11055057033519108,0.1110014714901631,0.11143523523923161,0.11185503753532407,0.11226425336662028,0.11266658103545685,0.11306624095518768,0.1134683040610469,0.1138792663140741,0.1143081423321258,0.11476882234386629,0.11528626340647041,0.11592036328452394,0.11681935263033842,0.11819441676861138,0.12035622017675979,0.12369596956372514,0.1286441965615035
R1,0.0,0.0,0.0,0.006340874907448506,0.051840047740747866,0.16353215755258996,0.3558812929740148,0.6322146717724664,0.9880627092410901,1.4142806435798208,1.8994114464192744,2.4312969020648465,2.998094290743071,3.5888665969012092,4.193883595218668,4.804735184866885,5.414327926238722,6.0168128426680205,6.607476250879736,7.182614128920904,7.73940290423529,8.275774447674687,8.790299694430415,9.2820831220646,9.750668915409827,10.195958776854935,10.618140821361443,11.01762870867461,11.395010029678934,11.751002925108843,12.086419936137585,12.402138143149772,12.69907472493974,12.978167154982899,13.240357334117949,13.48657903881703,13.717748177623273,13.934755375186528,14.138460481540665,14.329688665205298,14.509227800097834,14.677826900669885,14.836195398210585,14.9850030845645,15.124880578164962,15.256420191817591,15.38017710258275,15.496670741860955,15.606386338801029,15.709776562802292,15.807263221502547,15.89924422152198,15.986119138669448,16.068296392908962,16.14619349435145,16.22023563160458,16.29085500986977,16.358492115789492,16.423599689146958,16.48665027942977,16.548148790991714,16.608652545774344,16.668803667147692,16.72938345457484,16.79140991876004,16.85633093640426,16.926470803835436,17.00641085109506,17.107255378123607,17.252218771072233,17.474659214972846,17.82186415299192,18.3517173752131,19.126100867119128
G1,0.0,0.0,0.5879390193975081,1.4076836449115528,2.301635984188112,3.198135442968475,4.064356670395737,4.88557156109522,5.6558132911853765,6.373537019086772,7.0395134961731545,7.655749863431663,8.224902881503898,8.749941453857826,9.23394377947141,9.679972260242053,10.090996103534883,10.469844570812871,10.819180519793676,11.141487583693255,11.439066524135038,11.714037682759583,11.968347381637654,12.203776761304702,12.421951996257127,12.624355150255768,12.81233516567296,12.9871186479585,13.149820225965462,13.301452354170443,13.442934483042224,13.575101565763795,13.698711898196288,13.81445399946962,13.922953708607226,14.02478000270356,14.120450383865833,14.210435792915277,14.295165065890178,14.375028965917712,14.450383826328725,14.521554840027589,14.588839027990716,14.652507917287192,14.712809956507176,14.76997269406174,14.824204742527485,14.875697550069779,14.92462699799726,14.97115484167718,15.015916059122642,15.059422211556628,15.10212303629278,15.144444290192975,15.18681549188486,15.229695396835364,15.273600805558656,15.319144396121656,15.367089588493135,15.418436133550799,15.474562617228148,15.537480650833926,15.610326989027104,15.698422782614939,15.811918462318088,15.974114586193895,16.26190187071142,16.859839075846025,17.827871457191584,19.361116668688297,21.570655267272663,24.499454855982453,28.087419321674105,32.21088450221585
H1,9667.95227017311,9053.519375002643,8528.381531802634,8040.315982941715,7586.676282581441,7165.005011058299,6773.020273034486,6408.603160066416,6069.78610870397,5754.742090154015,5461.774572110742,5189.308197598048,4935.8801296088195,4700.132013984201,4480.802516372833,4276.720392264368,4086.7980520205156,3910.025585546663,3745.465213772586,3592.2461364559035,3449.5597479994967,3316.6551949961877,3192.8352510915843,3077.45248649951,2969.9057111234065,2869.6366717404217,2776.126985100854,2688.8952900918534,2607.494603317931,2531.509863568508,2460.5556516805746,2394.274073268229,2332.332792685761,2274.4232074218685,2220.2587528942277,2169.5733283300947,2122.1198350839436,2077.6688193609193,2036.0072118885491,1996.9371576118417,1960.274928981524,1925.8499168644837,1893.5036935319722,1863.0891425771579,1834.4696509813593,1807.5183588897714,1782.1174629745742,1758.157569557757,1636.589973622567,1520.2821392496635,1409.0019535760873,1302.5517021530673,1200.766005012709,1103.509893632795,1010.6769720501414,922.1875926188889,837.9869606601029,758.0430625032066,682.3442888604469,610.8966020013667,543.7200746669861,480.8446178254535,422.30472372420957,368.1330948348009,318.3531257565925,292.86476081367465,290.96454150105103,289.1315848475025,287.3613328596314,285.6495522276609,283.9923111369423,282.3859577357717,280.82710014120795,279.31258787303574
S2,48413.28114256126,51293.89078602737,53920.58606684675,56328.23125118126,58532.65007948482,60548.55778020593,62389.62806378742,64068.5613731894,65597.15138129299,66986.34831349217,68246.31852684003,69386.50021295526,70415.65530357705,71341.91775341284,72172.83841251752,72915.4267097054,73576.18936445913,74161.166334896,74675.96419718314,75125.78713907323,75515.46573774527,75849.48368022476,76132.00257345015,76366.88498058035,76557.71581038408,76707.8221774835,76820.29184279947,76897.99033572264,76943.57685227,76959.51901674327,76948.10658814441,76911.40032100001,76851.45952375393,76770.09683778114,76669.00319873984,76549.75055408302,76413.7982532909,76262.50035281052,76097.11288577685,75918.8007851564,75728.64437358716,75527.64541123553,75316.73271914512,75096.76740338787,74868.54770675424,74632.81351396165,74390.25053491544,74141.49418894957,74728.67517164121,75291.3506885329,75829.06918156844,76341.30549446496,76827.45792189275,77286.84561981048,77718.70680332082,78122.1982138168,78496.39642592716,78840.30164403192,79152.8446299547,79432.89712539595,79679.28510734791,79890.80104120179,80066.20118021034,80204.136680656,80302.78751979441,80172.67489678576,79807.77855385699,79425.31212458148,79000.8344746168,78525.78336158204,77985.85801204416,77381.60067366289,76716.64913033828,76000.29739411964
E2,0.0,0.9505986185063113,1.4048361863191967,1.6212176325202012,1.723828413437908,1.7714599689779205,1.7916729015128245,1.7972722563628198,1.7941866651570875,1.7851931689263767,1.7716549921731557,1.7543187076213262,1.733671313678871,1.7100944294709521,1.683926893228247,1.6554873283891824,1.6250801628994318,1.5929955222266567,1.5595074216328844,1.5248719884964723,1.4893262739077537,1.4530877328847551,1.4163542788959615,1.3793047745198608,1.3420998268392652,1.3048827791519515,1.2677808156670751,1.23090611792329,1.194357029398356,1.1582191983649908,1.1225666791528934,1.0874629793411048,1.0529589329202411,1.0191019572264965,0.9859301467833597,0.95347416822121,0.9217583157893603,0.8908012683418047,0.8606167205661152,0.8312139431613856,0.8025982898917143,0.7747716584891179,0.7477329093332269,0.7214782450552998,0.696001554003318,0.6712947203923931,0.6473479038419376,0.6241497908563922,0.6016878206481648,0.5866335029183509,0.5775551682338028,0.5738233059035196,0.5753043391163375,0.5822341308004275,0.5951973707313692,0.6151854495602402,0.6437369878986592,0.6831970910579496,0.7371813169862043,0.8114323815343888,0.9154991454659704,1.0663119258649911,1.2967045976546756,1.6792447366122254,2.411554259392495,4.29922576347351,8.967409026191584,14.55469448665757,23.109417387202164,33.379281852425095,44.346380599226286,54.45423641573966,62.73386318825073,68.67615246775257
I2,0.0,0.0,0.2057786567891278,0.4313071597937963,0.6175543251088009,0.7548921766674364,0.8500960921436556,0.913320270607722,0.9536132949155169,0.9778517747650833,0.9908875193988612,0.9960146904859484,0.9954311288929794,0.9906008132598467,0.9825112864261392,0.9718463299033365,0.9590975845158918,0.9446348497564633,0.9287495149397303,0.9116810140845377,0.8936327937164283,0.8747819258275547,0.8552849374400998,0.835281425851333,0.8148963995483187,0.7942418973844407,0.7734182041232543,0.7525148409422182,0.7316114280281614,0.7107784698817345,0.6900780881366808,0.6695647129323845,0.6492857369622493,0.6292814593598997,0.609587054886988,0.5902325126300181,0.5712430083052377,0.5526393628819262,0.5344384899390894,0.5166538088349804,0.4992956213638271,0.48237145434282214,0.46588637114916104,0.44984325492392563,0.4342430658035046,0.41908507427350306,0.4043670725514663,0.39008556576157044,0.37623594454461795,0.36281264063838137,0.3512564118880238,0.3421479201223469,0.3357098193807757,0.33205082361787014,0.33128919034420234,0.333624587744217,0.33939504622196265,0.3491425827115444,0.36370988676875604,0.38440052177807515,0.4132634038269941,0.4536321021956956,0.5112321558350454,0.5967103440124572,0.7323566861726253,0.9747291181903548,1.5331767467535578,2.8889056221946867,4.936420455334313,8.05391985980567,12.204092795183655,17.143526950702555,22.38482644017077,27.416956999055557
A2,0.0,0.0,0.023732896190064467,0.056587101257744715,0.09177128629035539,0.12622714215096362,0.15865015036059013,0.18854586561038886,0.21578577321381678,0.24040139190920642,0.2624906254003063,0.28217625686074654,0.29958822691845405,0.31485648374817243,0.3281083514387368,0.3394677072970005,0.3490547994748344,0.3569862319295779,0.3633749481198427,0.368330171093747,0.3719573047976277,0.3743578149435374,0.3756291080399668,0.37586442309585266,0.37515274570147733,0.37357875000184376,0.37122277085553534,0.36816080617719366,0.3644645479323875,0.36020143931004595,0.35543475508143496,0.3502237019390185,0.3446235355969313,0.3386856138419812,0.3324576757348141,0.3259839472477644,0.3193052843333807,0.3124593289665464,0.3054806694939247,0.29840100174826295,0.29124928908215625,0.2840519200959946,0.27683286312350724,0.2696138167239507,0.2624143555787936,0.2552520713203777,0.24814270793473187,0.24110029148162218,0.23413725396277874,0.22726455124493472,0.2206586773651663,0.2144438786454467,0.20871706637838794,0.20356275459170659,0.19906344286908736,0.19530851362771004,0.1924037422934703,0.19048342664870188,0.18972785456486305,0.19039072184188502,0.19284537488553094,0.19766864718117744,0.20580611823565664,0.21893468389281034,0.24038617168520465,0.27811472487164457,0.3594433179002541,0.5497138228544485,0.8616854319605157,1.358063480895435,2.0644244659422815,2.9785398366856963,4.059530017324481,5.2461461921688155
IH2,0.0,0.0,0.0,0.04115573019144622,0.12175070248311456,0.22849852410198754,0.34801652167194197,0.4701196681011789,0.5880560843127138,0.6978132288200155,0.797306342036817,0.8857080628014807,0.9629637760921063,1.0294659546247384,1.0858458298918614,1.1328452319060336,1.171240609365491,1.2017998351025445,1.225259018571532,1.2423111971007321,1.2536018751464444,1.259728371277754,1.2612411776625259,1.258646298287515,1.252407988293581,1.2429515843330856,1.2306662690696077,1.215907698160946,1.199000463651143,1.1802403907136263,1.159896675232034,1.1382138736356835,1.1154137570424085,1.091697040926544,1.0672448654177338,1.0422204656248468,1.0167705997235312,0.9910268548809205,0.9651068651009561,0.9391154508640706,0.9131456844914055,0.8872798841575007,0.8615905395614194,0.8361411724558147,0.8109871353362779,0.7861763516107769,0.7617500005308946,0.7377431500960097,0.7141853410520719,0.6911011250054893,0.6685105595637816,0.6467190922975095,0.6261062481066803,0.6070438284528721,0.5898741867314865,0.5749161914901666,0.5624847420347211,0.5529189873706213,0.5466197847289019,0.5441013378959488,0.5460677660475287,0.5535360261054415,0.5680497708319224,0.5920852255227249,0.6299070363678523,0.6896506827098369,0.7896431110085949,0.9875577731956416,1.429368656690476,2.219852509685281,3.5249997912897246,5.480484636642517,8.154618655890115,11.508828916000382
IN2,0.0,0.0,0.0,0.03742445979122507,0.11063183021913703,0.20747425830794636,0.3157516203149702,0.42620206895890317,0.5327056452518103,0.6316438437487343,0.7211547999361356,0.8005193975336573,0.8697181819884838,0.9291341351860956,0.9793629333502416,1.0210965558330596,1.0550545738378756,1.0819453478420646,1.102445436311335,1.1171897825997061,1.12676808538977,1.1317245807126568,1.1325596027355997,1.1297319864986721,1.1236617921505778,1.1147330739659977,1.1032965566215234,1.0896721582913742,1.0741513410559986,1.056999289509618,1.0384569275345024,1.0187427863272562,0.9980547369400976,0.976571599495181,0.9544545171624542,0.9318484961329538,0.9088837190944611,0.885676742741994,0.8623316112381244,0.8389408953275963,0.815586661285151,0.7923413728681308,0.7692687294462386,0.7464244435864079,0.7238569614064483,0.7016081289770857,0.6797138079743998,0.6582044436835962,0.6371055883420756,0.6164383826908024,0.5962199984809459,0.5767272332772178,0.5583037810467544,0.541285767423053,0.5259820860515587,0.5126799423513094,0.5016626923380973,0.4932355445194597,0.4877596025905431,0.4856987316901875,0.4876890063195647,0.49465018419716017,0.5079796729606125,0.5299207576596214,0.5643393278743739,0.6186145015951007,0.7093795602340692,0.8890156097551233,1.290094590497959,2.0074635235693603,3.1914881563102604,4.964721547838569,7.388310239461569,10.426208596269731
D2,0.0,0.0,0.0,0.0,8.123474408574163e-05,0.0003215509069254594,0.0007725699762761605,0.0014594982106707478,0.002387438275158061,0.003548165719307143,0.004925535985832526,0.00649928953976075,0.00824753376921948,0.01014826826113089,0.012180267279977251,0.01432355103894621,0.016559604003492226,0.018871443223013807,0.021243601403483477,0.02366206421168539,0.02611418525781627,0.028588592273296527,0.03107509199963513,0.03356457776069956,0.036048941650253456,0.03852099212649827,0.04097437719328177,0.04340351303798129,0.04580351785462567,0.04817015052935415,0.05049975385927403,0.05278920199055662,0.05503585178414606,0.05723749784124573,0.05939233094288904,0.061498899411380224,0.06355607376868402,0.06556301421362877,0.06751914067679333,0.06942410527922342,0.07127776704061198,0.07308016869033598,0.07483151544051324,0.07653215558618401,0.07818256280403765,0.07978332002762262,0.08133510478353097,0.0828386758795263,0.08429486134192186,0.08570454750567777,0.08706866916664778,0.0883882007111535,0.08966471942953771,0.090900551732812,0.0920987579078405,0.09326307399162795,0.09439786541603475,0.09550811917313663,0.09659949168020335,0.09767843058173897,0.09875239847721987,0.09983024778330661,0.10092283822487433,0.1020440764472759,0.10321275676344445,0.10445609120701084,0.10581734992986383,0.10737597750720139,0.10932525656511752,0.11214659873278884,0.1165282279662766,0.12348600649713179,0.13430359532018285,0.15039949148206722
R2,0.0,0.0,0.0,0.0022193062176069766,0.018329496550961846,0.05890458283891533,0.1307307538758942,0.23694999987047355,0.37798070088365904,0.5524571154157778,0.7579659006634296,0.9915595857686631,1.250089340182093,1.5304083520540805,1.829488779358103,2.144483649334557,2.4727550123920574,2.8118821592436483,3.159658548606729,3.5140827071450653,3.873346216848364,4.2358205802629545,4.600043955479677,4.9647082825640725,5.328647053174942,5.690823824857055,6.050321501231074,6.406332358997002,6.75814878449076,7.105154676123965,7.446817468514473,7.782680736245437,8.112357338269998,8.43552306716813,8.751910763127901,9.061304847061834,9.363536305629015,9.658478067116151,9.946040736595632,10.226168667056672,10.498836345571364,10.764045074502658,11.021819928487004,11.272206968688923,11.515270696647155,11.751091730887213,11.979764690340216,12.20139626946745,12.41610349083556,12.62401212171291,12.825255242060031,13.019987559406074,13.208455559049106,13.391014355640422,13.568124427400557,13.7403436232649,13.908321586530125,14.072800210833137,14.234622654076624,14.394753829773052,14.554317023829343,14.714654938223502,14.877430844521408,15.04480133776867,15.219729568929086,15.406609609875105,15.612715290186674,15.852688584863156,16.162433470010537,16.617395859593245,17.32636788309229,18.444086873199044,20.16063174990362,22.68007992385456
G2,0.0,0.0,0.2057786567891278,0.5098873497764675,0.8608367202973988,1.233998524392563,1.6174712602826862,2.005319544407181,2.394379936036869,2.782772381383705,3.169217980250686,3.5527329333399265,3.9324950539725037,4.307787577333468,4.677976348733167,5.042500562711179,5.400868387085507,5.752653890015818,6.097493943907312,6.435084737990883,6.765177906084507,7.087576397097525,7.402130233015811,7.7087322786896335,8.007314117835914,8.29784210122165,8.580313609525625,8.854753555336742,9.121211135485321,9.379756835480586,9.630479681345259,9.873484729843318,10.108890785396332,10.336827656597457,10.557435416599,10.770862384977915,10.977263519799667,11.176799038171646,11.369633200663342,11.555933232370345,11.73586836524158,11.909608990169778,12.077325908854862,12.239189676300045,12.39537002548185,12.546035366370937,12.691352352092037,12.831485505596055,12.966596900770874,13.096845892436681,13.223836035182442,13.348860966238536,13.473078050951603,13.597615738934294,13.723653537685946,13.852497524084722,13.98566838402731,14.125019872780168,14.272913396906104,14.432493032586432,14.60814599725171,14.806326576076453,15.037154005814894,15.317855161026907,15.68136581588484,16.203401495940472,17.134066537544378,19.07526584960308,22.22595997342442,27.2285181262966,34.45422164664328,44.05400272722944,55.84185872444928,69.4220279470342
H2,9667.95227017311,10243.425619588175,10768.16003185517,11249.137759938034,11689.527737767941,12092.27214202652,12460.10259350656,12795.555201181565,13100.984531648433,13378.576580702902,13630.360818324581,13858.2213732572,14063.907418642095,14249.042815773177,14415.135068965224,14563.583640742268,14695.68767303803,14812.65315683666,14915.599589651463,15005.566157425083,15083.517474821634,15150.348915454673,15206.891561341847,15253.916798784796,15292.140585930181,15322.227415463636,15344.793994213385,15360.412659884716,15369.614553702173,15372.892566395094,15370.704073716714,15363.473476530602,15351.594559424397,15335.432680813567,15315.32680657211,15291.591398367267,15264.518167076949,15234.377700927265,15201.42097729915,15165.88076651382,15127.97293531331,15087.897657201118,15045.840536296186,15001.973650878277,14956.456522361428,14909.437015022462,14861.052171430989,14811.428988174042,13919.143175888023,13045.282115812706,12190.90260433901,11357.089257829946,10544.960810142242,9755.67558006118,8990.435745985105,8250.48992884762,7537.133415422314,6851.705152580609,6195.580415002743,5570.157812076801,4976.83909078855,4417.000074379957,3891.9511515889285,3402.886138042977,2950.819238410947,2721.3752346468186,2709.8968219115236,2698.4193269959856,2686.947543449426,2675.4858821840494,2664.0383992219295,2652.6088214552597,2641.200570561919,2629.816785208173
S3,145239.84342768375,144604.23264984853,144008.73850021377,143449.72999855323,142924.17093089496,142429.30612137407,141962.60901107528,141521.75073024895,141104.57935020362,140709.10420685846,140333.4829649847,139976.01034045615,139635.10796162917,139309.31510728935,138997.2801763815,138697.7527998894,138409.57653194992,138131.68207100837,137863.0809695387,137602.8597957336,137350.17471406353,137104.246454376,136864.3556415612,136629.83845990017,136400.08262810437,136174.52366279365,135952.64140976034,135733.9568238527,135518.0289796838,135304.45229664777,135092.8539629089,134882.79244621488,134674.0905784376,134466.4345765061,134259.5512555607,134053.19566022282,133847.14566411686,133641.19910863924,133435.17190967154,133228.89657092496,133022.22090032857,132815.00685296368,132607.12946944917,132398.47589509696,132188.94447125646,131978.44389267982,131766.8924258251,131554.2171836059,132835.95212189696,134175.66217333215,135576.411048774,137041.56830106679,138574.83169387805,140180.24780804437,141862.2293281747,143625.5666906374,145475.4308259612,147417.36251056916,149457.24224684798,151601.23240209516,153855.67996162147,156226.96171466625,158721.23651529005,161344.0080368367,164099.10094884416,165460.5125728585,164991.4517219017,164491.02437033755,163915.5117158336,163248.40407589677,162462.45737692507,161557.17446250177,160537.88069137806,159420.54535074753
E3,0.0,1.6295976317251049,2.337622860631212,2.6211010598561124,2.7072074872079965,2.7007681300450925,2.65077245509967,2.580510571551811,2.501303562341958,2.418804176064196,2.335917534516407,2.2541749201746564,2.1743936221913844,2.0970032516700856,2.022213450275984,1.950104227474732,1.8806772061639931,1.813886204156464,1.7496562958334807,1.6878960813091104,1.62850573490355,1.5713823148280108,1.5164232386806944,1.4635285060397885,1.4126020571925426,1.3635525360028669,1.3162936449306364,1.2707442253643315,1.2268281578417093,1.1844741491498694,1.1436154534054166,1.1041895598233207,1.0661347719230987,1.029398187617316,0.993928653841975,0.9596775829877103,0.9265990139387398,0.8946494579413441,0.8637876986451235,0.8339745965502017,0.8051729108390362,0.7773471404302121,0.7504633830437619,0.724489210416093,0.6993935578066353,0.6751466260940384,0.6517197949342386,0.6290855456169173,0.6072173924071658,0.5928799884788747,0.5847239382703888,0.5822020546704776,0.5852701116342077,0.5942699388712193,0.6099218064135192,0.6334009987326188,0.6665071337137067,0.7119705658455865,0.7739981959025446,0.8592811495314847,0.9789724640448465,1.1529068350405818,1.4196804471849753,1.8648971845775486,2.7225030449232364,4.949345604360336,10.48377083605461,17.110830594562692,27.26226860090834,39.47164267589183,52.543798271104,64.6359695097323,74.59333183106425,81.80094341285889
I3,0.0,0.0,0.3527634116385048,0.7240860645144576,1.0149779417656988,1.2134273441663126,1.334701415866253,1.398842156704203,1.423279850286657,1.4212394261299761,1.402119308208913,1.3723578470123892,1.3362662768135727,1.2966864322439884,1.2554679426068016,1.2137995055073982,1.1724332133833926,1.1318343102945088,1.0922803815115574,1.0539267921485882,1.016849792844565,0.9810749070591352,0.9465956275833884,0.9133857258100206,0.8814073416234731,0.8506162781513669,0.8209654397622326,0.7924070340554861,0.7648939503727274,0.738380590300816,0.7128233349457527,0.6881807733912999,0.6644137763271498,0.641484801052385,0.6193591893469245,0.5980044445977538,0.5773899617022574,0.5574868733259681,0.5382679215042246,0.519707334989378,0.501780711103276,0.4844649041378978,0.467737921964649,0.45157883161669926,0.435967673913798,0.4208853867703064,0.40631373659590236,0.3922352570932203,0.37863319472721535,0.36549146015535106,0.35426447082131596,0.34555914204284216,0.3396321768011955,0.3366326778093208,0.33672680709636316,0.3401731936097605,0.3473861213081022,0.359011240709035,0.3760386965825687,0.3999912087498104,0.4332584658414279,0.47973194014816434,0.5461107472606096,0.6448908485590921,0.8023273079316308,1.0852921560945803,1.7422525512949718,3.3463931097264332,5.772542024516018,9.469732686561102,14.398082500171887,20.274220397371295,26.524077004720837,32.542813410224454
A3,0.0,0.0,0.040684964897253366,0.09524214972473441,0.15177498472909023,0.20517108748669557,0.2534132570255129,0.2958960084652562,0.3326519439336297,0.36399326202109056,0.39034409507545675,0.4121614440966821,0.42989780549413253,0.4439837665731275,0.4548203754224758,0.46277641136515335,0.46818816603745694,0.4713605243518169,0.4725687078821972,0.47206033112063955,0.47005757176471585,0.46675933899777267,0.46234337157234795,0.45696822646814844,0.4507751370768523,0.4438897315470655,0.4364236094896753,0.4284757801061287,0.4201339678403301,0.4114757934455421,0.40256983929226,0.3934766080936257,0.3842493841834429,0.3749349288500783,0.36557430988142525,0.35620347764105237,0.3468538076576624,0.3375525939999402,0.32832349266693467,0.31918691852397785,0.3101604002381829,0.3012588975750851,0.29249508505600463,0.283879605571482,0.27542129716344355,0.26712739584194856,0.2590037169918819,0.25105481764785875,0.24328414166852227,0.23569414962118712,0.2284559600989292,0.22169100071845743,0.21549568296160357,0.2099562985383475,0.20515960407499576,0.20120222588005696,0.19820109702301644,0.19630714568515395,0.19572535323079074,0.19674656344055358,0.19980147517523975,0.20555896153847827,0.21512054634463093,0.23044835045674086,0.2554582224339493,0.2995405902966899,0.395096675406631,0.6198910596198216,0.9891174371051421,1.5772602681331318,2.415227253067954,3.5011973129593557,4.7875126816485185,6.202140502223346
IH3,0.0,0.0,0.0,0.07055268032819352,0.20565596245992385,0.38033615110670216,0.5706556722721252,0.7590261851617582,0.9342893698407088,1.0903092774366572,1.224439762665893,1.3362786950319128,1.4267669807579413,1.4975782258127202,1.5507239754631668,1.5883087446126478,1.6123850310977486,1.6248731565392052,1.6275220951270606,1.62189553354563,1.6093729379402206,1.591159095116431,1.5682980175345267,1.54168867312019,1.5121010111967979,1.480191399892255,1.446516997022789,1.411548829945401,1.3756835149309004,1.3392536386770992,1.3025368765615053,1.2657639489175598,1.2291255275561395,1.1927782060999383,1.1568495093031383,1.1214424722456402,1.0866394444739185,1.052505316355834,1.0190902704717824,0.9864321285055301,0.9545583504767903,0.9234877350833343,0.8932318636144982,0.8637963243837564,0.8351817496938302,0.8073846929539715,0.7803983696944404,0.7542132828357968,0.7288177496285738,0.7041983451360254,0.6803402749427382,0.6575216650578991,0.6361037312408261,0.6164492964637049,0.5989010495721451,0.5837877292815453,0.5714445382603522,0.5622433841529471,0.5566340992275082,0.5552026103042748,0.5587587158141347,0.5684786561709043,0.5861550175491276,0.6146734000027289,0.6590212968196102,0.728750519324204,0.8454721595906394,1.077515253210936,1.5984379878710133,2.5328681245629125,4.078080937067403,6.396213667270507,9.5704057526791,13.55753584628916
IN3,0.0,0.0,0.0,0.06415621678495727,0.18687242217492717,0.3453318882068247,0.5177240208497407,0.6880647994381852,0.8462503848064389,0.9867598531808921,1.1072495076735958,1.2074126603415907,1.288156437246394,1.3510451863043367,1.3979413358199628,1.4307832612225686,1.4514544626561463,1.4617118343821296,1.46315120082928,1.4571957114209897,1.4450977594238525,1.4279484719906905,1.4066910358517568,1.382135559840961,1.3549740977155993,1.3257950414859805,1.2950964649372965,1.2632982264647334,1.2307527799287272,1.1977547244357012,1.1645491697269823,1.1313390167406607,1.098291261614955,1.065542431535576,1.0332031340414098,1.0013622061997836,0.9700901520972393,0.9394420505126458,0.9094600280229994,0.8801753629206782,0.8516102726140997,0.8237794295925602,0.7966912451035124,0.7703489545180676,0.7447515337483829,0.7198944719870284,0.6957704224393461,0.6723697495819516,0.6496809887623409,0.6276912316111172,0.606386448725221,0.5860190838962305,0.566916657587149,0.5494075760142513,0.533801438287094,0.5203947689146561,0.5094896628783092,0.5014213152568513,0.49659547060531295,0.49554120970006554,0.4989905604232284,0.5080077913003564,0.5242160769580353,0.5502299603638483,0.5905709788352053,0.6539033257780549,0.7598414532865483,0.9704450577122083,1.4433391400338824,2.2913418628485207,3.69315959281162,5.7952551973214135,8.672074297099472,12.283247509846657
D3,0.0,0.0,0.0,0.0,0.00013925956128984279,0.000545191114500653,0.0012959130615536156,0.002422294911236792,0.003920489636957085,0.005764625496240494,0.00791671937757528,0.010333565107340589,0.012971162771461433,0.01578736965231874,0.018743346459348154,0.021804224366467787,0.02493928851907929,0.0281218753608049,0.031329111739050175,0.03454157669293442,0.03774293572577137,0.040919577183569256,0.044060267466312635,0.047155833685450496,0.05019887736948249,0.05318351980213924,0.05610517783150289,0.05896036804492412,0.06174653676144892,0.06446191315638923,0.06710538287731874,0.06967637965802236,0.07217479263684606,0.07460088730740126,0.07695523825374208,0.07923867177312811,0.08145221753737482,0.08359706776296158,0.08567454274944157,0.08768606184865198,0.08963311906630657,0.09151726260974943,0.09334007779190863,0.09510317278530118,0.0968081667928696,0.09845668026561953,0.10005032685154483,0.10159070680719519,0.10307940164342402,0.10451796981122993,0.10590794326296127,0.10725082474918704,0.10854866599616146,0.1098042317115299,0.1110210027567068,0.11220313640537152,0.1133554388081713,0.11448337775151733,0.11559315510726108,0.11669186064327759,0.11778774065206377,0.11889063983703006,0.12001272460961047,0.12116969965594493,0.1223829653692067,0.12368376664633533,0.12512220211241187,0.12679102718723073,0.12891786773740194,0.1320729253752474,0.137072396723336,0.14512186783568343,0.15774695741522476,0.1766373879457753
R3,0.0,0.0,0.0,0.003804524944469102,0.03125701029539048,0.0994913108738918,0.21858337407634176,0.3921219843177657,0.6190172094253529,0.8952549637388689,1.2152456080850942,1.5727523170740452,1.9614835404047768,2.375444583177818,2.8091268967881944,3.2575928615369443,3.7164960063632737,4.182063237939076,4.651056261743391,5.120723030848999,5.588745872335371,6.053190229776826,6.5124562304013365,6.965234198937958,7.410464570474882,7.847302252729148,8.27508525675549,8.693307291307812,9.101593959192908,9.499682177929007,9.887402455151088,10.264663670877361,10.63144004727766,10.987760017808483,11.333696731745265,11.669359952270163,11.994889210087015,12.310448004728613,12.616218896453866,12.912399358834088,13.199198281162856,13.476833025319925,13.745526955049945,14.00550736722758,14.257003764782194,14.50024641970638,14.735465182122603,14.962888497874067,15.182742602673352,15.395250865607283,15.600633258868081,15.799121786655977,15.991032853951822,16.176786701938298,16.35690680365868,16.532014545130185,16.70282642676976,16.870157618506102,17.034934748627254,17.198221399081543,17.361261851182444,17.52555292516362,17.692962442188097,17.865931483223893,18.047841829497397,18.24375057844253,18.462100808339503,18.720041193073804,19.059943587447677,19.57119627523392,20.382842282995323,21.678577145391763,23.684410909725027,26.64359028189264
G3,0.0,0.0,0.3527634116385048,0.8587949616276084,1.426191804948572,2.012228339740183,2.5968709294515353,3.1706908200391495,3.7293009304540643,4.270764885124404,4.794369974271836,5.300032367699527,5.787999716074334,6.25869659085884,6.712640562594412,7.150394583521318,7.572538925745486,7.979654212685898,8.372311070578405,8.751063906307321,9.116447341176173,9.468974386953295,9.80913577131928,10.137400015664445,10.454213994017042,10.76000378609921,11.055175695522951,11.340117344838102,11.615198787970114,11.880773601058348,12.137179927207335,12.384741460859503,12.623768364578396,12.854557445323374,13.077394058195695,13.29255248505435,13.500296489866972,13.700879887274022,13.89454707778769,14.081533539705198,14.262066278690254,14.436364238785963,14.60463867902021,14.767093519502545,14.923925660508491,15.075325277645073,15.22147609582283,15.36255564442893,15.498735495800812,15.630181488837161,15.758523825225193,15.885100599341271,16.011131454486225,16.13782646022919,16.266469682942084,16.39850110780086,16.53561513699322,16.679895740863113,16.834017936983397,17.001567422128137,17.18757833915708,17.399499159114967,17.64907202330705,17.95639409363633,18.360093436577934,18.94944104216242,20.020839285987748,22.29028954472913,25.99431737282348,31.89585447218766,40.440387835667934,51.814686115015675,65.80660944315528,81.95402995355042
H3,29003.856810519323,28877.252673648007,28758.554444457943,28647.09220541907,28542.284743706507,28443.59341533952,28350.519090950103,28262.59931987679,28179.40569698712,28100.541417746135,28025.63900808281,27954.358216566936,27886.384057300987,27821.424992759694,27759.211246579234,27699.493237012088,27642.040122426777,27586.638450847484,27533.090906100384,27481.215143664445,27430.842709817538,27381.81803812646,27333.99751775463,27287.24862845598,27241.449137490097,27196.48635403399,27152.256436982087,27108.663752319302,27065.620276524794,27023.045042716876,26980.863626484654,26939.0076685701,26897.4144317669,26856.026389590563,26814.7908444489,26773.659573204353,26732.588498170117,26691.537381721995,26650.46954283773,26609.351593996216,26568.153196980937,26526.846836236018,26485.407608519778,26443.8130276904,26402.042843541534,26360.078873682993,26317.904847533522,26275.506261559207,26232.87024495305,26179.967078339014,26117.10166358872,26044.588942634276,25962.75414499125,25871.933108189445,25772.47266062193,25664.73105209276,25549.078411525887,25425.897203518198,25295.582645305316,25158.54303296352,25015.19991021355,24865.98799537592,24711.354762966595,24551.75955841317,24387.672111355478,24219.57031088479,24050.13788251607,23881.980743279764,23715.08827669286,23549.450011809102,23385.05561745098,23221.8948968201,23059.95778245916,22899.2343315406
S4,72619.92171384188,73827.79576597805,75031.1347846711,76229.87527121422,77424.13754839724,78614.11514219276,79800.0240600559,80982.08027077955,82160.4900866494,83335.44643232778,84507.12777792831,85675.69825530575,86841.3082776834,88004.09535169206,89164.1849409317,90321.69131852014,91476.71838213968,92629.36042160392,93779.70283645362,94927.82280440975,96073.78990291186,97217.66668648891,98359.50922282913,99499.36759035903,100637.28634001,101773.30492369321,102907.45809183903,104039.77626219777,105170.28586194555,106299.00964499575,107425.96698628302,108551.06818381393,109674.47159832784,110796.1613093844,111916.13596330749,113034.3980923903,114150.95039928971,115265.79452844243,116378.9307219345,117490.35778587779,118600.07316178252,119708.07302953742,120814.35241602937,121918.90530045761,123021.7247134979,124122.80282964463,125222.13105281793,126319.70009557383,128866.62386125134,131413.7874490532,133960.35298645013,136505.36294693372,139047.72885071638,141586.21905295225,144119.44615074393,146645.85457801473,149163.7090602724,151671.0846741967,154165.85911279375,156645.70693245492,159108.0927918094,161550.2521797723,163969.12065851555,166361.07014774045,168720.8129895037,170586.98075200187,171892.41116343296,173145.65380945,174278.84388227554,175266.39737299705,176066.61570469843,176677.16458965818,177103.98459182645,177368.73484276765
E4,0.0,2.4443964475876574,3.5412983250879617,4.011559595399718,4.189161056811226,4.229505063820182,4.2052869002269,4.150749974752022,4.082172144419426,4.007380499648683,3.9301895711873405,3.852483982247492,3.775204133977616,3.6988184598159175,3.623553617811707,3.549509340446384,3.476717466867614,3.405173363931272,3.3348532761540746,3.2657242286444554,3.197749811698854,3.130893581046379,3.065121018372002,3.000400593462935,2.9367042545151545,2.8740075528059323,2.812289536719737,2.7515325056478273,2.6917216852045907,2.632844865502068,2.5748920305482024,2.5178549972076874,2.461719463525762,2.406484951874338,2.352148206562777,2.2987055720386227,2.2461535668155963,2.1944889161997243,2.1437084453525004,2.093808954127442,2.0447871065724152,1.9966393413203154,1.94936180178989,1.9029502835694871,1.8574001963525577,1.8127065381136243,1.768863879542828,1.725866357037337,1.6837076727813094,1.662143520877398,1.6574663467528357,1.6682909631846028,1.6947174727595746,1.7380059528819194,1.8005671050916268,1.886204303366244,2.000638798963677,2.1524568587584327,2.3547947982593236,2.6284470777614044,3.0079612424681614,3.5546324056292633,4.387520811926571,5.7703115607993904,8.422733494899187,15.285329904643557,32.40851671442568,53.207753053645,85.46373514287917,124.76831248022927,167.44258803147923,207.57489491177648,241.32449424056858,266.518032197503
I4,0.0,0.0,0.5291451174577572,1.0936762086400877,1.5444299297887512,1.861501304360862,2.066226788736573,2.187531684044889,2.250708421157629,2.2749147843077036,2.273687173197555,2.2562186176390737,2.2285995972305814,2.1947984062759214,2.1573693793396083,2.117940498804722,2.0775396627826423,2.0368091407654414,1.9961449374233284,1.9557866936824642,1.915875401213376,1.8764903298367308,1.8376725896115798,1.7994401197266336,1.761797183546161,1.7247403439440239,1.6882621838397895,1.6523535830423612,1.617005072366903,1.5822076003516659,1.54795292888685,1.5142337975404803,1.481043946978441,1.4483764121202833,1.416226784230267,1.3845916333575672,1.353468048010914,1.3228534748562928,1.2927456267132031,1.2631424025352544,1.2340418108531042,1.2054418985323228,1.1773406873383458,1.1497361196155949,1.1226260133199963,1.0960080259831977,1.069879626847481,1.0442380762719536,1.0190804114856764,0.9944034377985209,0.9744817490617512,0.9611550261001953,0.95526058011428,0.9573376498119719,0.9679923285084311,0.988121113243563,1.0191014845986537,1.0630234027811278,1.1230374324684218,1.2039346937329563,1.313178166522066,1.4628595616214441,1.6737218770613302,1.984360326722328,2.475712492434727,3.3536101718599975,5.381832047795081,10.342244431626376,17.910903334648573,29.571876840939108,45.288271327637666,64.24090084700302,84.64368543907588,104.56117596439228
A4,0.0,0.0,0.06102744734588005,0.14373364927206356,0.23044651115996476,0.31348474087227873,0.3897651540759917,0.4583078102598785,0.5190793349161112,0.5724558717256001,0.6189738036974153,0.6592145902736398,0.6937523695689932,0.7231310693040108,0.7478554485633463,0.7683887242978172,0.7851532871475204,0.7985328241413785,0.8088750273652296,0.8164944825009458,0.821675534492201,0.8246750296563885,0.8257248862680804,0.8250344737094991,0.8227927956601363,0.8191704813734674,0.8143215938583724,0.8083852663284521,0.8014871794797878,0.7937408925171423,0.7852490406825494,0.7761044115482888,0.7663909116499527,0.7561842442042499,0.7455530213580419,0.7345593579293167,0.7232594690011542,0.7117042259624328,0.699939661369208,0.6880074239257751,0.6759451877947611,0.6637870208731742,0.6515637163930798,0.6393030917710715,0.6270302581981538,0.6147678640694572,0.6025363150056683,0.5903539729112466,0.5782373362433662,0.5662012034255788,0.5547522149309924,0.5442570705753667,0.5350135964587478,0.5272942676093896,0.5213775388461809,0.5175760123836529,0.516268014474928,0.5179393316682752,0.5232446907363988,0.5331055584852875,0.5488763936748177,0.5726475203053148,0.6078441023713577,0.6605435000788429,0.7428380004847892,0.883658059312716,1.1826431733093081,1.8811716510094754,3.0336586904733283,4.883685942730297,7.542002246569757,11.017151800706209,15.169287583429082,19.775751020624714
IH4,0.0,0.0,0.0,0.10582902049229029,0.3099933660207881,0.5761984300294473,0.8691657723888364,1.1627414965882736,1.4401577212606882,1.6920137085044595,1.9140346018813537,2.1052414012077545,2.266628504197614,2.400271492479764,2.5087538335692425,2.594814161516737,2.6611396426350757,2.710253044896878,2.744458247120771,2.7658211233919996,2.7761710395943626,2.7771136867920307,2.7700495331498027,2.756194447749392,2.73660048262856,2.712175692489406,2.6837024206303606,2.651853811317704,2.6172085040478126,2.5802635754780874,2.541445852813342,2.501121748653455,2.4596057746118025,2.417167887434519,2.3740394823129036,2.330419213434916,2.2864776976319163,2.2423614783466785,2.198196411768699,2.154090568354437,2.110136718852759,2.066414462734754,2.0229920493258593,1.9799279355114714,1.9372721181083188,1.8950672737970327,1.8533497348978716,1.8121503252253945,1.7714950767411348,1.7314058446857838,1.6919008362601127,1.6538506705832192,1.618374033205316,1.5866030475808082,1.5596218103963417,1.5384863749762916,1.5242866931290495,1.5182381445970377,1.5218067636445785,1.536886849001253,1.566070110061799,1.613084017036054,1.683561171780229,1.7865072603627519,1.937407078728647,2.1658009407457057,2.538328310409523,3.265209241862456,4.8840932482138655,7.793815681245215,12.635112529141498,19.95312240303641,30.054090239919084,42.84488017783768
IN4,0.0,0.0,0.0,0.0962343251774359,0.28168120799422164,0.5231728274149425,0.7885594535707204,1.0540675570308546,1.3045086525035805,1.5314180722125417,1.730999019716167,1.9024474712485864,2.0467437508500197,2.16583875545618,2.2621322741571124,2.338153062101375,2.3963723325898614,2.439102667824584,2.4684500684177957,2.4862980540099446,2.494310337332571,2.4939436207249797,2.4864653190934427,2.472973089685775,2.454414356831421,2.431604833198881,2.405245537775283,2.37593811071066,2.344198400631137,2.3104683981834917,2.2751266402436974,2.2384972311616704,2.200857632368213,2.162445366949159,2.123463476237889,2.0840858066309984,2.0444612701931377,2.004717425744175,1.9649635300163302,1.9252931454075461,1.8857863685158653,1.8465117331141734,1.8075278340579086,1.7688847125700935,1.7306250379300572,1.6927851157376663,1.655395748628987,1.6184829715624298,1.5820686805377497,1.5461711708044596,1.510805598209168,1.4767624091209952,1.4450560927888039,1.41671155286561,1.3927084413535842,1.3739996452406877,1.3615678443113717,1.3565088202441642,1.3601452174598532,1.3741877083593166,1.400979095601652,1.443891840140449,1.508025890595163,1.6015405012160993,1.7384731598623568,1.9456182833593385,2.2834575040080893,2.942921309501521,4.412304284624716,7.052703407425127,11.444623979392627,18.080684171771832,27.235631501465402,38.82096303832819
D4,0.0,0.0,0.0,0.0,0.0002088893419347642,0.0008207660269026867,0.001958088382460763,0.003673680810529695,0.00596874415830264,0.008811382191585114,0.012151143142503535,0.015929137369110703,0.020084542841696983,0.024558500310545628,0.029296247387826747,0.03424812103205814,0.03936986382170935,0.04462252236622504,0.04997212281033426,0.055389238782320965,0.060848521611237584,0.06632823349803015,0.07180980601768014,0.07727743504244766,0.08271771637318684,0.08811932239103978,0.09347271783002382,0.09876991164308618,0.10400424146090498,0.1091701870547834,0.11426320934481891,0.11927961173886441,0.12421642088388535,0.1290712842218205,0.13384238204549187,0.13852835138434272,0.1431282213790009,0.14764135794007904,0.1520674162312056,0.156406299835738,0.1606581256506072,0.16482319368717327,0.16890196107325703,0.1728950196497911,0.17680307664212977,0.180626937961244,0.1843674937549585,0.18802570588521242,0.1916025970551612,0.19509924135083517,0.1985167559969692,0.2018562941563628,0.20512072745291463,0.20831513561457002,0.21144683299756706,0.21452527378937739,0.21756199665565215,0.22057069165033785,0.22356744779009857,0.22657124780573556,0.22960481346686207,0.2326959821575743,0.23587994868430498,0.23920302569705795,0.24272930161119666,0.2465534293207115,0.25082836951357684,0.25583861838396543,0.2622836124568497,0.2719240212957631,0.2873077508365157,0.31224741605505885,0.3516316472321557,0.4109535525418819
R4,0.0,0.0,0.0,0.005706787416703653,0.046966910435918635,0.14997548400090982,0.3306456490821954,0.5953188225186594,0.9433709830651635,1.3697754830890663,1.867081387558072,2.426776840222497,3.040159064548117,3.6988510095853075,4.395080975944872,5.121810650698734,5.8727703147745665,6.642439993949714,7.426001346353382,8.219275702984964,9.01865756082336,9.821048920942193,10.6237974141106,11.424639649238186,12.221650314173305,13.013197031298333,13.797900679052228,14.574600743893694,15.342325207792001,16.100264468049883,16.847748806712648,17.584228962209956,18.309259397849022,19.022483905370265,19.723623206377606,20.412464234171836,21.088851000313632,21.75267675119753,22.40387721534654,23.042424784119163,23.668323493392364,24.281604692533467,24.8823233027687,25.470554580791113,26.046391315426945,26.609941395573646,27.161325696595906,27.700676240080064,28.22813458845802,28.743850441664513,29.247980407817394,29.74073306217571,30.222579957387897,30.694314177919885,31.15705124942286,31.612216852273814,32.06154246621333,32.50708028286502,32.95124609237632,33.396900821815706,33.84748785957192,34.30725658702055,34.78162931067879,35.277826200365325,35.80599887111618,36.38149413379548,37.03011994807437,37.8045030515199,38.83507031877012,40.39858392857013,42.89920505821939,46.91958253119145,53.186031942901394,62.49177234276734
G4,0.0,0.0,0.5291451174577572,1.2957395543098138,2.164132721625794,3.070971758167287,3.986544171141452,4.896874012669473,5.795398098275754,6.679076955268587,7.54656546241202,8.397344240269248,9.231301878892994,10.048530539518824,10.849223786437,11.633624249219418,12.40199614679826,13.15461059041221,13.891737688350698,14.613642406489369,15.320582572539804,16.012808132506475,16.69056114320386,17.354076189173313,18.003581029525662,18.639297350921762,19.26144154754126,19.87022547811086,20.465857169658573,21.048541450961146,21.61848050768782,22.17587435731892,22.720921245909313,23.253816323530994,23.774754636862514,24.283930527814256,24.78153754696926,25.267768491263816,25.74281544875233,26.206869820223332,26.66012231372097,27.1027629151468,27.53498083946361,27.95696446678959,28.368901267102558,28.77097771670425,29.1633792090944,29.54628996247534,29.919892925739408,30.28436968447371,30.64417839285827,31.002974620696165,31.36411408256178,31.730974162507515,32.10720501695323,32.49697865340838,32.90529040604533,33.33837410378713,33.80432226799532,34.31407107381752,34.88305812952453,35.53419964403825,36.30368054540845,37.253459055218684,38.50257402248201,40.32586594751824,43.634722698539655,50.65028206101967,62.1683084298682,80.66887457787874,107.67780900318928,143.92455940195848,188.85885893335015,241.09902561186937
H4,14501.928405259661,14743.62721201399,14984.27098429439,15223.925604664872,15462.651373043363,15700.503745907585,15937.533691035414,16173.788016793333,16409.309677792306,16644.138058600533,16878.30923708175,17111.856228815774,17344.80921395383,17577.195747764672,17809.04095603767,18040.36771642583,18271.196826734264,18501.54716108782,18731.43581484488,18960.878239062386,19189.88836525959,19418.478721174735,19646.66053815912,19874.443850807078,20101.837589377545,20328.849665523296,20555.48705180691,20781.755855448428,21007.661386717755,21233.20822235546,21458.400264378102,21683.24079459881,21907.732525170228,22131.877645434954,22355.677865348207,22579.134455718613,22802.248285495316,23025.0198563134,23247.449334494417,23469.53658068473,23691.281177301364,23912.68245394287,24133.739510911506,24354.451240982504,24574.81634954659,24794.833373242767,25014.500697190124,25233.81657091957,24001.655314172564,22779.55660266787,21568.752754701472,20370.621225247516,19186.69880663947,18018.69633168186,16868.513423868182,15738.252592968565,14630.231642614996,13546.992923384243,12491.3074199128,11466.171008359948,10474.789495166493,9520.548334389718,8606.962381355257,7737.60094129335,6915.984093923255,6593.335526307815,6795.165278898521,6995.583094586155,7194.599600780153,7392.22533641926,7588.470753184336,7783.346216663094,7976.862007469928,8169.028322323755
E_Om,0.0,0.0,0.0,0.0,0.0,0.0,0.0,0.0,0.0,0.0,0.0,0.0,0.0,0.0,0.0,0.0,0.0,0.0,0.0,0.0,0.0,0.0,0.0,0.0,0.0,0.0,0.0,0.0,0.0,0.0,0.0,0.4631541528927403,0.6367224742417325,0.7103211381966197,0.7509722508091794,0.7823179688573179,0.8126432588479483,0.8448019875526767,0.8797363129838672,0.9177248356545615,0.95882460212329,1.003026732958588,1.050310316857232,1.1006602360929667,1.154072292437867,1.2105539475133975,1.2701236270637488,1.3328096261554825,1.398648970957081,1.4896971185747259,1.6054524115353705,1.7493480899959417,1.9276817707992233,2.1497849621940617,2.4290185388263072,2.7846593123460837,3.245134293656862,3.8536205329986313,4.678129931022741,5.8306763651635976,7.506261238177235,10.06932067067542,14.268581652152658,21.863594296488046,37.96115999089796,84.74217524601909,223.79650149437,448.93844411048383,911.6501204235922,1626.302462205565,2648.8386845274467,3913.1576511577496,5343.471423503009,6836.639570647412
I_Om,0.0,0.0,0.0,0.0,0.0,0.0,0.0,0.0,0.0,0.0,0.0,0.0,0.0,0.0,0.0,0.0,0.0,0.0,0.0,0.0,0.0,0.0,0.0,0.0,0.0,0.0,0.0,0.0,0.0,0.0,1.0,0.6181324574239176,0.48234796843392763,0.4359879730505425,0.4232634572401254,0.42419787742690657,0.43156096533078303,0.4426769265840693,0.456509550105887,0.47262227169032645,0.49080554623936257,0.510942196149596,0.5329578679865116,0.5568020747524863,0.5824403362204762,0.6098504302412399,0.6390202358204592,0.6699462492488644,0.7026324298797045,0.737089240272677,0.7780975521926546,0.8285039825008094,0.8908113202654924,0.9679298828133251,1.0636786486019163,1.1833105168806122,1.3342453787828137,1.5272233818678846,1.7782300129114326,2.1118691404202186,2.567597161433493,3.2120158372546657,4.165184352043143,5.6633941430089525,8.233599194212713,13.307009990238637,26.569862909672302,64.86952928372425,137.28088209052567,282.2051389561377,526.4902534112236,898.841996186788,1402.6952439515503,2023.7671851909254
A_Om,0.0,0.0,0.0,0.0,0.0,0.0,0.0,0.0,0.0,0.0,0.0,0.0,0.0,0.0,0.0,0.0,0.0,0.0,0.0,0.0,0.0,0.0,0.0,0.0,0.0,0.0,0.0,0.0,0.0,0.0,0.0,0.0,0.011563228913452994,0.02637851184955078,0.04164587446009979,0.056500464684634336,0.07074856067997692,0.08442140054638075,0.09761855164422953,0.11045379277502798,0.12303721869194424,0.13547005322731245,0.1478438329028687,0.16024101241686742,0.17273595854585894,0.18539597908001373,0.19828227402463638,0.21145078048340293,0.2249529112019578,0.2388361956318454,0.25369436102688453,0.27005308961430796,0.28847462130230656,0.3096258478898035,0.33434427181230375,0.36372265025720674,0.399232824674276,0.4429187182093026,0.4977110926838932,0.5679646521355148,0.6604234523698086,0.7860693568146666,0.9639559033529099,1.230047814722029,1.6608760800214537,2.45331288887913,4.3395946758820045,9.521153865180953,19.83912925168105,40.744433950408805,77.537044771473,136.41802115329503,221.3582517797811,334.06515863085303
R_Om,0.0,0.0,0.0,0.0,0.0,0.0,0.0,0.0,0.0,0.0,0.0,0.0,0.0,0.0,0.0,0.0,0.0,0.0,0.0,0.0,0.0,0.0,0.0,0.0,0.0,0.0,0.0,0.0,0.0,0.0,0.0,0.38186754257608235,0.6179122650790686,0.8021052984514985,0.9685949543130362,1.1302255305915796,1.2922129316105826,1.4570120569132106,1.6260560070230021,1.8003821870844505,1.9808612925415607,2.168284000366698,2.363396241208771,2.5669155525533682,2.7795401925403644,3.0019552524300646,3.234837337565253,3.478858424674401,3.734689152533128,4.003001671865552,4.284472128707751,4.5816023288480245,4.8979811086601055,5.238153038428845,5.607774044164725,6.013958395796987,6.46582627498262,6.9753312789719075,7.558528318770531,8.237576643936055,9.044030922830586,10.02451294119252,11.251077535680418,12.841626248571483,15.00429265260209,18.14843694345251,23.229952147460313,33.376120403360275,58.147688139003264,110.57080122558922,218.3357841411114,419.38532340151426,762.6239076495433,1298.2676934404803
G_Om,0.0,0.0,0.0,0.0,0.0,0.0,0.0,0.0,0.0,0.0,0.0,0.0,0.0,0.0,0.0,0.0,0.0,0.0,0.0,0.0,0.0,0.0,0.0,0.0,0.0,0.0,0.0,0.0,0.0,0.0,0.0,0.0,0.10026023351299627,0.23809327150204088,0.3918584115531616,0.5544234080184862,0.7237738969413657,0.8996889834972799,1.082565557128889,1.2730044587747764,1.471666838780923,1.6792261965162938,1.8963541091952822,2.123717627305854,2.36198052876084,2.611805682671304,2.8738575733857123,3.148804673923265,3.437321582412832,3.7400909121382284,4.062569680900405,4.410106311348835,4.788792428925599,5.20608292124217,5.671452692766641,6.197268912677599,6.800071653765434,7.502554660839792,8.336758331681962,9.349445784356273,10.61162808426408,12.236528778447186,14.416261887723557,17.505020391580434,22.237891846814804,30.45544693369115,48.799815057132626,97.24564968708451,194.42857022952893,391.775940181727,743.8260375523352,1317.2273195883024,2164.319151601094,3321.0348786314053
beta,1.000046594308413,1.000046594308413,0.9995735106033335,0.9992545399966685,0.9990095228578436,0.9988021504226925,0.9986157909648966,0.9984426896392161,0.9982791180992268,0.998123188359256,0.9979738638963496,0.997830510326698,0.997692689937348,0.997560066767847,0.9974323620087155,0.9973093324345527,0.9971907594799344,0.9970764433088336,0.9969661992883603,0.9968598556698677,0.9967572519161406,0.9966582374050179,0.9965626703747474,0.9964704170395704,0.9963813508343686,0.9962953517623241,0.9962123058274525,0.9961321045384379,0.9960546444730424,0.9959798268943127,0.9959075574112226,0.9958377456776206,0.9957575405341434,0.9956845050446242,0.9956152675561801,0.9955485682342502,0.9954838986070689,0.9954210190719736,0.9953597874134187,0.9953000976746045,0.9952418582515262,0.9951849839554681,0.9951293930638573,0.9950750061609699,0.9950217456268767,0.9949695353661255,0.9949183006291679,0.9948679678732413,0.9948184646429657,1.0367947429608024,1.083652323048941,1.1363688187557748,1.1962002545907318,1.2647874222058435,1.344314736725345,1.4377545574874457,1.5492558574167434,1.6847874947947585,1.8532542907338603,2.0685474928417547,2.3535892233525053,2.7490677399380887,3.3347209085493534,4.290765603620173,6.1279528166228605,11.075984291714661,19.762628858543447,17.70039102967857,15.104133645254626,11.758316510635655,8.706892157303088,6.302196407959807,4.620687387482259,3.4801643770155968
