series,2021-12-01,2021-12-02,2021-12-03,2021-12-04,2021-12-05,2021-12-06,2021-12-07,2021-12-08,2021-12-09,2021-12-10,2021-12-11,2021-12-12,2021-12-13,2021-12-14,2021-12-15,2021-12-16,2021-12-17,2021-12-18,2021-12-19,2021-12-20,2021-12-21,2021-12-22,2021-12-23,2021-12-24,2021-12-25,2021-12-26,2021-12-27,2021-12-28,2021-12-29,2021-12-30,2021-12-31,2022-01-01,2022-01-02,2022-01-03,2022-01-04,2022-01-05,2022-01-06,2022-01-07,2022-01-08,2022-01-09,2022-01-10,2022-01-11,2022-01-12,2022-01-13,2022-01-14,2022-01-15,2022-01-16,2022-01-17,2022-01-18,2022-01-19
S,7078836.766442216,7074423.793295502,7070388.610888941,7066638.183581365,7063109.13874664,7059757.719395181,7056553.335370543,7053474.301338646,7050504.994105279,7047633.943093567,7044851.586017696,7042152.349524487,7039530.969752673,7036983.17542785,7034505.403148891,7093344.756485739,7152098.4017323665,7210756.100514706,7269304.047487259,7327724.4273713045,7385994.65495962,7444086.208084754,7501962.902417024,7559578.361942465,7616872.28484259,7673764.846408983,7730148.13810787,7785872.772650053,7840726.4548617285,7894399.138137244,7946426.509473389,7996103.382411866,8042380.183065871,8083870.403421675,8119396.9344870765,8149285.878896063,8175319.391916119,8198742.607562483,8220063.880324315,8232379.148596248,8191801.175208135,8163146.608881007,8137784.100829533,8114418.268434847,8092570.087562976,8071994.773169704,8052538.946946998,8034092.580818938,8016569.517851561,7999898.439008862
E,0.0,4412.973146714396,7348.408977477512,9267.556705082563,10487.055704476406,11225.020766102703,11632.043977437961,11812.283906489525,11837.879871596086,11758.840905267554,11609.850826973743,11414.95488422051,11190.82581041306,10948.999596877502,10697.436521127403,10441.606008037976,10335.196518622437,10351.2007256403,10472.907191695835,10691.776925702243,11006.165971507133,11420.773095450648,11946.782857173472,12602.776683054777,13416.62044421731,14428.742907730257,15697.558210628893,17308.366199755383,19388.060487697283,22129.57037654077,25831.855666008898,30959.979389013206,38207.05251225461,48429.77179134809,62061.52292043739,77925.18278535278,93682.16730952382,108113.47327616002,121040.17432358471,132534.55234396466,140006.36514917293,133708.87714631617,125689.6721231874,117671.88022659166,110133.9619900705,103201.12401396278,96876.01610784515,91117.28793883714,85870.0217695928,81078.14373817411
I,57233.64907666385,52654.95715053075,49144.97148497922,46383.01664401692,44147.48805162925,42284.90884158891,40688.79752786334,39285.160816617565,38022.50374889665,36864.93334458932,35787.38797670151,34772.33155599465,33807.458151357685,32884.10009747778,31996.11932070172,31139.13582697994,30309.99058762914,29530.23981792772,28815.416492074026,28177.150994524913,27624.78413169597,27166.647777744747,26811.15515737382,26567.826678524463,26448.3787135949,26468.025723084174,26647.200038914976,27013.99715778678,27607.842074060496,28485.20338051269,29728.740650793792,31462.085986509774,33873.004790231025,37244.56338617035,41973.54282124941,48493.96346028389,57017.761894112846,67367.68843422024,79186.64518570405,92117.62245854418,105843.67641346011,119660.93106033237,131370.43706589137,140866.76941504364,148327.20692700223,153991.0024585505,158098.1977149298,160870.05283393397,162503.54542886344,163171.15367295474
A,32375.593904624795,31080.5701484398,30234.683011808716,29686.93239347172,29333.888193930514,29104.767121915484,28951.255856740194,28840.53263433314,28750.466799610695,28666.308210063584,28578.399446607014,28480.592251746744,28369.149286425276,28241.983886203012,28098.131531832623,27937.38301301257,27760.02994441752,27580.190091478966,27408.98482087513,27255.585978728184,27128.029702875243,27033.88266696944,26980.831945660113,26977.264166987894,27032.903529995423,27159.594255550168,27372.346924615806,27690.831192191585,28141.610162285546,28761.609673139705,29603.649515154393,30745.354456193774,32303.11766019413,34451.08295149877,37433.5637402768,41524.12212002734,46879.39178469383,53439.17943904667,61035.94279943915,69492.73108587837,78646.17967301726,88106.2380636404,96620.88033283576,104072.90301501282,110504.93812886497,116000.9920844798,120652.98439857647,124549.39639099617,127771.44702383086,130392.16181256145
IH,0.0,2289.3459630665543,3244.0183461058205,3578.097397509782,3633.6586983268544,3571.851888006011,3466.6303267675626,3350.4900635101594,3236.6221173528647,3129.522713539319,3029.9907864995184,2937.4209468407316,2850.810868467872,2769.1701514489296,2691.6598538656185,2617.61749309893,2546.538611150892,2478.0461279182705,2412.8148807110515,2351.8015870961494,2295.9469573997567,2246.092163122077,2202.9885470192294,2167.3460603901876,2139.8983700359668,2121.4787680969657,2113.1099846891143,2116.117616709972,2132.284314438459,2164.0730666083887,2214.9667385945218,2290.0027204313255,2396.62991229181,2546.0610828495046,2755.1917051410333,3048.2901827024552,3454.7788869269134,3997.758394304853,4681.6198563433745,5494.261788539983,6415.389285590623,7422.2378919816765,8475.338483405505,9467.116671137708,10339.89027307004,11072.082016590575,11662.53796900883,12120.286286367933,12458.664427345542,12692.18030150307
IN,2289.3459630665543,4555.798466502443,6616.438767858648,8516.073239579233,10286.233172944116,11949.270363279844,13521.174013310601,15013.51417429203,16434.785465213812,17791.33776051754,19088.021716695937,20328.637018597037,21516.24391065085,22653.37979759865,23742.210003521774,24784.632676314624,25782.351782630674,26736.92788830954,27650.76820214355,28526.877179805077,29368.694447788017,30179.99886857798,30964.864791001986,31727.662349386923,32473.09879303403,33206.302953647486,33932.96095303438,34659.51934506063,35393.484037921495,36143.862880504705,36921.83238692016,37741.76368908271,38622.82949165227,39591.52138834499,40685.38870990836,41957.476535659254,43477.66030871401,45323.59418139138,47565.06577694628,50256.88092660497,53439.017015680685,57138.37390206229,61353.42740545496,65994.71061403606,70969.43428449745,76192.82821873255,81590.54003488726,87098.56254313557,92662.37903106157,98235.89705790549
D,19486.0,19486.0,19492.852921448688,19502.563556390985,19513.274222579697,19524.151205802285,19534.843176701284,19545.22017768944,19555.249524756357,19564.938019849335,19574.305923903044,19583.37588938013,19592.168756572417,19600.702365411733,19608.991591169688,19617.048797831638,19624.8843663094,19632.507167471744,19639.92494343694,19647.147456379276,19654.187332308593,19661.060013154234,19667.783458805832,19674.37787822021,19680.865605520317,19687.271170985132,19693.621599267866,19699.946976459054,19706.281356687054,19712.664130260313,19719.142060190494,19725.77233508818,19732.627222472423,19739.80128737806,19747.422659108597,19755.670041826634,19764.794784662306,19775.136309585425,19787.10318776329,19801.117134823155,19817.563641844292,19836.76744919633,19858.98515419496,19884.35520739566,19912.694046496217,19943.645443520752,19976.78858114923,20011.6991878829,20047.980017078684,20085.273746402927
R,0.0,1317.9172158156573,3751.370987951551,6648.931869155397,9710.618596044947,12803.665804695038,15873.275137207464,18899.85227499396,21878.853753865285,24811.531339178287,27700.858401955662,30549.86999023666,33361.09052391287,36136.42436871032,38877.222597858905,41584.39988610023,44258.550279933355,46900.04430111181,49509.644247613185,52088.91876282517,54640.31176732041,57167.09337861317,59673.29475553878,62163.67095478481,64643.7111751533,67119.70748930144,69598.8936731084,72089.67215196794,74601.95940146118,77147.70080555107,79741.64035458589,82402.48802835854,85154.72120371275,88031.38916118296,91078.37823455111,94360.17052383178,97964.85526534072,102002.19698327906,106591.87929980729,111849.777597726,117879.18654469718,124767.11854457,132573.87075212708,141289.9094811978,150846.33104350753,161146.16804804216,172084.17702190392,183557.4707827003,195470.5754069555,207737.3892918921
G,1616083.0,1616083.0,1616785.4109064909,1617955.053784327,1619430.1665234608,1621099.386357551,1622886.0677511524,1624737.5348421359,1626617.6906397443,1628501.9205353488,1630373.5698350281,1632221.5044524577,1634038.4175723,1635819.6561705286,1637562.403401551,1639265.1094534856,1640927.0950802928,1642572.1435576018,1644219.7394171823,1645886.7072389992,1647588.5124557323,1649340.3588323167,1651158.1980341654,1653059.7619679058,1655065.7401372585,1657201.2574438353,1659497.8738175128,1661996.4469394977,1664751.4116283944,1667837.4003007715,1671359.7538414935,1675471.3984292734,1680399.2841119152,1686480.683091073,1694189.227597046,1704067.53166178,1716470.8471724316,1731382.194664068,1748590.5664902895,1767856.4753779862,1788951.9391295856,1811236.6878895347,1832519.06837992,1852525.0356943435,1871254.8147595057,1888784.7868452142,1905211.2622982773,1920630.973234476,1935134.0700561204,1948801.9619345206
H,1524048.1306984287,1524048.1306984285,1524048.1306984285,1524048.1306984283,1524048.1306984285,1524048.1306984283,1524048.1306984285,1524048.1306984283,1524048.130698428,1524048.130698428,1524048.1306984283,1524048.1306984285,1524048.1306984285,1524048.1306984283,1524048.1306984283,1480346.6580349028,1437121.2239497665,1394391.3588817227,1352177.5281414394,1310501.191429728,1269384.8596960711,1228852.1479939483,1188927.8226276736,1149637.8404576152,1111009.3777304494,1073070.845224432,1035851.8858463094,999383.3500924148,963697.2440070615,928826.6434653141,894805.5678217558,861668.8052732435,829451.6817832692,798189.7652452643,767918.4968973086,738672.7430533232,710486.2622249569,683391.0859179765,657416.8160078618,635510.6073933501,635510.6073933501,635510.6073933501,635510.60739335,635510.60739335,635510.60739335,635510.6073933501,635510.60739335,635510.6073933501,635510.6073933501,635510.6073933501
S0,2477592.8682547756,2469591.40967916,2458476.742310018,2447555.191185248,2436792.2515876074,2426164.0861272146,2415654.0266522053,2405250.253540891,2394944.242959839,2384729.7214023806,2374601.558217752,2364556.5287565556,2354591.6871998967,2344704.605350378,2334893.2182971975,2345491.8829685245,2355693.397731677,2365485.0490783225,2374851.8093280247,2383776.1106352103,2392237.453847242,2400211.8071166566,2407670.7175659356,2414580.0102738603,2420897.869420391,2426571.9635763746,2431535.049702969,2435698.0960652926,2438939.2852795366,2441086.1550153755,2441886.7117903796,2440965.4523706962,2437771.8849385395,2431589.384484581,2421826.856126748,2408691.7078469,2393145.7306149495,2375857.187137654,2357105.319491459,2335928.8256229595,2307062.9519159095,2284393.28612436,2263519.51008645,2243773.7508186996,2224904.5555331614,2206780.4467553752,2189317.126610756,2172452.9442725116,2156138.9188273023,2140334.0856704703
E0,0.0,2432.347403700848,4058.361994866841,5125.504739033174,5806.982416953943,6222.256155471972,6453.907441354848,6559.131999029139,6577.606950449088,6536.893915528282,6456.159969554399,6348.741390042771,6223.931059005039,6088.201766504883,5946.0603943922415,5800.641474968774,5737.188764554224,5740.542603619979,5801.246634177511,5914.350294690593,6078.678456559768,6296.498397366608,6573.563730780499,6919.569634540681,7349.125494690257,7883.458854718038,8553.24080620015,9403.223510702144,10499.892987574425,11944.153188619246,13891.990299239982,16585.244372470956,20382.401647605573,25721.378009860742,32807.896248696416,40998.16258199653,49052.43344419096,56332.23690056093,62747.668387805235,68341.24729253633,71812.32883476601,68310.10867796332,63960.67009533671,59638.46344401072,55584.91066688018,51861.84933962793,48468.85031241663,45383.170589556496,42575.241329558994,40014.99246394941
I0,57233.64907666385,52654.95715053075,48829.7161962392,45569.306513056625,42739.58622440027,40244.71404745883,38015.5305746722,36001.55360835943,34165.443343809995,32479.162549946464,30921.30394454525,29475.22364252035,28127.731998752177,26868.17368348725,25687.776064370333,24579.18567794621,23536.13625990115,22566.43105656125,21674.8360985104,20864.230969733184,20136.476908892168,19493.099210878114,18935.86202852059,18467.304182464806,18091.304564686852,17813.757125063203,17643.463075816002,17593.401435731932,17682.636083072193,17939.288334964014,18405.2906387729,19144.049095476745,20252.390888008387,21876.457114527253,24220.400455417755,27504.78617843186,31830.06196964555,37091.310287003434,43090.381707561755,49630.668694213506,56538.06010403515,63445.35065399774,69242.6111880739,73883.79274028301,77465.71612315715,80115.8835038604,81961.43953466963,83119.28898809727,83693.364262689,83774.57670620417
A0,32375.593904624795,31080.5701484398,30056.351254718396,29219.504363356154,28512.21484111235,27894.575847631273,27339.03286775212,26826.569046182743,26344.077995573778,25882.55003631093,25435.817471553546,24999.685079166804,24571.326218844253,24148.8640292301,23731.079521071155,23317.208255713856,22906.798599349386,22507.09216844661,22123.675968040516,21761.062090561725,21423.13640564302,21113.523541798353,20835.90728374198,20594.342109179703,20393.593251986058,20239.5507378826,20139.780279013692,20104.306525513537,20146.782540620687,20286.30153917722,20550.27820643277,20979.075338284114,21633.216035031197,22603.079888910634,24014.860417953776,26008.226286314595,28659.293449675402,31929.50908389385,35724.37568485782,39945.08081354016,44500.5928927944,49186.414037993476,53369.46912691672,56993.58687371774,60083.57668313777,62684.992754129475,64847.13485483542,66617.2921228412,68038.81439435703,69150.6551901607
IH0,0.0,2289.3459630665543,3244.0183461058205,3565.487185960181,3594.8429346836747,3496.244124087584,3347.4449771004984,3184.323479622891,3022.691939640662,2868.9155864422864,2725.036491770341,2591.2132874756417,2466.8590592320434,2351.154520939302,2243.2662688057503,2142.429190349795,2047.9688810778753,1959.2995069310814,1876.442034366946,1799.5975250766585,1728.9810914077239,1664.7740951637315,1607.1276861542187,1556.1875529457434,1512.1276565436674,1475.1896123953554,1445.7292629685817,1424.2755128083268,1411.610391717244,1408.8851288014052,1417.7967452131275,1440.8659695650804,1481.8818646611257,1546.6007070510946,1643.7290481150455,1785.7602085931812,1987.7260620962525,2261.115456506575,2607.441723399751,3019.5310216435587,3485.9536033424783,3994.0643626054234,4522.890386988345,5017.61083428233,5449.137425290957,5806.885925686391,6090.695987807072,6305.573703897513,6458.6833257587205,6557.742829782828
IN0,2289.3459630665543,4555.798466502443,6616.438767858648,8503.46302802963,10241.200658271599,11848.372100664894,13339.676941556598,14726.90139512792,16019.694525511017,17226.115314008308,18353.02066286608,19406.34261401923,20391.288133579852,21312.48453219414,22174.086634211686,22979.856810444384,23733.225669457788,24437.338863159257,25095.622716790116,25711.65993356263,26289.112573016333,26831.680523641855,27343.08768684056,27827.091291112978,28287.51254550044,28728.28960263291,29153.556991609108,29567.759944725658,29975.81840270768,30383.36566200349,30797.103538782016,31225.34412894511,31678.85265147473,32172.159760480317,32725.496447456604,33367.057501198746,34133.57837332403,35065.44506837661,36198.44302917298,37560.07386718372,39169.69987628042,41039.52528167902,43166.94405502214,45504.979061994876,48005.280980986245,50623.85681610267,53322.25358809606,56067.48863360188,58831.585306789755,61591.00402422942
D0,19486.0,19486.0,19492.852921448688,19502.563556390985,19513.236475209666,19523.99726743993,19534.462914281576,19544.48314619582,19554.01509070098,19563.063207831427,19571.651011280086,19579.808127471424,19587.564657678016,19594.948946304823,19601.986885308215,19608.701871936108,19615.11501315098,19621.245397154882,19627.110358515925,19632.727294563156,19638.11420448309,19643.289731378907,19648.273061241678,19653.08383251387,19657.742119741666,19662.26851820562,19666.684346437243,19671.01198814585,19675.275410262046,19679.50092064215,19683.718273228285,19687.962301820684,19692.275385761168,19696.71124656097,19701.340836552565,19706.261170233618,19711.60665957123,19717.556712898604,19724.32512923228,19732.130237591067,19741.16889283891,19751.60373606613,19763.559556540404,19777.098363275203,19792.118064736733,19808.429496622106,19825.811811812644,19844.04368320545,19862.91876891938,19882.252172523473
R0,0.0,1317.9172158156573,3751.370987951551,6641.798598871784,9678.356996666416,12718.679064235464,15701.067881191157,18601.748453867058,21414.241969477094,24139.548004375487,26781.56895218915,29345.050103565125,31834.70757660981,34254.9030363154,36609.5597032762,38902.17688486404,41135.87837837194,43313.46701957943,45437.77384841443,47511.898131487425,49539.25597698385,51523.563104643596,53468.80789913381,55379.238910429005,57259.3772841802,59114.059967986475,60948.51969972579,62768.51111228672,64580.49872915868,66391.93341066921,68211.66169325703,70050.54222950873,71922.39166911208,73845.44976935865,75844.59491604542,77954.30882129566,80221.18855205683,82702.75910482522,85461.15164711804,88555.83196650396,92039.00144853919,95953.69896468501,100328.58296032426,105156.47635944533,110400.07504215515,116008.039631936,121925.1208731054,128097.57679708333,134475.73022028175,141014.94031200328
G0,1616083.0,1616083.0,1616470.155617751,1617116.1232302675,1617931.9474626558,1618856.2421836664,1619846.6358346764,1620873.9013143375,1621917.9153384569,1622964.8700120982,1624005.3444106928,1625032.9684242315,1626043.494671865,1627034.1549165002,1628003.2111920624,1628949.642890788,1629872.9283269786,1630786.1140244307,1631699.8335509049,1632623.2153100085,1633564.599726746,1634532.1401814434,1635534.3509359562,1636580.662052182,1637682.0467690013,1638851.8036945525,1640106.6102153105,1641468.0256212917,1642964.7323834905,1644635.995522028,1646537.1408926342,1648748.32260044,1651388.1883206097,1654632.4458181693,1658726.505728222,1663948.5234876694,1670474.1821731576,1678281.8354480872,1687248.2116916059,1697235.7292148625,1708113.5741202212,1719543.9094785065,1730416.7980649024,1740597.3885121574,1750090.0153142542,1758937.43998481,1767192.266695928,1774907.0313121292,1782130.6497057688,1788907.331290299
H0,533416.84574445,532216.6578415249,530300.6778732954,528391.5954329515,526489.3856893928,524594.023900911,522705.4854148677,520823.74566737417,518948.7801829716,517080.56457431294,515219.0745418454,513364.28587349475,511516.1744443502,509674.7162163505,507839.88723797165,485675.4994729676,463904.3196947114,442533.82412543194,421571.9029659713,401026.8700034701,380907.46997189743,361222.88288444397,341982.724393824,323197.0410487375,304876.2991014729,287031.36528379633,269673.47770918667,252814.2047859768,236465.38974982413,220639.07816361365,205347.4255155126,190602.5819093341,176416.55083617684,162801.01920687352,149767.1562889687,137325.38001803844,125485.09043276098,114254.37179834522,103639.66738669106,94777.30829080734,94436.10998096043,94096.13998502897,93757.39388108287,93419.86726311097,93083.55574096377,92748.4549402963,92414.56050251123,92081.86808470219,91750.37335959726,91420.07201550271
S1,707883.6766442216,662244.3513977103,623267.8536524613,587102.4521391436,553534.4097853238,522369.142429014,493428.5074252992,466548.7788503185,441579.07342052454,418380.081041121,396822.9409189737,376788.55146879674,358166.55073053844,340854.70083730354,324758.25831165095,312498.86850555293,301003.73253729497,290225.80628579576,280120.4294995898,270645.20145126013,261759.84222723794,253426.03913042287,245607.2745833323,238268.6278971009,231376.53734450822,224898.49952106702,218802.6671926129,213057.27991739125,207629.81624151696,202485.68460573166,197586.18600275565,192885.53106415347,188327.62052342936,183847.71423537057,179394.72995675044,174978.55707476195,170661.1279589382,166478.63111399283,162437.54738398734,158459.54651948155,154183.2218098931,150529.03628578805,147178.2541234275,144069.5591342234,141171.726766913,138463.0633888321,135926.2617188857,133546.59730119235,131311.14068690952,129208.34741648592
E1,0.0,694.9564010573853,1120.3466183777784,1368.0890831934266,1497.012331173694,1547.0067304710437,1545.2185738474193,1510.160682258446,1454.4629409092297,1386.726333864418,1312.7810506515543,1236.5446921459586,1160.6139840805743,1086.6705013463059,1015.7629498982745,948.5036532108944,896.2733027323337,856.0332025653225,825.6724983956499,803.7756347555614,789.4671726585019,782.3158921841889,782.2876622204375,789.7432870332992,805.4846429574767,830.8614886075643,867.9647990242628,919.9542363014469,991.60312432771,1090.1984920989264,1226.9877547139145,1419.2669427314197,1692.2306417482196,2075.3789279480998,2578.6212445731053,3148.3245561604194,3691.05205422278,4162.095240330883,4558.0909071533315,4885.27753833788,5058.614601448822,4759.93135586405,4408.864973439366,4065.51938739494,3746.379265833072,3455.452770084182,3192.3674142358414,2955.153725388226,2741.3420020463545,2548.4215839231983
I1,0.0,0.0,110.61589078597501,280.09167558755587,475.44245180725954,675.6858200260472,867.8673043339528,1044.3896498297136,1201.2100592026973,1336.6194519474632,1450.4144886774802,1543.3360857432713,1616.6894489171636,1672.0886871505265,1711.2864361807458,1736.0620429308537,1748.1499698158905,1750.9573816821749,1747.1352023596721,1738.786298061418,1727.6199923905347,1715.069519840969,1702.384819070733,1690.710401011767,1681.1566447705702,1674.8727334125795,1673.130755816006,1677.433853284514,1689.66783778001,1712.3274240758192,1748.8676228177903,1804.2572896893464,1885.8207731498262,2004.3066843857246,2174.2992592494084,2410.7932762491105,2719.0471860205253,3089.026469307768,3504.38313725929,3949.541719967273,4411.165761690019,4863.449860702605,5232.009956941638,5515.206170826174,5721.096528554069,5859.718271268847,5940.943638018393,5973.795800315363,5966.26259585558,5925.299734067923
A1,0.0,0.0,62.57254634748174,160.94351312336332,277.6858993450213,401.3665930043811,524.6014590949723,642.7459283365667,753.0080732425334,853.8448141549168,944.549210771497,1024.967539526197,1095.3049590921885,1155.9922260185838,1207.5942723823587,1250.7478564576193,1286.1193986230444,1315.373358152607,1339.8340175774247,1360.582630838586,1378.5297478102277,1394.4706735180623,1409.130074569177,1423.2005578062558,1437.3795119249244,1452.4086294858407,1469.1214650336187,1488.5064983280731,1511.7971598757083,1540.607323924273,1577.14241991749,1624.532355883959,1687.3391450713725,1772.2107925398977,1888.1855136346976,2044.8322224205226,2246.5080603747197,2488.9830116292965,2764.1707931866185,3064.0057566076466,3381.3065805373244,3701.5223094396524,3982.0365405122075,4219.720856126921,4416.983618654387,4577.621103985481,4705.638624162371,4804.847740825777,4878.730225574383,4930.406211939715
IH1,0.0,0.0,0.0,4.424635631439001,13.402740147982191,25.678948423481586,39.79003972436495,54.49060464807262,68.85777630210396,82.27117185481546,94.3540937223049,104.9111871425957,113.87499616308841,121.26420296082578,127.15265705921038,131.64716758849352,134.8719932685869,136.95827000036255,138.10745978629063,138.52572752504128,138.3996531810718,137.89034117282085,137.13519083977496,136.25248810722064,135.34680229833913,134.5145202214776,133.84951407943956,133.44932253198039,133.42254858918807,133.8986011426531,135.04158585690953,137.07126475664654,140.29561524654952,145.16067806868062,152.3180828644899,162.67506330255168,177.2823116468967,196.87236691584607,221.40792506818974,250.21652619506756,282.3409344852431,316.7719391902823,351.9757398354466,384.21466505464514,411.5654723160301,433.39461843010986,449.78871789419316,461.1857082472692,468.16417419840207,471.33118967619646
IN1,0.0,0.0,0.0,4.424635631439001,15.584056298626844,34.445913807930964,61.128887470893545,95.23229076954271,136.05555385503584,182.74340068459338,234.380744755646,290.0535168551887,348.88642511636766,410.0651388218905,472.8480349196927,536.5710120177256,600.6477836147825,664.5673045712703,727.9599267928445,790.5657356193029,852.2115301855666,912.7942145793323,972.2690532271778,1030.6417554577354,1087.9637539436287,1144.3303821950153,1199.8819877095684,1254.808398065113,1309.3576682158423,1363.8508050448843,1418.7053939574682,1474.4730449306053,1531.898606068873,1592.0124509341774,1656.2645938002647,1726.6739182322385,1805.8389100998806,1896.5424084397027,2001.1380431276164,2121.3019881867117,2258.0706371035353,2411.9365612001006,2582.355190016204,2765.8120363937073,2958.762162862817,3158.018402376352,3360.8269492033423,3564.856425232045,3768.159692992339,3969.1285998966387
D1,0.0,0.0,0.0,0.0,0.013244691239543343,0.05336441403943483,0.1302317024571615,0.24933908992512854,0.4124511050460276,0.618569769390442,0.8648400523918145,1.147279318047783,1.4613201559880868,1.8021932333930555,2.1651851406166363,2.5458035289581575,2.9398757718521886,3.3436011984187237,3.7535716795963716,4.166982142087306,4.581644645992872,4.995929759329317,5.408690299603531,5.819190375099683,6.227048170841562,6.632194889356327,7.034850257158751,7.435514997538408,7.8349818057210925,8.234368468862447,8.635180146312244,9.0394132308321,9.449721950179697,9.869682430766884,10.304205976046283,10.760154475715902,11.247105530059498,11.777781878482791,12.367099040526808,13.02986086992572,13.778858280907327,14.62401680084742,15.572240988646177,16.62584412938981,17.775951173729265,19.007930043797224,20.305252215412892,21.65164843597607,23.032160373823174,24.433561631050992
R1,0.0,0.0,0.0,2.5029018538992696,11.197206550867692,29.161853161645908,58.40045023164126,99.89081733233157,153.79827969752597,219.70804631682964,296.82485881727996,384.12768155684876,480.4825118777464,584.7210725741418,695.6935144835169,812.3020942576134,933.5213024303422,1058.4085528457053,1186.1482952177037,1316.0749850818745,1447.6668114341317,1580.5299432389324,1714.3818829118586,1849.037371846785,1984.3980557672228,2120.4462749328254,2257.243184044948,2394.931619563108,2533.7446247428725,2674.021362114653,2816.2334636933992,2961.0270073581282,3109.2886644211158,3262.2490239079343,3421.6379191532124,3589.887027068848,3770.2845867992673,3966.8444541387034,4183.805382146195,4425.087556839031,4693.969070082738,4992.972506917888,5323.538734502616,5684.63161794099,6073.185905077326,6485.235607610145,6916.617945008383,7363.346118414008,7821.781446422994,8288.694339475094
G1,0.0,0.0,110.61589078597501,288.9409468504339,506.69905711714205,744.9778214805103,991.2141713904998,1237.165901232977,1477.5374825923377,1709.0436800733194,1929.7682729591336,2138.723029119123,2335.543279152477,2520.2776732992133,2693.242517301475,2854.9210389460427,3005.8939292655477,3148.553338717103,3284.8077499291744,3416.2296618196942,3544.1662599937245,3669.8253868354013,3794.346247652443,3918.8626151191356,4044.56569095888,4172.774311182535,4305.022152258968,4443.175710192757,4589.604402951014,4747.437416269224,4920.96380893726,5116.26288563424,5342.166952269868,5611.518525357752,5941.855634972294,6352.293592711949,6853.410964583292,7440.914022752177,8103.39280824832,8828.902041937046,9606.489421257174,10411.666781204962,11169.302866300202,11871.05987674007,12518.166728134058,13114.476193133161,13664.479021584215,14172.606674922656,14642.977134488103,15079.315280368892
H1,152404.81306984284,142718.94289635052,134440.71265769782,126746.88705106327,119595.74771954594,112948.55609948875,106769.34057842569,101024.69885603167,95683.61442214625,90717.28614350878,86098.97002286854,81803.83226101428,77808.81281437213,74092.49869848805,70635.00634126063,64708.40728473688,59276.36079582373,54295.306565384075,49725.5879545603,45531.12078572502,41679.089624932836,38139.66924970971,34885.76917107013,31892.799237723968,29138.454494735175,26602.517599629937,24266.677217375764,22114.360923134136,20130.581239789833,18301.793527830418,16615.764530430057,15061.450459315014,13628.883590461712,12309.066426820526,11093.87258254264,9975.953654433817,8948.65147630662,8005.915304485706,7142.2236600010865,6429.292334321549,6311.255477431202,6200.421510689002,6096.280363871606,5998.358384424104,5906.215736255296,5819.443984333101,5737.66385180866,5660.523137345654,5587.694781211606,5518.875069505328
S2,707883.6766442216,749729.6309461746,787830.3353923972,822702.5471352345,854583.0957261778,883691.5598470587,910231.5897595491,934392.0903775163,956348.2968045129,976262.761994391,994286.1544474786,1010558.4537751907,1025209.3776753832,1038359.2355456457,1050119.606214578,1069820.5520376689,1088374.5786104372,1105832.6579243229,1122242.1087068445,1137646.6931313698,1152086.6803511526,1165598.8669623071,1178216.5389726132,1189969.3508319585,1200883.0821189962,1210979.2071827897,1220274.1694957814,1228778.1766778133,1236493.2010426898,1243409.655490682,1249500.929790867,1254714.9485570001,1258964.003109787,1262125.260979882,1264093.6361396422,1264908.035411654,1264749.5406887457,1263750.5486876653,1261974.3441291654,1258882.14691537,1251283.23350246,1244623.379010944,1238102.8001532236,1231616.6619689215,1225135.761905288,1218651.5596168546,1212162.8296849427,1205671.2598144207,1199179.7307745675,1192691.5673289308
E2,0.0,243.2347403700848,419.7974865379247,548.3054704815942,642.108324931368,710.6925504989775,760.791650162001,797.1877556887385,823.2859540021783,841.5229318105328,853.6559620638691,860.9655014556802,864.3990533394992,864.6693460338385,862.3232747734231,857.7896683002639,864.6638931189823,880.925558186731,905.3977120660466,937.5839491245433,977.5741006125096,1026.0107639820335,1084.1164166358922,1153.7897948384154,1237.792611078987,1340.0669242374681,1466.2555106796317,1624.5527708898467,1827.1085777233566,2092.3597410978705,2448.844780563503,2940.9363813838295,3634.7651268212458,4612.127795816766,5914.639560730789,7430.542623264114,8937.06648464315,10317.562084986295,11554.235512827738,12653.204539114507,13367.113674778957,12768.328483867585,12003.201456307583,11235.964278780171,10512.425870933825,9844.796956825197,9233.62811270588,8675.27146725561,8164.76734787146,7697.020088097224
I2,0.0,0.0,38.71556177509125,102.43728972469629,181.51583614924374,269.19865606808037,360.7833700390805,453.0155575480804,543.6623214365833,631.2113824385015,714.6592899318887,793.3625736719482,866.9330507365624,935.1644065104626,997.9802761863168,1055.397453204405,1107.4996440034574,1156.527826741922,1204.2221166123418,1251.996084772768,1301.0712040323685,1352.5855277743788,1407.68834705233,1467.6315908015247,1533.869254620515,1608.178594966952,1692.8221434810573,1790.7795873911873,1906.0965379043953,2044.4288470065144,2213.9144770810885,2426.5828165545513,2700.56368268819,3063.062481890626,3552.1277437482154,4209.387983328596,5055.35299712967,6073.433520079007,7229.800451088786,8490.498768452588,9825.263614988939,11166.879862640495,12305.858446989305,13231.933827451234,13961.802388737255,14518.116189457036,14923.65869886456,15199.478343642279,15364.359046337448,15434.792586886
A2,0.0,0.0,21.900391221618605,58.822139062641625,105.83763029627158,159.41833164578196,217.03099755268414,276.84998402176757,337.55324682379273,398.17821101839854,458.02019927774063,516.5609428655105,573.418193668688,628.3103048901262,681.0310683003984,731.4317654011185,779.4082373543104,826.0845924959816,872.3580626800003,918.9840200277067,966.6429263610371,1015.9961132631663,1067.736317300578,1122.6386351063904,1181.6181180333103,1245.8018746950781,1316.6268648094817,1395.9806345066968,1486.4130362324881,1591.4658796692827,1716.1993172459947,1868.040649059943,2058.115314993185,2303.0580086794134,2626.2028616759976,3053.6975908742197,3600.5815458906827,4261.234672343596,5019.758859581326,5859.289791592604,6764.188557412133,7697.1703869532885,8538.9194689517,9278.108012202614,9918.648444385184,10468.421243659523,10936.091099319723,11330.025685921704,11657.929523676248,11926.75239254206
IH2,0.0,0.0,0.0,1.5486224710036502,4.867167182555836,9.679647673369171,15.578795050632461,22.17409880775674,29.141295823878774,36.22990930049599,43.25495944422293,50.08437205145657,56.62676656113474,62.82119891414344,68.62912692608157,74.02834028451636,79.00847205512628,83.56771806065038,87.79482073941499,91.80349027693205,95.70678423254589,99.60975187213091,103.61012550979137,107.80245039310006,112.28379329179042,117.16055685528926,122.55671416123926,128.62438191342596,135.55835060718425,143.61725685316986,153.1558788340771,164.67606214462995,178.90840289612566,196.94120487042122,220.4035784894616,251.62714357334488,293.4358711709381,348.0536853999883,415.9223206285817,495.9081577108951,586.0895795779652,684.3009355709139,786.7772778902985,883.2678400433101,968.2673017743425,1039.7073379534354,1097.4660596783347,1142.3942261299526,1175.7566073060225,1198.933159148523
IN2,0.0,0.0,0.0,1.5486224710036502,5.630627835281465,12.8349550028984,23.47455169559263,37.67114098019992,55.41505187232114,76.60739421106126,101.08977556649072,128.66524940810135,159.11309986089827,192.1992908917518,227.68387424325277,265.32624654827293,304.8888822109664,346.13997914899505,388.93969242718197,433.2191801674038,478.9668317566405,526.2200116003688,575.0612325953402,625.61815415148,678.0672362420262,732.6413340644265,789.6420645224603,849.4585296164779,912.5951278159606,979.7130380539768,1051.6930615536976,1129.7327100214043,1215.4986955833722,1311.366255935066,1420.7750926513404,1548.6524514747557,1701.5414462931521,1886.7401517154074,2110.8100910014136,2378.894008134951,2694.725018791705,3060.7883132033458,3476.8556245769323,3934.3214062107354,4424.255545246678,4938.485085343701,5469.824882068546,6012.072981202443,6559.931385136109,7108.906433138246
D2,0.0,0.0,0.0,0.0,0.0046356419338401695,0.019205005812335356,0.04818003458767514,0.09481355371038927,0.1611894356332018,0.24842090453992893,0.3568714081050482,0.48635067603549725,0.6362730875069742,0.8057794833934095,0.9938282748020624,1.1992625007791653,1.4208587160872697,1.6573624431383278,1.9075138037254042,2.17031856099452,2.445122857825385,2.7316112632621525,3.0297828005113856,3.3399290444002228,3.6626245812208307,3.998734556647397,4.349442621730849,4.716303528166814,5.101327373343051,5.507107339941115,5.937010812709514,6.395467168361684,6.8884080067330755,7.423951891902295,8.013475113276357,8.6732305345909,9.426450483469111,10.30482055413672,11.346683428709458,12.59170407565668,14.076154091242582,15.830552908868913,17.878937309647192,20.23407409105858,22.878045436420486,25.776453919646503,28.888710796311003,32.17386246010811,35.59350196475302,39.11300832273909
R2,0.0,0.0,0.0,0.8760156488647443,4.018698671582271,10.742093753063866,22.087000405608713,38.792383349988235,61.33014352453931,89.95707182815362,124.76522886124816,165.72441431013416,212.71569054456387,265.55693257048773,324.02193713208203,387.8545820695713,456.7792852933569,530.5087396372021,608.7973821588565,691.4785119600358,778.4718097012842,869.780587189565,965.4875077721608,1065.752635545033,1170.8155876873534,1281.0028814170014,1396.7416481730934,1518.581500491317,1647.2275021244627,1783.589150155514,1928.85354414941,2084.5963868718254,2252.953371006752,2436.887172010376,2640.593757352114,2870.0514119903983,3133.499411926787,3441.256023810815,3804.599654921707,4234.459270529265,4740.573881129767,5331.133463403152,6011.778629798774,6781.492603747761,7633.594058319628,8558.716202434673,9546.691572011208,10587.56649464385,11672.085364957718,12791.880163409141
G2,0.0,0.0,38.71556177509125,105.53453466670359,192.80806426922675,295.01215108000287,408.13275753644945,529.2276146485758,656.1156231409252,787.15766985777,921.1024879462373,1056.978514880848,1194.017997839218,1331.6039976720433,1469.2330198687346,1606.4886189817282,1743.022606037133,1880.650760295874,2020.8672763056477,2164.9790137950613,2314.2138198364833,2469.8138399010827,2633.1235014009844,2805.6818129143653,2989.3300039974774,3186.348884713556,3399.6467208250174,3633.029936213632,3891.609253718135,4182.429285852606,4515.469223687701,4905.250721327651,5373.358212785653,5951.902106603145,6686.012367011984,7627.442826092221,8810.158878559583,10232.667641279295,11874.909253895394,13713.9916073463,15727.996355358857,17855.63369220953,19887.96266556958,21798.506721790654,23586.929989272776,25260.187981091538,26827.179785655626,28296.89212634251,29677.731096529064,30977.313360784614
H2,152404.81306984284,161476.52813352394,169748.39871976894,177330.49249627392,184272.76427972753,190621.59430398408,196420.04361699536,201708.09123429962,206522.85435217927,210898.79283052092,214867.89906897963,218459.8743197919,221702.29240605733,224620.75174510703,227239.01651231918,220352.56348650917,213151.43874531952,205691.120582452,198022.65325090554,190193.04892230232,182245.65527728997,174220.4910311166,166154.55139349718,158082.08516192343,150034.84485090582,142042.3109655168,134131.8912366592,126329.0953502937,118657.6854287099,111139.80226767863,103796.06711246786,96645.65858740882,89706.36430379673,82994.60669245438,76525.44278031947,70312.53800030162,64368.1147372712,58702.87721201168,53325.915515296314,48827.7162772564,48705.66910735965,48576.64367589808,48441.23754956756,48300.00474758735,48153.45886138446,48002.0759513386,47846.29723651312,47686.53159216001,47523.15786873041,47356.5270451416
S3,2123651.0299326647,2113964.729932976,2104891.923724794,2096374.3650359572,2088363.161343301,2080814.4586397542,2073688.6010206717,2066949.5126982706,2060564.2294002844,2054502.5323873102,2048736.4473066814,2043240.643469554,2037991.5613146895,2032967.4733577468,2028148.3298715805,2041064.3050360612,2054574.7782201287,2068679.6113480243,2083379.8528009236,2098677.696741226,2114576.4090928063,2131080.2093356824,2148194.0905703176,2165923.5499913744,2184274.185320412,2203251.0851365454,2222857.8938579434,2243095.350104003,2263958.954774314,2285435.1891535777,2307495.3809567285,2330086.2394109177,2353118.1833926514,2376464.2824470256,2400014.1851808904,2423807.8036809233,2448035.8636018704,2472835.815958589,2498268.0489126765,2520084.0828529294,2509618.9670274467,2500449.276780173,2491634.7332247165,2483033.3404070223,2474591.992558409,2466283.1362657542,2458089.234766478,2449997.5422143536,2441997.9850512207,2434082.1783046834
E3,0.0,416.973840634431,695.2079906138565,877.872748925189,994.6482660198725,1065.9977074455126,1106.0604693682492,1124.6234059100566,1128.4698982314455,1122.3063644794283,1109.4003655317197,1092.020336858887,1071.7421780531433,1049.6591711173571,1026.5285647362614,1002.873441402699,993.4944317698419,995.891462247041,1008.5424508801732,1030.706093611649,1062.3058665015747,1103.8843296663626,1156.6258274719376,1222.4559613196348,1304.2400815412414,1406.1243089671066,1534.0978934942266,1696.916683800635,1907.6330382184822,2186.149465162952,2563.427539688538,3087.8988203617882,3832.390266385158,4888.656901994509,6308.468553598366,7980.117762075943,9668.609559528,11249.397601235692,12703.711454524935,14038.29943827093,14963.559366261914,14366.071031655196,13560.467380342085,12738.70708325272,11956.399953415876,11229.944262083018,10561.795495002909,9949.149736764946,9387.36070972238,8871.371841475438
I3,0.0,0.0,66.36953447158498,171.7159078938452,297.7092370257623,432.210205184768,567.3077536732832,697.9742696754078,821.142118470699,935.0687837763826,1038.9002690245563,1132.3709935350932,1215.5976889130043,1288.9385834483269,1352.8972643615546,1408.0575628204756,1455.0398622993052,1496.770725169432,1535.544653248748,1573.2303191249955,1611.4289085529322,1651.601332146612,1695.1779867152022,1743.6633488712482,1798.7480341878704,1862.4434854870406,1937.2601663109776,2026.4610092705177,2134.4415767754035,2267.3233241163007,2433.905863273051,2647.212976931093,2926.9353740671886,3302.7803405472996,3816.683184382895,4515.464568408015,5424.419077529536,6529.4136888818775,7797.622037011483,9195.856184563787,10694.657355984788,12220.827630956806,13529.802340462105,14605.831510478085,15464.97913828519,16130.875489749485,16627.87051476222,16978.75700576084,17204.05803386125,17321.915278613604
A3,0.0,0.0,37.54352780848903,98.63698568652921,173.7334910306807,256.340380571997,342.067161894793,427.97204649160346,512.1121070385423,593.2328959818952,670.5539005664815,743.6200334847202,812.198656516313,876.2083279576432,935.6693007956065,990.6691991221574,1041.3392394136602,1089.1380099886655,1135.2406537843124,1180.6382626696764,1226.215539238295,1272.814907910647,1321.2939472064868,1372.5825686083033,1427.746864609798,1488.0682746733532,1555.1502894795294,1631.071520697433,1718.6157954126797,1821.6307970297194,1945.6022854424928,2098.5843112021025,2292.6694478222694,2546.0237661165083,2884.3481411117928,3336.976669076019,3922.0121562707695,4635.674798853303,5463.122070253781,6388.415091075915,7396.860142835317,8448.276028346092,9403.838570538826,10248.643597721011,10985.666696981378,11622.771433224503,12168.983297766536,12633.187849515565,13023.66276583784,13347.93627504429
IH3,0.0,0.0,0.0,2.6547813788633996,8.188080190441783,15.977899401176979,25.229529711071557,35.231553002696614,45.429285261594615,55.424339481210765,64.94901403744626,73.83609959278704,81.99186877520836,89.3744077261371,95.97721411270871,101.81719972137469,106.92612306838063,111.3445836849692,115.20982230110023,118.68182853847338,121.91486519898676,125.04964934396385,128.21455470659254,131.53059975227944,135.1181105219125,139.10451447524486,143.63360161405006,148.87725506033678,155.0514191651126,162.43924219308818,171.42630891306555,182.5562419803306,196.620176751492,214.79894108168315,238.867705646493,271.386154313514,315.4992933797698,373.7819951374805,446.9486672030132,534.0413202607591,633.256309801121,742.5188615712914,857.8698822552842,967.5590895726434,1065.1165166825335,1147.969107235399,1215.7832458703876,1269.3671215459594,1310.034121208399,1339.257929686877
IN3,0.0,0.0,0.0,2.6547813788633996,9.496869880828575,21.31027066305078,38.385576163810995,60.69403054910421,88.00606103062948,119.97168515915115,156.17471965861495,196.16898322301105,239.50213313218467,285.731019357383,334.4312525017422,385.202830551187,437.67310475849416,491.49796820288145,546.4538175276299,602.4110654823035,659.3161675924803,717.1801622586728,776.0724139219506,836.1188092513391,897.5041551136757,960.4790349300538,1025.3719840002348,1092.6086708126716,1162.7410244753655,1236.491277301628,1314.8192974932638,1399.0273390492532,1490.9255847360043,1593.0937438513317,1709.2740200347105,1844.8486072096791,2007.018703873903,2203.9252799363453,2443.062574692257,2730.5368304257936,3071.065709504087,3468.141346648438,3922.2930384202255,4424.262201654507,4964.252840057085,5533.209477187922,6123.112402006022,6726.996098576451,7338.87641782112,7953.649974997359
D3,0.0,0.0,0.0,0.0,0.007946814743726003,0.032456989818131506,0.08028518672578258,0.1558071864962703,0.2612692132662719,0.39725710168077416,0.5631641558952085,0.7575823428135682,0.9786031054024612,1.2240373233897195,1.4915704116826334,1.778868321124489,2.0836476262502193,2.4037199674435503,2.7370185156051976,3.0818872576318626,3.437149092881623,3.802088690528442,4.176411941782312,4.560209011407245,4.953932320484411,5.358394473710619,5.774789516764597,6.204741915891972,6.65039065176847,7.114521112252748,7.600766260383318,8.113913267507543,8.660376583424583,9.248938840174977,9.891917356415536,10.606943241463838,11.41930975477164,12.363724408357507,13.482602329359638,14.820497150566439,16.419094862376543,18.314682431037127,20.537336199670857,23.105281373153847,26.001569896065632,29.189886533340932,32.62621387063225,36.265535850355604,40.065255645369845,43.98670791714228
R3,0.0,0.0,0.0,1.5017411123395612,6.801159043021064,17.93950747827747,36.39517510837635,63.07648220134196,98.41808086784545,142.49726839049075,195.13847082196344,255.99688105993198,324.6214220279444,400.500324007523,483.0931711824711,571.8528627956672,666.2402589267527,765.7336210850744,869.8864130091345,978.3654884863333,1090.95604391718,1207.55525976213,1328.1644823731244,1452.8842417538997,1581.914032466885,1715.5580038633698,1854.237782437227,1998.5143146634355,2149.121889729628,2307.019641373445,2473.4694071241943,2650.1548459733594,2839.3666128021014,3044.292734938098,3269.4640935621132,3521.3646122301784,3808.985242222073,4143.685562201527,4538.042804523763,5004.472646682343,5554.335278760017,6197.548496469031,6941.420381855005,7785.731796188402,8723.699706900108,9745.327161521202,10839.554667239761,11995.436746105677,13202.717781845044,14452.070117260968
G3,0.0,0.0,66.36953447158498,177.025470651572,316.7560724149967,475.07377953606334,644.74814443936,820.7992807353472,999.8050711046711,1179.4231058880107,1358.060093838295,1534.6428398707965,1708.459214731515,1879.0479243798777,2046.1216919689714,2209.513771576817,2369.1406760812847,2527.2747279353557,2685.7903140282265,2846.319552164374,3010.37656712231,3179.4633034002245,3355.1680645405436,3539.267665633806,3733.8454188601277,3941.4407128943276,4165.252872557227,4409.4345288216455,4679.531977068173,4983.1690505511015,5331.137455637156,5739.1570383570415,6230.656473647625,6840.656270053111,7618.78154113249,8622.897579908242,9893.089254502403,11432.037392057107,13222.598835297264,15244.642745810484,17479.11241199659,19860.855275447393,22147.496195429238,24305.909552682184,26333.523701327536,28236.618383854646,30024.08344804734,31705.199580226938,33288.80116878822,34782.98305624947
H3,457214.43920952856,455218.6618955187,453347.5126670266,451590.4309986081,449938.25469857536,448382.4926270364,446915.27654923947,445529.31643057906,444217.8589273992,442974.64884529205,441793.893352897,440670.2287543489,439598.689637584,438574.6802287714,437593.9477952591,436652.55795068335,435637.0314378385,434544.23997044365,433371.7417871477,432117.7231442894,430780.9450814477,429360.69500668906,427856.74267962284,426269.3001976914,424598.9856146383,422846.78983988427,421014.0464836652,419102.40432530915,417113.8020910541,415050.4452334943,412914.7844073542,410709.49533625087,408437.4597630608,406101.7471734138,403705.59697902174,401252.4008468194,398745.6848635757,396189.0912365848,393586.35925261345,390941.30525307136,388264.7433792631,385609.0332452378,382973.9180119548,380359.1500945881,377764.49056698545,375189.70860822947,372634.58098829584,370098.8915900186,367582.4309647703,365084.9959194535
S4,1061825.5149663324,1078893.671339481,1095921.7558092708,1112903.6280857814,1129836.22030423,1146718.4723521394,1163550.610512818,1180333.665871649,1197069.1515201195,1213758.8462683642,1230404.48512681,1247008.1720543897,1263571.7928321646,1280097.1603367757,1296585.9904538838,1324469.1479379311,1352451.9146328287,1380532.97587824,1408709.847151876,1436978.7254122386,1465334.2694411806,1493769.285539685,1522274.280724825,1550836.8229481718,1579440.6106382825,1608064.0909922058,1636678.3578585633,1665243.8698855517,1693705.1975236712,1721982.4538718765,1749957.3009326586,1777451.211009099,1804198.4911014638,1829843.7612748153,1854067.5270830458,1876899.7748818244,1898727.129051615,1919820.4246645824,1940278.6204070258,1959024.5466855073,1969652.8009524255,1983151.6306797424,1997348.8032417158,2011924.9561059803,2026766.0507992043,2041816.567142887,2057043.4941659356,2072424.2372164598,2087941.7425115607,2103582.260288291
E4,0.0,625.4607609516466,1054.6948870811111,1347.7846634491789,1546.304365397529,1679.0676222151985,1766.0658427054443,1821.1800636031442,1854.0541280041427,1871.3913595848912,1877.8534791722007,1876.6829637172127,1870.1395359348028,1859.7988118751164,1846.761337327203,1831.7977701553446,1843.576126447057,1877.8078990212273,1932.0478961764538,2005.3609535198964,2098.140375174779,2212.0637122514554,2350.1892200647044,2517.2180053227466,2719.9776139493465,2968.2313312000806,3275.99920123062,3663.718998061312,4161.822759853309,4816.709489561774,5700.60529180296,6926.6328720652145,8665.264829694412,11132.23015572797,14451.897312838712,18368.035261855777,22333.005766938924,26052.18144904622,29476.468061273466,32616.523535705015,34804.748671917216,33504.43759696602,31756.468217761645,29993.226033153092,28333.846233007545,26809.080685342444,25419.37477348389,24154.542419871854,23001.310380393625,21946.337760728828
I4,0.0,0.0,99.5543017073775,259.4652577541967,453.23430224670767,663.1001128511863,877.3085251448176,1088.2277312049318,1291.0459059766754,1482.8711764805018,1662.109984522338,1828.0382605239836,1980.5059640387794,2119.73473688121,2246.1792796027685,2360.4330900779923,2463.164851609334,2559.5528277729345,2653.6784213428614,2748.9073228325483,2848.1871178279735,2954.2921871046724,3070.041976014964,3198.5171553751197,3343.30021532909,3508.7737841544,3700.5238974909316,3925.921272108626,4195.000038528494,4521.83545035004,4926.762048848959,5439.9838078580415,6107.294072317435,6997.956764819451,8210.03217845113,9853.531453866311,11988.88066378756,14584.504468948157,17564.457852782736,20851.05709134703,24374.52957676121,27964.42305203474,31060.155133424403,33630.00516600514,35713.61274826856,37366.40900421472,38644.285328614984,39598.73269611822,40275.50149012015,40714.569367183016
A4,0.0,0.0,56.31529171273356,149.0253922430365,264.41633214618827,393.0659690620489,528.5233704456264,666.3956293004585,803.7153769320464,938.5022525974413,1069.4586644377473,1195.7586567035107,1316.9012583038339,1432.6089981065606,1542.7573692831056,1647.3259363178213,1746.364469677123,1842.501962395102,1937.8761187928776,2034.3189746304877,2133.5050838226584,2237.0774304792108,2346.7643228418883,2464.5002962872377,2592.565783441328,2733.764738813292,2891.6680262794825,3070.9660131458427,3278.001630143987,3521.604133339208,3814.427286115646,4175.121801763658,4631.777717276105,5226.710495252312,6019.966805900532,7080.389351341986,8450.996572482252,10123.777872326626,12064.515391559604,14235.939633062062,16603.231499438098,19072.855300907897,21326.61662591632,23332.84367524455,25100.062685706263,26647.185549480815,27995.13652249242,29164.042991891918,30172.310114385353,31036.41174287468
IH4,0.0,0.0,0.0,3.9821720682951,12.35777612219983,24.27126842039883,38.586985180995505,54.27032742874172,70.50182032462541,86.68170646051081,102.39622752520341,117.37600057825057,131.45817773639678,144.555820908521,156.63458696186746,167.6955951547502,177.76314168092327,186.87604924120706,195.26074351729937,203.19301567904455,210.94456337942825,218.76832556942998,226.90098980885162,235.57296919184392,245.02200738025718,255.50956414959887,267.3408918658035,280.8911443959023,296.6416043597304,315.232837618072,337.54621977734234,364.83318198463814,398.92385273651735,442.55955177762485,499.87329002554327,576.8416129198637,680.8353486330564,817.9348903449632,989.8992200438385,1194.564762729703,1427.7488583838149,1684.5817930437656,1955.8251964361307,2214.4642421847775,2445.803557006177,2644.125027285241,2808.8039577588443,2941.7655265472376,3046.0261988739976,3124.9151932086443
IN4,0.0,0.0,0.0,3.9821720682951,14.320960657780018,32.30712314107053,58.50805642370727,93.0153168652629,135.61427294480754,185.89996645442648,243.35581384910228,307.4066550915048,377.45411896154906,452.89981633348475,533.1602076453983,617.6757767530551,705.9163425886442,797.3837732271311,891.7920486057772,989.0212649734339,1089.0873452370015,1192.1239564977504,1298.3744044169598,1408.1923394133887,1522.0511022342596,1640.5625998250805,1764.5079251930056,1894.8838018407127,2032.9718147066508,2180.4420981007243,2339.5110951337188,2513.1864661363397,2705.653953789298,2922.8891771441026,3173.5785559654396,3470.2440575438304,3829.6828751230446,4270.941272923316,4811.612038952009,5466.074232673798,6245.455774000941,7157.98239933138,8204.979497419456,9365.335907782237,10616.88275534462,11939.258437721917,13314.522213513286,14727.148404522753,16163.826228322254,17613.20802564384
D4,0.0,0.0,0.0,0.0,0.011920222115589007,0.048911952684984356,0.1215654959363442,0.23707166348508457,0.3995243014278014,0.6105642422967263,0.8700370065688012,1.1765495718134735,1.5279025455013413,1.9214090667299222,2.3541220343713753,2.822991544665635,3.3249710442371687,3.857086707865116,4.416480922086665,5.0009738554062855,5.609211228802246,6.240652062205326,6.895512522255604,7.574717275436067,8.279880706105656,9.013328859798976,9.778170434970924,10.578427871607609,11.41924659417342,12.307212697106424,13.250829742801688,14.26123960079308,15.35333017091651,16.547467654247736,17.872224110294944,19.368543341248163,21.09525932277612,23.133269845843525,25.58167373241294,28.544835135938822,32.120641770856615,36.39446098944707,41.437083156589146,47.29164452685299,53.920415253270505,61.24167640186103,69.1565924542259,77.56445793100966,86.37033017535967,95.48829600852031
R4,0.0,0.0,0.0,2.2526116685093425,10.244535113061303,27.143286066586548,55.324630270678625,96.3441382432385,151.06528029828033,219.82094826732296,302.5608912660203,398.97090974462293,508.5633228528037,630.7430032427709,764.8542717846287,910.2134621133407,1066.1310549109592,1231.9263679643923,1407.0383088130711,1591.1016458094937,1783.9611252839697,1985.6644837789602,2196.452983347821,2416.757795210092,2647.206215051637,2888.6403611017613,3142.151358727343,3409.133604963354,3691.3666557055462,3991.1372412382375,4311.422246361849,4656.1675586464835,5030.720886370712,5442.510460967907,5902.087548438253,6424.558651246701,7030.8974723357505,7747.6518383028,8604.27981109758,9629.926157171403,10851.306866185476,12291.765113094916,13968.550045646429,15881.577103875341,18015.776331055335,20348.84944454012,22856.19196453919,25513.54462645344,28298.260593447965,31189.8043597436
G4,0.0,0.0,99.5543017073775,267.42960189078696,481.95586700363367,728.0804217878489,995.3368431095752,1276.4407311812747,1566.3171244494126,1861.4260674313732,2159.2945695916496,2458.191644355082,2756.902408711797,3054.57165867733,3350.594980349385,3644.5431331928303,3936.1095419304115,4229.550706222759,4528.44052601452,4835.963701211636,5155.156082033665,5489.116120736602,5841.209284615267,6215.287822056621,6615.952254440601,7048.889840492238,7521.341856561122,8042.78114297809,8625.933611166649,9288.369026070475,10055.042460597397,10962.405183514396,12064.914152602434,13444.160370889844,15216.07232570708,17516.374175398352,20440.005901628905,23994.740159892506,28141.453901242938,32833.209768029854,38024.7668207518,43564.62266216623,48897.50858771867,53952.17103097336,58726.179026517195,63236.064302324834,67503.25334706227,71549.2435408547,75393.9109505461,79055.01894681857
H4,228607.21960476428,232417.33993151036,236210.82878063968,239988.72471953157,243751.97831118663,247501.4637670081,251237.98453890008,254962.27851014375,258675.02281373192,262376.8383047936,266068.2937118377,269749.90948977845,273422.1613960647,277085.48380971124,280740.27281161764,272957.62984000595,265152.07327607326,257326.86763801106,249485.64218285438,241632.42857394114,233771.6997405033,225908.4098219889,218048.03498965944,210196.61481153904,202360.79366869724,194547.86153560452,186765.7931994225,179023.2847077011,171329.7854976835,163695.52427269705,156131.52625599114,148649.61898093464,141262.423289773,133983.32574570205,126826.42826645613,119806.47053373004,112938.7207150424,106238.83036654907,99722.65019325977,94534.98523789344,97792.8294483357,101028.36897649623,104241.77758687321,107433.2269036395,110602.88648776108,113750.92390915263,116877.5048142212,119982.79298912367,123066.9504190405,126130.13734374692
E_Om,0.0,0.0,0.0,0.0,0.0,0.0,0.0,0.0,0.0,0.0,0.9983667151623044,1.6562320657571863,2.091442065096261,2.3809777779294734,2.5751982595041207,2.7070876598284137,2.847211851214239,3.0024335652730887,3.17939501129484,3.3851656206367085,3.627905408298222,3.9176384143453604,4.267257453767301,4.693936656902576,5.221231660182096,5.882337291740264,6.725324792773044,7.8218441192697075,9.282041037919605,11.280821521683944,14.10475104905668,18.23397176976857,24.467349402316838,34.01838752154458,48.20895312564576,67.32841526752533,90.36104761965649,116.77902288263886,146.6723634112547,180.15674277576616,212.13334351454512,219.9956689475446,224.7924251219685,228.58463750133538,231.82563160941453,234.63820981700235,237.0638152177798,239.1240880948618,240.8370545425809,242.2209611429808
I_Om,0.0,0.0,0.0,0.0,0.0,0.0,0.0,0.0,0.0,10.0,9.2,8.622909570961168,8.196698501585331,7.873856493226412,7.6229271118071065,7.422986065642795,7.260033078372926,7.132419833192501,7.039722216475751,6.982607281085272,6.962813953792952,6.983240873064087,7.048150308134569,7.16351569013459,7.337566174132519,7.581621922610083,7.9113810905802415,8.348937458010889,8.926021793019622,9.689358253308896,10.709772767252039,12.098037684389489,14.032487571481425,16.80434531900819,20.874688792199244,26.878110589317906,35.44449463985317,46.99166146645638,61.81999192143852,80.22016520574032,102.47801789321424,128.04494320108904,152.8179572080748,176.3726275690335,198.64652900171978,219.65438586162804,239.42929095270304,258.0082861327379,275.4288943848145,291.72850605851414
A_Om,0.0,0.0,0.0,0.0,0.0,0.0,0.0,0.0,0.0,0.0,0.0,0.08989103123768188,0.23541936026759858,0.4143120328267953,0.6121182407885257,0.8194994414536253,1.0304604636676753,1.2455995594198992,1.4661089578601423,1.6937312508040088,1.930775844484789,2.1801944810438902,2.4457233783494994,2.732110149979609,3.0454588308464414,3.393750198957112,3.787634600091124,4.241664608893956,4.776261922145448,5.42094868310758,6.219814348886557,7.240986606385197,8.593099116680355,10.452368537133543,13.097224401786548,16.91397744185928,22.299540195886294,29.54349464329854,38.87631492294568,50.52736164892276,64.72723603798491,81.23822747738696,97.79668801695199,114.12470089467853,130.14103681333262,145.8085322114625,161.10256696087606,176.00323719546938,190.4933836535218,204.55815647886874
IH_Om,0.0,0.0,0.0,0.0,0.0,0.0,0.0,0.0,0.0,0.0,0.4,0.5668026411806266,0.6266210380756057,0.6393027335353542,0.6326919395811134,0.6193691560783311,0.604750002861182,0.5909660676919032,0.5790108310908983,0.5693610948916806,0.5622805148683095,0.5579696867522744,0.5566442534852611,0.558581881802603,0.5641595111503888,0.5738936491249719,0.5884938099114838,0.6089405529453412,0.6366049739392481,0.6734377472404012,0.7222773371876632,0.7873675164346253,0.8752483619931646,0.9963037179924026,1.1673433391477472,1.4151648991559305,1.7784707227185015,2.3016914779412665,3.0236223211524145,3.9755599353020337,5.184686146504426,6.675943964772783,8.439785959470294,10.30734763767765,12.177724937604362,13.998270862986114,15.743408483273743,17.40174960725888,18.96911590302701,20.44493163135057
IN_Om,0.0,0.0,0.0,0.0,0.0,0.0,0.0,0.0,0.0,0.0,0.8,1.528,2.1980470046505816,2.8201680416387878,3.40169572009126,3.948139041026896,4.463757653179967,4.951942236042201,5.415866260116666,5.858558955156439,6.282969720482088,6.692029985518447,7.088718079636578,7.476133021868675,7.857584430399633,8.23670833099236,8.61762321555794,9.00514859386685,9.405121986358681,9.82487455850203,10.273969455486133,10.765387427462635,11.317490967495615,11.957344624138734,12.726255093392712,13.688070727715093,14.937513451647487,16.59944300031122,18.817763332555945,21.749201681121985,25.56253340134765,30.438055978045938,36.5262066145621,43.77344851157233,52.10607802171688,61.44829417883196,71.72601417881982,82.8677469934194,94.80474615588358,107.4709900899313
D_Om,0.0,0.0,0.0,0.0,0.0,0.0,0.0,0.0,0.0,0.0,0.0,0.0011973588193734128,0.002894024172527831,0.0047697497383897055,0.006683436654009922,0.008577334838519714,0.01043135264221536,0.012241609515820191,0.014010605598573506,0.015743814911372046,0.017448138732313687,0.019131267565912175,0.020801492379351815,0.022467749644762083,0.024139807001058437,0.025828560416581717,0.027546451971987157,0.0293080476055976,0.03113084845945567,0.03303645990946352,0.03505232647435667,0.037214389323644646,0.0395712929233725,0.04219125878680912,0.04517359139559092,0.04866791350150434,0.05290406393368444,0.05822773294579544,0.06511760942226943,0.07416851155398484,0.08606894093018853,0.10158876513818912,0.12157251609784761,0.14683614647833676,0.1776901304741394,0.21414289635899975,0.2560452790434355,0.3031715515295505,0.3552618974414986,0.4120439929970132
R_Om,0.0,0.0,0.0,0.0,0.0,0.0,0.0,0.0,0.0,0.0,0.0,0.20800000000000002,0.5102769618398205,0.854984725334833,1.21941025383197,1.5942579104549806,1.9762038565625597,2.3644348530716575,2.7592612916548274,3.1615697281158486,3.572585115145414,3.993786103563781,4.426899026036859,4.8739372687098355,5.337273945829008,5.819747898942056,6.32481181477275,6.856740335887716,7.4209286826548135,8.024332866373843,8.676138432903366,9.388809370007522,10.179786466754868,11.074309522093621,12.110129568816552,13.344952765395814,14.8659750199253,16.79656712363648,19.295147078342165,22.550188469161757,26.776554919580903,32.213612768366,39.10549440962832,47.602516976187175,57.758913315928865,69.57447803748151,83.02043769922139,98.05350476108151,114.62318652246393,132.67552728167715
G_Om,0.0,0.0,0.0,0.0,0.0,0.0,0.0,0.0,0.0,0.0,0.0,0.15890957096116742,0.422531267262226,0.7554251390301312,1.1344042770689393,1.544297399849197,1.9751832978307506,2.4283726989201604,2.9062686688588117,3.4123315107863927,3.9511467659808943,4.528598801555464,5.1521675064710735,5.831384913121862,6.578516652330556,7.409577694738722,8.345866616517688,9.416333471194754,10.661332802844358,12.1387510065752,13.934314180783055,16.17936091930067,19.081653821143764,22.976110574389043,28.390801673100757,36.06419857359535,46.780831471276045,61.16355786906752,79.75122124136617,103.09699387938304,131.7724597833162,165.5376265226481,200.55423598572102,236.33434292332572,272.71805456153464,309.61763374158045,346.9648897015857,384.69822815783675,422.75949930053247,461.0934225250172
beta,1.0,1.0,0.9852588631190322,0.9721550288228324,0.9602846221660846,0.949376624700951,0.9392446203523351,0.9297573292033464,0.9208199912022277,0.9123624017617141,0.9043311154882337,0.896681704572503,0.8893834729177409,0.8824085717094846,0.8757335083034175,0.8693380541230071,0.9104400742788529,0.9562345445101676,1.0075901644523877,1.0655930178749535,1.1316185840525175,1.2074329491200189,1.2953375948155377,1.39838036433599,1.520668710187946,1.6678436463709525,1.8478094037699193,2.0718712138127335,2.356511525028347,2.7260844587071507,3.216451714883788,3.8777969769598766,4.7669902203050665,5.894743234823556,7.066342761738659,7.767901612716678,7.691591619524679,7.159934039648593,6.504596437742809,5.8630832496158245,4.957123180629428,3.0867787585699027,2.4373715530997795,2.0547503588870923,1.795133393191706,1.6054595679744614,1.460166694533749,1.3450626334593845,1.2515244978702202,1.1739707693463517
