series,2021-12-01,2021-12-02,2021-12-03,2021-12-04,2021-12-05,2021-12-06,2021-12-07,2021-12-08,2021-12-09,2021-12-10,2021-12-11,2021-12-12,2021-12-13,2021-12-14,2021-12-15,2021-12-16,2021-12-17,2021-12-18,2021-12-19,2021-12-20,2021-12-21,2021-12-22,2021-12-23,2021-12-24,2021-12-25,2021-12-26,2021-12-27,2021-12-28,2021-12-29,2021-12-30,2021-12-31,2022-01-01,2022-01-02,2022-01-03,2022-01-04,2022-01-05,2022-01-06,2022-01-07,2022-01-08,2022-01-09,2022-01-10,2022-01-11,2022-01-12,2022-01-13,2022-01-14,2022-01-15,2022-01-16,2022-01-17,2022-01-18,2022-01-19
S,6580004.724315508,6577659.042423885,6575893.660139212,6574492.962679187,6573335.611739567,6572351.146576137,6571497.0636307495,6570746.480681773,6570081.417780496,6569489.100375732,6568959.904116777,6568486.197958822,6597190.920080035,6625926.201993891,6654689.211736808,6683465.704302027,6712266.531422282,6741087.571236021,6769925.528787215,6798777.574953815,6827641.14498494,6856513.811639317,6885393.189060836,6914276.8427788215,6943162.188884873,6972046.366120254,7000926.059534386,7029797.24199265,7058654.774748747,7087491.75749775,7116298.410139838,7145060.020840604,7173752.873125257,7202335.305710583,7230725.224267561,7258731.104706412,7285758.552306371,7279173.10764205,7273752.320071068,7265956.309259118,7257025.312604868,7246843.685448278,7235622.683965255,7223529.588855372,7210734.834767668,7197401.612787429,7183682.593598731,7169717.888256325,7155633.970069848,7141543.287830694
E,0.0006580004724315509,2345.6823522221375,3407.3599312279125,3785.849411886591,3807.4455279404615,3649.6770329868054,3408.856868478847,3136.7827569122455,2860.810831114488,2594.884986543961,2345.6157495363755,2115.637182630152,1905.4620036528895,1727.779585723818,1575.6740641146635,1444.4020740445067,1330.5698732607962,1231.6917465974554,1145.8756251564314,1071.6547514316794,1007.8867074055054,953.6947026613709,908.4372226024802,871.6992669557385,843.3034916849713,823.3441059344101,812.2518479826467,810.9068609306125,820.8316952636418,844.5274051179508,886.0819611905773,952.3349728870166,1055.2804231013674,1217.5420006978202,1486.678603850375,1980.8434369593576,3091.242415355742,7290.218536214052,9088.369012105686,11580.714130757784,13719.287647280331,15507.761690781022,16860.52363922316,17762.70917289571,18235.063414240976,18322.141116983224,18081.211919856592,17574.019624372067,16861.12355992436,15998.353871853247
I,21207.73646195747,16117.879888747804,12882.922950548307,10711.008623848249,9162.54589533405,7991.545172997802,7058.987130384766,6285.221573581711,5623.699740288406,5046.430727020101,4535.906298902146,4080.605039540452,3672.481869360885,3305.560961700553,2978.726819037851,2689.2643797797255,2433.8294886246085,2208.9642771351173,2011.3696222040023,1838.027331667278,1686.2475549536846,1553.677552764287,1438.2925098194282,1338.3803575654351,1252.52787382778,1179.6131268640552,1118.8088850189727,1069.6027515697338,1031.842943644263,1005.8251948908232,992.4495474988723,993.5037856205989,1012.1933197511497,1054.192637248243,1129.922744497076,1260.1445088573792,1492.5375547106348,1968.9639937261327,3464.771640009655,5087.086079675873,6992.978235858265,9018.871124017973,11041.437710764534,12943.8340427713,14633.24534918803,16044.733587227964,17140.97562787872,17909.06869554911,18355.87750719778,18502.97026664989
A,2356.415162439719,1885.1321496917894,1578.4761903200956,1365.001750192914,1205.5768825109287,1078.6848718469569,972.4382084671695,880.2162728281012,798.2765009698481,724.4455257093133,657.4029701637695,596.2908486171068,540.50179437259,489.56529560765864,443.48562405784156,402.05872116971307,364.97903915710566,331.9003275235084,302.4710144167304,276.35308028807725,253.2321067734122,232.8222866408949,214.86867039255702,199.14805299212003,185.46942040236817,173.67464107244368,163.64003603598726,155.2795842682692,148.55087324253373,143.46564945193623,140.1083417150875,138.6691322077873,139.50535495284035,143.2626966553133,151.13641734518524,165.50949199165944,191.8328967021083,246.20358982235888,415.66942794430867,605.1866127186174,831.5707140976274,1076.835200696512,1326.70101128064,1567.1765182012068,1786.6224897478367,1976.3498942254987,2130.7441488898953,2247.0316767076138,2324.845930097253,2365.7104508755333
IH,0.0,848.3094584782988,1372.6722317775134,1693.2436752564186,1881.4580322279255,1981.031297012683,2019.6377499376038,2015.4646581026855,1980.9329941084752,1924.8395762777993,1853.613553564393,1772.0716212522382,1683.8862577418934,1591.8871117944484,1498.2633476304743,1404.8489257208048,1313.1090141350574,1224.1671465708594,1138.8491426080366,1057.7316951921127,981.1889522780078,909.4343862104001,842.5570737460891,780.5524614214529,723.348159045418,670.8255177718081,622.8378445824972,579.2261690087922,539.8335783705799,504.5193503851958,473.1745568438888,445.7417252247826,422.2430481857131,402.8257862597671,387.8432871435025,378.015608201807,374.7910846134025,381.31975650932793,405.97924204757,486.9725120116024,621.3675808980195,812.9312704492688,1058.3529117729456,1349.8584500057184,1676.103002602053,2023.6386315717125,2378.3277799190455,2726.5457066854437,3056.0845462069356,3356.7429911093195
IN,4241.547292391494,7897.485140484268,10030.69442757534,11222.390677479625,11815.172458227727,12016.419246334579,11955.680741860535,11716.816493596869,11356.17793865065,10913.026597616754,10415.605166540065,9884.755365213698,9336.137117040591,8781.639241381677,8230.313961810962,7689.740606686457,7165.9090516893875,6663.313348947764,6185.135505364748,5733.458379275893,5309.473620641112,4913.670384093282,4545.999741246034,4206.01455595724,3892.987012248417,3606.007135656543,3344.066201040987,3106.1293066183,2891.2019550282403,2698.396597665161,2527.0073720967926,2376.6058792616423,2247.1804238670356,2139.3620074305086,2054.829409684287,1997.113830827867,1973.4111091961804,1999.4595142119624,2117.196832657388,2517.84027145444,3187.6317412746803,4146.1268487245825,5377.465857674523,6843.313300598316,8487.2577075931,10242.113107069134,12036.981953490063,13803.290548774961,15479.35227086453,17013.370207727196
D,8411.0,8411.0,8411.848309458479,8413.220981690256,8414.914225365514,8416.79568339774,8418.776714694754,8420.796352444691,8422.811817102793,8424.792750096898,8426.717589673179,8428.571203226744,8430.343274847994,8432.027161105736,8433.619048217532,8435.117311565164,8436.522160490882,8437.835269505018,8439.059436651589,8440.198285794197,8441.25601748939,8442.237206441667,8443.146640827877,8443.989197901625,8444.769750363048,8445.49309852209,8446.16392403986,8446.786761884445,8447.365988053454,8447.905821631826,8448.410340982211,8448.883515539055,8449.329257264282,8449.751500312464,8450.154326098726,8450.542169385868,8450.92018499407,8451.294976078683,8451.676295835192,8452.082275077242,8452.569247589254,8453.19061517015,8454.003546440601,8455.061899352373,8456.411757802376,8458.08786080498,8460.11149943655,8462.48982721647,8465.216372923156,8468.272457469362
R,0.0,1056.8924767866638,2643.7897101757308,4537.746090756376,6598.6991291236745,8736.124009582194,10889.98284572317,13019.645101057597,15097.296287565156,17103.903351298803,19026.658445139306,20857.29467099354,22590.92959026887,24225.23873313861,25759.843579691173,27195.92465475837,28535.92646779654,29783.265814189555,30942.068986605955,32016.947623180433,33012.81456869189,33934.737016898616,34787.822607815564,35577.13378479042,36307.625974827984,36984.10571833357,37611.20557928253,38193.373451046085,38734.874744335735,39239.80697722896,39712.127653652446,40155.6983632926,40574.351488991546,40971.99239203667,41352.76343538355,41721.32759204284,42083.41340217885,42447.03712665349,42826.05107937206,43258.6874705601,43795.95194100737,44489.900695850825,45392.22322421038,46549.097142981656,47997.51379884588,49762.75004915227,51857.17445553225,54280.25258616991,57019.508301125476,60052.15562256114
G,1049108.0,1049108.00017766,1049741.33441276,1050661.3215941917,1051683.5009354008,1052711.511227945,1053696.924026851,1054617.3153813404,1055464.2467257068,1056236.665650108,1056937.2845964746,1057570.6008488492,1058141.8228881594,1058656.2976291452,1059122.798117291,1059548.230114602,1059938.218674594,1060297.472540374,1060630.0293119552,1060939.4157307479,1061228.7625136343,1061500.8919246336,1061758.3894943525,1062003.667544455,1062239.026346533,1062466.7182892882,1062689.0211978906,1062908.3291968456,1063127.274049297,1063348.8986070182,1063576.9210064,1063816.1631359213,1064073.2935786007,1064358.2192928384,1064686.9556330265,1065088.3588560664,1065623.186584045,1066457.8220361914,1068426.1810409692,1070880.0406742373,1074006.8334895421,1077711.0411543075,1081898.1368108185,1086450.4781934088,1091246.4096700903,1096169.8767919354,1101116.8548935212,1105998.7821118825,1110743.7674104632,1115296.2707716424
H,728230.9524256071,728230.9524256071,728230.9524256071,728230.9524256071,728230.952425607,728230.952425607,728230.952425607,728230.9524256072,728230.9524256071,728230.9524256071,728230.952425607,728230.9524256071,707503.7947088953,687000.5635657302,666730.6114649426,646703.706886564,626930.0626341712,607420.3627477016,588185.7874045763,569238.0350329163,550589.3406674667,532252.4893539402,514240.82314925804,496568.239973773,479249.1822499186,462298.61291694455,445731.9760564192,429565.139019011,413814.312641118,398495.94592461456,383626.5914838951,369222.7382175196,355300.60812866007,341875.9151021948,328963.58485169907,316577.43726779614,304729.835083485,304729.835083485,304729.835083485,304729.835083485,304729.835083485,304729.835083485,304729.835083485,304729.835083485,304729.835083485,304729.83508348494,304729.83508348494,304729.83508348494,304729.83508348494,304729.83508348494
S0,2303001.6535104276,2296529.9132741583,2287289.2808843125,2278281.4354749415,2269439.3899328075,2260724.112474662,2252111.962653148,2243587.9104255624,2235141.8348609037,2226766.485017143,2218456.345997214,2210207.0011942848,2211791.412322477,2213236.3371349717,2214536.5295203864,2215681.8005882734,2216672.2076219455,2217501.3821408986,2218163.125078899,2218651.254622145,2218959.521657032,2219081.5582060223,2219010.8413580614,2218740.663132062,2218264.09975491,2217573.973858047,2216662.800493742,2215522.7017680467,2214145.262581268,2212521.275019908,2210640.2658384554,2208489.5800774344,2206052.489605627,2203303.9363358063,2200199.675471343,2196642.7661721264,2192340.8966483213,2181217.01970312,2170746.950005497,2159252.5965365916,2147330.4447140163,2134956.9190069237,2122243.3918469623,2109277.0276001072,2096140.5560585319,2082908.6106635865,2069647.179357736,2056413.60385898,2043256.9283084401,2030218.4444920965
E0,0.0006580004724315509,1292.8959914154996,1881.6678022392484,2093.5664962799033,2108.0420857581357,2022.8952713391836,1891.2806206931168,1741.8502301841456,1589.7880225565918,1442.8789524627819,1304.8563685582587,1177.2512818957566,1060.414662046789,961.4675537075095,876.5999965087815,803.206447641114,739.4266989463788,683.8998838503769,635.5896493462433,593.6908651196464,557.5738377521568,526.751937872064,500.8648086267749,479.67329216344086,463.06501135230144,451.0720025102654,443.90470901615777,442.0111242078766,446.17795730599346,457.70680237735814,478.732982249614,512.8357451407551,566.2965852646583,650.9654946851512,791.7463185851673,1050.4766616911415,1631.762277890123,3827.627189098931,4759.8796702879035,6047.33559125877,7143.323032732511,8050.7299772990345,8726.73540544404,9165.582567321395,9380.022663074667,9394.962468423117,9241.58144742345,8953.00744894307,8561.385964191004,8096.079075474554
I0,21207.73646195747,16117.879888747804,12598.670633130516,10083.039987783788,8228.373344711254,6822.735105135249,5731.4604031643685,4866.555673992061,4168.8818743836855,3597.5929906218807,3123.7479900375806,2726.359691939291,2389.8912119857155,2102.629279861777,1857.594492195978,1648.4538131263143,1469.6906388390996,1316.610094233238,1185.2766402568627,1072.4194519187013,975.3353170405176,891.7997771438756,819.9908538548027,758.4265472588793,705.9159648008773,661.5236863137882,624.5474422762506,594.5103275643131,571.1708524850046,554.5578963612218,545.0448378764153,543.4919819934714,551.5195575030422,572.0549417237698,610.5224392750558,677.7685598670375,798.7328041555568,1047.6127461885562,1829.6450281600141,2675.697732379345,3666.3108862481704,4715.093492386388,5757.1681480843945,6731.66635201403,7590.773720707439,8301.594146767813,8845.851418017779,9218.074068497845,9423.04830327299,9473.090920819042
A0,2356.415162439719,1885.1321496917894,1546.8925994958965,1293.9641136638948,1097.9782858195128,941.6238912283543,813.9859711228589,707.9271955190807,618.5972633207889,542.5714513333289,477.3435296405466,421.020514769185,372.1339502722207,329.51960007918024,292.4597066745695,260.265765234919,232.30880561716862,208.02984546212625,186.9408728852123,168.62038778855714,152.7070361844351,138.89284408011278,126.91683340025214,116.55941097900497,107.6377275481072,100.0021323790548,93.5338659785518,88.14423405332617,83.77572096889723,80.40591549429759,78.05593646675881,76.80673864089546,76.83046326693902,78.45326817149096,82.2915793777473,89.58565305975286,103.18282229853654,131.49912617553292,220.02811661339427,318.8188833993525,436.4751744572451,563.4798305477714,692.3057637571881,815.6466731690716,927.4848155548991,1023.3885323361593,1100.559699921621,1157.6952033600003,1194.7463861562924,1212.638687850764
IH0,0.0,848.3094584782988,1372.6722317775134,1681.8735825597068,1846.5823061240935,1913.7366015898613,1915.1379691357342,1872.6895320306783,1801.6672036068692,1712.8140919532534,1613.7153049203812,1509.7221851284846,1404.5873755857858,1300.909644256702,1200.450532628677,1104.4424904335383,1013.6897943162737,928.6619514255519,849.5740633996062,776.4532931454974,709.1921168806552,647.5901370841664,591.3864089441237,540.2841296029263,493.96932459324336,452.12492832450926,414.44144152616093,380.62518381503315,350.4050639942443,323.5387918690994,299.81960691586096,279.0850175461817,261.22999758042033,246.22923039629597,234.17808621582614,225.3753769621871,220.51138152744574,221.17602671814976,231.70157421501432,272.0151193299135,340.4513588364554,438.8028525899306,565.1522042529263,715.2589486349308,883.049489082246,1061.399334515882,1242.8789242848582,1420.381705187488,1587.5904952025867,1739.2757996734085
IN0,4241.547292391494,7897.485140484268,10030.69442757534,11165.540213996068,11640.577329685659,11679.095093037924,11431.167251503764,10999.214639722875,10453.918641590153,9844.374203463778,9204.72877267345,8558.627020949461,7922.251681069601,7306.443839113082,6718.205151990985,6162.174711819833,5641.084507052934,5156.186013255041,4707.618945932702,4294.716622953522,3916.250242689626,3570.620015637218,3256.002135616646,2970.460204667124,2712.0287737286767,2478.7755750554757,2268.8480355136453,2080.508903669708,1912.1654007735926,1762.396357216389,1629.982593108655,1513.9479304315555,1413.6230282270312,1328.755003888831,1259.7113645244237,1207.893738277532,1176.679539372411,1173.967779296523,1221.4064069210872,1418.7018743857793,1757.9682738676468,2248.516471291781,2881.0936279261336,3634.7489181504743,4479.250392891904,5378.9772019820575,6296.647268277233,7196.470624089764,8046.504352263082,8820.172977147875
D0,8411.0,8411.0,8411.848309458479,8413.220981690256,8414.902855272816,8416.74943757894,8418.663174180529,8420.578312149664,8422.451001681695,8424.252668885301,8425.965482977255,8427.579198282176,8429.088920467304,8430.49350784289,8431.794417487146,8432.994868019776,8434.09931051021,8435.113000304525,8436.041662255951,8436.89123631935,8437.667689612495,8438.376881729377,8439.024471866462,8439.615858275405,8440.156142405009,8440.650111729601,8441.102236657925,8441.516678099451,8441.897303283267,8442.247708347262,8442.57124713913,8442.871066746047,8443.150151763593,8443.411381761174,8443.657610991571,8443.891789077787,8444.117164454748,8444.337675836276,8444.558851862994,8444.79055343721,8445.06256855654,8445.403019915375,8445.841822767965,8446.406974972218,8447.122233920853,8448.005283409935,8449.066682744451,8450.309561668735,8451.729943373923,8453.317533869125
R0,0.0,1056.8924767866638,2643.7897101757308,4531.429372591536,6568.724079555886,8655.610698326333,10726.00463919116,12736.838241091991,14660.842678978403,16481.68966407103,18190.657675818195,19784.30705556629,21262.837911822986,22628.91957866402,23886.851414952547,25042.00406624816,26100.424592839187,27068.524754178303,27952.843439283562,28759.871526692143,29495.927375945936,30167.072274004564,30779.056807358647,31337.290802845626,31846.831008202083,32312.382010881258,32738.30702348423,33128.64613093978,33487.14045389897,33817.2615133075,34122.24600180216,34405.13738262571,34668.83764318506,34916.175991163924,35150.008385126406,35373.378243842286,35589.81264778523,35803.97168874592,36023.51322191813,36268.79293784541,36566.74951618858,36944.719021243145,37429.67211437549,38045.526435856584,38811.24842083638,39739.571372904276,40836.42061919712,42100.967883866266,43526.181801084145,45099.7211512501
G0,1049108.0,1049108.00017766,1049457.0820953422,1049965.132401947,1050530.3953559424,1051099.566719097,1051645.7484423586,1052156.3942099458,1052626.6937720955,1053055.9365381857,1053445.5138553507,1053797.8250748613,1054115.682920973,1054401.9948797256,1054661.5911192265,1054898.2731182838,1055115.138859147,1055314.7840678624,1055499.437036502,1055671.0462418254,1055831.3427754077,1055981.8877116009,1056124.1107348264,1056259.3442331557,1056388.85602204,1056513.883575105,1056635.6730157828,1056755.527287217,1056874.8702907532,1056995.3383392259,1057118.9191758677,1057248.177081075,1057386.642732263,1057539.5428102845,1057715.3034938495,1057929.0749998675,1058212.703698524,1058653.2795135544,1059686.738854611,1060971.9063655888,1062604.6869752286,1064533.3841940663,1066707.081287937,1069063.2998474068,1071538.0071405836,1074070.6132596137,1076607.253126088,1079102.4801168924,1081519.792128107,1083831.3663384386
H0,254880.83334896248,254307.35147392732,253391.8450086212,252479.63436659015,251570.70768287042,250665.05313521207,249762.65894392531,248863.5133717272,247967.60472358897,247074.92134658404,246185.45162973634,245299.1840038693,234639.46266379714,224168.99844932163,213891.30700864198,203810.0998447311,193929.28835743852,184252.9868133773,174785.51387909282,165531.3922787687,156495.34605247877,147682.29479454484,139097.3441444351,130745.7716864459,122633.00729235857,114764.60681875228,107146.21795605145,99783.53693186791,92682.25471364961,85847.99135745679,79286.21723921761,73002.16011620752,67000.69733831743,61286.23310081921,55862.56143853312,50732.71672871664,45898.81479580367,45733.57906253878,45568.938177913646,45404.890000473155,45241.43239647145,45078.56323984415,44916.28041218071,44754.58180269686,44593.46530820715,44432.928833097605,44272.97028929846,44113.587596256984,43954.77868091046,43796.54147765918
S1,658000.4724315509,615836.270291882,579868.7684307885,546498.2453705939,515519.03631980944,486748.8240612186,460022.93044698396,435190.97370904346,412114.7551984492,390666.80559223343,370729.2991838625,352193.1847677673,336444.61814483337,321742.87876389414,308017.9515956893,295203.7739631239,283240.0043861276,272069.4120736335,261638.5598700024,251897.53059371587,242799.68251624156,234301.426289162,226362.01912519036,218943.3736776528,212009.87980538263,205528.23768828134,199467.3007382417,193797.9264328645,188492.83242780002,183526.45364715956,178874.79244722394,174515.24563330566,170426.3711810301,166587.49830288248,162977.88821425728,159574.33671621332,156341.2396939029,152840.00468066824,149594.8473894407,146474.57727097202,143508.14570600624,140681.9961702041,137992.21780292375,135433.71355842488,133001.5622957941,130690.80225697065,128496.41595899753,126413.34311211648,124436.50806996165,122560.85246856166
E1,0.0,369.3987230900484,520.4745450697285,561.1632320993941,546.9436004073384,507.1757784533155,457.34835327729695,405.5163034940082,355.726280484956,309.85873386193015,268.6284197257507,232.13253594685725,200.1530043566064,173.44705514532353,151.0067367445804,132.07412946852298,116.05855195160862,102.49047509185459,90.98874771485744,81.24091868579382,72.98969355030673,66.02324158722672,60.16808971179748,55.2839240067916,51.25997763543615,48.01294334988144,45.486602755497756,43.65371049219459,42.52126415443995,42.14144809349382,42.63301261449094,44.223604823341546,47.33832059294665,52.80243835691627,62.371337501142925,80.41953981740019,121.41441748814853,276.49213660164224,339.3300080050058,424.66143730945953,494.6778778974815,550.1359192202988,588.7899432564161,610.9161966723834,617.9629874380539,612.072702085525,595.6714138500931,571.1857936136272,540.8657397383379,506.6875743006887
I1,0.0,0.0,99.73765523431308,216.32874514690462,315.9239189784839,387.77695053362913,431.64794258795337,451.5364917517147,452.6571356746854,440.065518843699,418.1116524639324,390.2945291985413,359.2996268965428,327.10902761765624,295.4335658786561,265.3013289888154,237.2890249880009,211.675468017815,188.54578396834015,167.86175769895002,149.50998389636635,133.33480501982123,119.16072704361535,106.80753677533298,96.10038743108679,86.87648840919371,78.9896258954552,72.31349842453035,66.74476063553561,62.20675940470585,58.655328132819776,56.08896278685558,54.56798502031246,54.253015175533065,55.48894988977252,59.011863041535705,66.56229166226518,83.36923438512164,138.01349501513585,196.50935837285482,264.00570043692375,334.20735936438206,402.53429130641103,464.8993460721048,518.2708761163432,560.7358724566953,591.4188926301802,610.3096401384621,618.0554907809105,615.7559227228433
A1,0.0,0.0,11.081961692701451,24.479805706253018,36.41874152798424,45.54330123460754,51.649914341285495,55.0403820713473,56.19779476189809,55.63002422406715,53.79978139511162,51.09867770786182,47.84291824469517,44.27892472645433,40.62655143552317,37.03144325075595,33.58737848466045,30.351659346276616,27.35604172977693,24.61449581526727,22.128824212787627,19.892750176739302,17.894897389008243,16.12096060256052,14.555286202252162,13.182028290864814,11.986010933188293,10.953406829215567,10.072336778138292,9.333507347143831,8.73104932051988,8.263829834850632,7.937772012580752,7.770367227853001,7.800366932989888,8.111433671426198,8.901733131662965,10.763819029974828,16.90581932202913,23.70455569777348,31.70348767750257,40.2031264789265,48.666578759750166,56.59696130549261,63.605054944565595,69.42293357879409,73.90052792560101,76.9905647559836,78.7280256131957,79.20839268270669
IH1,0.0,0.0,0.0,3.9895062093725233,12.076651792280982,23.000254678782333,35.248211753745636,47.51335100056887,58.833937013017675,68.59326042125873,76.46433219925922,82.34055476594474,86.27041359233422,88.40293447192052,88.94528370651216,88.14366962148164,86.25049365858669,83.50541656762752,80.12525021392709,76.29945169383383,72.18907060354717,67.92777169666132,63.62402997176342,59.36391096551616,55.214061289245784,51.22467831138644,47.43232611236348,43.862532755008914,40.53215249422962,37.45151460253005,34.62641677997484,32.060067524092894,29.75515997111122,27.71641803940005,25.95432026335821,24.49165441911504,23.37741826201666,22.723279557736305,22.83422334812527,25.115197607294967,29.412397163084382,35.79979272254943,44.089054054206045,53.935368195157636,64.87935591152322,76.40554569379398,87.9950772929408,99.16768515269086,109.51082869351153,118.69639084177298
IN1,0.0,0.0,0.0,19.94753104686262,60.45922317996917,115.29670122885405,176.93364637158754,238.83488193522794,296.16743007115554,345.80848579505965,386.07752325019555,416.3960407093904,436.9652058487122,448.49550768852646,451.99575795813405,448.6776536470842,439.7912161998205,426.52922439397065,409.975538772421,391.081401794674,370.65907955318556,349.3860115180733,327.8149749361414,306.387329030145,285.44745410064706,265.25721420758686,246.0097610157112,227.84233593243522,210.84797183015755,195.0861879208046,180.5929552685048,167.39044527072997,155.49746742321938,144.9422986184189,135.78143576663825,128.13255485682086,122.24429971216686,118.67909253997209,118.96750442329068,130.14494883116092,151.4783514755705,183.36562520337975,224.89071263526256,274.3480231311527,329.45001847193305,387.6186600109189,446.2492443428155,502.92159807887197,555.5476298936197,602.4570160573271
D1,0.0,0.0,0.0,0.0,0.003989506209372523,0.016066158001653508,0.03906641268043584,0.07431462443418148,0.12182797543475035,0.18066191244776802,0.24925517286902676,0.32571950506828595,0.4080600598342307,0.49433047342656494,0.5827334078984855,0.6716786916049976,0.7598223612264793,0.846072854885066,0.9295782714526936,1.0097035216666206,1.0860029733604544,1.1581920439640014,1.2261198156606627,1.2897438456324262,1.3491077565979424,1.4043218178871881,1.4555464961985747,1.5029788223109382,1.546841355065947,1.5873735075601767,1.6248250221627067,1.6594514389426815,1.6915115064667745,1.7212666664378857,1.7489830844772858,1.774937404740644,1.799429059159759,1.8228064774217756,1.845529756979512,1.8683639803276373,1.8934791779349323,1.9228915750980167,1.9586913678205662,2.002780421874772,2.0567157900699296,2.121595145981453,2.198000691675247,2.2859957689681876,2.3851634541208786,2.49467428281439
R1,0.0,0.0,0.0,2.2163923385402904,10.428425092823618,27.760756366078105,56.02798226869505,95.75184833584359,146.42803527114762,206.84609371629352,275.37912059003713,350.2146691023237,429.52372713106877,511.5751281021852,594.8060772370425,677.8662164473984,759.6362937954025,839.2239538926052,915.9467446448186,989.308751390802,1058.9748762816846,1124.7452151307646,1186.5309689060027,1244.332663756544,1298.2210253979388,1348.3205844314803,1394.795928020447,1437.840426536512,1477.6672293545444,1514.502328911259,1548.5795315980695,1580.137253050927,1609.4171954197107,1636.6652218036422,1662.1352631011239,1686.0982768950644,1708.8614104066514,1730.8126754901407,1752.5519765952995,1775.5751263729499,1801.8225661241834,1833.2205500801083,1871.6207930670832,1918.614625041676,1975.4099419347385,2042.7562525144058,2120.9209271430345,2209.7086102862986,2308.512693830005,2416.3871575994003
G1,0.0,0.0,99.73765523431308,240.26578240313978,391.7798550699762,539.4546271799576,676.3920873623528,799.876142747223,909.3655446906051,1005.4116404215433,1089.0734985642644,1161.603171890217,1224.2789565958685,1278.3202677721522,1325.1509726613895,1365.9227915824263,1401.5828065389276,1432.918615565862,1460.5910438406627,1485.1580057236743,1507.0930537688387,1526.8002710274216,1544.6265462559727,1560.871930478158,1575.7985899599917,1589.6387839215595,1602.6022786260276,1614.8836613700119,1626.6701632029044,1638.1509045246032,1649.5290955098465,1661.040008915759,1672.9803822180613,1685.761728778157,1700.0183871345243,1716.858648259833,1738.5719240105311,1771.3538167323313,1846.0066936147748,1937.6257957761263,2052.2843838496806,2185.8474108820005,2334.3841090714814,2493.3573937507135,2658.304766852257,2825.154773460532,2990.414403023624,3151.2456847631493,3305.4658490388288,3451.49959876818
H1,72823.09524256071,68194.92745741297,64239.36767576104,60563.05205523771,57146.046449297595,53969.84053629181,51017.24611784345,48272.3026816242,45720.1897096464,43347.14525024801,41140.39030636371,39088.058624633355,35691.96623959054,32587.924606401946,29749.95506766153,27154.400343041816,24779.727149593775,22606.345231103594,20616.441424179553,18793.82749492231,17123.800576784088,15593.01512829113,14189.365409416288,12901.877548279632,11720.610336297723,10636.56395074403,9641.59585988652,8728.343218555627,7890.151112490267,7121.006059670227,6415.47422787555,5768.643881939973,5176.071633730371,4633.732134864552,4137.970928270833,3685.4602607523575,3273.157754173806,3204.596504997713,3140.3376392658733,3080.075985330229,3023.528161808344,2970.4310211636166,2920.540204458226,2873.628799337918,2829.486093874918,2787.9164194219697,2748.738076119552,2711.7823351524867,2676.892512273834,2643.9231075055523
S2,658000.4724315509,697013.0312043299,732582.3442389994,765180.2664693813,795020.9249432374,822303.9969971674,847215.3449377564,869927.7557266357,890601.7286708015,909386.2715583219,926419.6798227272,941830.283699437,959974.5667750722,976784.9840469573,992342.8106881751,1006722.2915264918,1019995.6432820294,1032228.3264951638,1043481.3284918626,1053811.414837721,1063271.3812646559,1071910.2980381786,1079773.7432751842,1086904.0239183388,1093340.383991159,1099119.1998948345,1104274.1620066848,1108836.440545312,1112834.8310151992,1116295.8691571713,1119243.8938774639,1121701.0104792845,1123686.8410256207,1125217.7637390522,1126304.730634365,1126946.204008297,1127097.535562067,1124161.7281287792,1121124.1249396105,1117622.8401172094,1113806.3887015618,1109671.1305289294,1105252.4769622586,1100580.9325426267,1095687.756915606,1090603.537210855,1085357.6038731232,1079977.6045487912,1074489.2202593326,1068915.997894544
E2,0.0,129.2895530815169,194.24874741354634,223.00801102509524,231.63714895407463,229.24659338215713,220.97585043383174,209.71317652171226,197.07838030556826,183.98014263614874,170.92952091624576,158.2149270990517,145.99911662658187,135.49439222919847,126.29159470767496,118.13817662051834,110.87344086392838,104.39447227972823,98.6320425329682,93.53860525816845,89.08182614797278,85.2415517972355,82.00904869580826,79.38795503989462,77.39683885726583,76.0736704774982,75.48302653086046,75.72763955575331,76.96735636300423,79.45146253670623,83.5765709793278,89.99685113191599,99.85083661767518,115.27762955494899,140.76474707885382,187.44849115508666,292.17748053959036,687.7269980835906,856.7050971766657,1090.5443948065665,1290.5877823141655,1457.19009790852,1582.3792516045426,1664.8653457789342,1706.722454466255,1712.263928909524,1686.9890719046439,1636.8019798737328,1567.476228848883,1484.3206295307727
I2,0.0,0.0,34.90817933200957,78.97737809398478,120.23497032820416,153.9206076670353,178.87624204012928,195.60942356763283,205.28571957226325,209.2283095574235,208.68815377540201,204.7539675166919,198.3310456294298,190.15135616754375,181.09851658921684,171.73360317887705,162.4148461034865,153.3711120719104,144.74855269017854,136.6395515284371,129.10148258131767,122.16921982175407,115.86382604978668,110.1989509457061,105.18595057950819,100.838468931888,97.1771274171594,94.23503400037346,92.06508852033723,90.75065349346744,90.42239153994593,91.28669173477742,93.67703552404816,98.1542728850489,105.72220737247339,118.3553593143703,140.56116569079484,185.71440567069348,326.82923779229657,479.70059695984514,659.0194402872553,849.3134758431387,1038.9195680760859,1216.8212696710518,1374.2978083103117,1505.2813970217258,1606.3251225420831,1676.294142546237,1715.9200829010479,1727.3178447939947
A2,0.0,0.0,3.8786865924455074,8.930411696362796,13.834569687843095,18.016770218896713,21.290813976582083,23.661926694280616,25.22093665107586,26.089100730027734,26.39068486310665,26.24043351797269,25.7387946273497,24.971009200677216,24.041639127417724,23.022059143164427,21.96179261314709,20.895637316435522,19.848344021540264,18.837636493221257,17.87626735232206,16.97346866629683,16.13602148695453,15.36908865043787,14.676909571547135,14.063432822955683,13.532956372689492,13.090855894077407,12.744513901934525,12.504631812437747,12.387249326051384,12.417096590220941,12.633582806134232,13.10239134343764,13.94024196139858,15.37513598148448,17.923563519840183,23.104175232059855,39.115150128155605,56.99327301782446,78.31095025845656,101.3663936761902,124.80881787820776,147.3184318507025,167.80070585393003,185.44223831713168,199.72170852099106,210.38703897393216,217.4136905753577,220.95523932575264
IH2,0.0,0.0,0.0,1.3963271732803828,4.35732081900107,8.548532354068152,13.492548569058485,18.73336649668291,23.899979798711417,28.720640705834782,33.015082368851445,36.67865139291865,39.66509051235569,41.97091692415483,43.622420664057,44.67750661324382,45.20830755042809,45.291051749052,45.00030739780422,44.40590951813033,43.5714807526303,42.55391235243232,41.403419180728825,40.163934466734126,38.87370447673975,37.56600359763104,36.26993123001896,35.011283204468,33.81351993175395,32.69888941141623,31.689817747588116,30.81077588486924,30.09101855835013,29.568989296537822,29.300111518592793,29.372097685105974,29.939197017695598,31.314072378370096,34.300019298634574,42.50693350151339,55.66436045772596,74.12785418635039,97.58363342397848,125.29590865365134,156.1926213179514,189.0049784014791,222.40148320216707,255.10166625562698,285.9613287724816,314.02786820212043
IN2,0.0,0.0,0.0,6.981635866401914,21.81319157150284,42.848546224921776,67.7167810278436,94.1427085928488,120.26677541979222,144.71928082236974,166.58426781040814,185.3224330929819,200.68667537376447,212.64506837919765,221.31648734910385,226.9801184988638,229.98881744160923,230.71836879555383,229.53844779811214,226.79692077730556,222.81210259277861,217.8698347456921,212.2234688102867,206.09558992272972,199.6807819270143,193.14903465273966,186.64959707110867,180.31523636932897,174.2670108191124,168.6198447434442,163.4894679360503,159.00176447479117,155.306516060867,152.5995210664429,151.16171494685466,151.43600650033827,154.1990583648124,161.0217906072994,175.93318996904958,217.00881263804732,282.98759919167856,375.72078986392364,493.70957492470666,633.3294507758651,789.2530416312597,955.1443416521417,1124.3285685761746,1290.3631116435047,1447.4678910139846,1590.8071790401923
D2,0.0,0.0,0.0,0.0,0.0013963271732803828,0.005753647992281454,0.014302180346349606,0.02779472891540809,0.046528095412091,0.07042807521080241,0.0991487159166372,0.13216379828548863,0.16884244967840728,0.20850754019076298,0.2504784571149178,0.2941008777789748,0.33877838439221863,0.38398669194264673,0.42927774369169874,0.47427805108950294,0.5186839606076332,0.5622554413602635,0.6048093537126958,0.6462127728934247,0.6863767073601589,0.7252504118368986,0.7628164154345297,0.7990863466645487,0.8340976298690167,0.8679111498007707,0.9006100392121869,0.932299856959775,0.9631106328446443,0.9932016514029944,1.0227706406995323,1.052070752218125,1.081442849903231,1.1113820469209266,1.1426961192992966,1.1769961385979313,1.2195030720994446,1.2751674325571707,1.349295286743521,1.4468789201674996,1.572174828821151,1.7283674501391024,1.9173724285405815,2.139773911742749,2.3948755779983757,2.6808369067708573
R2,0.0,0.0,0.0,0.7757373184891015,3.722444722323114,10.114828029355715,20.838328362957316,36.34655120670607,56.715784706325465,81.73147844438422,110.97594359241053,143.90448808211855,179.9061669381066,218.349492306895,258.61512600050844,300.1247582877932,342.36105749281364,384.87547522016087,427.28904387764686,469.28928992068046,510.62515062665847,551.101024683171,590.5706363684078,628.9311191001185,666.1175591084186,702.0981436107166,736.8700066646063,770.4558473153631,802.9014041939944,834.2739112953363,864.6617440780667,894.1756234190944,922.9520437180436,951.1601820427201,979.0148007120561,1006.800601042214,1034.921391179211,1064.0132368487907,1095.2768689017762,1132.2220791063833,1179.5701565369657,1242.144663496271,1324.734484281265,1431.6072094809117,1566.1624011437564,1730.6941665832896,1926.2804128288078,2152.7856563391138,2408.954114791407,2692.565884018111
G2,0.0,0.0,34.90817933200957,87.35534113366708,147.5675041104428,210.10953432804297,272.00611454122543,331.66959415836,388.2921518192223,441.5033145017257,491.1779530134859,537.3289236608722,580.0469539776161,619.4667154667932,656.0502013686768,690.148931939749,722.046239627289,751.9820686605497,780.1685761760763,806.7992276599776,832.0546510796831,856.1067441396358,879.1219631248894,901.2644062727576,922.6991541335291,943.5963006249908,964.1361916539154,984.5166088172477,1004.9630714973011,1025.7442577153122,1047.1961526002228,1069.7618267646412,1094.0609765702586,1121.020702457031,1152.145662436867,1190.1521441481575,1240.7632367600308,1319.6511565057203,1505.3374459882898,1736.6478222259896,2031.0948088237626,2379.553510048587,2772.9948364838874,3200.237234417114,3649.7508777774265,4110.565940483315,4572.877201288887,5028.364250703141,5470.300785269049,5893.519367058248
H2,72823.09524256071,77157.80329271314,81110.324262377,84733.25142656972,88050.45453257991,91084.09529642761,93854.74943834812,96381.5200010709,98682.1425735551,100773.08299836847,102669.62809959608,104385.96992981735,101697.87263911589,98794.40228747805,95708.21722871577,92469.30926917706,89105.24233843473,85641.37081093527,82101.03890855062,78505.7624432504,74875.39399341379,71228.27244568162,67581.35767621508,63950.35099093422,60349.80179480974,56793.20081785063,53293.06009395114,49860.9797741662,46507.701766719045,43243.150143466264,40076.458251159565,37015.982533176975,34069.3032232609,31243.212337640078,28543.689783882357,25975.868935355305,23543.993687952337,23497.505031251032,23446.672578855025,23391.855355720978,23333.386314724077,23271.574203487482,23206.705297814795,23139.045011254493,23068.839389644647,22996.316498854227,22921.687713350388,22845.148912676184,22766.881592417125,22687.05389576505
S3,1974001.4172946524,1965163.4130397972,1956917.8390316935,1949198.6282296611,1941954.6654425685,1935142.5675437269,1928724.3086118863,1922665.8567418382,1916936.355139043,1911507.6022497902,1906353.6997190735,1901450.7970013951,1905178.973945033,1909318.917677065,1913860.4000078745,1918792.2133942987,1924109.9720915537,1929807.4156683641,1935879.7711764018,1942323.6326775262,1949136.8775781884,1956318.599241118,1963869.0445400751,1971789.5493096942,1980082.466378868,1988751.081182604,1997799.509258415,2007232.568206735,2017055.6133463948,2027274.3197407038,2037894.379538225,2048921.0522233583,2060358.426282224,2072208.0254735132,2084465.640313258,2097112.1143639877,2110074.896664295,2105068.6952238446,2100190.4911705344,2094941.934951899,2089493.930278239,2083807.2143425948,2077904.1249499465,2071802.8970044057,2065526.3238898758,2059099.3093509893,2052547.650161418,2045897.0387739805,2039172.294491439,2032396.8000447163
E3,0.0,221.63923385402896,322.29167374491726,358.45567701986096,360.86578403568245,346.26489692835867,323.74733368550784,298.2108396094912,272.24712536664555,247.1816011333397,223.6467983755295,201.8991459203789,181.99405774402453,165.15455154260832,150.7318841440381,138.28143283134017,127.48514583589767,118.11006708009634,109.97886276262626,102.9541267244154,96.92902747105843,91.82193425485299,87.57372357587076,84.147146509949,81.52812544821131,79.729291458976,78.79661588262333,78.82084052342141,79.95696049805102,82.45811163654724,86.73689706745176,93.4828059641512,103.9045280198648,120.28239936318172,147.41255593614082,197.2188829621118,309.21544221965524,733.3760395889617,914.9446317139445,1165.8931807134745,1380.8275812456525,1560.228072419668,1695.5925062218846,1785.5151035127496,1832.151251774346,1840.0318172493253,1814.9509559860385,1763.1413342481583,1690.7084789009937,1603.2768588007605
I3,0.0,0.0,59.84259314058782,132.49912269797443,197.48236604582303,247.52035988445976,281.6069956828463,301.43309681405026,309.6060802732408,308.8073448566573,301.4326143970613,289.47342250315955,274.51257050090356,257.7679491715733,240.49537028689997,223.47409013693425,207.17629536853187,191.8749738557766,177.71469824201623,164.7574636098414,153.01328655907162,142.4609352020802,133.06223300239128,124.77220244730248,117.5466034176361,111.34801246842049,106.15139816992308,101.95014889744985,98.76374010338567,96.64882181304688,95.7167947197834,96.16372619524735,98.32478951870881,102.78106259958219,110.58985540374152,123.84968020960157,147.3748553590674,195.49305947219815,346.5862558878903,510.4406050375616,702.726018621185,906.8952210884268,1110.5019475805148,1301.7914568411002,1471.4505851476786,1612.9832826913091,1722.6758855027128,1799.2704310982922,1843.4936878817048,1857.546492093364
A3,0.0,0.0,6.649177015620869,14.988091824844211,22.744143770471197,29.021288537447433,33.6049777378087,36.5964022008122,38.223446948934495,38.74617132014696,38.41238509011776,37.43931202336009,36.008423996299435,34.26656092936028,32.36788528976648,30.416264756134325,28.481454789847664,26.609718206955062,24.83107657796694,23.16422714525234,21.620005517934334,20.20387523847922,18.917758218428965,17.761418282019292,16.733549020913905,15.832682980177463,15.05802512791125,14.4103185788077,13.892880078748803,13.513012877940572,13.284153651448875,13.229429833182653,13.388028045470659,13.827558276972471,14.670518602473429,16.158791560062966,18.843599736913728,24.35134305612064,41.482355632565366,60.634223457470625,83.48417418738073,108.21216678727416,133.37657560240936,157.56903566858404,179.6206816402497,198.66108286543013,214.12982080982385,225.75238532744024,233.49614828939693,237.51817299854736
IH3,0.0,0.0,0.0,2.393703725623513,7.354066099761855,14.21001546275545,22.094808742171907,30.22442618336042,37.99371239944039,44.98766404652088,50.95741160687893,55.78522244410283,59.44972837821693,61.99590485548311,63.511062140557364,64.12035597771585,63.96235611029035,63.17486040726152,61.887036420672906,60.215509187538046,58.262837574815705,56.11743075339907,53.85430572202477,51.536309512344744,49.215573742693906,46.93506434437344,44.7301545944526,42.63019799093155,40.660119090580494,38.84208534032158,37.197385220288616,35.748742972425774,34.5235015714214,33.55853168637452,32.908716141002955,32.66344375293609,32.98336194861936,34.198899315231515,37.16671260627432,45.75720042865767,59.683101766574396,79.32470672692986,104.34646140014385,133.96256740692533,167.02852048984,202.18966438439278,238.02369032439344,273.16153055601814,306.3780329216303,336.6509323215118
IN3,0.0,0.0,0.0,11.968518628117565,36.81590902994783,71.22939187211736,110.89917420975652,151.90927317559363,191.22253095223022,226.74259847101186,257.19883896413137,281.9751909607999,300.93895627050694,314.29231795040573,322.453122799758,326.0326899324173,325.713787915464,322.1793561681443,316.072641618603,307.9769958035545,298.4076288164187,287.81062156262755,276.5662203870179,264.9945375960443,253.36249367162495,241.89130868182687,230.7641752456879,220.13398719796348,210.13120675333906,200.8721789446205,192.46851562676,185.03869909690584,178.7240668621088,173.71347731511935,170.28592968689694,168.89336515845503,170.34503008417187,176.30130584741653,191.0588689147823,233.99756756408158,303.778802413738,402.3827702143888,528.206816640745,677.3803049473183,844.2160497979826,1021.9494346470049,1203.4505901169302,1381.8312998174442,1550.9027768104552,1705.4760430243791
D3,0.0,0.0,0.0,0.0,0.002393703725623513,0.009747769825385368,0.02395778528814082,0.04605259403031273,0.07627702021367315,0.11427073261311355,0.15925839665963443,0.21021580826651337,0.2660010307106162,0.32545075908883314,0.38744666394431626,0.4509577260848736,0.5150780820625894,0.5790404381728798,0.6422152985801413,0.7041023350008142,0.7643178441883522,0.822580681763168,0.878698112516567,0.9325524182385918,0.9840887277509366,1.0333043014936305,1.0802393658380038,1.1249695204324563,1.167599718423388,1.2082598375139684,1.24710192285429,1.2842993080745786,1.3200480510470043,1.3545715526184257,1.3881300843048001,1.421038800445803,1.453702244198739,1.4866856061473583,1.52088450546259,1.5580512180688642,1.6038084184975219,1.6634915202640963,1.7428162269910261,1.84716268839117,1.9811252557980954,2.1481537762879355,2.3503434406723285,2.5883671309967218,2.86152866155274,3.1679066944743703
R3,0.0,0.0,0.0,1.329835403124174,6.31709673591265,16.984907069741524,34.625265516982985,59.77012881266006,92.32058406929465,131.7187198463978,177.11074115850087,227.48192538631983,281.7593527254849,338.8850665594185,397.86472850718616,457.8048224020371,517.9346385145293,577.6112054551847,636.3145064976848,693.6375354031247,749.2739951892077,803.0053363046047,854.6881445770304,904.2424568362215,951.6413124645359,996.9016859033272,1040.076853613499,1081.2502086965137,1120.5305372946477,1158.048812375097,1193.9566535383694,1228.426776393904,1261.6560815402288,1293.872672564278,1325.3494438854798,1356.4300411032402,1387.5814761004042,1419.5153648421576,1453.5443924689855,1493.4552118243034,1544.3349083368105,1611.3807317805981,1699.7528923929783,1814.0547341580289,1957.9628304326238,2133.973549932052,2343.2843832767417,2585.7959863368947,2860.210225976794,3164.1953970795553
G3,0.0,0.0,59.84259314058782,146.8613450517155,243.64437784707795,341.07813953671223,434.56966170736905,521.9814418024562,602.4983684970188,676.005092346013,742.7441246520148,803.1287602134078,857.6415296119101,906.7799252027967,951.371654119301,992.0692628381912,1029.405249702653,1063.8262390783455,1095.7159571899715,1125.4102501358807,1153.2078643514728,1179.3787017686586,1204.170624017469,1227.815529382954,1250.5352589406402,1272.5478528116573,1294.074761505581,1315.3498477938892,1336.631474735213,1358.2198540696868,1380.4835442115545,1403.9025064197665,1429.1428640300874,1457.1970865954509,1489.67333442351,1529.474724526268,1582.723822926038,1666.2119923253451,1864.223523014365,2111.25857357713,2426.049732369768,2798.8731793060942,3220.1347588594044,3677.944735539313,4160.033813487756,4654.714651466829,5151.523242124147,5641.560000240377,6117.60816048738,6574.099449790649
H3,218469.28572768215,217515.64995664862,216621.5648176374,215781.98420918538,214992.53019109182,214249.14546964917,213548.07039188338,212885.8215843123,212259.1721187415,211665.1330960086,211100.93654637955,210564.01955253587,210052.00950781017,209512.26505523454,208942.4533498633,208340.64977705153,207705.30280592345,207035.20197704594,206329.44875593882,205587.43000331253,204808.7938299903,203993.42761942386,203141.43801361535,202253.13266917111,201329.00359920107,200369.71192390786,199376.07385808782,198349.04776753177,197289.72212868527,196199.3042272167,195079.10943179304,193930.55087999426,192755.12941472259,191554.42361273395,190330.07975331403,189083.80158613026,187817.3397745239,186532.48091554517,185257.77577733528,183993.088033701,182738.28676860733,181493.2461207109,180257.84495307982,179031.96654630193,177815.49831331195,176608.33153438725,175410.36111087276,174221.4853362982,173041.60568364663,171870.6266076212
S4,987000.7086473262,1003116.4146137184,1019235.4275534193,1035334.3871346083,1051401.595101143,1067431.6454993628,1083422.516980975,1099373.9840786932,1115286.7439112994,1131161.935958244,1147000.8793938998,1162804.9312959376,1183801.348892619,1204843.0843710036,1225931.5199246826,1247065.624829839,1268248.7040406258,1289481.0348579616,1310762.74417005,1332093.7422227073,1353473.6819688226,1374901.9298648357,1396377.5407623246,1417899.232741074,1439465.358954552,1461073.8734964875,1482722.2870373013,1504407.6050396916,1526126.235378085,1547873.8399328077,1569645.0784384706,1591433.1324272212,1613228.7450307552,1635018.0818593288,1656777.2896343376,1678455.683445788,1699903.9837377856,1715885.6599056374,1732095.9065659842,1747664.3603824463,1762886.4032050448,1777726.4253996254,1792230.4724031636,1806435.0181498074,1820378.6356078594,1834099.3533050285,1847633.7442474565,1861016.2979624576,1874279.0189406753,1887451.1929307752
E4,0.0,332.45885078104345,488.67716276047184,549.6559954623375,559.9569087852301,544.0944928837902,515.5047103890936,481.49220710288796,445.97102240072627,410.9855564497608,377.5546419605908,346.1392917681078,316.9011628788878,292.2160330991784,271.04385200958853,252.70188748301132,236.72603566298272,222.79684829539949,210.68632279973627,200.23023564365525,191.31232248401074,183.85603714999166,177.82155199222876,173.20694923566234,170.0535383917566,168.45619813778896,168.58089379750737,170.69354615136658,175.20815694215318,182.76958047384528,194.40249827969285,211.79596582685286,237.89015260622253,278.2140387376221,344.38364474907024,465.2798613336174,736.6727972182255,1764.9961728409248,2217.5096049221665,2852.2795266695125,3409.8713730905206,3889.4776239335006,4267.026532696277,4535.829959610248,4698.204057487653,4762.810200315733,4742.019030692365,4649.883067693477,4500.687148245141,4307.989733746473
I4,0.0,0.0,89.76388971088174,200.16339012559752,300.5312952702852,379.5921497774289,435.3955469094693,470.08688745625193,487.26893038453125,490.73656314043984,483.9258882281697,469.7234283827685,450.44741434829314,427.9033488820025,404.10487408710003,380.3015443487849,357.2586833254895,335.43262895637736,315.08394704660464,296.3491069113483,279.2874848764116,263.91281557675575,250.21486986883212,238.17512013821417,227.7789675986716,219.0264707407647,211.9432912601842,206.59374268306698,203.09850189999986,201.66106381838125,202.61019522990796,206.47242291024713,214.1039521850381,226.94934486430904,247.59929255603285,281.15904642483395,339.3064378429505,456.77454800956326,823.6976231543179,1224.7377869262666,1700.916190264731,2213.361575335636,2732.3137557171285,3228.6556181730125,3678.4523589062564,4064.138888290421,4374.704309185968,4605.120413268274,4755.359942361127,4829.259086220644
A4,0.0,0.0,9.973765523431304,22.6393273015592,34.601141705117485,44.47962062765089,51.90653128863442,56.990366342580344,60.03705928715091,61.40877810174251,61.45658917488683,60.49191059872719,58.77770723202498,56.529200671986615,53.98984153056465,51.32318878473937,48.63960765228184,46.01346719171495,43.49467920223395,41.11633304577924,38.899973505933055,36.859348479266764,35.003159897913164,33.337174478097396,31.865948059547787,30.59436459939093,29.52917762364641,28.68076891284235,28.065421514814876,27.708581920116494,27.649952950308553,27.952037308637628,28.715508821715687,30.109111635559223,32.433710470576045,36.27847771893294,42.981178015154875,56.48512632867066,98.13798624816427,145.0356771461964,201.5969275170425,263.5736832063496,327.54327528308465,390.045416207356,448.1112317541922,499.4351071279833,542.4323917118586,576.2064842902578,600.4616794630106,615.3899580177626
IH4,0.0,0.0,0.0,3.5905555884352696,11.087687392788219,21.535892927215663,33.66421173689364,46.303982391394925,58.53816129043635,69.72391915093152,79.46142246902241,87.54500752078722,93.91364967320074,98.60771128618786,101.73404849067086,103.46490307482514,103.9980624994785,103.5338664213664,102.26248517602605,100.3575316471132,97.97344646635943,95.245134323741,92.28890992744847,89.20417687393162,86.07549494349534,82.97484319390789,79.96399111950123,77.09697124335064,74.42272285977145,71.98806916182853,69.8413301801763,68.03712129721299,66.64337050441007,65.75261684115873,65.50205300472234,66.11303538246283,67.97972585762516,71.90747853984027,79.97671257952153,101.5780611442229,136.1563626741792,184.8760642235085,247.1815586416911,321.4056571150533,404.95301580049215,494.63910857616474,587.0286048146857,678.7331195336199,766.6438606167256,848.0920000705061
IN4,0.0,0.0,0.0,17.95277794217635,55.50680476064893,107.94951397076358,168.96388874758065,232.71499017032414,294.60256061731843,351.3820290645336,401.0157638418797,442.4346795010625,475.2945984780056,499.7625082504668,516.3434417129813,525.8754327882584,529.3307230795601,527.7003863350544,521.9299312429093,512.8864379468363,501.34456698910355,487.98390062967115,473.3929414959423,458.07689474119775,442.46750882045416,426.9340030589136,411.79463219483404,397.32884344886384,383.7903648520385,371.42202883990274,360.4738401568226,351.22703998765996,344.0293452938091,339.35170654169696,337.88896475947325,340.75816603472094,349.9431816626184,369.48954592075137,409.83086242917784,517.9870680353707,691.4187143260464,936.1411921511094,1249.565125547675,1623.5066035935065,2045.0882048000228,2498.4234687770113,2966.3062821769104,3431.703915145376,3878.929620883389,4294.4569924574225
D4,0.0,0.0,0.0,0.0,0.0035905555884352697,0.014678242981223489,0.03621413590843915,0.0698783476453328,0.11618233003672772,0.17472049132716408,0.24444441047809562,0.32390583294711806,0.41145084046790525,0.505364490141106,0.6039722014272938,0.7057062499179647,0.8091711529927899,0.9131692154922684,1.0167030819136347,1.1189655670896608,1.219323098736774,1.3172965452031336,1.4125416795268746,1.504830589454323,1.5940347663282546,1.68011026127175,1.763085104465658,1.843049095585159,1.9201460668285097,1.994568789688281,2.0665568588501095,2.136398189030286,2.204435310327499,2.2710786808319092,2.336831297673068,2.4023333506777904,2.4684463860602532,2.5364261119178786,2.6083335904577187,2.68831030303724,2.789888364181463,2.9260447268556424,3.1109207910791508,3.3581023497208418,3.679508006835895,4.084461022636387,4.579100131212552,5.166128736027238,5.844861855560858,6.611505716177583
R4,0.0,0.0,0.0,1.9947531046862608,9.507083016727552,25.652819790684628,52.4866303833755,90.93833161039335,140.98920453998278,201.9173952206997,272.53496398016586,351.3865328564873,436.9024316512198,527.5094675060936,621.706232993888,718.1247913729828,815.5698851546092,913.0304254433015,1009.6752523022391,1104.8405197736809,1198.0131706483996,1288.8131667755094,1376.9760506054818,1462.3367422519182,1544.815069655015,1624.40329350679,1701.1557674997441,1775.180837557919,1846.6351195935847,1915.7204113397665,1982.683722635772,2047.8213278029573,2111.488525128501,2174.1183244621125,2236.2555425584774,2298.6204291600475,2362.236476707352,2428.724160726485,2501.1646194878667,2588.642115411062,2703.4747938208293,2858.4357292507066,3066.4429400935574,3339.29413844445,3686.730204498374,4115.754707218252,4630.268113086554,5230.994449341343,5915.649465443128,6679.28603261397
G4,0.0,0.0,89.76388971088174,221.70672365620914,370.11384243104027,521.3022078030524,668.2077208816758,807.393992686731,937.3968886045109,1057.809064652707,1168.7751648941426,1270.714918223502,1364.1725270008913,1449.735840978191,1528.634169914969,1601.816009957558,1670.045519577971,1733.9615492069763,1794.1166982467341,1851.002005402663,1905.06416902645,1956.7184960971329,2006.3596261276307,2054.3714451655324,2101.1373214591613,2147.0517768249356,2192.5349503221387,2238.0517916474655,2284.1390491083343,2331.445251482716,2380.7930382106542,2433.2817127461713,2490.4666235194213,2554.6969647231012,2629.8147551822594,2722.7983392645083,2848.423901824585,3047.325557073506,3523.8745237405556,4122.60211706954,4892.717589270309,5813.382860004749,6863.541818466794,8015.6389822947895,9240.313071389557,10508.828166911224,11794.786920996472,13075.13205928341,14330.60048756065,15545.786017586839
H4,109234.64286384107,111055.2202449051,112867.8506612105,114673.03036802415,116471.21356976737,118262.81798802647,120048.22753360687,121827.79478687256,123601.84330007517,125370.66973439802,127134.54584353142,128893.72031475125,125422.48365858148,121936.97316729405,118438.67881006004,114929.24765256254,111410.50198278071,107884.45791523955,104353.34443681459,100819.62281266236,97286.00621479983,93755.47936599872,90231.3179055762,86717.10707894209,83216.75922725153,79734.52940568975,76275.02828844228,72843.23132688946,69444.48291957386,66084.49413680458,62769.33233384935,59505.400806200836,56299.406518628784,53158.313916137035,50089.282947698724,47099.58975684162,44196.52907103126,45761.67356915229,47316.11091011517,48859.92570825963,50393.2014418738,51916.020498278864,53428.464215951455,54930.61292389379,56422.5459784463,57904.3417977239,59376.077893843794,60837.830903101065,62289.67661423689,63731.68999493394
E_Om,0.0,0.0,0.0,0.0,0.0,0.0,0.0,0.0,0.0,0.0,0.0,0.0,0.0,0.0,0.0,11.671618646224776,17.349406521010227,20.256419239364085,21.946937098825394,23.173111047416057,24.30713002056438,25.54646903104149,27.014377459460285,28.81082050305509,31.04129721712452,33.837773764967544,37.38031719756968,41.926738763578854,47.85987058188914,55.769425079543325,66.60296601018447,81.96338640230371,104.74372105286386,140.6278178160936,202.16502736748356,322.3024594196087,616.8814635608212,1867.0302232950535,2715.010438037326,4421.118530144533,6331.031870545313,8591.701752017801,11072.725100961254,13681.95081535897,16321.972789325631,18903.141407950265,21348.40832312982,23595.893280847617,25599.57513554739,27328.65167998728
I_Om,0.0,0.0,0.0,0.0,0.0,0.0,0.0,0.0,0.0,0.0,0.0,0.0,0.0,0.0,50.0,38.0,32.03133703448069,29.028155906878084,27.530631683855646,26.848953096413148,26.661944336076328,26.826002800970393,27.2853087671187,28.03071657706449,29.08226613439389,30.483672510762972,32.303790024721096,34.643566062131846,37.64932967338649,41.53565560888381,46.62484303422839,53.41768152876338,62.727552290482166,75.95374442503969,95.69435657337544,127.31226838498588,183.77898801588364,306.23002605349325,736.8329800903194,1293.045883138721,2176.416874324452,3363.4554295338176,4875.985599490508,6695.384832872325,8782.619193129889,11081.723239896635,13525.957842468015,16043.798207520744,18564.17782354462,21020.66043249171
A_Om,0.0,0.0,0.0,0.0,0.0,0.0,0.0,0.0,0.0,0.0,0.0,0.0,0.0,0.0,0.0,0.0,0.3501485593867434,0.8006010431397015,1.2481734116926837,1.6569468423189087,2.0207508052776086,2.345814544839018,2.6430457068024595,2.924867889225776,3.2042189264722736,3.4946140576915545,3.8108244591022693,4.170069083208906,4.5938574294744905,5.110882061036267,5.761788401215313,6.607519701277786,7.744917353091338,9.338245514058988,11.689430945729997,15.416495577608504,22.00227024467506,36.108260102564685,84.89751478090338,149.36832496584248,252.12821587700995,391.6335288179673,571.0578756149079,789.0280535207639,1041.6809672773802,1323.003957501673,1625.4974082398462,1940.8501762857718,2260.5569394540457,2576.432805629658
IH_Om,0.0,0.0,0.0,0.0,0.0,0.0,0.0,0.0,0.0,0.0,0.0,0.0,0.0,0.0,0.0,2.0,3.2362534944109047,4.058369165670335,4.643721367370715,5.086126779264512,5.438499552821326,5.733399704383924,5.993023750790494,6.234186327875614,6.470950698095184,6.716186519259027,6.982686191827376,7.284181389538098,7.6364935243440915,8.059052535036356,8.577114761803955,9.225245312323832,10.053137013187332,11.135967855956467,12.594221650217987,14.635212721221063,17.651358222520724,22.49826213588527,31.555561546582545,56.55199058982311,100.2506110583871,173.08440574587073,283.06657527604546,437.9464234638405,643.6289331321801,903.6199705212289,1218.6893956091344,1586.8282806065656,2003.4517191113628,2461.7826198459898
IN_Om,0.0,0.0,0.0,0.0,0.0,0.0,0.0,0.0,0.0,0.0,0.0,0.0,0.0,0.0,0.0,20.0,32.43869897502174,40.31968394405729,45.345913672338696,48.53544341890206,50.5316236006915,51.763096373269306,52.52938961682112,53.0491578021635,53.48930881818995,53.98416303713162,54.64943189624293,55.59377327935954,56.92985033844941,58.786711652628895,61.325832980220014,64.7645744683849,69.41394779206227,75.74465785132007,84.51247317955209,97.01992572907676,115.73451196930988,146.0359370251294,202.87460804397605,359.83280608701307,634.5264333742122,1092.6011206361609,1784.6802920480222,2759.775215838027,4055.3732920010116,5693.925020006165,7680.6990614612405,10003.483434620395,12633.831378202533,15529.4484326102
D_Om,0.0,0.0,0.0,0.0,0.0,0.0,0.0,0.0,0.0,0.0,0.0,0.0,0.0,0.0,0.0,0.0,0.002,0.005236253494410904,0.00929462266008124,0.013938344027451952,0.019024470806716463,0.024462970359537792,0.03019637006392172,0.036189393814712215,0.042423580142587826,0.04889453084068302,0.05561071735994204,0.06259340355176941,0.0698775849413075,0.0775140784656516,0.08557313100068796,0.09415024576249191,0.10337549107481575,0.1134286280880031,0.12456459594395956,0.13715881759417756,0.1517940303153986,0.16944538853791935,0.19194365067380462,0.22349921222038716,0.2800512028102103,0.3803018138685973,0.5533862196144681,0.8364527948905136,1.2743992183543542,1.918028151486534,2.821648122007763,4.040337517616898,5.627165798223464,7.6306175173348265
R_Om,0.0,0.0,0.0,0.0,0.0,0.0,0.0,0.0,0.0,0.0,0.0,0.0,0.0,0.0,0.0,0.0,3.043047530567356,8.04762943550453,14.34620453961779,21.51070125114961,29.259638326153276,37.406578811656686,45.8300989401302,54.455437700860074,63.24287607590773,72.18030789796835,81.27868798720081,90.56970321158632,100.10542051145308,109.95999238463779,120.23386409897304,131.0614621085999,142.6242806569218,155.17312249867746,169.06722168444728,184.84751578458224,203.3875859394332,226.2535355637272,256.8070500831043,306.2417807948052,393.7624434678124,545.916640860251,799.476339584528,1199.966399908594,1800.4954544459938,2659.407070698077,3837.43579643047,5394.652126932244,7387.495276773343,9866.130001853857
G_Om,0.0,0.0,0.0,0.0,0.0,0.0,0.0,0.0,0.0,0.0,0.0,0.0,0.0,0.0,0.0,0.0,3.15133703448069,7.835676795153452,13.304909989781752,19.230583006464613,25.487322989266946,32.05024809481933,38.94779473320053,46.241676647254806,54.020598183079684,62.401748431703304,71.53794734824454,81.63063299158836,92.95085245775465,105.8730175148647,120.93076228634142,138.91356310909123,161.04367743771323,189.32448212198645,227.29399293233172,281.8785503215523,368.90021436484665,535.4582095262683,1039.5563698159328,1772.6091880860113,2966.311191225035,4675.68979627227,6995.449269317076,9985.085046576614,13679.211766723536,18086.144419841457,23189.99259998803,28954.062847233083,35324.954033061935,42236.83931965973
beta,1.0,1.0,0.9915169060839942,0.9852267687544244,0.9802925174085936,0.9762526415994964,0.9728423612376874,0.9699029804369518,0.9673344266253132,0.9650698701284511,0.9630619219543151,0.9612750078994329,0.9596810800792658,0.9872888558294871,1.017297926491903,1.0500261241595656,1.085802629075546,1.1251316156432087,1.1685536774699876,1.2167314612285536,1.2704831951613693,1.330829302780421,1.3990575952564506,1.4768158110058434,1.5662456049862634,1.670181198751804,1.7924521017878308,1.9383593648745536,2.1154532678619975,2.334860408563286,2.6136713762564416,2.9795243364245874,3.4801505743234022,4.205469323708333,5.346619121630601,7.390189423971659,12.015027342425576,30.524240964623317,18.073961880955046,13.530982001367624,9.938355779401919,7.620470246936356,6.019873083587454,4.888321275846152,4.064867303207424,3.449985870734601,2.980205950302385,2.6139665136898236,2.3233369784441287,2.089082920283745
