series,2021-12-01,2021-12-02,2021-12-03,2021-12-04,2021-12-05,2021-12-06,2021-12-07,2021-12-08,2021-12-09,2021-12-10,2021-12-11,2021-12-12,2021-12-13,2021-12-14,2021-12-15,2021-12-16,2021-12-17,2021-12-18,2021-12-19,2021-12-20,2021-12-21,2021-12-22,2021-12-23,2021-12-24,2021-12-25,2021-12-26,2021-12-27,2021-12-28,2021-12-29,2021-12-30,2021-12-31,2022-01-01,2022-01-02,2022-01-03,2022-01-04,2022-01-05,2022-01-06,2022-01-07,2022-01-08,2022-01-09,2022-01-10,2022-01-11,2022-01-12,2022-01-13,2022-01-14,2022-01-15,2022-01-16,2022-01-17,2022-01-18,2022-01-19
S,509864.2385654299,509864.23856543,509862.679591018,509860.6374776678,509858.27667770814,509855.6975351205,509852.95892299945,509850.0936959588,509847.1186325898,509844.0405994654,509840.86027121486,509837.57432349096,509834.1766918149,516819.3761168709,523804.3372758448,530789.0362269572,537773.4383438097,544757.4988614846,551741.1621736814,558724.3601402575,565707.009454283,572689.0079650937,579670.2297177908,586650.5183204463,593629.6780605512,600607.4619300227,607583.5553391811,614557.5537382739,621528.931516215,628496.9982425075,635460.8362839221,642419.2106003035,647382.3004683496,647336.038121966,647280.4476083089,647212.9851941203,647130.7555443738,647030.2745894277,646907.2813148636,646756.5452767074,646571.6483823933,646344.7304929926,646066.1928410694,645724.356136895,645305.0735920676,644791.3040377349,644162.6577035678,643394.9377769332,642459.7150549173,641323.9907334961
E,22.41369119011855,17.90717164121169,15.354825240005217,13.922159510951227,13.13384704442987,12.718406301369589,12.520292066862634,12.45004326305581,12.455958561420392,12.50797236706827,12.588457619583306,12.686968318769377,12.797226802298391,12.91539235071207,13.12012511840764,13.398285815559845,13.743879237370857,14.155602563002052,14.635436773685074,15.187887636077775,15.819641512428712,16.539500127378616,17.358520931277443,18.29033072160258,19.351609257593523,20.56276312505571,21.948832788899963,23.54070168663778,25.376709693177077,27.504819827854384,29.98555455374113,32.8960184732267,36.33547673336159,40.26562980172241,44.34550678018675,48.693020566465435,53.38345459156592,58.472027886481015,64.00491028946827,70.02447470757421,76.57160733714784,83.68643126144865,91.4080698057324,99.77370904560568,108.81703123049401,118.5659950316765,129.03989503341205,140.245627727305,152.1731246309349,164.78999320321904
I,0.0,3.4253495891711663,5.340565632935482,6.406436102506904,6.997755676185814,7.32679850902397,7.513444636742788,7.62505475764086,7.699164077571977,7.756405323431025,7.80786856683917,7.85929054408108,7.9134358717281055,7.971446809359693,8.033604738506805,8.112144721104436,8.214359743880241,8.34487765944758,8.507017417963649,8.703604797286648,8.937476517844122,9.211810865813769,9.530369060729917,9.897700191874247,10.319344937973405,10.802064341017967,11.354116700790641,11.98560668700881,12.708935509757946,13.539389711172934,14.495919884442875,15.602181386036913,16.88794024025575,18.3909944095076,20.134224481761628,22.08291554548949,24.22869755228339,26.576712779602865,29.13930913339486,31.932929240657415,34.97654823678586,38.29083924250029,41.8976495498918,45.819566258691296,50.079442805612906,54.699799625701374,59.70202930907532,65.10534298786564,70.92539874331126,77.17256100401646
A,0.0,1.0811699597356936,1.8140253771118697,2.3350118588219915,2.7237975370443017,3.027474074510537,3.274334707263481,3.481743223240338,3.660645258822904,3.8181669773950278,3.9591212642899185,4.086887870736177,4.203933364378246,4.3121227872085015,4.41291005329152,4.511367335141772,4.611318747335042,4.715836100093353,4.827556352616033,4.948892675906701,5.082183342453216,5.229805982157508,5.394274854822358,5.578333113314521,5.785049021507302,6.017923848033536,6.281019198971735,6.579112683628023,6.917893051737822,7.304209527633923,7.746395464705441,8.254694442551912,8.84182880520195,9.52376843311513,10.31270174334905,11.202893669187333,12.194991448598568,13.293195386140987,14.503860717221738,15.834800132331956,17.294924121514267,18.894036312538464,20.64268849853157,22.55204180721327,24.633699461200386,26.899484224611406,29.3611357274061,32.02990260336806,34.9160039042313,38.02793544560655
IH,0.0,0.0,0.13701398356684666,0.28199260311727575,0.39697175305579674,0.47799913182227516,0.531593507140274,0.5658029455327083,0.5873378601264557,0.6010481553059805,0.6101792424349252,0.6167941846485944,0.622151919902892,0.6269912429006673,0.6317265025818207,0.6365757143286007,0.6421370702941492,0.6490007878319901,0.6576464995060662,0.668446299972073,0.6816988955775304,0.6976668096069525,0.71660817262642,0.7388022405697803,0.7645703257192904,0.7942943900528618,0.8284354742770969,0.867553969695897,0.912333698358605,0.9636119358712618,1.0224179444466772,1.090023349656607,1.1680089069201234,1.2583540541633718,1.3635584494078266,1.4857846455249706,1.62472315993654,1.779884758899669,1.9512310058750495,2.1392366372674445,2.3447962516227516,2.5691152590311876,2.813622083956574,3.079903401890002,3.3696544478907633,3.6846352817220067,4.026624990607337,4.397367042676073,4.798499873809986,5.231467386763633
IN,0.0,0.0,0.6844152893261876,1.6705623386414847,2.753048701873539,3.825660894069326,4.837161504400687,5.766326039440889,6.607899481287526,7.364748187873129,8.043522116725761,8.652300633360145,9.199353811992006,9.69252602459087,10.138962127109561,10.54501817978052,10.918743189137471,11.268691413624461,11.603330090244235,11.930788196193976,12.258797914461436,12.59474374888417,12.945771891847073,13.318934884514292,13.72136011628588,14.160439100920842,14.644040078117612,15.180750796808075,15.780162340311298,16.453209331693113,17.212587549032285,18.073277744532657,19.053215455383693,20.17416250867648,21.46285934078007,22.94745555592866,24.645835172043654,26.572094663857975,28.73969079639496,31.16295603169881,33.85781312227749,36.84209304599378,40.13564859384219,43.760349861077806,47.739993481873164,52.100127995098184,56.867780110805775,62.07105453428562,67.73857059745758,73.89869146311376
D,280.0,280.0,280.0,280.0001370139836,280.0004190065867,280.0008159783397,280.00129397747156,280.00182557097867,280.0023913739242,280.0029787117843,280.0035797599396,280.0041899391821,280.00480673336665,280.0054288852867,280.00605587652956,280.0066876030321,280.0073241787464,280.00796631581676,280.00861531660456,280.0092729631041,280.00994140940406,280.01062310829957,280.0113207751092,280.01203738328184,280.01277618552245,280.0135407558481,280.01433505023823,280.01516348571243,280.0160310396821,280.0169433733805,280.0179069853164,280.0189294032608,280.02001942661053,280.0211874355174,280.0224457895716,280.02380934802096,280.02529513266654,280.0269198558264,280.02869974058535,280.0306509715912,280.03279020822845,280.03513500448014,280.03770411973915,280.0405177418231,280.043597645225,280.04696729967293,280.0506519349546,280.0546785599453,280.05907592698793,280.0638744268617
R,0.0,0.0,0.13093341053649207,0.5000705574145116,1.1214213520202458,1.9753700849256013,3.033466047229956,4.267884501469492,5.654417348676737,7.172915742633119,8.806857794875729,10.542713666516335,12.369349891954803,14.277539281623211,16.25957765595399,18.308989102107486,20.420772700325536,22.591641692040476,24.819988141694047,27.105764690405323,29.450363679690053,31.85652445820139,34.328278936691795,36.87093775303936,39.49111747859174,42.19680987066491,44.99749587360561,47.90430939907192,50.93025880775993,54.090517630840004,57.402800733930434,60.88784833439862,64.57004876067674,68.47824266492847,72.64676818540164,77.11585192564527,81.9294364677621,87.13350316844694,92.77596462133579,98.9070753670432,105.57996855068424,112.85118688304999,120.78117189321938,129.43470515989708,138.88129981493174,149.195536213033,160.45732812817792,172.75209702201437,186.1708222668978,200.809924808444
G,55276.0,55279.42534958917,55282.16199490582,55284.50858047629,55286.636220361965,55288.643387195676,55290.58706471982,55292.50046563731,55294.40313085272,55296.30670006759,55298.218218239475,55300.14203648832,55302.080909534714,55304.03663272184,55306.01041443889,55308.01548423319,55310.063063653484,55312.163458037445,55314.326773620414,55316.56341937926,55318.88449287996,55321.302113525126,55323.8297458319,55326.48254416112,55329.277745375046,55332.235135403214,55335.377618790946,55338.731926867134,55342.32951069067,55346.20768057284,55350.41107672472,55354.99358864121,55360.02088924988,55365.57382157349,55371.72737554768,55378.50443257691,55385.94589398449,55394.104166207624,55403.04009447575,55412.821579877025,55423.522999096065,55435.2249772089,55448.014271060994,55461.983616480284,55477.23143221892,55493.86128448459,55511.98101224056,55531.70140312532,55553.134298726676,55576.39000192683
H,137786.20116836726,137786.2011683673,137786.20116836726,137786.2011683673,137786.2011683673,137786.20116836726,137786.20116836726,137786.20116836726,137786.2011683673,137786.20116836726,137786.20116836726,137786.20116836726,137786.20116836726,132808.62438352293,127901.11266170623,123067.46557561678,118311.72724503785,113638.20175274453,109051.46705526096,104556.3864899306,100158.11670425128,95862.11050148011,91674.1127072983,87600.1467222848,83646.48895265195,79819.6278443237,76126.203846857,72572.92640321875,69166.46414106662,65913.30501743393,62819.58446211458,59890.881798754875,57916.832855213965,57916.832855213965,57916.83285521397,57916.83285521396,57916.832855213965,57916.83285521397,57916.83285521397,57916.832855213965,57916.832855213965,57916.83285521397,57916.83285521397,57916.832855213965,57916.83285521396,57916.832855213965,57916.83285521396,57916.83285521396,57916.832855213965,57916.83285521396
S0,178452.48349790045,178050.96541003019,177409.18618617233,176769.4340393239,176131.80258606246,175496.34490798536,174863.08879227107,174232.04655930932,173603.221176466,172976.60997026702,172352.20683958553,171730.00355413402,171109.99050301194,172829.33545398954,174498.69985127385,176116.49056937356,177681.0030729211,179190.41857961915,180642.80176208916,182036.09960578167,183368.1420671093,184636.6452532165,185839.21795188653,186973.37245816796,188036.54075009254,189026.09712589954,189939.38837979242,190773.77238974345,191526.66551628418,192195.59832495474,192778.27766156383,193272.65078953584,193359.52661975875,192644.257145834,191927.9629650339,191209.6929605368,190488.3802812299,189762.75387016695,189031.2711503382,188292.0511488942,187542.79992512567,186780.7246003328,186002.43411253282,185203.82599542994,184379.95979279332,183524.91957586433,182631.67072522573,181691.9199004994,180695.99207673036,179632.74457811806
E0,22.41369119011855,17.90717164121169,14.886613553350864,12.810782786286875,11.351711520517167,10.306703766471196,9.547558728536242,8.99105966368022,8.581665847293129,8.281244497180852,8.062891150756766,7.907144485634781,7.7996185061659515,7.729485046330458,7.733561476416286,7.798806854067802,7.917260200566929,8.084438666430339,8.298361451607276,8.558970664304123,8.867810258921986,9.227880514943045,9.643621274709176,10.121000609695772,10.667702030089195,11.293416319610518,12.010256118306277,12.833324629821789,13.781486484687747,14.878411549226437,16.153995128849573,17.64630632193171,19.404289292398605,21.406818802218957,23.48110734569559,25.686768295717258,28.06081610742215,30.629585392363126,33.414512288347325,36.434865595630725,39.70892924634195,43.254356768040076,47.08803164586678,51.22557409415374,55.680536980532246,60.46328472966134,65.57952784784683,71.02848451857852,76.8006591285777,82.87526916544236
I0,0.0,3.4253495891711663,5.340565632935482,6.334882127085235,6.773515960923859,6.883980419103879,6.8082522699704064,6.634668834690147,6.417665845526262,6.190136907547232,5.9712598432924855,5.77150181585506,5.5958457127700045,5.445880955685752,5.321161005340949,5.226972983774158,5.165343145402917,5.136595202341786,5.140290150744606,5.175791550033264,5.242606736481825,5.340597144767248,5.470115953426694,5.632110160041461,5.828211728217884,6.060835486825701,6.333298151489521,6.649972161862764,7.0164895394675195,7.440014665011455,7.929611160315774,8.496737829822735,9.155923426123822,9.925692419957041,10.81689850630474,11.811386492587353,12.904465315911601,14.098225568464583,15.398281060108525,16.812175315196605,18.348587588728705,20.016909996577816,21.82698022417939,23.788856994040202,25.912574001005897,28.207829973957004,30.683581733065708,33.347510875752455,36.20533740379515,39.2599584542571
A0,0.0,1.0811699597356936,1.8140253771118697,2.3124267162805863,2.650338017498338,2.8769458261765526,3.025702574336511,3.1198254631230777,3.1757058817850923,3.2050710460464233,3.216388553095573,3.215802753453611,3.2077751391561726,3.1955329624222646,3.1813903254972673,3.169157045566978,3.161552501452166,3.1605827318281547,3.167794597810775,3.184452082383132,3.21166330330188,3.2504766572212698,3.3019583009254703,3.3672594407566416,3.4476797500591863,3.544732136987359,3.660213745954021,3.7962883588028262,3.9555862496657617,4.141329131210816,4.357490319712752,4.609004009974699,4.902043189144996,5.244394195587176,5.641881396435475,6.091289051278846,6.592666429189835,7.147842300077319,7.759694267032039,8.431785461172058,9.168176975901819,9.973320054845757,10.851978434465261,11.809153355537042,12.849993864125878,13.97967918918368,15.203261286269168,16.52545575958189,17.950369424882343,19.48115370816978
IH0,0.0,0.0,0.13701398356684666,0.28199260311727575,0.39410959403893,0.46760132586238046,0.5086922783694829,0.5261675377051882,0.5279443547024948,0.5201508668175954,0.5071607588438694,0.4919236123947902,0.47632995521920274,0.4615224761651824,0.44813495383385604,0.43646578217673215,0.4268753446571557,0.41962452280003737,0.4148564449708901,0.4126249720702584,0.4129315230643895,0.41575709946840333,0.4210866784254232,0.4289268906713539,0.439318924846664,0.4523486126272007,0.4681553771740012,0.4869414592694074,0.5089826746499448,0.5346419362290233,0.5643869127787409,0.5988135158892227,0.6386774576216315,0.6849369883981471,0.7388112540089571,0.8013427560026593,0.8723254949488211,0.9514690346159258,1.0387120710119304,1.1342485658392945,1.2384770469616722,1.3519435499830226,1.475296231304641,1.6092520283881915,1.7545710419273157,1.9120339099619663,2.0824181200293013,2.2664699112172495,2.464868920727506,2.6781830875948316
IN0,0.0,0.0,0.6844152893261876,1.6705623386414847,2.738751581677258,3.768249598600261,4.698061222076535,5.502773370314291,6.177629134797897,6.729310947091953,7.170283345813839,7.515368594715698,7.779727368637513,7.977722922814937,8.122337358622595,8.224928168810994,8.296566015573541,8.347417103511134,8.386509966259878,8.421717620793762,8.459854780141923,8.506831746316884,8.567832126524358,8.647497033758633,8.750107897622017,8.879765866184323,9.04056955121928,9.236795533159674,9.473088255883532,9.754668195354713,10.087569911603026,10.478925252695083,10.937312157845295,11.473197031920744,12.099509777625375,12.82981974977574,13.672463894105706,14.633855834228266,15.720068376857284,16.937577790240567,18.29360166108721,19.796238148310497,21.454504274167096,23.278316279544566,25.278427439031248,27.466324064643867,29.85407188071047,32.45409925713626,35.2788995186684,38.340631318479744
D0,280.0,280.0,280.0,280.0001370139836,280.0004190065867,280.0008131161807,280.0012807175066,280.0017894097849,280.00231557732263,280.00284352167733,280.00336367254414,280.003870833303,280.0043627569154,280.0048390868706,280.00530060934676,280.0057487443006,280.0061852100828,280.00661208542743,280.00703170995024,280.00744656639523,280.0078591913673,280.00827212289033,280.0086878799898,280.00910896666824,280.0095378935589,280.00997721248376,280.0104295610964,280.01089771647355,280.0113846579328,280.01189364060747,280.0124282825437,280.0129926694565,280.01359148297234,280.01423016043,280.0149150974184,280.0156539086724,280.0164552514284,280.0173275769233,280.0182790459579,280.01931775802893,280.0204520065948,280.02169048364175,280.02304242719174,280.02451772342306,280.02612697545146,280.0278815464934,280.02979358040335,280.0318759985234,280.0341424684346,280.03660733735535
R0,0.0,0.0,0.13093341053649207,0.5000705574145116,1.1186862133736617,1.9606167529521823,2.98849431942926,4.164900635387754,5.456616058161297,6.835802027265238,8.279894584776992,9.771016244634437,11.2952614347399,12.842003193758323,14.403275470583317,15.9732447352824,17.54803128142576,19.12557424170088,20.705388479281236,22.288315551530722,23.87630815642284,25.47225987072171,27.079880744623058,28.703615494579253,30.348600469393368,32.020656369477095,33.72631507003987,35.47288053885619,37.268525694390604,39.122429194110396,41.04495873532369,43.04791073617986,45.14482059844481,47.351363658179764,49.685875185129355,52.16953458548127,54.82525791920263,57.67685021926475,60.74895130666311,64.06723706562184,67.65867781342665,71.55178856378919,75.77685417405277,80.36612692302216,85.35399601418666,90.7771260525895,96.67455766469305,103.0877590366615,110.06061244672297,117.63931492002119
G0,55276.0,55279.42534958917,55282.16199490582,55284.43702650087,55286.39482136749,55288.129635149984,55289.70474668394,55291.163842648595,55292.53789220893,55293.84937657512,55295.114949353636,55296.347152503775,55297.555553828024,55298.74752260368,55299.92877330457,55301.11064698175,55302.3024917175,55303.512438965605,55304.74793509294,55306.01612375263,55307.32413975053,55308.67935384578,55310.08959531215,55311.56337193784,55313.1101035755,55314.74038430241,55316.46628918004,55318.30174437177,55320.262984172725,55322.369125846046,55324.64290397814,55327.111621875105,55329.80840071432,55332.77384151531,55336.04531685454,55339.63379323345,55343.55934750662,55347.84771322515,55352.52864850039,55357.63518739969,55363.20330872522,55369.271785502504,55375.88208863948,55383.07826924556,55390.90676557355,55399.416087079466,55408.65632715201,55418.67845188222,55429.53330788079,55441.27029060098
H0,48225.17040892854,48116.66377550845,47943.44378591662,47770.84738828732,47598.872337689485,47427.5163972738,47256.77733824361,47086.65293982594,46917.140989242565,46748.23928168129,46579.94562026724,46412.257816034275,46245.17368789655,43741.51272429875,41290.543597288066,38893.84000168557,36553.08221104637,34270.06035997109,32046.67660483336,29884.945688396176,27786.993309687452,25755.051555613336,23791.450487145,21898.604796599946,20078.994275890327,18335.13668006406,16669.55146982472,15084.712920312975,13582.991257980075,12166.580915520619,10837.415767320288,9597.072405791198,8764.101396592943,8732.55063156521,8701.113449291575,8669.789440874125,8638.578198886978,8607.479317370986,8576.492391828451,8545.617019217869,8514.852797948684,8484.19932787607,8453.656210295716,8423.22304793865,8392.899444966071,8362.685006964193,8332.579340939123,8302.582055311741,8272.69275991262,8242.911065976934
S1,50986.423856543,47746.054526088774,44976.403798959356,42402.21775651912,40009.57132286586,37785.52147944205,35718.04238296681,33795.962993526264,32008.907837946594,30347.241219026004,28802.01495500237,27364.919593155282,26028.23896268859,25124.568484086947,24270.871745764794,23464.674692646004,22703.567950489185,21985.20922008048,21307.32495259303,20667.71146392609,20064.23562167558,19494.835225005412,18957.519190167575,18450.367649589083,17971.532067733366,17519.235469647047,17091.77286484477,16687.511925471696,16304.893937504792,15942.434979232254,15598.727182311008,15272.439784639308,14937.796181349411,14565.455237969734,14216.8978761459,13890.36050730226,13584.196493337779,13296.861306208044,13026.900330089258,12772.937561708364,12533.664543349669,12307.82923484686,12094.2246768374,11891.677381196438,11699.03546668102,11515.15666636687,11338.896485766172,11169.096998765091,11004.577038131325,10844.124860795131
E1,0.0,0.0,0.15549926257490979,0.3567830675338014,0.5529087643098949,0.7228196430739051,0.8602146281079259,0.965698508311584,1.0427750313489623,1.0958578344320584,1.129331330235734,1.1471495714714623,1.152703613276605,1.148816750325133,1.1443496387990353,1.1396126088757057,1.135178379838434,1.1317021676432966,1.129838979558201,1.1302135319633635,1.1334180438828916,1.1400245208845052,1.1506046413696513,1.1657540877260189,1.1861203552112738,1.2124344455783405,1.2455478496964925,1.286477130875286,1.336459457048753,1.3970238058606692,1.4700845372977993,1.5580669555568236,1.6640789208880309,1.7856032344455472,1.9088437488860595,2.0381461270180057,2.175997360989036,2.324014791178687,2.483414747251167,2.655230217983375,2.8404054596928483,3.0398278082567027,3.254324460273473,3.4846362636321446,3.7313728969666506,3.994950132362016,4.275508315265908,4.572811019554505,4.8861238736992,5.214075921822404
I1,0.0,0.0,0.0,0.0237640168528872,0.07259020430791457,0.13968014848114924,0.21664778526510964,0.2961551477568425,0.37271640497920155,0.4426967336542579,0.5040074830528743,0.5557309228663191,0.5977736767591089,0.6305829954277187,0.6549303420176052,0.6727562967365793,0.6855834973066355,0.6946569646349294,0.7010232852634052,0.7055781658005209,0.70909798609604,0.7122634484827965,0.7156794329946099,0.7198931302285752,0.7254115441694962,0.7327190475458802,0.7422955708016392,0.7546360810222322,0.7702722030424028,0.7897971422697736,0.8138955126386795,0.8433803116982173,0.8792402176103506,0.9227017703132335,0.974312686210725,1.0323809522412803,1.0962844366171391,1.165930272330965,1.2414950311097699,1.3232988255566505,1.4117428678881694,1.5072764610783347,1.6103767674590874,1.721532937074519,1.8412300367671335,1.9699299835577107,2.1080474626069146,2.255919162039018,2.4137648975916934,2.5816395416522813
A1,0.0,0.0,0.0,0.007500823047440052,0.023802604082780638,0.04759070490939596,0.07669398134463383,0.10890027705672878,0.14229450869636823,0.17536252650340878,0.206986450238683,0.23639526987351475,0.26310207912332717,0.2868425121719863,0.3075204061734806,0.3254786556979872,0.34103359900774566,0.354490890989467,0.3661507763426724,0.37630873470552084,0.3852545965776258,0.3932716598741777,0.40063650600728423,0.40761979749612487,0.4144881526463706,0.4215071346175008,0.42894540731020614,0.43708017189340675,0.4462040955163644,0.4566340796376612,0.4687224012013437,0.48287101824440487,0.49955019977777626,0.5193231775706393,0.542563551879036,0.568934193466111,0.5983484224881195,0.6308500214514007,0.6665554863509185,0.7056258772489613,0.7482525775924931,0.7946493417561369,0.8450468401725303,0.8996877097990046,0.9588209397246328,1.0226947746894968,1.0915474517513346,1.165595126486611,1.2450163727913512,1.3299327147433617
IH1,0.0,0.0,0.0,0.0,0.0009505606741154881,0.0033779379487002114,0.007272796975647375,0.012295037101452426,0.01798142942389846,0.023881389481693396,0.02962468269753532,0.0349430159881851,0.039665801892757126,0.04370418221485016,0.04703170674231898,0.04966603534512138,0.051693603506678745,0.05321844804209812,0.05434228415840414,0.055157731205579874,0.055746834503605194,0.05618158986114059,0.056525151280021016,0.05683322780851488,0.05715550588559193,0.05753705920369022,0.05801975444447663,0.058643680299859405,0.059448639710519134,0.06047575933724516,0.06176928960007628,0.06337869601598524,0.06536118177990533,0.06778483841258678,0.07073270518041015,0.07426812733345367,0.0783550336290446,0.08295053924557882,0.08802952997678243,0.09358653670280523,0.09963163483696583,0.10618590049917273,0.11327782279222058,0.12094070427168158,0.12921072891454988,0.13812535519904573,0.14772175158663226,0.15803505254600608,0.16909625770201775,0.18092962849697458
IN1,0.0,0.0,0.0,0.0,0.004748261760300124,0.018690855345709207,0.0443896330059188,0.0824278479735959,0.13185358143647088,0.1907313797232406,0.2566284242280188,0.32698229350849817,0.39935025164942767,0.4715598063699991,0.5417847695408888,0.6085690805080926,0.6710166312956294,0.7286415326820699,0.7812641275433937,0.8289351239987085,0.8718782030858888,0.9104457188011299,0.9450843627995519,0.9763088571620961,1.0046823816116923,1.0308028128118596,1.0552940988521664,1.0788022881868249,1.1019959202911258,1.1255706902046225,1.1502585412029596,1.1768416419745806,1.2061720986754958,1.2391987860105433,1.277003429366217,1.3206492576574462,1.370735673043411,1.4276668792538312,1.4917807194084478,1.5634103607041399,1.6429135281764968,1.7306858046810214,1.8271657624299589,1.9328354452116208,2.0482176222820074,2.173870155925797,2.3103772254827004,2.4583367774981837,2.6183433129824496,2.7909649427705308
D1,0.0,0.0,0.0,0.0,0.0,9.505606741154881e-07,4.3284986228157e-06,1.1601295598463075e-05,2.3896332699915502e-05,4.187776212381396e-05,6.575915160550736e-05,9.538383430304267e-05,0.00013032685029122778,0.0001699926521839849,0.00021369683439883505,0.000260728541141154,0.0003103945764862754,0.00036208817999295413,0.00041530662803505224,0.0004696489121934564,0.0005248066433990363,0.0005805534779026414,0.000636735067763782,0.0006932602190438031,0.0007500934468523179,0.0008072489527379098,0.0008647860119416,0.0009228057663860766,0.000981449446685936,0.001040898086396455,0.0011013738457337002,0.0011631431353337765,0.0012265218313497618,0.001291883013129667,0.0013596678515422538,0.001430400556722664,0.0015046686840561175,0.0015830237176851622,0.001665974256930741,0.0017540037869075234,0.0018475903236103285,0.0019472219584472943,0.002053407858946467,0.0021666856817386874,0.002287626386010369,0.002416837114924919,0.002554962470123965,0.0027026842217105973,0.0028607192742566034,0.003029815531958621
R1,0.0,0.0,0.0,0.0,0.0009083755376186546,0.004827807663743641,0.014490732476253206,0.03266497448186155,0.06174938914464904,0.10356671135651915,0.15930210996186395,0.22953252922315381,0.31430433868924235,0.4132307470922659,0.5255915789665923,0.6504258058054571,0.7866505472456137,0.9331584681141057,1.0888738016508217,1.2527867514167355,1.4239756114727873,1.601621252648315,1.78501652474811,1.9735721795212418,2.166820477307611,2.3644174170242214,2.5661444055984743,2.771910113426704,2.9817532330700987,3.1958468693635442,3.4145053478080145,3.638194347602764,3.8675454658778947,4.103376630694331,4.34672024808129,4.598823423057207,4.861049853261358,5.134805594453006,5.421528367149712,5.722697399355754,6.039848092948704,6.374586372654772,6.728601373022483,7.103676277835064,7.501697317384036,7.924660795024031,8.37467778471371,8.853975886546404,9.364897163850193,9.90989111699328
G1,0.0,0.0,0.0,0.0237640168528872,0.0782890267423302,0.1627867470246992,0.2732509247652936,0.4047123515332122,0.5522942451468181,0.711655280102267,0.8791286405194363,1.0517175539317227,1.2270295219617806,1.403190280789129,1.5787570337340435,1.753641104897501,1.9278012442746166,2.1012837271032296,2.274234961334122,2.446901455738464,2.619625190733669,2.792838652007957,2.9670617414194136,3.142901726997136,3.32105691132605,3.5023245497961333,3.68761361239773,3.8779631973483712,4.074567758120784,4.278810817120547,4.492309561208574,4.716973737366222,4.955083737225174,5.2093949080030235,5.482277908560613,5.773995015554637,6.0854726271463315,6.418017213545709,6.773182413363451,7.152707749555674,7.558490610539051,7.992572689742846,8.45713128680042,8.954470116825073,9.487006114256213,10.05724938705119,10.667773583113924,11.321173798498819,12.020008997678056,12.766725915540905
H1,13778.620116836726,12902.939599054193,12154.521045856438,11458.937368781708,10812.416893037991,10211.457341093817,9652.806590045873,9133.444803460272,8650.56783951077,8201.571844249846,7784.0389453603375,7395.723967781846,7034.542098220866,6358.796839392902,5743.065643565438,5181.97529508392,4670.647798165119,4204.658111583011,3779.9953577400047,3393.027184940062,3040.466979151964,2719.3436362517236,2426.973618069913,2160.9350261932095,1919.0434373953997,1699.3292553263698,1500.0163468537055,1319.5017511934109,1156.33627943358,1009.205865564669,876.9135919581361,758.3623954424759,677.0618581024555,660.2510618371575,644.5274539795668,629.8137871127617,616.0383300204256,603.1344736778169,591.0403653862227,579.6985690406464,569.0557496640702,559.0623804749662,549.6724708785367,540.8433138871344,532.535251582061,524.7114573280775,517.3377335440001,510.3823239182381,503.8157390374862,497.61059447049405
S2,50986.423856543,54021.33003848008,56788.53102538078,59324.920826850466,61647.21687629988,63770.940454592994,65710.50158792993,67479.27833178874,69089.69055007111,70553.26846009292,71880.7162721747,73081.97126200421,74166.25860223417,76172.1693315342,78085.84865044229,79909.43166344574,81644.91136726928,83294.13428589058,84858.79741658845,86340.44664493468,87740.47684499982,89060.13395272638,90300.51938113902,91462.59722996951,92547.20482011724,93555.06714033244,94486.8158067044,95343.01307117697,96124.18122590205,96830.83737228086,97463.53287638442,98022.89581848196,98348.25903803082,98238.7615737945,98102.78912849784,97942.03272339846,97757.9929584717,97551.96085848432,97325.00435791015,97077.95374138409,96811.38343937046,96525.58899334169,96220.55857637794,95895.93882637995,95550.9951767009,95184.56748861115,94795.02270087998,94380.20749453624,93937.40567261701,93463.30704917492
E2,0.0,0.0,0.061577798913171486,0.15196487092571898,0.25257805749810014,0.3533760431568158,0.449331462344714,0.5382742805681853,0.6196004673255625,0.6935152345568376,0.7606005364172822,0.8215758682619458,0.8771721966676769,0.9280706873007604,0.9818323054957949,1.0381746136236976,1.0972622829665115,1.1595434489189143,1.2256592368067902,1.2963997120567017,1.3726899240645778,1.4555964945430782,1.5463496699634822,1.6463788110096478,1.75736154670733,1.881288720457928,2.0205491500127715,2.1780404371786766,2.3573149558806827,2.5627741885066753,2.7999304483352825,3.075763758991814,3.39921490587633,3.7667918917976815,4.147861413050369,4.553094328360514,4.989160438452935,5.460831977791352,5.97200823127816,6.526201872015064,7.126751062950323,7.7768845643565605,8.479699053288053,9.238073711043821,10.054529807601593,10.931034303214823,11.868742671340549,12.867675844398835,13.92632930530591,15.0412195030346
I2,0.0,0.0,0.0,0.009410564570564205,0.03037770459315213,0.061692846140291656,0.10090268821537222,0.14537395116882268,0.19277320589599845,0.24123428998109012,0.2893699246466464,0.33621444944758105,0.3811437340422563,0.42379502931628465,0.463996675067743,0.5027736735838148,0.5408620592501477,0.578846524586915,0.6172400334882266,0.6565305158743239,0.6972096326805909,0.7397925099149723,0.7848337471705378,0.8329429572964958,0.8848020031577483,0.9411856127962035,1.0029869762048351,1.0712501571248152,1.1472116665863434,1.2323543772223162,1.3284782077049035,1.4377938538902515,1.5630485821420375,1.7076972063817706,1.873832384525618,2.058363433001128,2.2605716047694986,2.480929820240252,2.7205269011902846,2.9807864645123967,3.2633275518154052,3.5698910955035466,3.9022939689277027,4.262390589587822,4.65203067714444,5.0730056825682,5.52697804966896,6.015388137514064,6.539334093241731,7.099420792251999
A2,0.0,0.0,0.0,0.0029703303131488413,0.009940947550163663,0.020920680594221298,0.03543292585527141,0.05281629288371774,0.0723848118689139,0.0935064496706564,0.11563561335668983,0.13832085492207527,0.16120010459321485,0.18399040015351914,0.20647590449728911,0.22883163767037124,0.2511978002342925,0.27370555723315004,0.296491805893663,0.31970779069975364,0.34352455031876294,0.36813703168375195,0.3937680236485777,0.42067267800813973,0.44914419491344265,0.47952119081264266,0.5121973069129926,0.5476337425945802,0.5863756161158561,0.6290733860122899,0.6765110524984301,0.729643568296292,0.7896469336894794,0.8579860082314663,0.9357798083487793,1.022534174040559,1.1183295203497872,1.223558255177545,1.3387954629057899,1.4647346731488375,1.602154867621109,1.7519017137411108,1.9148742115022381,2.092011863411488,2.284279278145483,2.492645865526564,2.7180585168310727,2.961405188147614,3.223467310738185,3.5048591084040943
IH2,0.0,0.0,0.0,0.0,0.0003764225828225682,0.0014029430525545467,0.0031677824288363853,0.005616830960604245,0.008617756696094426,0.012011188827191056,0.015642954824011943,0.019380631443047816,0.023119513067984102,0.02678238638261432,0.030316211977575933,0.03368765677952011,0.03692108767633313,0.04005810512049614,0.043142855438604175,0.04621788620339255,0.04932394585046584,0.05250103428660609,0.05578971650561533,0.05923241842312356,0.06287469508499849,0.06676655297372418,0.07096393444573651,0.07553048233661593,0.08053971697096396,0.08607778543196476,0.09224699001944306,0.09917037632789823,0.10699777194323128,0.11591383148535392,0.12614889016646244,0.1379015915740895,0.15114743151551577,0.1658454325170223,0.18199406363560422,0.1996361138017779,0.21884987936758304,0.23973919187704013,0.2624255005667849,0.28704208353993377,0.3137296232699398,0.34263230909747755,0.3738937495423693,0.4076521030084007,0.44403392490175453,0.48314629225564476
IN2,0.0,0.0,0.0,0.0,0.0018803144337871621,0.007727666009510813,0.01914049805732011,0.037038015537006405,0.0617045568585099,0.09292459200922892,0.13013520575919063,0.17256286792973652,0.21933258579941084,0.26954814477392475,0.3223468445777082,0.37693371679648896,0.43281261806685173,0.4896931498442102,0.5474360856246013,0.6060211598922204,0.6655279966572052,0.7261250410653879,0.7880637431006288,0.8516766278206094,0.9173786987891672,0.9856721195831897,1.0571544607126586,1.1325310856448567,1.2126325481053026,1.2984382385722328,1.3911080066719805,1.4920241669893533,1.6028472651892376,1.725590383333132,1.8627188198802038,2.0168244354229334,2.189575006557751,2.382297450798725,2.5962562455435996,2.8327838753993695,3.0933396840459233,3.379533918277091,3.6931342356351204,4.036062261202593,4.410382879599308,4.8182863530842015,5.262061850607663,5.7440599733933855,6.266641114871372,6.832105925574277
D2,0.0,0.0,0.0,0.0,0.0,3.7642258282256823e-07,1.779365635377115e-06,4.9471480642135e-06,1.0563979024817745e-05,1.918173572091217e-05,3.1192924548103226e-05,4.683587937211517e-05,6.621651081516299e-05,8.933602388314709e-05,0.0001161184102657614,0.00014643462224333734,0.00018012227902285745,0.0002170433666991906,0.0002571014718196867,0.00030024432725829085,0.0003464622134616834,0.00039578615931214927,0.00044828719359875537,0.0005040769101043707,0.0005633093285274942,0.0006261840236124927,0.0006929505765862169,0.0007639145110319534,0.0008394449933685693,0.0009199847103395333,0.0010060624957714981,0.0010983094857909411,0.0011974798621188394,0.0013044776340620707,0.0014203914655474246,0.001546540355713887,0.0016844419472879766,0.0018355893788034924,0.0020014348113205145,0.0021834288749561187,0.0023830649887578966,0.00260191486812548,0.0028416540600025198,0.0031040795605693046,0.003391121644109238,0.003704851267379178,0.004047483576476656,0.004421377326019025,0.004829029429027426,0.005273063353929181
R2,0.0,0.0,0.0,0.0,0.0003597172441006221,0.001974195336732621,0.006123180309148296,0.014261857392612667,0.0278469741522675,0.048219667417763866,0.07653935660377958,0.11375572599455067,0.16060609134629494,0.21762808279276113,0.2851804612938116,0.36346729839161057,0.4526031741381722,0.5526731521935674,0.6637646357043958,0.7859872134634446,0.9194876674868392,1.064463284469582,1.221174881722268,1.3899602784045353,1.571248733954894,1.7655768751313128,1.9736067301673534,2.196146644123625,2.4341760592698454,2.6888754228790788,2.961662860520119,3.2542397688295526,3.5686482009076474,3.907343933175473,4.273290555034656,4.669993909757086,5.101305855879282,5.571272985416853,6.084125857415621,6.64431345920998,7.256547753661613,7.925846784968239,8.65757336935803,9.457468979578774,10.331682773982948,11.286795282384618,12.32983556927396,13.468289913974179,14.710099213890773,16.063641440607828
G2,0.0,0.0,0.0,0.009410564570564205,0.03263444160976186,0.07123442668790876,0.12523876153766222,0.1939073858570109,0.27616860602669446,0.3708584180795861,0.4768441793548419,0.5930821837442709,0.7186386812864821,0.8526916312447038,0.9945230913332127,1.14457061611341,1.3032285969029211,1.4709165907407837,1.6481226405025282,1.8354327683903828,2.0335537375528725,2.2433336808728255,2.4657837366128748,2.7021030542029894,2.9537092236677602,3.2222762169835684,3.5097822547473925,3.818570626202589,4.15142744364537,4.511681707308679,4.90333506950053,5.331231596206552,5.801282068432874,6.3207636336326845,6.8964197783354715,7.530312485548052,8.226134501423019,8.988597877633808,9.823143977738324,10.735810069548938,11.733170241576751,12.822308733694655,14.010803217784558,15.3067046122537,16.718503843466788,18.255077148311862,19.925601362379737,21.739429905318612,23.705919395752524,25.83419652601041
H2,13778.620116836726,14598.776076172246,15346.619665674067,16032.10188721531,16659.73905775668,17233.72432323848,17757.950748516152,18236.032757941855,18671.326044403995,19066.946056221383,19425.78516347469,19750.528598101922,20043.66925534703,19277.494366484243,18475.9463643903,17646.2624890605,16795.148769013074,15928.832404622563,15053.109290528459,14173.386779056227,13294.721692602352,12421.853490345184,11559.232384323235,10711.042084885268,9881.216742081866,9073.451548857394,8291.206401563955,7537.701999202416,6815.907839940099,6128.521785347404,5477.941257293814,4866.226752426364,4456.473437167779,4451.7817432564325,4445.945131682224,4439.054888732167,4431.195696279124,4422.446104420117,4412.878970344484,4402.561865844161,4391.557455706062,4379.923849066518,4367.7149256591765,4354.9806387497965,4341.767296423284,4328.117822769345,4314.072000402668,4299.666695651018,4284.9360676493325,4269.911762489518
S3,152959.27156962897,152291.59220960282,151665.3957187305,151077.32990425048,150524.3340051871,150003.57134753562,149512.41227378845,149048.41923865728,148609.33321818957,148193.06110052284,147797.6639240303,147421.34589780966,147062.44416042138,148730.55930319903,150478.680355168,152308.83730967878,154223.31137959132,156224.646601969,158315.65957575353,160499.44649638608,162779.38634690308,165159.1387561416,167642.63463303138,170234.05723242677,172937.81081548164,175758.47356595186,178700.73096564176,181769.28549888224,184968.73846040684,188303.4399222401,191777.30371540316,195393.5856939674,197951.33396316544,197463.16023621068,196975.71506536883,196488.11313368313,195999.41641991687,195508.57993401188,195014.40867310247,194515.51379313672,194010.26326417428,193496.7247670339,192972.59957645953,192435.1468092342,191881.0981510207,191306.5642553686,190706.9356125274,190076.78296511163,189409.76539741823,188698.55801448348
E3,0.0,0.0,0.09919659548837702,0.23608796446982522,0.37949529059129894,0.5146893292061467,0.6356822783289211,0.740975743702259,0.8312420327647937,0.9080827629697483,0.9733839188859896,1.0289977326886135,1.076600731137155,1.1176442552426324,1.161111088783913,1.2070859367716456,1.2560895275898856,1.3088991233982206,1.3664594896294102,1.4298486431499278,1.5002777784276828,1.579114087830485,1.6679210716547297,1.768514836746694,1.8830377512054364,2.014053301063758,2.164668580370423,2.3386940013353774,2.540854064962706,2.777069094128488,3.054836746934943,3.3837555248725044,3.776252972872374,4.225831784017881,4.683765154151862,5.1638371088351676,5.674943403260153,6.22358354219,6.815091092902125,7.454232870111419,8.145484787218658,8.893132883252422,9.701268916814389,10.573710183422806,11.513852974226765,12.524458811280024,13.607367939635374,14.763133926276613,15.990576507881146,17.286257764141205
I3,0.0,0.0,0.0,0.015159618945454626,0.047604110958447535,0.09418420439632871,0.15025486909250554,0.2113699146389133,0.2739203960206904,0.33526557001198426,0.39364273264146754,0.44800011569148324,0.4978212398108668,0.5429696954859393,0.5835635851324794,0.6210654739640165,0.6566001360151308,0.6911021942972931,0.7254009252177657,0.7602711201490957,0.7964665154396595,0.8347451943272397,0.8758923847369096,0.9207439503035679,0.9702128518181158,1.0253205191888304,1.087235196503512,1.1573198110273457,1.2371927703303762,1.3288063905313925,1.4345495723233803,1.5573841587663995,1.7010285978730137,1.870208847706864,2.0675245952580594,2.2875054751222947,2.5280994938399366,2.7891062289705424,3.0713666013695486,3.376334968599455,3.705845403971116,4.061976180634873,4.446962192930753,4.863127706526376,5.31282298183641,5.798353700686137,6.3218946487111385,6.885380312204998,7.4903658687681425,8.13785317804799
A3,0.0,0.0,0.0,0.00478494944185582,0.015593658477064912,0.03201093948500003,0.05296139043879826,0.07721101040409734,0.10360296212202061,0.13115293543114026,0.15907308079878116,0.1867619342873026,0.2137802175004599,0.23982272084713077,0.2646912050543152,0.2886447411454313,0.31191511166794234,0.3347311478957147,0.3573314616666027,0.37997134078332323,0.4029271571503982,0.4265002375090616,0.4510213661963097,0.47685668704048284,0.504415606195388,0.5341612907982854,0.5666244718090291,0.6024214838359175,0.642277824219955,0.6870590259827261,0.7378113819215667,0.7958161399485961,0.8626623876677458,0.940346236588073,1.0303086514236883,1.1314656546365762,1.2435294426013805,1.366676170540304,1.5013741774958778,1.6482923604978423,1.8082485478372605,1.9821774307609155,2.171107251988031,2.376139104792998,2.59842487126713,2.8391407636161747,3.0994537583218063,3.38047827495064,3.6832204754455207,4.008507739667523
IH3,0.0,0.0,0.0,0.0,0.000606384757818185,0.002206750432489176,0.0048685366416652475,0.00843959454789118,0.012666154264954231,0.017277226819039777,0.02203195898318022,0.02673965683826563,0.03126309338995388,0.035513133194021655,0.03943984128325438,0.043023024205643114,0.04631110803717657,0.04937324835115634,0.05228133869911874,0.05510442501957088,0.0579079528907297,0.060754729110060496,0.06370641759900977,0.06682519777138227,0.07017553170006247,0.0738261043910558,0.07785204685869006,0.08233757924262683,0.08737924448316461,0.0930899538103142,0.09960414257260249,0.10708445003666386,0.11573050691895126,0.12579066686747722,0.1375778966751457,0.15135235425122007,0.1670250437762506,0.18446947659794652,0.203614517981197,0.22445830852739926,0.24705809469915044,0.2715158054137207,0.29796543412684157,0.3265632393465241,0.35748016469497057,0.39089552145624673,0.4269910132341126,0.46594430155226774,0.5079214189627815,0.5530674228131537
IN3,0.0,0.0,0.0,0.0,0.0030290265902869905,0.012182509684781422,0.0295605319128404,0.05608668195847026,0.09168692781407468,0.13557489391056365,0.18652956492721373,0.24312213044639389,0.30388261204907707,0.36741168770479804,0.4324482766100225,0.49790404321835086,0.5631116023677059,0.6277072400264144,0.6915570044084762,0.7547084829292344,0.8173584450680262,0.879830991705177,0.9425633642531768,1.0060979873368656,1.071080146296599,1.1382612266039724,1.2085078385502843,1.282817524447224,1.3623421727966127,1.4484208110853278,1.542624190854226,1.646814615297447,1.7632259365827314,1.8945707893487094,2.0441852748229485,2.2155303759086697,2.410564719308749,2.630605279475278,2.876773226819103,3.150225154992961,3.4522714615095538,3.7844340280232713,4.148470001513242,4.546375263886167,4.980374054111014,5.452897154534182,5.966548555907589,6.524058817902197,7.128222085926287,7.781812781626838
D3,0.0,0.0,0.0,0.0,0.0,6.06384757818185e-07,2.813135190307361e-06,7.681671831972609e-06,1.612126637986379e-05,2.878742064481802e-05,4.6064647463857795e-05,6.809660644703801e-05,9.483626328530363e-05,0.0001260993566752575,0.00016161248986927917,0.00020105233115253355,0.00024407535535817665,0.00029038646339535324,0.0003397597117465096,0.00039204105044562834,0.00044714547546519925,0.000505053428355929,0.0005658081574659895,0.0006295145750649993,0.0006963397728363815,0.000766515304536444,0.0008403414089274998,0.0009181934557861899,0.0010005310350288167,0.0010879102795119814,0.0011810002333222955,0.001280604375894898,0.0013876888259315618,0.0015034193328505132,0.0016292099997179904,0.001766787896393136,0.0019181402506443562,0.0020851652944206068,0.0022696347710185532,0.00247324928899975,0.0026977075975271494,0.0029447656922263,0.003216281497640021,0.0035142469317668624,0.0038408101711133865,0.004198290335808357,0.004589185857264604,0.005016176870498716,0.005482121172050984,0.005990042591013766
R3,0.0,0.0,0.0,0.0,0.000579473878297567,0.0031293534107758344,0.009550182622686814,0.021894366091371457,0.04209802454119345,0.07182154104649352,0.11237759662633474,0.1647186255691092,0.22945989121100177,0.3069209917094645,0.3971744985057898,0.5000948607531999,0.6154490884165524,0.7429775428821785,0.8824398593175528,1.0336446739770206,1.1964716904553359,1.370890076547011,1.5569752263886811,1.7549251375071004,1.9650773906833203,2.18792769578025,2.4241510622548694,2.674626831951435,2.940469075820444,3.223064229742798,3.5241183703050805,3.8457172733695995,4.1904034515645,4.561275873353182,4.962120241842602,5.39744780822085,5.872177957789605,6.391382369650584,6.960246569440713,7.584109833120847,8.26852830239557,9.019340764032496,9.842730155711655,10.745278752403413,11.734016356398893,12.816460798234242,14.00064949475591,15.29516001206695,16.709116648900952,18.25217903201546
G3,0.0,0.0,0.0,0.015159618945454626,0.05123952230655271,0.10923550461456197,0.18789237854902135,0.28503987703322103,0.3982787424100804,0.5253124617239241,0.6640892875795048,0.8128456962576022,0.9701012295397291,1.1346316427064738,1.3054344907542172,1.4828801134859824,1.667351795662004,1.8593124018288754,2.059343580833215,2.2681713643392474,2.4866865308438078,2.7159649584080054,2.9572914648778195,3.2121898084438816,3.4824612919808757,3.7702346235920903,4.078030273529886,4.40884355053856,4.766252085737926,5.154555527314782,5.578958290785828,6.0458106136514065,6.562929614652347,7.140031639460175,7.785840089416586,8.501631741512755,9.290789902444917,10.158057363660616,11.109170196820882,12.150679570588286,13.28986513724226,14.534690575981243,15.893774575564631,17.37636114360387,18.99227766202052,20.75187054748118,22.665908243455267,24.745440426993145,27.00160137345718,29.445344985666335
H3,41335.86035051018,41155.42603945637,40986.259109082,40827.40480300244,40678.03478544427,40537.38138911029,40404.73326233483,40279.431327392944,40160.86502773541,40048.468843509094,39941.71905619677,39840.13074457935,39743.25499549478,39650.67631404837,39549.74799198468,39440.11850115136,39321.52540041629,39193.78826932964,39056.80232428311,38910.532653610855,38755.00900981953,38590.32109774487,38416.61429681539,38234.08575367911,38042.980778170895,37843.58947099664,37636.24350574854,37421.3129813145,37199.20325407976,36970.35165362838,36735.22398253085,36494.31070240612,36248.122717414946,35999.108283307534,35752.113115985405,35507.10675825317,35264.06009346692,35022.945255738974,34783.73554651758,34546.40535708641,34310.93009656122,34077.28612499114,33845.450691200334,33615.40187503151,33387.11853367707,33160.580251806234,32935.767295217,32712.660567761657,32491.24157131187,32271.492368546766
S4,76479.63578481448,77754.29638122807,79023.16286177502,80286.7349507239,81545.3518872929,82799.3193455644,84048.91388604311,85294.38657267718,86535.96584991658,87773.85984955665,89008.25828042197,90239.33401638773,91467.24446345885,93962.74354406119,96470.23667319583,98989.60199181314,101520.64457353877,104063.09017392542,106616.57846665724,109180.65592922897,111754.76857359536,114338.25477800386,116930.33856156643,119530.1237502929,122136.5896071264,124748.58862819175,127364.84732219779,129983.97085299956,132604.45237611714,135224.6876437994,137842.9948482596,140457.638513679,142785.38466604514,144424.403928157,146057.08257326245,147682.7858691996,149300.7693914175,150910.11862055655,152509.69680342343,154098.08903158398,155673.53721037324,157233.8628974373,158776.37589886176,160297.76712465446,161793.98500487165,163260.0960515238,164690.13217916846,166076.93041802075,167411.97487002035,168685.25623092463
E4,0.0,0.0,0.1519380296778928,0.36654082173500757,0.5971534115134108,0.8208175194615244,1.027504969544831,1.2140350667935624,1.3806751826879449,1.5292720379287732,1.6622506832875334,1.782100660712574,1.8911317550510032,1.9913756115130845,2.0992706089126116,2.2146058022209933,2.3380888464090965,2.471019156611282,2.6151176160833973,2.772455084603661,2.9454455071315753,3.136884509177502,3.350024273580405,3.588682376424449,3.857387574380285,4.161570338345165,4.507811090514001,4.9041654874266545,5.360594730597187,5.889541190132112,6.506707692323532,7.232125911873838,8.09164064132625,9.080584089242343,10.12392911840287,11.251174706534496,12.482537281441651,13.834012182957853,15.31988392968949,16.953944151833635,18.750036780944072,20.722229237542894,22.884745729489715,25.251714793353173,27.836738571166748,30.652267055158283,33.708748259323386,37.013522418496514,40.569435815470925,44.373170848778464
I4,0.0,0.0,0.0,0.023219775052762914,0.07366769540243995,0.14726089090232058,0.237387024199394,0.337486909386134,0.4420882251498241,0.5470718222364608,0.6495885832056962,0.7478432402206371,0.8408515083458704,0.9282181334439992,1.0099531309480276,1.0885762930458676,1.1659709059054102,1.2436767735866563,1.3230630232496454,1.405433445429444,1.4920956471460052,1.5844125683215131,1.6838475424011672,1.792009994004147,1.910706810610159,2.042003674661351,2.188300805791136,2.352428475971653,2.5377693303313054,2.7484171361379968,2.989385431460138,3.266885231859309,3.588699416506528,3.96469416514869,4.401656309462484,4.893279192537433,5.439276701145214,6.042520889596522,6.7076395396167365,7.440333666792311,8.247044824382462,9.134785508705722,10.111036396394864,11.183658031462375,12.360785108859027,13.650680284932317,15.061527415022603,16.601144500355097,18.276596479914545,20.093689037807085
A4,0.0,0.0,0.0,0.0073290397389605124,0.02412230943595477,0.05000592334536724,0.08354383528826691,0.12299017977271637,0.16665709435050904,0.21307401974339932,0.26103756680019125,0.3096070581996741,0.3580758240050711,0.4059341916136009,0.4528322120691677,0.49925525506100493,0.5456197349728956,0.5923257721468663,0.6397877109023192,0.6884527273349704,0.7388137351045481,0.7914203958692474,0.8468906580447167,0.9059245100131318,0.9693213176929141,1.0380020948177493,1.1130382669854866,1.1956889265012924,1.2874492662198835,1.3901139047904307,1.5058603093713483,1.6373597060879215,1.7879260949219533,1.961718815137776,2.1621683352620713,2.3886705957652405,2.6421176339694457,2.924268638894418,3.237441323437112,3.5843617602642572,3.9680911525615836,4.391987771434542,4.859681760403507,5.37504977367274,5.942180507937264,6.56532363159549,7.24881471423272,7.9969682542013025,8.813930320373904,9.703482174621794
IH4,0.0,0.0,0.0,0.0,0.0009287910021105166,0.003410174526150746,0.007592112724642046,0.013283945217572143,0.020128165039013858,0.02772748336046088,0.03571888708632841,0.043807267984305724,0.05177355633299404,0.05946906494399884,0.06680378874481539,0.07373321582158399,0.08033592641680512,0.08672646351820217,0.09302357623904914,0.09934128547327134,0.10578863926834015,0.11247235688074195,0.11950020881635076,0.12698450589540572,0.13504566820197333,0.14381606085719106,0.15344436135419237,0.16410076854738742,0.17598342254401245,0.18932650106271443,0.20441060947581438,0.22157631138683687,0.24124198865640395,0.26392772899980665,0.29028770337685117,0.3209198163635481,0.35587015606690786,0.3951502759231956,0.43888082326953554,0.48730711239616775,0.5407795957573801,0.5997308112582311,0.6646570951660862,0.7361053463436715,0.8146628890839871,0.9009481860072706,0.9956003562149207,1.0992656743521496,1.2125793515159264,1.336140955603029
IN4,0.0,0.0,0.0,0.0,0.004639517411906301,0.018810264429063788,0.0460096193480732,0.08800012365752505,0.1450252803805738,0.21620637513814264,0.2999455759974981,0.39426474675981815,0.49706099385657654,0.6062834629272107,0.7200448777583457,0.8366831704465948,0.955236321833745,1.0752323875606322,1.1965629064078849,1.3194058085800506,1.4441784895083947,1.5715102509955923,1.7022282951693564,1.8373543784360882,1.978110991966404,2.1259370757374954,2.2825141287832236,2.4498043653694963,2.630103443234726,2.826111396476217,3.0410268987000926,3.2786720675761933,3.5436579970909357,3.8416055180633517,4.179442039085326,4.564631737163868,5.0024958790280385,5.497669220101874,6.0548122277665275,6.678958850361773,7.375686787458311,8.151201146701897,9.012374320096768,9.966760611232855,11.022591486849583,12.188750266910132,13.474720598097347,14.890499708355604,16.44646456500907,18.15317649466237
D4,0.0,0.0,0.0,0.0,0.0,9.287910021105166e-07,4.338965528261263e-06,1.1931078252903308e-05,2.521502347047545e-05,4.534318850948931e-05,7.30706718699502e-05,0.0001087895589562786,0.00015259682694058433,0.00020437038327357837,0.00026383944821757724,0.0003306432369623926,0.0004043764527839766,0.00048471237920078177,0.000571438842718984,0.0006644624189580331,0.0007638037044313045,0.0008695923436996447,0.0009820647005803866,0.0011015649093967374,0.0012285494152921431,0.0013635950834941166,0.0015074111443513076,0.0016608555057055,0.0018249562742528873,0.0020009396967969,0.0021902661978596143,0.0023946768073354286,0.0026162531187222653,0.002857495107378669,0.0031214228363784756,0.003411710539755327,0.003732630356118875,0.004088500512185783,0.004483650788108978,0.004922531611378514,0.005409838723774682,0.005950618319532062,0.006550349130790293,0.007215006225956379,0.007951111572300051,0.008765774461384039,0.00966672264739131,0.010662323003606231,0.01176158867795838,0.012974168029474306
R4,0.0,0.0,0.0,0.0,0.0008875719865673778,0.004821975562166851,0.014807632392607867,0.034162668115893025,0.06610690267733046,0.11350579554710365,0.17874414690675938,0.2636905410950847,0.3697181359683645,0.497756266270397,0.6483556466044805,0.8217564018748137,1.0180386090994333,1.2372582871497468,1.4795213657400392,1.745030500017398,2.034120553852251,2.3472899738147714,2.6852315592096834,3.0488646630272234,3.439370407252545,3.85823151325202,4.307278605545042,4.788745270713971,5.30533474520893,5.860301914744194,6.45755541997352,7.101786208416849,7.7986310438818895,8.554882569525729,9.378761955313742,10.280052199128853,11.269644881629235,12.359191999661753,13.56111252066664,14.888717609734787,16.35636658825172,17.979624397605292,19.77541282107444,21.762154227057657,23.95990735297919,26.390493284800627,29.077607614741282,32.04691217276533,35.326096793532905,38.94489829880627
G4,0.0,0.0,0.0,0.023219775052762914,0.07923600381645676,0.1704953673657055,0.2959359710227936,0.452963374293763,0.6384970502067273,0.8494973325646803,1.0832067783858874,1.3372385506094937,1.6095862738941202,1.8985965634214579,2.2029265184887894,2.523745416938148,2.862190299151841,3.219506352164291,3.597137344807934,3.996790038150773,4.4204876703029194,4.870622388060929,5.35001357685029,5.861977633635413,6.410414372568027,6.999915710437918,7.635903470233681,8.324805121281711,9.074279230436485,9.893506675055663,10.793569825069955,11.787950818887841,12.893193115256794,14.129789877092568,15.517520916825697,17.064700100850846,18.784149446869836,20.69178052762864,22.805949387435838,25.147195087646374,27.738164381491057,30.60361970697827,33.77047334136855,37.26781136204017,41.1268790256213,45.38100032227984,50.065401899599685,55.21690711229093,60.87346107899633,67.07344389863535
H4,20667.93017525509,21012.395678176006,21355.357561838144,21696.909721080494,22037.138094438847,22376.121717650884,22713.9332292268,23050.639339746256,23386.30126747453,23720.975142705658,24054.712383068232,24387.56004186987,24719.56113140803,23780.144139298656,22841.809064477737,21905.269288635434,20971.32306639698,20040.86260723823,19114.88347787602,18194.494183927298,17280.925712989978,16375.540721525009,15479.841920944775,14595.47906092727,13724.253719113456,12868.120889079233,12029.186122866075,11209.696751195448,10412.025509633115,9638.644797372854,8892.089863011497,8174.909542688721,7771.073445935841,8073.1411352476325,8373.133704275195,8671.06798024174,8966.960536560517,9260.827704006075,9552.685581137233,9842.55004402488,10130.436755333933,10416.361172805277,10700.338557180203,10982.383979606871,11262.512328565468,11540.73831634611,11817.076485111163,12091.541212571305,12364.146717302652,12634.90706373025
E_Om,0.0,0.0,0.5467258051755503,0.8502681915742218,1.0515437367942133,1.2154704917433174,1.3724983475842225,1.5374849243928248,1.7182983016341407,1.9197515605213629,2.14541239680105,2.398444415575555,2.682007275536172,2.999456503758012,3.383001076240552,3.839085998735124,4.379129416048803,5.018963252610881,5.7791064483058125,6.685618605523208,7.77146917403524,9.07847461977426,10.659948640688945,12.584306509710832,14.939986160629037,17.84221925108004,21.442436706975194,25.94147274244736,31.608314640959215,38.80705618446444,48.03615645533223,59.98643249258194,75.6280287806793,95.76212666155328,120.17423247273264,150.35373701259843,187.83857000612954,234.4232612048209,292.2800978193864,364.0609115707141,453.0028188270758,563.0461722629307,698.967221544372,866.5247982220303,1072.6173014883793,1325.4423228643955,1634.6458342763556,2011.4406439517227,2468.6647794705177,3020.740126908914
I_Om,0.0,1.0,0.7601911129042465,0.6614433439716697,0.6327647244847898,0.6417232235708494,0.6735853347756862,0.7218042511180471,0.7836737488091883,0.858339011827528,0.9458857708777559,1.0469244271582216,1.1624024769715158,1.2935230702164153,1.4417136357703022,1.6129815964205563,1.8128786930389609,2.047370276079427,2.323410649711827,2.64942220030803,3.035790083402235,3.4954475246100096,4.044616806036063,4.703777574102438,5.498953768606774,6.463443994705484,7.640171717141031,9.084909249780425,10.870746494746726,13.094353454445246,15.88486006798366,19.416606270429142,23.92769714332703,29.747399399008742,37.24845839073516,46.68145204733875,58.46448211930503,73.15041838969333,91.43379474063707,114.1745672433972,142.43173034995115,177.5050312521509,220.9847066092813,274.80956570083663,341.333561692832,423.4003897117283,524.4245901178674,648.4760020094633,800.3620669277545,985.6993177327431
A_Om,0.0,0.0,0.0,0.02637243066098422,0.06419305310815261,0.10714240285284807,0.15279777850721626,0.20049868857849545,0.2503813168800747,0.30294488770406164,0.3588603363161303,0.4188894404647279,0.48385432690943564,0.5546299725844457,0.6321472523698406,0.7187779744231237,0.8169176007093275,0.9292222719156873,1.0587901459923572,1.2093339560563705,1.385373848339214,1.5924729122099515,1.8375376299744128,2.129209779717095,2.478384740167751,2.89890440564259,3.408492802584909,4.030032095272331,4.793320985577406,5.7375245982618726,6.914627830163047,8.394364215005597,10.271345279355176,12.67552165907437,15.759753130651642,19.64804108664888,24.521213716338384,30.6123854584542,38.21300257999892,47.68400088967823,59.47052211908873,74.1199486898737,92.30344404643176,114.84128353790368,142.7321932870041,177.18670854780586,219.6641920726249,271.91256581718915,336.0089449602459,414.39816722843887
IH_Om,0.0,0.0,0.04,0.05036764451616986,0.051591188372435544,0.05105459197723695,0.051145170339475216,0.05246485339042557,0.055052131886544245,0.0588179637637531,0.06368372439121392,0.06961360930632599,0.07661416813018553,0.0847265689758232,0.09401948072759239,0.10458426631388071,0.11670681274744873,0.13075184728253536,0.14713998283716223,0.16635927742421702,0.1889901674470055,0.21573769689214511,0.24747101173358083,0.2852727070964993,0.3305021838052507,0.384878740463091,0.4505922512793017,0.5304524020740129,0.6280921186261494,0.7482478269843176,0.8971498038429844,1.0830721548369955,1.3171172560808264,1.6143493965174134,1.995456324822539,2.485671041715853,3.1076079317097607,3.889275642695372,4.866765281292724,6.085867664990552,7.603830654566172,9.491580710626566,11.836500024688693,14.745801776690909,18.35053771460223,22.810260787299793,28.318335721331724,35.10783312965923,43.457848812078495,53.699949234337346
IN_Om,0.0,0.0,0.3996177741915072,0.656141076576239,0.8314811664412007,0.9595995749681543,1.0604556093948811,1.1466721587790458,1.226819063141408,1.307100427385191,1.3922714463521202,1.4861710841912754,1.5920547618705425,1.7128172189709028,1.8511514043748314,2.0096679246502394,2.192108114302069,2.4031082279087173,2.648209031886401,2.934006586572596,3.2684029388775904,3.6609486880949134,4.123289163108057,4.669740706997571,5.318038095643655,6.0903117212579,7.0143769079211,8.125451293043337,9.468464811666646,11.101198301086342,13.098593300194135,15.558736616238864,18.611269938766462,22.429358530955934,27.24695957558845,33.36253008294212,41.1022923103096,50.85836559116555,63.11427683635456,78.46920495901495,97.66528946507862,121.62007671814993,151.46549391870758,188.59455646741154,234.7169497396011,291.92452189739674,362.7674797755342,450.3415973149355,558.3859103925151,691.3890472855585
D_Om,0.0,0.0,0.0,4e-05,9.036764451616987e-05,0.00014195883288860544,0.00019301342486584234,0.0002441585952053176,0.0002966234485957431,0.0003516755804822874,0.00041049354424604054,0.0004741772686372544,0.0005437908779435804,0.000620405046073766,0.0007051316150495891,0.0007991510957771817,0.0009037353620910623,0.0010204421748385112,0.0011511940221210464,0.0012983340049582087,0.0014646932823824256,0.0016536834498294313,0.0018694211467215765,0.0021168921584551574,0.002402164865551657,0.0027326670493569073,0.0031175457898199987,0.0035681380410993,0.004098590443173313,0.004726682561799462,0.005474930388783781,0.006372080192626765,0.00745515234746376,0.008772269603544587,0.010386619000062,0.01238207532488454,0.014867746366600394,0.017975354298310153,0.021864629941005524,0.02673139522229825,0.032817262887288805,0.04042109354185498,0.04991267425248154,0.061749174277170235,0.07649497605386116,0.09484551376846337,0.11765577455576318,0.1459741102770949,0.18108194340675413,0.22453979221883263
R_Om,0.0,0.0,0.0,0.06726257811422785,0.1732416430775338,0.305150065408497,0.4571439988204292,0.6266404335150528,0.812770239126976,1.015713573344736,1.236400286741052,1.4763645644708152,1.7376689755844534,2.0228639432065725,2.334968796527682,2.67746842494705,3.0544893885026383,3.4710337750527813,3.93315603120241,4.448151411075844,5.024788935077856,5.673609817927335,6.407311049858624,7.241237879668672,8.194016589000716,9.288370110202699,10.552174675582465,12.019837598617716,13.734107315636628,15.748471290541996,18.130361940320153,20.965485665871668,24.36373156599065,28.46733036219957,33.46226255269025,39.59103434558855,47.1590837948932,56.54363719417496,68.21053186495996,82.7361322964139,100.83427352369924,123.38909514928855,151.49500761725022,186.50526509309728,230.09081768416175,284.31129411438565,351.7001013271954,435.36567407487075,539.1107973030865,667.5715634202733
G_Om,0.0,0.0,0.0,0.083552815833073,0.213494188540933,0.37419529199914126,0.5599483352720029,0.7696990011109417,1.0046635729636857,1.267260765530114,1.5606448477575705,1.8885153180719394,2.2550551496354063,2.6649301872401927,3.1233190806953606,3.640322783850463,4.2270272020124136,4.896263206870158,5.663281167882092,6.546467240652109,7.568190113048965,8.755856995613755,10.143265657818143,11.772361480868806,13.69554534056461,15.978733550103911,18.705452583715513,21.982371193062953,25.946850414585015,30.77735899308881,36.70800793577617,44.049084752796595,53.216450366582535,64.77422704496973,79.40897678056533,97.7744817898836,120.75213892533597,149.4583775873844,185.28387436294923,229.95128342540312,285.58852243723544,354.8182180817795,440.8651774373851,547.6841330860939,680.1099051920743,844.0315547689581,1046.5909314277753,1296.4040206411837,1603.800393909668,1981.071581258258
beta,1.0,1.0,1.000000000000001,0.9999877696435466,0.999971749452054,0.9999532298331019,0.9999329981795242,0.9999115164899594,0.9998890426201821,0.9998657083005199,0.9998415675042661,0.9998166256390048,0.9997908567553755,0.9997642134265905,1.0156041633602497,1.032212705909492,1.0496724659109111,1.0680769096412914,1.0875322057065113,1.108159444394315,1.130097301069656,1.1535052494783782,1.1785674578145402,1.2054975359393518,1.2345443489282266,1.265999174042621,1.3002045607768347,1.3375653646387233,1.3785625759375995,1.4237707709588618,1.473880296977329,1.5297256957870642,1.5923224143081494,1.6420769726886428,1.6412313140778498,1.640216291467407,1.6389861858353698,1.6374893081285646,1.6356638981977072,1.6334350452532052,1.6307117152506636,1.6273835808853594,1.6233175911841091,1.61835435274968,1.6123045182004878,1.604945527325946,1.5960192392697363,1.5852312316725048,1.5722528086279937,1.5567270080653417
