series,2021-11-15,2021-11-16,2021-11-17,2021-11-18,2021-11-19,2021-11-20,2021-11-21,2021-11-22,2021-11-23,2021-11-24,2021-11-25,2021-11-26,2021-11-27,2021-11-28,2021-11-29,2021-11-30,2021-12-01,2021-12-02,2021-12-03,2021-12-04,2021-12-05,2021-12-06,2021-12-07,2021-12-08,2021-12-09,2021-12-10,2021-12-11,2021-12-12,2021-12-13,2021-12-14,2021-12-15,2021-12-16,2021-12-17,2021-12-18,2021-12-19,2021-12-20,2021-12-21,2021-12-22,2021-12-23,2021-12-24,2021-12-25,2021-12-26,2021-12-27,2021-12-28,2021-12-29,2021-12-30,2021-12-31,2022-01-01,2022-01-02,2022-01-03,2022-01-04,2022-01-05,2022-01-06,2022-01-07,2022-01-08,2022-01-09,2022-01-10,2022-01-11,2022-01-12,2022-01-13,2022-01-14,2022-01-15,2022-01-16,2022-01-17,2022-01-18,2022-01-19,2022-01-20,2022-01-21,2022-01-22
S,296674.894052147,296238.6246682721,295898.5711180604,295624.7706291259,295398.29730681394,295206.8810244199,295042.3577357305,294899.14182757237,294773.2941082191,294661.9451876651,294562.93448378984,294474.5816904601,294395.5404193314,294324.70324434835,294261.1391493132,294204.0515617476,411780.9201898941,529343.1496863716,646894.1454794446,764436.0813629436,881969.9848898042,999495.950672918,1117013.3535733763,1234521.0079466626,1352017.2595056912,1469500.0146238701,1586966.7171658562,1704414.2816459448,1821838.9876071995,1939236.335606257,2056600.8608588693,2173915.2712324183,2291184.124057427,2408393.913254936,2525530.483920795,2642576.901026777,2759512.082198144,2876309.443483644,2992935.2483801516,3109346.46942021,3225487.974563344,3223660.6362040383,3221483.361460108,3218870.7008238006,3215729.7102736435,3211952.407521114,3207411.357593485,3201956.18348892,3195410.5169909317,3187569.4983565556,3178198.2344030044,3167031.8343584454,3153777.7907249527,3138121.520715001,3119735.7656894047,3098294.1971538914,3073488.977444682,3045051.2354836585,3012772.6097170636,2976525.418204647,2936278.86063353,2892109.0421330957,2844201.4622270744,2792845.7121019014,2738423.191246834,2681389.4613529844,2622253.2851290414,2561554.452031579,2499842.2544277357
E,0.0,436.26938387495375,668.2836480587081,776.5880218198689,810.7443525748541,801.3850494227765,767.4505233463152,720.6122822363081,668.0050392352374,613.926840285735,560.9025402175807,510.35145393498027,463.0074944139593,419.18386354869364,378.93979095594227,342.1853947022307,308.74738258617697,298.2292091717602,301.5494966535216,313.10744602865526,329.83550077174306,350.35870489664717,374.36235315950177,402.1701806383012,434.4943940856557,472.31016637312996,516.8136838811349,569.4342555440718,631.8822024336586,706.2232821161849,794.9770215677124,901.2410443450734,1028.8299778818377,1182.5099228675144,1368.2148080645825,1593.36437034404,1867.262018577951,2201.5982446631415,2611.088347699845,3114.2782704051483,3734.557821699628,4501.424971552188,5376.684724136461,6397.747783187749,7593.915403403445,8992.809613837891,10622.135550781513,12509.514177417619,14681.265800515623,17160.38889338004,19963.792849888694,23098.849018873447,26559.43750501811,30321.852975729205,34341.15364903917,38548.73070777475,42851.950818273566,47136.590192174684,51272.387565398916,55121.44177573988,58548.52055074688,61431.84409574965,63672.73976726268,65202.79123314963,65987.63990658024,66027.25513780313,65353.081309162175,64022.86637690845,62114.1379692274
I,594.4324788227217,452.37036644030803,355.1079760821056,286.8595557808548,237.6148553393802,200.98839526038603,172.8824767956748,150.64968803799425,132.56554892306647,117.4951263503091,104.68160090197338,93.61180875146565,83.93051974326386,75.38564944060236,67.79314683157364,61.014419700496504,54.941762607637706,49.48890118263843,45.077654146871375,41.80320617110441,39.59872017763873,38.33705211670843,37.88725310329897,38.14184373628936,39.02708112583291,40.50455631389484,42.56928901314725,45.247234454180216,48.59368717864588,52.69325716556219,57.66170235641309,63.64976845095363,70.84920265364893,79.5007843836546,89.90626723886844,102.44284702140747,117.58207921743752,135.91416901942438,158.17897453478685,185.30545874543148,218.4617514778045,259.1184427443449,309.1281886757112,368.9510970584727,439.86759884494506,523.5807451285907,622.073449169231,737.5436693570662,872.3509229361534,1028.9453322866607,1209.7633681381308,1417.0796964180554,1652.8086672665236,1918.2549424676915,2213.821910530265,2538.6989981342326,2890.563269512526,3265.343450536613,3657.10087541897,4058.0769703452597,4458.9382097167745,4849.218877081961,5217.926164594163,5554.240741609103,5848.227672443998,6091.471962841797,6277.568937378273,6402.426480121541,6464.366446005886
A,5325.409929745297,4260.327943796237,3505.4530312250617,2953.2404852816026,2535.5981451038433,2209.093509375833,1945.8047656394097,1727.613947161859,1542.6268211718952,1382.9174496703936,1243.1025869716361,1119.4381154844384,1009.2449314997926,910.543250799293,821.8190201088128,741.8741917906739,669.7303041295617,604.5659822795127,550.0913202928205,507.25127356322844,475.5540785971899,453.92294432160344,441.19012964972126,436.3513327001871,438.6752326169892,447.73543582217474,463.4080732980149,485.8605323465338,515.545139610874,553.2047761782015,599.8939496785829,657.0175582515161,726.3895989224545,810.3110796202013,911.6845831174896,1034.1541170067885,1182.2878322403615,1361.812832787895,1579.9151716352144,1845.621917704223,2170.2863310074185,2568.201725208054,3057.3742131669514,3643.6997280729274,4340.2292515324725,5163.931207171812,6134.533879798889,7273.991957527116,8606.0224993029,10155.462704728143,11947.305858660256,14005.31360882581,16350.137438554162,18996.93516410977,21952.55204151202,25212.452291375896,28757.722840768343,32552.596678174265,36543.01378984828,40656.7069835155,44805.141332389634,48887.362288665565,52795.476507024854,56421.187340219374,59662.61590221685,62430.60478982581,64653.821252441056,66282.2041669349,67288.56953691378
IH,0.0,23.777299152908867,41.598638226007814,55.324508820178494,66.16257393691558,74.90619658412622,82.08419569254787,88.05540001029999,93.06861472560176,97.30080418099197,100.88150003231918,103.90847134505282,106.45783613666937,108.5906277439146,110.35709414862991,111.79954336294979,112.95425310303916,113.85277561782853,114.52284928194474,115.00876618481263,115.35811637539862,115.61526906065514,115.81899737128451,116.0023905318305,116.19385801371446,116.41853282005943,116.69972252739755,117.0602674277174,117.52378332367307,118.1158261814589,118.86504243343325,119.80437935149334,120.97243509112342,122.41503375771283,124.18710358558361,126.35501119362667,128.99944771441983,132.21903842760614,136.1348824778156,140.89628050718045,146.6879744896308,153.73930677474027,162.33580552211032,172.83382112269308,185.6040097002201,201.06398149985802,219.69466564909465,242.0507763796634,268.7685661903459,300.57135038539303,338.27212992352986,382.77201382868617,435.0527336193768,496.161303394267,567.1848814476537,649.2142576183292,743.295253048075,850.3687428930974,971.2019298301404,1106.315645891295,1255.914389785031,1419.8269671455614,1597.465523948078,1787.809255081161,1989.4163230396075,2200.464076244295,2418.8142266479463,2642.0968927942704,2867.8057658787807
IN,118.28481322950478,212.9126638131086,260.3463165909011,278.9392094024941,280.2329204106228,271.4687944472722,257.1692748392195,240.13692417499428,222.08698984530614,204.048519262728,186.61891251262915,170.12549182979836,154.72800165942908,140.48355108932802,127.3876656613977,115.40014190258742,104.4612388738901,94.50173175523351,85.44907314311264,77.32916189552165,70.18165768740917,64.02498849545728,58.84859658583352,54.61797854048546,51.284144535031544,48.79322877429968,47.094495707962025,46.14636587932067,45.92074049733906,46.40614346857126,47.61023027213084,49.56215970981049,52.31525537871031,55.95033151153467,60.57995166216835,66.35421195933235,73.46824667011778,82.1719969985701,92.78285954272857,105.70197432064639,121.43510564997388,140.61930857307985,164.05685660013393,192.7582245131639,227.6233479755678,269.6269656606685,319.88775490328726,379.6952331251824,450.5183811757871,534.0018988881229,631.949090599094,746.2874277367395,879.0115182198666,1032.0979807128329,1207.3877219297312,1406.4337366350994,1630.3171264361256,1879.4405367328357,2153.315949949382,2450.3712299649105,2767.8048063219203,3101.518164897562,3446.149944465874,3795.2236213594997,4141.405061805412,4476.850027756768,4793.608647553275,5084.046571572551,5341.2420389561585
D,7403.0,7403.0,7403.035702592984,7403.0981646598375,7403.181236686133,7403.280582513128,7403.393057249281,7403.516310046431,7403.648528852546,7403.788275206823,7403.934376367697,7404.085854090719,7404.241876935712,7404.401727756829,7404.5647810523,7404.730486769756,7404.898358384056,7405.067963842543,7405.238918469553,7405.410879239742,7405.583569634152,7405.756784592246,7405.93038567568,7406.104292665552,7406.2784750278015,7406.452944886352,7406.62775210337,7406.802981538301,7406.978752346236,7407.15521914236,7407.332574915192,7407.511055667054,7407.690946871949,7407.872591960593,7408.056403170491,7408.242875216146,7408.432602464273,7408.62630044264,7408.824832768933,7409.029244896182,7409.240806458476,7409.461064487584,7409.691910382239,7409.935664273464,7410.195181367049,7410.4738734242055,7410.7757792651155,7411.105659844824,7411.469109044628,7411.872676105123,7412.3239963545975,7412.831925875732,7413.406673803476,7414.0599233830535,7414.804929994432,7415.656581430491,7416.631403349932,7417.747491754929,7419.02435541042,7420.482655067723,7422.143833528885,7424.029640659173,7426.16156926848,7428.560229479683,7431.2446986347895,7434.231889097467,7437.535976445044,7441.167925527371,7445.135142719781
R,0.0,1088.7389485949602,1983.6248431083586,2737.2006990538116,3384.1898830788323,3948.017721921095,4444.879244651557,4886.29489470421,5280.725622971681,5634.599071322377,5952.965273150811,6239.918388047989,6498.870194224286,6732.7293592174965,6944.02062587266,7134.965533968188,7307.53839614047,7463.50624727219,7604.458317835317,7732.711625015324,7850.777799768921,7961.078528189596,8065.824267443614,8166.990202664439,8266.34408881789,8365.497902828434,8465.967821075928,8569.235332102397,8676.807314421847,8790.275728276727,8911.379070467894,9042.068556882372,9184.582544268153,9341.533239479299,9516.009672043221,9711.704450035008,9933.069665940167,10185.510876199409,10475.630032540977,10811.530987601345,11203.20472881139,11663.015895887766,12206.317495711737,12852.227067720378,13621.246996448823,14536.673556447433,15625.39583082893,16918.477104425856,18451.63505032011,20265.630912077755,22406.529546304864,24925.763257455965,27879.911184906763,31330.091503597767,35340.85974559622,39978.51954709906,45308.78889527744,51393.82984124881,58288.74097165915,66037.718938917,74670.19773807198,84197.34610971215,94609.32047009622,105873.62041563386,117934.78070050044,130715.47905653529,144118.97466081424,158032.64878307958,172332.31989970902
G,344043.0,344043.0,344053.8486098398,344070.4666647116,344089.77789938997,344109.9384916433,344129.8663482703,344148.9503628881,344166.8696618,344183.48078857065,344198.74716527876,344212.69499898405,344225.3857905215,344236.8992907704,344247.3230389289,344256.7460470445,344265.25509209145,344272.932641827,344280.3486385774,344287.84720014856,344295.633170573,344303.8351136647,344312.5474025254,344321.85658455436,344331.8572573959,344342.66172897525,344354.40655661555,344367.25804293004,344381.4180328266,344397.13090137136,344414.69239234616,344434.460902027,344456.87185457867,344482.4555316234,344511.8607323069,344545.88381340855,344585.50563658815,344631.93840922124,344686.6850434413,344751.61437331984,344829.0564105954,344921.9227959742,345033.858689357,345167.55946451984,345326.6507785536,345515.4869160714,345739.1090322919,346003.247219649,346314.3184146781,346679.3940548936,347106.1174755251,347602.55249378795,348176.9462285236,348837.3936165524,349591.40011967317,350445.3536427897,351403.9360112214,352469.5255586099,353641.66024207685,354916.63884202536,356287.33098256064,357743.24349815457,359270.8549532979,360854.19024268334,362475.5729679005,364116.4723435085,365758.3568219065,367383.47677567485,368975.51858246216
H,2940704.26529436,2940704.26529436,2940704.26529436,2940704.26529436,2940704.26529436,2940704.2652943605,2940704.26529436,2940704.26529436,2940704.26529436,2940704.2652943595,2940704.2652943595,2940704.26529436,2940704.2652943595,2940704.26529436,2940704.26529436,2940704.26529436,2823076.0946825854,2705447.924070811,2587819.7534590364,2470191.582847262,2352563.4122354877,2234935.241623713,2117307.0710119386,1999678.900400164,1882050.72978839,1764422.559176616,1646794.3885648414,1529166.217953067,1411538.0473412925,1293909.8767295182,1176281.7061177436,1058653.5355059693,941025.3648941949,823397.1942824206,705769.0236706461,588140.8530588716,470512.68244709726,352884.5118353229,235256.34122354843,117628.17061177405,1.4097167877480388e-10,1.4097167877480388e-10,1.4097167877480388e-10,1.4097167877480388e-10,1.4097167877480388e-10,1.4097167877480388e-10,1.4097167877480388e-10,1.4097167877480388e-10,1.4097167877480388e-10,1.4097167877480388e-10,1.4097167877480385e-10,1.4097167877480388e-10,1.4097167877480388e-10,1.4097167877480388e-10,1.4097167877480388e-10,1.4097167877480388e-10,1.4097167877480385e-10,1.4097167877480388e-10,1.4097167877480388e-10,1.4097167877480385e-10,1.4097167877480388e-10,1.4097167877480385e-10,1.4097167877480385e-10,1.4097167877480385e-10,1.4097167877480385e-10,1.4097167877480388e-10,1.4097167877480388e-10,1.4097167877480388e-10,1.4097167877480388e-10
S0,103836.21291825145,103362.65904199415,102803.16320881582,102281.9346395387,101788.53195926631,101316.16680169325,100860.30900986324,100417.84888529239,99986.58496873005,99564.90658769279,99151.59487473694,98745.69672100063,98346.44405002259,97953.20147013837,97565.43182181605,97182.67308885632,135718.61505295133,173967.6852441098,211933.32621490973,249618.28281860027,287024.65423124825,324154.01672927476,361007.5457096787,397586.10721388966,433890.31185328716,469920.53421000415,505676.9036824884,541159.2720058834,576367.1605160924,611299.6877741549,645955.4758600224,680328.3336489281,714420.5590230208,748227.073551271,781742.2947376263,814959.2288408532,847868.856899662,880459.5102666115,912716.1091364677,944619.1852653802,976143.6117841731,971697.9192517877,967097.072192859,962301.6537765772,957269.882087496,951954.2492067838,946299.8391665285,940243.2527914677,933711.8976078549,926623.6851741718,918887.3051600517,910403.3136433405,901066.2987101943,890768.3570361728,879404.0100447118,866876.4945795549,853105.0920174601,838032.8587588198,821633.8713432357,803918.9927817901,784939.2661107748,764786.3462088405,743589.8203097654,721511.7268003726,698738.949552037,675474.3722288078,651927.7106802703,628306.8334655431,604810.1847214147
E0,0.0,240.46343993107686,368.98153007744565,429.28888643272944,448.61829500570957,443.8300366327684,425.36721098934885,399.6775286737185,370.7116811876893,340.8570294853539,311.5223187865098,283.5051126924991,257.2232060116561,232.86054025282363,210.4592136305913,189.9774249445468,171.32585262839555,165.37396097351802,167.06438425761144,173.27814062898503,182.30492115056728,193.37335931962096,206.2979427272146,221.2435304279476,238.5855895342305,258.83949790986526,282.635942887108,310.7258548388419,344.0045658121043,383.5498865916536,430.67242336407287,486.97899467982944,554.4425995713507,635.5225960344615,733.2725399517446,851.5001511976224,994.966493252129,1169.6369498657928,1382.997827853389,1644.4545944485787,1965.8300397271657,2361.9822152015986,2812.293245360292,3335.5644739593745,3946.1551444602856,4657.329912742551,5482.1528581405455,6433.375410803821,7522.787038773156,8760.165231545025,10151.866072238125,11699.101312713254,13396.006886136212,15227.701510442423,17168.641494984553,19181.66554790923,21218.14563742426,23219.57249098413,25120.688483436068,26853.96687240193,28354.908117948155,29567.390959016822,30448.26439187031,30970.517111029778,31124.659059748148,30918.296021697748,30374.174377337826,29527.15778122507,28420.656582885535
I0,594.4324788227217,452.37036644030803,350.2389149728932,275.7114643651273,220.49481454962873,178.95493051575704,147.22350360734052,122.61638990047652,103.25125685943841,87.79386739807845,75.2882167732198,65.04180465676951,56.54746268245988,49.42961874467444,43.40703192128203,38.26672128692024,33.84556629896464,30.01720909623684,26.95577825917479,24.668027417851427,23.08153716698028,22.098665599201947,21.625924639745136,21.58755562931665,21.930004816167482,22.621853795864507,23.65200856154512,25.027709594662188,26.773140201768665,28.92896818898808,31.55294392422729,34.72160668266047,38.53316017137833,43.11140071972315,48.611695130539516,55.22821150344471,63.20339981965655,72.84015973605469,84.51734140353021,98.7094146672347,116.0113404440344,137.16988583383065,163.1228214372848,194.0711021786225,230.63518587172248,273.6443164656314,324.05940784856864,382.9365886478441,451.39667249356256,530.5857782026801,621.619250742985,725.5039364868431,843.0361901569186,974.6762270166397,1120.404227096157,1279.5699181107714,1450.7543536732974,1631.668476260067,1819.1153486323185,2009.0393162919725,2196.6748048200843,2376.7912588221793,2544.01260743274,2693.174569126162,2819.6753787903804,2919.777050003569,2990.824060771002,3031.3611554469558,3041.147813168168
A0,5325.409929745297,4260.327943796237,3461.8320190776594,2851.6661219550633,2376.9684812069772,2001.5165114618928,1700.0882230193959,1454.8325039421052,1252.9048647028367,1084.9098358994252,943.8628905285296,824.4902426714591,722.7505422216094,635.5037840639583,560.2789419983231,495.1085735680549,438.4094124721908,388.89494690156863,347.9574313559691,315.58400592764906,291.06954604501,273.4689349814384,261.85423683182484,255.44177502022757,253.64133505055838,256.06439066960456,262.51493508117073,272.97666532349336,287.6038288563548,306.7192828126765,330.82142408432736,360.60094277375407,396.9683527800931,441.0916035381247,494.4529423811503,558.9184284363431,636.829180470294,731.1187477528014,845.4629185140482,984.470098452301,1153.9223315643267,1361.0790958161758,1615.0580020326192,1918.559955540886,2277.9341828915803,2701.45897093981,3198.7120061183814,3780.26581073107,4457.419124808624,5241.837359769558,6145.031042098093,7177.624580532063,8348.387452205103,9663.028861063285,11122.800966584593,12723.014955923609,14451.641106917445,16288.222446873537,18203.358891958196,20158.992493351936,22109.633503682027,24004.52112706037,25790.544214538975,27415.600806515948,28831.991844417116,29999.443917367964,30887.432688449226,31476.60605287621,31759.24913853427
IH0,0.0,23.777299152908867,41.598638226007814,55.12974637581,65.52412790418529,73.59029203311992,79.90208748209207,84.87203047967525,88.8005269251111,91.90923428540205,94.36389114162786,96.2900896360317,97.78427739454158,98.92150601209688,99.76094099040522,100.34981769983666,100.72630899419104,100.92162385891461,100.96155801357632,100.87857563043264,100.70503763893001,100.47003599174195,100.19842236295693,99.91102307112052,99.62539455364694,99.35674917179318,99.11886758503998,98.92492819377158,98.78824744571608,98.72295596119227,98.74464854885288,98.87105066773354,99.12274547778047,99.52400754916249,100.10378411025455,100.89690412380722,101.94556268980766,103.30116759881314,105.02665135883787,107.19937666310145,109.91479520843042,113.29105928670761,117.47483294036549,122.64860417334452,129.0008002932685,136.74249971588492,146.11552288781976,157.39734550341132,170.90449700397517,186.9946987996384,206.06740270568946,228.5620800246395,254.95342131662667,285.7425116576873,321.4430814837759,362.5621597403067,409.57493286702874,462.8943640718156,522.8371045482675,589.5882860237027,663.1686847453373,743.4082150247673,829.9295252053531,922.1445609214393,1019.2654600778279,1120.3293516031426,1224.2349194703786,1329.7872936043393,1435.747136551332
IN0,118.28481322950478,212.9126638131086,260.3463165909011,277.9703256277602,277.23947916793725,265.6673621422829,248.14373824444166,227.81067218697103,206.6477038364949,185.86390386976313,166.16103192119058,147.9102624144261,131.27073576924892,116.26884400232582,102.85096645867594,90.91824310099399,80.34920529293215,71.01421912694623,62.78443380376285,55.59141814769353,49.38177110820066,44.09836126647279,39.676053938795704,36.04413839155534,33.13097098865933,30.868580277809475,29.196337217882817,28.063531003924506,27.431033759470512,27.272355366399495,27.57439612762392,28.338167904328998,29.57971056770349,31.331397354657952,33.643760814365415,36.58814308498336,40.260254960670615,44.78490966595073,50.3222311178151,57.07570500919976,65.30253360671895,75.32686868961908,87.55662922615672,102.50475530285416,120.621586567883,142.39085827726547,168.36456806772145,199.17552419249853,235.5401299698491,278.25453629664844,328.18372755621635,386.24163130038005,453.3597397185979,530.4417114394253,618.3020505900665,717.5884165400214,828.6895405313466,951.6340545329615,1085.9893695915148,1230.773263025582,1384.392930910109,1544.6258389194954,1708.6531428647618,1873.1499948622818,2034.4288875682446,2188.6241199761967,2331.8993175737633,2460.6569642624395,2571.729469039095
D0,7403.0,7403.0,7403.035702592984,7403.0981646598375,7403.180944242309,7403.279331416318,7403.389830267645,7403.509806539535,7403.637245385322,7403.7705830301575,7403.908588527001,7404.050279792109,7404.19486332351,7404.341690439307,7404.490225150665,7404.64002030818,7404.790699688304,7404.941944385597,7405.093482356196,7405.245080289571,7405.396553621484,7405.547766378962,7405.698626271797,7405.849078325594,7405.999098837528,7406.148690466493,7406.2978787133625,7406.446709771242,7406.595249621147,7406.743584239284,7406.891820819571,7407.040089972171,7407.188548922753,7407.337385803448,7407.486825195653,7407.637135146219,7407.788635999119,7407.941711456002,7408.096822409431,7408.254524247721,7408.415488522451,7408.580530109851,7408.750641296679,7408.927034591788,7409.111196517275,7409.304896526594,7409.510221016126,7409.729619485599,7409.965958075914,7410.222578209954,7410.503358444013,7410.812777127726,7411.155972494966,7411.538795547016,7411.9678496850165,7412.450509697494,7412.9949116978005,7413.609905311275,7414.304960244507,7415.090021668882,7415.975312738689,7416.971087804609,7418.087345826662,7419.333519155833,7420.7181571552765,7422.248626180799,7423.930846797674,7425.76908589985,7427.7658162346925
R0,0.0,1088.7389485949602,1983.6248431083586,2728.476496624331,3354.9550836046537,3886.4519169586783,4340.624594599844,4731.070007727433,5068.447363258045,5361.245882235162,5616.319722531854,5839.268145933214,6034.711147846751,6206.493246218868,6357.8369868922455,6491.460577993549,6609.669439504357,6714.428426147323,6807.419475591615,6890.577464203698,6965.821334775071,7034.918648582102,7099.436808191602,7160.744850569356,7220.041143482424,7278.391858635804,7336.772020317005,7396.105463452665,7457.302752000087,7521.297606997709,7589.083164193136,7661.7497747210155,7740.52630736331,7826.8271474876465,7922.306987741695,8028.9273662219,8149.037649567404,8285.474992280495,8441.688735440233,8621.896031880195,8831.277186339126,9076.221307325419,9364.635410819445,9706.333085400604,10111.772513611086,10592.77367550591,11162.911066346485,11837.787536412585,12635.249776852334,13575.550672778068,14681.438998979305,15978.142626937224,17493.20149010396,19256.100462701866,21297.652002318984,23649.087036568755,26340.833332658884,29400.99521147731,32853.59545539933,36716.69347875475,41000.54251289049,45705.97948665637,50823.24296200259,56331.38172873539,62198.353334620246,68381.8301356181,74830.64703660297,81486.75578700227,88287.50626336604
G0,344043.0,344043.0,344048.9795487306,344058.1549270768,344068.8299545016,344079.9856418576,344091.0222607004,344101.59976872924,344111.5384573711,344120.7568589847,344129.23287188116,344136.9794253131,344144.0292813628,344150.4255913192,344156.21608050243,344161.44952107896,344166.17364575464,344170.4339660965,344174.54628212546,344178.7006335192,344183.0095009551,344187.54283525393,344192.35140584403,344197.4813690597,344202.9829807471,344208.9158334063,344215.35233531945,344222.38057792466,344230.1073258719,344238.661607826,344248.1992541233,344258.90868564096,344271.0182796412,344284.8054754969,344300.60886886716,344318.84298747877,344340.01704474783,344364.7586463544,344393.8437377964,344428.23442483123,344469.12669679406,344518.01053760585,344576.7454029171,344646.67804843787,344729.6227585437,344827.75088559545,344943.56363108294,345079.8870579345,345239.864315942,345426.9317208716,345644.7687230589,345897.2128280879,346188.13167389575,346521.2470780263,346899.910808625,347326.83944479143,347803.82548437774,348331.45220321935,348908.8479406072,349533.51828956447,350201.2896712339,350906.3846116202,351641.63008231285,352398.78002887405,353168.91671298177,353942.8864092682,354711.7245236286,355467.0320909388,356201.27709250705
H0,1029246.4928530259,1026930.6882441066,1023233.7377664278,1019550.0963104686,1015879.715963751,1012222.5489862815,1008578.5478099309,1004947.6650378151,1001329.8534436789,997725.0659712817,994133.2557337851,990554.3760131435,986988.3802594962,983435.222090562,979894.855291036,976367.2338119883,933938.2192994545,891802.0399720607,849957.1372965021,808401.9601657696,767134.9648658788,726154.6150427435,685459.3816691901,645047.7430121154,604918.1845997853,565069.1991892745,525499.2867340469,486206.9543516754,447190.71629170096,408449.0939036299,369980.61560506985,331783.81685000245,293857.2400971933,256199.43477873792,218808.9572687438,181684.3708521469,144824.24569366334,108227.15880687458,71891.6940234465,35816.441962480996,4.349858500063419e-11,4.3341990094631906e-11,4.318595893029123e-11,4.303048947814218e-11,4.287557971602087e-11,4.2721227629043197e-11,4.256743120957864e-11,4.2414188457224154e-11,4.226149737877815e-11,4.2109355988214544e-11,4.195776230665697e-11,4.1806714362353006e-11,4.1656210190648534e-11,4.15062478339622e-11,4.1356825341759935e-11,4.1207940770529596e-11,4.105959218375569e-11,4.091177765189417e-11,4.076449525234735e-11,4.06177430694389e-11,4.047151919438892e-11,4.032582172528912e-11,4.018064876707808e-11,4.00359984315166e-11,3.989186883716314e-11,3.9748258109349355e-11,3.96051643801557e-11,3.946258578838714e-11,3.932052047954895e-11
S1,29667.4894052147,27717.6770326153,26062.441746606724,24534.67642024003,23121.977232272646,21814.03948274436,20602.019653519103,19478.149811330022,18435.495387737414,17467.7965864048,16569.359747464532,15734.97929899292,14959.87896054271,14239.665460191687,13570.29069320123,12948.019815858903,17341.734601399035,21344.422251714517,24998.130043910136,28340.744811539967,31406.384046897674,34225.75802866399,36826.49739388369,39233.44674176223,41468.92738105396,43552.97292819886,45503.54117944813,47336.705103931105,49066.82521696528,50706.70509678926,52267.73141707213,53759.667842253264,55191.84332426406,56571.98459540896,57906.88442711998,59202.4248984533,60463.62059303839,61694.656906997654,62898.914613611865,64078.976246562524,65236.61042237356,64029.583799921216,62882.452755084574,61788.036767583966,60739.43347375057,59729.7759027128,58752.10952294256,57799.312697082925,56864.04214368091,55938.70407423972,55015.45957665848,54086.27665498916,53143.04250893094,52177.74764447247,51182.74724559227,50151.094352557215,49076.92458337863,47955.85615596541,46785.35631825875,45565.02085334091,44296.72021162809,42984.583583093925,41634.81661699257,40255.373145545425,38855.520243731116,37445.34582781973,36035.25841994888,34635.521705889296,33255.85517239708
E1,0.0,68.70383998030768,102.12180958498921,115.28642153432622,116.87413704167224,112.07988280598197,104.01355786689032,94.5247637565804,84.69655796222429,75.14426947947467,66.19793990407676,58.01451035443947,50.64718267766506,44.08844683237567,38.29678802851508,33.21320931589763,28.77136198322333,26.307099344822667,25.02441530905542,24.440203017134408,24.284594017583178,24.42175336154716,24.794716825381336,25.390609246120036,26.220670722972475,27.310003417914032,28.693231556265594,30.413565667639418,32.52378873194948,35.08839283992907,38.186547010675184,41.91585038809032,46.39625983337252,51.77757225624663,58.245298532075466,66.02997233768637,75.41860643777355,86.76903705737404,100.52792128724425,117.25324929645575,137.64233654386925,162.5663169978464,190.52452262818258,222.65065791038774,259.7561190293199,302.5602637161521,351.75287841572475,407.9906692338631,471.8608643172436,543.8220303408646,624.125549585051,712.7210909034269,809.1525798653416,912.4562515138027,1021.078050608898,1132.8320061622353,1244.9217431482216,1354.0416908350771,1456.5620202207374,1548.7838542556824,1627.233640624129,1688.9537682473763,1731.7450248243817,1754.326034665697,1756.3920180061225,1738.5744223206561,1702.3188464610407,1649.708055336747,1583.2592658797946
I1,0.0,0.0,1.7084424944604921,3.839584988997661,5.788771779806099,7.311608055276569,8.351287423387816,8.941912666923928,9.15543003292531,9.073523632862374,8.773657315613937,8.322989082980223,7.776529611914446,7.177465656545201,6.5584761130344615,5.943397681252907,5.3489033170172755,4.786031465003095,4.296400871563647,3.8918898109527302,3.5695244882592414,3.320331052935649,3.134102519016448,3.001654729520386,2.9156782652703717,2.8708900740692496,2.86389389841427,2.8929661375239326,2.9578696164247456,3.0597363842195655,3.2010316539831223,3.38560016061499,3.618794769598737,3.90767201637005,4.261326975560514,4.691294165914293,5.212084124486346,5.841876626975254,6.603404935043289,7.525076256627674,8.64238423588578,9.999679951117848,11.652377400701056,13.605330548528723,15.89042488724052,18.55210246684583,21.64207233172463,25.216838455269503,29.33573120919616,34.05850419647995,39.44203370919581,45.53585436431893,52.37641103654836,59.98009762267753,68.33542435789332,77.39500305890972,87.06841270541773,97.21730498730055,107.65419629052211,118.14614718008852,128.4239087850284,138.19620340876563,147.1678189411439,155.05940806223782,161.62652038166718,166.67554728297682,170.0748523059554,171.76020587107794,171.73452011810872
A1,0.0,0.0,15.305618297334123,34.994859650782,53.679022220468966,68.9800583795042,80.15283892147642,87.29407368729485,90.89317877089074,91.58296707626157,90.00676992145861,86.75277795553546,82.32650653029593,77.14422006186275,71.53725702051115,65.76143965238674,60.00828260548587,54.41621664782541,49.39358345587874,45.08972471942792,41.51648881359366,38.62323402147727,36.33918610089218,34.59503535338469,33.33246573320927,32.507328436559646,32.089896598495315,32.06410219950957,32.42671712542155,33.18691770569468,34.36641234238101,36.00020477402864,38.13804081171939,40.84644070419566,44.21199191940847,48.345291941929446,53.38617630308757,59.51045319934933,66.93848677972773,75.94607317921746,86.8781565431379,100.16603786055134,116.34882631843931,135.52349531729908,158.02018657792416,184.28377368332085,214.83041167852588,250.2266929830888,291.0721903856999,337.97738289631087,391.5328117171584,452.2669119378673,520.5912190208405,596.7333585558254,680.6607265881375,772.001032575783,869.9694605691511,973.3151904639302,1080.301161866665,1188.7290849484332,1296.016304032217,1399.3228678747735,1495.7179284927238,1582.3668741267297,1656.7165546555696,1716.6565521362036,1760.6392040315236,1787.7484261282368,1797.7153426567106
IH1,0.0,0.0,0.0,0.06833769977841969,0.22113511047260095,0.45014258709324045,0.7374295758179377,1.0629994961459748,1.4084498703813766,1.7584677275641662,2.1011835839587247,2.4279630271401347,2.7329572738052534,3.012585237750872,3.2650344909492346,3.4898206069345967,3.687418198886968,3.85896333943601,4.0060205724123135,4.131801196835359,4.239954707806979,4.333969673814493,4.416935585409324,4.491498119801585,4.559905158556848,4.624086352371291,4.685737835896326,4.746400385320777,4.807528111501475,4.870548913780466,4.936919550420876,5.008178633243718,5.086000867058825,5.172255809609098,5.26907377725956,5.378924387439178,5.504710233920212,5.649880947655426,5.818573674553186,6.0157873074344685,6.2475995324662765,6.521437878824396,6.846418490784206,7.233769222847709,7.69478295044212,8.241898083228875,8.88918765198929,9.652631187737326,10.550284591189211,11.602369307244818,12.831264347142515,14.261366380685132,15.918772863052984,17.830738883459823,20.024861811461143,22.527962013738495,25.364655854091087,28.5556597293847,32.11591783358953,36.0527031348525,40.36388737357841,45.036596813598486,50.04645467868715,55.3575560787073,60.92323519229601,66.68758491133961,72.58759680097046,78.55572166201856,84.52261803202641
IN1,0.0,0.0,0.0,0.3399592192049048,1.0359979582854275,1.9806933474656836,3.0394755042009156,4.09338474328803,5.054039354400523,5.86505039493851,6.49756085273612,6.9438994791918205,7.211292898683231,7.3164688644828155,7.281403216548496,7.130179328611357,6.8868071122038,6.573812211405873,6.211411657340529,5.824060697823161,5.433687162808008,5.057241567341343,4.706498636651708,4.388847085205343,4.108370349351477,3.866880692903327,3.6647766639595147,3.5017012871786926,3.3770260067543347,3.2902007831142255,3.241010848564908,3.2297749362862658,3.2575130881745213,3.326106492691113,3.4384642650911417,3.5987235065013694,3.8124891263713634,4.0871324721554725,4.432168175449709,4.859731583333135,5.3851836613771065,6.027875984324181,6.812115135617715,7.768373091826979,8.921993313820298,10.29959539443297,11.931318433843115,13.851563181350222,16.099093837942547,18.716727784753203,21.75060916488988,25.248970981264154,29.26025642082935,33.83047211870962,38.999685568516355,44.79766444207692,51.238793206354124,58.31658675470587,65.99832737548448,74.22053394684164,82.88606946480441,91.86364708479239,100.99027662212069,110.07682231970482,118.91638886230005,127.29481735148902,135.00225491523042,141.84462520582667,147.65388624217678
D1,0.0,0.0,0.0,0.0,0.00010261186794097373,0.0004346553348194531,0.001110562950252628,0.0022178437995488453,0.0038139812796443855,0.0059288267100534205,0.008569238354348467,0.011724251957908485,0.015369938340597435,0.01947358613350407,0.02399710681944086,0.028899690445965066,0.034139799674364125,0.039676609817143015,0.04547100204660333,0.05148620676198074,0.05769027626011613,0.06405674270490258,0.07056437648935247,0.07719658700365682,0.08394075623119282,0.09078764144199644,0.09773089735601857,0.10476672550917589,0.11189364097622712,0.11911234223921124,0.12642567182977962,0.13383865966205333,0.14135864593910819,0.14899548550219696,0.15676184041044547,0.16467357148065254,0.17275024776179784,0.18101579666683607,0.1894993253715309,0.19823615314644852,0.20726910530540288,0.21665013305805142,0.22644234035471128,0.23672251941140876,0.24758432152966986,0.25913835472811475,0.27151390380924306,0.28486138481030104,0.29935520769182283,0.31519689409217,0.33261832898122334,0.35188500033501235,0.3732990287330654,0.3972017211576322,0.42397530922881493,0.4540434631525848,0.4878701250189972,0.525956199401181,0.568833697394526,0.6170570694165403,0.6711916865456473,0.7317997241909223,0.7994240273168991,0.8745708381556371,0.9576924862693647,1.0491712305694896,1.1493053831443145,1.2582986463247345,1.37625329453981
R1,0.0,0.0,0.0,3.0611236594668245,10.12877081046199,21.073986197317595,35.270637968582506,51.91647514947615,70.20459683055418,89.40812495431625,108.91531312583191,128.23719111651044,147.0008062337273,164.9356956922612,181.85795932990783,197.65434172222925,212.26756372449822,225.683455850025,237.92005125526563,249.0811104836336,259.3051855790522,268.7376203214106,277.51705513591247,285.77036143927535,293.61205290819134,301.1458191762891,308.4669018657054,315.6646938965553,322.82531859774616,330.03414250529636,337.37827169219594,344.9491255258893,352.84520325428474,361.1751740429341,370.0614060404075,379.64418801508003,390.0867803486406,401.5815605368716,414.35757648064913,428.68989320843014,444.9112120340146,463.42635607024226,484.73035321800563,509.4310056937249,538.1617170677786,571.6271008756319,610.6261936720149,656.0674315710086,708.9796091157738,770.5193688064141,841.9742146356995,924.7592114555805,1020.4050017032137,1130.5344845201782,1256.82555804392,1400.9578890933653,1564.5429081170746,1749.0382054307165,1955.6501174717375,2185.231174498503,2438.181625308907,2714.365738882047,3013.053407842096,3332.895513411852,3671.937828261926,4027.673649317423,4397.130799064075,4776.984966821436,5163.689134304868
G1,0.0,0.0,1.7084424944604921,4.247881907980985,7.114682681270834,10.020964808770888,12.808029325321566,15.394510405720489,17.745035838168924,19.851165550841095,21.719760715692466,23.365889572686235,24.80852298026944,26.067954754913004,27.164291962626315,28.1166093307387,28.9425145230679,29.65796532537724,30.31213787875375,30.934414224956114,31.542163099250214,32.14604248055193,32.75333257152879,33.36989705867736,34.00127946479536,34.6533028176272,35.332414354571846,36.04592230562916,36.80220940704231,37.61097093720488,38.48350588441075,39.433081914636276,40.47539366919013,41.62911872889689,42.91665963968041,44.36503200348507,46.00698404986396,47.8824010883907,50.040066659263076,52.53987122122256,55.45558064545637,58.87830078534637,62.92079978113266,67.65852900832118,73.19513140933284,79.6544267278045,87.17812280965389,95.92508026074347,106.07048984574328,117.80414479579409,131.32724141345648,146.84722706629967,164.57029754891988,184.69130755855713,207.38114607222866,232.77205773482464,260.9419291563816,291.89911013610373,325.5697516105371,361.7897423981784,400.30299219765294,440.76703468574016,482.7658573087558,525.8287602095038,569.4531798579588,613.1289738361842,656.3617017845211,698.6928707155241,739.7157792749134
H1,294070.426529436,275381.20067196706,259408.0653873625,244562.5593156529,230764.18542553825,217938.19630118358,206015.18345602107,194930.69598127817,184624.88643389445,175042.18201815637,166130.97925435612,157843.36045682945,150134.83046356039,142964.0721708117,136292.71952956548,130085.14675650139,119335.94169727832,109416.86830743497,100254.82744673111,91782.99521776692,83940.29909002209,76670.93684853935,69923.93492227438,63652.74292078095,57814.86146003112,52371.50059046208,47287.2663543431,42529.87319669454,38069.88013558375,33880.448764884495,29937.121316639048,26217.617152037346,22701.64618068099,19370.73782810946,16208.084282343145,13198.396852190806,10327.774363967354,7583.582609707296,4954.343939526727,2429.636164022466,2.8856447897851468e-12,2.8361222108027767e-12,2.7895732172289674e-12,2.7457874395759466e-12,2.7045695274418333e-12,2.665738076745092e-12,2.6291246335849976e-12,2.594572769254838e-12,2.5619372213254992e-12,2.5310830960801364e-12,2.501885127917699e-12,2.4742269916561144e-12,2.448000663956577e-12,2.4231058303602994e-12,2.3994493346796847e-12,2.3769446677186147e-12,2.35551149251262e-12,2.3350752034803817e-12,2.315566517064316e-12,2.2969210916110296e-12,2.2790791744030793e-12,2.2619852739026595e-12,2.245587855406367e-12,2.2298390584388223e-12,2.2146944343323662e-12,2.2001127025509846e-12,2.186055524419572e-12,2.1724872930153057e-12,2.1593749380666918e-12
S2,29667.4894052147,31404.743898485696,32987.34855762437,34436.66589063517,35762.40070041965,36973.58560881102,38078.62177827841,39085.31608452741,40000.91699362792,40832.14976993318,41585.25093514591,42266.001670359736,42879.75984431407,43431.490426420765,43925.79413665308,44366.934268216246,62638.830560114,81147.94915226012,99846.78243861845,118692.54907947166,137646.75360118606,156674.79904902066,175745.6373857203,194831.44882010046,213907.34525200143,232951.09516565985,251942.86823573688,270864.9981578754,289701.762137572,308439.1752711021,327064.79782221786,345566.10605531477,363934.93915299076,382161.9623919498,400238.92631488165,418158.2931613127,435912.98288360296,453496.13840890204,470900.8699167623,488119.95469185594,505145.47034196893,503611.1707445685,501973.8693709606,500230.2858667383,498375.77829521266,496403.55311491346,494304.17418701085,492065.1391463693,489670.4745819809,487100.3635909004,484330.8533730387,481333.7178209823,478076.5731092183,474523.3581479946,470635.28741157346,466372.3511951375,461695.3719096668,456568.5284645343,450962.15149574366,444855.4990208111,438239.17601144686,431116.8822262042,423506.25935444515,415438.7388863048,406958.4323866634,398120.22407546133,388987.3016409346,379628.38963822933,370114.9370673568
E2,0.0,24.046343993107683,38.09063653741246,45.69291132097741,49.18269169392252,50.07565386108942,49.35517472465956,47.65747443543306,45.39306008559507,42.82608254381805,40.125973466803714,37.400908716473694,34.71941809193644,32.1243039600949,29.641594733356506,27.286307734543715,25.06616978019571,24.750897361223647,25.58354761114565,27.09458557082417,29.028498105880296,31.275336360717425,33.81762986220767,36.69423370176487,39.97861671251511,43.767920646181594,48.17941127956386,53.351796139608844,59.44980549693291,66.67121159851962,75.25604802212325,85.49821661168568,97.75841057601941,112.485851534563,130.2382665024488,151.711191952212,177.77453284632247,209.5186980996633,248.31289937816433,295.8786417308962,354.381915365214,426.5479826738775,508.7065576373321,604.3126327781243,716.0366185040358,846.3738110511754,997.8127006070639,1172.822954064591,1373.7474966501557,1602.6227769822242,1860.9334617721752,2149.3077666256154,2467.169275141957,2812.3771118063423,3180.905361283812,3566.629195285677,3961.2915685330267,4354.71272266329,4735.271108896644,5090.632698522081,5408.64908134068,5678.301417075021,5890.55246657074,6038.987598889669,6120.1705412202455,6133.6953308602,6081.9663392502025,5969.772526767972,5803.7368048212975
I2,0.0,0.0,0.5979548730611721,1.4022419980923806,2.2033583181011225,2.8997971697132487,3.452000713605487,3.8543183575082587,4.118270671089617,4.262832933271116,4.309014141287121,4.277015616081293,4.1849007934116225,4.048120282862835,3.879496543329477,3.6894348649304995,3.4862272326480395,3.2763760891468565,3.108837003165933,3.0020430364617936,2.9583461566478313,2.9731824537630853,3.0403446639071334,3.1546745493306734,3.3132128287627496,3.5155343855396457,3.763731302162081,4.062311699872155,4.418155521902079,4.840594798493294,5.341649275190594,5.936434984400928,6.6437638003106185,7.486921063195157,8.494797891091356,9.703249645856305,11.156858439730064,12.911183529330653,15.03562113280363,17.617030488291405,20.76432080320054,24.6142344900837,29.338602662129553,34.97692273888652,41.64516723812616,49.4979971381659,58.715161284071215,69.4953314490539,82.05111191092756,96.60255809773756,113.36777477082683,132.54966117735503,154.3182478112217,178.7885963387966,205.9950334354025,235.86357061437215,268.1855970468408,302.5970313129795,338.56766531558225,375.40501386102454,412.27537983245827,448.24221784975487,482.3188025039468,513.5294967887868,540.9723178995216,563.8753969195704,581.6412372086379,593.874925484405,600.3950138922349
A2,0.0,0.0,5.3569664040669425,12.771281399693809,20.396343477699403,27.273835075593013,32.974759564864,37.37499315462864,40.516971870715395,42.52609597031716,43.56153233165908,43.78835989142954,43.362740866106094,42.42487187490803,41.09644558547274,39.48061465707713,37.66324672753972,35.71475726220459,34.08573032455012,32.96800389237248,32.41044687492146,32.39523201351368,32.883603452303944,33.84066449136273,35.24715378179702,37.10402939248442,39.43369870242641,42.280211703660385,45.70970920210019,49.811801917064784,54.70223748276068,60.52708790729436,67.46868529525106,75.7532493917038,85.66183212586463,97.54352365384705,111.8325454565538,129.07006932049845,149.93195043092985,175.26390146331696,206.12600386083201,243.84885504053327,290.1040580393456,345.41124088971196,410.9557980287669,488.2809503624607,579.1771686054618,685.6312070900169,809.7826536500017,953.8651278238349,1120.119198650394,1310.6680705880392,1527.350259035417,1771.5081641381184,2043.7387687197097,2343.6227786982663,2669.4602894576224,3018.0518995793072,3384.5702744278524,3762.5645354084654,4144.1262447942,4520.222269041559,4881.17135987169,5217.21523187873,5519.118226094493,5778.726293649655,5989.425756396649,6146.461309876758,6247.095579559778
IH2,0.0,0.0,0.0,0.023918194922446886,0.0797327787431383,0.16695006163189996,0.281021765417486,0.4158696105642432,0.5652592034279023,0.7234886782859272,0.8856807608158526,1.0478546327558804,1.2068833142269866,1.360398327868203,1.5066764618417678,1.6445272222575538,1.7731900193446515,1.8922446906859811,2.0015360040863808,2.1028687355097273,2.198764225685153,2.291808894742191,2.384376858594399,2.4785666366074564,2.576246282430242,2.6791439929648955,2.7889510835192306,2.9074230999684896,3.0364757215544826,3.17827779198469,3.335346491131111,3.510650837239671,3.707730341567059,3.930836280503066,4.185102447818189,4.47675923546412,4.813399590757452,5.204312414908414,5.660902142712496,6.197217889114981,6.830621552113261,7.582631709416825,8.479989138430371,9.556000300934588,10.84516847985155,12.386239017886043,14.223698065722273,16.40871006855461,18.999797872534348,22.063315392002426,25.673655586145703,29.9130799709238,34.8710198979723,40.64267934031234,47.32676974520699,55.0222402931601,63.823942557138075,73.8172927376836,85.07216136060127,97.63640700908009,111.52963841110044,126.73789087937709,143.20989852684505,160.85551608679006,179.54660962174202,199.12043961979458,219.38526356757012,240.127644420486,261.12080345761694
IN2,0.0,0.0,0.0,0.11898572672171664,0.3742176364105365,0.7378155409466143,1.167276701858967,1.6207274008166896,2.063544264211436,2.4703210460086713,2.8245085984522365,3.117048137548471,3.3447124525827676,3.508514178386749,3.6123379056881406,3.661842819998714,3.663626795552377,3.6246181356136633,3.551653389576783,3.4599433580445855,3.365324635968186,3.280934512177529,3.216374655318532,3.1780912304992692,3.1702147434070618,3.195460737712021,3.2559170553191357,3.353670268653742,3.491286696799528,3.672188419814726,3.9009700619449124,4.183699105349912,4.528237441842341,4.9446179183944325,5.445500311296773,6.046761421697697,6.768237470211863,7.634668729916502,8.676903033706257,9.93342764890977,11.452316318392763,13.293699640399485,15.532892165830564,18.264337831175396,21.571451290381333,25.544041383172182,30.284730829673794,35.91138563382981,42.55783185854378,50.373436012373745,59.52147964841875,70.17598819652835,82.51655647608565,96.72069433708893,112.95330552778306,131.3531436364844,152.0164887274073,174.9788538413225,200.19620164885652,227.52779734190375,256.72325696641445,287.41637780116787,319.1278365612128,351.2778282969006,383.2083691837252,414.2135885850609,443.57519749138527,470.59967015109027,494.65360303630797
D2,0.0,0.0,0.0,0.0,3.591415377934079e-05,0.00015563620163119756,0.0004063185882560946,0.000828284331543587,0.0014527296625723909,0.0023014896138530516,0.0033878376319130465,0.00471772373521143,0.006291120579798205,0.00810330553277685,0.010145999595043422,0.012408336294018808,0.014877661581565541,0.017540179352711006,0.020381462611325958,0.023386851273753152,0.026544395201701796,0.02984593015372531,0.033287175504618696,0.03686741546190308,0.04058908524626978,0.04445742503782414,0.048480269975425934,0.052667994777458024,0.057033610186666084,0.06159300341699712,0.06636531829046101,0.07137347827821368,0.0766448649544662,0.08221217461521314,0.08811448702286521,0.09439859054240712,0.10112062872868571,0.10834814625935205,0.11616263547941197,0.12466271296194709,0.13396809060417378,0.14422454990749894,0.1556101834031324,0.1683432359997943,0.18269196362894777,0.19897643032098533,0.21757487783253032,0.23893234570582092,0.2635706990026926,0.2920996772463728,0.32522865309257387,0.36377870328609163,0.40869442362254804,0.4610546947516584,0.5220813500057535,0.5931444420166674,0.6757625996819798,0.7715968754387046,0.8824365776633812,1.0101759282018359,1.1567810105316727,1.3242473514423505,1.514549509170799,1.7295850641152077,1.9711162398468087,2.24071286155771,2.5397003943670486,2.8691163941209665,3.2296779321613944
R2,0.0,0.0,0.0,1.0713932808133886,3.6496858880457186,7.804595438655138,13.408595062579383,20.239812533578153,28.04311534077286,36.5648711597925,45.57138944984053,54.85745444347096,64.24901459559412,73.60257409247416,82.8028552864118,91.75967874926239,100.40461551690014,108.687722121712,116.57451964818252,124.12201175104876,131.42862988848728,138.60577183292207,145.76392322700772,153.00776261711817,160.43629942785665,168.14553559572178,176.2322250616907,184.79803772407502,193.95388834953752,203.82445228653302,214.55303313182876,226.30702810568118,239.28429201658244,253.7207538674168,269.8996356922415,288.16295320415196,308.92577781161555,332.69406839287626,360.0870591271083,391.86543884146266,428.96687684279914,472.55084709416525,524.055184347446,585.2673742798655,658.0980500270523,744.7119515756805,847.6008123149859,969.6354291826702,1114.1080348281253,1284.7661299085598,1485.8344758297217,1722.0193480453456,1998.4872906019684,2320.8093639032486,2694.861562391693,3126.6732449386436,3622.2186518085255,4187.152246871103,4826.496570482605,5544.3005873115535,6343.2954179317185,7224.580614667952,8187.375722945291,9228.86766121714,10344.174828413134,11526.435613564994,12767.014794408135,14055.808837821418,15381.622310271192
G2,0.0,0.0,0.5979548730611721,1.545145919736544,2.6813809747021446,3.9043955908565007,5.149615290638945,6.376919002415452,7.562006393855224,8.69078511751983,9.75573140451198,10.753534703744318,11.68357444826189,12.546934185770102,13.345761820529999,14.082852499312402,14.761374801180567,15.384689446157067,16.00016428482787,16.63634444463353,17.310099235810558,18.031944182594707,18.809660736465787,19.650595914690054,20.563062935103005,21.557201948016782,22.645568705210323,23.843634979405312,25.17032175130666,26.64864631114906,28.306543905879224,30.177918641891164,32.3039830147393,34.734918794556826,37.53207844156206,40.77068328463094,44.54325039719266,48.96392857812946,54.17398157254872,60.348720995293405,67.70626672899914,76.51859983369559,87.12546983885576,99.77535812060886,114.80266055484498,132.60817749527686,153.65475924984486,178.46713683628116,207.6314539075969,241.7921150963827,281.64416493190123,327.91956680705584,381.3659058068797,442.71643340312386,512.6511644113936,591.7500021420373,680.4405452173006,778.9450662247095,887.23270005563,1004.983591236514,1131.5711768552803,1266.0668022939117,1407.2678099823725,1553.7468154153007,1703.9169229437916,1856.105787917902,2008.6309707070889,2159.869820629184,2308.3187729718256
H2,294070.426529436,311574.6185847596,327535.48269722436,342165.3982880214,355560.75492618687,367811.04489793733,378999.35600399884,389202.82915557176,398493.0832833348,406936.60989428754,414595.13944446197,421525.98154067236,427782.340840676,433413.6103875889,438465.6439904137,442981.00914740155,429119.253025981,414512.40772858245,399245.69520133175,383396.83711807866,367036.68313046626,350229.78773393325,333034.93988354545,315505.6491651816,297690.5920250393,279634.02128167916,261376.1418880238,242953.45567416362,224399.0775839093,205743.02571731916,187012.48730656708,168232.06258226678,149423.98833058588,130608.34279711157,111803.23346049915,93024.96907654253,74288.21728063023,55606.14893282242,36990.57029430557,18452.044036098327,2.546585164964199e-11,2.5368804234035668e-11,2.5269374817735442e-11,2.5167804156850186e-11,2.5064315114952632e-11,2.4959113948877614e-11,2.4852391502587054e-11,2.4744324315669468e-11,2.4635075652572558e-11,2.4524796458231847e-11,2.4413626245353856e-11,2.4301693918236623e-11,2.4189118537661625e-11,2.4076010031067314e-11,2.3962469851913676e-11,2.3848591591868015e-11,2.373446154918282e-11,2.362015925639583e-11,2.3505757970258765e-11,2.339132512659361e-11,2.3276922762582566e-11,2.3162607908818705e-11,2.3048432953278197e-11,2.2934445979220576e-11,2.2820691078880247e-11,2.2707208644679223e-11,2.2594035639567638e-11,2.2481205847983708e-11,2.236875010881833e-11
S3,89002.4682156441,88572.80032740667,88176.35870523959,87808.25592442369,87464.91208242887,87143.50742248195,86841.73401246914,86557.64297888323,86289.54804343708,86035.96305232646,85795.560418945,85567.14264170735,85349.6221226963,85142.00634223559,84943.3865535486,84752.92884179729,118201.42105204084,151519.8868526467,184714.81659594065,217791.7408920677,250755.3199991053,283609.4382607137,316357.2920216482,349001.466434122,381544.0003699887,413986.4403566648,446329.88492084603,478575.020566818,510722.15021087247,542771.2144328867,574721.8054650574,606570.9259538153,638320.1747615907,669967.3691440873,701510.3072564099,732946.4066525792,764272.5218759871,795484.7872050431,826578.425592388,857547.4915926304,888384.5184016845,886805.312229863,885181.9072141623,883502.9396599939,881755.675440053,879924.928461924,877992.2802413218,875935.3181245836,873726.8338341389,871333.9992415691,868717.5835415365,865831.321101515,862621.5847016531,859027.5567960272,854982.1067107324,850413.5555167987,845248.4271180801,839415.1415761558,832848.4245465336,825494.0273695062,817313.2293159247,808286.5699953898,798416.3492833375,787727.6112662065,776267.5489490821,764103.4740381623,751319.6507138624,738013.3758642297,724290.7032411165
E3,0.0,41.222303988184585,63.24532870775693,73.6033915472681,76.94818708469782,76.16234639918032,73.0325244023467,68.66233932258463,63.72821888170538,58.63899503947793,53.63593141665727,48.855622145224785,44.36962679548138,40.20947120688133,36.382415271716496,32.88138230379923,29.69119072595413,28.691941786710128,29.0148977137947,30.12448562498713,31.727522308096702,33.69271863936528,35.99012742382811,38.65074666800321,41.742574751792056,45.35857879200111,49.61265405513262,54.6407447933243,60.60537023107581,67.70266436235342,76.17167114928056,86.30608615839837,98.4674018607647,113.10693667072088,130.78628435791387,152.20727290500918,178.24945032696377,210.0175219672067,248.90146730310715,296.6525581245614,355.4790506917765,428.1658013222226,511.092633290198,607.8048114284201,721.0824641019087,853.5558622434419,1007.8787056215872,1186.720291665515,1392.660552978354,1628.0111903294564,1894.567910361402,2193.2984425967566,2523.980556057176,2884.8205710453726,3272.1026940272272,3679.9375286389813,4100.186535698086,4522.629787271371,4935.412424333167,5325.7540041652965,5680.846983883051,5988.82416232053,6239.655994524037,6425.853449238624,6542.894256167293,6589.34518538265,6566.704274868628,6479.023324812119,6332.38836306934
I3,0.0,0.0,1.0250654966762947,2.352794302734738,3.6207836702627567,4.6689133009385255,5.447011414976489,5.961325010387435,6.244051548017833,6.33651425994117,6.280326959530485,6.113157712951809,5.867069032659426,5.568240336964426,5.237378428257832,4.890421965773914,4.539324489269161,4.1928052715233965,3.904251828261615,3.6926900088923515,3.5592807499064447,3.497617019021999,3.499558250261135,3.5581646836584073,3.668925897495456,3.8301003058146765,4.042674332246996,4.310230864449511,4.6388770178961325,5.037301709906091,5.51699453118781,6.092643451308723,6.782729453960966,7.6103059427875674,8.604139669732955,9.800087506231034,11.242889162855121,12.988463622032338,15.106836363617631,17.685861929951635,20.83594716973279,24.696025238961226,29.44107634164774,35.11424045008228,41.83650688975237,49.769082821895196,59.10005520117562,70.03854943233854,82.81008930065512,97.6504557445265,114.79656546203186,134.47336837164036,156.87611841108924,182.14788004210476,210.3529240468883,241.44776149639966,275.25284652833045,311.4291633805771,349.4645803397597,388.6745668889075,428.2203786432857,467.14523869033417,504.4259291841999,539.0343664903354,570.0019384160611,596.4790650197021,617.783565806623,633.433544464104,643.1630271985495
A3,0.0,0.0,9.18337097840047,21.436285669859906,33.546153015896785,43.97918957751944,52.15055179157625,57.99038998509524,61.68868490369105,63.5481135144528,63.90189564702365,63.07035509084348,61.34018087448271,58.95666602941948,56.12306820494325,53.00361085570775,49.72809622427458,46.39698400224482,43.50948479183722,41.271432495876155,39.7281810496432,38.8506991977107,38.58651377121752,38.886974696259166,39.72006754891207,41.075329248229906,42.9651002417489,45.424626104998765,48.512388517301275,52.31137832703006,56.93168230694982,62.51462331265792,69.23868817292305,77.32719846921171,87.05935471700809,98.78362736445362,112.93514372826327,130.05794851150952,150.83338014460014,176.1161644847028,206.9802248581773,244.77664808259175,291.2067048562445,346.8249205263899,412.8647179540361,490.93218339434463,582.898149065833,690.8504633576356,817.0540623915433,963.8956440698137,1133.7995599024573,1329.1053327902498,1551.9001686933336,1803.8043244843489,2085.714415524929,2397.5199416910127,2737.8204822921994,3103.6826234538275,3490.482871729024,3891.881445375173,4299.959333484658,4705.528104530793,5098.593276765203,5468.924915343782,5806.670690335193,6102.941281107475,6350.305940847455,6543.153800140515,6677.898810338972
IH3,0.0,0.0,0.0,0.04100261986705179,0.1346427986570062,0.277925545778946,0.4614855057165899,0.6740581677840383,0.9047584604489498,1.144114405710933,1.384415897197227,1.619706059175668,1.84560325181206,2.0590587313812114,2.2581059961417695,2.4416294342487106,2.6091638114819196,2.7607273861220647,2.896686977362641,3.019540686040097,3.132518914957668,3.2388613497674696,3.341514133452517,3.4430639011719744,3.545789947395678,3.651764934325605,3.7629680219158335,3.881395063676035,4.009162273230905,4.148605809106021,4.302382517096326,4.473578268803877,4.665830962334228,4.88347589370588,5.131720632497522,5.416863523289852,5.746564744851581,6.1301859605130735,6.579217919345804,7.107820228292215,7.733503818686536,8.477994493113716,9.368325500186378,10.438218372656388,11.722732392570808,13.26136317922124,15.099600377858458,17.289933910893332,19.89261500192424,22.976222844033188,26.617979101427327,30.903693938088853,35.92718856560706,41.78901526455542,48.594292387784236,56.44950009637154,65.45815430828002,75.71539851439047,87.30172127832455,100.27620015264255,114.66985198632443,130.47978711139606,147.66487801901602,166.14354151624383,185.79400939720747,206.45716949035764,227.94175646166573,250.03141760342658,272.4930127449956
IN3,0.0,0.0,0.0,0.20397553152294273,0.6313577953674356,1.2255780254197552,1.9095192223463917,2.6115042144284293,3.275434340702735,3.8628375744076426,4.351159113313438,4.730635756950474,5.000952430687674,5.1682371237448805,5.242601612441937,5.236255718957907,5.162138899826185,5.03298132889246,4.860702174170974,4.665460234556124,4.467168461145019,4.281988227017543,4.121573709357525,3.993628376569675,3.9029340757861233,3.8524187658024394,3.844078259290945,3.879705492661036,3.9614477659849383,4.092238160813684,4.276152130959363,4.518736327888661,4.8273507995755285,5.211561074748666,5.683606922542809,6.259004391046075,6.9573013988123185,7.803038937416284,8.826976995599203,10.067657780772304,11.573397041263494,13.404816992037718,15.638061408598588,18.368864237783274,21.68239696538615,25.670872180156117,30.440138211998946,36.11230073479588,42.826657692576866,50.73952392321103,60.022868828009294,70.86141146135952,83.44768935692282,97.97458569380325,114.62487509826732,133.55756637310117,154.8912127940719,178.68492954504313,204.91854877128745,233.47402822432684,264.1207208814479,296.5072092217487,330.1619722923355,364.504185459349,398.8646129115534,432.51512398739413,464.7041581112224,494.6947212243705,521.8013265911704
D3,0.0,0.0,0.0,0.0,6.15671207645842e-05,0.00026373882276498956,0.0006810554648726608,0.0013739949393180393,0.0023861210120635027,0.0037446530663042847,0.00546258792054779,0.0075413453513538935,0.009973400641277672,0.012744649860382574,0.015836411264589494,0.019227050326543864,0.022893257381804463,0.026811024197606725,0.030956369956745736,0.03530586463612821,0.03983982921385004,0.04454343525072961,0.049406718828887364,0.05442413978535047,0.059594041896263494,0.06491819139219801,0.07040146669130061,0.07605171800182056,0.08187979238817039,0.08789971449659077,0.09412901681146871,0.10058922118046702,0.10730648301442582,0.11431242017787036,0.12164516016067146,0.12935064983268546,0.1374842932872991,0.146112996691495,0.15531772313492762,0.16519668953976396,0.1758693740605857,0.18748154823585217,0.20021160579050234,0.21427853198453778,0.22995194634684413,0.247554111360799,0.2674665938071757,0.29013926504074233,0.3161008121944411,0.3459703920924563,0.3804701360390448,0.4204381268445208,0.46684129481103814,0.5207874466501832,0.5835353724600012,0.6565017018703894,0.7412629488541813,0.8395510607941474,0.953240846939251,1.0843279734283993,1.2348968137763872,1.4070783145729278,1.6029990834523768,1.8247239734023917,2.0741953368897263,2.3531726864099207,2.6631766209863343,3.005440546873758,3.3808730078346287
R3,0.0,0.0,0.0,1.836674195680094,6.165136462155334,13.001985052394748,22.045717828440374,32.86234688628207,44.989466307864646,57.99133774134789,71.4849691031771,85.14942421421648,98.72581944436703,112.01250213791923,124.85807335586591,137.15378837930436,148.82617798857999,159.83031665151495,170.14391699160362,179.8469212545789,189.06449520752574,197.93489029883295,206.59381639727627,215.1688490347258,223.7794002883033,232.5394585127169,241.56152576486662,250.96099114529375,260.8606714154625,271.39553029485205,282.7177396505119,295.00233036326466,308.453738074062,323.3136041781851,339.8701908459142,358.47010038014935,379.53279536648216,403.5687500393458,431.20224938873605,463.2001129959694,500.50795565134734,544.2960150694223,596.0170880292793,657.4797245372498,730.622863673811,817.6495139816212,921.1027387283136,1043.9213921876585,1189.4868443452538,1361.6619145120972,1564.8187103391424,1803.84937587625,2084.1517616659526,2411.58060516166,2792.354277349936,3232.908078398453,3739.6880750122396,4318.884995572576,4976.115660157495,5716.068961470341,6542.142818191767,7456.105527584851,8457.817388206473,9545.04508679817,10713.39234237396,11956.35734311728,13265.513195831158,14630.79463318751,16040.864651636522
G3,0.0,0.0,1.0250654966762947,2.5977724541247325,4.428050963911223,6.341503730523309,8.2354151786094,10.051498067170723,11.75890857437661,13.343623450066115,14.8017857738404,16.13553807194267,17.350419525295653,18.45374877010177,19.45362838831979,20.358341491970542,21.175995218756604,21.914319189613117,22.62779506826928,23.349301817249824,24.098400432119732,24.887361389333073,25.72519042907658,26.62014860156795,27.58126777728172,28.6192707266743,29.7471920119882,30.980898402708878,32.33963716258959,33.846696883341124,35.5302433753275,37.4243866998171,39.57054017778629,42.01910627985957,44.83171030726034,48.08394258355956,51.86884562640835,56.301333470466204,61.523790602598964,67.71316580777061,75.08995634139548,83.92957165644015,94.57667158365352,107.28589385665838,122.4000354894913,140.33102630507142,161.5562024651017,186.61888906950838,216.12878801985866,250.75975580490578,291.24313344163266,338.35491536867454,392.89516033082424,455.6584009065483,527.3945666562407,608.7611873621149,700.2693425494926,802.2277325726582,914.6909212023169,1037.418680172352,1169.8529729042727,1311.117280613643,1460.0399855700587,1615.2000676690427,1774.990278798456,1937.690916596891,2101.546638905907,2264.8393549310454,2425.951729055729
H3,882211.279588308,878360.3573361367,874749.9093414876,871359.5587005136,868171.6266433429,865169.7292180554,862338.6843900232,859664.4257820587,857133.922580965,854735.1051699728,852456.7960780121,850288.6458659866,848221.0735973495,846245.2115654747,844352.85397371,842536.4092857196,807157.3017445469,771975.4053730033,736977.950753931,702153.5112841338,667491.8857946305,632983.9908491909,598621.7619414083,564398.0628725188,530306.602649255,496341.85929361585,462499.0100048876,428773.86715887504,395162.8196704226,361662.7792831659,328271.1313853359,294985.68998255406,261804.65648813779,228726.5820186715,195750.332907678,162875.05917331425,130100.16569727255,97425.28589163777,64850.257648462255,32375.101383400022,3.637978807091713e-11,3.637978807091713e-11,3.637863274454086e-11,3.6376303362357014e-11,3.6372784217157016e-11,3.636806238576348e-11,3.6362127508130657e-11,3.6354971582498464e-11,3.63465887754499e-11,3.6336975245804156e-11,3.6326128981353785e-11,3.631404964752529e-11,3.630073844710825e-11,3.628619799025928e-11,3.627043217404363e-11,3.625344607083034e-11,3.623524582490518e-11,3.621583855671172e-11,3.61952322741724e-11,3.6173435790581194e-11,3.615045864859532e-11,3.612631104988777e-11,3.610100379005322e-11,3.607454819838942e-11,3.604695608220309e-11,3.601823967531426e-11,3.5988411590456634e-11,3.595748477529292e-11,3.592547247178434e-11
S4,44501.23410782205,45180.74436777024,45869.25889977389,46563.2377542883,47260.47533242647,47959.58170868929,48659.6732816006,49360.18406753934,50060.74871468667,50761.12919130788,51461.16850749747,52160.76135839942,52859.83544175574,53558.33954536193,54256.23594409424,54953.495547018865,77880.31892338888,101363.20618564046,125401.0901860656,149992.7637612641,175136.8730113668,200831.9386052449,227076.38106244546,253868.53873678832,281206.67464936007,309088.97196334257,337513.5191473366,366478.28581143694,395981.08952569735,426019.55303132406,456591.0502944994,487690.23773210694,519316.60779556085,551465.5235722191,584132.0711847574,617310.5474735787,650994.0999458535,685174.3506960898,719840.9291209216,754980.8616237807,790577.7636131438,797516.6501778979,804348.0599270412,811047.784752907,817588.9409771315,823939.9008347801,830062.9544756814,835913.1607294168,841437.2688232765,846572.7462756746,851247.0327517191,855377.2051376185,858870.291694956,861624.5010903338,863531.6142767948,864480.7015098429,864363.1618160959,863078.8505281836,860542.8060132917,856691.8781791987,851490.4689837558,844934.6601195675,837054.2166625337,827912.2620034722,817602.7401153204,806246.0451827331,793983.3636740254,780970.3313576872,767370.5742254509
E4,0.0,61.83345598227691,95.84434315110377,112.71641098456783,119.121041748852,119.23712972375642,115.68205536306975,110.09017604799155,103.47552111802341,96.46046373761041,89.4203766435332,82.57530002634319,76.04806083722028,69.90110129651812,64.15977929176293,58.827070403443386,53.89280746840822,53.105309705485766,54.86225176191438,58.17003118672455,62.489965189615575,67.59553721539633,73.46193632087005,80.19106059446551,87.96694236414551,97.03416560716803,107.69244410306489,120.30229410465736,135.298672161596,153.21112672372922,174.69033202156044,200.54189650706977,231.76530604033061,269.61696637152244,315.6724187203997,371.91578195151016,440.85293571476217,525.6560376731045,630.3482318779405,760.0392268046562,921.2244793716028,1122.162655356643,1354.067765220456,1627.4152071114413,1950.8850573078948,2332.989764084572,2782.538407996593,3308.6048516498313,3920.2098477967143,4625.767664182469,5432.299855931941,6344.4204060343955,7363.128207817421,8484.497530921262,9698.42604813468,10987.666429778623,12327.405333469975,13685.633500420812,15024.4535285123,16302.304346394883,17476.882726950866,18508.373789089896,19362.521889473217,20013.10703932586,20443.52403143842,20647.344177541887,20627.91747124448,20397.204688766546,19974.09695257143
I4,0.0,0.0,1.5375982450144428,3.5534701259026376,5.507127021581487,7.153146218700648,8.408673636364473,9.275742102698104,9.796539811595302,10.028388126155996,10.030385712322044,9.856841682682795,9.554557622818479,9.162204419555463,8.71076382566983,8.224443901618951,7.721741269738589,7.216479260728239,6.812386184705389,6.548555896946107,6.430031615844942,6.447255991785746,6.587323030369113,6.839794144463246,7.1992593181368445,7.666177752606765,8.24698091877878,8.95401615767243,9.805644820654255,10.82665608395516,12.04908297182427,13.513483171968518,15.270754458400289,17.384484641578688,19.934307571944093,23.020004199961125,26.766847670709453,31.332485505031453,36.91577069979209,43.768075403326065,52.207758824951,62.63861723035151,75.57331083394807,91.18350114235274,109.86031395810346,132.11724623605238,158.55675250369092,189.85636137256023,226.75731802181207,270.0480360452365,320.53774345309125,379.016876017898,446.2016998507456,522.6621414474728,608.7343015939236,704.4227448537798,809.3020595586397,922.4314745956892,1042.2990848407876,1166.8119261232664,1293.3437376359175,1418.8439583109266,1540.0010065321326,1653.4429011415805,1755.9515169563676,1844.6649036159783,1917.2452212860544,1971.9966488549976,2007.9260716288252
A4,0.0,0.0,13.775056467600711,32.37193660620391,51.00814518280116,67.34391488132349,80.43839234209726,90.1219863927352,96.62312092376152,100.35043720993701,101.76949854296532,101.3363798751708,99.46496100729848,96.51370876914447,92.78330729956241,88.51995305744727,83.9212661000706,79.14307746566918,75.1450903645852,72.33810652790282,70.82941581402163,70.58484410746335,71.52658949348282,73.58688313895291,76.73421050251243,80.9843580752962,86.4044426741736,93.11492701487171,101.29249590969616,111.17539541573548,123.07219346216401,137.37469948378114,154.57583186246788,175.2925875169655,200.29846197405817,230.5632456102154,267.3047862821628,312.05561400373654,366.7484357659084,433.82568012468516,516.3796141809446,618.3310884082023,744.656621920303,897.3801157986397,1080.4543660801653,1298.975328791876,1558.9161443306866,1867.017783365304,2230.694468067033,2657.887190168625,3156.823246292154,3735.6487129775905,4401.908339599469,5161.860455868193,6019.637164094647,6976.293582487221,8028.8315015319295,9169.324517803663,10384.30058986654,11654.539424431492,12955.405946396531,14257.76792015808,15529.449727356265,16737.079512354183,17848.118586714474,18832.836745564517,19666.017662716207,20328.234577913183,20806.61066582405
IH4,0.0,0.0,0.0,0.061503929800577714,0.20293534485753056,0.4208863565022284,0.7021713635037656,1.0304422561304836,1.3896202662324435,1.7654990840288873,2.1463286487195097,2.522857989949425,2.888114902283485,3.2370794348174323,3.5663362092919324,3.8737483996722677,4.158172079134573,4.419216342669845,4.6570477145071045,4.8759799359948,5.081840888018816,5.280593150589026,5.477748430871345,5.678238803128966,5.886522071684747,6.106788368604457,6.343198001026185,6.600120684980527,6.882369771670147,7.195437705395469,7.545745325932048,7.94092094447254,8.390127442382838,8.904458224732293,9.497422617753786,10.185559923626307,10.989210455082919,11.933491505716079,13.049537382366246,14.376078419237345,15.9614543779343,17.866183406677724,20.166239452343863,22.957229052909874,26.34052558408716,30.431981503636937,35.366656665704866,41.302155709066845,48.42137172072295,56.93474404247415,67.08182818312486,79.13179351434889,93.38233097611776,110.15635824825209,129.79587601942532,152.65239547475238,179.0735674615371,209.38602783982307,243.87502480935774,282.7620495710171,326.18232726869036,374.1644773164222,426.6147675181767,483.30808047798047,543.8870087505343,607.8695306196603,674.6646903473611,743.5948155040003,813.9221950928094
IN4,0.0,0.0,0.0,0.3059632972844143,0.951867852622168,1.8573453911573317,2.909265166371541,4.000635629490098,5.046268049496555,5.9864063776100105,6.784652026936792,7.423646041681497,7.900308108226469,8.221486920387743,8.400356468043192,8.453620934025452,8.399460773375575,8.256100952375286,8.040872118261502,7.788279457404251,7.533706319287304,7.30646292244807,7.128095645710049,7.013273456655833,6.971654377827559,7.009888300072415,7.133386511509616,7.347757826902689,7.659946268329746,8.079160738429126,8.617701103037739,9.29178143595665,10.122443481414429,11.136648671042511,12.368619348872208,13.861579555103845,15.669963714051622,17.862247193131093,20.524580220158306,23.765452298431416,27.721675022221564,32.56604726669938,38.51715866393036,45.8518940495241,54.82591983809704,65.72159842564176,78.86699936004999,94.64445938270799,113.4946678168748,135.91767487113657,162.47040540155984,193.7594257972074,230.42727624743088,273.1305171238058,322.50780514509796,379.1369456434156,443.48109117694565,515.8261120588027,596.2135025622387,684.375607426256,779.6818280991442,881.1050918703575,987.2167161254426,1096.2147904212634,1205.9868032795887,1314.2023778566277,1418.4277194616734,1516.250590728825,1605.4037540474083
D4,0.0,0.0,0.0,0.0,9.235068114687634e-05,0.0003970664511332221,0.0010290446325996478,0.0020833838254229746,0.003630635270082374,0.005717207275126259,0.008368176790455059,0.011590977566226618,0.015379152639983941,0.019715775995940925,0.02457638395548512,0.029931384509023492,0.035747977114753145,0.0419916435776788,0.04862727874285055,0.05562002749829991,0.06294151199218005,0.0705721051755798,0.07850113305880045,0.08672619770722963,0.0952523068986891,0.10409116198760575,0.11326075598410426,0.12278532877065115,0.13269568153812283,0.1430298429222697,0.15383408868994333,0.16516433576310088,0.17708795528681864,0.18968607684954644,0.2030564872438788,0.21731725807158409,0.23261129537715444,0.24911204702154366,0.2670306755154743,0.28662509281239684,0.3082113660561109,0.3321781465313835,0.35900495601252674,0.38928539428100095,0.4237566182687269,0.4633080012022175,0.5090028735400111,0.562107363668622,0.6241242498242583,0.6968309317383115,0.7823207924723187,0.8830469175406898,1.0018665613442543,1.1420839734785684,1.3074882777217398,1.5023821259573829,1.7315959785763306,2.000482308020579,2.314884043915264,2.68107242779385,3.105651279341072,3.5954274643589916,4.157250821877391,4.797830448177137,5.523537416506689,6.3402061381300205,7.252947248871701,8.26598404020109,9.382522250551922
R4,0.0,0.0,0.0,2.7550112935201425,9.291206313515813,19.685238274049055,33.52969919211024,50.20625240743904,69.0410812344454,89.38885523175934,110.67387894010903,132.40617234057666,154.1834061038466,175.68534107597443,196.66475100822905,216.9371471238431,236.37059940613437,254.87632650161495,272.4003543486505,289.08411732236493,305.1581543187863,320.88159715432823,336.5126644918164,352.2983790039637,368.47519271111673,385.2752309079016,402.9351480666613,421.70614588380823,441.8646840590129,463.7239961923348,487.6468618002217,514.0602981665214,543.4730035599136,576.496559903114,613.8714517229629,656.4998422137265,705.4866628460267,762.1915049498203,828.294412104251,905.879510675288,997.5414979441036,1106.5213703285162,1236.8794592975632,1393.7158778089333,1582.5918520690952,1809.9113145085885,2083.1550197671286,2411.065315071933,2803.8107851786262,3273.132826072615,3832.4631465209923,4496.992695141566,5283.665640831669,6211.066587310811,7299.166345491693,8568.893298099836,10041.505927680711,11737.759181897101,13676.883168147993,15875.424736881843,18346.035363749103,21096.314741920924,24127.830989099777,27435.4304254713,31006.922366831168,34823.18231491749,38858.66883490791,43082.304558246964,47458.6375401304
G4,0.0,0.0,1.5375982450144428,3.9209373529876297,6.723830268497222,9.68598565553924,12.651027775396765,15.527666683577841,18.26525362248744,20.83835546752471,23.237015503585784,25.46061132257148,27.513992204895747,29.40506174035204,31.14327625498162,32.738722643548435,34.20156179388805,35.54170176934207,36.86225922010962,38.2265061425336,39.673006850674184,41.22693035826701,42.9078129442734,44.73457391967009,46.72866647162511,48.916120076630875,51.32904622435885,54.007009317698646,56.998538633794965,60.36297941368737,64.17284505720913,68.51682912975281,73.50365807571242,79.2669123231378,85.97141505120456,93.82116805810543,103.06951176682074,114.03209972986092,127.10346681047625,142.77819046430668,161.6779100855411,184.58578609286178,212.49034523624326,246.16163509638565,286.63019255630826,335.14239994774545,393.15631668436265,462.3490555480476,544.6233669629103,642.1063183248439,757.1342126791587,892.2179564580487,1049.9831909412771,1233.0803966578953,1444.0624339082983,1685.2309507592486,1958.4587099204728,2265.001446457114,2605.3189286012366,2978.928538653812,3384.3141693695334,3818.9077689410215,4279.151218123821,4760.634570515464,5258.295873318492,5766.660255889315,6280.092986880401,6793.042638460273,7300.255208652649
H4,441105.639794154,448457.4004573899,455777.0701018577,463066.65267970343,470327.98233554105,477562.74589090224,484772.49363438605,491958.64933763625,499122.5195524867,506265.3022406614,513388.0947837445,520491.90141772793,527577.6401332779,534646.1490799225,541698.1925096348,548734.466292749,533525.3789153248,517741.2026897295,501384.1427605406,484456.2790615132,466959.5793544898,448895.9111493061,430267.05259552045,411074.70242956746,391320.48905427934,371005.9788215842,350132.68358354,328702.06757165835,306715.55365967593,284174.52906051866,261080.35050413184,237434.3489391087,213237.833797597,188492.09685979004,163198.41575138195,137358.05710467714,110972.2794115638,84042.33559428078,56569.47531780737,28554.947065772238,3.2741809263825417e-11,3.3044974164416395e-11,3.334813906500737e-11,3.365129433787855e-11,3.3954430199231525e-11,3.42575367343745e-11,3.456060392092253e-11,3.486362165015695e-11,3.516657974667777e-11,3.5469467986473184e-11,3.5772276113521555e-11,3.6074993855032835e-11,3.637761093542888e-11,3.668011708915478e-11,3.698250207240694e-11,3.72847556738573e-11,3.7586867724447557e-11,3.7888828106321763e-11,3.819062676096103e-11,3.849225369657913e-11,3.879369899483397e-11,3.90949528169056e-11,3.9396005408988e-11,3.969684710723844e-11,3.999746834222502e-11,4.0297859642910044e-11,4.059801164020433e-11,4.08979150701248e-11,4.119756077658557e-11
E_Om,0.0,0.0,0.0,0.0,0.0,0.0,0.0,0.0,0.0,0.0,0.0,0.0,0.0,0.0,0.0,0.0,0.0,0.0,0.0,0.0,0.0,0.0,0.0,0.0,0.0,0.0,0.0,0.0,0.0,0.0,0.0,10.491995011133831,16.30600799763145,22.008806813895966,29.344171634610625,39.438919731658274,53.54346809279119,73.37016077104079,101.37936988881472,141.145216498843,197.88169393943394,279.21659749297487,389.54445886932797,541.6814855933434,751.1538723632434,1038.4335833618866,1430.5325090362182,1962.7048146424104,2680.3025136420597,3640.6525491631637,4914.694660258012,6587.974567328152,8760.43831557426,11544.364749743421,15059.77324460237,19426.832918777953,24755.234543812963,31131.152936662587,38603.20112977704,47169.42865557452,56767.68369118249,67271.36918197409,78491.7911449111,90187.13911894949,102076.9824743366,113860.31494462008,125234.80297897055,135914.9966064332,145647.72468620975
I_Om,0.0,0.0,0.0,0.0,0.0,0.0,0.0,0.0,0.0,0.0,0.0,0.0,0.0,0.0,0.0,0.0,0.0,0.0,0.0,0.0,0.0,0.0,0.0,0.0,0.0,0.0,0.0,0.0,0.0,0.0,10.0,7.610121966017591,6.05229764643152,5.011350054952707,4.360986420660843,4.04845858273096,4.0616448518426544,4.4224143045356765,5.189990038208689,6.470623056674309,8.43404851109623,11.33909208781147,15.572401911546697,21.53749972438576,29.860168161195926,41.402721731176925,57.33046389037307,79.20190321223896,109.07974090121184,149.66147575857514,204.42547310485313,277.7828534526195,375.21777895122375,503.38909906839194,670.1562915215097,884.4850087387999,1156.1864392409311,1495.4546721947709,1912.1904230266123,2415.137105962477,3010.9000640421855,3702.9605288809553,4490.819700527428,5369.405776512262,6328.8460085045335,7354.653711016761,8428.319286513228,9528.23864705013,10630.872599815626
A_Om,0.0,0.0,0.0,0.0,0.0,0.0,0.0,0.0,0.0,0.0,0.0,0.0,0.0,0.0,0.0,0.0,0.0,0.0,0.0,0.0,0.0,0.0,0.0,0.0,0.0,0.0,0.0,0.0,0.0,0.0,0.0,0.0,2.3373725670061036,5.502497547847983,9.305048528175464,13.981238059432252,19.97106487431698,27.90509179373963,38.66923952028566,53.520358325326555,74.26015950412383,103.49156859196836,144.99622147242525,202.77842635173357,282.8967828758624,393.6570459820869,546.2644973009701,755.7009833469103,1041.8057897496567,1430.5537192531924,1955.4957242253176,2659.276291189901,3595.068607075449,4827.676876715768,6433.957580290721,8502.133428390913,11129.553475386276,14418.533518544065,18470.1239414742,23375.994904522177,29209.048017132307,36013.75858565079,43797.50397455518,52524.14944282859,62110.91744862893,72429.11253372038,83308.721133245,94546.379508945,105915.80505292362
IH_Om,0.0,0.0,0.0,0.0,0.0,0.0,0.0,0.0,0.0,0.0,0.0,0.0,0.0,0.0,0.0,0.0,0.0,0.0,0.0,0.0,0.0,0.0,0.0,0.0,0.0,0.0,0.0,0.0,0.0,0.0,0.0,0.4,0.699804262182885,0.9338473405255203,1.1235606591138487,1.2850774367910907,1.432235409087148,1.5782282886745618,1.7369728032583107,1.9245945406230245,2.161283659594451,2.473787507102438,2.8988988218190928,3.488453094207931,4.309830496389508,5.454667530057098,7.0480393162774,9.260194557707777,12.32176417748535,16.543234535873076,22.339420873537854,30.25950202940964,41.02278525990967,55.55967116542787,75.0562132842769,100.9992028198943,135.21695668264687,179.90921086155828,237.65816455834198,311.41234632140123,404.436108645765,520.2204726635227,662.3555566481859,834.3702349821749,1039.5499224552327,1280.7473365904852,1560.2029168435915,1879.3909502622023,2238.9046038030783
IN_Om,0.0,0.0,0.0,0.0,0.0,0.0,0.0,0.0,0.0,0.0,0.0,0.0,0.0,0.0,0.0,0.0,0.0,0.0,0.0,0.0,0.0,0.0,0.0,0.0,0.0,0.0,0.0,0.0,0.0,0.0,0.0,3.979756067964819,6.2124477615929425,7.340430795944421,7.778289816345444,7.810693815326923,7.640506627816574,7.418120344046576,7.262584754624742,7.278842525504377,7.573550158575205,8.271555260840096,9.535254581748806,11.589586499091332,14.714011911362993,19.28743819162834,25.827544760978604,35.03866900827783,47.87241910268646,65.60355309304231,89.9228072465263,123.04690334995422,167.8434111272192,227.96414296346194,307.97516114929226,413.4645345364471,551.101614034364,728.6155879092496,954.6589911769427,1238.5264741202,1589.7124672699474,2017.3133398193484,2529.3072694576176,3131.772688525909,3828.1270187950277,4618.475671499503,5499.154219836741,6462.525390011212,7497.0615484123555
D_Om,0.0,0.0,0.0,0.0,0.0,0.0,0.0,0.0,0.0,0.0,0.0,0.0,0.0,0.0,0.0,0.0,0.0,0.0,0.0,0.0,0.0,0.0,0.0,0.0,0.0,0.0,0.0,0.0,0.0,0.0,0.0,0.0,0.0006006164578186605,0.0016514013506153742,0.0030536115551399096,0.004740684113193307,0.006670280758463679,0.008820841153884637,0.011190615864816938,0.013798751995867827,0.01668860988518316,0.01993386622510059,0.023648359949880387,0.028001175804719565,0.033239231656493846,0.03971061947284462,0.047901027199048006,0.058483948220820973,0.07238851135572617,0.09089014724162145,0.11573049456111999,0.14927405414808137,0.19470994145873283,0.2563073413903891,0.33973247362276116,0.4524324660229718,0.6040869246234553,0.8071207485228318,1.0772618309143807,1.43411534333617,1.9017137942575648,2.5089912517295208,3.290123695669306,4.284677816295657,5.5375190539064505,7.098446034283263,9.021540855942416,11.364249729424763,14.18623256793209
R_Om,0.0,0.0,0.0,0.0,0.0,0.0,0.0,0.0,0.0,0.0,0.0,0.0,0.0,0.0,0.0,0.0,0.0,0.0,0.0,0.0,0.0,0.0,0.0,0.0,0.0,0.0,0.0,0.0,0.0,0.0,0.0,0.0,0.7999512135929638,2.5169133219346023,5.0948374640983385,8.522740739593658,12.893977888913405,18.430614543430984,25.511039253874976,34.714773836889634,46.89385995246206,63.28221472159781,85.65957736723054,116.59486156628354,159.5033486673906,219.06860592979956,301.7120494398432,416.2009382453958,574.4414706620104,792.500330074254,1091.8972168888597,1501.204317391964,2057.971551320229,2810.9641828133617,3822.6479834608617,5171.785093881708,6955.914678495379,9293.397865946334,12324.626779345614,16211.959947521425,21137.978346713113,27301.774804680022,34913.19139450068,44185.17719886973,55324.70532749045,68522.9097201998,83945.23483460968,101722.41193439448,121942.98682368832
G_Om,0.0,0.0,0.0,0.0,0.0,0.0,0.0,0.0,0.0,0.0,0.0,0.0,0.0,0.0,0.0,0.0,0.0,0.0,0.0,0.0,0.0,0.0,0.0,0.0,0.0,0.0,0.0,0.0,0.0,0.0,0.0,0.0,0.2609020126651769,0.6663797412193742,1.2136676486203124,1.943362376013721,2.924080868961044,4.255533902979715,6.0800127170106695,8.600990054366536,12.110815499721063,17.031493803857394,23.974708338189057,33.66142027750323,47.13128846413457,65.81005803206187,91.6325457125006,127.20526666732891,176.01139322995485,242.661855760548,333.19312045170705,455.4056955754484,619.2273350423898,837.0711279470777,1124.14217544117,1498.6300727026971,1981.7126325819877,2597.2953229688515,3371.4265009901574,4331.363372804306,5504.314642743571,6915.943500139406,8588.765074653526,10540.602286324956,12783.265010399722,15321.589718530171,18152.927829177253,21267.11270233698,24646.879479615214
beta,3.9456776937248343,3.945677693724843,3.894139645040831,3.8548922188455217,3.823861720887166,3.7985699369160977,3.777452649056434,3.7594889681132933,3.743990281541651,3.7304762648714958,3.7186002728798706,3.7081035530509965,3.698786651062802,3.690491248163684,3.683088420064826,3.6764709002086366,3.67054787169948,3.740726576954552,3.7801485319997545,3.805158380223417,3.8223005999202395,3.834679143293443,3.843940054541921,3.8510288898750984,3.85652228618163,3.860787916861508,3.8640674698577024,3.8665221760992523,3.8682588948123033,3.8693455210559593,3.869820207207227,3.8696967926760135,3.868801247373527,3.867320879219131,3.8651518156617075,3.8622021251995213,3.8583623928220923,3.853493622029844,3.84741882782239,3.8399140969679735,3.83069764872646,3.8194161623940515,3.800726138082534,3.7786943919986773,3.7525918120924144,3.721684245287068,3.6851829972407195,3.642238155026375,3.591953554528294,3.5334196966877194,3.4657655794022064,3.3882306042955235,3.300255252777806,3.2015845462075223,3.0923720452719627,2.973265867137956,2.845454556584212,2.7106526786256624,2.5710155155179875,2.4289880155392707,2.287110302038417,2.1478139193902797,2.0132445737210207,1.885138044737452,1.7647605350350795,1.6529092968156063,1.5499588354517237,1.4559340313674587,1.370593000360624
