series,2021-11-01,2021-11-02,2021-11-03,2021-11-04,2021-11-05,2021-11-06,2021-11-07,2021-11-08,2021-11-09,2021-11-10,2021-11-11,2021-11-12,2021-11-13,2021-11-14,2021-11-15,2021-11-16,2021-11-17,2021-11-18,2021-11-19,2021-11-20,2021-11-21,2021-11-22,2021-11-23,2021-11-24,2021-11-25,2021-11-26,2021-11-27,2021-11-28,2021-11-29,2021-11-30,2021-12-01,2021-12-02,2021-12-03,2021-12-04,2021-12-05,2021-12-06,2021-12-07,2021-12-08,2021-12-09,2021-12-10,2021-12-11,2021-12-12,2021-12-13,2021-12-14,2021-12-15,2021-12-16,2021-12-17,2021-12-18,2021-12-19,2021-12-20,2021-12-21,2021-12-22,2021-12-23,2021-12-24,2021-12-25,2021-12-26,2021-12-27,2021-12-28,2021-12-29,2021-12-30,2021-12-31,2022-01-01,2022-01-02,2022-01-03,2022-01-04,2022-01-05,2022-01-06,2022-01-07,2022-01-08,2022-01-09
S,202475.04623342853,202410.09997065607,202363.64445381018,202326.5917240624,202294.52237104494,202265.2515758691,202237.6881600482,202211.2827589053,202185.75645511653,202160.96598931367,202136.83635330905,202113.3269034071,202090.41424822307,202068.08357274492,202046.32422512054,202025.12746787272,202004.48533401242,201984.39005056897,201964.83375544098,201945.80836690892,201927.3055330658,201909.31662318754,201891.83274097904,201874.84474894984,201858.34329806955,201842.31885946853,201826.76175636594,201811.66219519777,201797.01029536425,201782.79611727965,201769.00968856527,201754.880965377,201741.46766911904,201728.5793551294,201716.12630819634,201704.06347580982,201692.36560198138,201681.016197968,201670.00265846992,201659.31410860678,201648.9404634465,201638.87202452746,201629.09931279725,201619.61300441757,202176.49469306637,202733.33040247278,203290.10242700565,203846.77900922167,204403.31746755418,204959.6650062463,205515.75794945977,206071.51967550622,206626.85720793196,207181.6561408346,207735.77324946632,208289.02566359087,208841.1747040778,209391.901115718,209940.76589449873,210487.14597276598,211030.12389668127,211568.28856587384,212099.35269232222,212619.36356717246,213120.93451601377,213588.93778746843,213423.65181910928,213259.35921216971,213073.43864432236,212867.34254241158
E,21.96288499119436,82.51657076542318,112.46877345820764,127.02774851434773,133.69155182894937,136.2240366389841,136.54264513209773,135.6395172485752,134.0379175876217,132.02079987296304,129.74627590300548,127.30647062435142,124.75783168350694,122.13694082495266,119.4689002843365,116.77187747531264,114.0596358405417,111.3429921159052,108.63068882070525,105.92993958865384,103.24678551402918,100.58633828949544,97.95295284008581,95.35035430130748,92.78173432131231,90.24982605806878,87.75696394903349,85.30513232738946,82.8960056954372,80.53098264095948,78.21121482714805,75.93763210301154,73.70887980839669,71.52687917313675,69.39249541031815,67.30611337409158,65.26786939724009,63.27774545206912,61.3356091679535,59.44123305261616,57.59430593330663,55.79444152777189,54.04118589923307,52.334024365976504,50.67238801903618,49.35492864712584,48.32713750489379,47.55780542613492,47.03131541157386,46.74352957417346,46.69986442011572,46.91483095513024,47.412729177839644,48.22947151943686,49.41576046857891,51.04214276121688,53.20690652666911,56.048545824477976,59.76591499650122,64.65192597338427,71.15227602008622,79.97302276728131,92.28961485666903,110.18209112466744,137.6139425722272,182.79711781066644,263.85183715333585,322.26024325506387,375.9047213802096,424.2753558737596
I,163.2117066979111,100.2516016277055,68.88461199042577,53.23459461004514,45.385523245080236,41.38138521560592,39.24694357223859,38.000000484293665,37.15624651289364,36.48047893604057,35.86152427583535,35.24941318445987,34.62391466604959,33.97886460845961,33.314436399314125,32.63339092136675,31.93930756472308,31.23579070242427,30.526147814357504,29.81328870699242,29.099722763697002,28.387595011023887,27.678733492475285,26.974695964546015,26.276811353861408,25.586214824195263,24.903876754469568,24.23062645164673,23.567171524064854,22.914113768022037,22.271962289474914,21.641144445385773,21.022015066245963,20.414643671524555,19.819275318130796,19.236148615382106,18.665447462285425,18.107296627867182,17.56176906547084,17.02889453683963,16.508666820969008,16.001049250365938,15.505978939966084,15.023370113527651,14.55311683078695,14.095095313590909,13.680840952030255,13.323505710366888,13.02767755225772,12.794456334304439,12.62406401163165,12.5172070467064,12.47584517894218,12.50372619245476,12.606899771718272,12.794362138519276,13.078977775532179,13.478868303703816,14.019565069942235,14.73743386008722,15.685296289288546,16.942018449971805,18.629649968612007,20.94583148943277,24.229301158678844,29.102802418683304,36.80914364550986,50.011875319481064,64.11552880208417,78.25551562325772
A,145.19700631797815,125.26898185239071,114.06153531858611,107.37217898237783,103.06705514559496,100.04157422804504,97.71288189803008,95.76696504445671,94.03079941073447,92.40684231757753,90.83897050253933,89.29445048696591,87.75418199254369,86.20727330306617,84.64792719210433,83.07358825717654,81.48379883827732,79.87946655627754,78.26238002686748,76.63488009207596,74.99963220494344,73.35946684897814,71.71726702618201,70.0758890446281,68.43810726210756,66.80657626830967,65.18380585770245,63.57214542163588,61.97377528254706,60.390703133049264,58.82476420799182,57.27762416011154,55.75078386441589,54.245389273815235,52.7625936405314,51.303456977025,49.86891495093823,48.45977432172279,47.07671793465577,45.720312726312606,44.3910183271369,43.089195438086996,41.81511374532965,40.56895933788128,39.350841652143366,38.16079997810101,37.026988354424674,35.96816326010411,34.99730112007446,34.12394207083308,33.35579138652823,32.699897074306335,32.16360577164419,31.75543922661841,31.486009692330647,31.369095848834224,31.42303162925236,31.672628237365753,32.15197864315658,32.908734932884826,34.01091057828902,35.558181959331435,37.701606947479284,40.68003838266283,44.89199908285101,51.04883693484635,60.52736451188206,76.20199843174437,95.0017348354128,116.0045833145012
IH,0.0,32.642341339582224,35.84910831961922,31.127775274303957,25.712661822310718,21.52195009279305,18.692831517504334,16.896658917334836,15.777928550769056,15.067715865013826,14.588821698927523,14.233247534094168,13.938728566142556,13.671082631278859,13.412532849975385,13.154509947364822,12.893418598582993,12.62823455600537,12.35918296169131,12.087034279649291,11.81274337326995,11.537274270030192,11.261522561432074,10.986287319576315,10.712266844083029,10.44006489504262,10.170200723147538,9.903119719843657,9.63920331454765,9.378777639535372,9.122120901036752,8.869469571161671,8.621023573041565,8.376950634925914,8.137345840640656,7.902304221832913,7.671919495377066,7.446273799739633,7.225431843478938,7.009439535997334,6.798325049646228,6.592100775551986,6.3907653774812205,6.1943056316884135,6.002697982674999,5.815909841602858,5.633900679948766,5.462957960056267,5.3087551862859765,5.174955909192717,5.063553246756841,4.975556252681449,4.911594598199824,4.872364990041987,4.85895418884277,4.873098120141354,4.917436210660707,4.995818830962104,5.113733872175881,5.2789437253019065,5.502478519731985,5.800241125568888,6.195701699168625,6.724629645852424,7.443865371346915,8.448667078062151,9.909688117390644,12.158085836561462,15.886849420296558,20.512289672624544
IN,32.642341339582224,62.857646378574856,78.23435006787814,86.19436106268942,90.4325226891058,92.78575256954923,94.16318656335925,95.01131671026242,95.54699773075023,95.87409878941351,96.04172558515077,96.07309799489393,95.97971557251876,95.76817665334075,95.44335614820375,95.00980118417343,94.47227297507229,93.83589460508686,93.10612911942599,92.28869486877336,91.38946699203022,90.41438567411525,89.36937843827434,88.2602976908961,87.09287224922882,85.87267076455524,84.6050748783457,83.29526016991535,81.94818326324733,80.5685737671215,79.16092999183087,77.72951760871,76.27837059760024,74.81129396837318,73.33182372319224,71.84328196536839,70.34879151373401,68.85127977785939,67.3534814612035,65.85794252613853,64.36702558898199,62.88291635566567,61.407630686149005,59.943021979359905,58.4907886743263,57.052481739011604,55.629512067563866,54.22949272878847,52.86210113443397,51.5372127502265,50.26418874867089,49.0517386676886,47.9080657626791,46.84115530522787,45.85914839966574,44.97079077660256,44.18597714497699,43.516439414941885,42.97666152520605,42.58515676830851,42.36633508629195,42.35335580654367,42.59268599948403,43.15174772279195,44.132478171436794,45.696982894915216,48.11986319512616,51.90386478434837,58.04706312246994,66.55423063951037
D,396.0,396.0,396.5223891982326,397.096097645112,397.59424860184475,398.00573920706967,398.350164079551,398.64931337057584,398.9197177515855,399.17221861724533,399.41335364883014,399.64682473447255,399.8746054163247,400.09767278653254,400.3164569056137,400.5311033431617,400.7416205310392,400.94795936360407,401.15005434374586,401.347843577398,401.5412775005554,401.7303218302955,401.9149577114356,402.0951806213227,402.27099882519235,402.4424317634647,402.60950853878796,402.77226656359875,402.93075037812145,403.08501062675697,403.2351031731386,403.3810883331521,403.52303020704613,403.6609960945238,403.79505597951453,403.92528136761445,404.05174528525095,404.17452225864275,404.2936881285048,404.40931977111075,404.5214947974416,404.6302912693327,404.7357874469195,404.83806156895326,404.9371916625604,405.0332553778981,405.12632984359107,405.2164915396687,405.30391756708025,405.3888758222657,405.47169283101414,405.5527270158254,405.63235294751206,405.7109552737823,405.78892979203647,405.86668969156557,405.9446759424109,406.0233717544767,406.103321956776,406.18515920336534,406.2696403731285,406.3576988647762,406.4505225773776,406.5496750128432,406.65729210600944,406.77641943277297,406.9116270263438,407.0702159577114,407.26478694899333,407.5190309214086
R,0.0,24.423060155457048,64.39495061205314,105.4156926239081,143.65423839736962,178.84815895403304,211.66335996420952,242.81364209438885,272.83411011429445,302.0720290632609,330.73314785186125,358.92976480885903,386.7169466550364,414.11658922263916,441.1323378750963,467.7584337739317,493.98478441454256,519.7997843069478,545.1918342474388,570.150124752779,594.6650113609028,618.7281676637616,642.3326197263043,665.4727188831517,688.1440838499092,710.3435287330774,732.0689857078054,753.3194269234249,774.0947879530147,794.3958939201455,814.2243888193494,833.5826682297311,852.4738154605045,870.9015410873709,888.8700960631513,906.3842165000019,923.4490936144574,940.0703394156594,956.2539468585911,972.0062480290968,987.3338731518431,1002.243711833677,1016.7428770323891,1030.8386717766705,1044.5385584787846,1057.8501306348794,1070.7810867169505,1083.3434749165033,1095.5558946405824,1107.4424673962071,1119.0313259732625,1130.3534630246793,1141.442091013936,1152.3324601203562,1163.062053567775,1173.6711109304215,1184.2034773554947,1194.7078308222115,1205.2394054613005,1215.8624210379098,1226.6535738758046,1237.7071937203598,1249.1431272878867,1261.1192951977584,1273.8526997859522,1287.6567154314407,1303.0121612566013,1320.7141748536744,1342.1963007052773,1368.8475579392732
G,31979.0,31981.324577608957,31990.058228622755,32001.962056038552,32015.4068225176,32029.55689378616,32043.975006229037,32058.426840569984,32072.783086792304,32086.96981782061,32100.94305473482,32114.675553353783,32128.149820109153,32141.354335917986,32154.28145355222,32166.926182634,32179.285455645902,32191.357661809492,32203.142335202396,32214.639935220777,32225.85168476028,32236.779446113083,32247.42562259894,32257.793078468003,32267.885072243138,32277.705200255015,32287.257348114967,32296.545648513937,32305.57444416701,32314.348255020595,32322.871749049253,32331.149716120955,32339.18704451997,32346.988479151747,32354.55896826696,32361.903551691463,32369.027309984514,32375.935338135016,32382.632729223766,32389.12456232132,32395.41589242019,32401.51174157797,32407.417090967716,32413.136873717267,32418.67596847994,32424.039193695055,32429.26297745893,32434.37797859808,32439.411552724116,32444.389402527067,32449.336792738115,32454.279561377847,32459.24508232877,32464.26330141385,32469.3679654701,32474.59818774559,32480.000548238007,32485.632029876393,32491.564273964115,32497.889968782238,32504.73280475547,32512.263645431874,32520.7280843305,32530.496125838767,32542.157928103785,32556.72314982726,32576.070612021565,32603.99700115374,32638.105404764134,32677.891603106138
H,12453.997220654008,12453.997220654008,12453.997220654008,12453.997220654008,12453.997220654008,12453.997220654008,12453.997220654008,12453.997220654008,12453.997220654008,12453.997220654008,12453.997220654008,12453.997220654008,12453.997220654006,12453.997220654004,12453.997220654004,12453.997220654006,12453.997220654006,12453.997220654006,12453.997220654006,12453.997220654008,12453.997220654008,12453.997220654006,12453.997220654006,12453.997220654006,12453.997220654006,12453.997220654008,12453.997220654006,12453.997220654004,12453.997220654004,12453.997220654006,12453.997220654006,12453.997220654004,12453.997220654006,12453.997220654008,12453.997220654008,12453.997220654008,12453.997220654006,12453.997220654008,12453.997220654008,12453.997220654006,12453.997220654006,12453.997220654008,12453.997220654006,12453.997220654008,12042.499185999359,11635.980542947691,11234.67241369557,10838.821957944312,10448.693378442716,10064.568911202494,9686.749770303159,9315.55700713446,8951.332231435128,8594.438126235884,8245.258670538871,7904.198962176006,7571.684509014792,7248.159830278835,6934.086182786789,6629.938202116797,6336.199230371617,6053.355096606332,5781.886131532005,5522.257245318295,5274.905987872318,5040.228655790414,5040.2286557904135,5040.2286557904135,5040.2286557904135,5040.2286557904135
S0,70866.26618169999,70671.10047367553,70391.07677550025,70117.20429039629,69847.04146452768,69579.37844980083,69313.60970042952,69049.42957218572,68786.68221180364,68525.28682181567,68265.20022054308,68006.39800188277,67748.86502305289,67492.59059173652,67237.5660307877,66983.78345095522,66731.23514012316,66479.91326861162,66229.80975715257,65980.91622876466,65733.22400377167,65486.72411669123,65241.40734377366,64997.264235204704,64754.285148742994,64512.46028303711,64271.779709669594,64032.233403422324,63793.811270512255,63556.50317469578,63320.29896122908,63084.88840272674,62850.68486621837,62617.60608611256,62385.61026152498,62154.67349653447,61924.77983347165,61695.91685128597,61468.07372642208,61241.240383565375,61015.407128143124,60790.56449100389,60566.70316581288,60343.81398632311,60291.175764894484,60235.94822696846,60178.032411286615,60117.316919423225,60053.67936398966,59986.98667547102,59917.09467666015,59843.84710238128,59767.07409038516,59686.59004386562,59602.19062567324,59513.64844351443,59420.70665554081,59323.06914214491,59220.38480378766,59112.22142701869,58998.02021667656,58877.01265057602,58748.059391589726,58609.316226694675,58457.484824476145,58285.994897440374,58003.67993827307,57723.83528424507,57436.95201947734,57143.80730425302
E0,21.96288499119436,53.36746070218966,68.39422595842075,75.25392824983982,78.00813098121623,78.6787503234544,78.28120474695726,77.32903176449918,76.08383352301618,74.68012786365024,73.18806928616416,71.64509399412111,70.07194234011837,68.48079477272198,66.87941183039055,65.27324255307386,63.666496901374956,62.06268869642707,60.464907773736314,58.87595398109333,57.29840125135562,55.73462692929416,54.186824483504545,52.65700889568913,51.14701941579747,49.65852196620929,48.19301222228533,46.75181974617287,45.33611322141695,43.94690667772298,42.58506652824906,41.251319223037434,39.94513840446479,38.667737295772945,37.419730645214635,36.201446677063515,35.01305303502128,33.85460865881147,32.726086761262636,31.627386828705053,30.558342574019967,29.518728412010713,28.508265343793433,27.52662651515042,26.573442501620434,25.80255380643427,25.184708326137486,24.70278293350814,24.34771736292681,24.116329843879672,24.010269338063036,24.035718723046948,24.203678612310025,24.530807322386273,25.040917357423105,25.767373224618908,26.756848281641226,28.07525964128016,29.817364902635937,32.1228013252895,35.20402144126227,39.3974239151478,45.26261343650118,53.78882701685596,66.8585795616944,88.36563394707701,126.88051310137378,154.4161758022803,179.52342227978303,201.97092050188212
I0,163.2117066979111,100.2516016277055,65.79943585799886,46.71858692504304,35.99611653315331,29.854142358206367,26.239936994080878,24.029337083675706,22.602198027777153,21.614121346127547,20.872705477274692,20.269934719209715,19.74496194259387,19.263474053164764,18.806172387383768,18.36229913165627,17.925976330630075,17.494122798281367,17.065261729962145,16.63883407471189,16.214800741141296,15.793410702501244,15.375064963712166,14.960236287025312,14.549421597827465,14.143113719731089,13.74178467008997,13.345875963357734,12.955793230629794,12.571903545405942,12.194534477884098,11.823974272371881,11.460472763781734,11.10412414275048,10.755113332636707,10.413616353134511,10.079773555703959,9.753686894827878,9.43542378144571,9.125021826935349,8.822492959638375,8.527826736535278,8.240993015611513,7.961944182087961,7.690617072461871,7.4269346883116185,7.187133490594723,6.97785927881147,6.801287200714228,6.6577633957727125,6.547158785331009,6.469570450243173,6.4257110420640435,6.4171724696104215,6.446673014009661,6.518363987416569,6.6382675158529105,6.814936838065567,7.060480642138353,7.392193396788235,7.8352311552235445,8.427173775523158,9.226174003307381,10.326352705230363,11.888884411420616,14.209721434229397,17.878555608809847,24.156316274858888,30.83737963823802,37.503398187448624
A0,145.19700631797815,125.26898185239071,111.3168894383663,100.89331445756814,92.69471762821718,85.99746602342603,80.37793175897279,75.57227332376964,71.40497287982905,67.75173409293991,64.51975643283244,61.63690346934101,59.04549173322402,56.69852916256876,54.55728946148511,52.58964373831488,50.76884341100878,49.072588468977784,47.48228800736621,45.98245840933205,44.56022531531543,43.20490707244404,41.90766404894063,40.66120227114198,39.45952246425831,38.297707370592526,37.171741513486865,36.07835855545096,35.01491216937734,33.97926696447632,32.969706522054565,31.98485602565867,31.023617332685244,30.085009097918302,29.168312876674847,28.272976946068642,27.39856406941618,26.54471903254226,25.711145982678534,24.897591363807607,24.10383056709029,23.329657352481274,22.574875482586965,21.839292177985,21.122713087371206,20.42493851732137,19.760284466781695,19.138143847646088,18.564874337720155,18.04501738059198,17.582126840749126,17.179373468873177,16.84002984827148,16.567908600502175,16.367813297156108,16.246061969835026,16.211157088614886,16.27470778520398,16.452771191326928,16.767894193470166,17.252356110135487,17.953550517354998,18.943366198246665,20.33549315875143,22.319543796685313,25.23366134560046,29.731395546788768,37.17427965600245,46.082360196475484,56.00501644326022
IH0,0.0,32.642341339582224,35.84910831961922,30.51074004781858,24.110817224547386,18.868781128228594,15.103257718990143,12.5579154533,10.883858018887928,9.788191805350857,9.060277553270183,8.559686227738897,8.196847488097497,7.916240152306223,7.684129528363755,7.480328401368924,7.29291466165899,7.114942455514637,6.94243377491914,6.773167915884903,6.605958254647698,6.44022265085256,6.275729145094241,6.11244567075235,5.9504512601362265,5.789883549706208,5.630907719787953,5.4736981205974224,5.31842743996789,5.165260384473131,5.014350086263918,4.865836174847229,4.7198438793159045,4.576483777129723,4.435828225550163,4.297949229930275,4.162916844567661,4.030793045808574,3.901628220901398,3.7754602392998318,3.65231495197298,3.5322072563748814,3.4151422742213713,3.301116456003496,3.1901185608145384,3.0821305153913308,2.9771281726484284,2.8783471376658127,2.7886825927731023,2.7099708264364226,2.643169824248513,2.588717432417253,2.5468449832667828,2.517806971207312,2.502044952476446,2.50031629509541,2.5138178251762575,2.54433322790391,2.5944364489079907,2.6677950071935417,2.7696428638810824,2.9075444499242686,3.0926768971384275,3.3420804504195987,3.682826706703402,4.160253137673978,4.855493395962901,5.9257542749607985,7.6993092238920315,9.893916775247575
IN0,32.642341339582224,62.857646378574856,78.23435006787814,85.57732583620404,88.55816397333241,89.1728755735,88.51348705815067,87.18028458620839,85.50408893077399,83.66709462786808,81.76906991710743,79.8638847181247,77.97980045253568,76.1308078116675,74.32299462656819,72.5581363507512,70.83572486578771,69.1541142420013,67.5111646913264,65.90460016313818,64.33220202643784,62.79190879248006,61.28186204379793,59.80042174170068,58.34616434075454,56.917871524617375,55.51451412640909,54.1352339037441,52.77932472950556,51.446214105038955,50.135445513036586,48.84666189338615,47.579590383111835,46.334028374236446,45.10980716129878,43.90680756716467,42.72495447974426,41.56420644200361,40.424545470235145,39.305968400050936,38.208479824618465,37.13208638126051,36.0767921251951,35.04259478172217,34.02948272231525,33.03743255035611,32.06640720913683,31.11961968939603,30.20137324821157,29.316086214736,28.467917632655517,27.660691495060608,26.897966888162724,26.1831808018957,25.519833059518962,24.91170692027133,24.36313461143222,23.879330674005697,23.466832583125775,23.13411347460103,22.892475380031588,22.757411208526317,22.750777905891415,22.904437850759876,23.26670855089123,23.91454989758384,24.978390092266583,26.696898054073046,29.54318296400788,33.51405244291216
D0,396.0,396.0,396.5223891982326,397.096097645112,397.5843739260704,397.9702295345157,398.27219462159877,398.5138984445092,398.714868078301,398.8890470627377,399.04569163722306,399.1906870919786,399.3276713719698,399.45884899010684,399.5855359303346,399.70850830604985,399.8282191661091,399.94493076480387,400.0587941989902,400.16989690377886,400.27829077541526,400.3840087201026,400.4870743278058,400.58750747634514,400.6853275303654,400.78055511929864,400.8732130752316,400.96332687370153,401.050924780446,401.136037824799,401.21869967196363,401.2989464377814,401.376816472644,401.45235013103724,401.5255895370648,401.5965779727942,401.6653598726252,401.73198079206594,401.79648727845847,401.8589266855131,401.91934697298115,401.97779651431784,402.0343239213887,402.08897788802426,402.1418070512508,402.1928598682015,402.24218450677546,402.2898287484359,402.3358921554029,402.3805206227242,402.42388943234874,402.4661891972742,402.5076175375364,402.5483757752802,402.58866930543206,402.62871058932984,402.6687242087922,402.7089538989524,402.7496719400125,402.7911918041151,402.83388565626126,402.87820942274607,402.92474008665346,402.9742335034363,403.0277182307958,403.08665606465183,403.15323435566427,403.23093887066074,403.32577122329184,403.44898652609663
R0,0.0,24.423060155457048,64.39495061205314,104.99990377408659,141.90256505047972,174.58488591416696,203.67732244494127,229.98666265466306,254.19619196345673,276.81275566860495,298.19146915865133,318.57548780719907,338.1308298439953,356.97209113062576,375.18002832084886,392.81311669292126,409.91500269648253,426.51928178237324,442.6525758486735,458.336542339139,473.58921348924605,488.42591291409417,502.85990170898276,516.902847688069,530.5651757208303,543.856335513386,556.7850100855682,569.3592802181789,581.5867552343386,593.4746774043552,605.0300052928905,616.2594800656977,627.1696778828118,637.7670508721714,648.0579427211728,658.0486119143487,667.7452604967965,677.1540537186097,686.2811309239011,695.132610494266,703.7145910993127,712.0331506494481,720.0943437538164,727.9041981557558,735.4687104503952,742.7938413053511,749.8855103602826,756.751791169492,763.404036923327,769.856331490473,776.1246933841774,782.2264677232545,788.1799832124308,794.0044446156985,799.7200170700784,805.348074408208,810.9116075652115,816.4358160472766,821.9489375941527,827.4834155040234,833.0775724797163,838.778078559427,844.643717625294,850.751377735234,857.2060591107064,864.1586148398021,871.8395145094646,880.6284989986758,891.2079180437826,904.2352353706792
G0,31979.0,31981.324577608957,31986.97305249033,31994.211977900577,32002.176942278704,32010.43341471702,32018.760866296176,32027.0462411834,32035.230836960975,32043.283639490437,32051.187872160037,32058.934183592883,32066.51718470395,32073.933681591556,32081.18176954704,32088.260365246268,32095.168962097905,32101.907499097808,32108.476287148802,32114.875964185536,32121.10746448185,32127.171994739667,32133.07101328188,32138.806210590676,32144.37949041629,32149.792951177325,32155.048867615576,32160.14967277688,32165.097940429496,32169.896368036523,32174.547760387162,32179.055013972804,32183.42110217316,32187.64894265764,32191.741581504626,32195.70212985818,32199.533733602002,32203.23955636341,32206.822768007958,32210.286535566025,32213.634015429503,32216.868346390256,32219.992643363945,32223.009991736664,32225.923442299874,32228.736006744708,32231.466979422315,32234.13255860677,32236.747130240197,32239.32412131554,32241.87662206341,32244.417897242456,32246.961866014375,32249.523611858745,32252.119981390988,32254.770341569998,32257.4975906934,32260.329567021956,32263.301085561256,32266.456990572762,32269.856905689914,32273.582940772303,32277.752810510297,32282.543458813543,32288.236531601826,32295.312922389203,32304.665645137477,32318.09482804705,32334.438417920373,32353.439388324878
H0,4358.899027228902,4349.091504417637,4333.434775001734,4317.834409811728,4302.290205936405,4286.801961195034,4271.369474134732,4255.992544027847,4240.670970869346,4225.404555374216,4210.193098974869,4195.036403818559,4179.934272764812,4164.886509382858,4149.89291794908,4134.953303444463,4120.067471552063,4105.235228654476,4090.4563818313195,4075.730738856727,4061.0581081968426,4046.438299007334,4031.871121130908,4017.3563850948367,4002.8939021084952,3988.4834840609046,3974.1249435182854,3959.8180937216193,3945.5627485842215,3931.3587226893183,3917.2058312876366,3903.1038902950013,3889.0527162899393,3875.0521265112957,3861.101938855855,3847.2019718759743,3833.3520447772207,3819.5519774160225,3805.8015902973248,3792.1007045722545,3778.4491420357945,3764.8467251244656,3751.2932769140175,3737.788621117127,3555.0447374410555,3375.733537342338,3199.9425907857726,3027.7650861603483,2859.3000799849524,2694.652718528497,2533.9344164690674,2377.262973579065,2224.762605433365,2076.5638582228876,1932.8033708979945,1793.6234401418474,1659.1713353176183,1529.5983020195708,1405.0581850078365,1285.7055954140249,1171.693545065479,1063.1704751875538,960.2766209147114,863.1396808196118,771.8698059600148,686.5539887908932,684.0823944312459,681.6196978112935,679.1658668991728,676.7208697783358
S1,20247.50462334286,18951.12564463931,17845.39775508654,16819.225455789616,15866.244177003193,14980.899461579324,14158.199229440743,13393.586384530712,12682.867037113603,12022.165361791045,11407.89174511878,10836.717956248121,10305.556344706334,9811.541599903678,9352.01433031609,8924.506065717815,8526.725453041703,8156.54549907652,7811.9917554347,7491.231363969929,7192.562894056959,6914.406911636859,6655.297225978092,6413.872764825478,6188.870032556222,5979.116109412191,5783.522152974785,5601.077365871936,5430.843396302238,5271.949140358617,5123.585917354183,4984.979279352327,4855.466584980011,4734.3946405091,4621.160128661003,4515.204269789363,4416.008870581218,4323.093087551699,4236.010608423853,4154.347115812632,4077.7179674472623,4005.766057746024,3938.159839238919,3874.5914886984615,3825.5166363745407,3779.467019430997,3736.2220775786373,3695.575149110932,3657.332591547648,3621.3128906950005,3587.3457839973694,3555.271407707427,3524.93946734691,3496.2084232875777,3468.9446752947383,3443.0217188011475,3418.31922762144,3394.7219858712397,3372.1185323336927,3350.399264345409,3329.4535098582764,3309.164558111076,3289.400436323997,3269.9952154258535,3250.707558883376,3231.12071395343,3206.1493347209084,3182.0362973090137,3158.2056753615807,3134.65461706257
E1,0.0,10.22775791692405,15.073974025840386,17.26606858701421,18.083791180524184,18.163387372728458,17.833126569302554,17.269996884350117,16.57438297656936,15.806354273596718,15.003710457616437,14.191231473950978,13.385613558213816,12.598240719749157,11.836835916956153,11.106507846780367,10.410454229101262,9.750457781575845,9.127249063985001,8.5407787768321,7.990425466299449,7.4751554465590795,6.99364645501165,6.544383302433933,6.125731658757261,5.7359946556679375,5.3734559373222055,5.036412009091892,4.723196138206352,4.432195597549483,4.161863680527619,3.910727627195644,3.6773047970857133,3.4603438129918658,3.258634097380936,3.0710307838894346,2.896462448981045,2.7339318755895796,2.5825139618771065,2.4413524510827247,2.3096561843405525,2.186695186953488,2.0717967383446427,1.9643415071202017,1.8637598003029836,1.779315068064467,1.708478755535852,1.6495864075891224,1.6015517434934763,1.5637099981045042,1.5357377110128794,1.5176215968842295,1.5096638989117128,1.5125211657795363,1.527281062229569,1.5555902095770309,1.5998580294673856,1.663581636474563,1.7518735885261165,1.8723459065677923,2.036651259974683,2.2633044704299192,2.5831588080656833,3.050789392267612,3.7700425136754214,4.9555749027832885,7.079277301597461,8.588115953167879,9.956977643493452,11.174112303532452
I1,0.0,0.0,1.0825179412024228,2.2449579253538055,3.1744357854099583,3.818671223616313,4.213637041248245,4.415661339507797,4.47727360951799,4.440616376433077,4.337332974298931,4.1904101664149165,4.016262749352183,3.826506750290719,3.629316682492277,3.430414660924728,3.2337746650690473,3.0421195330512067,2.8572716526827726,2.680401779958134,2.5122071505571504,2.353040330483906,2.2030034528156444,2.062017847568222,1.9298759433396169,1.8062802178697108,1.6908725592620337,1.5832564392551758,1.4830136410149657,1.3897168254818628,1.302938896283174,1.2222598903481492,1.1472719511875598,1.0775734404949293,1.0127909280493852,0.9525722267668283,0.8965848503927969,0.8445159064459196,0.7960721128088564,0.750979586343361,0.7089833699426622,0.6698467521567354,0.6333504447340731,0.5992916731857787,0.5674832220545244,0.5377524650903902,0.5109762810173679,0.487413171845143,0.4670420708888669,0.44973536490597726,0.43534612642528564,0.42375196353347827,0.4148780349471333,0.40871142567165564,0.4053138765961164,0.4048375519709726,0.40754803068541245,0.41385967609701996,0.42439124494473357,0.4400551104230507,0.4622043617087892,0.4928841845558209,0.5352813209447771,0.5945733625048246,0.6796431591119237,0.8068116343728817,1.0085908635674807,1.3544335636530431,1.7216364432574176,2.086840104170818
A1,0.0,0.0,0.9630336421823873,2.236490462219338,3.52343521663265,4.692415360086047,5.6918003438014635,6.508690637535342,7.148805864792892,7.626451279477641,7.959421086407534,8.166373004023356,8.265471526848586,8.273701491832526,8.206546592756938,8.077872069505926,7.899923733308744,7.6833933600792506,7.437520877667363,7.170215237669143,6.888182615574088,6.597054747012012,6.301512880324012,6.005404594679709,5.711851927619093,5.423350069838712,5.14185643825099,4.868870308891042,4.605503432083288,4.352542200509862,4.110502023038569,3.879674592717011,3.660168740410874,3.4519372064204026,3.25482206225566,3.0685753175993042,2.892878751139426,2.727361465215617,2.5716148529997866,2.42520510137655,2.2876834918375324,2.1585947880537786,2.0374839842954864,1.9239016614788769,1.8174081679028231,1.7175768134742109,1.6249177833226558,1.539625888428873,1.4617097045495924,1.391074225378009,1.3275762436941538,1.2710637902161412,1.221406666692559,1.1785228575842792,1.1424045918102843,1.1131476887689031,1.0909884960165683,1.0763544249128292,1.0699374220799593,1.0728060029642896,1.0865835515841888,1.1137447256939168,1.1581326287479852,1.2259132766200986,1.3274573189241192,1.4813423907705665,1.7235436097578876,2.129018867478195,2.615138787896796,3.1565063733619665
IH1,0.0,0.0,0.0,0.21650358824048457,0.5537786239349402,0.9029142261020477,1.200741819842442,1.4238825787677292,1.5722868465020325,1.6564364877440867,1.6898331962533062,1.685340415099149,1.6537813619250707,1.6036773984988462,1.5414760418856348,1.4719327722153948,1.3984936495365194,1.3236213517011288,1.2490523744770285,1.1759916537809971,1.105256525911829,1.0373820261396371,0.972697623011423,0.9113832048574261,0.8535101030528291,0.799071327472898,0.7480039904677682,0.7002060322383139,0.6555487505184401,0.6138862104593612,0.575062312252741,0.5389160848199541,0.5052856260636449,0.4740110045926981,0.4449344864680166,0.4179050429273179,0.39277913911964046,0.3694208073888746,0.347701661331446,0.32750090591837755,0.30870530011734726,0.2912090442123606,0.2749135891918897,0.25972738000170126,0.24556554939287156,0.23234957879900386,0.22000694023706274,0.2086779061418329,0.1984820683215548,0.18947309548897331,0.18165144047955706,0.17498793696997553,0.16944399017108425,0.16498595207265343,0.1615949541472686,0.1592742122662933,0.15805571575119332,0.15800806310828627,0.15924732846503692,0.1619534426727905,0.16639596632253623,0.17297598370681652,0.1822966554812031,0.19528725785498416,0.21343307584400312,0.23922955258368203,0.27714865922950077,0.3358572304624072,0.4334405297241086,0.5541111079527172
IN1,0.0,0.0,0.0,0.21650358824048457,0.6493976127103956,1.2360005011130095,1.9078351467070085,2.6087104399864685,3.2978788353303727,3.94812836300401,4.542698833462296,5.072404884225031,5.533341459183497,5.925176811822713,6.249927067212061,6.511093349343054,6.713060888242142,6.860683657471023,6.958999293650531,7.013035350609185,7.02767972269953,7.007596324751936,6.957172811553651,6.880491031859646,6.781313605191653,6.663081877013064,6.528921816053424,6.381655345397075,6.2238152657324814,6.057662414580648,5.8852040629632585,5.7082128172169035,5.528245493535138,5.346661583799027,5.164639170749185,4.983194057807205,4.803196083559262,4.62538391475733,4.450378718014004,4.2786968182922465,4.1107613739290825,3.946913089003797,3.7874199931409342,3.632486329669863,3.482260601041199,3.3368428251010274,3.1962910578789163,3.060834414544312,2.9307366754067137,2.8062377947405324,2.687534362996354,2.5747789681594297,2.468088374549991,2.3675556965245703,2.2732645421652395,2.18530465127063,2.1037895241203883,2.028877337754224,1.960797381041415,1.8998856460221427,1.8466356175621517,1.8017747065802265,1.766385276400994,1.742106562438316,1.7314914373507095,1.7386795315721844,1.770766868815401,1.8408242814814884,1.9748412976519205,2.1723344034412624
D1,0.0,0.0,0.0,0.0,0.003464798517325899,0.012327152119545636,0.026776870469690957,0.04599284980237596,0.0687798451027988,0.09394181668416673,0.12045047057495264,0.1474935861209319,0.17446480178937057,0.20093096457838858,0.2265952924435507,0.25126418568372305,0.2748201485581603,0.297200834082973,0.3183833065498077,0.33837242012673063,0.35719231208104846,0.3748801998586423,0.39148186330117474,0.407048354874852,0.4216336058749334,0.43529268914285285,0.44808056565412085,0.4600511899665818,0.4712568833319368,0.48174790732507367,0.4915721880637551,0.5007751535344711,0.5093996556354395,0.5174859552771193,0.5250717539202562,0.5321922287426373,0.5388801399448722,0.545165950678626,0.5510779481476406,0.5566423649337253,0.5618835004847373,0.5668238420043853,0.5714841835387627,0.5758837420124393,0.5800402691557182,0.5839701585324136,0.5876885471405039,0.5912094112819706,0.5945489720979132,0.5977253646077336,0.6007575827139487,0.6036646275659934,0.6064650335522906,0.609176717412525,0.611817057403038,0.6144031298191446,0.6169520624211092,0.6194814949078417,0.6220101647891696,0.6245586671582892,0.627150476617933,0.6298133816630122,0.6325815895100556,0.6354989600107384,0.6386242246170553,0.6420398844254793,0.6458683761647099,0.6503037034097744,0.6556785687577185,0.6626151009276561
R1,0.0,0.0,0.0,0.14589082449877505,0.6090480687504598,1.467989879023604,2.7222045945374083,4.326683284867056,6.218595506090708,8.332922779307683,10.610031396372989,12.998487993009913,15.455434444584785,17.945885638303064,20.441665522485625,22.92031734499449,25.364122867308776,27.75926806145806,30.095150849131308,32.36381172481162,34.55946559549858,36.67811538733598,38.71723147388802,40.6754843620564,42.55252087130492,44.34877620679726,46.06531594957975,47.703703190984335,49.26588693586979,50.75410857783536,52.170823773100565,53.518637453171095,54.80025005041406,56.01841328607968,57.175892837819724,58.27543918489512,59.3197652513603,60.31152866082614,61.25331778712869,62.14764109594158,62.99691932671102,63.80348008445944,64.56955444238004,65.29727519860145,65.98867647682702,66.64569440543771,67.27016865045114,67.86398421891269,68.429142801408,68.96772679625012,69.48184888468295,69.97361489674981,70.44510440265861,70.89836663308833,71.33542849338798,71.7583124938599,72.16906394087658,72.56978837898453,72.96270216173933,73.35020155152431,73.73495962828282,74.12006687187356,74.50924327707432,74.9071730903435,75.32006117237817,75.75661589723627,76.22991549398274,76.7612516853523,77.38857689518282,78.14830096131506
G1,0.0,0.0,1.0825179412024228,2.6779651018347748,4.50542613203245,6.419435884402788,8.341870191481245,10.229349306240096,12.057226112053407,13.81147832277569,15.484441471214774,17.07245185305033,18.574468502553565,19.991217603232975,21.32463023555082,22.57745488698018,23.75298075549439,24.85483548950417,25.886835422356217,26.852874210704687,27.756840293286956,28.60255633343657,29.39373558796187,30.133951363840705,30.82661659863939,31.47497125050533,32.08207567904554,32.650808582743494,33.18386836020535,33.683777001078234,34.15288580207229,34.59338235465054,35.007298371629204,35.3965086414116,35.76275550516403,36.10765317510123,36.43269468943393,36.73925968564417,37.02862225458548,37.301958573243525,37.56035419138017,37.80481092157131,38.03625331501134,38.25553472135668,38.46344293949974,38.66070547135742,38.84903027332055,39.029857676555274,39.20445184433706,39.373961966709714,39.53946687419141,39.70201116186972,39.862638018696764,40.02242262340014,40.18250964459326,40.34415887060656,40.508804370109395,40.67813522779517,40.85421066708169,41.0396310305379,41.23780232599286,41.45336389352341,41.692914703734694,41.96631927367265,42.28921841528168,42.68824415418741,43.21274803713116,43.962027082643715,44.87100338770931,45.92486162592567
H1,1245.399722065401,1166.2501218719945,1098.603271154184,1035.7319741188915,977.2953227000071,922.976758677092,872.4823344033161,825.5390977671073,781.8935925136713,741.3104656863958,703.5711745367147,668.4727857975446,635.8268607228954,605.4584197674991,577.2049812178847,550.9156684926525,526.450381207006,503.67902544695016,482.48079902389554,462.74352778249573,444.3630493150588,427.242640696349,411.2924870944647,396.4291883380742,382.57530072883884,369.65891158151237,357.6132441540236,346.3762907968306,335.8904723058834,326.1023216075092,316.9621900372258,308.4239745986309,300.4448647037907,292.98510700359225,286.0077870159192,279.47862635180604,273.3657944254305,267.6397336133835,262.27299690255376,257.2400971345846,252.51736701857436,248.08282914286218,243.91607527167724,239.9981542634479,225.5700376315313,211.80829631333597,198.67210135696712,186.1249633738188,174.13439912916314,162.67162540344341,151.71127697196337,141.23114551956792,131.21193621608435,121.63703852536595,112.49230760622869,103.76585239301,95.44782613092153,87.53021481365327,80.0066186731199,72.87202167420182,66.12254397298992,59.755172644384224,53.76746684982047,48.1572352014369,42.92218558909832,38.0595513267463,37.812606305911636,37.57440247544186,37.34434749645953,37.1218912246923
S2,20247.50462334286,21448.445578125313,22543.569022560467,23547.21775668017,24465.8940442014,25305.70134586959,26072.34214818353,26771.12974837919,27407.006796383474,27984.566732613766,28508.076027805502,28981.496113434037,29408.504440621055,29792.514409093605,30136.694072423372,30443.983612712917,30717.11162201472,30958.610248652396,31170.829275093936,31355.949196020796,31515.993363937447,31652.839266779483,31768.228998404036,31863.77897905236,31940.988979098493,32001.250495756405,32045.854528963202,32075.998799408095,32092.794448638033,32097.272258336256,32090.388423229848,32072.926372685353,32045.853752790248,32009.909342566916,31965.790119110792,31914.147695799267,31855.588663671493,31790.67652931978,31719.934234998927,31643.846818963186,31562.864027737673,31477.402804351917,31387.849626048806,31294.562686521243,31285.448957661905,31271.53932310784,31253.04363681289,31230.150076068432,31203.02650842305,31171.821568572086,31136.66553066672,31097.671017497003,31054.933559010056,31008.5319880556,30958.528632553378,30904.969220555624,30847.882342476743,30787.27818461459,30723.146002824364,30655.449322722332,30584.116856511515,30509.024949073555,30429.96228168494,30346.554772099804,30258.09390116928,30163.1130609417,30018.763211095582,29874.313011205188,29727.553169907867,29578.67474754484
E2,0.0,3.5797152709234172,5.593752349318656,6.777200743379236,7.514546238181122,8.006571341383012,8.357709232247913,8.621996762328116,8.827310827100215,8.9881100544451,9.112089004931269,9.203619052899747,9.265502110644327,9.299844781090368,9.308478361992218,9.293147635044427,9.255584524091022,9.197526562417112,9.120710740113076,9.026858019855483,8.917655911442328,8.794742454841536,8.65969292763768,8.514009597230581,8.359114375667234,8.19634404272849,8.026947644652036,7.852085681494214,7.672830729813019,7.490169191111386,7.305003901547428,7.118157380757546,6.930177963928235,6.741868878210378,6.553880419156676,6.366767216291747,6.181013123917252,5.997043137034721,5.815230178784124,5.635899873180123,5.4593345023390265,5.285776587990406,5.115432245255998,4.948474350512745,4.785045530498737,4.653268065280124,4.54802932576151,4.466389095582695,4.406846928362346,4.368949194142633,4.353101440756877,4.360516448332206,4.393267212196144,4.454440441263537,4.548408746613402,4.681265836972251,4.861507570319583,5.101107110010793,5.417252752491136,5.835251729920162,6.393587211064716,7.153173798369226,8.21532539685009,9.759124709146304,12.125368869089257,16.019037485542043,22.99231991588409,27.978092908391663,32.524506782671224,36.59004210936911
I2,0.0,0.0,0.3788812794208479,0.8193781029971374,1.2089337686912078,1.520708683508307,1.7598501486853544,1.9404998756286882,2.0768622151792755,2.1804103012842297,2.2595583325118938,2.3201692293542564,2.3662234155140967,2.4004057029095334,2.424549944025602,2.4399502770640127,2.4475678546948387,2.4481626773791314,2.442374647962378,2.4307715532283583,2.413876213963477,2.3921809306636534,2.3661544557054524,2.336244769749266,2.3028796629418595,2.2664663062166612,2.2273904884798026,2.1860158835995223,2.1426835245892257,2.097711554022823,2.0513952593412275,2.0040073702510584,1.9557985810231293,1.906977344661736,1.8577537474769121,1.8083226693017047,1.758859740677909,1.7095215516396325,1.660447038178737,1.611759032514594,1.563565698407964,1.5159618111868824,1.4690299048336,1.4228413152046544,1.377457141253267,1.3329291381332746,1.2922648541734132,1.256727691687302,1.2267644961014184,1.202484565659859,1.183905466580193,1.1710806622531753,1.1641705927899744,1.1634909305237264,1.1695577797604875,1.1831436053892823,1.2053568516505357,1.2377617967010006,1.282564261142769,1.3429069668722329,1.423354094278483,1.5307172554915276,1.6755306910395715,1.8748381282444906,2.1578201276181836,2.578055395404136,3.2423070272702184,4.378918429918853,5.588585355826721,6.795583309267638
A2,0.0,0.0,0.33706177476383553,0.8127011207083669,1.3277175456140158,1.8341412570006392,2.310174893489047,2.747156500584831,3.1428243773108697,3.4978843054389848,3.814296554607649,4.0944489422239565,4.340779156569121,4.555619423117007,4.741147011677386,4.899381788356819,5.032201914535586,5.141364103162859,5.22852254526611,5.295244389941795,5.343021421292623,5.373278325653956,5.387378198273416,5.386625964167532,5.372270315828849,5.345504665775686,5.3074675050107505,5.2592424622433525,5.201858277622943,5.1362888390828765,5.063453377809789,4.984216879828384,4.899390741140239,4.809715069239203,4.71589348299818,4.618584240503622,4.518398103000925,4.415898866121545,4.311604932623306,4.205991285972103,4.099491614339175,3.992500485439975,3.8853755291356746,3.7784396051782956,3.6719829408444533,3.5662652261877557,3.4641547713610077,3.367603964520898,3.277992577492374,3.1963500789727934,3.1235072692666375,3.0602072759064844,3.007194843321601,2.965297084743181,2.9355064541588765,2.919076777727905,2.917645714805783,2.933402794256536,2.9693332302287905,3.0295884338739425,3.120073814549889,3.2494236957461085,3.430700026832326,3.6845255888286266,4.045261215692886,4.574151444861784,5.38954287407885,6.73800599172507,8.351643744407033,10.14891505317453
IH2,0.0,0.0,0.0,0.07577625588416959,0.20055108420189016,0.3388528320665777,0.46814541521602054,0.5785509017540242,0.6681167467630976,0.7387387949649001,0.7936292558833646,0.8360256682880034,0.8686675746062757,0.8936769892834102,0.9126179228547474,0.9266141218752095,0.9364683036956098,0.9427612114604016,0.9459259230718329,0.9463000274077724,0.944160473753733,0.9397458688285084,0.9332701576140905,0.924930639267479,0.9149124020767967,0.903390586206263,0.8905313931175262,0.876492421563542,0.8614226836064094,0.8454625072065629,0.8287434391593234,0.8113882051778011,0.7935107500528902,0.7752163615502743,0.7565976892100348,0.7377415923729459,0.7187290866465825,0.6996345094322369,0.6805251577993483,0.6614613905109827,0.6424969874577873,0.6236796106856414,0.6050512835367313,0.586648851969674,0.5685044164809838,0.5506457333981502,0.53309658772498,0.5164700009923981,0.501315354108177,0.4879879147461845,0.47668149096427725,0.46749339848128035,0.4604814304695841,0.4557056466605772,0.45325825023729194,0.4532870881043336,0.4560182106647892,0.4617827144332219,0.4710537046868255,0.4845013269752457,0.5030784739637459,0.5281591787087248,0.5617707912066348,0.6070013904267535,0.6687543421009495,0.7552389715410758,0.8811443069860951,1.0749324098908957,1.3960475075999164,1.793399565039864
IN2,0.0,0.0,0.0,0.07577625588416959,0.23401773027329958,0.4584047049807962,0.7284629533758038,1.0262700168879646,1.338064356971113,1.6539485086154437,1.9670555338416968,2.272711907678524,2.567764177033927,2.850089440350584,3.1182596012727677,3.371319516328004,3.608643886890183,3.8298461373184853,4.034720434889563,4.223204231605388,4.39535318741823,4.551323387986809,4.691357773726266,4.815774972325027,4.92495951687142,5.019352907526539,5.099445252043205,5.165767375269581,5.218883368727981,5.259383588986966,5.28787812670431,5.304990768323587,5.311353466212812,5.3076013244212294,5.294363916090962,5.272266021354353,5.241924942410333,5.203947209668437,5.158925574555623,5.107436503208197,5.050038166567697,4.987268866980748,4.919645837790155,4.847664361596671,4.771797162724129,4.6924940371007215,4.610181688280288,4.52585660305066,4.440693857481803,4.3558705270072995,4.272498028330396,4.191608654902641,4.114168639361889,4.041104460656187,3.9733368462702674,3.9118212862552135,3.8575967206649397,3.811846530718789,3.775978966038018,3.7517387336303236,3.7413693617357566,3.7478604029712916,3.775341451978863,3.829741906248525,3.9199590438224976,4.060064720902082,4.273800258707823,4.60449437346893,5.137922868873328,5.8736230625525
D2,0.0,0.0,0.0,0.0,0.0012126794810640644,0.004422183327342004,0.009844988555086587,0.017336917689913175,0.02659571253431228,0.03728786748840979,0.04911021695747454,0.061811001694754716,0.0751902741561107,0.08909192885386921,0.10339381979527038,0.11799883050982671,0.13282782831858506,0.14781452676795753,0.16290193328258804,0.17803998601600948,0.19318402569938878,0.20829382520047593,0.22333297591128756,0.2382684930758994,0.2530705494002666,0.2677122796365232,0.28216962137894674,0.2964211720141191,0.31044805104814,0.32423376269018045,0.33776405687712996,0.35102678874489607,0.3640117774608941,0.3767106656992337,0.3891167810986824,0.401224934007794,0.41303132482189997,0.4245334504633743,0.43572999750747343,0.44662072951292686,0.4572063759852851,0.4674885270924409,0.4774695357581713,0.48715242742357695,0.4965408171912223,0.5056388338814981,0.5144510505110467,0.5229824207379888,0.5312477086633515,0.5392704703632517,0.5470799474126921,0.554708482979018,0.5621899776141942,0.5695592567587732,0.576852107014598,0.5841057905500575,0.5913599355901035,0.5986577879399221,0.6060478920822966,0.6135863638039148,0.6213400435142097,0.6293910211670698,0.6378433759486885,0.6468336315849494,0.6565477316359347,0.667250090297967,0.6793364990733988,0.6934378241978786,0.7106404223177701,0.7329819611982986
R2,0.0,0.0,0.0,0.05106178857457126,0.21770086446278458,0.5365132594768245,1.0178787893157766,1.6560848225412503,2.437834978793626,3.3474907751803693,4.369732670059279,5.490633615608117,6.697899577548031,7.980741113042024,9.329625254148729,10.736024692039075,12.192208965047032,13.691087001911203,15.226095486010989,16.791122930306752,18.38045940034972,19.988763566432237,21.611040834503434,23.24262814267628,24.87918245358841,26.516671030479376,28.151362324356516,29.77981679862704,31.3988773440213,33.0056591435892,34.5975389739091,36.172144001784645,37.72734017437192,39.26122031747585,40.77208924181483,42.25845148498052,43.71900118822164,45.152611423237516,46.5583229373052,47.93533273200771,49.282982805604625,50.600749247444654,51.88823177537409,53.14514375410675,54.37130270708811,55.56662132298052,56.731098952687205,57.865213088900994,58.97011759515966,60.04753741792986,61.09961861095358,62.12881262713655,63.137808907768346,64.12951045442237,65.10704448457601,66.07380312331341,67.0335134053585,67.9903407287491,68.94903572062204,69.9151425001433,70.89529888324091,71.89768055941121,72.9326805361637,74.01399130720645,75.1604144334986,76.39907004517985,77.77150719917893,79.3463131192705,81.2468808311257,83.59211913545188
G2,0.0,0.0,0.3788812794208479,0.9709306147654766,1.688237521658402,2.4835859439519843,3.3310108825323548,4.215600668949831,5.1281629587518935,6.062455930928558,7.013768082669914,7.978202312517034,8.952324190418576,9.93299584401965,10.917302366299532,11.902522676948184,12.886120365404615,13.865742329966842,14.839219371501741,15.804566135952673,16.759979417979135,17.703834620264704,18.634680517571965,19.55123261389796,20.452365414990258,21.337103923441802,22.204614628191607,23.054196218703247,23.88527021313276,24.697371652402047,25.49013997932958,26.2633101939759,27.016704352848397,27.750202548896254,28.463769889576124,29.15744031039168,29.83130644948857,30.485512156721455,31.120246263916414,31.735737073523765,32.332247352422975,32.91006974456508,33.46952256268655,34.01094593499104,34.534698287121515,35.04115314050283,35.53366051179628,36.015029290979534,36.48775717206857,36.954183040067576,37.41659776725185,37.87733514955691,38.338857344994985,38.803845919844726,39.275309141290975,39.756718078823965,40.25218876724093,40.76673645295161,41.30664363607378,41.880012046260354,42.4976219604155,43.17432675933994,43.931427097084594,44.80094681070534,45.83386406137683,47.11722738021005,48.81270117023779,51.246235383794506,54.20746968166991,57.64990177744152
H2,1245.399722065401,1319.5306579026274,1387.1255397279767,1449.0838026707997,1505.8136603141634,1557.6941159794715,1605.0770497423655,1648.2891563694789,1687.6337448246356,1723.3924092324617,1755.8265804811033,1785.178966989903,1811.6748925588954,1835.5235386514962,1856.919097936657,1876.0418454291648,1893.0591331140072,1908.1263135202933,1921.3875973198337,1932.976849662971,1943.0183296276377,1951.627376845051,1958.9110490752062,1964.9687142358202,1969.8926001381133,1973.7683049504337,1976.6752711949414,1978.6872258821938,1979.8725892024174,1980.2948540194757,1980.0129382531136,1979.0815120860927,1977.551301794494,1975.4693718710207,1972.8793869918604,1969.8218552669039,1966.334354110284,1962.4517399726924,1958.2063430882592,1953.6281483064386,1948.7449630028798,1943.5825729922674,1938.164887300183,1932.5140725898245,1839.0756471651832,1747.115008603617,1656.7238269163622,1567.99181465359,1481.0072604569398,1395.8575127858096,1312.6294089593193,1231.4096423197605,1152.2850575761006,1075.3428611920954,1000.6707300354088,928.3567974446015,858.4894915239457,791.1571960895815,726.4477006902198,664.4474031785127,605.240227388541,548.9062209086471,495.51980541150175,445.1476664628126,397.84629313737344,353.65921162591667,352.16752229656623,350.6759522434579,349.18512441737687,347.6956120431076
S3,60742.51387002856,60471.239844532894,60218.25744045362,59981.30225782477,59758.7363323157,59549.22256515008,59351.610600472275,59164.87866065301,58988.1022856547,58820.43638627122,58661.10404936617,58509.38886602171,58364.629171917135,58226.21338625254,58093.57603166778,57966.19421595519,57843.58445641805,57725.29977866605,57610.9270479206,57500.08450474241,57392.41948461805,57287.60630513339,57185.34430707734,57085.35603754991,56987.38556439759,56891.196912274034,56796.572611432755,56703.312351059634,56611.231729576306,56520.161094909905,56429.94446823994,56340.27762747621,56251.25504093697,56162.717821829465,56074.538503183576,55986.6084078363,55898.831690317566,55811.12236138829,55723.402660417305,55635.60204862317,55547.65649859245,55459.50793425975,55371.10375513549,55282.396414096416,55347.93578206836,55417.79273345695,55492.10320032757,55571.01900085866,55654.70876376189,55743.358594163445,55837.17252726418,55936.37275454187,56041.199559072076,56151.910848940606,56268.7811200455,56392.099599229005,56522.16719576904,56659.29168696854,56803.780207243166,56955.92743827454,57115.99653992159,57284.18691230371,57460.57597016974,57645.004577396765,57836.82760998139,58034.31165970322,57888.6810078022,57742.06547266023,57591.29081195458,57436.5122999838
E3,0.0,6.136654750154427,9.30751887189578,10.960084199584855,11.814299452366281,12.235834749662448,12.414095543314083,12.44942581393803,12.396521111685871,12.286298320854723,12.137033390012279,11.96010265840654,11.762987350433766,11.55087695133125,11.327546954823717,11.09585515291267,10.858033417032726,10.61586700670129,10.370810012489542,10.124063125121324,9.8766282150061,9.629347994452253,9.382935669635767,9.137997617339018,8.895051045418253,8.654537953453719,8.416836310199553,8.18226910503039,7.951111755581778,7.72359823166102,7.499926167892903,7.280261173337573,7.064542639690405,6.8530129634101105,6.645807124843016,6.443008374266818,6.244671019854925,6.050829996300345,5.86150519247378,5.676703728556321,5.496421433425995,5.3206439991642425,5.149347987571486,4.98250174960727,4.820066277839382,4.690304259308361,4.588104684340041,4.510549209734573,4.456183150919664,4.424628130685063,4.416402236463772,4.432878806582483,4.476354386653403,4.550223546260544,4.659282103423403,4.810208588411382,5.01231607174469,5.2787387356100925,5.628350897275899,6.088976767223774,6.702987170883222,7.537557351479064,8.704612597309962,10.4023885513903,13.009006578178509,17.308896058903663,25.036193242618573,30.5903269328746,35.67389442694509,40.24091169879159
I3,0.0,0.0,0.6495107647214533,1.3748252159199084,1.9849233468318461,2.4413933735793916,2.7598911818552767,2.969857199124554,3.099576206930664,3.171808115632208,3.203481150883257,3.2066865959927493,3.189883306087796,3.1589384158439713,3.1179214672948,3.0696737883618983,3.0162026478687514,2.958948631010138,2.8989650428724056,2.8370377691656223,2.7737654238358633,2.709613214394623,2.6449494590118183,2.5800706351708724,2.5152188089944993,2.4505939620448496,2.386362865015246,2.322665584979681,2.259620347758284,2.1973272393699865,2.1358710750660532,2.0753236618786475,2.0157456122849986,1.9571668789171166,1.899631088880821,1.8431787049183994,1.7878428159826436,1.7336490234862507,1.680616385805883,1.6287584430290316,1.578084072816543,1.528598160288463,1.4803021221498716,1.4331943276971744,1.3872704487365062,1.3425237597589912,1.301941581535237,1.2667753512454363,1.2374670503170577,1.2141279020785465,1.196784592637495,1.1855079686424195,1.1804858938280454,1.1820741555270062,1.1908455113807896,1.20765121100059,1.2337088676608654,1.2707347556763728,1.3211487769442285,1.388400552567056,1.4775048024070612,1.5959549364370476,1.755356907483054,1.9745205915472483,2.2857134081117927,2.7483166193215065,3.4809839118450845,4.738450520244225,6.080786535101828,7.424238913534385
A3,0.0,0.0,0.577820185309432,1.3666707079022866,2.191621167321765,2.9720310489846,3.6739072095759218,4.286240351667604,4.809137257166938,5.247838600092722,5.6097022375078165,5.902692219949963,6.134637299552977,6.312884667094596,6.444157116694711,6.534514496445555,6.589367728982441,6.613518181835869,6.611207957025217,6.58617343221129,6.541698013498754,6.480662035814069,6.405588838378017,6.318686652158301,6.221886276969653,6.11687471372529,6.0051250162270176,5.887922673136573,5.7663888455921715,5.641500782032526,5.514109716981211,5.384956539728946,5.254685495141778,5.123837524050389,4.992894443442183,4.862277789010322,4.732353076378348,4.603435562475989,4.4757960350893535,4.3496661328342165,4.225243073613928,4.10269380586801,3.982158639651369,3.8637544224104063,3.747577320231378,3.6337052580205644,3.5248655371029383,3.422891050843118,3.329062238197521,3.2443285918977853,3.169460137623081,3.105159031678999,3.0521503720065133,3.0112656508441136,2.9835300256051323,2.9702649202705578,2.9732204176712735,2.994758386784783,3.038119594081897,3.107831042922612,3.210353831790145,3.355159848632197,3.5566112184546075,3.83743308850289,4.2355735879406815,4.818835512469722,5.7186110987239145,7.209672083591601,8.997821599587933,10.99374548149505
IH3,0.0,0.0,0.0,0.12990215294429067,0.3378372665024891,0.5604968174211266,0.7595573277288618,0.9196015347520895,1.0390556185434179,1.1228148116298053,1.177800372847484,1.2107478142950878,1.2273353587799343,1.2320030188638813,1.2280731732507322,1.217967750930991,1.2034272233139127,1.1856954267163076,1.1656624909452775,1.1439698969756225,1.1210852966735088,1.0973547548240186,1.0730388071699797,1.0483372158051325,1.0234059604356505,0.998368947961103,0.9733261452339297,0.9483592900271582,0.9235359565742713,0.8989124957504925,0.8745361984015831,0.850446916194715,0.82667829861478,0.8032587543994514,0.7802080238125962,0.7575443864994627,0.7352847822978886,0.7134440278253447,0.6920344145594682,0.67106570321115,0.6505453259504981,0.6304786554560584,0.610869269110939,0.5917191816980489,0.5730290422251038,0.5547982991709726,0.5370253404994304,0.5203068501442623,0.5051819086421994,0.4919998255209248,0.48095191013161565,0.47213609280512325,0.46561394083562935,0.46145282534201637,0.45975651119519667,0.46068977178652953,0.4645026068285667,0.4715595380312644,0.4823802475902499,0.49770024039256666,0.5185654226533556,0.5464849535819738,0.58368794336592,0.6335744647161821,0.7015521170660426,0.7966916450076222,0.9352595121152346,1.1488593716617812,1.5037343368773528,1.943959879164077
IN3,0.0,0.0,0.0,0.12990215294429067,0.3952086597677623,0.7628086182279745,1.194370644233458,1.657544561093336,2.1282735907685755,2.589946590624138,3.0317394783574865,3.447018613254221,3.8320618383452723,4.185115518977178,4.505729834370373,4.79430231740488,5.051769209022791,5.2793985921733055,5.478652381838552,5.651094457135771,5.798329596164269,5.9219629807153,6.023573484969682,6.104696253663361,6.16681158533913,6.211338128020375,6.239629046162817,6.252970247340926,6.252580042234339,6.239609802368209,6.215145309239509,6.180208576939267,6.135759991768189,6.0827006554995595,6.021870661356882,5.954056365040509,5.879993747368561,5.800370685012228,5.715829029646358,5.62696672141101,5.534339950181469,5.438465327315138,5.339822029901038,5.238853890404363,5.135971415142234,5.031553722664608,4.925950398046982,4.8200824980308905,4.715052884018011,4.611970813307474,4.5118853119257585,4.4157727455219735,4.324551053949222,4.239107498779779,4.160334529028376,4.089172789515187,4.026663235786145,3.974012948502757,3.9326825138497266,3.9045079003082956,3.891878491924054,3.8980089602854777,3.9273736404395696,3.9864353804657893,4.084938475402172,4.238356192496509,4.472887576926549,4.8365144494131185,5.424598114238265,6.237423552309593
D3,0.0,0.0,0.0,0.0,0.0020788791103955383,0.007485431812769535,0.016455299507569538,0.02861081676401227,0.043327589174271375,0.059956035824076985,0.07792491627628118,0.09677375392702256,0.11614986342210187,0.13579143040915279,0.15550769593524258,0.17516107047941187,0.19465272367496544,0.21391167865549993,0.2328868641934113,0.2515414541849798,0.26984888841791244,0.28779009071057676,0.30535152310250335,0.32252381709693834,0.33930080107442595,0.3556787996247376,0.371656120272179,0.3872326703528877,0.4024096652871634,0.41718940191435216,0.43157507888069646,0.44557065164785037,0.45918071344055755,0.4724103959905043,0.4852652856664244,0.4977512847488459,0.509874588055193,0.5216416614982817,0.5330592081075256,0.5441341276180549,0.5548734759697858,0.5652844280427967,0.575374244698414,0.5851502440483396,0.5946197764476984,0.6037902026379602,0.6126688745343694,0.621263118254072,0.6295898088996419,0.6376744487075472,0.6455481300624077,0.6532450069533261,0.6608008005899202,0.6682522174692636,0.6756370422569475,0.6829947202116918,0.6903673335305075,0.6978009652615713,0.7053475320482002,0.7130672672277462,0.7210321747334336,0.7293309965781325,0.7380766264880098,0.7474176315826175,0.7575569917835479,0.7687842271138801,0.7815340205599001,0.7965013742062165,0.8148870567711088,0.838951953538905
R3,0.0,0.0,0.0,0.08753449469926497,0.36918224479275474,0.8994961647744072,1.6866967418316716,2.7118430499939814,3.9442124135993164,5.3505227447174075,6.899498406818978,8.563634243274715,10.319506106186985,12.14743819127304,14.030957345182209,15.956236600070076,17.911607521412485,19.887161227290772,21.874432402147285,23.86615213184677,25.856054547954013,27.838724333086954,29.809474895803994,31.764249568468543,33.69954023301759,35.612319323538244,37.499982272694155,39.360298261808026,41.1913676912051,42.99158517833212,44.75960716753084,46.49432343328905,48.19483190309568,49.86041633342705,51.490523631807186,53.08474602971716,54.64280722470543,56.164549478460955,57.64992136481053,59.098966348410414,60.511812323692915,61.888662131939874,63.229785003231555,64.53550883999915,65.80621325339602,67.04232326949372,68.24430363188954,69.41305743195872,70.55013225234899,71.65762119109507,72.738018316364,73.79410800043527,74.82890254614428,75.84562313672211,76.84771657446996,77.83890320183653,78.823255870826,79.80531495239555,80.79025062926002,81.78409246981123,82.7940601031662,83.82905256533607,84.90039739491556,86.02304509379398,87.21756938058253,88.51372108011323,89.95720836813251,91.62372533770997,93.64996088082535,96.16824762874884
G3,0.0,0.0,0.6495107647214533,1.6346295218084896,2.794657739088391,4.045097104568675,5.340152262276316,6.654074752287704,7.971736639743636,9.283799031217445,10.584195312721377,11.868793218184173,13.134664566676319,14.379672998867612,15.602231416656029,16.80115232464105,17.97555069949266,19.12477774178155,20.248373606047874,21.346032349490052,22.417575111826544,23.46292907191965,24.482110602294693,25.475211562058472,26.442387989950447,27.383850666598597,28.299857154386935,29.190705020357466,30.056726017127943,30.89828104784296,31.715755779287022,32.509556796126034,33.280108211283846,34.02782772282996,34.753158684360514,35.45655873595042,36.13849432898203,36.79943766287869,37.43986463459282,38.06025324613832,38.66108225313745,39.242829969735986,39.80597319571278,40.35098625012003,40.878340102238234,41.38850159275532,41.88492891843516,42.37053932075945,42.84794116032924,43.319588832217555,43.78789668360792,44.25533389666784,44.72451500931044,45.198297628540615,45.6798986466052,46.17304255077732,46.68216069183783,47.212670126917686,47.77137805045609,48.36708933685661,49.01155380772344,49.72100586271625,50.518789808337075,51.440096255394494,52.54109730857794,53.91798588303237,55.749979823284555,58.39983999642173,61.637556219377025,65.41332321185031
H3,3736.199166196202,3719.8903603120125,3704.5999722844435,3690.2417051312154,3676.7406885726314,3664.0275359335046,3652.037950705243,3640.7123612320133,3629.9955815118597,3619.836496247173,3610.1877684121664,3601.005567728745,3592.2493185570756,3583.881465813849,3575.867257630299,3568.1745435540543,3560.7735871843083,3553.6368922091297,3546.7390408873903,3540.056544086184,3533.5677020481207,3527.2524751218584,3521.0923637439982,3515.070297011313,3509.1705292295023,3503.37854386852,3497.680964395216,3492.0654714918624,3486.520726204218,3481.036298595402,3475.6026015121006,3470.2108290977512,3464.8528997134376,3459.5214029514746,3454.209550449153,3448.9111302310275,3443.6204643275178,3438.332369435625,3433.0421204042887,3427.7454163424463,3422.4383491622884,3417.1173743835893,3411.7792840374436,3406.4211815192766,3401.040458251733,3394.592212137316,3387.1029319005006,3378.5999768360484,3369.111546251148,3358.6666555140187,3347.295118060757,3335.027532659766,3321.895275153313,3307.930493783894,3293.166107064172,3277.6358029581065,3261.3740379030346,3244.416033914842,3226.797771680904,3208.555977163209,3189.728098819926,3170.3522721320046,3150.4672677321983,3130.112419136948,3109.3275259591737,3088.15272863734,3066.6283512751943,3045.265585518098,3024.063086022631,3003.019526072649
S4,30371.25693501428,30868.188429683032,31365.34346020933,31861.64196337158,32356.606352996976,32850.049753469284,33341.92648152213,33832.25839315667,34321.09812416113,34808.510686821974,35294.56431047551,35779.325965820455,36262.859267925654,36745.22358575859,37226.47375992562,37706.660122531575,38185.8286624148,38664.02125556238,39141.27591983919,39617.627073411124,40093.10578668169,40567.740022946586,41041.55486574593,41514.57273231738,41986.81357327425,42458.295058988784,42929.032753325606,43399.04027543579,43868.32945033543,44336.910448979084,44804.791918512215,45271.80928313636,45738.207424193424,46203.95146411138,46669.02729571599,47133.42960585044,47597.15654393944,48060.20736842228,48522.581428207755,48984.2777416424,49445.29484152597,49905.63073716588,50365.28292656115,50824.248428778345,51426.41755206708,52028.583099508534,52630.70110099996,53232.71786376043,53834.570239831955,54436.18527734476,55037.47943087136,55638.35739337864,56238.710532117744,56838.414836685195,57437.32819589946,58035.28668149067,58632.099282669755,59227.54011611873,59821.336348309844,60413.148520405004,61002.536773713335,61588.89949580949,62171.35461255384,62748.49277555537,63317.820621503575,63874.3974554297,64306.37832721752,64737.10914675023,65159.43696762097,65573.69357356735
E4,0.0,9.204982125231641,14.099302252732052,16.77046673452961,18.270783976661555,19.139492851755804,19.656509040275925,19.969066023459764,20.155869149250076,20.259909360416266,20.305373764281327,20.306423444973056,20.271786324096656,20.2071836000599,20.116627220173864,20.00312428750132,19.86906676894174,19.716452068783894,19.547011230381294,19.3622856857516,19.163674669925697,18.952465464348418,18.72985330429617,18.49695488861482,18.254817825672088,18.00442744000933,17.746711834574363,17.482545785600095,17.212753850419084,16.93811294291462,16.65935454893105,16.377166698683343,16.091716003227543,15.803916222751448,15.51444312372288,15.22386032258007,14.932669769465583,14.641331784333005,14.350273073555854,14.059890171091942,13.770551239181088,13.482597341653042,13.19634358426751,12.912080243585859,12.630073908774637,12.429487448038614,12.297816413118902,12.228497779720389,12.21901622587156,12.269912407361586,12.384353693819156,12.568095380284374,12.829765067768356,13.181479043746975,13.639871198889429,14.227704901637306,14.976376573496223,15.929858701102367,17.15107285557213,18.73255024438303,20.815028936901328,23.621563231855298,27.523904617942122,33.18096145500727,41.850945049589605,56.14797541636043,81.86353359186194,100.68753165834946,118.22592024731684,134.29936926018433
I4,0.0,0.0,0.9742661470821802,2.076846440731262,3.021113810993908,3.74646957669553,4.273628206368842,4.644644986356923,4.9003364534885545,5.073522796563509,5.1884463408665775,5.262212473488233,5.306583252501648,5.329539686250623,5.33647591811768,5.33105306335984,5.315786066460369,5.2924370627024295,5.262274740877804,5.226243529928415,5.185073234199217,5.139349832980461,5.089561161230205,5.036126425032339,4.979415340757966,4.919760618332956,4.857466171622515,4.792812580454615,4.726060780072585,4.657454603741424,4.587222580900365,4.515579250536039,4.4427261579685435,4.368801864700291,4.29398622108697,4.218458661260666,4.142386499528116,4.065923251467503,3.989209747231656,3.912375648017294,3.8355407201634666,3.7588157901985806,3.6823034526370257,3.6060986153520833,3.5302889462807805,3.454955262296632,3.388524744709515,3.334730216777537,3.2951167342361494,3.270345105887343,3.260869040657667,3.2672960020341546,3.290599615312983,3.33227721112195,3.394509589971217,3.4803657827418615,3.594096509682455,3.741575237163857,3.93098014477215,4.173877833436647,4.487001875670668,4.8952882979642505,5.437307045837221,6.175546701905843,7.217240052416328,8.759897335355385,11.198706234017235,15.383756530806053,19.88714082966018,24.445455108836256
A4,0.0,0.0,0.8667302779641483,2.0630022339797076,3.32956358780934,4.545520538547723,5.65906769219086,6.6526042308993025,7.525059031634726,8.282934039628277,8.935794191183883,9.494032851427614,9.967802276348971,10.366538558453286,10.69878700949019,10.97217616455336,11.19346205044176,11.368602442221771,11.502840639542582,11.600788622921687,11.666504839262538,11.703564668054078,11.715123060265935,11.703969562480573,11.672576277431652,11.62313944837745,11.557615384726823,11.47775142191396,11.385112557871317,11.281104346947691,11.166992568107684,11.043920122178537,10.912921555037753,10.77489037618694,10.63067077516053,10.481042683843116,10.32672095100335,10.16835939536738,10.006556131264787,9.841858842322134,9.674769580255967,9.505749006243962,9.335220109660149,9.163571470828707,8.991160135793503,8.81831416309711,8.652765795856373,8.499898508665131,8.36366226211482,8.247171793992514,8.153120895195235,8.084093507631529,8.04282404135204,8.032445032944661,8.056755323600251,8.12054449223183,8.230019912143849,8.393404846207627,8.621817205439008,8.930615259653813,9.34154327022931,9.886303171904213,10.6127968751977,11.59667326995978,12.964163163608012,14.94084624114382,17.964271382532644,22.951021832947067,28.954770507045552,35.700399963209435
IH4,0.0,0.0,0.0,0.19485322941643604,0.5096776231240135,0.8509050889747015,1.1611292357268668,1.4167084487609936,1.61461132007258,1.7615339653241757,1.8672813206731844,1.9414474086730318,1.9920967827337799,2.0254850723264983,2.0462361836205147,2.0576669009743043,2.0621147603779617,2.0612141106128954,2.0561083982780306,2.0476047855999955,2.0362828222831797,2.0225689693854685,2.0067868285423396,1.9891905888939285,1.9699871183815247,1.9493504836961464,1.927431474540361,1.9043638554172202,1.8802684838806394,1.8552560416458261,1.829428864959186,1.8028821901219714,1.7757050189943442,1.7479807372537681,1.7197774155998449,1.6911639701029113,1.6622096427452941,1.6329814092846027,1.603542388887277,1.573951297056992,1.5442624841476151,1.5145262088230438,1.4847889614202894,1.455093762015494,1.4254804137615023,1.395985714843401,1.3666436388388656,1.3391560651119616,1.3150932624409426,1.2955242470002122,1.2810985809328783,1.2722213920078167,1.2692102534567435,1.2724135947594286,1.2822995207865662,1.2995307528887876,1.3250418522399006,1.3601352874854218,1.4066161425257775,1.4669937080677615,1.544795792911265,1.6450765596471055,1.7752694119764392,1.9466860824349057,2.1772991296325177,2.497253771255793,2.9606422430969124,3.6726825495855797,4.854317822203148,6.326902345220307
IN4,0.0,0.0,0.0,0.19485322941643604,0.5957347130219234,1.1556631717274608,1.8190307608922893,2.5385071060862687,3.2786920169061986,4.014980699301835,4.731161822381857,5.417077871611457,6.066747645420392,6.676987070522767,7.246445018780358,7.774949650346281,8.263074125129457,8.711851976122746,9.122592317720935,9.496760666284834,9.835902459310342,10.141594188181147,10.415412324226805,10.65891369134738,10.873623201072068,11.061026327377894,11.222564637677172,11.35963329816367,11.473579857046962,11.565703856146724,11.637256979887205,11.6894435528441,11.723421262972263,11.740302030416915,11.74114281369643,11.726957954001648,11.698722260651593,11.657371526417789,11.603802668752367,11.53887408317614,11.463406273685287,11.378182691105481,11.283950700121778,11.18142261596684,11.07127677310349,10.95415860378913,10.830681714220855,10.703099523766575,10.57424446931587,10.447047400435201,10.324353412762862,10.208886804043948,10.10329080665528,10.010206847371634,9.932379422682889,9.872785129290202,9.834793052973293,9.822371923960414,9.840370081151113,9.894911013746723,9.993976235038394,10.148300528180355,10.372807724773192,10.689026022879448,11.129380663970188,11.745332552360601,12.624018398409804,13.925133625911794,15.966517877698552,18.756797178294846
D4,0.0,0.0,0.0,0.0,0.003118318665593308,0.0112749052943227,0.024892299419864095,0.043474341810318645,0.06614652647313289,0.09198583451097997,0.12017640779836132,0.15005930075121354,0.18112910498727414,0.2130094725843181,0.24542416710507292,0.2781709504388986,0.3111006643784535,0.34410155929377106,0.37708804072986646,0.40999281329142767,0.4427614989417362,0.47534899442317907,0.5077170213148726,0.5398324799298096,0.5716663384773306,0.6031928757619588,0.634389156251115,0.6652346575636238,0.6957109980082428,0.7258017300282955,0.7554921773534192,0.7847693014434971,0.8136215878652323,0.8420389465197495,0.8700126217644473,0.8975349473209282,0.9245993598038242,0.9512004039365042,0.977333696283721,1.0029958635329517,1.0281844720207185,1.0528979578752506,1.077135561535438,1.1008972674447026,1.1241837485149444,1.146996314644758,1.1693368646296616,1.1912078409587104,1.212638922016425,1.2336849158629077,1.254417738476361,1.2749197010527695,1.2952795982191978,1.315591306861491,1.3359542799298672,1.3564754616548276,1.377272402077021,1.3984776074149392,1.4202444278438346,1.4427551010602828,1.466232022001629,1.4909540426219292,1.517280898777411,1.5456912862285312,1.5768449271770935,1.6116891662838662,1.6516537748815894,1.6990341852368227,1.757809677854886,1.8354953796471165
R4,0.0,0.0,0.0,0.1313017420488975,0.5557421688838828,1.359273736591235,2.5592573935834113,4.132368282323512,6.03727525235408,8.228337095450511,10.662416219958677,13.301521149767257,16.113276682721352,19.070433149395257,22.150061432430913,25.332738443906816,28.601842364291763,31.942986233914496,35.34357966147567,38.79249562667479,42.27981832785446,45.79665146281228,49.334970813126134,52.88750912188149,56.44766457116795,60.0094266588765,63.567315075606786,67.11632845382655,70.65190074757992,74.16986361603352,77.66641361191856,81.13808327578847,84.58171544981116,87.99444027821714,91.37364763053688,94.7169678860604,98.02225945337351,101.28759613452502,104.5112538454456,107.69169735847106,110.8275675965219,113.91766972038485,116.9609620575871,119.95654582820745,122.90365559107823,125.80165033161636,128.65000512163985,131.449429007239,134.20246506833877,136.9132505004591,139.5871467770846,142.23045977710322,144.85029194493407,147.45451528042483,150.0518469452626,152.65201770320377,155.2660365732222,157.90657071480572,160.58847935552657,163.32956901240766,166.15168278139822,169.0823151643119,172.15708845443885,175.42370797118073,178.94859568878655,182.82869356910916,187.21401568584253,192.3543857126658,198.70296405436068,206.7036548430784
G4,0.0,0.0,0.9742661470821802,2.466552899564134,4.241558846119284,6.175360136218469,8.201106596569995,10.281574659105612,12.395124120780013,14.52844504525039,16.672777708178863,18.82192237714715,20.971178145555857,23.116767880305492,25.255519986672798,27.38468749916203,29.501841727606497,31.604807150432705,33.69161965368905,35.76049833909079,37.809825455332955,39.83813134779388,41.84408260923581,43.82647233753003,45.78421182326859,47.71632323714677,49.62193303776951,51.500265915250615,53.35063914705043,55.172457282748304,56.96520710140381,58.728452803399634,60.46183141104655,62.16499758096572,63.837702683232514,65.479769611841,67.0910809146127,68.67157226636334,70.2212280627145,71.74007786239281,73.2281931937459,74.68568455184639,76.11269853036427,77.50941507413414,78.87604485120367,80.21282674573183,81.52837833306337,82.8299937030152,84.12427230718484,85.41754737253049,86.71620934965576,88.0269839272953,89.35720594138779,90.71512338332195,92.11026664662,93.55392667537913,95.05980371541646,96.64492104677085,98.33095604924468,100.14624579581803,102.12892097142671,104.33200814398856,106.83214221104723,109.74530468545073,113.25721671672355,117.68677002062914,123.62953785343315,132.29407064382886,142.9509575550054,155.46412816604555
H4,1868.099583098101,1899.234576149736,1930.2336624856696,1961.1053289213733,1991.8573431308,2022.4968488689053,2053.030411668351,2083.4640612575613,2113.8033309344946,2144.0532941137603,2174.2185982491533,2204.3034963192545,2234.3118760503276,2264.247287038303,2294.112965920085,2323.911859733671,2353.6466475966213,2383.319760823157,2412.9334015915665,2442.489560265628,2471.990031466346,2501.4364289834134,2530.8301996094287,2560.172635973962,2589.464888449056,2618.707976192635,2647.9027973915395,2677.0501387614995,2706.150684357265,2735.2050237423005,2764.213659563929,2793.17701457653,2822.0954381523447,2850.9692123166233,2879.798557341219,2908.583636928295,2937.324563013554,2966.0214002162834,2994.6741699615804,3023.282854298283,3051.84739943447,3080.3677190108224,3108.8436971306855,3137.275191164331,3021.7683055098555,2906.731488551083,2792.2309627359687,2678.340116920506,2565.140092620514,2452.7203989707255,2341.179549842052,2230.6257130563,2121.177357056265,2012.9638745116401,1906.1261549350666,1800.8170692384406,1697.2018181392714,1595.4580834411886,1495.7759067347097,1398.357204686849,1303.414815124682,1211.1709557337422,1121.8549706237727,1035.700243697485,952.9401772266576,873.8031754095181,899.5377814814959,925.0930177421226,950.4702309547733,975.6707566716286
E_Om,0.0,0.0,0.0,0.0,0.0,0.0,0.0,0.0,0.0,0.0,0.0,0.0,0.0,0.0,0.0,0.0,0.0,0.0,0.0,0.0,0.0,0.0,0.0,0.0,0.0,0.0,0.0,0.0,0.0,0.0,0.0,0.7506178871794887,1.0481497539572737,1.161215545754427,1.2052569574380065,1.2286596134679197,1.2507315536439405,1.2784007370001063,1.313506258567347,1.3559400961373687,1.4049671820570186,1.4597533956736408,1.5195553623698124,1.5837707701698562,1.651935058304742,1.737828986111826,1.8409419630078403,1.9624056859414536,2.1045738987391123,2.27093675716183,2.4662475449226173,2.6968255455382026,2.971053525110901,3.3001362589654724,3.699246467886139,4.189278018228327,4.799588530818471,5.572412567416343,6.570204403682092,7.888341463423098,9.678128409621102,12.190752831819271,15.86679053316682,21.532728897094103,30.871924794802812,47.661668397651106,81.17625706326528,112.7603058575075,151.09040887535096,194.748837171844
I_Om,0.0,0.0,0.0,0.0,0.0,0.0,0.0,0.0,0.0,0.0,0.0,0.0,0.0,0.0,0.0,0.0,0.0,0.0,0.0,0.0,0.0,0.0,0.0,0.0,0.0,0.0,0.0,0.0,0.0,0.0,2.0,1.2,0.7994462810382614,0.5906051727873773,0.47726752437662484,0.41392633020191427,0.37839857836812785,0.35941804740599037,0.35095826777583194,0.34959800973747496,0.35327310224909014,0.3606672422596211,0.3709023636263728,0.3833729470188901,0.39765193143016625,0.41343391059717893,0.43199421255734616,0.4540439926245605,0.48012972412478827,0.510828414071754,0.5468556688691273,0.5891439455043288,0.6389215585782332,0.6978127386864155,0.7679779508003151,0.8523193725366105,0.9547897418830786,1.0808679467895135,1.2383114757740146,1.438385056023772,1.6979423826946316,2.0431099365726637,2.516149596382362,3.1890495511456307,4.192479112134066,5.783008339526183,8.514372108958135,13.700413898709744,20.15493188743941,28.084545918120234
A_Om,0.0,0.0,0.0,0.0,0.0,0.0,0.0,0.0,0.0,0.0,0.0,0.0,0.0,0.0,0.0,0.0,0.0,0.0,0.0,0.0,0.0,0.0,0.0,0.0,0.0,0.0,0.0,0.0,0.0,0.0,0.0,0.0,0.0706772963976362,0.15866287642127264,0.24396558435331117,0.3204925965226182,0.38763002996923474,0.4466750217019233,0.4993805327531772,0.5474071335493836,0.5921536619795649,0.6347378316299245,0.6760294928411612,0.7166967262721953,0.7572496914612771,0.7980775209286785,0.8408079772347048,0.8867741551310002,0.9372137569096237,0.9933986099867855,1.0567365004670073,1.1288695112809108,1.211785981047816,1.3079623445834432,1.4205549078376807,1.5536704706828903,1.712761032073004,1.9052169417909552,2.1412857355501322,2.4355431618040417,2.8093375018042,3.295029635558209,3.9437295921841713,4.840288795793667,6.134525531486229,8.112064879691223,11.370927517659865,17.29179635604872,25.289624342698843,35.684971607865165
R_Om,0.0,0.0,0.0,0.0,0.0,0.0,0.0,0.0,0.0,0.0,0.0,0.0,0.0,0.0,0.0,0.0,0.0,0.0,0.0,0.0,0.0,0.0,0.0,0.0,0.0,0.0,0.0,0.0,0.0,0.0,0.0,0.8,1.28,1.5997785124153048,1.8360205815302555,2.0269275912809057,2.192498123361672,2.3438575547089227,2.487624773671318,2.628008080781652,2.7678472846766415,2.9091565255762775,3.053423422480126,3.201784367930675,3.3551335467382315,3.514194319310298,3.6795678835491703,3.8523655685721083,4.033983165621932,4.226035055271847,4.430366420900549,4.6491086884482,4.884766266649931,5.140334890081225,5.419459985555791,5.726651165875918,6.067578914890561,6.449494811643793,6.881841990359598,7.377166580669204,7.952520603078714,8.631697556156565,9.448941530785632,10.455401369338578,11.731021189796829,13.408012834650453,15.721216170460927,19.12696501404418,24.607130573528078,32.66910332850385
G_Om,0.0,0.0,0.0,0.0,0.0,0.0,0.0,0.0,0.0,0.0,0.0,0.0,0.0,0.0,0.0,0.0,0.0,0.0,0.0,0.0,0.0,0.0,0.0,0.0,0.0,0.0,0.0,0.0,0.0,0.0,0.0,0.0,0.07944628103826154,0.19038368520268195,0.31328810590688044,0.44085392148281977,0.5708967017297991,0.7032756021149127,0.8385830414471505,0.9776060905191263,1.1211203869257313,1.2698237678358983,1.4243257861064984,1.5851573149495648,1.7527854781683971,1.9276282299074765,2.111562096106515,2.306409561196668,2.5141128897467198,2.736863469343601,2.9772220897696755,3.238252633952528,3.523687825228164,3.8381476287676395,4.187437936356106,4.578970538412527,5.022368656773639,5.530362758433305,6.120153466133612,6.815551636692975,7.650462985773345,8.67480749272923,9.965091127167993,11.644450920484207,13.923500301930897,17.191021174176637,22.235588279419062,30.82737891275393,42.762062460967485,58.753649246624086
beta,1.0000523504868468,1.0000523504868413,0.9845774233923569,0.9737989240896013,0.9653697500000143,0.9581911807886077,0.9517316194516838,0.9457279661445237,0.9400471533441871,0.9346199703314126,0.9294088824105757,0.9243922104348551,0.9195562927113106,0.9148915767156584,0.9103906585126543,0.9060472930986757,0.9018558914647552,0.8978112630892008,0.8939084829830455,0.8901428223871637,0.886509712237848,0.8830047236206807,0.8796235570787314,0.8763620365398338,0.8732161056336283,0.8701818252123137,0.8672553714386972,0.8644330340986385,0.8617112149553458,0.8590864260508391,0.8565552879098676,0.8541145276294937,0.8516275574960971,0.8492798829118795,0.8470362552653425,0.8448796319146912,0.8428010314002309,0.8407950634833788,0.8388579570828917,0.8369866901973745,0.8351786064645452,0.8334312465574942,0.8317422742366803,0.8301094439137767,0.8285305862586544,0.8536605596091289,0.8811708751662343,0.9114175141576649,0.9448289133434382,0.981926512724986,1.0233519188198645,1.069903647158772,1.122587812101236,1.182689424535882,1.2518747457308632,1.3323415488534671,1.4270452806901543,1.5400491539862133,1.6770836099749324,1.8464733939680626,2.060738816529067,2.3394952790384402,2.714989575216204,3.243285080227502,4.0280006210907375,5.27047285506728,7.343573347934032,5.72217824988514,4.692371291260797,3.898422091149711
