series,2021-11-01,2021-11-02,2021-11-03,2021-11-04,2021-11-05,2021-11-06,2021-11-07,2021-11-08,2021-11-09,2021-11-10,2021-11-11,2021-11-12,2021-11-13,2021-11-14,2021-11-15,2021-11-16,2021-11-17,2021-11-18,2021-11-19,2021-11-20,2021-11-21,2021-11-22,2021-11-23,2021-11-24,2021-11-25,2021-11-26,2021-11-27,2021-11-28,2021-11-29,2021-11-30,2021-12-01,2021-12-02,2021-12-03,2021-12-04,2021-12-05,2021-12-06,2021-12-07,2021-12-08,2021-12-09,2021-12-10,2021-12-11,2021-12-12,2021-12-13,2021-12-14,2021-12-15,2021-12-16,2021-12-17,2021-12-18,2021-12-19,2021-12-20,2021-12-21,2021-12-22,2021-12-23,2021-12-24,2021-12-25,2021-12-26,2021-12-27,2021-12-28,2021-12-29,2021-12-30,2021-12-31,2022-01-01,2022-01-02,2022-01-03,2022-01-04,2022-01-05,2022-01-06,2022-01-07,2022-01-08,2022-01-09,2022-01-10,2022-01-11,2022-01-12,2022-01-13
S,10008687.95172198,10008145.252020033,10007697.73464547,10007301.621130787,10006933.824661706,10006582.135938592,10006240.088405477,10005904.255364558,10005572.822955513,10005244.834827092,10004919.79140636,10004597.436810475,10004277.645268481,10003960.360425258,10003645.562808076,10003333.252325628,10003023.438811962,10002716.136889523,10002411.363160474,10002109.134659916,10001809.467998208,10001512.378883433,10001217.881856535,10000925.990147732,10000636.715603722,10000350.068657473,10000066.058324438,9999784.69221577,9999505.97656275,9999229.91624882,9998956.51484681,9998685.437109528,9998417.060230112,9998151.346027613,9997888.275506843,9997627.837391272,9997370.023108188,9997114.824604275,9996862.233403638,9996612.24021114,9996364.834754506,9996120.005730338,9995877.740794512,9995638.026570715,9995400.848665588,9995166.19168527,9994934.039251147,9994704.374013787,10061000.405827276,10127287.517864848,10193564.582107756,10259829.653361807,10326079.981265388,10392311.885397108,10458520.483061962,10524699.219634172,10590839.091263797,10656927.339376725,10722945.167552559,10788863.509052817,10854634.554076612,10920172.972705316,10985308.033365466,11049633.238363132,11111834.770758877,11109909.063230716,11094374.573162237,11075145.55323675,11053139.735794123,11028740.798874516,11002456.249460269,10974731.43990761,10945963.456748499,10916498.19486142
E,0.0,542.6997019469072,827.4071659267923,975.298530830025,1050.505440662727,1087.042531576998,1102.9773052187884,1107.9171545724414,1106.9744172452906,1102.8702204938659,1097.0525750774118,1090.2913984394172,1082.9955209007787,1075.3817078552877,1067.5648126807455,1059.6058513249461,1051.5376095938793,1043.3782491525071,1035.138503456315,1026.825452977573,1018.4444787901523,1010.0002499283473,1001.497201847948,992.9397500968522,984.3323690764026,975.6796046028139,966.9860562567071,958.2563480487934,949.4950966551298,940.7068815874302,931.8962191226547,923.0675405258289,914.2249524620536,905.3727636506135,896.5150921125182,887.655896727823,878.798987679018,869.9480293161646,861.1065408500752,852.2778969121796,843.4653286534369,834.6719255209397,825.9006376580267,817.15427881659,808.4355296646627,799.7469413842371,791.0909394704686,782.4698276592136,773.8857919237175,776.6533569885514,788.4716846622132,808.5360639738655,837.0751867758206,875.1617575345675,924.7242118127432,988.7477147760999,1071.7146132760622,1180.4266691364087,1325.530695989005,1524.4789187568772,1807.713318488317,2232.9767146479726,2923.493403476969,4193.750075978109,7140.715421379209,19958.134511844055,28889.62702121963,38435.44961309248,47534.3649298464,55861.09091969443,63115.28930113966,69152.84562233691,73931.82544430988,77482.94468126657
I,942.2977311645697,836.0928072789501,787.9433545853333,769.3977007366757,765.5010208985001,768.4299924345801,774.1315213092888,780.5435977144548,786.6524637792138,791.9927530743697,796.3826241155401,799.7836934823276,802.2272841722413,803.7759060988124,804.5034311850632,804.4851585471404,803.7930818404682,802.4938645500935,800.6481988849481,798.3108479983067,795.531004036425,792.3527717276801,788.8156813122166,784.9551842903095,780.8031114402933,776.3880859022977,771.7358907706508,766.8697937566562,761.810832768103,756.5780666041315,751.1887948615747,745.6587508421319,740.0022708679868,734.2324241686547,728.3611728511942,722.3994804884478,716.3574111482728,710.2442181481774,704.0684230498614,697.8378858092693,691.5598670676809,685.2410835153875,678.8877571662803,672.5056592825907,666.1001495962485,659.6762113905379,653.2384829332751,646.7912856898245,640.3386496897898,633.8843363740572,628.3924964012887,624.5232286269784,622.7938982846613,623.6829793535127,627.7061102687485,635.4845726268461,647.823120265602,665.816438905891,691.0134297593512,725.69253186954,773.3574027655798,839.7018973811677,934.6815622100592,1077.5938994380838,1312.2671769634978,1770.742849339933,3265.9812274879896,5351.143090469327,8011.907099111199,11145.447300442042,14632.904612123219,18343.312080822696,22148.22584456992,25930.117738729718
A,2386.6484293092008,1929.4102514150793,1676.4951762790865,1533.269293627052,1449.2915574290162,1397.5780295542238,1363.6303176484164,1339.6136403435612,1321.2605889559036,1306.220881164396,1293.1797697094198,1281.3858290914395,1270.39718814136,1259.9445619360386,1249.8568778300364,1240.0205403969017,1230.356840413607,1220.8091995226691,1211.335784981885,1201.9050870042174,1192.4931553795482,1183.081785688985,1173.657265369876,1164.2094629199291,1154.7311375497395,1145.2173980333675,1135.6652679349738,1126.0733303337918,1116.4414343040276,1106.770450795837,1097.062068869224,1087.318625358542,1077.5429624862877,1067.73826122456,1057.908019854937,1048.055952162128,1038.1859119192472,1028.3018340865121,1018.4076878914302,1008.5074390470561,998.6050193289528,988.7043022170099,978.8090835859556,968.9230666114348,959.0498501941888,949.192920313352,939.355643810121,929.5412641794992,919.7528990130052,909.9935387909259,902.699145325628,899.3441271216049,900.9473445934404,908.3816505118015,922.5833938441034,944.7243069199146,976.3936932079673,1019.8404443155168,1078.3455380761238,1156.8513089834855,1263.1068802979842,1409.924290098997,1620.0804330242506,1938.4918262679512,2469.1100539105746,3531.9090818436007,7147.884194271965,11992.102882152052,17961.387143660708,24744.073537156684,32018.245503262653,39459.06261664862,46772.92159126467,53713.44884005571
IH,0.0,68.51301463903677,125.4226820176726,175.60747055913572,221.60079991656613,264.7052259896067,305.5806914761717,344.55505824935926,381.78768882961066,417.35520887291426,451.29606701727135,483.6333123216626,514.3858972867167,543.5739781761812,571.2211143747425,597.354901711001,622.0068475567048,645.2119088978094,667.0079093608975,687.4349426519967,706.5348128611449,724.3505325075928,740.925884182416,756.3050443189644,770.5322643223021,783.6516030648552,795.7067045712084,806.7406150244237,816.7956337449164,825.9131933756177,834.1337650824405,841.4967851143116,848.0405995496562,853.8024244837436,858.8183179153447,863.1231648572312,866.7506711854709,869.7333650374295,872.1026045837865,873.8885911038282,875.1203864205091,875.8259338768867,876.0320821496166,875.7646112960673,875.0482605195285,873.9067572132091,872.3628469095895,870.438323818562,868.1540616868703,865.5300447536938,862.585398613734,859.4082672792623,856.1297960596931,852.9113175408824,849.9398137136819,847.4291650721892,845.6263079299965,844.8227017488634,845.3728873447146,847.7239385549414,852.4632636933623,860.3997391666127,872.7104088948608,891.2294881652433,919.0903732117995,962.4356350702836,1036.6603906687974,1215.3966939156699,1535.616256904711,2031.1550138517205,2726.4557330140674,3635.934407606468,4763.667940974436,6104.163319513447
IN,37.69190924658279,75.00689940069975,107.70054269785076,138.14127145428557,167.53576676920977,196.48044993745768,225.25284513546632,253.96557753648318,282.64766566969655,311.2872875641681,339.8541248115012,368.31088852800775,396.61912738202085,424.74202747509025,452.64564344429186,480.29932425725144,507.6757373565646,534.7507032566177,561.5029508060553,587.9138492533928,613.9671446807909,639.6487133954399,664.946337130593,689.8495010117756,714.3492133732701,738.4378456971492,762.1089906762696,785.357336400333,808.1785547865959,830.5692025494541,852.5266331881247,874.0489186507066,895.1347794978848,915.7835225376253,935.9949842789954,955.7694813502532,975.1077657562886,994.0109845446566,1012.480643425137,1030.5185739128801,1048.1269036061221,1065.3080292527682,1082.064592300856,1098.3994566644985,1114.3156884691573,1129.8165375683157,1144.905420648254,1159.5859057591024,1173.8616981291043,1187.736627135405,1201.214634319013,1214.3381878318744,1227.1757350986347,1239.8157336790348,1252.3648955163849,1264.949490971971,1277.7193789673254,1290.8551099882761,1304.579216444629,1319.1739614705566,1335.0099231306326,1352.5941200099496,1372.6562547050967,1396.316954646448,1425.457541077507,1463.6936527452717,1519.8864301914164,1635.3268149890218,1833.0192704579047,2135.1653617177735,2559.6316001182777,3119.3514686020235,3821.8904371489116,4669.600566560219
D,9661.0,9661.0,9664.196220908076,9670.04735153959,9678.239667583086,9688.577632036573,9700.92647381857,9715.182209029557,9731.256148951223,9749.067039333328,9768.537200611767,9789.590746901224,9812.152867584844,9836.14963620449,9861.508066617842,9888.156271758402,9916.023651940835,9945.04107733952,9975.141048917534,10006.257832159135,10038.327562971925,10071.288327478467,10105.080218391087,10139.645370936709,10174.927981230121,10210.874309771485,10247.432672464467,10284.55342126302,10322.188916281304,10360.293490951612,10398.823411592692,10437.736832555634,10476.993747943632,10516.555940754133,10556.386930163644,10596.451917501045,10636.71773152625,10677.15277342198,10717.726961850705,10758.411678374188,10799.179713483009,10840.005213439441,10880.863628098921,10921.731659842439,10962.587213724068,11003.409348913761,11044.178231495125,11084.875088660314,11125.482164329622,11165.982676210673,11206.360774301746,11246.601500834886,11286.694010074532,11326.633574383734,11366.422992499716,11406.073786111861,11445.607454711728,11485.057017689871,11524.469091398401,11563.906831977874,11603.45425214266,11643.222767966095,11683.361530653978,11724.07460203613,11765.65161246219,11808.52836927618,11853.427238720127,11901.788789188851,11958.48861980011,12030.127107946626,12124.883121194918,12252.075813922222,12421.69686526864,12643.928147197963
R,0.0,457.6150969865873,828.690003816406,1152.207042165723,1449.0908767350934,1730.6399915778456,2003.0022316154748,2269.5571896956085,2532.187862755109,2791.96157410517,3049.496023997005,3305.157112461066,3559.166637750368,3811.661548697171,4062.727037492395,4312.415418077898,4560.7572110379,4807.767899457532,5053.452234818674,5297.807119739839,5540.823634770326,5782.488527539041,6022.785346929522,6261.695330392407,6499.198110983426,6735.272287152914,6969.895884585344,7203.046731101705,7434.702760409616,7664.842257014451,7893.444052173277,8120.487678982805,8345.95349331643,8569.822766231779,8792.077743431562,9012.70169977033,9231.678973612252,9448.994986212732,9664.636249445417,9878.590364254136,10090.846011668738,10301.39293786955,10510.221934525694,10717.324815427703,10922.694390266519,11126.324436269933,11328.209668288015,11528.345707818218,11726.729051374892,11923.357038535643,12118.227819935557,12311.80646260102,12504.841809376827,12698.279894051568,12893.236470938267,13091.009618621943,13293.125299674937,13501.417926091954,13718.157476458076,13946.248275421598,14189.548801874842,14453.411704828732,14745.657344357702,15078.488784335179,15472.743820056901,15969.225615820966,16670.136076309154,18065.105393300415,20391.08015800845,23865.83970578216,28648.0147330922,34834.9857055452,42462.17310062173,51508.864801084215
G,726098.0,726098.0,726144.0852780307,726214.3475043585,726297.1684526562,726386.375863554,726478.6859516547,726572.3491978113,726666.431928869,726760.4346040289,726854.0887567045,726947.2488833001,727039.8348605011,727131.8012822766,727223.1211500005,727313.7772182307,727403.757422911,727493.0524841095,727581.6546641565,727669.5571368516,727756.7536772583,727843.2385173924,727929.0062857586,728014.0519875132,728098.3710027747,728181.9590916215,728264.8124001558,728346.9274650702,728428.301215721,728508.9309735062,728588.8144487095,728667.9497351301,728746.3353028641,728823.9699707396,728900.8529234749,728976.9836954846,729052.362157366,729126.9885032712,729200.8632385243,729273.9871672951,729346.3613803224,729417.9872427298,729488.8663819922,729559.0006761067,729628.3922420096,729697.0434242764,729764.9567841246,729832.1350887418,729898.5813009451,729964.2985691818,730030.2508550627,730097.2067363292,730165.866455825,730236.9496765761,730311.2671541296,730389.7934040063,730473.7564376586,730564.7649009856,730665.0050357174,730777.567195681,730907.0237525406,731060.5321672003,731250.1533377323,731498.4121921903,731854.5394160475,732460.9186979071,734155.734771422,736609.0003411251,739872.8834339252,743909.433326883,748653.0768131311,754012.7363909654,759885.096566736,766163.2808345567
H,1144426.054757095,1144426.054757095,1144426.054757095,1144426.054757095,1144426.054757095,1144426.054757095,1144426.054757095,1144426.0547570947,1144426.054757095,1144426.0547570947,1144426.0547570947,1144426.0547570947,1144426.0547570947,1144426.0547570947,1144426.0547570947,1144426.054757095,1144426.0547570947,1144426.0547570947,1144426.0547570947,1144426.054757095,1144426.054757095,1144426.0547570947,1144426.054757095,1144426.0547570947,1144426.0547570947,1144426.0547570947,1144426.0547570947,1144426.0547570947,1144426.0547570947,1144426.0547570947,1144426.0547570947,1144426.0547570947,1144426.0547570947,1144426.0547570947,1144426.0547570947,1144426.0547570945,1144426.0547570947,1144426.0547570947,1144426.0547570947,1144426.0547570945,1144426.0547570945,1144426.0547570945,1144426.0547570945,1144426.0547570945,1144426.0547570945,1144426.0547570945,1144426.0547570945,1144426.0547570945,1095953.1351179015,1048240.4102465458,1001336.3694599909,955293.8557374845,910170.4012268317,866028.5453979629,822936.113085363,780966.4202356047,740198.3630638445,700716.331294809,662609.8684024219,625972.9822545947,590902.9906851063,557498.772756908,525858.2952781178,496075.30627976474,468235.14617987396,462982.121457835,462982.12145783496,462982.12145783496,462982.121457835,462982.121457835,462982.12145783496,462982.12145783496,462982.12145783496,462982.12145783496
S0,3503040.783102693,3494860.488553836,3482032.2875613943,3469278.166725901,3456585.265246718,3443946.7115851203,3431358.804591178,3418819.5242921077,3406327.743173272,3393882.807610246,3381484.3153509735,3369131.997038584,3356825.6530439514,3344565.1197512,3332350.25155374,3320180.911245515,3308056.96490733,3295978.2792054713,3283944.719988346,3271956.1515836944,3260012.4364751955,3248113.435185171,3236259.0062694466,3224449.006373104,3212683.2903189044,3200961.7112126388,3189284.1205565124,3177650.3683654144,3166060.3032830497,3154513.772696103,3143010.6228453126,3131550.5654846285,3120133.5944758565,3108759.5381332133,3097428.232191003,3086139.5152638317,3074893.226904183,3063689.2067934135,3052527.294426481,3041407.3290105877,3030329.1494552307,3019292.5944000278,3008297.5022568693,2997343.7112561916,2986431.0594929894,2975559.384970737,2964728.5256425138,2953938.319449117,2962797.262873428,2971227.799058802,2979210.550157461,2986724.17856785,2993745.308625458,3000248.395185767,3006205.546031128,3011586.289400286,3016357.2539017415,3020481.681407964,3023918.59185363,3026621.1791354725,3028533.401236872,3029581.952818703,3029654.806368669,3028531.792397282,3025570.067779497,3009230.3895846824,2991101.7225707993,2971374.234210186,2950496.222691687,2928673.6679107994,2906160.5808929764,2883177.3338372656,2859916.7723211967,2836543.5752181914
E0,0.0,299.1258199707363,456.9826480941565,539.4829964520964,581.8734236600819,602.8620857526037,612.3876754380955,615.7333986417863,615.7091150830173,613.810197902525,610.8334892697537,607.2048567061317,603.1534009929655,598.8040705715617,594.2268461443257,589.4628093938369,584.5379144894677,579.4702256025014,574.2736902238822,568.9600824477753,563.5399850492616,558.023271262306,552.4193298857883,546.7371617634221,540.9854143347354,535.1723885060892,529.3060350222415,523.3939486168465,517.4433636392191,511.4611525479587,505.4538275426941,499.42754509808077,493.3879931800026,487.34069242226605,481.29079957508566,475.2431403942378,469.20223051109843,463.1722915948425,457.15726570420145,451.1608289103759,445.18640454430954,439.2371761428475,433.3161000720786,427.4259177813824,421.56916764320096,415.74819634320636,409.96516979655587,404.2220835759368,398.5207728454738,398.6252372168688,403.31979647538253,412.15472696589967,425.203662819205,442.9612576937419,466.3424647658813,496.7754964286095,536.4112291667293,588.5165135854036,658.2049849126861,753.8551588288358,890.071642662903,1094.533738352075,1426.255776235199,2035.7061323349249,3447.21384478265,9573.117111248273,13810.368219749747,18309.692529085474,22563.616964729714,26418.658165262226,29736.19194660639,32453.508550603554,34557.23773710839,36068.601213868424
I0,942.2977311645697,836.0928072789501,767.2594109022884,719.5890952345623,684.2974382274184,656.583183548957,633.7748867622977,614.3461773008845,597.3913617178772,582.3454351233531,568.8340583931308,556.5927502791307,545.4230028641308,535.1681366608755,525.6997417273569,516.9098236686553,508.70604856892226,501.008693316278,493.748554251259,486.86541195298844,480.3068340777742,474.0271965245474,467.98685583512605,462.1514339876495,456.49119199277726,450.98047702491374,445.59723244989704,440.32256276858953,435.1403470982743,430.036895846598,425.00064595334516,420.0218906196073,415.09253988378094,410.20589860523796,405.35649504660546,400.5399120854006,395.75264024244154,390.99194904745275,386.2557742753256,381.54261911053663,376.85146760800967,372.1817090326105,367.5330718255894,362.90556608552,358.2994335727191,353.7151043540076,349.1531593012098,344.61429774338234,340.0993096504444,335.60905179552174,331.63375494183236,328.5051628842879,326.4794392004778,325.79012857073195,326.6864584918073,329.4672629213105,334.5189764443739,342.3671285371861,353.7554333133629,369.77802456361627,392.1172094459936,423.5058871195929,468.71942239908316,537.0063681382373,649.3504451107856,868.8955989723344,1583.8990506110276,2578.136834996276,3842.391760403156,5325.391607066945,6968.609381760474,8708.342812086867,10482.744188060564,12235.801178134552
A0,2386.6484293092008,1929.4102514150793,1624.10695536928,1411.2462593165212,1256.9100721697052,1141.2592691273292,1052.2793158755148,982.3950714062307,926.6189726796869,881.5233311627672,844.6587677455955,814.2165455070353,788.8260446302547,767.4285063069127,749.1948846379856,733.4700153023402,719.733087384631,707.5686500733009,696.644730600007,686.695955952152,677.5103261207483,668.9187325787067,660.786588448433,653.007110592327,645.4959094828833,638.1866229859844,631.0273881092662,623.9779879185438,617.0075437947356,610.0926488715422,603.215858748325,596.3644717057451,589.5295435849497,582.7050671401823,575.887373389938,569.0746053837021,562.2662998592015,555.4630535352319,548.6662568128629,541.8778815814176,535.10031260698,528.336214073023,521.5884244738886,514.859874359801,508.1535224760487,501.47230668324636,494.81910673018973,488.1967165066349,481.60782385481605,475.05499638530614,469.7800391293049,466.5253797422103,465.79448311190276,468.01019679886224,473.62074932692514,483.1852862799276,497.46301315273683,517.5302991645784,544.9599398107232,582.1232597628214,632.7393444710407,702.9559506026186,803.6963411905037,956.48396895964,1211.0817416008472,1720.4923478044534,3449.877287473461,5759.297773522432,8593.996687410898,11800.559333933108,15221.951044772302,18701.40663236285,22098.70654623546,25297.619046141976
IH0,0.0,68.51301463903677,125.4226820176726,174.10357291672278,216.56059314267168,254.04636621212654,287.3934609539367,317.1930434894162,343.89180956347786,367.8452974546989,389.347823103403,408.64981145019624,425.96827051469944,441.4934813265519,455.39355332465163,467.8177358415322,478.8989709357657,488.7559558694414,497.4948670064499,505.2108339907501,511.98921878749695,517.9067352210741,523.032433920294,527.4285712916767,531.1513772626993,534.2517339865423,536.7757758990962,538.7654201568299,540.2588353923868,541.2908558113965,541.8933468674583,542.0955280626623,541.9242578100675,541.404284750201,540.5584686876878,539.4079765480157,537.9724549607538,536.270182379631,534.318203232006,532.1324462697187,529.7278290290295,527.1183500806411,524.3171705524776,521.336686232895,518.1885914070289,514.883935441629,511.43317301199653,507.846208756825,504.13243705132896,500.3007775046889,496.35970671332007,492.35286498613226,488.3455409316374,484.4179497326996,480.66274295162447,477.1854442665429,474.10732705862625,471.5708914775143,469.74877529236676,468.8579104251276,469.18249210361284,471.11293348642096,475.2162352034933,482.3744859745813,494.0922510635932,513.3145541350112,547.41067834254,631.5620110858847,783.2355575876434,1018.2386267980455,1347.75509911595,1778.0798662183101,2310.5195120400235,2941.809749243539
IN0,37.69190924658279,75.00689940069975,107.70054269785076,137.3139137069638,164.72433837927665,190.4489925245806,214.80782994129308,238.01074711237206,260.2044867332837,281.49809633466595,301.9769327762534,321.7105257842161,340.7571305375392,359.16647934672903,376.98154001969675,394.2397142885941,410.9737100924544,427.21221493428675,442.980440517595,458.3005782824694,473.19218897776426,487.6725404510976,501.7569029075685,515.4588081118978,528.7902773902848,541.762022296093,554.3836211541287,566.6636742405833,578.6099400089211,590.2294544927628,601.5286357816991,612.5133752620159,623.18911713418,633.5609275581895,643.6335542268172,653.4114784864132,662.8989601849651,672.100076192813,681.0187533927831,689.6587968298683,698.0239136259911,706.1177331940515,713.9438242234154,721.5057088542048,728.8068744090835,735.8507830079014,742.6408793519827,749.1805969305112,755.4733628709414,761.5226016282497,767.3317376837881,772.9237705046235,778.3347393149487,783.6105694898183,788.8060689377494,793.9854665880442,799.2243024390162,804.612818472401,810.2613754291644,816.3089790074073,822.9370101998778,830.3923284757187,839.0286406757452,849.3871311649511,862.3735145788311,879.7237972374742,905.6823832239928,959.981521416194,1053.507179601883,1196.6677782219904,1397.7167647224483,1662.4839723456428,1994.192845105661,2393.560684177027
D0,9661.0,9661.0,9664.196220908076,9670.04735153959,9678.169508809402,9688.272341086084,9700.123933248333,9713.531210589506,9728.328677068519,9744.371675579589,9761.532135338315,9779.695715780272,9798.759758988996,9818.631730753328,9839.227973718695,9860.472673053675,9882.296976601598,9904.638234125085,9927.439332767834,9950.648112938494,9974.216852966872,9998.101813429053,10022.262833700433,10046.662974457713,10071.268200719627,10096.047100703883,10120.970636346568,10146.01192181498,10171.146026766079,10196.349801472998,10221.601721269695,10246.881748054831,10272.171206854699,10297.45267567536,10322.709887079027,10347.927640067419,10373.091721106755,10398.18883320398,10423.20653207959,10448.133168598702,10472.957836723348,10497.670326337953,10522.261080378405,10546.721155764262,10571.042187694675,10595.216356922343,10619.236359667246,10643.095379873508,10666.78706354949,10690.305494963319,10713.645174494457,10736.80099796657,10759.769897080276,10782.551849334384,10805.150574369918,10827.574114143337,10849.835433427417,10871.953154555304,10893.952547676765,10915.866936717197,10937.739765757242,10959.627736953164,10981.605765740946,11003.775218870647,11026.278613674065,11049.32865740208,11073.275446475516,11098.812863923,11128.276050081346,11164.815003713727,11212.317155028035,11275.191676744183,11358.141406435372,11465.930135508359
R0,0.0,457.6150969865873,828.690003816406,1142.1704174254598,1415.6535583469743,1660.267383674396,1883.3567351178797,2089.976214632274,2283.7371763603755,2467.301382993051,2642.678560662184,2811.412975998958,2974.7055742760267,3133.4974677151395,3288.5293298526194,3440.385114969506,3589.5251263590826,3736.3115459709024,3881.0284368269004,4023.8975759203554,4165.091072840886,4304.741471081841,4442.949855853157,4579.792371189484,4715.325461311503,4849.590085462779,4982.615105053066,5114.420002619168,5245.0170610433515,5374.413106700216,5502.6109003393785,5629.610243517848,5755.408855484458,5880.003064976966,6003.388348002741,6125.559753734391,6246.512232069496,6366.240883217834,6484.7411452628285,6602.008932376412,6718.04073384641,6832.833682084782,6946.385596192139,7058.695006370855,7169.761163442397,7279.584036885785,7388.164304135251,7495.50333332598,7601.603161232603,7706.466467786179,7810.096548265622,7912.734724087116,8014.765218621466,8116.669723179974,8219.012200336569,8322.443959645194,8427.725130250768,8535.763259315974,8647.674434076196,8764.878890596214,8889.254726743267,9023.39720488239,9171.085757815757,9338.20172278803,9534.764169568443,9780.349933480007,10123.895176279306,10799.35948338698,11918.651011971484,13583.470986741508,15866.391340654782,18810.093410278056,22427.346437339897,26704.10146314404
G0,726098.0,726098.0,726123.4013343476,726162.2076434667,726208.0197634938,726257.431617622,726308.6257987436,726360.6288792389,726412.9160737358,726465.201206108,726517.3250851646,726569.1961864062,726620.75914939,726671.9780685827,726722.8276488924,726773.288537888,726823.3448717355,726872.9829905921,726922.1907685982,726970.9572642951,727019.272536063,727067.1275409565,727114.5140744508,727161.4247293046,727207.8528626151,727253.7925658077,727299.2386352088,727344.1865423106,727388.6324035393,727432.5729496514,727476.0054950028,727518.9279069563,727561.3385756732,727603.2363743288,727644.620644903,727685.4911672793,727725.8481311373,727765.6921096178,727805.0240343593,727843.8451717546,727882.1571003632,727919.9616894486,727957.2610786159,727994.0576585206,728030.3540526181,728066.1530999187,728101.4578387098,728136.2714912052,728170.5974490801,728204.4392598489,728238.2899415819,728272.5392785341,728307.5388650747,728343.6465484775,728381.2621812931,728420.8633125802,728463.0487731389,728508.6000431068,728558.5760188756,728614.4698393844,728678.4861350722,728754.0697386235,728847.0159692274,728968.1315581154,729141.0007945657,729433.7332355417,730246.6685699617,731419.4251733456,732974.2579249233,734890.3278204219,737133.7622692983,739658.9169147048,742414.8221773371,745349.3730963304
H0,400549.1191649832,399647.883646862,398209.1512657333,396775.59832117666,395347.2061672204,393923.9562250184,392505.8299826084,391092.808994671,389684.87488229014,388282.0093327139,386884.19409911614,385491.41100035934,384103.64192075806,382720.8688098433,381343.07368212787,379970.23861687223,378602.3457578515,377239.3773131232,375881.31555479596,374528.1428187987,373179.84150465106,371836.3940752343,370497.78305656346,369163.9910375598,367835.0006698246,366510.7946674132,365191.35580661055,363876.6669257067,362566.7109247742,361261.470765445,359960.9294706894,358665.0701245949,357373.87587214634,356087.3299190066,354805.4155312982,353528.1160353855,352255.41481765814,350987.29532431456,349723.741061147,348464.73559332686,347210.26254519087,345960.3056000282,344714.84849986807,343473.87504526856,342237.3690951056,341005.31456636323,339777.6954339243,338554.4957303622,317727.0410264648,297366.9475932216,277492.9206336215,258125.22365577385,239285.77037030362,220998.20155307997,203287.93654966835,186182.18535662786,169709.90254868698,153901.65872922112,138789.39886140628,124406.05034099078,110784.93812571329,97958.96160882797,85959.49126581056,74814.9565991018,64549.12543265155,62458.1071454896,62233.25795976584,62009.21823111068,61785.98504547868,61563.555499314956,61341.926699517426,61121.095763399164,60901.05981865092,60681.81600330378
S1,1000868.7951721982,937179.975763078,882757.5029966625,832186.2265550068,785187.5281630676,741504.459895633,700899.3153446529,663151.8162486261,628057.6481138163,595427.2097791558,565084.5069334821,536866.1520386264,510620.44943526085,486206.5527240779,463493.6858346883,442360.42150988063,422694.01223517006,404389.76942830207,387350.48721896316,371485.9075205213,356712.2233866138,342951.61788831366,330131.8359593479,318185.78684644715,307051.1749743989,296670.1571937337,286989.0245250863,277957.9066494797,269530.4975190795,261663.8005791963,254317.89220017736,247455.69147285994,241042.78960361693,235047.22419009314,229439.3176244633,224191.51340666082,219278.22436535137,214675.69181637492,210361.85482636566,206316.22883780245,202519.79297722725,198954.8854220854,195605.10624850946,192455.22722460493,189491.10805247002,186699.61859785728,184068.5666794121,181586.63102004936,180437.48703518702,179367.99506421445,178370.77155396529,177438.71072667392,176564.95912113227,175742.88803388586,174966.06437237642,174228.21946952766,173523.21402300714,172844.99470565,172187.53234453558,171544.71828718676,170910.1614840448,170276.73064289743,169635.35383446005,168971.1654815991,168246.09404241908,166818.5755764154,165332.93763617118,163797.51309986511,162234.82597889056,160653.9862859802,159066.76433947866,157483.1126787052,155911.52863240187,154359.0399826768
E1,0.0,85.46451999163897,126.21999655693344,144.0252963910171,149.8082516805161,149.28648346221206,145.49151669458394,140.05389437971513,133.8633412917257,127.41149359422582,120.97210549702358,114.69725607189228,108.66964195575231,102.93159256487189,97.50154074931261,92.38360071421815,87.57327433580315,83.06092977073362,78.8339654526191,74.87817845307502,71.17863956822936,67.72025583156723,64.48813118392066,61.4677947709275,58.64534138707695,56.007513126655326,53.541741507768435,51.23616300618068,49.079616775089455,47.06163055266479,45.172398887342574,43.40275653556844,41.74413954523917,40.18857781122392,38.72864668870342,37.357437484903755,36.068527424813155,34.85595006491211,33.71416662289683,32.63803845473898,31.622800792415724,30.664037792038116,29.75765890497835,28.89987656138378,28.087185140240976,27.316341189906552,26.584344856107293,25.888422469842908,25.226010244763902,24.945670135569618,24.96467102958286,25.248480765186176,25.794889765940347,26.627021391197474,27.792579755364365,29.36862543740893,31.473001897928327,34.2860875471114,38.091372585538906,43.35428282767538,50.88680211816263,62.228140556908116,80.65941505267313,114.54323977613171,193.0061577493987,533.2617979365891,767.3854603949585,1014.8797974807746,1247.711650755202,1457.5721892291872,1637.0486086886242,1782.9417410281392,1894.7643872881704,1973.9065445713704
I1,0.0,0.0,7.257524099313977,17.157960295638343,27.454534048117132,37.08167709888407,45.57945189869332,52.797192488778066,58.73967760444328,63.486701525081905,67.15081407573929,69.85512657798498,71.72178900223395,72.86620646358944,73.3943714977713,73.40189567639268,72.97396371068353,72.18577730025797,71.10324435487645,69.78377429855541,68.27709993543041,66.62608099547289,64.86746488159015,63.0325923016698,61.14804275661665,59.23621920273484,57.31587375139558,55.40257769501754,53.50913987625521,51.64597770980785,49.82144519022119,48.04212208135891,46.31306825274952,44.63804604533766,43.019716942560216,41.45981196600302,39.95928036022652,38.51841896908582,37.13698451782187,35.814290805372636,34.549292605080296,33.340657878924986,32.18682973372654,31.086079387828466,30.036551272904738,29.036301266579624,28.08332893626381,27.17560457173001,26.311091692278367,25.48776563275881,24.7334293047037,24.06572658928754,23.49738033156046,23.039491770277834,22.703874543111247,22.505061755625967,22.46249238299118,22.60342156062662,22.967350014800836,23.61339998589072,24.633553428412068,26.178377652729985,28.512177267464857,32.14809524455621,38.251580169026404,50.33010884916228,89.94130470786274,144.9694284128575,214.81228026157356,296.5549980613922,386.905675265996,482.31394636774195,579.3579333257002,674.9600604602277
A1,0.0,0.0,18.381831898177712,42.00778760577626,64.93703191195468,84.71725881717737,100.59573344635626,112.61595590483215,121.1637920079297,126.74254602401923,129.86484014433506,131.00396697537516,130.57525430412937,128.93224722320036,126.36986232491527,123.13048014159912,119.41093041883461,115.36936646080471,111.13157066113584,106.79651744486267,102.44116476154623,98.12451583083039,93.89102371792671,89.77342122813975,85.795057747917,81.97181859681092,78.3136942283205,74.82605786065369,71.5107016778491,68.36667402328473,65.39095317119936,62.57898733258113,59.92512548415515,57.42295728818925,55.0655862887142,52.84584036127335,50.756435497669905,48.79010175273594,46.93967869854718,45.19818642491204,43.55887701779226,42.01527052687319,40.56117867572103,39.19071894737585,37.8983211715407,36.67872832663696,35.52699293400384,34.4384701484109,33.408808427282956,32.43393848113948,31.585539828534703,30.903765576846396,30.41364900564232,30.13495223720297,30.088624738098403,30.301862709899453,30.813226359655143,31.67923440518118,32.98437365984165,34.857918289289124,37.50448034764605,41.26411461594422,46.74278312250532,55.13606400098037,69.20912757164713,97.46196687816229,193.48475156870234,321.46698144795636,478.1615954136031,654.9141978270848,842.9413416101956,1033.5479708677278,1219.016761669296,1393.0041007164061
IH1,0.0,0.0,0.0,0.5276833833027875,1.7453182646659964,3.6426205484336025,6.132412921790175,9.099015429849592,12.42234684758563,15.989476161437379,19.69967176507205,23.466091952360667,27.21576594665608,30.888738196305034,34.436840637261376,37.822340542510524,41.01659456281646,43.998775680756935,46.75470455602145,49.2757971887636,51.558130024523216,53.60161777876538,55.409296263294216,56.98670115422796,58.34133325899074,59.48220100906173,60.41943138100293,61.163941082126804,61.72716053878604,62.12080394006269,62.356679285203796,62.44653304105719,62.40192462638534,62.234126499208905,61.95404607220256,61.57216635133541,61.098502326614735,60.542570643994935,59.91337040216484,59.21937320107954,58.46852082095886,57.6682291330645,56.82539703951227,55.946419411372105,55.03720314493396,54.1031855876482,53.14935470004736,52.180270419868606,51.20008678136777,50.212574418006916,49.221143141696466,48.23103110089838,47.248462555563336,46.28023421169076,45.333564887025844,44.41612339530861,43.5362007817338,42.703031770944804,41.9273096073264,41.22199378599459,40.60360831678294,40.09442896899756,39.72641707765235,39.54894050715008,39.64588020242844,40.18110311324295,41.5642161431372,45.74904298256408,53.69780395865038,66.2744233586571,84.08194790538855,107.44991149584212,136.4310379047596,170.82626456225387
IN1,0.0,0.0,0.0,0.29030096397255906,0.9737163661583672,2.062160564421469,3.5248060427326173,5.312736058253024,7.371496397221616,9.64736853742713,12.090362913056136,14.655491846955147,17.303141991604996,19.998982131778305,22.7136405690041,25.42227902322491,28.104132060048368,30.742049287875226,33.322059887006795,35.832969062331784,38.265990343650685,40.614414437631396,42.873313533074,45.03927899300686,47.110189895143584,49.085009706456816,50.96360837750164,52.74660724378245,54.43524427914532,56.03125743140408,57.53678396548235,58.954273933436376,60.28641607735637,61.53607464669279,62.70623574203937,63.799962062321384,64.82035492033829,65.77052258554397,66.65355411845196,67.47249795798032,68.23034461061542,68.93001286871248,69.57433905518235,70.16606885397958,70.70785134095293,71.20223487845959,71.65166458033818,72.05848109198534,72.42492046393468,72.75311492698647,73.04509440302695,73.30398063118483,73.53356988844448,73.73812940282245,73.92232777960534,74.09125948353373,74.25054935892344,74.40654356065384,74.56661498747238,74.73964283818968,74.9367824092434,75.17275672228746,75.46816426117378,75.85396970926064,76.38135382195028,77.14760349049183,78.38933180955341,81.20309067977239,86.18983690948896,93.92042975085701,104.84342537580413,119.27121813268593,137.37106380606875,159.17167050103606
D1,0.0,0.0,0.0,0.0,0.024617113572402382,0.10603847210060471,0.27597144058012013,0.5620564494043485,0.9865373091799189,1.5660558857717444,2.3119856669327064,3.231000880458126,4.325724476027993,5.5953752220404365,7.036374882722054,8.642898119698327,10.407359313987637,12.320836597252132,14.373436493804773,16.55460404336028,18.85338383091788,21.258637402577342,23.759222325804352,26.3441377926189,29.00264124150469,31.724340033330876,34.49926178396771,37.31790654586401,40.17128365000996,43.05093567159596,45.94895166791165,48.85797155471168,51.771183235649524,54.68231387624195,57.58561651677857,60.47585304248348,63.34827438439248,66.19859868580207,69.02298805387362,71.81802441538285,74.58068490822039,77.3083171646146,79.9986147767973,82.64959317972314,85.25956613736834,87.82712297807484,90.35110668948852,92.83059295407723,95.26487018131276,97.65342057174747,99.99590223087053,102.29213233631492,104.5421724321267,106.74637443214364,108.90540732534514,111.02027686791217,113.09234657612346,115.12336675425912,117.1155185184697,119.07148183861197,120.99454126178205,122.8887522015456,124.7592092649701,126.612498096815,128.4575074166822,130.30703909894294,132.18153962350377,134.1205641630663,136.25481629714244,138.75988843029353,141.85167615450425,145.77420797277088,150.78688557137542,157.15157026900792
R1,0.0,0.0,0.0,3.5216227158817652,11.577726177408264,24.045663885014555,40.33298867454279,59.701863101953286,81.42113758062486,104.83184200076532,129.3697636476352,154.56739162874345,180.04657096279283,205.50759003325734,230.7175271279584,255.49918576100072,279.72117941232113,303.2893364524857,326.1394047578075,348.2309483085648,369.54229498629263,390.06638930755247,409.8074117806106,428.77804038781295,446.9972453885818,464.48852415648236,481.27849712068576,497.3957986677601,512.8702079750132,527.7319742534303,542.0112989153666,555.7379439184425,568.9409411459625,581.6483823301596,593.8872724669025,605.6834342523917,617.0614517920376,628.0446448715608,638.6550667373376,648.9135197103387,658.8395840888206,668.4516567170228,677.7669963458845,686.8017735180384,695.5711231990321,704.0891987714058,712.3692263256353,720.4235584365371,728.2637268173854,735.900493406352,743.3438995688297,750.6177735520048,757.7537198027554,764.7882388917371,771.7617280900481,778.7187170775635,785.7090734616392,792.7901914387791,800.0304489666671,807.5145907922637,815.3523466146759,823.6929228524863,832.7510441872971,842.8580521381032,854.5751424479705,868.9946175245223,888.8398344827418,927.1075087677722,989.9642228577628,1082.9701134964973,1210.0416413816495,1373.4230354633567,1573.699130331367,1809.9784622860866
G1,0.0,0.0,7.257524099313977,17.975944642913692,30.206365635986653,42.92786687362075,55.60506030470579,67.95999061683982,79.85316586386625,91.22064824760204,102.0402490056727,112.31302618941272,122.05295218616997,131.2810218627428,140.02182463906925,148.3015152261995,156.1465977075664,163.58319419240132,170.63660886765484,177.33107581338672,183.6896230174088,189.73401070101534,195.484717412495,200.9609567482195,206.180713460424,211.16079149129393,215.91686894073274,220.46355661124073,224.81445787190555,228.9822283287589,232.97863429842198,236.81460943267402,240.50030908399555,244.04516136637352,247.45791758393196,250.74669855063695,253.91903840420224,256.98192586952655,259.94184300970744,262.80480154241667,265.57637681906687,268.26173957382423,270.8656855537439,273.3926631423757,275.8467990882859,278.231922447747,280.5515868477837,282.8090911721109,285.00749876846186,287.149655271521,289.2680056957689,291.38796964860416,293.5320343159343,295.7224992496141,297.9836276039121,300.3437334978713,302.8376749240511,305.5103169721702,308.4218422070711,311.65650677363675,315.3380901074121,319.6593241440125,324.9436483266258,331.79312982653494,341.51997698100445,357.9097822630009,403.1936070612554,468.35887649498545,554.5410090202039,660.4948876032298,784.269821234818,923.2856342349778,1074.6904821701262,1235.5911483718562
H1,114442.6054757095,107169.36917413719,100953.1466142561,95175.7605149373,89805.88406068372,84814.42799855115,80174.38081249328,75860.660313824,71849.97583236024,68120.70025105363,64652.75118100471,61427.48062397547,58427.57251614994,55636.94759019682,53040.675032898194,50624.89045294684,48376.719708185665,46284.20817375781,44336.25506253093,42522.55243691884,40833.528577000885,39260.29539377471,37794.5995986045,36428.777360564956,35155.71220254553,33968.79590477508,32861.89220095098,31829.303067501136,30865.737420755027,29966.282050030284,29126.374626926583,28341.77864252631,27608.560134794403,26923.06607830596,26281.90431756396,25681.924933650636,25120.20294183155,24594.022225044293,24100.860614994373,23638.376038886334,23204.393655673288,22796.893911145027,22414.001446223338,22053.974797521194,21715.196833575505,21396.165874205348,21095.487444201015,20811.8666160345,19349.912855778886,17951.53949658704,16614.007476432387,15334.99719196597,14112.584040457208,12945.215554003571,11831.689366495677,10771.131069961944,9762.97078328069,8806.916973534877,7902.925750020913,7051.163523894573,6251.960654398821,5505.753592308418,4813.013246807347,4174.158066869375,3589.451899842526,3462.4043753086326,3439.9389627960645,3418.268765537217,3397.3398964879857,3377.1023071882814,3357.5095136152236,3338.5183416181135,3320.088690536485,3302.183313702451
S2,1000868.7951721982,1060408.6576059514,1114695.4486348783,1164451.083987633,1210003.2379068863,1251656.4143252408,1289693.4899701553,1324377.188657745,1355951.4780650253,1384642.8843661265,1410661.723758423,1434203.2524609372,1455448.7383368562,1474566.458140221,1491712.6247607446,1507032.2489233557,1520659.9397129894,1532720.6481176063,1543330.3575601457,1552596.725150403,1560619.6771461323,1567491.9618773707,1573299.6631633567,1578122.6770393767,1582035.1544120614,1585105.9120759587,1587398.8143511824,1588973.1274409422,1589883.8484580573,1590182.010930473,1589914.9684665622,1589126.612180323,1587857.7581887092,1586146.2215726303,1584027.0860837013,1581532.898356854,1578693.8489934222,1575537.9410289885,1572091.1465013581,1568377.5518873255,1564419.493167839,1560237.6812470679,1555851.3184079018,1551278.2064415545,1546534.8470450854,1541636.535038982,1536597.4449178132,1531430.7112104436,1536305.0326004063,1540836.1720001774,1545022.4803141176,1548860.9844200304,1552347.370684974,1555475.962475622,1558239.6962266169,1560630.0989369522,1562637.2669399995,1564249.8387570197,1565454.9376175713,1566238.015957597,1566582.4195753045,1566468.1550482013,1565868.2117682341,1564735.9448514543,1562946.4368093805,1555947.196997406,1547966.0801818697,1539644.487167905,1531065.5954368927,1522262.4970744187,1513280.5779238234,1504159.9682064923,1494936.9653065645,1485643.7206404826
E2,0.0,29.912581997073634,47.23256097969278,57.667273660351576,64.35989710292424,69.01081575533686,72.5249807411067,75.37535813397412,77.80425588807618,79.93332125695792,81.82273447047372,83.50249410449051,84.98857499827683,86.29101132868158,87.41775039434104,88.37634641943586,89.1745904897585,89.82064567764391,90.32297476008743,90.69019987651617,90.93095730574325,91.05377253228096,91.06696266516633,90.97856530419804,90.79628997204381,90.52748758345797,90.17913376296785,89.75782249934429,89.269767342952,88.72080799120494,88.11642063239839,87.4617308307798,86.76150712590426,86.02022746108005,85.24205915756193,84.43087872641331,83.59028934275251,82.72363711115645,81.83402653533983,80.92433532324073,79.99722855540226,79.05517221285163,78.10044605611691,77.13515585157378,76.16124494799863,75.18050521249444,74.1945873401252,73.20501055556055,72.21317172793381,72.26598302742059,73.14401446717483,74.76647055535628,77.14723527770204,80.37631094561618,84.61965439748202,90.13596507933192,97.31453186754926,106.746326148277,119.35609858835303,136.6586976104183,161.29429264850648,198.26622085477405,258.24151193533487,368.41787189070357,623.5759316928451,1731.0627107780192,2498.2959194478362,3314.239881479814,4087.6112178772373,4790.895476311476,5399.006290855227,5900.363397012241,6292.148458082932,6577.707465327303
I2,0.0,0.0,2.5401334347598916,6.264760048861071,10.455690532919522,14.742595661771256,18.941279647388438,22.965154272571084,26.777554143159975,30.366522807931066,33.73178151862101,36.87819336280491,39.81262075286854,42.54250920965356,45.075317168695584,47.41833730993309,49.57868186044772,51.56332304697487,53.379140463688806,55.03295696316442,56.53155858446387,57.88169990302711,59.090098168395585,60.16341981621104,61.10826245984936,61.93113478743394,62.63843613199561,63.2364369276102,63.73126082944145,64.12886895068367,64.43504643536154,64.65539142287238,64.7953063504995,64.85998969267229,64.85443427228961,64.78342406180869,64.65153302727312,64.46312558651655,64.22235839695765,63.93318325555832,63.599350929158724,63.2244157562597,62.81174087891344,62.36450397860338,61.88570340388573,61.3781645904582,60.844546686295786,60.28734930555702,59.70891934511761,59.11145780684366,58.585819896612556,58.19398699134278,57.98409360561505,58.000028095211114,58.28837509384424,58.90456156900485,59.9197357849927,61.43008484637803,63.57113919754838,66.54168235194501,70.6467319887942,76.38112710568053,84.6088103538047,97.00217955910264,117.35472923845171,157.0810298355857,286.37602455645856,466.2507202823483,695.1408040332112,963.9066208964426,1262.1021446547334,1578.3284064853485,1901.4878183567405,2221.4942551691206
A2,0.0,0.0,6.433641164362198,15.359920372063863,24.820400793635454,33.90788531291447,42.254700318017875,49.75824992430037,56.437319965222386,62.35921319554908,67.60450245974272,72.25126796966465,76.36908333382654,80.01762902153267,83.24730998114904,86.10058381146166,88.61339878544842,90.8164918625591,92.73646708845263,94.39665184658165,95.8177588826293,97.01839026239344,98.01541790964231,98.82427025197948,99.45914865105271,99.93319192264195,100.25860277110367,100.44674641323252,100.5082289427898,100.45296093934968,100.29021030726334,100.02864721641046,99.67638320446457,99.24100141121966,98.72959530809874,98.14879570061764,97.50479681883456,96.80338116773284,96.04994311511138,95.24951128770766,94.40676986093243,93.5260788172365,92.61149323294087,91.66678164010045,90.69544350023084,89.70072582029039,88.68563893745878,87.65297149725181,86.60530464874701,85.54502548070053,84.69923513484801,84.20433101152432,84.15320165379654,84.62392604680001,85.69898249709165,87.48074221206774,90.10760539754305,93.77518612329486,98.76872935770756,105.5177290551245,114.69521176317569,127.41311589494424,145.64647775713132,173.28623292465704,219.3276066265082,311.42805794454875,624.0835972036759,1041.857677001679,1555.0882869039688,2136.331120455895,2757.481850269871,3390.4248122776876,4009.940089355077,4595.033267216122
IH2,0.0,0.0,0.0,0.18468918415597563,0.629727342991296,1.354269604905885,2.3494598686874473,3.5935511510874725,5.059732767917447,6.720047010731008,8.547250676364298,10.515623657056555,12.601256510075068,14.782093249018429,17.0378687400302,19.350008186689234,21.701519318369932,24.07688961765648,26.461992311196894,28.844001130335595,31.211312510243076,33.5534736455061,35.86111501044427,38.12588627600096,40.34039487633373,42.49814674632642,44.5934889547408,46.621554101852425,48.578206446028304,50.459989782279685,52.26407712745473,53.988222279559295,55.63071331893371,57.190328111267426,58.66629173079984,60.05823617277086,61.366162115625485,62.590402765390095,63.73158978162698,64.79062126371545,65.76863176160316,66.66696426398492,67.48714410797604,68.2308547472391,68.89991530992485,69.49625987351602,70.02191838057155,70.47899911732193,70.869672675941,71.1961573209954,71.46070568094063,71.67204871179626,71.84292931992634,71.98886829585066,72.12769821185094,72.27962849874817,72.46775370623716,72.71903312840655,73.06589239641752,73.54877439698086,74.22028411753156,75.15222376980321,76.44830685747546,78.26918731748782,80.8880152995144,84.83828577857892,91.4532063593025,107.09422276028937,134.92756700410388,177.82636118262076,237.83643108663534,316.12818937065566,412.97694185435444,527.8355094170688
IN2,0.0,0.0,0.0,0.10160533739039566,0.3511796859709345,0.7658955104280061,1.3479403817945763,2.092112163872168,2.9897972131362898,4.031001406731326,5.205352304981256,6.502570042676284,7.912672076761718,9.426050186108842,11.033490052633896,12.72616783885538,14.49563965286415,16.333830530753417,18.233025147324877,20.18586051439918,22.185320187781766,24.224729329282503,26.297750032110763,28.39837645852548,30.520929486588667,32.660050690116755,34.810695574712945,36.96812606424564,39.12790228070759,41.28587369107817,43.438169712194735,45.58118987248725,47.71159363067727,49.82628994839048,51.922426636613466,53.997379741138914,56.04874290619987,58.07431679822879,60.072098653707165,62.0402720030484,63.97719661324025,65.8813986842742,67.75156132768186,69.58651534956158,71.3852303552101,73.14680618781343,74.87046470955362,76.55554192990991,78.20148048283309,79.80782245180947,81.37420253956512,82.90389331003396,84.40261385658734,85.87795146224606,87.33917307143204,88.7973163444715,90.26552564378697,91.75965981874882,93.29926661441645,94.90911951617423,96.62169561509029,98.48134793849115,100.55177954333347,102.93061416205232,105.7813952027959,109.41777042030601,114.60683390952639,124.91580655268946,142.3166772984565,168.6991426868004,205.5684160957901,253.99681772102153,314.58998580322526,387.50359867946264
D2,0.0,0.0,0.0,0.0,0.008615989750340834,0.03799358626481882,0.10117201811718404,0.21077736528441396,0.3784211827964715,0.6144642725262058,0.9279631730214766,1.3267034921023968,1.8172709612354256,2.4051359054030814,3.094739709243396,3.8895783626416223,4.792281317161828,5.804685312925806,6.927903411017686,8.162389640240079,9.507999667343283,10.964047837743077,12.52936085993858,14.202328341915432,15.980950337988915,17.862882029698905,19.84547564203298,21.925819683411717,24.10077559175165,26.367011867263287,28.721035773716057,31.15922269245232,33.67784321658091,36.273088075940336,38.94109098621995,41.67794951181825,44.47974404923486,47.342555026619735,50.2624784166157,53.23563965960264,56.25820609346019,59.326397984293116,62.43649825036897,65.58486096890817,68.76791875242584,71.98218907812243,75.22427965041902,78.49089287318736,81.77882950458364,85.0849915637015,88.40638455455088,91.74011906917804,95.08371301004057,98.4352787526895,101.7936527376645,105.15850331810861,108.53044164329889,111.91115625318018,115.30359337369889,118.7122119285103,122.1433575543383,125.60582997873308,129.11177859545936,132.67819116761436,136.32955017261955,140.1030808963107,144.06089685638014,148.3273074327683,153.32339169097858,159.61793752298567,167.91376768917408,179.00914537393058,193.75693502852712,213.02284447744867
R2,0.0,0.0,0.0,1.2325679505586176,4.1781106458678465,8.943054445728226,15.460386614608208,23.59258819383023,33.18221523890541,44.07506858409214,56.12946352191745,69.21877547148554,83.23097859237019,98.06703715490396,113.63903247347288,129.86840773394633,146.68446623506603,164.02314394541594,181.8260295978979,200.0395903528841,218.61456057809855,237.5054566243306,256.67018738143565,276.0697370168847,295.66790194096313,315.43106856817167,335.328021944841,355.3297779579649,375.40943380740185,395.54203287035176,415.70444114237733,435.8752332043055,456.0345862161652,476.1641808356023,496.2471073793949,516.2677788725307,536.2118487614412,556.0661331369467,575.8185372507628,595.4579861057512,614.974358913961,634.3584272329281,653.6017966049508,672.6968515352544,691.6367036534618,710.4151429093383,729.0265916589884,747.4660615020967,765.7291127347706,783.8118162863226,801.7107180120821,819.4658910648764,837.1436598793928,854.8283292558718,872.6193935804706,890.6324195691977,909.0028988595394,927.8932004256545,947.5035975003573,968.089530767917,989.9893762608474,1013.6713004066771,1039.8176582435572,1069.4908598004477,1104.501329958683,1148.3871811310962,1209.9936603544884,1331.6172610444087,1533.5382325874084,1834.2371421365544,2246.984357978538,2779.7014838026657,3434.946103737058,4210.452936600639
G2,0.0,0.0,2.5401334347598916,6.551054570407443,11.448076496847559,16.91342637887505,22.77372558264607,28.93244262197838,35.33320960932303,41.94023510004299,48.728057759286045,55.6763266707516,62.76723835404954,69.98434588916106,77.3120544439315,84.73544405937439,92.24023627035415,99.81281421953344,107.44025424593522,115.11035133543146,122.81163265357154,130.5333587462786,138.2655141313569,145.99878960354616,153.7245584989992,161.43484883544377,169.12231285971453,176.7801951786467,184.4023003511167,191.98296058175987,199.5170039739157,206.9997236609564,214.426848031797,221.79451041287223,229.09922439112114,236.33785743640914,243.50760620634486,250.60597333498495,257.63074560277346,264.57997342014414,271.4519515683493,278.24520114344733,284.9584526490583,291.5906301827868,298.1408366608891,304.608340026004,310.9925603835472,317.2930580135847,323.50952220655614,329.64176087301854,335.77848419906576,341.9897686919527,348.33882982198924,354.8900620675824,361.7155027739577,368.90128210233195,376.55549859874674,384.8193086606448,393.88405312548406,404.01960132712156,415.62446134839706,429.3213406626769,446.1578229371248,468.08732065731704,499.37283637923684,552.3260075016598,699.3253628145349,911.477058563651,1192.9175418554355,1540.0316065605602,1946.8675588367378,2405.3434067331855,2906.3937788959934,3440.7139748728223
H2,114442.6054757095,121254.66532545412,127466.1123459228,133159.59767139438,138372.63297399232,143140.0457286365,147494.1709936683,151465.0294922551,155080.49297309664,158366.4377590617,161346.88732748147,164044.14470555942,166478.91540839625,168670.42159516414,170636.50807071195,172393.74071507715,173957.49788177482,175342.05526710028,176560.66471680798,177625.62740321725,178548.36177486362,179339.4666520915,180008.77981531242,180565.4324078876,181017.89945259594,181374.0467592945,181641.17448154875,181826.05756159825,181934.98328592457,181973.78615781272,181947.8802785552,181862.28941525766,181721.67492049458,181530.36165725972,181292.36207169516,181011.39854590571,180690.92415371523,180334.14193344468,179944.02278364493,179523.32208014876,179074.59510578171,178600.2113775467,178102.36795003864,177583.10176822077,177044.30113746965,176487.71637394564,175914.9696938419,175327.56439588196,164570.36387946055,154039.10307182424,143746.95968227417,133707.50012444635,123934.75915808008,114443.30856252836,105248.30975436264,96365.54333012448,87811.40611841036,79602.86346616794,71757.34126803016,64292.53896351589,57226.14195906066,50575.41069446213,44356.62543229743,38584.372942954666,33270.67606524578,32173.55851594737,32037.854560422424,31902.16145585521,31766.535874157213,31631.02996349972,31495.69167635246,31360.565074035065,31225.69060945975,31091.10538962355
S3,3002606.385516594,2989448.562850158,2977118.0863445327,2965541.4223579713,2954656.1793149835,2944405.4073317125,2934736.796350495,2925602.1263137297,2916956.858895894,2908759.8123051845,2900972.887807205,2893560.8308832985,2886491.017473589,2879733.259766174,2873259.6281483932,2867044.287108953,2861063.343531539,2855294.7061943486,2849717.9555143244,2844314.2227179985,2839066.077719031,2833957.425055229,2828973.4072954664,2824100.315375159,2819325.505360922,2814637.321182511,2810025.0229041004,2805478.7201380865,2800989.3102332293,2796548.4208954433,2792148.3569240496,2787781.979431923,2783442.8822088675,2779125.110563624,2774823.2137267273,2770532.2057039724,2766247.530136512,2761965.0282091107,2757680.9090943006,2753391.7226219987,2749094.333958702,2744785.900127542,2740463.848226483,2736125.8552182787,2731769.8291775514,2727393.8918897216,2722996.3627045853,2718575.7435545134,2732181.0135772363,2746490.2993909554,2761542.0238388362,2777378.544519363,2794046.4414365184,2811596.7712460128,2830085.264430632,2849572.4285933124,2870123.5032528215,2891808.185829386,2914700.0082133333,2938875.1716551273,2964410.4958893866,2991379.7422101498,3019846.2736836458,3049844.475334257,3081307.1676003723,3080947.308267823,3072206.6192062935,3063038.8490196913,3053537.96433261,3043732.5312735187,3033669.0713596735,3023388.625006004,3012928.901792664,3002323.800237428
E3,0.0,51.278711994983354,78.25279743372755,92.32748141946502,99.54533714360412,103.11270951043925,104.73272865719628,105.31060203463686,105.32752744020173,105.03923457905712,104.58153591264788,104.02649076343273,103.41230618896311,102.75925682196151,102.07815630648906,101.37485885873093,100.65264492073209,99.9134796871754,99.15867204534517,98.38921537668435,97.60596029148057,96.80969921181024,96.00120525674885,95.18124789247719,94.350597154928,93.51002258656428,92.6602900270093,91.80215781630488,90.93637314480361,90.06366885992777,89.18476082774009,88.30034584555514,87.4110791656345,86.51762422567651,85.62061585072632,84.72066348604591,83.81835245772238,82.91424453486104,82.00887829841855,81.10276950423089,80.19641149967214,79.29027570385364,78.38481214379742,77.48045003420586,76.5775983883839,75.67664664935158,74.77796533200312,73.88190666888931,72.98880525369289,73.16148893276004,74.18937989383016,76.00158662058817,78.62392978197853,82.1617823518068,86.80195984706214,92.83268228026726,100.68660094205316,111.02081486454156,124.86524558853938,143.91067092087152,171.11093510791326,212.07783510402408,278.80622488158866,401.95810419202616,688.660775981358,1940.4566023027521,2814.042539451082,3745.185334550412,4631.132631700078,5440.824497593112,6145.545220647325,6731.642027179677,7195.261439260688,7539.495757132726
I3,0.0,0.0,4.354514459588384,10.508838844785098,17.164720738937117,23.68335837619426,29.770226549484768,35.30862289489923,40.27186730656601,44.677149376963804,48.561437484818704,51.96906635877373,54.945493002595995,57.534295519638064,59.775862085084505,61.70694706428783,63.3606594263887,64.7666550501026,65.95141422730163,66.9385438458294,67.74907445413497,68.40173851259112,68.91322446619772,69.29840548321859,69.57054374202406,69.74147205165956,69.82175491195285,69.82083114824991,69.74714014759583,69.60823355706864,69.41087412160076,69.16112315789034,68.86441799200509,68.52563876045758,68.14917190527616,67.73896338780345,67.29856617938034,66.8311825064773,66.33970138218277,65.82673193889603,65.29463303497171,64.74553955982687,64.18138581501803,63.60392630560411,63.014754237380075,62.41531798119459,61.80693573519299,61.190808589032656,60.568032170489786,59.93960703403805,59.39667477506254,59.00222259540198,58.80611850093691,58.85480260558562,59.19842895101501,59.8973628991867,61.02964135408957,62.70124592587085,65.06201310545222,68.33235099970175,72.85140427693634,79.17092933737945,88.25704069335852,101.98554932571068,124.62461936530362,169.05845321348272,314.7849190802241,518.2704408998288,777.8927301462768,1083.4867616744793,1423.3956297874188,1784.837763728859,2155.3128099662654,2523.4020787306413
A3,0.0,0.0,11.029099138906622,25.746849745933908,40.672151859745114,54.29046592270702,66.06703572381471,75.93586623912378,84.03829920459573,90.59209457974002,95.82829621235528,99.96289491527027,103.18600023562472,105.65951783807371,107.51869592098456,108.87519741625725,109.82055181403102,110.42945879076167,110.76272960834544,110.86980672073568,110.79087397011439,110.55859966010586,110.19956388027143,109.73542074482947,109.1838413337458,108.55927689177429,107.87357558384377,107.13648040111998,106.35603086076584,105.53888696230604,104.69059039307157,103.81577512398259,102.91833721007316,102.00156722610595,101.0682680260511,100.12084202741715,99.16136246883129,98.19163128710417,97.21322602702529,96.22753784342882,95.23580230083954,94.23912436208543,93.23849869283139,92.23482619145645,91.2289274768068,90.22155392334005,89.21339671787824,88.20509431936927,87.19723862839021,86.19038011308636,85.41355832401754,85.00664164511669,85.06745478739198,85.68063458343904,86.93726676785008,88.95116726490782,91.87633772483217,95.93033116090109,101.43035121399421,108.85434811680821,118.95236050386916,132.96605039801125,153.1061934547227,183.7398916043089,234.99241695163693,338.0903191145525,690.6745962873771,1163.6022960947034,1746.197232115082,2407.7284554225153,3116.6720895811,3841.367439630834,4553.28296236486,5228.524424724719
IH3,0.0,0.0,0.0,0.31661002998167237,1.0627551251775271,2.2505690404537906,3.84505184663006,5.791771932332459,8.030896058621867,10.504040747726776,13.157379850297351,15.94282445188659,18.818233447099757,21.74715818739803,24.69838338409052,27.64539869696084,30.565867984131497,33.44112777718338,36.255728150566725,38.997019778212255,41.65478635516679,44.22091944213077,46.68913196169829,49.05470639864069,51.3142738962039,53.465620720267935,55.50751889291398,57.43957813125132,59.26211654485322,60.97604783678865,62.58278301627521,64.08414486578324,65.48229361378249,66.77966244859265,67.97890154246109,69.08282986337767,70.09439358590598,71.01663031106919,71.85263838480418,72.60555068342147,73.27851230772166,73.87466169342242,74.39711470430812,74.84895132652507,75.23320462837025,75.55285169042752,75.8108062466186,76.00991280821707,76.15294207062354,76.2425874271598,76.28146243569853,76.27865935749668,76.2473350677244,76.20352691331705,76.16574029377988,76.15507887677029,76.1958398521891,76.31661788557174,76.55209347700824,76.94587681146965,77.55513303393516,78.45844749558847,79.77007094247713,81.66802636390817,84.45663883935049,88.73332466896102,95.99844622948679,113.44753580549863,144.7032302842655,193.06498538287155,260.90625507695586,349.6184784653602,459.584939523558,590.2583272682888
IN3,0.0,0.0,0.0,0.17418057838353537,0.5927923263911039,1.2734532326846777,2.2080530354056016,3.3767815670309362,4.755358667156596,6.318679772747671,8.042578950098747,9.904610659990508,11.884327207741553,13.963303655767977,16.12504243999582,18.35482649899924,20.639556116580764,22.967586932470503,25.328577265149903,27.71334806159047,30.11375633480774,32.52258174962506,34.93342547263246,37.34062019655404,39.73915021391724,42.12458046145903,44.492993538910824,46.84093379999983,49.16535770792983,51.463589736754365,53.73328318166957,55.9723853147169,58.17910638788535,60.351892043686696,62.489398673668134,64.5904715631425,66.65412538302321,68.67952677636819,70.6659788088636,72.61290707606227,74.51984728285748,76.38643413142778,78.21239137250657,79.99752289138223,81.74170471469257,83.44487783704085,85.10704177791823,86.72824878954677,88.30859864521261,89.84823394558008,91.3473358874858,92.80972951961344,94.24172112823338,95.65154865698852,97.04922527464207,98.44667017993625,99.85809799410436,101.30070266832689,102.79574547867846,104.37026854810976,106.05985990261674,107.91331747466802,110.00102147341651,112.43129288641668,115.38640193058094,119.21752268588727,124.78768558756771,136.131205494901,155.50071107594513,185.06141317103675,226.55026950630554,281.22059200273924,349.8018966318662,432.51639006419816
D3,0.0,0.0,0.0,0.0,0.014770268143441423,0.06434917178903153,0.16934113368219839,0.3487177845212389,0.6189114498045538,0.9935631569056154,1.4835902683099524,2.097399086891141,2.841152505352997,3.719047479228686,4.7335805873690076,5.885792174960382,7.175485845467582,8.601423192394929,10.161495134261958,11.852871830542197,13.672133333257783,15.615383090567093,17.678346281428745,19.856454784493934,22.144920400215764,24.53879776751459,27.033038251745644,29.622535931503105,32.30216667817859,35.06682120338749,37.91143284417731,40.83100076300384,43.82060915748697,46.875443002703804,49.99080078511934,53.162104625167856,56.38490815179301,59.65490243679935,62.96792026001506,66.31993894312097,69.7070819605372,73.12561950971141,76.57196820018414,80.04269000057882,83.53449056486343,87.04421704357212,90.56885547190578,94.10552781452822,97.65148873623988,101.20412215837177,104.7609376525433,108.31956671623513,111.87806501269678,115.43510199045237,118.9900952610408,122.54332573686614,126.09605884377353,129.6506935029999,133.21096261398068,136.7822169664175,140.37184182164842,143.989889269096,147.65007750664188,151.3714546775102,155.18137392804815,159.12138556388675,163.26091013515654,167.7393620409453,173.0318365849668,179.7824297757273,188.78916150617718,200.96077637261348,217.2709314082398,238.71116434035255
R3,0.0,0.0,0.0,2.112973629529058,7.05050693605847,14.859102653705229,25.29540296164845,38.01316942991702,52.65277777147097,68.88084105619237,86.40485629811336,104.97580436497552,124.38534066840255,144.46091624340005,165.06045155257056,186.06730101057613,207.3857993330614,228.93746225296752,250.65781351640757,272.49376927872675,294.4014996811604,316.3446897610663,338.2931299174007,360.22157594891723,382.1088283382903,403.93698917820006,425.6908626674777,447.3574714428234,468.9256662605157,490.3858108469749,511.729527244464,532.9494898242035,554.0392584420139,574.9931430713906,595.8060928880644,616.4736071089495,636.991661852738,657.3566500411704,677.565331856556,697.6147937240429,717.5024141733142,737.2258352536694,756.7829384364511,776.1718241488919,795.3907942525872,814.4383369156403,833.3131134365071,852.013946664928,870.5398107353327,888.8898218841605,907.0632301674168,925.1031933765097,943.0797946995666,961.082053381361,979.2154462883578,997.6031858331371,1016.3906197058958,1035.75298461383,1055.907654327749,1077.1333324509178,1099.8009956306803,1124.426241727317,1151.7638221626505,1182.9938788398892,1220.1360739404315,1267.1547525029887,1334.0061811207725,1468.5346599400323,1693.955360434497,2031.4968447244264,2496.554833971033,3098.526755422782,3840.7708738823017,4721.1904604270985
G3,0.0,0.0,4.354514459588384,10.999629453150305,18.839946364732842,27.2931932017211,36.04937616853335,44.943128830934945,53.88595366929374,62.83021578874637,71.749996493132,80.63091008515318,89.46469004152027,98.24631432731114,106.97248260024989,115.6408127971592,124.24941998647904,132.79669780706902,141.28120677929437,149.70161857234564,158.05668921193663,166.34524695638314,174.56618735534386,182.7184716106372,190.80112626604287,198.81324325568423,206.75397986212369,214.6225584019228,222.4182655887886,230.14045158675813,237.78852879221725,245.36197039186817,252.86030874343874,260.28313184773623,267.630084043743,274.90086357887105,282.09522045374734,289.21295437404814,296.25391275007405,303.2179887276459,310.105119249828,316.9152831540342,323.64849930991113,330.30482480275265,336.88435316614783,343.3872126665072,349.8135646411824,356.16360189111685,362.4375471283356,368.6356514780779,374.84841987744574,381.14847529863465,387.60242070825,394.27905172696165,401.2561120967989,408.62720966476473,416.51042750672894,425.0605888238047,434.48831672169393,445.09169376182984,457.31238092486365,471.8428753958245,489.8522200846891,513.5280436464998,547.6617476487405,606.1418301253743,770.9226134991402,1009.8870580260494,1327.922809289334,1721.191930615597,2183.2189204738784,2705.0897804124256,3276.7311380774636,3887.7423893125692
H3,343327.81642712845,341829.16326018464,340424.0948202242,339104.6810817928,337864.04204505635,336695.8016110379,335594.0514277154,334553.3173205043,333568.52812250314,332634.98673306673,331748.3432455181,330904.56999618025,330099.9383974687,329330.9974275898,328594.55365849275,327887.65271218045,327207.5620433299,326551.7549534661,325917.8957487003,325303.82595932786,324707.5515454194,324127.2310179559,323561.1644100931,323007.7830378103,322465.63999354147,321933.4013204119,321409.8378184477,320893.81743759813,320384.29821563716,319880.32172200596,319381.0069714394,318885.54477380303,318393.1924889649,317903.2691577532,317415.15098212025,316928.2671295513,316442.0958385421,315956.1608036223,315470.0278199426,314983.3016688674,314495.6232273429,314006.666785041,313516.13755442214,313023.76935992145,312529.32249344856,312032.58172430634,311533.35445248405,311031.46899506863,310526.7729962512,309898.22088651406,309149.5345585529,308284.5617667825,307307.27970592177,306221.79950787337,305032.37151867116,303743.39115785324,302359.40508070594,300885.1172540621,299325.39441344695,297685.27018938283,295969.9469730846,294184.7943430596,292335.3426127539,290427.2698223179,288466.38034692896,286458.5733210051,284454.43709709134,282465.3864850968,280491.2959007669,278532.0414810481,276587.5010158905,274657.55388452415,272742.08099589165,270840.9647329433
S4,1501303.192758297,1526247.5672470096,1551094.4091080013,1575844.7215042755,1600501.6140300499,1625069.1428008853,1649551.682148996,1673953.5998523496,1698279.094707506,1722532.120766379,1746716.3575562765,1770835.2043890287,1794891.7869788245,1818888.9700435842,1842829.3725105093,1866715.3835379223,1890549.1784249314,1914332.733943795,1938067.8428786949,1961756.1276872982,1985399.0532712364,2008997.9388773488,2032553.9691689175,2056068.204513645,2079541.5905374363,2102974.9669926316,2126369.0759875574,2149724.5696218475,2173042.0170693332,2196321.911147604,2219564.674410707,2242770.588539794,2265940.0357530615,2289073.251568051,2312170.425880949,2335231.7046599546,2358257.19270872,2381246.956756387,2404201.0285551334,2427119.4078534245,2450002.065195506,2472848.9445336154,2495659.9656547476,2518435.026430086,2541174.004897493,2563876.7611879725,2586543.1393068223,2609172.968779663,2649279.6097410186,2689365.252350699,2729418.756243375,2769427.23512789,2809375.9013973065,2849247.86845582,2889023.912001208,2928682.183234092,2968197.8531462275,3007542.6386767067,3046684.0975234876,3085584.424017433,3124198.075891003,3162466.3919853633,3200303.387710457,3237549.8602985404,3273765.004527207,3296965.5928043886,3317767.2135671033,3337290.4697391037,3355805.127354043,3373418.1163298003,3390279.254944318,3406522.400179145,3422269.288695672,3437628.0587826413
E4,0.0,76.91806799247506,118.71916286228198,141.79548290709496,154.91853107560073,162.77043709640634,167.84040368780603,171.44390138232885,174.27017754226972,176.6759731611,178.84270992751283,180.86030079346995,182.77159676482077,184.5957765682107,186.34051908627697,188.00823593872434,189.59918535811784,191.1129684144529,192.54920097438125,193.90777682352208,195.18893657543742,196.39325109038296,197.5215728563237,198.57498036582737,199.5547262276184,200.46219280004715,201.29885593672003,202.066256110117,202.76597575306567,203.399621635674,203.9688112324796,204.4751622158448,204.92023344527314,205.30564173036686,205.63297084044098,205.90377663622223,206.11958794263143,206.28190601039248,206.39220368921872,206.4519247195931,206.46248326163735,206.4252636693487,206.34162048105543,206.21287858804413,206.04033354483823,205.82525198927812,205.56887214567715,205.272404388984,204.93703185185308,207.6549776759324,212.85382279624284,220.36479906683516,230.30546913099465,243.03538515220524,259.16755304695334,279.6349455504823,305.8292494018024,339.85692699107517,385.0129943138876,446.70010856907606,534.3496459508317,665.8707797801914,879.5304753721733,1273.1247277843227,2188.2587111729576,6180.236289578419,8999.534882176005,12051.452070496009,15004.292464784168,17753.140591298423,20197.497234342096,22284.389906513305,23992.413422569713,25323.233700366753
I4,0.0,0.0,6.531771689382579,15.877046312828929,26.128637351107788,36.3391777487735,46.065676451424544,55.126450757321905,63.47200300716733,71.11694424103977,78.1045326432303,84.48855690363335,90.32437855041196,95.6647582450559,100.55813870615478,105.04815482787141,109.17372827402598,112.96941583647995,116.46584558782216,119.69016093776911,122.66643698462154,125.41605579204156,127.95803796090723,130.30933270156063,132.48507048902596,134.49878283555563,136.36259352540966,138.08738521718902,139.6829448165362,141.15809053997341,142.5207831610461,143.77822356040303,144.93693838895172,146.0028510649492,146.98135468446273,147.87736898743208,148.69539133895142,149.43954203864502,150.11360447757355,150.72106069890575,151.26512289046047,151.7487612877653,152.17472891303285,152.54558352503477,152.8637071093589,153.1313231982979,153.3505122743127,153.5232254801225,153.65129683145958,153.73645410489496,154.0428174830775,154.75612956665813,156.02686664607097,157.9985283117061,160.8289731889707,164.71032348171815,169.89227429915468,176.7145580358294,185.65749412818684,197.42707396838622,213.10850362544357,234.46557616578477,264.58411149634804,309.451707170477,382.6858030799306,525.3776584693678,990.9799285324165,1643.515665878017,2481.669524266982,3476.107312742782,4591.891780654596,5789.489152153881,7029.323094860651,8274.460166235178
A4,0.0,0.0,16.54364870835994,38.908476586756784,61.95190069397587,83.40315037409601,102.43353228471247,118.90849686907421,133.0022050984693,145.00369620232016,155.22336314739118,163.95115372409387,171.44080563752456,177.9066615463191,183.5261249650017,188.44426372524342,192.77887201066187,196.62523233524283,200.06028702394406,203.14615503988523,205.93303164450998,208.46154735694864,210.76467141360266,212.86924010265344,214.79718033414065,216.56648763615584,218.1920072424395,219.68605774024167,221.05892902788742,222.31927999935425,223.47445624936478,224.53074397982274,225.49357300264512,226.36766815886256,227.15719684213508,227.8658686891179,228.49701727471003,229.05366634370722,229.53858323788364,229.95432190959013,230.3032575424087,230.58761443779173,230.80948851057357,230.97086547270098,231.07363556956184,231.1196055598383,231.11050849059043,231.04801170783227,230.93372345376895,230.76919833069334,231.22077290892292,232.70400914590707,235.51855603470693,239.93194084549717,246.2377705141381,254.80524845311203,266.1335105732001,280.9253934615612,300.20214403385717,325.4980537594423,359.2154832122524,405.3250585874789,470.8886374993876,569.8456687783649,734.4991611599353,1064.4363901018835,2189.7639617387476,3705.8781540852824,5587.9433418171575,7744.54042951808,10079.199177029182,12492.315761509519,14891.975231639977,17199.26800125649
IH4,0.0,0.0,0.0,0.47491504497250875,1.6024060410596483,3.411400583686831,5.860305885127308,8.877676246673566,12.382903592007821,16.29634749832023,20.543941622134696,25.05896081016256,29.78237086818641,34.662507216907784,39.65446828870865,44.71941844330828,49.8238947556212,54.93915995277117,60.040617336662564,65.10729056393521,70.12136518371489,75.06778642011649,79.93390702668525,84.70917919841816,89.38488502807452,93.95390060265684,98.41048944345464,102.75012155236325,106.96931482286192,111.06549600509017,115.03687878604859,118.8823568652496,122.60141018048714,126.19402267447376,129.6606098821934,133.00195592173154,136.2191581965709,139.31357893734426,142.28680278318453,145.14059968589297,147.876892501196,150.49772870577357,153.0052557453425,155.4016995780362,157.68934602927064,159.87052461998837,161.94759457035545,163.92293271632946,165.79892310760886,167.57794808284274,169.26238064207834,170.8736631229386,172.44552818484155,174.02073838732414,175.65006736940074,177.39289003481932,179.31918653121008,181.51312748642604,184.0788165715956,187.14938313536857,190.90174612149977,195.58170544580244,201.54937881376262,209.36884800211575,220.00758780691285,235.36836737448962,260.2338435943308,317.5438812814331,419.0520980700481,575.7506171295255,795.8759998291375,1084.6579620563,1444.1555096517395,1873.4334690222968
IN4,0.0,0.0,0.0,0.26127086757530316,0.8937400114127073,1.9299481053428917,3.3642157342404033,5.173200634954981,7.326526658898308,9.792141512596018,12.538897867111649,15.537690194169745,18.76185556837338,22.187212154706124,25.7919303629613,29.556336607577876,33.46269943461695,37.49502157123182,41.638847988978696,45.88109333260179,50.20988883678654,54.61444742780353,59.08494518520716,63.61241725179138,68.18866638733589,72.80618254302357,77.45807203101556,82.13799505172179,86.84011050989213,91.55902719745465,96.28976054707904,101.0276942680501,105.76854626778572,110.50833834066593,115.24336899985724,119.97018949723717,124.68558236176209,129.38654219170252,134.07025845133128,138.7341000459209,143.37560147341793,147.99245037430217,152.58247632206977,157.1436407153704,161.6740276492181,166.17183565710027,170.6353702284612,175.0630370171491,179.4533356661825,183.80485418277908,188.1162638051471,192.39681386641874,196.6630909104209,200.93753466715953,205.24810045295618,209.62877837598543,214.1209035314943,218.77538546814554,223.65621393489727,228.84595156067576,234.45457500380445,240.63436939878414,247.60664875142768,255.71394672376732,265.53487554334873,278.18695891111247,296.4201956607761,333.09519084546497,395.504865572131,490.81659788708896,624.9527244179294,802.3788683999339,1025.9346458020898,1296.8482231384949
D4,0.0,0.0,0.0,0.0,0.022155402215162143,0.09690972033481073,0.2560559778575552,0.5294468408410455,0.9436019409230603,1.5212804385339127,2.2815261651864263,3.2399276614994195,4.408960653232236,5.798346844490913,7.415397719813272,9.265330047426918,11.351548862619408,13.675898111863754,16.23888111061721,19.03985370649991,22.077193173534305,25.348445718526644,28.850455223481035,32.57947555996691,36.531268530783066,40.70118923705939,45.08426044015367,49.67523728725885,54.46866359528661,59.45892073636749,64.64027003719181,70.00688949063384,75.55290547921663,81.27242012388746,87.15953479650032,93.20837025415467,99.41308383407464,105.76788406877878,112.26704304060978,118.90490675737914,125.6759037974433,132.57455244286987,139.59546649316655,146.7333599289663,153.98305057473326,161.33946289164902,168.79763001606568,176.35269514501297,183.99991235799783,191.7346469535347,199.55237536932296,207.44868474658895,215.42016253939286,223.46496987406553,231.58326280574946,239.77756604563666,248.05317422111352,256.41864662412956,264.88646921548707,273.4739845271379,282.2047457476496,291.11055956355733,300.23469954596186,309.63723922354455,319.4045672707757,329.6682063149587,340.6484456295707,352.78869162907097,367.6025251456762,387.15184850389267,414.0113608170283,451.14000745872306,501.74070682512547,569.1124326027935
R4,0.0,0.0,0.0,3.169460444293588,10.630974628784424,22.524786919001762,38.55671824679543,58.273354337633805,81.19455580373237,106.87243947106901,134.91337986715484,164.98216499690398,196.79817325077536,230.1285375504703,264.7806964857736,300.5954086028685,337.4406396983683,375.2064108357595,413.8005501196602,453.145235879308,493.17420668388866,533.8305207642502,575.0647619969186,616.8336058493086,659.0986740040872,701.8256197872815,744.9833977992739,788.5436804139883,832.4803913233337,876.7693323434777,921.3878845316896,966.3147685180045,1011.5298520278309,1057.0139950176601,1102.7489226944604,1148.717125802068,1194.901779136539,1241.2866749452198,1287.8561683379326,1334.595132337592,1381.4889206462326,1428.5233365811475,1475.6846069462695,1522.9593598546628,1570.334605719042,1617.7977207877623,1665.3364327316342,1712.9388078886766,1760.5932398548005,1808.2884391726293,1856.013423921605,1903.8848805205153,1952.099416373644,2000.9115493426232,2050.627702642822,2101.6113364968514,2154.297577397095,2209.218290297717,2267.041341587107,2328.6319308142865,2395.15135662537,2468.224034959862,2550.239061948439,2644.9442707687094,2758.7671041413723,2904.3391311823507,3113.401224071847,3538.486480161222,4254.971330157298,5333.664618683175,6828.042559106198,8773.241020578342,11185.41055533111,14063.141478626352
G4,0.0,0.0,6.531771689382579,16.61323222537674,28.654300664920783,41.80975947778823,55.63199085519031,69.88475650252568,84.44352599054699,99.24229878454946,114.24536828183177,129.43243394852624,144.79083052930847,160.3115316146308,175.98713942482422,191.8109082598874,207.7762972110953,223.87678729846087,240.10582566543485,256.4568268354167,272.9231963122333,289.49836003226926,306.17579240854093,322.9490402461162,339.81174193410067,356.7576422313308,373.7806032845257,390.8746125677698,408.0337883698546,425.25238335749106,442.5247866419963,459.8455246882986,477.20926133173623,494.6107927837541,512.0450525529428,529.5071086393051,546.9921611642984,564.4955400749933,582.0127028025123,599.5392318502571,617.0708323219942,634.6033294099335,652.132665863635,669.6548994581051,687.1662004762123,704.6628492174519,722.1412335423822,739.5978464597894,757.0292837617588,774.4322417102994,792.06600370853,810.1412441559809,828.8543059039963,848.411515054478,869.0497303618446,891.0578661611506,914.8040634900717,940.7746434222568,969.6348047874387,1002.3295544339053,1040.2626850876948,1085.6388883744792,1142.1836771564965,1216.8721399445528,1324.984060472875,1510.8078424753382,2035.6246180853595,2799.8521746948027,3823.244148836923,5097.387081681797,6604.958243287366,8320.100654879983,10212.458990255313,12249.86022566901
H4,171663.90821356422,174524.97335045697,177373.54971095853,180210.41716779373,183036.289510142,185851.8231938508,188657.62154060946,191454.23863584042,194242.1829468446,197021.9206811988,199793.87890397434,202558.44843102034,205315.98651432185,208066.81933430076,210811.244312864,213549.5322600181,216281.92936595294,219008.65904964737,221729.9236742596,224445.9061388321,227156.77135515984,229862.66761803834,232563.7278765213,235260.07091327207,237951.80243858715,240639.0161052,243321.79444953674,246000.20976469046,248674.32491000378,251344.19406180075,254009.86340948413,256671.37180091278,259328.75134069446,261982.02794476916,264631.2218544171,267276.34811260144,269917.41700534767,272554.43447066884,275187.4024773657,277816.3193758652,280441.18022310577,283061.97708333365,285678.69930654234,288291.33378616255,290899.8651974952,293504.27621827397,296104.5477326432,298700.6590197472,283779.04435994604,268984.59919839876,254332.94710910998,239841.5729985158,225530.00795206905,211420.02022047757,197535.80589616517,183904.16932103725,170554.67853276044,157519.77487182294,144834.8081095176,132537.9592368106,120670.00297284895,109273.85251824989,98393.82272044843,88074.54884852104,78359.5124352052,78429.47810008428,80816.63287775932,83187.08652023508,85540.96474094423,87878.39220678394,90199.49255245934,92504.38839425844,94793.20134329614,97066.05201826191
E_Om,0.0,0.0,0.0,0.0,0.0,0.0,0.0,0.0,0.0,0.0,0.0,0.0,0.0,0.0,0.0,0.0,0.0,0.0,0.0,0.0,0.0,0.0,0.0,0.0,0.0,0.0,0.0,0.0,0.0,0.0,0.0,0.3332734734074611,0.5279040472916736,0.6630504800259168,0.773950607280533,0.8765392443510474,0.9782538233593812,1.0827859108123643,1.192175313324637,1.307735997764971,1.4304676586768044,1.5612403990719284,1.7008790994365142,1.8502032972698232,2.0100472425586986,2.1812710542883322,2.3647678339860443,2.5614689065964313,2.772348167659035,3.051934110394252,3.400876970116526,3.8300594341927425,4.359185192208489,5.017997550401931,5.849911259130262,6.918801124909374,8.32094713694519,10.206429406689118,12.819225921878985,16.57719349143568,22.24491139941339,31.34844577058465,47.32394926814122,79.44646010871168,161.9989618547355,566.7104405604387,956.5093539440891,1591.1274093533666,2358.168005559485,3284.310100527889,4341.653119703905,5506.940726091963,6754.199780017699,8057.261309969992
I_Om,0.0,0.0,0.0,0.0,0.0,0.0,0.0,0.0,0.0,0.0,0.0,0.0,0.0,0.0,0.0,0.0,0.0,0.0,0.0,0.0,0.0,0.0,0.0,0.0,0.0,0.0,0.0,0.0,0.0,0.0,1.0,0.8872915423935461,0.8155873851600974,0.7684926412558883,0.7381823139618358,0.7207056961863028,0.7139105205335055,0.716518674383446,0.7277095817357159,0.7469283698887714,0.773794285163818,0.8080543806645217,0.8495581066452328,0.8982419292542438,0.9541190693878344,1.0172721011442936,1.0878473318896178,1.166050419809245,1.2521429304463463,1.3464396505034562,1.4538503687659194,1.5787867163454687,1.7260872383724517,1.901718343994905,2.1134997363691523,2.37205649011923,2.6922403007835105,3.0954049103906316,3.613241900819371,4.294589204398871,5.218264104570732,6.519127483302599,8.446431600675375,11.513129020327879,16.961981117093064,28.806941197061143,73.68439070129418,146.60493510005068,265.19756979642955,435.5597956155855,665.3674122028893,959.0618150078176,1318.6089219650567,1743.5474737715986
A_Om,0.0,0.0,0.0,0.0,0.0,0.0,0.0,0.0,0.0,0.0,0.0,0.0,0.0,0.0,0.0,0.0,0.0,0.0,0.0,0.0,0.0,0.0,0.0,0.0,0.0,0.0,0.0,0.0,0.0,0.0,0.0,0.0,0.07168093806525885,0.17149054352452056,0.2812459436439103,0.39382677585393905,0.5069040917896279,0.6201947805864529,0.7342639576768312,0.8500071972553892,0.9684311077688691,1.0905644656408702,1.2174260955599814,1.3500170505242919,1.489322867394867,1.6363197038867423,1.7919816993830988,1.957288455543329,2.133232210978412,2.3208245763869666,2.5326114231236727,2.7788749166516302,3.0702680116856644,3.4196406496008582,3.843778191171296,4.3655879360745935,5.017326849702107,5.845780091557174,6.921049086723487,8.352280246227062,10.31758276899562,13.125390201999005,17.353274364387538,24.207207538427436,36.65700834058767,64.47716588979782,174.01341719880958,346.4030376103507,622.260524671559,1010.2449585262872,1523.0946466275268,2165.1065740444533,2934.7524957010883,3825.2106100775986
R_Om,0.0,0.0,0.0,0.0,0.0,0.0,0.0,0.0,0.0,0.0,0.0,0.0,0.0,0.0,0.0,0.0,0.0,0.0,0.0,0.0,0.0,0.0,0.0,0.0,0.0,0.0,0.0,0.0,0.0,0.0,0.0,0.11270845760645387,0.21271371879688195,0.30463731502155744,0.39125293529941846,0.47445232533841997,0.5556819527437636,0.6361457063821159,0.716903421018095,0.7989224455609651,0.8831075900736316,0.970320750459134,1.0613953133659706,1.157147697213014,1.2583871596167049,1.365924448300313,1.480579617786363,1.6031892126749379,1.7346129569829956,1.8757400553764287,2.0274951916448463,2.191356424299027,2.369299039987883,2.5638436703190255,2.778183411672591,3.016392707110405,3.2837435354671216,3.5871817872743668,3.9360601003919387,4.343303021992301,4.827339547273426,5.415482045882716,6.150242849465596,7.102227127456128,8.399854141561386,10.311612871218742,13.558398781899315,21.86325280751352,38.386868920134496,68.27687797286997,117.3681507320849,192.36068550307016,300.4550634218475,449.07344120263787
G_Om,0.0,0.0,0.0,0.0,0.0,0.0,0.0,0.0,0.0,0.0,0.0,0.0,0.0,0.0,0.0,0.0,0.0,0.0,0.0,0.0,0.0,0.0,0.0,0.0,0.0,0.0,0.0,0.0,0.0,0.0,0.0,0.0,0.028301103956979476,0.07312995627744559,0.1294352492612541,0.1951580215247228,0.2695924732772692,0.3526643807655616,0.4446130027538107,0.5458508154497365,0.6569018752374494,0.7783751311236555,0.910953420011203,1.0553896264672575,1.2125062290045394,1.3831965494446066,1.5684269496759806,1.7692396324841828,1.986755887429342,2.222179705879885,2.481345560410766,2.770143140644496,3.0953862783603348,3.4655620143139307,3.891683148041743,4.388449197229635,4.975983836250633,5.682586697664998,6.549302001211309,7.6378922263911715,9.045603651844157,10.934609529185316,13.59667445014097,17.615356147784006,24.36183525865445,38.11855406827988,86.24278948319349,167.4681879075642,302.5844387165641,502.8366735884555,781.7355629349743,1150.4225005108876,1618.0639853869038,2191.6209149742363
beta,2.6702405122475676,2.670240512247553,2.6667701144812903,2.6639151574151,2.6613932286893047,2.659055857021422,2.6568246877841344,2.654658272574269,2.6525346524928257,2.6504421880468274,2.6483747161952094,2.6463289859851673,2.6443032974099414,2.6422967771615813,2.640308992257718,2.638339743306959,2.6363889535074194,2.6344566087986916,2.6325427254351395,2.6306473323182042,2.628770461316027,2.6269121419374737,2.6250723984038933,2.6232512480591472,2.621448700540115,2.619664757389391,2.617899411931622,2.616152649311981,2.6144244466371833,2.612714773182688,2.611023590643406,2.609350853412799,2.6076944476057795,2.606056615578456,2.604437058745162,2.602835597252533,2.6012520995498027,2.5996864516476075,2.598138543762386,2.5966082645808095,2.5950954988627593,2.5936001265028725,2.5921220222247863,2.5906610555439062,2.5892170908389245,2.5877899874613552,2.5863795998520773,2.584985777651374,2.583608365796578,2.694932858871789,2.820383980949096,2.962947973842164,3.1265106595625505,3.316223982396868,3.5390655118416112,3.8047210898567427,4.127031259472077,4.526470407766419,5.034631661815873,5.702896706442495,6.620657885268716,7.958035245949688,10.082155101056443,13.951489195436293,23.04628509738094,65.14908719174696,46.37882859141207,28.88294079111107,19.689024334571364,14.431769018943772,11.135175867342902,8.936168175571487,7.395628786016553,6.273435304787414
