series,2021-12-01,2021-12-02,2021-12-03,2021-12-04,2021-12-05,2021-12-06,2021-12-07,2021-12-08,2021-12-09,2021-12-10,2021-12-11,2021-12-12,2021-12-13,2021-12-14,2021-12-15,2021-12-16,2021-12-17,2021-12-18,2021-12-19,2021-12-20,2021-12-21,2021-12-22,2021-12-23,2021-12-24,2021-12-25,2021-12-26,2021-12-27,2021-12-28,2021-12-29,2021-12-30,2021-12-31,2022-01-01,2022-01-02,2022-01-03,2022-01-04,2022-01-05,2022-01-06,2022-01-07,2022-01-08,2022-01-09,2022-01-10,2022-01-11,2022-01-12,2022-01-13,2022-01-14,2022-01-15,2022-01-16,2022-01-17
S,538536.4860158236,538536.4860158236,538533.762912621,538532.0330129839,538530.4661918367,538528.834707778,538527.0670106849,538525.13156315,538523.0063828473,538520.6709481721,538518.1039596979,538515.2826374695,553777.8678347119,569039.9183400816,584301.3394957011,599561.9719649346,614821.5909678432,630079.8856918787,645336.4215208386,660590.5787420735,675841.4528467486,691087.687865464,706327.1876021938,721556.593698856,736770.294054245,751958.4233425087,757016.169205144,756836.9612712327,756577.9989820921,756199.3763524201,755648.7454688009,754852.4093989541,753709.3981505451,752085.3132423826,749808.4645071058,746671.7006801732,742444.1251954851,736895.5211798707,729831.6908905105,721132.3793077812,710779.5130887395,698866.1650610515,685584.6288180273,671199.5875494824,656015.4133442953,640345.3211957644,624486.903865859,608705.5609068644
E,0.0,0.0,0.0,0.0,0.0,0.0,0.0,0.0,0.0,0.0,0.0,0.0,0.0,0.0,0.0,0.0,0.0,0.0,0.0,0.0,0.0,0.0,0.0,0.0,0.0,0.0,0.0,0.0,0.0,0.0,0.0,0.0,0.0,0.0,0.0,0.0,0.0,0.0,0.0,0.0,0.0,0.0,0.0,0.0,0.0,0.0,0.0,0.0
I,0.0,0.0,0.0,0.0,0.0,0.0,0.0,0.0,0.0,0.0,0.0,0.0,0.0,0.0,0.0,0.0,0.0,0.0,0.0,0.0,0.0,0.0,0.0,0.0,0.0,0.0,0.0,0.0,0.0,0.0,0.0,0.0,0.0,0.0,0.0,0.0,0.0,0.0,0.0,0.0,0.0,0.0,0.0,0.0,0.0,0.0,0.0,0.0
A,0.0,0.0,0.0,0.0,0.0,0.0,0.0,0.0,0.0,0.0,0.0,0.0,0.0,0.0,0.0,0.0,0.0,0.0,0.0,0.0,0.0,0.0,0.0,0.0,0.0,0.0,0.0,0.0,0.0,0.0,0.0,0.0,0.0,0.0,0.0,0.0,0.0,0.0,0.0,0.0,0.0,0.0,0.0,0.0,0.0,0.0,0.0,0.0
IH,0.0,0.0,0.0,0.0,0.0,0.0,0.0,0.0,0.0,0.0,0.0,0.0,0.0,0.0,0.0,0.0,0.0,0.0,0.0,0.0,0.0,0.0,0.0,0.0,0.0,0.0,0.0,0.0,0.0,0.0,0.0,0.0,0.0,0.0,0.0,0.0,0.0,0.0,0.0,0.0,0.0,0.0,0.0,0.0,0.0,0.0,0.0,0.0
IN,0.0,0.0,0.0,0.0,0.0,0.0,0.0,0.0,0.0,0.0,0.0,0.0,0.0,0.0,0.0,0.0,0.0,0.0,0.0,0.0,0.0,0.0,0.0,0.0,0.0,0.0,0.0,0.0,0.0,0.0,0.0,0.0,0.0,0.0,0.0,0.0,0.0,0.0,0.0,0.0,0.0,0.0,0.0,0.0,0.0,0.0,0.0,0.0
D,8955.0,8955.0,8955.0,8955.0,8955.0,8955.0,8955.0,8955.0,8955.0,8955.0,8955.0,8955.0,8955.0,8955.0,8955.0,8955.0,8955.0,8955.0,8955.0,8955.0,8955.0,8955.0,8955.0,8955.0,8955.0,8955.0,8955.0,8955.0,8955.0,8955.0,8955.0,8955.0,8955.0,8955.0,8955.0,8955.0,8955.0,8955.0,8955.0,8955.0,8955.0,8955.0,8955.0,8955.0,8955.0,8955.0,8955.0,8955.0
R,0.0,0.0,0.0,0.0,0.0,0.0,0.0,0.0,0.0,0.0,0.0,0.0,0.0,0.0,0.0,0.0,0.0,0.0,0.0,0.0,0.0,0.0,0.0,0.0,0.0,0.0,0.0,0.0,0.0,0.0,0.0,0.0,0.0,0.0,0.0,0.0,0.0,0.0,0.0,0.0,0.0,0.0,0.0,0.0,0.0,0.0,0.0,0.0
G,954785.0,954785.0,954785.0,954785.0,954785.0,954785.0,954785.0,954785.0,954785.0,954785.0,954785.0,954785.0,954785.0,954785.0,954785.0,954785.0,954785.0,954785.0,954785.0,954785.0,954785.0,954785.0,954785.0,954785.0,954785.0,954785.0,954785.0,954785.0,954785.0,954785.0,954785.0,954785.0,954785.0,954785.0,954785.0,954785.0,954785.0,954785.0,954785.0,954785.0,954785.0,954785.0,954785.0,954785.0,954785.0,954785.0,954785.0,954785.0
H,218898.923529342,218898.92352934202,218898.92352934202,218898.92352934202,218898.923529342,218898.923529342,218898.923529342,218898.92352934202,218898.92352934202,218898.92352934202,218898.92352934202,218898.92352934202,208036.49491991068,197391.24567913607,186980.19919008564,176821.98094069998,166936.92704964534,157347.16293197035,148076.63104336432,139151.0385132081,130597.68577277154,122445.12684549803,114722.60283087591,107459.18618474794,100682.58101011967,94417.55236686715,92472.28297412947,92472.28297412946,92472.28297412946,92472.28297412947,92472.28297412946,92472.28297412946,92472.28297412946,92472.28297412946,92472.28297412944,92472.28297412946,92472.28297412944,92472.28297412944,92472.28297412946,92472.28297412946,92472.28297412946,92472.28297412946,92472.28297412946,92472.28297412946,92472.28297412946,92472.28297412947,92472.28297412946,92472.28297412946
S0,188487.77010553822,188063.67262280075,187385.4816422433,186710.15693781374,186037.33392786063,185366.90676092147,184698.83666656064,184033.10212042418,183369.68580368182,182708.5711496856,182049.7413981172,181393.17930653002,185862.48803171836,190188.9872527374,194365.11512701903,198382.58826978385,202232.37419327785,205904.6741510302,209388.9282096373,212673.85436965793,215747.53442630018,218597.55831584547,221211.23195980178,223575.8331524597,225678.8482891696,227507.99719160085,227459.3053402426,226571.93383503327,225657.59665952928,224701.44621600048,223684.14254039858,222578.58492022046,221347.84541292576,219943.08208360482,218302.39025111977,216351.85337840326,214010.30710005137,211198.75717318212,207853.61644936082,203940.4973484126,199463.932359167,194469.5602252872,189038.42399133215,183275.89167643175,177298.77530405048,171223.61101132134,165157.7536019502,159193.73905800312
E0,0.0,0.0,0.0,0.0,0.0,0.0,0.0,0.0,0.0,0.0,0.0,0.0,0.0,0.0,0.0,0.0,0.0,0.0,0.0,0.0,0.0,0.0,0.0,0.0,0.0,0.0,0.0,0.0,0.0,0.0,0.0,0.0,0.0,0.0,0.0,0.0,0.0,0.0,0.0,0.0,0.0,0.0,0.0,0.0,0.0,0.0,0.0,0.0
I0,0.0,0.0,0.0,0.0,0.0,0.0,0.0,0.0,0.0,0.0,0.0,0.0,0.0,0.0,0.0,0.0,0.0,0.0,0.0,0.0,0.0,0.0,0.0,0.0,0.0,0.0,0.0,0.0,0.0,0.0,0.0,0.0,0.0,0.0,0.0,0.0,0.0,0.0,0.0,0.0,0.0,0.0,0.0,0.0,0.0,0.0,0.0,0.0
A0,0.0,0.0,0.0,0.0,0.0,0.0,0.0,0.0,0.0,0.0,0.0,0.0,0.0,0.0,0.0,0.0,0.0,0.0,0.0,0.0,0.0,0.0,0.0,0.0,0.0,0.0,0.0,0.0,0.0,0.0,0.0,0.0,0.0,0.0,0.0,0.0,0.0,0.0,0.0,0.0,0.0,0.0,0.0,0.0,0.0,0.0,0.0,0.0
IH0,0.0,0.0,0.0,0.0,0.0,0.0,0.0,0.0,0.0,0.0,0.0,0.0,0.0,0.0,0.0,0.0,0.0,0.0,0.0,0.0,0.0,0.0,0.0,0.0,0.0,0.0,0.0,0.0,0.0,0.0,0.0,0.0,0.0,0.0,0.0,0.0,0.0,0.0,0.0,0.0,0.0,0.0,0.0,0.0,0.0,0.0,0.0,0.0
IN0,0.0,0.0,0.0,0.0,0.0,0.0,0.0,0.0,0.0,0.0,0.0,0.0,0.0,0.0,0.0,0.0,0.0,0.0,0.0,0.0,0.0,0.0,0.0,0.0,0.0,0.0,0.0,0.0,0.0,0.0,0.0,0.0,0.0,0.0,0.0,0.0,0.0,0.0,0.0,0.0,0.0,0.0,0.0,0.0,0.0,0.0,0.0,0.0
D0,8955.0,8955.0,8955.0,8955.0,8955.0,8955.0,8955.0,8955.0,8955.0,8955.0,8955.0,8955.0,8955.0,8955.0,8955.0,8955.0,8955.0,8955.0,8955.0,8955.0,8955.0,8955.0,8955.0,8955.0,8955.0,8955.0,8955.0,8955.0,8955.0,8955.0,8955.0,8955.0,8955.0,8955.0,8955.0,8955.0,8955.0,8955.0,8955.0,8955.0,8955.0,8955.0,8955.0,8955.0,8955.0,8955.0,8955.0,8955.0
R0,0.0,0.0,0.0,0.0,0.0,0.0,0.0,0.0,0.0,0.0,0.0,0.0,0.0,0.0,0.0,0.0,0.0,0.0,0.0,0.0,0.0,0.0,0.0,0.0,0.0,0.0,0.0,0.0,0.0,0.0,0.0,0.0,0.0,0.0,0.0,0.0,0.0,0.0,0.0,0.0,0.0,0.0,0.0,0.0,0.0,0.0,0.0,0.0
G0,954785.0,954785.0,954785.0,954785.0,954785.0,954785.0,954785.0,954785.0,954785.0,954785.0,954785.0,954785.0,954785.0,954785.0,954785.0,954785.0,954785.0,954785.0,954785.0,954785.0,954785.0,954785.0,954785.0,954785.0,954785.0,954785.0,954785.0,954785.0,954785.0,954785.0,954785.0,954785.0,954785.0,954785.0,954785.0,954785.0,954785.0,954785.0,954785.0,954785.0,954785.0,954785.0,954785.0,954785.0,954785.0,954785.0,954785.0,954785.0
H0,76614.6232352697,76442.24033299035,76167.04826779159,75892.84689402753,75619.63264520903,75347.40196768628,75076.15132060261,74805.87717584845,74536.5760180154,74268.24434435055,74000.87866471088,73734.47550151793,68345.41039172861,63102.24603531538,58012.495735278564,53084.368430410526,48326.796579938265,43749.4456358552,39362.69464203312,35177.57388876977,31205.641427595707,27458.776121952553,23948.861861596608,20687.337541733585,17684.593378872964,14949.209924143972,14078.297657772753,14027.615786204771,13977.116369374435,13926.798750444686,13876.662274943086,13826.70629075329,13776.93014810658,13727.333199573395,13677.91480005493,13628.674306774732,13579.611079270344,13530.724479384971,13482.013871259185,13433.478621322653,13385.118098285891,13336.931673132061,13288.918719108786,13241.078611719995,13193.410728717803,13145.914450094418,13098.589158074079,13051.434237105012
S1,53853.64860158236,50431.05689849251,47505.573243314466,44786.72896621851,42259.6820745395,39910.71860023582,37727.12081037235,35697.08346810084,33809.64554336825,32054.62913405555,30422.58332777317,28904.732217659704,28272.3015673609,27648.17802833388,27034.074094072683,26431.272184599755,25840.671596172317,25262.831442025403,24698.01116522672,24146.209831742195,23607.205246921185,23080.593638990424,22565.829867214976,22062.26622001472,21569.18353666294,21085.79838778961,20468.01780311729,19818.876570333916,19210.50089713504,18638.762943890557,18099.486917412793,17588.19999445229,17100.005661791103,16629.46596204374,16170.560768594933,15716.803857162497,15261.603143218705,14798.902971742811,14324.02336532444,13834.462065927322,13330.365216288174,12814.481492938467,12291.630392982965,11767.887428097794,11249.729432700899,10743.318729320512,10254.008324392571,9786.072567831608
E1,0.0,0.0,0.0,0.0,0.0,0.0,0.0,0.0,0.0,0.0,0.0,0.0,0.0,0.0,0.0,0.0,0.0,0.0,0.0,0.0,0.0,0.0,0.0,0.0,0.0,0.0,0.0,0.0,0.0,0.0,0.0,0.0,0.0,0.0,0.0,0.0,0.0,0.0,0.0,0.0,0.0,0.0,0.0,0.0,0.0,0.0,0.0,0.0
I1,0.0,0.0,0.0,0.0,0.0,0.0,0.0,0.0,0.0,0.0,0.0,0.0,0.0,0.0,0.0,0.0,0.0,0.0,0.0,0.0,0.0,0.0,0.0,0.0,0.0,0.0,0.0,0.0,0.0,0.0,0.0,0.0,0.0,0.0,0.0,0.0,0.0,0.0,0.0,0.0,0.0,0.0,0.0,0.0,0.0,0.0,0.0,0.0
A1,0.0,0.0,0.0,0.0,0.0,0.0,0.0,0.0,0.0,0.0,0.0,0.0,0.0,0.0,0.0,0.0,0.0,0.0,0.0,0.0,0.0,0.0,0.0,0.0,0.0,0.0,0.0,0.0,0.0,0.0,0.0,0.0,0.0,0.0,0.0,0.0,0.0,0.0,0.0,0.0,0.0,0.0,0.0,0.0,0.0,0.0,0.0,0.0
IH1,0.0,0.0,0.0,0.0,0.0,0.0,0.0,0.0,0.0,0.0,0.0,0.0,0.0,0.0,0.0,0.0,0.0,0.0,0.0,0.0,0.0,0.0,0.0,0.0,0.0,0.0,0.0,0.0,0.0,0.0,0.0,0.0,0.0,0.0,0.0,0.0,0.0,0.0,0.0,0.0,0.0,0.0,0.0,0.0,0.0,0.0,0.0,0.0
IN1,0.0,0.0,0.0,0.0,0.0,0.0,0.0,0.0,0.0,0.0,0.0,0.0,0.0,0.0,0.0,0.0,0.0,0.0,0.0,0.0,0.0,0.0,0.0,0.0,0.0,0.0,0.0,0.0,0.0,0.0,0.0,0.0,0.0,0.0,0.0,0.0,0.0,0.0,0.0,0.0,0.0,0.0,0.0,0.0,0.0,0.0,0.0,0.0
D1,0.0,0.0,0.0,0.0,0.0,0.0,0.0,0.0,0.0,0.0,0.0,0.0,0.0,0.0,0.0,0.0,0.0,0.0,0.0,0.0,0.0,0.0,0.0,0.0,0.0,0.0,0.0,0.0,0.0,0.0,0.0,0.0,0.0,0.0,0.0,0.0,0.0,0.0,0.0,0.0,0.0,0.0,0.0,0.0,0.0,0.0,0.0,0.0
R1,0.0,0.0,0.0,0.0,0.0,0.0,0.0,0.0,0.0,0.0,0.0,0.0,0.0,0.0,0.0,0.0,0.0,0.0,0.0,0.0,0.0,0.0,0.0,0.0,0.0,0.0,0.0,0.0,0.0,0.0,0.0,0.0,0.0,0.0,0.0,0.0,0.0,0.0,0.0,0.0,0.0,0.0,0.0,0.0,0.0,0.0,0.0,0.0
G1,0.0,0.0,0.0,0.0,0.0,0.0,0.0,0.0,0.0,0.0,0.0,0.0,0.0,0.0,0.0,0.0,0.0,0.0,0.0,0.0,0.0,0.0,0.0,0.0,0.0,0.0,0.0,0.0,0.0,0.0,0.0,0.0,0.0,0.0,0.0,0.0,0.0,0.0,0.0,0.0,0.0,0.0,0.0,0.0,0.0,0.0,0.0,0.0
H1,21889.892352934203,20498.71151571826,19309.70990122286,18204.64628204242,17177.528653572175,16222.792998696914,15335.272717302234,14510.170239391959,13743.030665839873,13029.717291944738,12366.388879302634,11749.478551116834,10396.299295263058,9173.307863791748,8068.907360586237,7072.6337576747,6175.0591847559745,5367.70170632444,4642.940197817002,3993.932789751676,3414.537199704261,2899.231164234189,2443.0312036796918,2041.4082407457627,1690.1993396891614,1385.516247377349,1266.8413220810799,1227.0345277861275,1189.8886212031698,1155.2141957612628,1122.8353715656306,1092.5888292150235,1064.3229126320907,1037.8967959772679,1013.1797100687843,990.0502240583545,968.3955784157182,948.1110655571116,929.0994547145324,911.2704578857417,894.5402339306645,878.8309280894463,864.0702443920469,850.191048609978,837.1309995686001,824.8322067942271,813.2409126149794,802.3071969686904
S2,53853.64860158236,57059.22292310512,59981.90653426176,62660.92014875605,65113.84770883358,67357.05799018533,69405.76006611752,71274.07743150888,72975.1231327471,74521.0712758603,75923.22390675724,77192.07324441144,80558.04885195721,83820.31882584916,86972.60634722664,90008.72898107649,92922.52795218764,95707.80981048661,98358.30563168655,100867.65378602216,103229.41347038487,105437.11672241533,107484.36499147868,109364.969457545,111073.11556715186,112603.48628293435,113159.70721530901,113251.30995773172,113285.07913012967,113259.43145369629,113170.9003629732,113013.0074923764,112775.52202689488,112443.69513352984,111997.79601975238,111413.38632640966,110662.86641380729,109718.6461247701,108557.69836327678,107166.42291556737,105544.25752333077,103704.8267792247,101674.4362272477,99488.67570533692,97188.27222020639,94815.16209854453,92409.35091766717,90006.75555987467
E2,0.0,0.0,0.0,0.0,0.0,0.0,0.0,0.0,0.0,0.0,0.0,0.0,0.0,0.0,0.0,0.0,0.0,0.0,0.0,0.0,0.0,0.0,0.0,0.0,0.0,0.0,0.0,0.0,0.0,0.0,0.0,0.0,0.0,0.0,0.0,0.0,0.0,0.0,0.0,0.0,0.0,0.0,0.0,0.0,0.0,0.0,0.0,0.0
I2,0.0,0.0,0.0,0.0,0.0,0.0,0.0,0.0,0.0,0.0,0.0,0.0,0.0,0.0,0.0,0.0,0.0,0.0,0.0,0.0,0.0,0.0,0.0,0.0,0.0,0.0,0.0,0.0,0.0,0.0,0.0,0.0,0.0,0.0,0.0,0.0,0.0,0.0,0.0,0.0,0.0,0.0,0.0,0.0,0.0,0.0,0.0,0.0
A2,0.0,0.0,0.0,0.0,0.0,0.0,0.0,0.0,0.0,0.0,0.0,0.0,0.0,0.0,0.0,0.0,0.0,0.0,0.0,0.0,0.0,0.0,0.0,0.0,0.0,0.0,0.0,0.0,0.0,0.0,0.0,0.0,0.0,0.0,0.0,0.0,0.0,0.0,0.0,0.0,0.0,0.0,0.0,0.0,0.0,0.0,0.0,0.0
IH2,0.0,0.0,0.0,0.0,0.0,0.0,0.0,0.0,0.0,0.0,0.0,0.0,0.0,0.0,0.0,0.0,0.0,0.0,0.0,0.0,0.0,0.0,0.0,0.0,0.0,0.0,0.0,0.0,0.0,0.0,0.0,0.0,0.0,0.0,0.0,0.0,0.0,0.0,0.0,0.0,0.0,0.0,0.0,0.0,0.0,0.0,0.0,0.0
IN2,0.0,0.0,0.0,0.0,0.0,0.0,0.0,0.0,0.0,0.0,0.0,0.0,0.0,0.0,0.0,0.0,0.0,0.0,0.0,0.0,0.0,0.0,0.0,0.0,0.0,0.0,0.0,0.0,0.0,0.0,0.0,0.0,0.0,0.0,0.0,0.0,0.0,0.0,0.0,0.0,0.0,0.0,0.0,0.0,0.0,0.0,0.0,0.0
D2,0.0,0.0,0.0,0.0,0.0,0.0,0.0,0.0,0.0,0.0,0.0,0.0,0.0,0.0,0.0,0.0,0.0,0.0,0.0,0.0,0.0,0.0,0.0,0.0,0.0,0.0,0.0,0.0,0.0,0.0,0.0,0.0,0.0,0.0,0.0,0.0,0.0,0.0,0.0,0.0,0.0,0.0,0.0,0.0,0.0,0.0,0.0,0.0
R2,0.0,0.0,0.0,0.0,0.0,0.0,0.0,0.0,0.0,0.0,0.0,0.0,0.0,0.0,0.0,0.0,0.0,0.0,0.0,0.0,0.0,0.0,0.0,0.0,0.0,0.0,0.0,0.0,0.0,0.0,0.0,0.0,0.0,0.0,0.0,0.0,0.0,0.0,0.0,0.0,0.0,0.0,0.0,0.0,0.0,0.0,0.0,0.0
G2,0.0,0.0,0.0,0.0,0.0,0.0,0.0,0.0,0.0,0.0,0.0,0.0,0.0,0.0,0.0,0.0,0.0,0.0,0.0,0.0,0.0,0.0,0.0,0.0,0.0,0.0,0.0,0.0,0.0,0.0,0.0,0.0,0.0,0.0,0.0,0.0,0.0,0.0,0.0,0.0,0.0,0.0,0.0,0.0,0.0,0.0,0.0,0.0
H2,21889.892352934203,23192.862135846954,24380.95031392389,25469.965898369286,26467.083895915537,27378.965896219317,28211.796754504583,28971.318653901115,29662.862734644576,30291.37846393499,30861.46090783658,31377.376055074426,29622.394982404374,27810.039404113813,25958.383355839956,24084.551675751834,22204.850835933383,20334.880651178133,18489.622238296502,16683.495625958425,14930.378159136406,13243.57255797232,11635.711733835988,10118.587238404294,8702.891079661964,7397.868600996132,7002.352275317435,7009.479604569447,7013.678742214058,7015.174611083165,7014.175927315122,7010.876359482725,7005.455604909003,6998.080389086188,6988.905393690681,6978.074118294515,6965.719680509462,6951.965558961663,6936.9262831804845,6920.70807419366,6903.409439349859,6885.12172463836,6865.929627541912,6845.911673242035,6825.140656794629,6803.6840537067355,6781.6044011717195,6758.95965205884
S3,161560.94580474705,160855.71945401205,160193.93536861747,159572.67809919655,158988.52718835432,158438.43215643996,157919.59702302155,157429.43892743473,156965.56676866996,156525.76581199237,156107.98455477154,155710.322833219,159734.27766331218,163981.83557140897,168466.90047148775,173204.77319994196,178212.24898616096,183507.6788715509,189110.97487110514,195043.5286782806,201328.00220983973,207987.93477110847,215047.09612974696,222528.4968663108,230452.94262467657,238836.9672320771,241391.7365219368,240683.58150054523,239963.12132808735,239220.175292537,238441.68014079737,237609.56189173376,236699.34836248838,235678.73100561905,234506.6714452998,233133.84437389983,231505.38565096166,229566.58783845988,227271.11035246452,224589.76896554563,221517.08511287527,218073.41687675635,214302.32678162062,210264.55702491707,206030.64872366172,201673.92934856494,197264.875225305,192867.1939180683
E3,0.0,0.0,0.0,0.0,0.0,0.0,0.0,0.0,0.0,0.0,0.0,0.0,0.0,0.0,0.0,0.0,0.0,0.0,0.0,0.0,0.0,0.0,0.0,0.0,0.0,0.0,0.0,0.0,0.0,0.0,0.0,0.0,0.0,0.0,0.0,0.0,0.0,0.0,0.0,0.0,0.0,0.0,0.0,0.0,0.0,0.0,0.0,0.0
I3,0.0,0.0,0.0,0.0,0.0,0.0,0.0,0.0,0.0,0.0,0.0,0.0,0.0,0.0,0.0,0.0,0.0,0.0,0.0,0.0,0.0,0.0,0.0,0.0,0.0,0.0,0.0,0.0,0.0,0.0,0.0,0.0,0.0,0.0,0.0,0.0,0.0,0.0,0.0,0.0,0.0,0.0,0.0,0.0,0.0,0.0,0.0,0.0
A3,0.0,0.0,0.0,0.0,0.0,0.0,0.0,0.0,0.0,0.0,0.0,0.0,0.0,0.0,0.0,0.0,0.0,0.0,0.0,0.0,0.0,0.0,0.0,0.0,0.0,0.0,0.0,0.0,0.0,0.0,0.0,0.0,0.0,0.0,0.0,0.0,0.0,0.0,0.0,0.0,0.0,0.0,0.0,0.0,0.0,0.0,0.0,0.0
IH3,0.0,0.0,0.0,0.0,0.0,0.0,0.0,0.0,0.0,0.0,0.0,0.0,0.0,0.0,0.0,0.0,0.0,0.0,0.0,0.0,0.0,0.0,0.0,0.0,0.0,0.0,0.0,0.0,0.0,0.0,0.0,0.0,0.0,0.0,0.0,0.0,0.0,0.0,0.0,0.0,0.0,0.0,0.0,0.0,0.0,0.0,0.0,0.0
IN3,0.0,0.0,0.0,0.0,0.0,0.0,0.0,0.0,0.0,0.0,0.0,0.0,0.0,0.0,0.0,0.0,0.0,0.0,0.0,0.0,0.0,0.0,0.0,0.0,0.0,0.0,0.0,0.0,0.0,0.0,0.0,0.0,0.0,0.0,0.0,0.0,0.0,0.0,0.0,0.0,0.0,0.0,0.0,0.0,0.0,0.0,0.0,0.0
D3,0.0,0.0,0.0,0.0,0.0,0.0,0.0,0.0,0.0,0.0,0.0,0.0,0.0,0.0,0.0,0.0,0.0,0.0,0.0,0.0,0.0,0.0,0.0,0.0,0.0,0.0,0.0,0.0,0.0,0.0,0.0,0.0,0.0,0.0,0.0,0.0,0.0,0.0,0.0,0.0,0.0,0.0,0.0,0.0,0.0,0.0,0.0,0.0
R3,0.0,0.0,0.0,0.0,0.0,0.0,0.0,0.0,0.0,0.0,0.0,0.0,0.0,0.0,0.0,0.0,0.0,0.0,0.0,0.0,0.0,0.0,0.0,0.0,0.0,0.0,0.0,0.0,0.0,0.0,0.0,0.0,0.0,0.0,0.0,0.0,0.0,0.0,0.0,0.0,0.0,0.0,0.0,0.0,0.0,0.0,0.0,0.0
G3,0.0,0.0,0.0,0.0,0.0,0.0,0.0,0.0,0.0,0.0,0.0,0.0,0.0,0.0,0.0,0.0,0.0,0.0,0.0,0.0,0.0,0.0,0.0,0.0,0.0,0.0,0.0,0.0,0.0,0.0,0.0,0.0,0.0,0.0,0.0,0.0,0.0,0.0,0.0,0.0,0.0,0.0,0.0,0.0,0.0,0.0,0.0,0.0
H3,65669.6770588026,65383.0237065618,65114.27067729102,64861.90116347935,64624.599200192846,64401.1452056188,64190.40906576506,63991.34371348493,63802.97916651423,63624.41699172953,63454.825165178634,63293.43329960973,63139.52821324482,62966.013037448785,62772.36815980473,62558.293465090166,62323.69520616384,62068.67454177834,61793.51749977755,61498.686071068645,61184.81006364258,60852.67924357814,60503.23516128609,60137.561912725796,59756.87493533885,59362.50682373081,58955.88913116395,58547.95139168184,58143.49798251984,57742.46500816806,57344.79178323193,56950.42061274446,56559.29658810829,56171.36739755154,55786.583150061066,55404.89621183068,55026.26105433083,54650.63411316986,54277.97365697632,53908.239665586996,53541.393716876075,53177.39888160866,52816.21962574571,52457.82171966857,52102.17215382898,51749.23906036605,51398.99164026427,51051.40009565697
S4,80780.47290237353,82126.81411741309,83466.86612418402,84801.54886099901,86131.07529224876,87455.71919999545,88775.75244461274,90091.42961568134,91402.98513438013,92710.63357657836,94014.57077227866,95314.9750356494,99350.75172036329,103400.59866175217,107462.64345589503,111534.60932953248,115613.76824004445,119696.89141678561,123780.20164318285,127859.33207637061,131929.2974933026,135984.48441710434,140018.66465395142,144025.02800252562,147996.20403658398,151924.17424810678,154537.40232453836,156511.25940758854,158461.70096721078,160379.56044629583,162252.53550721888,164063.0551001712,165786.67668644502,167390.3390575852,168831.04602233885,170055.81274429796,171003.96288744605,171612.62707171577,171825.24236008385,171601.22801232824,170923.87287707833,169803.8796868447,168277.81142484388,166402.57571469873,164247.98766367589,161889.30000801306,159400.91579654408,156851.79980308667
E4,0.0,0.0,0.0,0.0,0.0,0.0,0.0,0.0,0.0,0.0,0.0,0.0,0.0,0.0,0.0,0.0,0.0,0.0,0.0,0.0,0.0,0.0,0.0,0.0,0.0,0.0,0.0,0.0,0.0,0.0,0.0,0.0,0.0,0.0,0.0,0.0,0.0,0.0,0.0,0.0,0.0,0.0,0.0,0.0,0.0,0.0,0.0,0.0
I4,0.0,0.0,0.0,0.0,0.0,0.0,0.0,0.0,0.0,0.0,0.0,0.0,0.0,0.0,0.0,0.0,0.0,0.0,0.0,0.0,0.0,0.0,0.0,0.0,0.0,0.0,0.0,0.0,0.0,0.0,0.0,0.0,0.0,0.0,0.0,0.0,0.0,0.0,0.0,0.0,0.0,0.0,0.0,0.0,0.0,0.0,0.0,0.0
A4,0.0,0.0,0.0,0.0,0.0,0.0,0.0,0.0,0.0,0.0,0.0,0.0,0.0,0.0,0.0,0.0,0.0,0.0,0.0,0.0,0.0,0.0,0.0,0.0,0.0,0.0,0.0,0.0,0.0,0.0,0.0,0.0,0.0,0.0,0.0,0.0,0.0,0.0,0.0,0.0,0.0,0.0,0.0,0.0,0.0,0.0,0.0,0.0
IH4,0.0,0.0,0.0,0.0,0.0,0.0,0.0,0.0,0.0,0.0,0.0,0.0,0.0,0.0,0.0,0.0,0.0,0.0,0.0,0.0,0.0,0.0,0.0,0.0,0.0,0.0,0.0,0.0,0.0,0.0,0.0,0.0,0.0,0.0,0.0,0.0,0.0,0.0,0.0,0.0,0.0,0.0,0.0,0.0,0.0,0.0,0.0,0.0
IN4,0.0,0.0,0.0,0.0,0.0,0.0,0.0,0.0,0.0,0.0,0.0,0.0,0.0,0.0,0.0,0.0,0.0,0.0,0.0,0.0,0.0,0.0,0.0,0.0,0.0,0.0,0.0,0.0,0.0,0.0,0.0,0.0,0.0,0.0,0.0,0.0,0.0,0.0,0.0,0.0,0.0,0.0,0.0,0.0,0.0,0.0,0.0,0.0
D4,0.0,0.0,0.0,0.0,0.0,0.0,0.0,0.0,0.0,0.0,0.0,0.0,0.0,0.0,0.0,0.0,0.0,0.0,0.0,0.0,0.0,0.0,0.0,0.0,0.0,0.0,0.0,0.0,0.0,0.0,0.0,0.0,0.0,0.0,0.0,0.0,0.0,0.0,0.0,0.0,0.0,0.0,0.0,0.0,0.0,0.0,0.0,0.0
R4,0.0,0.0,0.0,0.0,0.0,0.0,0.0,0.0,0.0,0.0,0.0,0.0,0.0,0.0,0.0,0.0,0.0,0.0,0.0,0.0,0.0,0.0,0.0,0.0,0.0,0.0,0.0,0.0,0.0,0.0,0.0,0.0,0.0,0.0,0.0,0.0,0.0,0.0,0.0,0.0,0.0,0.0,0.0,0.0,0.0,0.0,0.0,0.0
G4,0.0,0.0,0.0,0.0,0.0,0.0,0.0,0.0,0.0,0.0,0.0,0.0,0.0,0.0,0.0,0.0,0.0,0.0,0.0,0.0,0.0,0.0,0.0,0.0,0.0,0.0,0.0,0.0,0.0,0.0,0.0,0.0,0.0,0.0,0.0,0.0,0.0,0.0,0.0,0.0,0.0,0.0,0.0,0.0,0.0,0.0,0.0,0.0
H4,32834.8385294013,33382.08583822465,33926.944369112665,34469.56329142342,35010.07913445242,35548.617461120695,36085.29367116752,36620.21374671556,37153.474944327936,37685.16643738222,38215.3699123133,38744.16012202312,36532.862037269806,34339.63933846635,32168.044578576137,30022.133611772755,27906.525242853873,25826.460396834234,23787.85646544016,21797.35013765959,19862.31892269259,17990.867757760836,16191.762870477522,14474.29125113851,12848.022276556725,11322.450770618885,11168.902587794242,11660.201663887276,12148.101258817958,12632.63040867229,13113.817617073692,13591.690881933957,14066.277720373495,14537.605191941064,15005.699920253994,15470.588113171169,15932.295581603092,16390.84775705585,16846.26970799893,17298.5861551404,17747.82148568696,18193.999766660927,18637.144757341,19077.279920888883,19514.428435219455,19948.61320316803,20379.856862004417,20808.181792339954
E_Om,0.0,0.0,2.914131220394205,3.8974215866508706,4.41076633409413,4.835889414138027,5.2742298008396045,5.754359206701777,6.286070018504454,6.874539032224371,7.524053765981828,8.23900109607084,9.02413691824204,10.122364485193037,11.537616107864128,13.339473452151744,15.644325681549507,18.62277147210564,22.522686336438134,27.70992528222914,34.736986998028755,44.46122990905562,58.25572261702249,78.40181742802912,108.85809965858992,156.86067103815358,236.50895477102017,352.1334513557691,515.2756444997493,752.4082910648708,1094.5392488629448,1584.81924283334,2280.718883585786,3255.7139718705475,4598.0753461321765,6404.245187424564,8764.306420828145,11739.239629983436,15334.399750374512,19478.766176399957,24020.40397148312,28742.596315240386,33395.784029551935,37734.44941618607,41548.462392938316,44682.96461272089,47045.852260345855,48605.1686658735
I_Om,0.0,5.0,3.183339861364942,2.802916748858171,2.8226154109405837,2.9718875888369096,3.180157010267702,3.4295085501363496,3.71614636989756,4.040262007684826,4.403356262382856,4.807526635859833,5.2552769959631185,5.749468220008777,6.356619632104538,7.120129336402542,8.086160768411176,9.315105256808904,10.890851414819378,12.932830704862678,15.614527719718165,19.193553965094978,24.062282018982245,30.836243226655668,40.514970633058844,54.78921411713464,76.66277395646706,111.8034905811819,164.9733362156281,242.27820940951773,354.6566258955526,517.3318095868478,751.4892042087474,1085.924345617898,1558.5408944344235,2216.9820582782577,3117.2683601607187,4319.0600875987175,5876.583367415295,7825.788538416661,10170.647512149257,12873.22082320198,15851.630556331733,18987.276947563707,22139.25706633359,25161.893851179004,27921.192470713802,30307.31062343195
A_Om,0.0,0.0,0.0,0.08624291269635302,0.19154699186681046,0.2997855252383018,0.4080060338610325,0.5166017784509579,0.6267658144849961,0.739842123705935,0.8571714485218835,0.9800653511448034,1.1098125507672556,1.2476925036163957,1.402024386791103,1.5802753654669233,1.791102645326662,2.0456002018148327,2.358619445404825,2.750618826929471,3.250502724980641,3.900161972456094,4.76198441819821,5.931731288152491,7.561532789023726,9.902963769308963,13.392465137798256,18.832942781242252,27.062000899730787,39.16131004205758,56.870083671090896,82.6427524393086,119.92507468294376,173.462534746223,249.62271855213447,356.64434915699957,504.6613070717455,705.2938254434445,970.614196491012,1311.4479241353463,1735.2585423069352,2244.144325156025,2833.545624052663,3492.0479175533947,4202.299354228441,4942.749169888118,5689.772210693369,6419.7676040579845
IH_Om,0.0,0.0,0.8166603764523271,0.927439716688498,0.9205812332632316,0.9203764020283478,0.9446551296828375,0.9907868362386674,1.0545327970591756,1.1331579858640313,1.2253289601576418,1.330625485740846,1.4491804629631224,1.5814691685379791,1.7281960296604728,1.9005772815423152,2.111297917600157,2.3742274813565425,2.7061504559382166,3.129143684911021,3.673730087758731,4.38347562739327,5.322195124041821,6.585818003553362,8.32274726222901,10.770289018366476,14.323008260668402,19.668402451233423,28.075260068990126,40.954465573730666,60.007312930341364,87.8693263934863,128.3420238893656,186.78255405246662,270.5672682046582,389.5677108567874,556.4912615456656,786.8286126061016,1098.0537675462713,1507.7427922077925,2030.537657238057,2674.3931719248135,3437.0819052832785,4304.119121212057,5248.906062489585,6235.156480078205,7220.970479512851,8163.555145430643
IN_Om,0.0,0.0,1.9999995243654611,2.9096670753544727,3.3959105261040454,3.698118840197493,3.91997007094681,4.114402792057237,4.311543598561039,4.52965128056691,4.780282869211507,5.07110007525525,5.407522366533441,5.793739838973815,6.233345116081147,6.746011265049696,7.358637884597712,8.104733409084112,9.026807317103279,10.180642548323908,11.64178823817215,13.515473493375605,15.952188479072975,19.172994996977536,23.512137736801495,29.491703854950984,37.958607066974814,50.35006103973052,69.24354234414334,97.93108812772117,140.63161714973361,203.51884674373972,295.42591877029366,428.8382159506249,621.1126377047423,895.8424616451359,1284.122532433692,1825.233066305716,2566.0044918033664,3558.0233666678387,4852.139873759874,6490.56823764338,8497.97988897057,10873.766912714947,13587.582687233782,16579.35831043334,19763.73691774971,23037.82200966681
D_Om,0.0,0.0,0.0,0.0008319774492641076,0.0017768119876908242,0.0027146594067341302,0.003652298152780384,0.004614670992077382,0.005624040772400527,0.0066983521164551306,0.00785276332321391,0.009101074239448139,0.010456656595924946,0.01193301751640585,0.01354414831553415,0.015304757947204227,0.017240981969356466,0.019391878849834836,0.021810636733611107,0.024567543054249533,0.027755376156502577,0.03149800978466506,0.03596370075798355,0.04138571761035214,0.04809505752925025,0.05657390410703979,0.06754619790714293,0.08213784484153447,0.10217514281056644,0.13077697526519685,0.1724995723036687,0.23363236702288553,0.32314974799217716,0.45389892200343857,0.6441847217904666,0.9198266803646743,1.3167010234083123,1.883629692495707,2.685215860993077,3.8038644437081945,5.339886073478803,7.408507974840578,10.13306137998211,13.63460831298227,18.019454389818858,23.366807589771643,29.718909067491445,37.07531421947719
R_Om,0.0,0.0,0.0,0.7719982789618514,1.774833839832876,2.8749136362395054,4.042442215876092,5.2750476030166045,6.5787143464624265,7.9629245513773,9.439269325432443,11.020930585391815,12.722425962530977,14.559474994688092,16.548945694477016,18.709679937114895,21.070574159442856,23.67276629457673,26.571713408926147,29.84072325008473,33.57666667808406,37.908778013444405,43.01208506791622,49.12814951624689,56.59784133119876,65.91471766508596,77.815206353621,93.43781908787096,114.61961238614718,144.39821079955826,187.24119673433125,249.43639466836507,339.9976896350619,471.8469928514201,663.4074525938586,940.6876828614601,1339.8811544331807,1910.3687573737948,2717.7718547792797,3846.369445935123,5399.868892442397,7499.413624964363,10278.044711890514,13871.644850738483,18407.415132473132,23991.719389878217,30699.347156573254,38565.867162916315
G_Om,0.0,0.0,0.0,0.7761862142671773,1.8142743022622316,2.989093060909112,4.277144426168758,5.681948861068241,7.214636976457614,8.888947610150135,10.7199984526487,12.724049185741674,14.91852794680353,17.322129618059584,20.018246976883148,23.09132018160302,26.644322643085374,30.811228319996545,35.771450559453946,41.77042497771717,49.151033596820554,58.40331786060221,70.24567879591525,85.7622377212847,106.64475990671201,135.6393898241974,177.4196259262778,240.41438366377335,334.20601823803815,471.45098820004205,671.8568377849066,963.3901325096531,1385.5107425164265,1992.9859803056993,2860.153623573704,4084.862610887868,5790.649499438971,8125.04466114342,11251.820800462045,15336.17692245324,20524.395514411568,26922.29080935016,34577.95396755148,43473.005431594924,53523.67138473746,64590.209331863436,76491.62986579892,89022.4114954577
beta,49.99839782847756,49.998397828477614,49.998397828477614,49.997246136345524,49.99651453103772,49.99585191300061,49.99516196729698,49.99441443933803,49.99359599830888,49.99269735601331,49.99170984394447,49.99062446698327,49.989431606701224,51.882231260663566,53.94582870610438,56.21415212091377,58.72990935363616,61.54762542935381,64.73799754305453,68.39428848066723,72.6419585433811,77.65361079208304,83.67298802481112,91.05508481115714,100.3364832252574,112.36601959494968,128.56536951133745,135.36517217889764,134.9167184513779,134.27390992890594,133.34502330215528,132.01685092743557,130.14215240279668,127.5425244732729,124.0224508674871,119.40251795200597,113.57395167729914,106.5631928434065,98.57675408432195,89.9905831113401,81.27264027889204,72.87128944161226,65.12448996670524,58.22396516546687,52.22992079172805,47.110551817556924,42.78294212653959,39.143936831686524
