series,2021-11-15,2021-11-16,2021-11-17,2021-11-18,2021-11-19,2021-11-20,2021-11-21,2021-11-22,2021-11-23,2021-11-24,2021-11-25,2021-11-26,2021-11-27,2021-11-28,2021-11-29,2021-11-30,2021-12-01,2021-12-02,2021-12-03,2021-12-04,2021-12-05,2021-12-06,2021-12-07,2021-12-08,2021-12-09,2021-12-10,2021-12-11,2021-12-12,2021-12-13,2021-12-14,2021-12-15,2021-12-16,2021-12-17,2021-12-18,2021-12-19,2021-12-20,2021-12-21,2021-12-22,2021-12-23,2021-12-24,2021-12-25,2021-12-26,2021-12-27,2021-12-28,2021-12-29,2021-12-30,2021-12-31,2022-01-01,2022-01-02,2022-01-03,2022-01-04,2022-01-05,2022-01-06,2022-01-07,2022-01-08,2022-01-09,2022-01-10,2022-01-11,2022-01-12,2022-01-13,2022-01-14,2022-01-15,2022-01-16,2022-01-17,2022-01-18,2022-01-19
S,14145.487806857396,10735.601955351094,9684.753153830008,8903.440393438903,8277.229723864293,7758.617284159587,7321.377121133868,6948.5084375574515,6627.897719756358,6350.414905270172,6108.938329591658,5897.78904796335,5712.369350788535,5548.914849692936,5404.315837200772,5275.9841162047705,5161.751360667322,5059.79022495889,4968.552333965608,4886.719055231644,4813.1620949921835,4746.9117316505135,4687.131041988045,4633.094866320484,4584.172546751553,4539.813688062691,4499.536353835618,4462.9172350409635,4429.583424361445,4399.205504030735,4371.491713141519,4345.713049681439,4322.153463628527,4300.594794372428,4280.845431635773,4262.735884409,4246.115395484725,10660.615980796856,17031.25806462615,23352.533959443557,29622.08695074593,35834.84930555068,41979.318411005894,48035.293534191915,53971.867752178565,59744.69276668703,65292.03119237551,70529.64260545891,75345.16957675321,79593.57438961374,83096.37286769375,85648.52879087612,87036.87059249412,87071.41377811151,85625.6119615857,82675.30148911466,78322.89685252306,72796.24292031526,66419.87983042918,53136.76100045962,41850.495903730276,32372.87286395193,24654.38018850042,18540.940252131477,13809.029553450764,10216.474727843875
E,0.0,3409.885851506303,3437.7688975754977,3187.7509886939533,2857.6363616603758,2518.957892866971,2200.5106880325984,1913.2261651992355,1659.869033440559,1439.3911378945775,1249.0503722047185,1085.4845421716118,945.258876694943,825.1357147820584,722.1940128396047,633.8675299837244,557.9400265260566,492.51915427667177,436.00129898694956,387.03418802482986,344.4808918568415,307.3869876414587,274.95158101149036,246.50228237560364,221.47391723185308,199.39060075115958,179.85075475288545,162.514647121674,147.09406366469017,133.34376489599336,121.0544263164122,110.04680551383117,100.16330173769944,91.2732014344901,83.26289915997421,76.03349709913186,69.49872546558701,63.583158807956465,102.4991614443763,178.12981897539157,281.61909231724934,409.28162451463277,564.6235831497625,758.271189647243,1007.5564839578087,1336.749766159778,1778.1137347678628,2373.3312245952325,3174.337189944872,4242.011672409372,5640.620532266704,7425.818878307167,9625.385676255108,12215.372503659706,15099.25750504396,18100.953541426912,20980.47270582064,23472.947841104266,25341.248439392217,26425.325997835225,25314.214441138603,22950.017308304923,19930.58049052809,16717.78132769397,13634.73970202349,10871.0538485853
I,3211.9235886415863,2954.9697015502593,3015.279462029512,3073.1906531906498,3104.7139252610787,3104.99078699553,3075.775778276596,3021.188649148893,2945.9707545534243,2854.724709049466,2751.5937140291326,2640.1509135093224,2523.3910424838123,2403.77038444867,2283.2669988337607,2163.446529030701,2045.5260684298908,1930.4324993762991,1818.8538931032192,1711.2837384764985,1608.058378788649,1509.3883212393569,1415.3841844350013,1326.0780485815812,1241.4409202535667,1161.3969474834046,1085.8349378841451,1014.617651591439,947.5892665267137,884.5813477477076,825.4175958727758,769.9176013377404,717.8997907690621,669.1834032131394,623.5907647015634,580.9485299349618,541.0886157570922,503.84887899693393,469.0735848773367,440.4665459667043,420.7289857592989,411.5754317079608,414.26257192811335,430.25164466776994,461.8116176787417,512.5380690235434,587.8507830591564,695.543263387326,846.4125177540035,1054.9108542273561,1339.6318037621575,1723.2734355283926,2231.5607391131734,2890.5778600241138,3722.2383674041807,4738.304005461374,5934.273556872077,7285.123627100451,8744.785578939978,10250.24262489345,11729.592882138015,12993.913011244797,13951.369607184566,14569.496817148725,14858.615787624405,14856.337882190897
A,7861.910573746427,6890.230824116359,6764.902634433974,6661.002876021924,6516.694086422112,6319.91106190214,6075.3152885893805,5793.125082356303,5484.624083848194,5160.290195637231,4829.083078913579,4498.271009814643,4173.507853230087,3859.017135398648,3557.8108059532174,3271.906415831658,3002.5255863870166,2750.2669263825364,2515.252016594972,2297.2458636215642,2095.754502352427,1910.1028682425074,1739.4960513902938,1583.066808061976,1439.9118704069715,1309.1192341265014,1189.7882557029575,1081.044074569151,982.0475988620786,892.002057252832,810.1569214274941,735.8098401530152,668.3070919786501,607.0421842928874,551.4557427539445,501.03333157578726,455.3030319432882,413.8328767930371,376.2282227361258,351.559822408394,346.0485536225803,363.2602215908158,405.5349918206333,475.6705660521808,578.3821066001124,721.4934973965117,917.0308799473318,1182.4055523801223,1541.7547584265724,2027.2939647096557,2680.2236258299235,3550.3398321798168,4693.1379759417,6163.171123314236,8003.149263082615,10229.94589682792,12820.844954093345,15704.82382183646,18763.224775739676,21841.54988429429,24770.308018114203,27100.439806441107,28639.041618351348,29344.384313598228,29278.269666452026,28563.681219628714
IH,0.0,128.47694354566346,242.8243617236313,356.1563630385068,468.40744399965246,578.5544907321023,685.4107197274831,787.895105434809,885.1238183470533,976.4291778257955,1061.347622963479,1139.5952171332626,1211.0394610738138,1275.6716168709738,1333.5814598880045,1384.935196657735,1429.956677054018,1468.9117243098224,1502.095268334624,1529.8209207353486,1552.412631498022,1570.1980932499166,1583.5035956221986,1592.6500717639913,1597.950117378311,1599.7057977095026,1598.2070888744738,1593.7308266432512,1586.5400584497525,1576.8837134379462,1564.9965211731017,1551.0991227268112,1535.3983286022794,1518.0874867826778,1499.3469187956412,1479.3444336884068,1458.2358762628173,1436.1656962147672,1413.2675273261718,1389.664768030769,1365.6252701342905,1341.516904954161,1317.765097180054,1294.8327860155462,1273.2274826060036,1253.532243079894,1236.4564683395276,1222.905084859277,1214.0676321601102,1211.5298710934062,1217.4081182759876,1234.4989904670715,1266.423192651889,1317.7218910594793,1393.843486614253,1500.9495955900925,1645.4875964645644,1833.531545127269,2069.972478930654,2357.7120704822432,2697.0443370761914,3085.3784068994446,3512.6441414598276,3965.399939902575,4429.308507860632,4890.87518774626
IN,128.47694354566346,231.3057447940243,303.32844481302993,363.3854810436283,413.7696431895776,455.35643217883074,488.65223106269895,514.1325140960232,532.3426255364761,543.9086955340089,549.5159630455199,549.87859928359,545.7111296099523,537.7052264749728,526.5127335360327,512.7344878067424,496.9140055868651,479.5349835257824,461.02163211253645,441.74099858785013,422.0065952777471,402.0828010665028,382.1896365728347,362.50762394686905,343.1825305025846,324.3298639589565,306.03903888954113,288.37717213923065,271.39249227106995,255.11736698803688,239.57096495779805,224.7615761883516,210.6886193521159,197.34436623830535,184.715400998157,172.78387906034857,161.52858439364303,150.92581304476786,140.9501074073172,131.57486264324052,122.92693760110808,115.21591495091651,108.67811899919806,103.55296362224901,100.09051749364585,98.58168622316143,99.40312439942417,103.07308557945584,110.31810333671926,122.1515520169791,139.96259608022666,165.60681918723486,201.47729341009864,250.5183560239014,316.1299254264932,401.9097293958195,511.20774295938764,646.5251293739138,808.8628032469657,997.1791188550162,1208.1197050621204,1436.123756102317,1669.1836488419592,1894.0155328615338,2098.6888086788513,2274.0674551810766
D,3374.0,3374.0,3374.2516785526013,3374.7273567732095,3375.425045521678,3376.3426273404857,3377.475980553989,3378.818658649513,3380.3620974507885,3382.096001413063,3384.0087670456423,3386.087882770088,3388.3202807933003,3390.6926337641507,3393.191597214467,3395.8040025405753,3398.5170067273366,3401.3182052679595,3404.195714387269,3407.138228059924,3410.13505460673,3413.1761369469004,3416.2520599296595,3419.354047585864,3422.473952634973,3425.6042401525015,3428.737966941485,3431.8687578506133,3434.9907800330866,3438.0987159361002,3441.1877356439663,3444.2534690620037,3447.291978318029,3450.2997306691123,3453.273572129312,3456.2107019516443,3459.108648116883,3461.9652438963353,3464.778605529513,3467.5471110364156,3470.269380167101,3472.9445573770986,3475.5725077595675,3478.1539297888767,3480.6904288092596,3483.1846043485534,3485.6401981062413,3488.0623414552215,3490.4579384645563,3492.8362234391966,3495.2095370935795,3497.5943658782403,3500.0126746466026,3502.493520993903,3505.074858385038,3507.80531337239,3510.745582741514,3513.9689933019836,3517.5607705710536,3521.615721311978,3526.234336488943,3531.5176830282085,3537.561752495042,3544.4428096631914,3552.2107880242743,3560.887535178426
R,0.0,997.3278919273707,1898.6902798328206,2802.144800590299,3707.922682872306,4609.068336615427,5497.281105414459,6364.904300348847,7205.608779858222,8014.5440901667625,8788.261064997347,9524.54170014521,10222.200918116632,10880.891351358665,11500.925467325216,12083.120634735167,12628.66818141257,13139.025194693113,13615.826755305894,14060.815920053416,14475.788763418474,14862.551972753916,15222.890761841549,15558.545164154704,15871.193057631257,16162.438540546356,16433.804515909967,16686.72854783475,16922.561228622235,17142.566442501724,17347.92303425801,17539.727491760143,17718.99733386208,17886.674962207406,18043.631694455256,18190.672087370716,18328.538256237884,18457.91412140544,18579.429530117202,18693.664216341458,18802.317144835222,18907.88896923382,19013.373199481597,19122.111671967472,19237.8527658205,19364.991764123944,19508.96534019186,19676.791586812495,19877.769331710508,20124.35897334934,20433.249259516866,20826.557656997997,21333.00488796744,21988.7497151918,22837.408316792767,23928.70692857094,25315.34809851572,27048.076226652716,29169.527288295754,31708.008807704762,34672.60674801284,38050.79769551802,41773.37478339263,45744.61028570955,49860.590538551805,54022.25672787366
G,178485.0,178485.0,178781.70733660326,179080.8408847268,179358.21940905243,179606.8733848078,179826.0576390485,180017.53257218294,180184.00976951938,180328.4413843797,180453.68836608328,180562.37306268583,180656.82526474103,180739.07589010464,180810.8741352456,180873.71502534926,180928.87028707092,180977.41880349172,181020.27479716873,181058.2129539903,181091.89029338057,181121.86490613437,181148.61183502912,181172.53643393054,181193.98554948904,181213.25685033915,181230.6065965386,181246.2561052766,181260.39713233922,181273.19635488233,181284.79911082724,181295.332523962,181304.9081215003,181313.62371720595,181321.56575095144,181328.81077736095,181335.4267455779,181341.4740980783,181347.00671427845,181355.92556215797,181371.42532562793,181395.93009043732,181431.54326519414,181480.67334368805,181546.65344827247,181634.32482903154,181750.64058858904,181905.36113156195,182111.87384699963,182388.08518489328,182757.1990027663,183248.0111788335,183894.16035726055,184731.70233730052,185794.60907348254,187108.45378093206,188683.48765277967,190509.07960755783,192551.5514495654,194756.59134183405,197055.96100907007,199258.6485687479,201255.61820558726,202989.85498412623,204444.53369997378,205630.94505755024
H,141454.87806857395,141454.87806857398,141454.87806857398,141454.87806857398,141454.87806857395,141454.87806857398,141454.87806857395,141454.87806857398,141454.87806857398,141454.87806857398,141454.878068574,141454.878068574,141454.878068574,141454.87806857398,141454.87806857398,141454.878068574,141454.87806857398,141454.878068574,141454.87806857398,141454.87806857398,141454.87806857398,141454.87806857398,141454.87806857398,141454.878068574,141454.878068574,141454.87806857398,141454.878068574,141454.878068574,141454.878068574,141454.878068574,141454.87806857398,141454.878068574,141454.878068574,141454.87806857398,141454.87806857398,141454.878068574,141454.878068574,135025.11137150577,128595.34467443757,122165.57797736936,115735.81128030118,109306.04458323296,102876.27788616475,96446.51118909655,90016.74449202833,83586.97779496014,77157.21109789194,70727.44440082372,64297.67770375551,57867.91100668731,51438.14430961911,45008.377612550896,38578.6109154827,32148.844218414488,25719.077521346284,19289.310824278076,12859.54412720987,6429.777430141665,0.010733073459007869,-6.505213034913027e-19,-6.505213034913027e-19,-6.505213034913028e-19,-6.505213034913027e-19,-6.505213034913027e-19,-6.505213034913026e-19,-6.505213034913026e-19
S0,4950.920732400089,3064.5453136354254,2528.8486149764617,2146.1689771362085,1850.974844767498,1615.5728395889632,1424.4071984183051,1267.30547837805,1137.0313048924927,1028.1878794403597,936.6381049263815,859.1558984481935,793.196235218849,736.7338460645543,688.1455273720734,646.1221076804526,609.6015288894499,577.7174160206155,549.7592302480627,525.1411966484064,503.3779393848325,484.06527922721335,466.8650265344583,451.49288184079273,437.70876454465,425.30904711262116,414.1202911229689,403.9941720368654,394.80334885531454,386.43808801091666,378.80349184209217,371.7587731158681,365.2976485343536,359.3556427841467,353.87673703735095,348.81200746717394,344.1185412419773,2311.7220709488447,4243.186713091866,6135.564633329271,7987.869497635652,9797.97740874613,11560.702395909964,13266.703200273842,14901.612618405648,16444.914849404027,17868.379726492898,19134.171395444755,20193.105652357277,20984.007507215214,21435.69911142082,21473.550449826147,21032.12681550709,20073.55066044111,18607.738070349504,16707.15717841933,14507.805470219444,12191.566369604736,9952.288754869112,6134.079861765087,3539.4842742295596,1887.907165779676,932.0153452614787,429.3253018681364,187.03332829823432,78.42901118626342
E0,0.0,1879.4646425625292,1842.1852011485234,1664.4551554831494,1453.6251564606655,1247.1025390059783,1058.9910255459931,893.8166545802576,751.8377298274133,631.4149865059658,530.1561852029042,445.4873999957594,374.9350198153084,316.2550786112888,267.4805992336916,226.92539557065092,193.1658612063134,165.0129187464993,141.48094504434647,121.75735640334621,105.17469881558173,91.1860181711418,79.34367888553297,69.2814730502038,60.699703677812145,53.35286551672874,47.03954241334278,41.59416507478841,36.880311540126044,32.78527547322947,29.215669398889254,26.093868575825795,23.35415594800027,20.94291561868069,18.814962739975464,16.932116322423177,15.262018002435235,13.777157701490683,34.485794315511214,73.77322875043686,127.15041626255552,192.55313930454074,271.49372945643256,369.03355731322307,493.5084850987456,656.5246027017901,873.2996865336042,1163.086677080365,1549.135659994671,2057.3618716766946,2712.6449027948975,3531.785115408219,4513.0981557516225,5624.773372350499,6796.855643237833,7923.099931656603,8876.814730431452,9538.928038559452,9829.614643116727,9731.090019849671,8668.739066188637,7196.7062281669505,5660.292364238503,4273.864011489722,3134.5864191339497,2255.133865059931
I0,3211.9235886415863,2954.9697015502593,2882.1116022941846,2811.8383228114094,2731.7219280369172,2639.6697124234856,2537.011343543153,2426.197334917831,2309.8759870766658,2190.506212510576,2070.20757195188,1950.7219032843766,1833.4277301263842,1719.3780557547648,1609.3463870322087,1503.8731959942852,1403.3089953482295,1307.8523832926187,1217.582603953969,1132.4867990522814,1052.4824329244007,977.4354950093494,907.1751030016391,841.5050946792859,780.213135633681,723.0778004166332,669.8740152557441,620.3771862830307,574.3662803163633,531.6260762265119,491.9487635610176,455.135030698746,420.9947565197354,389.34731129878185,360.0218503624634,332.85726490311714,307.70201254234865,284.41385866585426,262.8595536703011,244.83153152101704,231.66430253829586,224.19500709738207,223.01419880289052,228.79678078233076,242.60407331502688,266.13782662238157,301.9735416109543,353.8048366099673,426.70511318708225,527.3649805268603,664.1947838805226,847.0969101459326,1086.6434196533173,1392.4140457805715,1770.454175600759,2220.2384998985394,2732.0389432390675,3285.8817589120777,3853.0301852918083,4400.100501628464,4894.832184694741,5257.5460739365635,5463.155589948131,5518.62704089015,5449.022290526096,5285.852977095624
A0,7861.910573746427,6890.230824116359,6438.944131486168,6035.493462117082,5644.052570554574,5256.087297066758,4872.085490988973,4495.478604102518,4130.237967078999,3779.899095698232,3447.211398877684,3134.0749630826413,2841.606826212826,2570.259122859503,2319.950173128741,2090.1894533502314,1880.18793104205,1688.9508844456964,1515.353275780418,1358.1991903694577,1216.2674515562956,1088.345653528879,973.254742109619,869.8660461848189,777.1123936599975,693.9946764952366,619.5849805301693,553.0271767616725,493.53568406129085,440.3929579057709,392.9461326054436,350.603142081037,312.8285626808681,279.1391487261909,249.0999610406788,222.32019228520693,198.44920428165813,177.17280351093606,158.209769413516,146.00109248516196,143.669005593826,152.9937501300427,175.09589178966576,211.27960747952494,263.76588830919763,336.2766487920852,434.5457358769486,566.8395066722455,744.5032610817047,982.4320415074549,1299.199548500356,1716.3829049451451,2256.4706893765715,2938.8132978985504,3773.594318813377,4754.839245512212,5854.683260514392,7021.7219172267805,8185.543330411316,9267.436390748113,10194.630300304612,10780.963195191149,10981.306662687672,10829.654157441066,10401.45487053038,9783.527827050359
IH0,0.0,128.47694354566346,242.8243617236313,350.82964864909377,452.78631599838315,548.4819594079064,637.6268335651461,719.9930655930175,795.4576341298983,864.007137662534,925.7269329161956,980.7846002958997,1029.4123701426304,1071.8906521432618,1108.5335702384436,1139.6767721095061,1165.667462565429,1186.856458720204,1203.5920051259552,1216.2150767280764,1225.0559126909063,1230.431551130295,1232.644165847221,1231.9800370474925,1228.7090165894367,1223.0843735711237,1215.3429277923228,1205.7053969242681,1194.3768984014164,1181.5475594991879,1167.3931991780107,1152.076053432593,1135.7455224234886,1118.5389228785982,1100.582229975576,1081.990808731013,1062.8701214972336,1043.316407472907,1023.4173314972769,1003.2526004852764,982.971229325997,962.7711462828191,942.877831913089,923.5336296586289,905.000614325793,887.5754572818838,871.6140065472725,857.5644628766538,846.009335986141,837.716609685769,833.6988702033681,835.2747631490482,844.1195003995426,862.2809582026036,892.1288126910612,936.203519394028,996.9483659094055,1076.344274070692,1175.513833494037,1294.3965113170507,1431.5982404487631,1584.4763229978498,1747.2801151458812,1913.4278976886033,2076.8139047924783,2232.517878503301
IN0,128.47694354566346,231.3057447940243,303.32844481302993,358.0587666542153,399.05221960446454,428.6574012019887,448.6703449342217,460.5817247715492,465.68264861509,465.1124096019454,459.8812177077572,450.88239483931164,438.90060054967796,424.61899197858423,408.6264661946924,391.4252976898256,373.43910964646193,355.02097690305357,336.4614330988726,317.9961817519176,299.8133580235508,282.0602378016,264.84933553346815,248.26386886118408,232.36259601214192,217.18405179980067,202.75022122788232,189.06969743328528,176.14037433086918,163.95172495073984,152.48671500060027,141.72339836428392,131.6362376134961,122.19718856960897,113.37658038768022,105.14383169359319,97.46802178968196,90.3183410518283,83.66444106616221,77.47670195705768,71.80311429014463,66.73546857890165,62.380716604379565,58.848081266301875,56.25197717543244,54.72643090665199,54.44678301596746,55.65639046459311,58.697773047327544,64.0480086217469,72.35655928302214,84.47964735204934,101.49866103065963,124.70199096575456,155.5040128057622,195.27856267815787,245.10420233402024,305.4550547896404,375.91164294474805,454.98876039460595,540.1623470121543,628.1218055628761,713.0302743902216,789.2126545315563,852.4054321690296,900.198702924353
D0,3374.0,3374.0,3374.2516785526013,3374.7273567732095,3375.414610810743,3376.30159178572,3377.376034731374,3378.6251070874155,3380.035529904387,3381.5937832414343,3383.2863209049488,3385.099763909979,3387.0210615514393,3389.037618049419,3391.1373869296044,3393.3089370674597,3395.541494851932,3397.8249668251647,3400.149946758784,3402.5077106144067,3404.8902023029195,3407.2900126537347,3409.7003535547356,3412.115028833984,3414.5284031251294,3416.9353696852713,3419.3313179103357,3421.712101111895,3424.074004974076,3426.413716993638,3428.7282971151594,3431.015149701916,3433.271996927673,3435.496853632064,3437.688003649876,3439.843977593642,3441.963532068977,3444.045630275857,3446.0894239410204,3448.094236521318,3450.05954761462,3451.985128729941,3453.871139105778,3455.7181796833866,3457.527326140149,3459.300167542124,3461.038874116615,3462.7463131756476,3464.426230029387,3466.083511089258,3467.724547200465,3469.3577128033166,3470.9939654850223,3472.6475444714165,3474.3367006538965,3476.0843269759093,3477.9182929794497,3479.871254458965,3481.979747714821,3484.282508132465,3486.8181525171317,3489.6225667810418,3492.7264599512723,3496.1492758918853,3499.8975652775716,3503.9659179574833
R0,0.0,997.3278919273707,1898.6902798328206,2761.858502041983,3589.114960686856,4379.032190744279,5129.590866569063,5839.182385523398,6506.913451564767,7132.635898603309,7716.865590911355,8260.662263418482,8765.50352024646,9233.168173988479,9665.635154833708,10064.999661916198,10433.405943344598,10772.995024973858,11085.865306066546,11374.043895781708,11639.466703720778,11883.965520739668,12109.260576268185,12316.957304373762,12508.546276875202,12685.405461030867,12848.804129937496,12999.907896863802,13139.784462816375,13269.40976278658,13389.674273544166,13501.389307545489,13605.293166231551,13702.057064075969,13792.290738450543,13876.547777482238,13955.330595405638,14029.095052008885,14098.254720708437,14163.184815621536,14224.805747853616,14284.43757127618,14343.644235670825,14404.155853853385,14467.892320651925,14537.07821430202,14614.433185089927,14703.43052241866,14808.626322010234,14936.063581909188,15093.74298577555,15292.118827286262,15544.520064359105,15867.31790971081,16279.58973817,16802.02029724736,17454.90136622685,18255.364590874466,19214.338522043727,20333.996982614775,21606.487435812975,23014.420416177487,24516.663146973875,26065.178931925344,27614.815098519965,29128.721784024587
G0,178485.0,178485.0,178648.53947686794,178808.8351255687,178953.6657966191,179080.15133524864,179188.6665433622,179280.81344222033,179358.5878811726,179424.00818557263,179478.95004201477,179525.08097910343,179563.8445582082,179596.4691022467,179623.98767798452,179647.26219790918,179667.00785294265,179683.8159605149,179698.17437183968,179710.48517525432,179721.0797530506,179730.2314097695,179738.16585736253,179745.06985728032,179751.09830580905,179756.3800214427,179761.02246031514,179765.1155525629,179768.7348214989,179771.94391983436,179774.79669326698,179777.33886148958,179779.60938976647,179781.6415250671,179783.46384903468,179785.10101160433,179786.57434043582,179787.90234756272,179789.10115126043,179792.10189340476,179798.52118694372,179809.58503570588,179826.3398279792,179849.96354586285,179882.07458085814,179925.0166600307,179982.14340114905,180058.13257947695,180159.33724298287,180294.13351937762,180473.15252117344,180709.19023014928,181016.50449246835,181409.20659216787,181898.6398456505,182490.06050399633,183179.48002732874,183951.8859584609,184781.9049255536,185637.2176567136,186483.95737991013,187238.25784392754,187864.47104585404,188356.99494399191,188728.88035689908,189001.6328267107
H0,49509.20732400089,49397.811607521886,49219.97948573481,49042.78755958616,48866.23352437165,48690.31508368391,48515.02994938265,48340.37584156488,48166.350488535245,47992.95162677652,47820.17700092013,47648.02436371682,47476.49147600744,47305.576106693814,47135.27603270971,46965.58903899196,46796.51291845159,46628.045471945166,46460.184508246166,46292.92784401648,46126.27330377802,45960.21871988442,45794.76193249284,45629.900789535866,45465.63314669354,45301.95686736544,45138.869822642926,44976.369891281414,44814.4549596728,44653.12292181798,44492.37167929944,44332.19914125396,44172.60322434545,44013.5818527378,43855.132958067945,43697.2544794189,43539.94436329299,41411.237051229306,39297.29215413354,37198.03097066467,35113.37517481046,33043.24681420502,30987.568308453676,28946.26244746503,26919.25238979023,24906.461660969362,22907.814151885035,20923.23411712299,18952.646173339825,16995.97529763774,15053.146825946302,13124.086451411185,11208.720222789858,9306.974542854194,7418.776166799978,5544.052200663277,3682.7300997436396,1834.7376670341025,0.0030516579812709097,0.0,0.0,0.0,0.0,0.0,0.0,0.0
S1,1414.54878068574,821.7868816692423,641.1083828222053,514.8080311812911,420.4618869574665,347.843496477939,290.9535513475203,245.8205014206628,209.64547777698579,180.38661759655741,156.52288531833685,136.90520929622335,120.6563164072979,107.10056786002865,95.71356033887001,86.08532352327656,77.89313148003598,70.88123551457635,64.8456426180234,59.622606470114754,55.07987084732763,51.10996705848328,47.6250535128516,44.552919764009964,41.833874772227006,39.41831025995565,37.2647822811996,35.33849270387813,33.610080935232986,32.0546575743975,30.65102768126701,29.37644541858213,28.220703239841203,27.170176817272033,26.213113261251713,25.339324894971863,24.539942406620373,161.9846209490497,292.41495365835857,416.21079322870327,533.8369520951535,645.6331778976288,751.6984004284416,851.836367428153,945.517586235438,1031.8259301983865,1109.3788239603555,1176.2296112218662,1229.7814923096312,1266.7690293466876,1283.394417726096,1275.725135210968,1240.431709641827,1175.8305651695894,1083.0006954578937,966.5531609832076,834.596442565502,697.6540323282602,566.7017777852036,347.6711948927047,199.74481002314587,106.10924706861658,52.185071560043035,23.953387846054376,10.400561294892052,4.3477614659357835
E1,0.0,536.9898978750084,517.0949719316,457.01680838331816,389.11670236061093,324.52897161290696,267.22145215609794,218.20979454151356,177.219414309164,143.43716403979965,115.8739188595543,93.54116510428138,75.53272471943396,61.05673076872505,49.44166386502093,40.12946972576039,32.66295864342618,26.67142255585697,21.85653724661875,17.979545736912815,14.85011303688431,12.316911310424945,10.2598251448866,8.583591067391339,7.212662721756775,6.087098617255313,5.159288537840483,4.391359177293881,3.7531247141078805,3.2204714849567844,2.7740866045598347,2.398458008705453,2.081010682049373,1.8116900897625094,1.5823285686083632,1.3862704060431654,1.21807386277045,1.0732743018833393,2.4919800478570293,5.164806317824782,8.737586687270188,13.036512312624103,18.133772148610866,24.33177014511594,32.1331370995707,42.23071693809476,55.520887423100945,73.12232188895757,96.36653878955387,126.7112910512902,165.51606819196965,213.62796684000216,270.7846326685731,334.96554977108235,401.9751156378902,465.6082590605888,518.6123769236854,554.3163686503766,568.41338622893,560.1941415123116,497.3867431195837,411.8607253739187,323.2954389204799,243.757127032724,178.6017963883482,128.4090882240992
I1,0.0,0.0,46.725564819413144,87.98195011457375,120.71019155947572,144.91192323982176,161.55748850154126,171.88485995804763,177.12134809050085,178.37218588728464,176.583432600463,172.53939516675092,166.8756215764605,160.09796592857694,152.6029105939234,144.696787858437,136.61286496690016,128.5259659424373,120.56467214619397,112.82132008825165,105.36008419110266,98.22344314091652,91.43730970953531,85.01507194112465,78.96075759364302,73.27149862420782,67.93944069277032,62.95321505772124,58.299066974142775,53.96171549180632,49.92500391353086,46.17238758917698,42.68729567600323,39.45338879803883,36.45475984548548,33.67606357740781,31.102603232893067,28.72038428514985,26.516143284230797,24.611688629252786,23.0921632826307,22.005081381431097,21.379032153042576,21.246599126400284,21.664072483660167,22.726975039203843,24.58347480797321,27.44788365455036,31.61470858138712,37.47075659361317,45.49873484778085,56.26102836108513,70.34874049839212,88.28285789221438,110.36687535238465,136.51493252655658,166.10811068131696,197.9459275759643,230.34346132469236,261.3758283144099,289.2104177201943,309.3531256830024,320.44246791116706,322.9382551558217,318.3134437339479,308.38920028259747
A1,0.0,0.0,114.37140454308938,210.36992229156922,281.70784700993653,329.7670983212191,358.1302551308657,370.7822075380386,371.4316592723249,363.2704603160235,348.92278013782175,330.4777884624067,309.5559078524078,287.38428407708375,264.86973918652967,242.66399374822723,221.21936218455147,200.8348807996326,181.6936713248785,163.89268394338885,147.46603451491927,132.4030836918986,118.66227634780867,106.18161037495125,94.8864569137245,84.69532040754407,75.52401090085432,67.2886034394559,59.90747914492549,53.30267752669942,47.4007376152373,42.13316435038713,37.436624350282344,33.252933513002375,29.528957427300817,26.216389141986365,23.271474548572613,20.65470823973675,18.330516507436553,16.595744041129777,15.644652834950987,15.572062856258082,16.42405608203216,18.256394310701733,21.182355403475306,25.408270225310375,31.262534673514324,39.2238731390362,49.950104781932964,64.30134167153946,83.34187292389777,108.29400103565028,140.40937990061155,180.72908949833976,229.73519738150546,286.9565855906059,350.65876905280476,417.7769295617568,484.2041880666435,545.4239494708353,597.3267711866577,629.4376448278987,639.3639722703804,629.2002934662032,603.352219744969,566.8216134159048
IH1,0.0,0.0,0.0,1.8690225927765258,5.33227266637234,10.000834104253737,15.49751474183147,21.495243286452364,27.72627200826527,33.97997190484814,40.09623734604816,45.95760457889119,51.481503353923515,56.61326056030652,61.32007619404634,65.58599279592624,69.40778455697723,72.79165305851252,75.75060693716851,78.30240812245155,80.46797955262274,82.27018393322781,83.73289775899052,84.88031828675074,85.73645293083017,86.32475054251766,86.66784232215156,86.78736687806085,86.70385940556136,86.4366893239773,86.004034175046,85.42288032210764,84.70904314009522,83.87720107070072,82.94093896304018,81.91279814706608,80.80433019003023,79.62615250592859,78.38800444809863,77.09880287403055,75.77206967539378,74.42432711486619,73.073502730612,71.73813021377045,70.4374910097918,69.19254016903892,68.0274254822063,66.97149757915426,66.06179971671486,65.34604498133713,64.88598843833753,64.7608421997478,65.06993922660283,65.9332788975655,67.48810281976952,69.87967828340865,73.24548346831472,77.69411860387952,83.28290910680298,90.00006506695304,97.75715465732856,106.39509255019917,115.57979818483179,124.93274640482413,134.10515158118542,142.81760192932677
IN1,0.0,0.0,0.0,1.8690225927765258,5.015183397545581,8.84239867569264,12.87364759452544,16.765951800970196,20.294321389442352,23.327774116406356,25.805685338852403,27.717375418207137,29.0856689937252,29.95425609000903,30.37833895737186,30.417958991101898,30.133424678630377,29.582335677677865,28.81778585717869,27.887413091589735,26.83303865934317,25.690701939539217,24.490946836110428,23.259256215363223,22.01656126323825,20.77977573608965,19.562322137189778,18.37462923157732,17.224589116717315,16.117968183043466,15.058770425439507,14.049554244363627,13.091705515008973,12.185670613465392,11.331153229717316,10.52727992239462,9.772737807562416,9.065888224833277,8.404859862220796,7.7876244439773075,7.217430939586483,6.700285437915495,6.242895584233918,5.8517735305381215,5.533434734376618,5.295345565084061,5.147302776403565,5.103074094608443,5.182251238276502,5.41229506707249,5.830656647454181,6.486618891192694,7.442121651806009,8.770383724609816,10.550846536808276,12.859232236534341,15.752711974440452,19.25228694596474,23.32674654085841,27.88371391802732,32.77225828919683,37.79827508710909,42.62664512312837,46.93469043716485,50.482542428843985,53.13713626070503
D1,0.0,0.0,0.0,0.0,0.0036613020822862143,0.014106901344788673,0.03369792976360955,0.0640566227049491,0.10616450267820464,0.1604785906032153,0.22704329793852307,0.3055893989082514,0.39561756335735804,0.4964667110120874,0.6073686602852314,0.7274909763679324,0.8559699647550166,0.9919356117768761,1.134530052286164,1.2829209042669787,1.4363105802477631,1.5939424795260448,1.755104788055085,1.919132464395489,2.085407868068769,2.2533603876673456,2.4224653466633916,2.5922424016801298,2.7622535980641936,2.93210120836635,3.101425448656924,3.269902143709781,3.4372403935559745,3.603180279588367,3.7674906373782555,3.9299669143937375,4.090429125808858,4.248719915618414,4.404702726688293,4.558260080687813,4.709291966870161,4.857724863055503,5.003517613176095,5.1466641801258755,5.287194833177431,5.425177612787417,5.560721609087233,5.693983216268005,5.825176324627451,5.954587389960305,6.0825963351084305,6.209704057347126,6.33656662568254,6.4640346963764745,6.593193997207076,6.725399103950327,6.86228916220717,7.005772629007973,7.157970702656294,7.321116878475716,7.497421556069803,7.688921902447931,7.8973434460957215,8.123757271910263,8.368492956928495,8.631196828260569
R1,0.0,0.0,0.0,14.135543350286486,40.561347521565494,76.52915292282917,119.33160175050583,166.59832208964895,216.37381439510517,267.10853313590013,317.61537444188207,367.014975795708,414.6807590122822,460.1886624009984,503.2734814064477,543.7921897880501,581.6938487240243,616.9953715788292,649.7623031179177,680.0937844596604,708.1109468324473,733.94807305664,757.7459661943757,779.6470598957563,799.7918899290544,818.3166196170596,835.3513735006334,851.0191844531195,865.435400975392,878.7074348951426,890.9347564966118,902.2090654061452,912.6145823835562,922.2284203883211,931.1210015871235,939.3565025573794,946.9933064775738,954.0844503700052,960.678059003162,966.817759777116,972.5837130421095,978.0811160941963,983.4285472784131,988.7521217245567,994.1866656651466,999.8828466480745,1006.0189109917429,1012.8163248842405,1020.5592924916062,1029.6182690678888,1040.4768328942196,1053.7593079993662,1070.2531446932949,1090.915637687856,1116.8507312406116,1149.2416542785977,1189.232595398746,1237.7686374983623,1295.4233076683952,1362.2579256300264,1437.7568183229741,1520.863804617639,1609.1848553448685,1699.9539712206918,1790.5890016205583,1878.994642266143
G1,0.0,0.0,46.725564819413144,91.71999530012681,131.48679275419468,165.34533975929878,193.58385888020402,216.8358294168337,235.8231063459307,251.24365198995457,263.7246735741157,273.80731074844067,281.94668877149036,288.51908284972365,293.8318647893563,298.1339749013838,301.6257950385219,304.46792521141106,306.7887086905627,308.6905304043159,310.255000114227,311.5471657993291,312.6189078192212,313.51165482757335,314.2585462353817,314.88614787343795,315.41580983193705,315.8647394523096,316.24684857334887,316.57342244894386,316.8536481100129,317.0950320987415,317.30373119270195,317.4848079688178,317.6424501201075,317.7801346396687,317.9007593813466,318.0067486922348,318.1001384341277,318.31697524188814,318.7663849856063,319.52667614701716,320.6610334291431,322.23892297474424,324.35612426211617,327.1521526163527,330.82681038825837,335.6578972194734,342.0205528386742,350.4057775374112,361.431416319068,375.83360862019475,394.42220302638856,417.9842196600822,447.13086575162964,482.10827295399235,522.6226457108772,567.74911146003,615.9823194148352,665.442163310528,714.1868189814652,757.4663603618889,793.3039526446937,821.4351373222418,842.6453863128337,858.1862183601991
H1,14145.487806857398,13246.4915371323,12478.145691981357,11764.041497274191,11100.306854111974,10483.346233791714,9909.820922822139,9376.630679009764,8880.896697824415,8419.945795452828,7991.295721634022,7592.6415215777615,7221.842872031588,6876.912321914387,6556.0043729046,6257.405339986312,5979.523936241947,5720.882530159662,5480.109027418688,5255.929332547039,5047.160349032138,4852.703479423442,4671.538589713352,4502.7184048336585,4345.363304473583,4198.656490624995,4061.839500302868,3934.2080387856063,3815.108110480962,3703.932426158572,3600.1170668086475,3503.138385796365,3412.510132290853,3327.780780163436,3248.531047678761,3174.371594350751,3104.940882308748,2901.7257831610073,2708.1334480746314,2523.357327660531,2346.660418856714,2177.369426231513,2014.8694026474195,1858.598830594297,1708.0451085823647,1562.7404098241057,1422.2578830491768,1286.2081677049607,1154.2361980137227,1026.0182724003462,901.2593666860005,779.6906711755495,661.0673333616892,545.1663894374905,431.78486916115077,320.73805986147926,211.8579165184001,104.99160590735366,0.00017376706459829166,0.0,0.0,0.0,0.0,0.0,0.0,0.0
S2,1414.54878068574,1274.6826852441882,1232.3766618483671,1193.5219676541353,1155.6554483978937,1118.6379628002726,1082.7621607566816,1048.3332022424922,1015.5702402558759,984.5970477703429,955.4576008234502,928.1362495760513,902.5759711102233,878.6930160794433,856.387959060136,835.5537003009449,816.0810646642885,797.8625836249039,780.7949411370067,764.7804581663764,749.7278991125311,735.5528096856764,722.1775388531889,709.5310545197207,697.5486307570915,686.1714610787905,675.3462353465765,665.024705746037,655.163258608617,645.7225027403588,636.6668806390775,627.8982191501365,619.4607842495765,611.3266141082177,603.4709836019321,595.8718848824038,588.5096342892216,1594.543829292005,2591.9149535815873,3579.55546235142,4556.731009288911,5522.478476117771,6475.239869667797,7412.627717631738,8331.203585907955,9226.16857355719,10090.906556668799,10916.363115318603,11690.290300497898,12396.459372819907,13014.054501959283,13517.594078869934,13877.814819956393,14063.889174215963,14047.057936239682,13805.313576133958,13328.357371303466,12621.83505306574,11709.848004522286,9693.525239884164,7813.686757148574,6106.68660686647,4629.4994992534885,3413.0004668086244,2456.7918248834144,1735.850441127106
E2,0.0,187.9464642562529,208.21954075655384,209.70266623095097,202.94709790388478,192.22804062650476,179.6401507947777,166.32717777715013,152.95725654492833,139.93452959410655,127.50391501898093,115.80812225367848,104.92152825772216,94.8719036253255,85.65519358280082,77.24597657571549,69.60502282354899,62.684793355899686,56.4334222129948,50.79756020112526,45.724359069113575,41.16280851367567,37.0645902876288,33.38457688133329,30.08107329015851,27.1158773583085,24.45421589722975,22.064599339881422,19.918626408766393,17.990761556328998,16.258101280070335,14.70014039828039,13.29812302997183,12.035912014168371,10.89902470023995,9.874490909857935,8.950710056841986,8.117314081500611,11.679363131709056,18.78685648726175,28.569302965223848,40.67284725312162,55.43937614720481,73.89595561049659,97.71964913765495,129.27312134619632,171.73258535911646,229.2755908094396,307.25332361308494,412.22347323716434,551.663305091996,733.1500006382327,962.8547654938022,1243.4139652276017,1571.5892009609242,1936.4369921088908,2318.7582467047732,2692.3215409687027,3026.8918325157797,3292.6294414629124,3331.9262719839235,3204.355089941694,2947.905156337477,2605.3588001945077,2221.303438398521,1835.004810652513
I2,0.0,0.0,16.353947686794598,33.1636182376828,48.75756761972061,62.51617296167745,74.24138330656533,83.93325591633757,91.69136552159405,97.66545787861544,102.02846508251737,104.96079593004193,106.64084421318587,107.23920404707125,106.91523844426032,105.81520855479266,104.07146260907777,101.80234744438754,99.11260560160633,96.09408716088643,92.82665207659365,89.37917297631449,85.81057407394276,82.17086128897277,78.50211334844727,74.83941463787042,71.21171867479708,67.64263694595081,64.15115199027929,60.75225643877623,57.45752156534712,54.27560001978138,51.21266800483556,48.272775605407496,45.458244742906444,42.76995139366693,40.20757287061072,37.76980288982189,35.45453750518356,33.63444099547883,32.578402651898955,32.45805582275627,33.40051287120333,35.55246606181734,39.13824125388572,44.51014600928714,52.197887857712296,62.96517229654971,77.8781131102765,98.3831623329407,126.38166572158997,164.27348711256724,214.92582105657326,281.51346697369377,367.18664067995735,474.5617551332772,605.0936757465333,758.4502915624334,932.0435630138502,1120.8616258961797,1317.697099356475,1502.2051039243042,1660.8520069091092,1784.4924585463073,1868.4353927221914,1912.2447519478578
A2,0.0,0.0,40.02999159008127,79.4304272786154,114.27711687527696,143.3781454719639,166.59947027025953,184.269748044684,196.92061854375717,205.16031787356496,209.6079849606539,210.85840144567845,209.46323305379414,205.9218045645864,200.67764229434846,194.11859205206144,186.57915005089,178.34411560191765,169.65296357776552,160.70452462235681,151.66169259843423,142.65597282802113,133.7917529642831,125.15022792530009,116.79294594441737,108.76496784552529,101.09764870536848,93.81106211503901,86.91609386228018,80.41623524560976,74.30910734465922,68.58774712921678,63.241684833734965,58.257749943252136,53.620962739082245,49.31511029210643,45.323221014998026,41.627950131463216,38.21188831096714,35.976696035352994,35.53155618943341,37.224958158183235,41.286954084724755,47.991980348917195,57.79930563613621,71.46862736019675,90.16896421021514,115.60134132331883,150.14630862953828,197.0299243756528,260.4762244642642,345.7797359955864,459.1944524236186,607.5157965443808,797.2608315068869,1033.4514208184328,1318.1579494589682,1649.1057761705424,2018.7144605473407,2413.900809183713,2816.8431860031574,3178.3542507102147,3468.0140637876425,3667.253573492367,3768.9107821568386,3776.205369022655
IH2,0.0,0.0,0.0,0.6541579074717839,1.961092861133598,3.852607632642423,6.237764435903614,9.020429500269232,12.107353159993872,15.412064095796397,18.85667298052219,22.372542669213242,25.90030991331585,29.38952675570386,32.79808128876428,36.091498519464984,39.24218736208182,42.22867776163741,45.034877147248544,47.649365058737445,50.06473739173809,52.277006393849284,54.28505875914063,56.090171523952755,57.69558367952319,59.106120270513685,60.32786507602088,61.36787764161406,62.233950347424674,62.93440128195925,63.477898886553575,63.87331459851725,64.12960002093261,64.25568546163375,64.26039552686251,64.15238316335922,63.9400769664187,63.6316399587659,63.234938207785554,62.757517820902585,62.221605266059065,61.65951629715253,61.10946326849626,60.61359753226279,60.21867455469469,59.97902124177256,59.96142823729445,60.2518722945145,60.9643010503766,62.251890870215,64.32108441309367,67.44818961017866,71.99722602764967,78.43598875229466,87.34524169413801,99.41434776131412,115.41666125958928,136.1605481696157,162.4168575426373,194.82980900592108,233.8238357638101,279.5223524976975,331.2312790923596,387.7359966539596,447.4924830850964,508.81535899309915
IN2,0.0,0.0,0.0,0.6541579074717839,1.8501116170442327,3.4310723627991564,5.246766559285148,7.168998037901636,9.095165011087303,10.947131306995665,12.6683490844221,14.220476559172106,15.580042555862327,16.735397254521,17.68404027964354,18.430344931834828,18.983661905828153,19.356769125272887,19.56462750156294,19.623400967209378,19.549700615589508,19.360015828182153,19.070299079117554,18.695675182655826,18.250249789019414,17.7469957547128,17.197699511028343,16.61295267807195,16.00217690638444,15.373672282696198,14.734681633924591,14.091464736053851,13.449377817847605,12.812954880139118,12.18598679433499,11.571600528480792,10.972333845984904,10.390204983333959,9.826777020551633,9.283216838622895,8.775364942598591,8.326655133391435,7.962708403264874,7.709115462479407,7.592225980614193,7.642102417593198,7.896898099070094,8.408338017348694,9.248369407637286,10.517221067526204,12.352970974822174,14.942186119171122,18.530183254324804,23.427993778669673,30.011549167132518,38.70774147821611,49.96289786332361,64.19243879348375,81.71556897492383,102.68424797502614,127.01962476147921,154.3702942774529,183.64120807214795,213.41457938162318,242.18984342392042,268.5783539077209
D2,0.0,0.0,0.0,0.0,0.0012814557288001746,0.005123117891566543,0.012670142952762274,0.02488954576054605,0.04256002092767028,0.06627759261834079,0.09646889291848378,0.13340797343864688,0.17723442977866488,0.22797156852914335,0.2855438717875079,0.34979332697421855,0.4204943870859873,0.49736745585334546,0.5800908784692235,0.6683114757546624,0.7616536965407709,0.8597274854665531,0.962134975405534,1.0684761183323364,1.1783533678584441,1.2913755225830417,1.4071608330756293,1.5253394676605603,1.6455554238844732,1.7674679640948243,1.8907526452707595,2.015102005343092,2.1402259608511223,2.265851963982534,2.3917249608572897,2.517607184464615,2.643277818392428,2.7685325573364428,2.8931830868595885,3.0170565016744773,3.1399946788612194,3.2618830358047206,3.38267029449492,3.502380032609943,3.6211183997743825,3.739083136739968,3.8565784073775276,3.974039214384643,4.092068983712276,4.211494357832168,4.333442042440294,4.4594431519007856,4.591570071083356,4.7326082771449896,4.886259629490783,5.05736366885794,5.2521103561769555,5.478204606633554,5.744934875419691,6.063099664340648,6.444759462441384,6.902806197713005,7.450373560034199,8.099235578367322,8.858786916811844,9.735397593675284
R2,0.0,0.0,0.0,4.947440172600269,14.913430944223125,29.461609197318264,47.97508821727781,69.7878671257245,94.24627924646246,120.73926971971022,148.71293634449893,177.6764272736829,207.20282436139394,236.9270428142358,266.541971913441,295.7936387819572,324.47591282483626,352.4250985977959,379.5146492869821,405.65015137258837,430.76467233897444,454.81452092677114,477.77543914081787,499.63922403978233,520.4107630141305,540.1054570992385,558.7470015376458,576.3654902587688,592.9958103788165,608.6762936185632,623.4475932228429,637.3517571937069,650.4314711639015,662.7294468566798,674.2879235513019,685.1482931633394,695.35081048197,704.934375494706,713.9363761085301,722.3925809873585,730.4506423967176,738.3372885678478,746.3279022688884,754.7324845971473,763.9012448932777,774.2477252940898,786.2868850518688,800.6876543251568,818.3419335325641,840.4533987938637,868.6487461529696,905.1100833073745,952.7188726549988,1015.1887008102052,1097.1482220270639,1204.1228761328487,1342.3633079410226,1518.486817334337,1738.935153973485,2009.2984969572099,2333.5984157739013,2713.649995109059,3145.122398277656,3619.687032947568,4126.403228353686,4653.102316713093
G2,0.0,0.0,16.353947686794598,34.47193405262637,52.7189728936788,70.37818364521328,87.10468782703535,102.73587110133282,117.2086411798963,130.51804277864522,142.69428661283638,153.78889466696234,163.86580662450964,172.9954339954499,181.25060471640467,188.70379390247783,195.42526464114636,201.48186648518234,206.93631243795215,211.84680244536077,216.2668943339389,220.24554739978723,223.82728233552066,227.05241547646608,229.9573364390584,232.57480679635734,234.93426400431363,237.06211976945113,238.98204576945568,240.71524237717497,242.28068801884797,243.69536819850998,244.97448418514668,246.13160522610545,247.178896412037,248.12726264223,248.98648023066713,249.76531607952717,250.4716349260746,251.48790141678455,253.12261835284298,255.6085437358522,259.14764525011975,263.97163947043003,270.40161194744377,278.9045760031561,290.1531295323242,305.0962449997786,325.04639959722937,351.7816978687157,387.65085424400024,435.6532088927047,499.4474218057161,583.2291334073625,691.4233844715216,828.173430179238,996.6702912031564,1198.434401078779,1432.7036958551905,1696.085243778628,1982.5896473106177,2272.5134198269648,2551.3367311257143,2807.8453433156415,3034.54767417523,3227.8318648186714
H2,14145.487806857398,14987.481128694148,15755.236701242953,16458.9704804173,17103.319034027158,17692.58715415388,18230.771561875266,18721.58291872119,19168.46626580854,19574.620002964944,19943.01351212866,20276.403521862892,20577.349302905794,20848.226778254408,21091.241625316692,21308.441442127536,21501.72704448218,21672.86295606515,21823.487149218636,21955.12008987689,22069.173136369813,22166.956338248656,22249.685677990226,22318.48979537463,22374.41623148924,22418.437226672006,22451.455104256267,22474.30726970342,22487.770852596397,22492.567017004603,22489.36496390873,22478.785647681863,22461.405227052055,22437.758269512688,22408.34072679207,22373.612697735887,22334.000993787893,21276.724256174424,20219.710601467494,19163.816055370902,18109.81448570572,17058.404591769377,16010.216318695304,14965.816743239422,13925.715473721846,12890.369603445763,11860.188253777495,10835.536740181597,9816.740391842819,8804.088053055271,7797.835292301433,6798.207342864815,5805.4017969058505,4819.591073168231,3840.9246768603707,2869.5312687630867,1905.5205592396605,948.9850415590133,0.0015777780217831605,-2.168404344971009e-19,-2.142590007530878e-19,-2.1170829836317008e-19,-2.0918796147789425e-19,-2.066976286031574e-19,-2.0423694254835792e-19,-2.0180555037516317e-19
S3,4243.646342057219,3903.3760418333677,3752.0898314698234,3624.4029084201375,3511.1069693148715,3408.641948309175,3315.1760390193494,3229.5515456773333,3150.91644139677,3078.5772280699493,3011.9352500184627,2950.457453936213,2893.6621183374937,2841.1112469362633,2792.4059359506596,2747.183049972888,2705.1124629130727,2665.8945472642254,2629.2577912578363,2594.956510494379,2562.7686557237853,2532.493729402353,2503.9508240205478,2476.9767915347934,2451.424548611583,2427.16151813329,2404.0682040006045,2382.0368937756402,2360.970482050039,2340.781406442585,2321.390687674172,2302.512411667648,2284.3178834309115,2266.7434043634594,2249.733013652386,2233.237112558545,2217.211456558927,3976.76332344513,5726.139009281411,7464.994015567866,9193.122534116917,10909.909229613246,12613.982834215614,14302.987992516382,15973.3424208072,17619.866613581762,19235.212135572016,20809.047357285177,22326.99336006734,23769.36164086643,25109.851654918468,26314.518792061117,27341.473451723985,28141.82492584688,28662.260288132202,28849.373588558352,28655.559386495013,28046.03805199253,27006.32386165582,23836.826181900455,20625.032547636365,17432.688883530285,14390.266039061727,11616.361792236776,9192.861547165669,7157.134291092002
E3,0.0,322.19393872500495,359.6738616779881,363.02820171350845,351.5644421005384,333.187273483128,311.7262229744796,289.20496234806245,266.74680674970335,244.98876953533778,224.28889017705512,204.83754623293163,186.7208367379977,169.9585935453184,154.5282352292582,140.3803155003335,127.44895841474548,115.65900051515851,104.93092626952729,95.18427632066077,86.3399734319279,78.32186968495324,71.05772926983468,64.4798021715034,58.52510325500823,53.13548201260409,48.25754669795475,43.84249041043331,39.84585442995311,36.227254753182336,32.95009065119694,29.98124864720993,27.29000145531889,24.84979706952438,22.636540827759262,20.628425382910958,18.805747255323997,17.15072315839216,20.552372327805593,27.782556956361727,37.82182493782109,50.30961912571057,65.66089124581778,85.02168464202794,110.22631838370317,143.84659145597902,189.35115567129793,251.34276558573748,335.8018810636428,450.21817380248507,603.4323826328448,804.9674943099577,1063.6641927743037,1385.6153150207956,1771.7016844553023,2215.319701197912,2700.973524805977,3204.2399503267625,3693.3369582801374,4132.2712734536335,4335.8190759082545,4350.360023017209,4195.049793149472,3898.9355445768006,3502.4515601184294,3050.6041360581803
I3,0.0,0.0,28.03533889164788,57.08912351209817,84.11047944355397,107.97262090458966,128.3267226364165,145.18508734434798,158.73512101351528,169.24698113921667,177.0246416093131,182.37891279781851,185.61230573537443,187.01062237971558,186.8385261780819,185.33754260488217,182.7255725839675,179.19735284500422,174.9255009165882,170.0619059715028,164.7393049693129,159.07293509707,153.16218864240736,147.09222099315997,140.93547991568065,134.7531367751791,128.59640932739742,122.50777208557571,116.52205472498355,110.66743202193875,104.96631080256452,99.43612057612188,94.09001515963458,88.93742236495213,83.9847053863927,79.23562179313119,74.69173100731827,70.35275322147473,66.21688362027467,62.7078742182557,60.108711855233075,58.591037959043256,58.28138917354279,59.33228576324568,61.98376802876961,66.61628423287861,73.80362893906201,84.37551393554301,99.49577751682357,120.75553382262487,150.27031312030664,190.75567008360414,245.53854686682072,318.44899230348017,413.54081259732453,534.6201533019996,684.6140635988168,864.8670758141652,1074.4910023052275,1309.9032341864263,1564.6758574040946,1816.7781511387088,2049.977525338297,2251.0068067073857,2410.187701232805,2522.1345215239985
A3,0.0,0.0,68.6228427258536,136.74706348729603,197.16601252021593,247.67596023892287,288.0291328804107,318.82401605800425,341.0161405877472,355.68219059991816,363.9014542566654,366.69608434087365,365.0024501446803,359.6595298573007,351.40683346509763,340.88766291809384,328.65528095846446,315.18054007791966,300.8600897637819,286.0246205642022,270.9468151517723,255.8488120828589,240.90907661769052,226.26863167356595,212.03664086101625,198.2953609352032,185.10449701249456,172.50500335293358,160.52237734969333,149.1694959969874,138.4490435454555,128.35557704234316,118.87727353604095,109.99722682700357,101.6949650000583,93.94741450328625,86.72970885936381,80.01585835379814,73.77929783405718,69.03803874948265,66.42269679041834,66.26881858366845,68.79368575509325,74.27610433528412,83.20451313351096,96.39766771212955,115.12088843654394,141.2218852618961,177.30032642479392,226.9083335443368,294.7542059317579,386.8472833042398,510.48245521247907,673.9359546075445,885.7588170279466,1153.6328301852902,1482.8838887909153,1874.87924325296,2325.6153568387067,2824.814373683372,3355.802643723417,3864.51716282671,4313.454977968056,4673.828145128546,4926.593360369827,5063.672886946605
IH3,0.0,0.0,0.0,1.1214135556659153,3.371361737557561,6.634717170273536,10.754732235315817,15.565405147383087,20.906202486284986,26.62889940224958,32.60052070072931,38.70423635722476,44.83915099088875,50.919494215926406,56.87349887475414,62.64213572100419,68.17780605460626,73.44305408480668,78.409336307102,83.0558695704434,87.36856930988922,91.33908265369767,94.96391661272104,98.2436585991025,101.18228463156919,103.78654944987686,106.065452160686,108.02977081350735,109.69165934340295,111.06430053236883,112.16160897149999,112.99797840544691,113.5880682760933,113.94662473002633,114.08832897917172,114.0276766626471,113.77887918469628,113.35578430935371,112.77181349214865,112.03991365929632,111.18959370591874,110.26079740878085,109.29913680202033,108.35391806770713,107.47907014072136,106.73650693334112,106.20150428703238,105.97003327220581,106.16837649366258,106.96558449807506,108.58928474769375,111.34490229771008,115.63732862404771,121.99239540488011,131.07337334777984,143.68580245704132,160.76332078264537,183.32866055375175,212.42767671681798,249.03934498415651,293.9699898316401,347.74464788032986,409.9913878280936,479.70012420326765,555.3603640646489,635.1197629519521
IN3,0.0,0.0,0.0,1.1214135556659153,3.181108176261505,5.910475546915263,9.04945880582276,12.375963819270059,15.712725715082165,18.92536364712547,21.917129820778236,24.62274937759714,27.00241084145892,29.03635083232524,30.7201834566432,32.06098492458132,33.07407982547286,33.78044950323879,34.20467621793107,34.37333951867293,34.31378838609985,34.05322154048096,33.61801744763465,33.0332642721997,32.322447987380905,31.507263919182947,30.60752316130791,29.641130584325097,28.62411564959855,27.57070100794192,26.49339700132972,25.403112776968918,24.30927684475086,23.219961632531845,22.142005163644413,21.081134899158016,20.04208521692515,19.02870773714503,18.044073980081674,17.090570098861317,16.18705597405598,15.359945919292507,14.637246756247324,14.046435707309968,13.615605465510681,13.376842128171033,13.371044303075342,13.653897699140359,14.303159833021303,15.427618844553537,17.17798981719929,19.759521452740163,23.445110378188687,28.586251936971163,35.6174736168896,45.04870945049036,57.44034001029064,73.35795779721957,93.30802609738569,117.66037428195699,146.56769749436302,179.89509143967013,216.6533542391293,255.40145701624908,294.4553598106866,332.0800796008454
D3,0.0,0.0,0.0,0.0,0.002196781249371728,0.00880107474350364,0.02179808392080634,0.042865953126762266,0.07335763926153568,0.11431162397609318,0.16647602541631906,0.23033847137417093,0.3061577266981479,0.39399490829529743,0.49374311408064253,0.605154854453295,0.7278670050931944,0.8614231987091385,1.0052936943839401,1.1588928362035158,1.321594255319382,1.4927439920732128,1.6716717240367407,1.857700286227472,2.0501536643677323,2.248363632959768,2.4516751986319814,2.6594509967177893,2.871074776096945,3.085954094472018,3.303522333817236,3.5232401339481982,3.744596331154672,3.967108478685387,4.190323016597296,4.41381514455251,4.637188458292398,4.860074392838685,5.082131510144301,5.303044663980835,5.522524070364338,5.740337751449527,5.956331976831037,6.170442367316387,6.382701131538077,6.593246121646423,6.802336475396751,7.0103787913595585,7.217967669620838,7.4259450902424575,7.635484193070516,7.848204026365885,8.066321947577823,8.292848472039084,8.531824187498708,8.788588988858113,9.070060775108388,9.384986385644934,9.744116130369454,10.160249085692966,10.648102082165925,11.223971491160777,11.905182198997506,12.708330501097189,13.648033996606715,14.735951320467684
R3,0.0,0.0,0.0,8.481326010171887,25.637641976112107,50.735558329667114,82.71247066816377,120.4188438802621,162.73012346492177,208.59996651923797,257.0841213794229,307.3486895005536,358.6697992762207,410.42853354315736,462.10331871165863,513.2610933460788,563.5480625915894,612.6805368339388,660.4361597983777,706.6457061179982,751.1855454028276,793.970814138619,834.9492993657954,874.0960133669805,911.4084227826725,946.9022861067878,980.608048562453,1012.5677415992977,1042.8323347117118,1071.4594892307641,1098.5116666557608,1124.0545475709578,1148.1557209522755,1170.8836075033462,1192.3065631115383,1212.4921899029555,1231.506787794008,1249.414926682591,1266.2791212080124,1282.1595919531837,1297.2432180339786,1311.7994102890807,1326.1454431852937,1340.6323147819105,1355.6523485153314,1371.6653548023262,1389.2404769261761,1409.1135171085311,1432.262447806475,1460.0056042636572,1494.1267943942073,1537.0282058294288,1591.9042722579622,1662.9168503944522,1755.3355868481667,1875.592308578517,2031.192629363794,2230.4384369596223,2481.942167772885,2793.9518571238286,3173.546524845843,3625.7975133774207,4149.0821174865905,4736.934619447459,5379.01532690247,6062.252412068705
G3,0.0,0.0,28.03533889164788,59.331950623430004,90.92043643585366,121.51141625237368,150.50332765656768,177.6278301754125,202.79267083212764,226.00334063891026,247.32075960014404,266.8370021173945,284.6607080787759,300.908009181947,315.69676277069055,329.14286129173735,341.35789467921325,352.4477207469673,362.51165704615164,371.6421021743933,379.92445364992363,387.43722817522575,394.2523165283287,400.4353239704739,406.04596057244737,411.13845582520025,415.7619793194329,419.96105482380295,423.77595923005686,427.24310090501075,430.3953742473916,433.26248888515414,435.8712731147566,438.2458815328449,440.40815834348166,442.3778511811316,444.17281013876914,445.8091708335111,447.301521490029,449.089862777632,451.5073303520698,454.7983534042986,459.1759876555216,464.88939537910795,472.2874605056915,481.8786781521021,494.3953255969158,510.8715009085218,532.7418056046458,561.9612241117931,601.1364461152848,653.6434281282068,723.6867585181117,816.2402877041168,936.8080273822395,1090.9706330947006,1283.7341556556778,1518.7562929589317,1797.5695855151273,2118.9410975807446,2478.505979533327,2855.7823418602684,3234.323968150953,3599.3514515471056,3938.6128906091158,4243.3747269989335
H3,42436.46342057219,42251.224889768106,42077.553743409255,41914.46980389564,41761.122680296714,41616.72426550885,41480.54426751239,41351.906060067355,41230.18283002776,41114.79400008478,41005.20190726223,40900.90871889372,40801.45356911559,40706.409900121835,40615.38299355242,40528.00767843134,40443.94620304117,40362.886259021565,40284.53914681621,40208.638072369155,40134.936565693184,40063.20701260252,39993.239291524274,39924.839507880504,39857.82881906929,39792.04234357097,39727.32814816826,39663.54630769848,39600.5680321546,39538.27485632232,39476.55788748398,39415.31710703958,39354.46072219141,39293.904564114244,39233.57152928844,39173.391060910944,39113.29866751926,37278.0885437614,35448.31646686909,33623.943584336455,31804.943575883604,29991.30138322754,28183.012047634315,26380.079646502563,24582.516320926232,22790.34138682694,21003.580522838234,19222.26502866928,17446.431148177635,15676.119451843155,13911.374273760948,12152.243198663466,10398.776594842735,8651.027189176297,6909.049680766315,5172.900389983084,3442.636939963443,1718.3179678532424,0.002863302682499125,-4.336808689942018e-19,-4.3264829549659653e-19,-4.315935954240426e-19,-4.3051731901411808e-19,-4.2942000756373723e-19,-4.2830219355550557e-19,-4.271644007824044e-19
S4,2121.8231710286095,1671.2110329688705,1530.3296627131508,1424.5385090471314,1339.0305744265652,1267.9210369832367,1208.0781715920116,1157.4977098389131,1114.7342554342335,1078.6661323929627,1048.3844885050264,1023.1342367066679,1002.2787097146704,985.2761727526462,971.6628544790328,961.0399347272087,953.0631727204741,947.4344425345679,943.8947287046799,942.2182834523674,942.207729923707,943.6899462767876,946.5125990669976,950.541218661167,955.6567280660018,961.7533514780334,968.7368410842678,976.5229707785427,985.0362539122415,994.2088492624766,1003.9796253049096,1014.1672003292043,1024.8564441738438,1035.9989562993317,1047.5515840828518,1059.4755546059057,1071.7358209879787,2615.602136161826,4177.602435012926,5756.209054966298,7350.526957609292,8958.851013175905,10577.694910784076,12201.138256341801,13820.191540822323,15421.91679994567,16988.15394968144,18493.831126188517,19904.998771521055,21176.9768393655,22253.373181669078,23067.140334907963,23545.023795664823,23616.318452437976,23225.55497140641,22346.903985019817,20996.578181939643,19239.149413323994,17184.717431596768,13124.658522017211,9672.547514692633,6839.480960706879,4650.414233363683,3058.2993033718853,1961.942291808554,1240.7132229725687
E4,0.0,483.29090808750743,510.59532206083253,493.5481568830264,460.38296283467685,421.91106813845323,382.93183656124967,345.6675759522518,311.1078260093498,279.61568821936766,251.22746294622385,225.8103085849608,203.14876716448074,182.99340823140057,165.08832092883313,149.1863726112641,135.05722543802253,122.49101910325727,111.29946821346226,101.3154493627848,92.39174750333396,84.39937996126305,77.22575742360735,70.77283920517183,64.95537428711744,59.69927724626295,54.94016120651768,50.62203311927696,46.69614657173672,43.12000162829577,39.85647838169585,36.87308988380959,34.140010622359085,31.63288664235415,29.330042323391172,27.212194077896623,25.262176288215343,23.464689564689667,33.289651621493405,52.62237046350644,79.33996146437869,112.70950651863578,153.8958141516964,205.98822193637946,273.9688942381342,364.8747337177176,488.2094197807432,656.5038692307328,885.7797864839195,1195.4968626417383,1607.3638735549957,2142.288301110755,2814.983929566807,3626.604301289729,4557.135860752011,5560.488657402915,6565.313826954753,7483.141942598974,8222.991619250643,8709.141121556699,8480.343283938206,7786.735241805153,6804.037737882159,5695.865844400217,4597.79648798424,3601.9019485905746
I4,0.0,0.0,42.053008337471816,83.11763851488574,119.41375860141076,149.9203574659556,174.6388402889201,193.9881110123286,208.54693285114837,218.9338716337735,225.74960278495945,229.54990633033447,230.83454083240719,230.04453633854158,227.56393658528629,223.72379401830426,218.80717292171582,213.0544498518514,206.66851048486183,199.81962620357615,192.6499046272387,185.27727501570638,177.799009007477,170.29479967903794,162.82943376211472,155.4550970295141,148.21335393343625,141.13684121916052,134.25071252094483,127.57386756867426,121.11999603031559,114.89846245391409,108.91505540885323,103.17250514595918,97.67120436431553,92.40962826763868,87.3846961039215,82.59207993463322,78.02646679734659,74.68101060269994,73.28540543124028,74.32624944734808,78.18743892743414,85.32351293397588,96.42146259739934,112.54683711979214,135.29224984345444,166.9498568907155,210.7188053584341,270.93642095131713,353.2863061919575,464.88633982520355,614.1042110380699,809.9184970741541,1060.6898631737554,1372.368664601001,1746.4187636063427,2177.978573235811,2654.8773670043997,3158.0014348679706,3663.17732296251,4108.030556562218,4456.94201707786,4692.43225584906,4812.656959409365,4827.716431340819
A4,0.0,0.0,102.93426408878041,198.96200084736068,279.4905394621087,343.0025608032767,390.47093931887207,423.7705066130578,445.0176983653657,456.2781311494915,459.43946068075405,456.16377248304224,447.87943596637786,435.792394040174,420.90641787850075,404.0467137630437,385.8838621510609,366.95650545737044,347.6920161481276,328.42484412215856,309.41250853100576,290.84934611084986,272.8782033508924,255.60029190333995,239.08343302781608,223.3689084429924,208.47711855407067,194.41222890005,181.16596444388884,168.7206905777644,157.05190031669846,146.13020955003114,135.92294657772374,126.39512528343846,117.51089654682427,109.2342253532013,101.52942323869564,94.36155655710293,87.69675067014896,83.94825109726665,84.78064221395158,91.20063186266331,103.93440410911737,123.86647957775276,152.43004411779236,191.9422833067897,245.93275675010977,319.51894598362566,419.8547575086025,556.6223236106719,742.4517740096476,993.035906899195,1326.5809990284183,1762.1769847654205,2316.800098352899,3001.065814721379,3814.461086276265,4741.339955624423,5749.147439875668,6789.97436120826,7805.705116896359,8647.167552885136,9236.901941637596,9544.448144070044,9577.95843365001,9373.453523193193
IH4,0.0,0.0,0.0,1.6821203334988726,4.95640073620588,9.58437241702625,15.29387474928614,21.820961907686826,28.926356562610824,36.40110476036735,44.06725901998371,51.77623323203353,59.40612667305523,66.85868319577516,74.05623329199605,80.93879751183343,87.46143651492362,93.5918806846619,99.30844281714991,104.59820125563984,109.45543255286562,113.88026913884683,117.87755664412553,121.45588630669289,124.62677954695175,127.40400387547065,129.8030015232929,131.84041438580087,133.53369095194685,134.90076280045287,135.9597799619914,136.72889596814647,137.22609474166956,137.4690526417189,137.47502535099056,137.26076698432138,136.8424684244385,136.23571196781188,135.45543968086213,134.5159331912631,133.470772160922,132.40111785054208,131.4051624658364,130.59351054317702,130.09163257500276,130.0487174538575,130.65210378572183,132.14721883674835,134.86381891321517,139.24974105801004,145.9128904734945,155.67029321038663,169.59919837404595,189.0792698021354,215.80795606150434,251.76624769430032,299.1137650446095,360.00394372933005,436.3312020703586,529.4463401081618,639.8951163746495,767.2399909733681,908.5615612086615,1059.6031749519207,1215.5366043372226,1371.6045853685814
IN4,0.0,0.0,0.0,1.6821203334988726,4.671020394261796,8.515084391434915,12.81201316884387,17.239875666332182,21.55776480577432,25.596016861535958,29.24358109370997,32.435603089301935,35.14240666922787,37.360230319533386,39.10370464768161,40.399901269398796,41.283729530471774,41.79445231653933,41.97310943699113,41.86066325846049,41.49670959316376,40.918623956700415,40.16103767650389,39.25555941546621,38.23067545080415,37.11177674917039,35.921272852132816,34.678762211971005,33.40123626750048,32.103300563615456,30.797400896503955,29.49404606668128,28.202021561012366,26.928590542560006,25.679675422780054,24.460032016721986,23.273405733488588,22.122671047627318,21.0099554783009,19.936749304721303,18.943971454722398,18.093559881415427,17.4545516510724,17.09755765561964,17.097274137711917,17.54096520566114,18.54109620490771,20.251385303765225,22.886549810456632,26.746408416079955,32.24441935772887,39.93884537208156,50.561217095119495,65.03173561789617,84.4460432999006,110.01548355242079,142.94759077731266,184.26739104760532,234.60081868904967,293.9620222853998,361.59777750492674,435.93828973520857,513.2321670173319,589.0521514949404,659.1556308463707,720.0731824874521
D4,0.0,0.0,0.0,0.0,0.0032951718740575914,0.013004460785946784,0.03177966597794766,0.06173944050512542,0.10448538353378443,0.16115036443072947,0.23245792442050162,0.3187830163878643,0.42020952202671147,0.5365825268952632,0.667554638709042,0.8126263153202185,0.9711805184706406,1.1425121764556447,1.325853003345696,1.520392229292071,1.7252937717029373,1.939710336099846,2.1627948874267373,2.3937098829243606,2.6316346095484557,2.8757709240196623,3.125347652778144,3.3796238726595895,3.6378912609650054,3.899475675528679,4.163738101061783,4.430075077086521,4.697918704794196,4.966736314791784,5.2360298646034735,5.505335114590954,5.774220645412351,6.042286754684626,6.309164264799954,6.574513268753827,6.838021836385535,7.099482996847581,7.358848769287537,7.616263525438026,7.8720883046208705,8.126929935254825,8.381687497765142,8.63762705756207,8.896495457208628,9.160685511903738,9.433467322494975,9.719301839310194,10.024250517236338,10.356485076925907,10.726879916945098,11.14963463481511,11.642829468572128,12.228775221732556,12.934001147786969,13.788747551003757,14.825900871134117,16.079416655845346,17.58239333864242,19.362210419931294,21.437908876355685,23.81907147853891
R4,0.0,0.0,0.0,12.721989015257833,37.695301743548754,73.30982542133361,117.67107820944886,168.91688172981333,225.34511118696645,285.4604221886053,347.983041920187,411.83934415678186,476.14401522027526,540.1789386117949,603.3715404599608,665.274050902884,725.544413927521,783.9291627086918,840.2483370360716,894.3823823214593,946.260895123445,995.8530438922187,1043.1594808723753,1088.2055624784218,1131.0357050301996,1171.7087166924027,1210.293962371738,1246.868234659762,1281.5132197399412,1314.3134619706725,1345.3547443386258,1374.7228140438463,1402.5023931307956,1428.776423383088,1453.6254677547488,1477.1273242648058,1499.3567560786926,1520.3853168492537,1540.2812530890621,1559.1094680022638,1577.2338235087989,1595.2335830065178,1613.8270710781771,1633.8388970104706,1656.2201860948205,1682.1176230774327,1712.9858821321443,1750.7435680759095,1797.979335869629,1858.2181193147392,1936.25390029992,2038.5412325755651,2173.6085340020786,2352.4106165884787,2588.4840385069247,2897.729792333616,3297.6581995853044,3806.0177439859303,4438.888136837261,5208.5035453789205,6121.217553257147,7176.065966236413,8353.322265309642,9622.855730168485,10949.767883155124,12299.185572801136
G4,0.0,0.0,42.053008337471816,86.48187918188349,129.42741034959937,169.48710990225703,206.199221322498,239.51959926902012,269.59746998882616,296.6681633995432,320.998604281431,342.8588760496028,362.5075030581023,380.1842618308293,396.10722498465736,410.4721973444982,423.4534797693741,435.2053305332469,445.8637471544055,455.54834371190873,464.3641922318574,472.4035549905042,479.7474709835313,486.46718237569036,492.6254004330902,498.27741840145876,503.47208306774206,508.25263866814123,512.6574572674584,516.7206693168635,520.4727071839988,523.9407732900225,527.1492432412748,530.119897411089,532.8723970411221,535.4245172935905,537.7923553912844,539.9905149103099,542.032268167794,544.9289293169351,549.5078049936914,556.4114814442984,566.2187708801723,579.6098400009088,597.5336706990503,621.372762229235,653.1219219224807,695.6029089572181,752.727845976194,829.8029659977517,933.8277649144975,1073.6907030431,1260.0994814419826,1505.0421043611123,1820.606950226646,2217.140940707792,2700.980532881214,3272.2538435991896,3923.3909232266433,4638.905180450566,5396.721183334544,6134.628602771253,6812.182507811873,7404.228107949301,7899.847391977531,8299.919420661734
H4,21218.231710286094,21571.86890545753,21923.962446205598,22274.608727400675,22623.89597576647,22971.90533143561,23318.711366981515,23664.382569210786,24008.981786378015,24352.566643294915,24695.189926628955,25036.899942522807,25377.74084851359,25717.75296158955,26056.973044090566,26395.434569036835,26733.167966357098,27070.20085138244,27406.558236874287,27742.26272976442,28077.33471370083,28411.792518414943,28745.652576853296,29078.92957094933,29411.636566848334,29743.785140340577,30075.385493203667,30406.44656110507,30736.97611366922,31066.980847270508,31396.466471073196,31725.437786802227,32053.898762694225,32381.85260204582,32709.30180674677,33036.24823615751,33362.6931616651,32157.33573717965,30921.892003892826,29656.43003933681,28361.01762504467,27035.722367799513,25680.61180873404,24295.75352129523,22881.215199007667,21437.06473389396,19963.370286341982,18460.20034714489,16927.623792381513,15365.7099317508,13774.528550924422,12154.149948435885,10504.64496758256,8826.085023778276,7118.542127758467,5382.088905007148,3616.798611744727,1822.7451477879533,0.0030665677088563825,0.0,-3.614007241618348e-21,-7.219409704089986e-21,-1.081602299929034e-20,-1.440366732440799e-20,-1.7982167387439136e-20,-2.1551352333735015e-20
E_Om,0.0,0.0,0.0,0.0,0.0,0.0,0.0,0.0,0.0,0.0,0.0,0.0,0.0,0.0,0.0,0.0,0.0,0.0,0.0,0.0,0.0,0.0,0.0,0.0,0.0,0.0,0.0,0.0,0.0,0.0,0.0,0.5612544790753204,0.9029891220842692,1.1052061975466192,1.218501955162853,1.2749699818680607,1.295037033492752,1.291756819515612,2.079346794790088,3.581060954730147,5.769302471693539,8.817604837666721,13.183728585640491,19.69161525920218,29.692993209110035,45.37574753588707,70.28580737079011,110.1479219801737,174.0836256091054,276.28717382211715,438.0698677359471,689.859531537676,1072.2605156320346,1634.8476671348308,2431.406792675179,3511.223439363594,4907.641831326782,6626.676736638021,8638.962713854235,10877.328159703755,12533.21412688065,13697.022263585222,14312.536612050888,14364.826141735106,13895.219516580142,12992.500533097367
I_Om,0.0,0.0,0.0,0.0,0.0,0.0,0.0,0.0,0.0,0.0,0.0,0.0,0.0,0.0,0.0,0.0,0.0,0.0,0.0,0.0,0.0,0.0,0.0,0.0,0.0,0.0,0.0,0.0,0.0,0.0,10.0,9.2,8.51283691973722,7.910382536931248,7.373720193429372,6.88984913881557,6.449601269648785,6.046319341674308,5.675014543851753,5.40194537520326,5.281391688584191,5.360889642071939,5.699272320405731,6.390497673350022,7.592701350381663,9.56898725306867,12.751787302859983,17.847483855249557,26.004081219409414,39.07144328096255,59.986541808253946,93.30576944060175,145.8686498981387,227.50068634234748,351.555040582812,534.9967322349582,797.7221051352875,1160.9372053269547,1644.6749633681954,2264.810474906007,3030.103967324442,3878.259013231882,4759.829095960753,5624.431852590784,6424.416302605561,7119.539710587082
A_Om,0.0,0.0,0.0,0.0,0.0,0.0,0.0,0.0,0.0,0.0,0.0,0.0,0.0,0.0,0.0,0.0,0.0,0.0,0.0,0.0,0.0,0.0,0.0,0.0,0.0,0.0,0.0,0.0,0.0,0.0,0.0,0.0,0.11953942398537598,0.29708931372760294,0.4957646543737449,0.6940154729047556,0.8797907184814524,1.046879385669821,1.1926183670826436,1.488090728933694,2.0668889755394364,3.040216726293818,4.542493802660494,6.789023280131042,10.143986336379594,15.214453183856657,22.99845340084598,35.125900512940504,54.244553834645345,84.617687628053,133.00484354569835,209.86914066476908,330.8612310422392,518.345614230219,802.4814419226082,1221.1560269038011,1818.0712009485057,2638.6293982081656,3723.902676790214,5103.632430186659,6789.577593501081,8619.831928221216,10471.754025785585,12225.886918618691,13774.357621659372,15031.427964384395
IH_Om,0.0,0.0,0.0,0.0,0.0,0.0,0.0,0.0,0.0,0.0,0.0,0.0,0.0,0.0,0.0,0.0,0.0,0.0,0.0,0.0,0.0,0.0,0.0,0.0,0.0,0.0,0.0,0.0,0.0,0.0,0.0,0.4,0.7560091484814202,1.0738596416555872,1.3580837143456186,1.6123210716614942,1.839582280787691,2.0424209366108035,2.2230477948044287,2.3834077864929837,2.5280378793109537,2.6635102297439137,2.7981014262190977,2.9421932721960276,3.1096146724653604,3.320105406936804,3.6033376696580186,4.005391444351981,4.599220663354426,5.501512481942135,6.899450664934184,9.09208661605686,12.551762742162921,18.010242929744173,26.570375011477786,39.83607308090124,60.04177127680862,90.15077557148827,133.88580237416014,195.65928896710176,280.38640425775355,393.18538359752324,536.5291752418141,710.8387348909675,914.5071046852671,1144.069459527071
IN_Om,0.0,0.0,0.0,0.0,0.0,0.0,0.0,0.0,0.0,0.0,0.0,0.0,0.0,0.0,0.0,0.0,0.0,0.0,0.0,0.0,0.0,0.0,0.0,0.0,0.0,0.0,0.0,0.0,0.0,0.0,0.0,0.8,1.3762941938718414,1.7805874979266876,2.0529450516900907,2.2244963815609027,2.319468131801877,2.356727457151377,2.3509639644627525,2.3136013942526743,2.256936863129516,2.1934257406352256,2.1353218129548805,2.095264328141484,2.087923350501586,2.132750505478281,2.258182976652362,2.508148857665444,2.9523471437124558,3.7025401711343804,4.937964133418205,6.943655741307378,10.165281155158103,15.281655123133444,23.290068909480098,35.58934101197237,54.03359771076344,80.92241185841756,118.89782125854367,170.7396595111071,239.0822110006261,326.1031801522528,430.2861132535028,548.1049042973796,674.7750153989123,804.9139176652512
D_Om,0.0,0.0,0.0,0.0,0.0,0.0,0.0,0.0,0.0,0.0,0.0,0.0,0.0,0.0,0.0,0.0,0.0,0.0,0.0,0.0,0.0,0.0,0.0,0.0,0.0,0.0,0.0,0.0,0.0,0.0,0.0,0.0,0.0007835757783638492,0.0022645519207926484,0.0043681779322021505,0.00702858169108124,0.010187021037830216,0.013790651331661616,0.017791630269540195,0.02214644628492499,0.026815397813574237,0.03176767093611018,0.03698532618973934,0.0424666374472159,0.04823021590561061,0.05432176274908232,0.060825648195308654,0.06788436849333379,0.0757306877899838,0.0847402825678714,0.09551741238091202,0.10903301844355896,0.1268438655613797,0.15143200871270135,0.18671298401819214,0.23876273972078732,0.3167991946491033,0.434417388805527,0.611017299151861,0.8732914786698636,1.2565761777861486,1.805836165183424,2.5760625226677187,3.627090687930265,5.019580725388674,6.811044766321245
R_Om,0.0,0.0,0.0,0.0,0.0,0.0,0.0,0.0,0.0,0.0,0.0,0.0,0.0,0.0,0.0,0.0,0.0,0.0,0.0,0.0,0.0,0.0,0.0,0.0,0.0,0.0,0.0,0.0,0.0,0.0,0.0,0.0,0.17091308186837462,0.4816220825785734,0.9038906466922312,1.4130489560331747,1.9880801949660554,2.611398888619587,3.2684899630464344,3.9475036627263638,4.660069999464428,5.436912147014569,6.325167938815428,7.391266748393351,8.731062055433847,10.488733784954684,12.887927939084541,16.28214866457002,21.236407099251963,28.658917990576754,40.01038910167271,57.62798836972221,85.20733691722248,128.48057567474098,196.09996468461912,300.67522544285623,459.8228868615254,696.9934812144883,1041.791074431113,1529.5277048346616,2199.8698217272577,3094.6008026921804,4236.071637027421,5631.242207755335,7271.616182764532,9134.364675781853
G_Om,0.0,0.0,0.0,0.0,0.0,0.0,0.0,0.0,0.0,0.0,0.0,0.0,0.0,0.0,0.0,0.0,0.0,0.0,0.0,0.0,0.0,0.0,0.0,0.0,0.0,0.0,0.0,0.0,0.0,0.0,0.0,0.0,0.04883691973722018,0.12740949051022643,0.22357774996285007,0.3296043108233972,0.4405443727618597,0.5532305463592835,0.6656312958706735,0.8465632907303202,1.1581652341275135,1.6601745227019957,2.4274283724015437,3.574595510978294,5.2880390018779355,7.871741012595477,11.820060042632285,17.93589957925066,27.520295651830477,42.66798421093636,66.70879820070476,104.82694917771288,164.85429119049797,258.15581962655784,400.41022877441014,611.9763236731815,917.5014351523074,1344.5343037547973,1921.1470382221944,2672.856546829462,3619.334877240377,4709.898240533773,5901.729044321193,7147.118128628084,8397.057126850126,9606.133839040089
beta,50.0,50.000000000000085,25.45523108913921,22.110321435614804,20.142418609895394,18.80122843037682,17.818631162309913,17.066637122365208,16.47375477587633,15.995947603658202,15.604241107364091,15.27864840963504,15.00488260194672,14.772441562820484,14.573427878694392,14.40178904820999,14.252810739281419,14.122768906322966,14.008685114183997,13.908150859586055,13.819199154219547,13.740209165542993,13.66983440657889,13.606947974224658,13.55060030936091,13.499986274381731,13.454419246216245,13.413310549048628,13.376152991887691,13.34250759088584,13.311992783766678,13.284275609976369,13.258597212929931,13.2352159308057,13.213892562383597,13.194418965011705,13.176612664420304,13.160312730532745,17.079489893937644,20.183102714756735,22.6634109430938,24.658154313571927,26.26413299521776,27.54563408211622,28.541416415442466,29.270395928612093,29.735930634511025,29.929249133950382,29.83314097661761,29.427274635634884,28.696228798344826,27.640143516301578,26.285635430051165,24.69216675855042,22.948772204844,21.159921494246372,19.425605540699685,17.82422054057342,16.404343181071326,15.185789139705715,13.758868958209648,12.741598851960838,11.996752925649002,11.451571952756174,11.053704883858071,10.764232687863618
