series,2021-11-01,2021-11-02,2021-11-03,2021-11-04,2021-11-05,2021-11-06,2021-11-07,2021-11-08,2021-11-09,2021-11-10,2021-11-11,2021-11-12,2021-11-13,2021-11-14,2021-11-15,2021-11-16,2021-11-17,2021-11-18,2021-11-19,2021-11-20,2021-11-21,2021-11-22,2021-11-23,2021-11-24,2021-11-25,2021-11-26,2021-11-27,2021-11-28,2021-11-29,2021-11-30,2021-12-01,2021-12-02,2021-12-03,2021-12-04,2021-12-05,2021-12-06,2021-12-07,2021-12-08,2021-12-09,2021-12-10,2021-12-11,2021-12-12,2021-12-13,2021-12-14,2021-12-15,2021-12-16,2021-12-17,2021-12-18,2021-12-19,2021-12-20,2021-12-21,2021-12-22,2021-12-23,2021-12-24,2021-12-25,2021-12-26,2021-12-27,2021-12-28,2021-12-29,2021-12-30,2021-12-31,2022-01-01,2022-01-02,2022-01-03,2022-01-04,2022-01-05,2022-01-06,2022-01-07,2022-01-08,2022-01-09,2022-01-10,2022-01-11,2022-01-12
S,14001449.5939647,14001378.115900427,14001333.613255251,14001298.989651415,14001267.651167735,14001237.041418325,14001206.161577748,14001174.615220692,14001142.239336893,14001108.961402187,14001074.743873382,14001039.562580712,14001003.398295537,14000966.233430784,14000928.050745528,14000888.832833812,14000848.56192124,14000807.219782662,14000764.787707755,14000721.246485678,14000676.576397477,14000630.757211631,14000583.768181032,14000535.588040575,14000486.195005119,14000435.566767627,14000383.68049747,14000330.51283882,14000276.039909154,14000220.237297822,14000163.080064692,14000103.54653661,14000042.998789737,13999981.060482735,13999917.605113821,13999852.5684241,13999785.900035135,13999717.550742142,13999647.468932781,13999575.599313386,13999501.8821808,13999426.252778139,13999348.64060698,13999268.968654133,13999187.152511893,14033206.420534499,14067220.254265552,14101228.02885313,14135228.693141825,14169220.814320559,14203202.523656107,14237171.388623355,14271124.20378084,14305056.666832766,14338962.873237234,14372834.50672124,14406659.496049318,14440419.688878747,14474086.612932745,14507613.262416996,14540916.93523112,14573839.803412706,14598112.158524714,14594960.269628316,14590695.857932152,14584618.444137665,14576226.718906447,14564992.79488181,14550487.335985955,14532438.795374949,14510769.66011597,14485590.993166273,14457170.076961568
E,0.0,71.4780642707052,101.6850965898057,115.97168110311671,124.11582855645037,129.90241225080013,134.80177037150366,139.3877733461405,143.88610246758796,148.3868166748306,152.92698213820086,157.5228783723822,162.18258786751431,166.9109350367659,171.71143327962957,176.58705833176958,181.54055922726468,186.57458595016539,191.6917436615093,196.89461699609467,202.18578178975676,207.5678112664664,213.0432796023142,218.61476412772345,224.28484674897223,230.0561148807544,235.93116205126196,241.91258827760103,248.00300027488447,254.20501154163284,260.5212423505557,266.95431966438065,273.5066642229568,280.1810340321963,286.9800787154276,293.9064294210344,300.96271668189485,308.1515722397644,315.4756277155891,322.93751277200005,330.5398531533966,338.2852685631676,346.1763702906378,354.21575851118104,362.406019191832,370.7497205356218,382.21027544953006,396.6506580976079,414.3266240141347,435.7535807874185,461.6839550004157,493.1472552276641,531.5411017659403,578.7829995942544,637.5527243728831,711.6844123452132,806.820869322627,931.551030735128,1099.4880967304684,1333.3019363562437,1673.144903362326,2195.9733050293034,3065.476384203772,4497.522419921619,6166.170667864943,8284.048390195563,10855.78686765329,13819.135380214397,17038.61041072977,20325.97029939823,23476.250621260595,26304.80286937629,28672.325754126294
I,136.33692290641187,82.78061515247668,63.12766739549778,56.631759292052365,55.25900952009438,55.89135714948784,57.316820017380245,59.06415402579063,60.95052053019114,62.90552409102513,64.90263176643387,66.93240483863528,68.99204245579077,71.08129875752051,73.2008927999513,75.35189354728777,77.53548564672008,79.75288318187995,82.00530028169926,84.29394303500719,86.62000895439088,88.98468876143396,91.38916858427588,93.83463193339361,96.32226129762245,98.85323936908,101.42874995476117,104.04997863894536,106.71811325296497,109.43434419807222,112.19986465684752,115.01587071990228,117.88356144766053,120.80410058608832,123.7786911429024,126.80854045707035,129.8948551721251,133.0388413985641,136.24170514082158,139.50465231718835,142.82888844117755,146.21561807529582,149.66604411731083,153.18136693976805,156.76278338157834,160.41148557877966,164.128659614626,168.44840463815154,173.6703502394459,180.02245749756523,187.73590630869342,197.08649155283024,208.42696874710845,222.22307784179097,239.10273335609423,259.9295180764948,285.91787823147973,318.8208351430698,361.2486886305266,417.2365658575079,493.314808488443,600.675433298749,759.9651907682106,1013.1824204112341,1424.6812553436066,1974.8705841254264,2690.125510378949,3587.2939601552257,4665.40121579334,5899.470033804222,7240.453557547828,8621.680521622317,9969.435151686981
A,15.15858296301614,12.136776012861358,11.147768612884024,10.960416991373856,11.096315264123302,11.368102785519083,11.70151115346037,12.066501391117935,12.450506931151928,12.847982621476289,13.2562909680502,13.674062016822518,14.10052469338555,14.535223380318289,14.977889831623544,15.428379585027363,15.886636526467855,16.352670741473837,16.82654333634176,17.308355370341353,17.798239480469892,18.296353410465898,18.802874953605517,19.317997974955738,19.84192927064714,20.374886081686277,20.917094122042627,21.468786011937908,22.030200030966114,22.6015791239588,23.183170106736387,23.775223030005563,24.377990668376896,24.991723850448146,25.61667859607754,26.253112912581347,26.901286028822327,27.561458139381532,28.233890236237936,28.918843947392514,29.616581370889982,30.32736490270596,31.051457056463306,31.78912027159799,32.54061670573642,33.30620800653691,34.08615505785804,34.93997033206124,35.912560561556226,37.0449986496022,38.380484067089554,39.96866213539332,41.86988401396839,44.1604391553913,46.939781958998424,50.34116842834825,54.54801892413829,59.8201130452508,66.53732542242003,75.27623042689252,86.95213218345083,103.10139821821642,126.49417071859258,162.62411109807468,220.20967952281617,299.70864215991185,405.74259187098613,542.1045050654684,710.5854857629294,909.9083021926862,1135.2832561279472,1378.7737252570216,1630.3300513702648
IH,0.0,26.521369221591108,29.940430484564274,27.90124144385917,25.573677092581953,24.092254187924986,23.442345373708378,23.380554320304643,23.6882210792715,24.21569465135512,24.87120216484631,25.601700597847863,26.377679164843162,27.18319605129134,28.009885941204253,28.85352418765208,29.712114565143636,30.584846009351335,31.47153152866293,32.37230974424714,33.28748759859975,34.21745818593819,35.16265822827506,36.123546316453556,37.10059194196098,38.09427008485331,39.105058628338924,40.13343718719314,41.179886625351664,42.24488889560273,43.328927018754705,44.43248511389188,45.55604843880737,46.7001034231169,47.86513023816727,49.05161342762902,50.26004065894102,51.49090109405672,52.74468457098787,54.02188125984089,55.32298148723207,56.648475582694644,57.99885369228608,59.374605542498685,60.77622014969373,62.20418547233707,63.65898800210657,65.14111228796065,66.75470845740247,68.61240223254316,70.81729985311942,73.46816701054786,76.67018362689333,80.54684719796691,85.2531908910563,90.99224882702052,98.03794327677926,106.76943454121378,117.72555787245753,131.69522219991796,149.87497902731883,174.15945292928598,207.7143084563157,256.20757495105033,330.76635173480327,449.71478680760015,618.8023064432081,846.1593188771894,1139.3051826892513,1501.9734412595592,1931.2532581911937,2416.0849382165925,2937.7287533018734
IN,27.034938532344082,53.79952767936472,69.67651958731989,81.49765908920102,91.91248069824431,101.95094459054232,112.01441525606958,122.25991346220427,132.7494443911914,143.50813717316558,154.54691057893362,165.87131284025276,177.48496505543807,189.39089671673375,201.59205826856206,214.09151323618033,226.89250647991588,239.99848532118062,253.4131033549608,267.1402183960642,281.1838888426093,295.54836996956556,310.23811061336284,325.257750325419,340.6121169459207,356.3062245183495,372.3452714677581,388.7346389780301,405.47988951671766,422.5867654677852,440.06118784204654,457.90925504242125,476.13724166666105,494.7515973343007,513.7589379337579,533.1660517450553,552.9798985747707,573.2076079028693,593.8564770802727,614.9339696291165,636.447713563957,658.4054996665812,680.8152796697547,703.6851643176026,727.0234212747565,750.8384728564474,775.1388935494432,799.9334072900958,825.3365599990764,851.5211672058879,878.7035198409616,907.1435877571897,937.1534298716674,969.1119341893342,1003.4865537672283,1040.8645794801143,1081.99867349589,1127.8747900505175,1179.8166393087158,1239.6523038971322,1309.9917314058139,1394.7137044518245,1499.8775394824804,1635.576108439803,1820.1294178694288,2084.4353810449034,2455.19811145635,2964.0847342576835,3645.7865638861786,4534.4547199360795,5658.9459467682755,7038.102671839072,8677.35831564734
D,13577.0,13577.0,13577.05276425901,13577.112330739748,13577.16784025428,13577.21871907998,13577.26665061509,13577.313289156742,13577.359804765105,13577.406932476424,13577.455109596316,13577.504590848279,13577.555525426736,13577.608003814405,13577.662084777765,13577.717810440505,13577.775214521374,13577.834326767636,13577.895175312939,13577.957787918911,13578.022192622975,13578.088418073203,13578.156493699742,13578.22644980158,13578.298317590088,13578.372129210682,13578.447917753752,13578.525717260438,13578.605562726068,13578.687490102657,13578.771536301057,13578.8577391931,13578.946137613759,13579.036771363439,13579.129681210296,13579.224908877777,13579.322497053336,13579.422489394641,13579.52493053255,13579.629866072446,13579.737342594914,13579.847407656032,13579.960109787402,13580.075498495764,13580.193624262169,13580.314538540566,13580.438293755702,13580.564943300194,13580.694541530669,13580.827350010413,13580.963854371574,13581.104745376128,13581.250910280387,13581.403445596092,13581.563693533233,13581.73330474025,13581.91433380194,13582.109380271393,13582.321798041052,13582.556013015992,13582.818020635446,13583.116196877641,13583.462687076035,13583.875934653095,13584.385659574604,13585.043719168307,13585.938426650904,13587.16953372157,13588.85296752512,13591.119614968824,13594.107790843795,13597.95001883269,13602.756819356542
R,0.0,3.2921563354782233,18.880906920073805,36.05966902596232,52.34808997907025,67.65920073219665,82.41931856634336,97.03700270667363,111.80047204185112,126.89191922574832,142.42140850671362,158.45487887444557,175.0327889021367,192.18142455936007,209.91941867589804,228.26139596253208,247.21997089440444,266.80682846668327,287.03330387260166,307.91069196414713,329.4504123383567,351.6640978044625,374.5636423890808,398.16122804724097,422.4693401888558,447.500777331019,473.268657656226,499.7864239279287,527.0678475195516,555.1270319504417,583.9784161336183,613.6367774423742,644.1172346521354,675.4352507877426,707.6066350438427,740.6475425018095,774.5744783322594,809.4043012415847,845.1542260729925,881.8418259661595,919.4850343038979,958.1021465253245,997.7118218143107,1038.3330846450638,1079.9853261576231,1122.688305332674,1166.4621499325501,1211.3273571721006,1257.316605871,1304.522275885878,1353.1003032188828,1403.2665048505055,1455.2962332118072,1509.5300861499927,1566.386476570628,1626.3821554302267,1690.163009755477,1758.5494783375632,1832.6042283056354,1913.7355215823068,2003.860572574611,2105.675039292251,2223.1219896777448,2362.2650136142124,2533.0632833227064,2752.696667931181,3047.472512874214,3447.624781649908,3988.3324947773144,4709.05988123767,5651.136244776606,6853.838303868445,8349.781663412723
G,1006052.0,1006052.0,1006064.8651992474,1006083.167304116,1006104.0408238404,1006126.3801929938,1006149.7610782115,1006174.0237894697,1006199.1119265788,1006225.0097092908,1006251.7175668923,1006279.2426001392,1006307.5948399059,1006336.7857718179,1006366.8277498387,1006397.7337603007,1006429.5173251341,1006462.192461062,1006495.773661773,1006530.275889854,1006565.7145730946,1006602.105602905,1006639.4653338449,1006677.810583794,1006717.1586345225,1006757.5272325109,1006798.9345899452,1006841.3993858149,1006884.9407670813,1006929.5783498838,1006975.3322207597,1007022.2229378654,1007070.2715321777,1007119.4994703789,1007169.9287155588,1007221.5817077087,1007274.4813603938,1007328.6510606451,1007384.1146691751,1007440.8965203571,1007499.021421872,1007558.5146540033,1007619.40196855,1007681.7095873125,1007745.4642000911,1007810.6929621295,1007877.4234909177,1007946.2167829318,1008017.609171632,1008092.1830234247,1008170.6134719367,1008253.7110786065,1008342.4717041418,1008438.1427642363,1008542.3168026163,1008657.0686906723,1008785.1633985991,1008930.3815343521,1009098.0496118471,1009295.9443586994,1009535.9228086321,1009837.0689402571,1010232.3179498513,1010784.0671455341,1011593.5675515865,1012703.4047449077,1014194.4346741678,1016148.3468633452,1018635.626449107,1021702.3731505708,1025360.8054327288,1029586.2506081262,1034320.8014598503
H,605925.3894234395,605925.3894234395,605925.3894234395,605925.3894234394,605925.3894234395,605925.3894234395,605925.3894234395,605925.3894234395,605925.3894234395,605925.3894234395,605925.3894234395,605925.3894234395,605925.3894234394,605925.3894234395,605925.3894234395,605925.3894234395,605925.3894234395,605925.3894234395,605925.3894234395,605925.3894234395,605925.3894234395,605925.3894234395,605925.3894234395,605925.3894234395,605925.3894234395,605925.3894234395,605925.3894234395,605925.3894234395,605925.3894234396,605925.3894234395,605925.3894234395,605925.3894234395,605925.3894234395,605925.3894234395,605925.3894234395,605925.3894234395,605925.3894234395,605925.3894234395,605925.3894234395,605925.3894234394,605925.3894234395,605925.3894234395,605925.3894234395,605925.3894234394,605925.3894234394,581120.4823490102,556693.2885190811,532666.8427244413,509066.1640714916,485918.4024915716,463252.97777790925,441101.7019559854,419498.87214990717,398481.3164646503,378088.36967317696,358361.7487234798,339345.2905668671,321084.50730060687,303625.9075452858,287016.0307229937,271300.146001446,256520.58473666254,245926.74896837684,245926.74896837684,245926.7489683768,245926.7489683768,245926.7489683768,245926.74896837678,245926.74896837678,245926.74896837678,245926.74896837678,245926.74896837678,245926.74896837678
S0,4900507.357887644,4889441.907618194,4871815.383421658,4854257.722232206,4836765.05437815,4819335.740631217,4801969.005108761,4784664.407179948,4767421.636932844,4750240.435768566,4733120.565502829,4716061.796314504,4699063.902032607,4682126.658286722,4665249.841777236,4648433.229984703,4631676.601052092,4614979.733735548,4598342.407382643,4581764.401921942,4565245.497857448,4548785.476265333,4532384.118791889,4516041.207652236,4499756.5256295465,4483529.856074694,4467360.982906221,4451249.690610594,4435195.764242679,4419198.989426428,4403259.152355728,4387375.64576271,4371548.808247151,4355778.288675306,4340063.8364185,4324405.226460752,4308802.240167478,4293254.660264329,4277762.269443589,4262324.849887631,4246942.183011837,4231614.049245274,4216340.227799751,4201120.496411706,4185954.631049726,4181004.192542135,4175870.4202567413,4170543.8678125185,4165014.168683918,4159270.024092679,4153299.1490536113,4147088.1947808336,4140622.6511003464,4133886.7223619227,4126863.1579228663,4119532.996550324,4111875.1408329047,4103865.58647958,4095475.928923346,4086670.2909026993,4077398.5863184766,4067580.53560717,4055907.541336984,4039929.3336969307,4023555.238721448,4006511.5213920223,3988619.3487807596,3969702.066567868,3949631.0571954544,3928344.5867993394,3905855.75039883,3882244.850970841,3857643.3047911483
E0,0.0,39.39735825944382,56.13985480270633,64.10679465215723,68.68813947199449,71.97133772057094,74.76580580498599,77.3854170419945,79.95167089910196,82.51138822139319,85.08247164292385,87.67171046490499,90.28170313783099,92.91353850706889,95.56782362973483,98.2450679471897,100.94581816877655,103.67069784323624,106.42041159943759,109.19573726685908,111.99751471298416,114.82663463551393,117.6840283850588,120.57065907601918,123.48751394859667,126.43559785139934,129.4159276960015,132.42952774318618,135.47742559675262,138.56064879780112,141.68022192799526,144.83716414385273,148.03237258230848,151.2669136491721,154.54178116663633,157.85794383493322,161.2163539375486,164.6179475851211,168.06364342637667,171.55434122948068,175.09092052375743,178.67423926680664,182.3051324800675,185.9844108043774,189.7128589341923,193.4912338918004,198.843781029387,205.6882608387071,214.14307117169247,224.45681577810095,236.9949666465141,252.25834405014558,270.92685186183644,293.9328227670122,322.5782396718093,358.72427149001857,405.1073254937154,465.888009060963,547.6531852159804,661.3585607231448,826.3838848053072,1079.8226729234132,1500.4618963680687,2191.405643687825,2993.1960795447335,4006.9137835865154,5232.70473230657,6638.63291213167,8158.15836471937,9700.432888087069,11167.792925472402,12473.403841367919,13552.91609870698
I0,136.33692290641187,82.78061515247668,57.35352285148545,44.92823231589125,38.817838472008305,35.932336593286536,34.77126336131943,34.56925757714693,34.9181031394254,35.591809161645585,36.461586416673214,37.452459335698215,38.520126486813794,39.638156758925106,40.790697774034804,41.96823359920533,43.16507807419599,44.377877095649445,45.60470636119523,46.84452430389207,48.09683850849956,49.36150115804509,50.638582816459106,51.92829396052658,53.23093573597376,54.54686868296011,55.87649257386957,57.220233173172254,58.57853334989967,59.95184696027904,61.34063452042277,62.7453600575076,64.16648875408552,65.60446453215565,67.05974887118185,68.5328008469276,70.02407355403189,71.53401350071519,73.06306028515789,74.61164616698835,76.18019555176069,77.7691244334674,79.37883981614279,81.00973911709181,82.6622095445623,84.33662743806022,86.03335755718358,88.02696736342114,90.46936571572411,93.47409834892375,97.15485330831197,101.6464399362128,107.12085301358255,113.80489836912287,122.00409600378302,132.1382919688428,144.79739525329796,160.83210558263386,181.50780780104668,208.778371016856,245.8020357816434,297.9845362256077,375.2844991142997,497.9292868335324,696.757990839452,961.7948827287319,1305.176230783221,1734.2971694440107,2247.899751069094,2833.243779984472,3466.242112020929,4114.691316657876,4743.409019383765
A0,15.15858296301614,12.136776012861358,10.50577195310213,9.534952039847665,8.917095250801747,8.51408743281807,8.25712083431602,8.107302252095575,8.03977290693724,8.037060962644254,8.086114503577281,8.176841730934353,8.301298475329409,8.453176207894778,8.627445771343629,8.82009270050925,9.027912993778072,9.248352296008596,9.479377931635517,9.719376532362215,9.96707191470643,10.221459104965561,10.48175129176957,10.747337149776982,11.01774649284448,11.292622621258108,11.57170005101514,11.85478657171559,12.141748786814722,12.43250045620066,12.726993094480731,13.025208385495047,13.327152059624918,13.63284665835794,13.942331570452588,14.255658220959791,14.57288716909417,14.894085958841893,15.219327402922758,15.548688183041312,15.882247700782841,16.22008713039713,16.562288633732695,16.908934704365954,17.26010761356975,17.615888935391716,17.976359131870197,18.372085707819693,18.82589687921869,19.358439511221384,19.99121963287398,20.748769924345666,21.660754944945534,22.764531919602256,24.108668820963004,25.75810696089781,27.802087414469533,30.366822156574138,33.636625035705144,37.890883426548925,43.572534647451704,51.424044189302066,62.782182440810054,80.29391850608741,108.14186928912818,146.48380449354204,197.46885992806511,262.82067046789246,343.2801697218425,438.10899634014186,544.8979312132174,659.7635883675432,777.8589921814539
IH0,0.0,26.521369221591108,29.940430484564274,26.778007794998633,22.710975245388827,19.40039631867078,17.111822096767682,15.69191896456043,14.911802278109908,14.572644141656838,14.526746413956488,14.671995872886228,14.940531063103052,15.288328043966198,15.687276150506076,16.1196251784602,16.574263011750205,17.044285891895033,17.52543938143761,18.015129437358517,18.511800028440312,19.014543521656492,19.52285761359663,20.036493958932574,20.555363929524567,21.079479865809237,21.608918341501102,22.14379707518492,22.684260308580278,23.23046944891727,23.782596996685726,24.340822535712753,24.905330028489757,25.476305946787367,26.05393393579264,26.63839958137082,27.22988901433003,27.82858748630007,28.43467850896404,29.048343342007204,29.669760642601553,30.299106182244156,30.936552590573285,31.582269109192517,32.23642134714203,32.89917103225781,33.57067575311848,34.25108868606663,34.993900849388694,35.85657121924768,36.89116630835178,38.14696684658108,39.675908795087494,41.53854707107503,43.810595741261395,46.59099013580671,50.013020691844254,54.260984323347834,59.596521224795964,66.40229263580224,75.25803093784342,87.08057264259709,103.39983588185973,126.9512740333495,163.09687508654645,220.63327634819973,302.20947919800864,411.56842056501625,552.1015037965083,725.3334549178053,929.5814584663849,1159.2818940096108,1405.2675220900096
IN0,27.034938532344082,53.79952767936472,69.67651958731989,80.35267474089356,88.45819459020719,95.27099831707396,101.44349323375147,107.32402811315384,113.10570089433688,118.898731299985,124.76742397878402,130.749902265199,136.86904097531118,143.13870142187002,149.56736514569363,156.16028542391965,162.92077603840588,169.85099009569612,176.95239406913672,184.22605818768335,191.67283544042132,199.29347264303462,207.08867983167474,215.05917393461056,223.20570644733533,231.52908106609772,240.03016494351706,248.709895833576,257.56928653970925,266.609427556059,275.83148846927463,285.23671848820993,294.8264463439277,304.6020797235831,314.5651002649996,324.7170662987216,335.0596116044445,345.59444347049634,356.32334065269686,367.24815128945596,378.3707907527491,389.6932394183574,401.21754034785863,412.94579687910493,424.88017012245876,437.02287635866236,449.3761843319162,461.94241242900557,474.77830122454986,487.97014666397257,501.6258972917309,515.8749659447872,530.8722033585805,546.8050174768882,563.9039166398339,582.4576872115624,602.835481091197,625.5197346982087,651.1567496423806,680.637284083084,715.2306311933785,756.819654719462,808.3403201526597,874.6739798377672,964.6641586673614,1093.181185826495,1272.9685495296692,1519.0488651763408,1847.7609406518486,2275.030750957459,2814.0986934578686,3473.2963998062173,4254.486404098824
D0,13577.0,13577.0,13577.05276425901,13577.112330739748,13577.16560558115,13577.21078906207,13577.249386146847,13577.283430113644,13577.314649183432,13577.344316211222,13577.373308483962,13577.402209443182,13577.431399376173,13577.461123559875,13577.491539685603,13577.522749518514,13577.554819509733,13577.587794002833,13577.621703606364,13577.656570464671,13577.692411561251,13577.729240783878,13577.767070214588,13577.805910936087,13577.845773536998,13577.886668429615,13577.92860605079,13577.97159698971,13578.015652069767,13578.060782401326,13578.106999415864,13578.154314888054,13578.202740949846,13578.252290099188,13578.302975205012,13578.354809501609,13578.407806592495,13578.461980451497,13578.517345420994,13578.573916208466,13578.631707882007,13578.690735865148,13578.75101593112,13578.8125641966,13578.87539711497,13578.939531469094,13579.004984363588,13579.071773216598,13579.139915751008,13579.209536110075,13579.280872751679,13579.354267720015,13579.430161103282,13579.509096316264,13579.59173724774,13579.678898419612,13579.771591185603,13579.871092080732,13579.979044298696,13580.097611566309,13580.229718914845,13580.379444753045,13580.552691535711,13580.758405489481,13581.010975024961,13581.335456226845,13581.774406088067,13582.375651789302,13583.194467083533,13584.292872920054,13585.735923690298,13587.585325824652,13589.891716931717
R0,0.0,3.2921563354782233,18.880906920073805,35.93168938741442,51.3895368127504,64.86826612608759,76.75805572457931,87.56836554156949,97.73135757204759,107.56715838079984,117.29881800924409,127.07708349097109,137.0024378593351,147.14168887544096,157.53955804667046,168.2264608837846,179.22361127069024,190.5463251550771,202.20614276101966,214.21218750982376,226.57203644109228,239.29227963081155,252.37888200692475,265.8374195177469,279.673235136004,293.89154340859363,308.4975016899995,323.4962595527545,338.89299369634335,354.6929330541953,370.90137714646875,387.5237096806264,404.56540873536267,422.032054434841,439.9293342845803,458.2630459231855,477.0391012129513,496.26352907475547,515.9424771968066,536.0822129709372,556.6891238851381,577.7697174985926,599.3306210707287,621.3785808885773,643.9204613220442,666.9632436272389,690.5140245106876,714.5800144608886,739.1746136215385,764.3418164326189,790.1579621595212,816.7295544212213,844.1927523998388,872.7159128477539,902.5055541146543,933.8162418213794,966.9654951969353,1002.3557971100646,1040.5073897835218,1082.1083321270658,1128.0935355569202,1179.7750115028498,1239.0682695441064,1308.9133133149624,1394.129437950624,1503.0119172870732,1648.2257542937498,1844.2534490910393,2107.853976956192,2457.7126274950774,2913.252941849973,3492.7491216640265,4211.134760517268
G0,1006052.0,1006052.0,1006059.0910547032,1006069.1955591426,1006080.7340177553,1006093.0970638064,1006106.0510463926,1006119.5079999121,1006133.4364522175,1006147.8267996165,1006162.6778656108,1006177.9916959627,1006193.771558428,1006210.0211884521,1006226.7445174601,1006243.9455861399,1006261.6285268727,1006279.797570441,1006298.4570598586,1006317.611464964,1006337.2653955959,1006357.4236127591,1006378.0910377732,1006399.27275959,1006420.9740405102,1006443.2003205264,1006465.9572204913,1006489.2505442901,1006513.0862801624,1006537.4706013047,1006562.4098658579,1006587.9106163761,1006613.9795788489,1006640.6236407403,1006667.8498814543,1006695.6655592711,1006724.0781068255,1006753.0951281518,1006782.7243957734,1006812.9738475591,1006843.8515833254,1006875.3658611936,1006907.5250937073,1006940.3378437037,1006973.8128199258,1007007.9588723525,1007042.7849872173,1007078.5744967418,1007115.5959310167,1007154.1391303344,1007194.5386806977,1007237.1949487093,1007282.5984426495,1007331.362045388,1007384.2664485608,1007442.3266852016,1007506.8927765557,1007579.8072645479,1007663.6615508188,1007762.2325938101,1007881.2692485425,1008030.0084938082,1008224.3636988705,1008494.4289483501,1008888.8558333687,1009427.5954361005,1010148.7921377474,1011090.6165935392,1012285.4913570756,1013753.8625828926,1015499.8248324655,1017509.8943916155,1019754.9583472097
H0,212073.8862982038,211596.72005403286,210834.97186183833,210075.9659631357,209319.6924856684,208566.14159272,207815.3034829862,207067.16839044745,206321.72658424184,205578.96836853857,204838.88408241182,204101.46409971514,203366.69882895617,202634.57871317194,201905.09422980453,201178.23589057723,200453.99424137114,199732.3598621022,199013.32336659863,198296.87540247888,197583.00665102995,196871.70782708624,196162.96967890873,195456.78298806466,194753.13856930763,194052.02727045811,193353.43997228445,192657.36758838422,191963.80106506604,191272.7313812318,190584.14954825936,189898.0466098856,189214.41364209002,188533.2417529785,187854.52208266777,187178.24580317017,186504.40411827876,185832.98826345295,185163.98950570452,184497.39914348398,183833.20850656743,183171.4089559438,182511.9918837024,181854.94871292106,181200.27089755455,170386.16296250178,159809.5799957639,149479.49136520745,139405.58259487269,129598.29504448816,120068.85898064655,110829.31579593664,101892.5236673913,93272.13913353659,84982.56490789744,77038.85179986573,69456.54006217372,62251.423196837124,55439.21587340188,49035.108152381916,43053.192074314225,37505.755598212025,33558.361943581534,33437.55184058464,33317.17665395853,33197.234818004275,33077.72477265946,32958.644963477884,32839.993841609365,32721.76986377957,32603.971492269964,32486.597194897793,32369.64544499616
S1,1400144.9593964699,1311150.2057047014,1235092.3908123586,1164405.4533690792,1098705.0241567274,1037634.7965522653,980864.1356548463,928086.1037607774,879015.716223949,833388.3545146304,790958.3045740916,751497.4039572313,714793.7872212997,680650.7215241299,648885.5256126892,619328.5661067137,591822.3255049981,566220.5367723119,542387.3797442014,520196.73493159626,499531.4906243756,480282.8994865824,462349.98110814905,445638.96723058756,430062.7865985884,415540.5866071968,401997.2891163957,389363.1779926473,377573.5161112534,366568.1897152589,356291.37817691726,346691.2162107718,337719.616074732,329331.8712438585,321486.47536866175,314144.887976987,307271.3211953146,300832.54276982154,294797.6934225804,289138.11731904553,283827.2046600716,278840.2455196218,274154.29412147694,269748.0428082117,265601.70500960544,262334.5015550194,259263.69859750706,256374.68646218497,253653.7681739379,251088.0940830299,248665.5982310363,246374.93740870513,244205.43291414363,242147.01441339665,240190.16460747484,238325.86220793883,236545.518331985,234840.8963821672,233203.99427336475,231626.84138282758,230101.0946545615,228617.12474404948,227096.93178518192,225400.16574754947,223742.11732455983,222103.48112341025,220470.65436464298,218830.50568487123,217172.86140443344,215491.4780329454,213784.41379924843,212053.5549917279,210303.69498493557
E1,0.0,11.256388074126807,15.607724678618517,17.352433165406595,18.056385614311306,18.311508241647196,18.350054833849626,18.269509394695778,18.115491552703283,17.912645959066666,17.676372016402997,17.41743871563761,17.14392063238042,16.862099385955723,16.576946373357885,16.292421695110683,16.011682004307502,15.737236206519754,15.471067064273779,15.214728280945785,14.969422912069454,14.736067109879063,14.515342159024533,14.307737082663083,14.113583615023582,13.93308497246836,13.76633957208421,13.613360623322457,13.474092340216108,13.348423379322309,13.236197994334644,13.137225306526553,13.05127796901375,12.978122076132031,12.917503040279671,12.869154072215352,12.832800669577384,12.8081637844052,12.794962336305689,12.792915266578717,12.80174321835066,12.821169899282335,12.850923172545865,12.89073591468987,12.940346673098947,12.999500150585803,13.163539722701813,13.424867932662481,13.788478038650581,14.267208292520095,14.880689227821804,15.656261852786072,16.63137963614871,17.857690723523284,19.407578175630054,21.384736430112408,23.941800577005544,27.310950504544508,31.85974100900201,38.199265343180095,47.40979866535237,61.55734383198819,85.02599533308758,123.51053841262342,167.9958627643107,224.0567370477925,291.6230364801619,368.85848789122895,452.0420459431713,536.1527957594886,615.839573200712,686.3857446548159,744.3359361934577
I1,0.0,0.0,2.0260156294780103,4.0393539974670745,5.5758330473952595,6.635450510903645,7.324744671364126,7.750206013751191,7.994039047110514,8.114367430487823,8.150918243927848,8.13058455719672,8.071633508011713,7.986609805733558,7.884260923293043,7.770792915400143,7.650686725302755,7.527231237652581,7.402874959959825,7.279461442765621,7.158389695249962,7.0407256989659,6.927281589648326,6.818673100378646,6.71536210832954,6.617688762805416,6.525896171090928,6.4401496561887654,6.360551975932677,6.2871554816854065,6.219971919487289,6.158980388783386,6.104133843347152,6.055362798073559,6.012582962989201,5.975697336446086,5.944599002412822,5.91917363680484,5.899301599386032,5.884859656262842,5.8757223954608016,5.87176338883374,5.872856142819277,5.87887487207831,5.889695123636459,5.905194274183139,5.925251919240811,5.966955622707375,6.039313105144903,6.148692372337865,6.301270661841874,6.504331910884426,6.767219812547606,7.102348818168203,7.526552744798964,8.063080783251186,8.744713064860687,9.618825420683187,10.755972967036875,12.265150613454512,14.322527037869719,17.22950441960578,21.540943044930785,28.382825932338562,39.46381727406083,54.19876595202012,73.23577367277926,96.95573112511636,125.25939902015371,157.41677777489662,192.0809237789629,227.47085839870329,261.65627493711884
A1,0.0,0.0,0.22526198588838353,0.4926974541220075,0.741735633826921,0.9552164247910082,1.1312461113719317,1.2729563282639385,1.3848052729733373,1.4712753545210155,1.536448617309233,1.583901537099854,1.6167131407881112,1.6375102505426715,1.648521748625058,1.65163168515518,1.6484277811236367,1.6402444219687624,1.6282001963992936,1.6132303855323968,1.596114918278818,1.5775023230874659,1.5579301806500605,1.5378425407702163,1.5176047198745446,1.4975158485634439,1.4778194936187714,1.4587126372085688,1.4403532581872478,1.4228667265295356,1.4063511919769616,1.39088212170303,1.3765161189311854,1.3632939535948554,1.3512435873909274,1.340382313168542,1.330718637545793,1.3222538780577202,1.3149835053070107,1.3088982678552585,1.3039851339783555,1.300228079309163,1.2976087447369644,1.2961069849896631,1.2957013250256997,1.2963693386029718,1.2980879610790752,1.3027467300748383,1.3117064712071482,1.3261566592887217,1.3473065698909121,1.3765172587634154,1.4154256064575856,1.4660917034754446,1.531198547744165,1.6143428158964352,1.7204793257341813,1.8566296924845553,2.0330621649243996,2.265353533506828,2.578204565539752,3.0130104072148427,3.6442589295355585,4.619323291371162,6.170161973421244,8.302083693908406,11.130900746223034,14.747935343369939,19.18955759630314,24.410422092501015,30.27374468986219,36.56292156300155,43.01013913614277
IH1,0.0,0.0,0.0,0.3941170697756272,0.991394866035125,1.6019072673626928,2.1265616956465174,2.534382241298707,2.829922916737359,3.031550825338984,3.1601555153685132,3.2343639441228245,3.2691260074463493,3.2757951429557783,3.2627351971996426,3.236011556814509,3.199996031585182,3.157841241037137,3.111831814889926,3.0636360404761973,3.0144829532254143,2.965285937280781,2.9167289054989336,2.869326666130978,2.823467592873291,2.779444164097801,2.7374751462114526,2.6977219697041965,2.660301019367444,2.6252930071438474,2.5927502275310057,2.5627022496182286,2.53516043504872,2.51012155983577,2.4875704250863073,2.4674827041507927,2.4498268352815464,2.4345655532610033,2.42165717606588,2.4110566831056444,2.4027166128567155,2.396587806563995,2.3926200222840786,2.3907624402051315,2.390964076787358,2.3931741222499077,2.3973422133901066,2.4034186516286598,2.4147015193792774,2.4346638147945727,2.4663562978115765,2.5125723198274326,2.576186216034599,2.6605152546392867,2.7697051488287516,2.909193536064944,3.0863400737213778,3.3113612508889743,3.5988033557227785,3.9699807310688158,4.457216509372122,5.111644742544203,6.01857534095573,7.33045387850679,9.34585276708518,12.552932588372524,17.092558091948828,23.164298138464652,30.946369832287797,40.5124514074938,51.75897831036151,64.36989827875311,77.83386359192822
IN1,0.0,0.0,0.0,0.4017488941429706,1.19871535513903,2.2923883594483265,3.5852415439620353,5.001849824671301,6.488658905690079,8.008950782279973,9.537900264303527,11.058808097311143,12.560474782324846,14.035435098556178,15.478786031340585,16.88740817684421,18.25944395527284,19.59394291154776,20.89061626472581,22.149663648620937,23.371648267677145,24.55740511090559,25.7079721963051,26.824538204200117,27.908402024941182,28.960941147937756,29.983586737632493,30.977803853797617,31.94507568834264,32.88689097762896,33.804733951671054,34.70007632736506,35.57437095996132,36.429046847123274,37.26550491798454,38.08511537810194,38.889215496028946,39.67910796671247,40.45605978824856,41.22130156468429,41.97602715735376,42.72139362040253,43.45852136735764,44.188494524562124,44.91236143448401,45.63113527775643,46.345794787609236,47.057285034326696,47.76993001702675,48.4897966813403,49.224154047541525,49.98142336140377,50.771386025024185,51.60557843467467,52.497883347057524,53.46538275409824,54.52959802752821,55.71833546352549,57.0685176886461,58.630688834320225,60.47650074296867,62.711822117438935,65.50122953727919,69.11767987091253,74.05467729014232,81.13961059638473,91.07556212601034,104.68709875988178,122.86607045266464,146.4757299985722,176.22594235156413,212.55238154980614,255.5332056231328
D1,0.0,0.0,0.0,0.0,0.0007840958351632634,0.0027564757320881327,0.005943469935033786,0.010174264023002208,0.015216417008777159,0.020846548111979786,0.02687781790089632,0.0331649466961026,0.039599713146164554,0.04610363871457978,0.05262083252681926,0.059112043579467345,0.06555008795466521,0.07191647944928725,0.07819900399615257,0.08438999279847169,0.09048509611678529,0.0964824093773866,0.10238184518414759,0.10818467678543807,0.11389320164054528,0.11951048987815133,0.12504019351260348,0.13048639979397395,0.13585351713826388,0.14114618550899477,0.1463692054460826,0.15152748152933634,0.15662597716626256,0.16166967836835477,0.16666356473298555,0.17161258561933262,0.17652164198870907,0.181395572010337,0.18623913971429526,0.19105702620428539,0.19585382301555254,0.20063402725864984,0.20540203824279651,0.21016215532087493,0.2149185767397615,0.21967539931458996,0.2244366187744447,0.22920613065082807,0.23398773159992828,0.2387917798122668,0.24363554300752738,0.24854235839170674,0.2535411205428736,0.25866644252841386,0.2639595371201772,0.26946986498560876,0.2752577049708473,0.28139797795897264,0.287985930536163,0.295145749126107,0.30304402503352107,0.31191165642895713,0.3220812726694942,0.33405522716262576,0.34863916375604914,0.3672327360539769,0.3922067930447883,0.42621243410929016,0.4722978008384972,0.5338655977185792,0.6144651120683492,0.7174395895467411,0.8455034898974346
R1,0.0,0.0,0.0,0.044905136332594624,0.3348461875241302,0.9668672712479993,1.943150466415689,3.2173302543391045,4.728158246644448,6.416908176836108,8.23412785144016,10.140879631953737,12.107643306627878,14.112520649142393,16.139469730661624,18.1768273613216,20.216163497681258,22.251428188895904,24.278329482640775,26.293883626016523,28.296089862582466,30.283693896646852,32.256014081661505,34.21281204318525,36.15419500101186,38.08054095907147,39.99244062545115,41.89065176590279,43.776062948946446,45.64966449810882,47.512525056999216,49.36577258361569,51.21057888009683,53.048146971985716,54.87970076664776,56.70647651602184,58.52971603531233,60.350661176256054,62.17054933187731,63.99060981036288,65.81206093974065,67.6361077843232,69.46394037172324,71.29673234513474,73.13563996917512,74.98180142898313,76.83633637173847,78.7003456476168,80.57529255982494,82.46452570500207,84.37334555167214,86.3088193087744,88.27970010874803,90.29653416389799,92.3719736373974,94.5213188447094,96.76334768924085,99.12154619706682,101.62594399796328,104.31591484668482,107.24459449784958,110.48615377074984,114.14842775796816,118.3963767537515,123.49967417403869,129.92136963670134,138.3663411937625,149.63667413287584,164.65595282754484,184.44880986897184,210.0745616750026,242.52303120775323,282.594692773298
G1,0.0,0.0,2.0260156294780103,4.835219961385672,7.958451016593719,11.208385118507172,14.504238251197831,17.80702931084614,21.095323151889843,24.3558956179205,27.57995829587596,30.76149448153899,33.896425760646885,36.98212704626356,40.01710386802776,43.000756547757106,45.9331981781423,48.81511001179017,51.64762487439361,54.43223246525731,57.17070213176696,59.86501975695879,62.51733612034677,65.12992462455806,67.7051466905569,70.24542344751303,72.75321260111824,75.23098957096634,77.68123215419492,80.10640810713268,82.50896514561632,84.89132295300452,87.25586685676127,89.60494126462234,91.94084848409308,94.26584499994628,96.58213927807257,98.8918903772107,101.19720713079394,103.5001477811365,105.80271998333795,108.10688111159175,110.41453881076485,112.72755174434025,115.0477304967649,117.37683859413262,119.71659361208776,122.08587379697667,124.5021899435184,126.98395157336408,129.55187894041217,132.2302255605211,135.04816600501005,138.04161602296648,141.2557874138235,144.7489200648309,148.59791762553704,152.90715624163917,157.82280167014844,163.55717514859364,170.43258741318581,178.9657858471658,190.04537371242643,205.34903900206888,227.57946314712757,257.81671522183797,298.14425618429595,350.6329253678588,417.0230548314102,498.38523284366096,594.8863428661421,705.7301226238418,829.2713720338515
H1,60592.538942343956,56741.6666906332,53450.43869063964,50391.55611143943,47548.4327238039,44905.666993623454,42448.95746095557,40165.02416342607,38041.53567224411,36067.04133992994,34230.90838749026,32523.26348536621,30934.938507170453,29457.420158156805,28082.80320165588,26803.747026479185,25613.435316651034,24505.538601873468,23474.179482957505,22513.900341151722,21619.633353946952,20786.672652608733,20010.64846845705,19287.503125839903,18613.468749894088,17985.046566608304,17398.98768145279,16852.27523096353,16342.107809212888,15865.884078103349,15421.188476925545,15005.77795266174,14617.569638124347,14254.629410226988,13915.161265521496,13597.497454624707,13300.08932132864,13021.49879605954,12760.390496946575,12515.524395099499,12285.749003794648,12069.995054147244,11867.269622520982,11676.650677407953,11497.28201581676,10690.773573576073,9921.960839596299,9188.911313713748,8489.947428161104,7823.629798170955,7188.741666764782,6584.27418462861,6009.412098032524,5463.519330842336,4946.12384101126,4456.901011373739,3995.6547093074346,3562.2950402602355,3156.8117614255984,2779.2423684105784,2429.634095110028,2107.999566611251,1878.9878604115825,1865.5845448076486,1852.7036925189213,1840.3095504361063,1828.368913606914,1816.8509432451372,1805.726997739005,1794.9704757302982,1784.5566704020262,1774.4626341740534,1764.667053063253
S2,1400144.9593964699,1483482.224403379,1559472.2527133464,1629125.5194099334,1692900.6680797436,1751223.6825541372,1804490.1283503002,1853067.2868807055,1897296.1598957118,1937493.3403439312,1973952.7536135525,2006947.276063746,2036730.2386308883,2063536.8233124765,2087585.3600130463,2109078.5308004594,2128204.4881580216,2145137.893364101,2160040.8806997086,2173063.9527800977,2184346.8119292744,2194019.132165415,2202201.276039109,2209004.960263424,2214533.873793481,2218884.2517519705,2222145.4083544747,2224400.2317631715,2225725.6435883325,2226193.0255627865,2225868.6157341585,2224813.7407370647,2223085.617019391,2220737.1083795964,2217817.2900120295,2214371.696647314,2210442.569968092,2206069.092702175,2201287.6071022865,2196131.81809383,2190632.981970124,2184820.0816105907,2178719.9891685294,2172357.6171178743,2165756.058487298,2164195.9622835773,2162319.6070516254,2160139.089880755,2157664.952074617,2154906.2424877915,2151870.5693669748,2148564.1456841743,2144991.830391545,2141157.166342734,2137062.413364917,2132708.570493923,2128095.3717338066,2123221.218368742,2118082.962214839,2112675.337443626,2106989.536351248,2101009.5573690585,2094105.6405491552,2085079.934113583,2075923.434668846,2066564.838665657,2056951.7781368357,2047026.7423160088,2036741.6592614662,2026065.1453704229,2014987.5141485617,2003520.970360999,1991696.426103718
E2,0.0,3.9397358259443824,5.76644049488502,6.7636599492722,7.455095501230646,8.049168124251793,8.625416333974087,9.211564772434567,9.815072530939766,10.435892738082568,11.0715402642703,11.719039055666327,12.375619457566046,13.038925278852023,13.707036406125617,14.37842831463547,15.051915381921015,15.726595168091341,16.401799147528433,17.077050943930878,17.7520315605209,18.426550651213613,19.100522845202384,19.773948241145934,20.446896322749478,21.119492677358174,21.791908011812417,22.464349053646504,23.137051002483833,23.81027125878817,24.48428420753421,25.159376875101522,25.835825154725615,26.513942289899905,27.194034180531606,27.876405838160082,28.561361369832987,29.249202741097072,29.94022849260539,30.634732622233354,31.333003636671048,32.03532374151764,32.741968138986486,33.453204407136695,34.169291938554295,34.89048141916454,35.893025928385306,37.162348100134565,38.720148591721205,40.611666358715055,42.903258161520945,45.685731912613676,49.08224630366727,53.26156135887824,58.4592152772592,65.01176255210993,73.41386072364169,84.41741661170006,99.21254790856705,119.77836718278311,149.61520086512562,195.42188234631647,271.42525862315244,396.22886031023506,540.9911940637559,723.9522064121342,945.128531406221,1198.7657119930293,1472.8900183343408,1751.1628474797053,2016.0234894088114,2251.855147126664,2447.0744485121218
I2,0.0,0.0,0.7091054703173036,1.468442911608848,2.1089825921317105,2.622353573464176,3.0409865060564174,3.3988885125116144,3.7216980333264567,4.026324681982926,4.323027147013794,4.617586972294358,4.912978922870263,5.210510702210895,5.5105522312051765,5.812982519714979,6.117453709060218,6.423541189619033,6.730824719864939,7.038928812257452,7.34753973742338,7.656409590552906,7.965353589573933,8.274244173373939,8.58300390756354,8.89159828201719,9.20002894721224,9.508327630475955,9.816550804396147,10.124775090945024,10.433093342219852,10.74161132188257,11.050444908499637,11.359714118339596,11.669548202588706,11.98008069790296,12.29144758308049,12.603786156933733,12.917234134312547,13.231928866235021,13.548006665163243,13.865602224624311,14.184848121044354,14.505874384868992,14.828808128426717,15.153773218945485,15.48088998620841,15.859953751854292,16.318575327341463,16.877425216080848,17.55719654053508,18.382397109986535,19.38425183882528,20.603886866253408,22.096647821460227,23.93853335310299,26.236263872324006,29.14366999456722,32.88948836071343,37.82680954339617,44.52623860586594,53.96425071735925,67.93944906808215,90.10456658390045,126.0258715936376,173.89194814215037,235.88591938281695,313.3363209539832,406.01407520737695,511.62496291869456,625.8352337190447,742.852816567025,856.3500631219821
A2,0.0,0.0,0.07884169506093423,0.17852246793563753,0.2782885309108357,0.3720035574195588,0.4589253794399601,0.540051496128868,0.6167353823456565,0.690209973557388,0.761461486159355,0.8312298057632149,0.9000477679807346,0.9682865635124752,1.0361962356596726,1.1039385573605291,1.171612544047766,1.2392737462101486,1.3069485809950203,1.3746448209059237,1.4423591558203468,1.5100825517369842,1.5778039663575416,1.6455128501905671,1.7132007587207156,1.780862321317914,1.8484957512115967,1.9161030339896081,1.9836898964360299,2.051265630518962,2.1188428269659276,2.186437057561241,2.2540665338622934,2.321751358175007,2.3895138940907024,2.457378168748002,2.525369523432933,2.5935143335079243,2.6618397594169836,2.730373521643898,2.7991436981606737,2.8681785432744062,2.9375063263785863,3.0071551887944548,3.0771530167277317,3.1475273283178744,3.2183051727736784,3.2950365628545546,3.3818734158395887,3.482574251702011,3.6010536620368256,3.7417738056768592,3.9101245678110814,4.112886022541248,4.358863874323398,4.6598220158937425,5.031914354906407,5.4979736270450665,6.091328049683997,6.862478529577527,7.891464657037973,9.312418696226475,11.366790691580388,14.532605107085217,19.564886459692918,26.49097416510848,35.69777405746374,47.49539661594307,62.01697519400862,79.12948613293102,98.39945665877184,119.12840157823601,140.44455395587335
IH2,0.0,0.0,0.0,0.13794097442146952,0.35762286490794554,0.5968427878674573,0.8215186007175296,1.020176946020216,1.1934470519011606,1.3466446104822791,1.4858324290807179,1.6161693231012304,1.741471528154661,1.8643088041989246,1.986276284042566,2.108278172993744,2.230762695533997,2.353896040193396,2.477682315723915,2.6020419170214066,2.7268602679882163,2.8520165604473466,2.9773995394244785,3.1029152133867126,3.228489728923888,3.3540694905573805,3.4796198221681234,3.605122952887038,3.7305757827914316,3.85598768003426,3.9813784374901116,4.106776444248538,4.232217086054783,4.357741366725912,4.483394026153741,4.6092235499427945,4.735281211631861,4.8616202144031515,4.988295024991803,5.115360850310604,5.242873212677422,5.370887596941333,5.4994591534740085,5.628642446300992,5.7584912382624776,5.889058306531941,6.020395282757278,6.1525525127867775,6.295242855820792,6.458904983264491,6.6530061668208305,6.886511259733637,7.1688650471874205,7.511069380286979,7.926864561317997,8.434185744335036,9.05717430081506,9.829185884384247,10.797547873059212,12.0314485888515,13.635672432297198,15.775888408549626,18.72848464310406,22.987542945228704,29.521405146107334,39.918090205716865,54.65376043166951,74.40152785814134,99.77101982769389,131.0357415232472,167.89210143883432,209.338667174155,253.72623009770413
IN2,0.0,0.0,0.0,0.14061211295003972,0.4303909695015527,0.8442878929234993,1.355844777501782,1.9452989364096789,2.5998287541617344,3.3118248075661434,4.077106860510837,4.893570726519881,5.76027971258126,6.6768963738311875,7.643345950994591,8.659627785874623,9.725717235109503,10.84152092311266,12.006862210062245,13.221482890715226,14.485052884556016,15.797183200888785,17.157439580625116,18.565355465895102,20.020443669668857,21.522206521929785,23.07014448617398,24.66376334854408,26.30258012869362,27.986127874314874,29.7139594963819,31.485650788871364,33.30080276023203,35.15904338697566,37.060028164482254,39.003441663049976,40.98899808693342,43.016441462268816,45.08554560060749,47.1961138835599,49.34797889494901,51.541001922847606,53.775072351509024,56.050106960594654,58.366049146364496,60.72286807686297,63.12055779071366,65.55913624695566,68.04849539141173,70.60390333800663,73.24457437827398,75.99363400482645,78.87883623290303,81.93384928391418,85.20015980736464,88.72981435121598,92.58940915467066,96.86603662504547,101.67642209695651,107.1814809979779,113.61053571827492,121.30376359030399,130.79157037707643,142.9557119144519,159.39344538064222,182.7898189034789,215.44383529102362,260.0644098635372,319.5968108443825,396.91142880830296,494.39501808178187,613.5511041514804,754.7196381649806
D2,0.0,0.0,0.0,0.0,0.0002744335423071422,0.0009859241638453405,0.0021733427764939342,0.0038077538759636533,0.005837395715530321,0.00821175839770574,0.010890907593464599,0.013846970927782917,0.017062339487900716,0.02052699676107807,0.024236038771521286,0.028187735059855085,0.03238215408299235,0.03682025604036652,0.0415033317634599,0.046432680258116074,0.05160944215583911,0.05703453013900864,0.06270861654215919,0.06863215235807509,0.07480540158340389,0.08122848128344773,0.08790140189531423,0.09482410486797874,0.10199649629527596,0.10941847610374501,0.11708996285786351,0.12501091450002927,0.13318134545272842,0.14160134053838044,0.15027106615649108,0.1591907777165723,0.16836082709023706,0.1777816681577939,0.18745386064727226,0.19737807264826077,0.20755508208449047,0.21798577734133323,0.2286711571912576,0.23961233012838606,0.25081051320195946,0.262267030422379,0.27398331080022237,0.28596088606722103,0.29820138811816194,0.31072577257935896,0.32357576281189604,0.3368119173121047,0.3505126301501356,0.36477508579446294,0.3797183568942359,0.39548885242738085,0.41226866335739565,0.43028790990172794,0.4498430733443539,0.47132479277878897,0.4952613574519966,0.5223895251558253,0.553775652136284,0.5910359687623495,0.6367696810683197,0.6955025109769764,0.7749195438291516,0.8836531897858713,1.0316750152717966,1.2301694401933634,1.4908650229662714,1.824886326762992,2.241365565186565
R2,0.0,0.0,0.0,0.015716797716408118,0.11840786381758321,0.3485126195778526,0.715371374161444,1.2116796029166794,1.8246695853421442,2.5420148774659497,3.3540904272123324,4.254313512350241,5.238684851578424,6.30511957424672,7.452827330484867,8.68182658203861,9.992598678826049,11.385857938592586,12.86240796973277,14.423057837278256,16.068577660099557,17.799679027235747,19.617010299605933,21.521160306883303,23.512666344806902,25.592023979694254,27.75969720462545,30.016128145931944,32.36174591989314,34.79697447819761,37.32223941710088,39.93797379863646,42.644623067828306,45.442649163362134,48.332533839899156,51.31478117342414,54.389919967587375,57.55850563982428,60.82112164474487,64.17838053028342,67.63092469756538,71.17942691441144,74.82459061968648,78.56715004796725,82.40787019870659,86.34754666996251,90.38700537329981,94.52710214343679,98.76982334723667,103.12270788434037,107.59916820919008,112.21809825649942,117.00378242187665,121.98635536305586,127.20287985482129,132.6991330174683,138.53229950191667,144.77494795530342,151.5209558688871,158.89455245654474,167.0645955805123,176.2680975940615,186.8511145783335,199.3447742285606,214.61963056793238,234.1739137404028,260.29448027825464,295.59508683033823,343.09898167921904,406.1757526822456,488.3274361643255,592.8489332667266,722.4339876922264
G2,0.0,0.0,0.7091054703173036,1.7469959989803572,2.964374138349715,4.306202432228626,5.754956714387237,7.307428802974324,8.965400621110064,10.731996639405821,12.610332892178583,14.603078120051936,16.712365409446054,18.9398293419603,21.286680412888696,23.753783520009392,26.341729164824095,29.050894450929253,31.881494053501864,34.83362232107934,37.90728786014526,41.102441861567,44.4190012561864,47.85686760911806,51.41594250323401,55.096140027644644,58.897396875684976,62.81968046588573,66.86299542526874,71.02738871398346,75.31295362119353,79.71983282208622,84.24822065317451,88.898361108464,93.67055456205388,98.56515644637904,103.5825770923144,108.72328156637722,113.98778928528249,119.37667339950283,124.89055997562279,130.53012700799087,136.29610328459836,142.18926712655337,148.21044501582398,154.36051012195068,160.6403807349513,167.100697405031,173.78947693032433,180.75864196851742,188.06825764985894,195.79033253021655,204.01321950688805,212.84743857309888,222.43388451409496,232.95584618233056,244.65718822589773,257.87080775171154,273.06493612834254,290.9220117177239,312.4806895447141,339.4096416529818,374.5832502180333,423.4365602304705,494.75303035857314,592.1249943816033,722.4277589564515,892.5396246708133,1108.303158460369,1373.40579866754,1688.5942299290768,2051.4544184761826,2456.7614932993856
H2,60592.538942343956,64199.23768891204,67487.93724194642,70502.39789554036,73262.48049998198,75786.62473620627,78091.95065555788,80194.3529663933,82108.58858560953,83848.35793617924,85426.3804374102,86854.46460273796,88143.57313023153,89303.88334347903,90344.84331497262,91275.22398038884,92103.16753013272,92836.23234405859,93481.43471628695,94045.28759939954,94533.83658091753,94952.69328975996,95307.06641625868,95601.79051619301,95841.35275713165,96029.91775406299,96171.35063079617,96269.23843386665,96326.91001662755,96347.45450280195,96333.73843096645,96288.42167418772,96213.97222230418,96112.67990809516,95986.6691527769,95837.91080087633,95668.23310952957,95479.33195260626,95272.78029574614,95050.0369943882,94812.45496315259,94561.28876148135,94297.70163723612,94022.77206697292,93737.49982884762,88183.5664092524,82739.09029207437,77411.0977072065,72206.719895004,67133.23484625785,62198.103618562986,57408.99918924307,52773.82504268758,48300.71975306373,43998.04271199985,39874.334899457244,35938.24729956141,32198.428413504767,28663.361652227177,25341.14372111433,22239.197160896096,19363.9148642706,17316.711266356233,17244.77336035758,17172.73447831577,17100.633141134793,17028.50485734291,16956.38234096551,16884.29571380486,16812.27269324092,16740.338766587836,16668.517352966697,16596.829953586668
S3,4200434.878189409,4182092.902125744,4164898.422597712,4148752.8014237154,4133571.2385989334,4119275.481163587,4105793.1465542596,4093057.221506686,4081005.645733075,4069580.9442627723,4058729.893385616,4048403.213319674,4038555.283958803,4029143.881377054,4020129.933344548,4011477.2923941887,4003152.525145303,3995124.7167070718,3987365.289078222,3979847.8325405926,3972547.949117243,3965443.1072327415,3958512.506775091,3951736.953816019,3945098.7442995026,3938581.5560576916,3932170.3485591854,3925851.269837127,3919611.570084039,3913439.521436993,3907324.3435107153,3901255.9238661737,3895225.4680751623,3889224.568920685,3883245.571486568,3877281.482109927,3871325.9105080105,3865373.022869134,3859417.500048448,3853454.4992002794,3847479.618264361,3841488.8630129555,3835478.616450437,3829445.6103879246,3823386.8990320796,3826598.248524232,3830141.400791673,3834032.7866121563,3838290.7811414986,3842935.8189059924,3847990.4900514814,3853479.611058269,3859430.2557452326,3865871.7246810957,3872835.421218068,3880354.5882121082,3888463.8374925205,3897198.36631979,3906592.681549982,3916678.4888636707,3927480.9899854017,3939011.63173503,3946528.99736287,3938149.7749975673,3929563.144175267,3920654.996201512,3911334.366226161,3901498.1153530306,3891054.3730532234,3879935.154542098,3868106.365533341,3855570.1703853286,3842361.397032962
E3,0.0,6.753832844476082,9.615054488994444,10.973976401148333,11.753869325279393,12.312345614439476,12.788253937631701,13.235627480788319,13.67554866585002,14.11627990811659,14.561093734160881,15.011323677098119,15.467554318488974,15.9300854337598,16.399112558364923,16.8747966831332,17.3572906251755,17.846748523933428,18.343328824251984,18.84719480172988,19.358514210891364,19.877458665516418,20.404202979888236,20.938924551339596,21.481802807359415,22.033018719195407,22.59275437651355,23.161192615653945,23.738516693985265,24.32491000349011,24.920555817510937,25.525637065367587,26.140315973978723,26.764785412767704,27.39922649297198,28.04381698474746,28.698732900679843,29.3641485708771,30.04023643134915,30.727166775050865,31.425107500787732,32.13422385518729,32.85467815878843,33.5866295085593,34.33023345018532,35.085641613721656,36.131872382837344,37.45630370814388,39.08323633522376,41.061313300360524,43.46139055702086,46.3803255083602,49.949571565503206,54.34950260232789,59.83229133792387,66.75892954519244,75.66103364548553,87.34834396309034,103.1052365247507,125.07226386724467,157.04390606632936,206.2991750923299,288.33571174913357,423.53059947158107,580.5904685196133,779.4106794734184,1020.2751234380397,1297.2099319211827,1597.43455337152,1903.3144886627076,2195.742844340726,2457.587089869181,2675.9966621687113
I3,0.0,0.0,1.2156093776868058,2.468684955144238,3.474113101452295,4.224957162201716,4.7813713211318785,5.204870907161689,5.542531929377682,5.826732432401062,6.078618749648983,6.311619459717928,6.534128103908198,6.751346263390008,6.966486173521212,7.181533423103959,7.397722592002076,7.615830793711501,7.836357616771334,8.059634917929628,8.285893580562098,8.515303985509597,8.74800047249812,8.984096073977653,9.22369135003287,9.466879653221618,9.713750237716907,9.96439007054956,10.21888486444319,10.477319646315298,10.739779050906742,11.006347453484011,11.27710900984681,11.552144016354355,11.831535941288633,12.115368062516264,12.403722940933232,12.696682385765916,12.994327447018431,13.296738372797687,13.603994538592872,13.916174359141602,14.233355188475038,14.555613209926936,14.883023315806458,15.21565897535406,15.553592088989152,15.947086294956016,16.424388689375178,17.00702409782121,17.71681706128271,18.579772161212027,19.629111953507064,20.908668449520295,22.477520575662666,24.416927767272902,26.841203081993584,29.91543937189392,33.88562078771137,39.13227556598678,46.27172555188963,56.361148232070136,71.35257259687421,95.22061588896324,134.04620548262588,185.889105935112,253.1521789866436,337.34548352819223,438.31066717448954,553.6512351517407,678.7380918921765,807.3215450237134,932.5232751918065
A3,0.0,0.0,0.13515719153303007,0.3006298521859137,0.460310797809347,0.6037671009144552,0.7298021105107964,0.8402363525691164,0.9376087460269784,1.024373985637267,1.102662778742864,1.1742465736824843,1.2405703737423306,1.3028028247973933,1.3618856066113645,1.4185765916415842,1.473485795035265,1.5271046858607167,1.57982984528821,1.6319819682977879,1.6838210879807982,1.7355587578929688,1.7873677935000658,1.8393900585198075,1.891742686729135,1.9445230524129582,1.9978127402387456,2.0516807152395438,2.1061858534333964,2.1613789614564305,2.2173043878579137,2.274001308121555,2.3315047490122662,2.3898460013128884,2.4490539777937608,2.509155451956713,2.5701754176287905,2.6321374085614186,2.6950637558214128,2.7589757896371205,2.823893996025182,2.8898381371694444,2.956827342639147,3.0248801769416165,3.0940146876553967,3.1642484374100732,3.2355985221997408,3.313662324764627,3.4026688189853447,3.5064902532603415,3.6292003984781562,3.7754788984778607,3.951010830579688,4.162978608864415,4.420742488274109,4.736843253217233,5.128545869553411,5.620312264195543,6.247932432266987,7.065764602715584,8.160167469682618,9.676219291861502,11.875744554864472,15.278511624482263,20.70845963317078,28.199037975886124,38.17517248511484,50.982762821527544,66.77920623517772,85.43475999164535,106.4926448251266,129.20477300683766,152.62933040132944
IH3,0.0,0.0,0.0,0.23647024186537624,0.6036048006291231,0.9907378203589945,1.3387810749061786,1.6286075295697167,1.8622043000354358,2.049765753800907,2.202909145660768,2.331809224256326,2.44438680388574,2.5464072736825027,2.64189052422605,2.733558765166041,2.823218536258083,2.912052542872167,3.0008290206700563,3.09004597329233,3.1800277848529834,3.270988612975815,3.3630733362217833,3.456383676452238,3.5509946940684274,3.6469651128837204,3.744343731186201,3.843173371464877,3.9434932934792197,4.045340654170592,4.14875137994653,4.253760678905926,4.360403333901935,4.4687138632273555,4.5787258963733315,4.6904732161355165,4.803989648253573,4.919308901401822,5.0364644769559614,5.15548962044552,5.276417287923151,5.399280114661008,5.524110381673868,5.650939978808842,5.779800364091459,5.910722519107841,6.043736900039487,6.17887338376321,6.325925250751618,6.495496906716729,6.697308283359483,6.94067614961183,7.235520063621182,7.593478182248063,8.029149162518975,8.561642228260062,9.216734681713662,10.0301126912,11.0525103805233,12.358248634881187,14.060127118515961,16.336889924693043,19.487445853450378,24.047472297420985,31.06962874573356,42.286041761103164,58.223001397764165,79.622518702639,107.16547980133399,141.1763265195831,181.3581475841973,226.6555429876343,275.3021267853173
IN3,0.0,0.0,0.0,0.2410493364857823,0.7281668784856443,1.4097846813182224,2.2334749754352656,3.1592625465568664,4.15977011848606,5.217229127911712,6.320469103509934,7.462624492158619,8.639561217087484,9.848850940083524,11.089121054174667,12.359649648866865,13.66011576522494,14.990446464993271,16.35072363706737,17.741127417393965,19.161901946114615,20.61333470500269,22.095744086693166,23.609471938798922,25.154879104233338,26.732342758048855,28.3422548148986,29.985020968950906,31.66106010256517,33.370803905687,35.11469661178039,36.89319479462586,38.7067671934648,40.55589454782566,42.44106871221311,44.36279317393491,46.32158289901542,48.31796407523672,50.35247385086867,52.42566007451397,54.53808102909262,56.69030515446294,58.88291075533988,61.11648569231363,63.39162705414735,65.70894080949161,68.06904143589806,70.47255152364092,72.93005446833587,75.45762909130896,78.07546169228723,80.80786440670117,83.68406282870913,86.73957816529769,90.01826808277676,93.5752667301478,97.48127025966205,101.82893557686042,106.74273011550676,112.39465407736171,119.03044453229117,127.01559475774401,136.9215761732806,149.70122319324105,167.08598885897453,191.9958295499658,226.93676297517698,274.86622228338456,339.01150351275146,422.53622924506044,528.0971727573725,657.4066128030024,810.9204222135414
D3,0.0,0.0,0.0,0.0,0.00047045750109795786,0.001671329136846418,0.003642401841523919,0.006305906534753648,0.009546020904268624,0.013250876004079891,0.017328884580390915,0.021711571905603768,0.02635070591260215,0.031213812992805498,0.03627988977821492,0.041535930472372744,0.0469743451144002,0.05259113785391778,0.058384665832654066,0.0643548145970402,0.07050246047165531,0.07682912514321144,0.08333675636497236,0.09002759012607121,0.09690406479126494,0.10396876805796443,0.11122440445459605,0.11867377559377104,0.12631976828343433,0.13416534743881486,0.1422135518988693,0.15046749197813528,0.15893034803765643,0.16760536963895617,0.17649587501769476,0.18560524931539876,0.1949369448844602,0.20449448137357373,0.21428144549483513,0.22430149061132074,0.23455833622808156,0.2450557674162291,0.2557976341747425,0.26678785072567374,0.2780303947359195,0.28952930645811226,0.3012886877827442,0.31331270119287474,0.32560556861160406,0.33819099569166505,0.3511137855489325,0.36443807910154674,0.37824655297766147,0.3926416187644731,0.4077488421600329,0.42372283288776225,0.4407562184682408,0.4590929103599438,0.4790478176464144,0.5010367849408297,0.5256235182432949,0.5535961384644152,0.5860983778542623,0.6248686476635833,0.6727110892136189,0.7345241096784966,0.8186521816985612,0.9344868318766971,1.0928958176521444,1.3061015192811969,1.5869717939705772,1.9477837940056175,2.3987149535579015
R3,0.0,0.0,0.0,0.026943081799556762,0.20190671236048452,0.5884285199285796,1.1947438535128525,2.000183283087354,2.9749309074428982,4.090349580345607,5.322969076259504,6.655165164213532,8.074444017539273,9.57233097157063,11.143305925722986,12.783937327244871,14.492233990298645,16.267183524511204,18.10843406981763,20.016079529668566,21.990516722449026,24.03235123901562,26.142335714320478,28.32132941868226,30.570271767976255,32.890164885710576,35.28206204673873,37.747059949823736,40.28629349366201,42.90093220073632,45.5921777352812,48.361262155256135,51.20944666240855,54.138020694364975,57.148301173877634,60.24163172261669,63.41938242405742,66.6829496039488,70.03375559571573,73.47324851158312,77.0029020282139,80.62421518489256,84.33871218802308,88.14794221494589,92.05347921055218,96.0569216708542,100.15989240819741,104.36403829309307,108.67214246878021,113.09260118896418,117.63979397485227,122.33374361419746,127.20008618380845,132.27060770400968,137.58442410038992,143.18990871045727,149.14758732309932,155.53441135271416,162.45013143038557,170.02704060806013,178.445384862784,187.9588059293877,198.93865174627848,211.9565400145167,227.95235777124242,248.54890598104362,276.2298132185367,313.8391318139618,364.6728398867632,432.4148507519411,520.9093721504319,633.7947123617644,774.0745185233641
G3,0.0,0.0,1.2156093776868058,2.946204533495397,4.921389429381646,7.036945751981646,9.253021147225557,11.554754365799347,13.937009487552153,16.39844517689059,18.93920723445222,21.560030476635326,24.261889739897565,27.045865078406823,29.913090502333137,32.864735215896715,35.90199739974725,39.02610273979219,42.23830466520045,45.539885123323735,48.93215544917456,52.41645717157947,55.994162707799035,59.66667593958029,63.43543267807482,67.30190102924269,71.26758167171062,75.33400805807389,79.50274654928886,83.77539649045302,88.15359023503392,92.63899312351535,97.23330342147739,101.93824859341105,106.75559081800371,111.6871248718059,116.73467752787643,121.90010723944069,127.18530383706478,132.59218818774042,138.1227118091606,143.77885643880117,149.56263355656057,155.4760838580987,161.52127667463253,167.70030933374773,174.01530645463177,180.5186126384506,187.2603006679886,194.294817170467,201.685363939607,209.50789599585033,217.85580153725596,226.8461288084033,236.6283912003486,247.39749018661635,259.41330145530105,273.03138531121914,288.75304566202135,307.31075878496523,329.82227488946774,358.08830535229373,395.2196969081862,447.11668683901064,523.347144463685,627.8465056975456,768.1311341233221,951.7684903374668,1185.250809841656,1472.7699812566825,1815.3438936385837,2210.551423056843,2652.8877943767866
H3,181777.61682703186,180984.14310278688,180240.21854941736,179541.6445524811,178884.7784418716,178266.24434176055,177682.9140286293,177131.88915762355,176610.4847594814,176116.21391726678,175646.773538625,175200.03114529612,174774.01260721314,174366.89075370342,173976.97479913066,173602.70052479237,173242.6211630428,172895.39893347138,172559.7971845503,172234.673097492,171918.97091214862,171611.71563765354,171312.00721317023,171019.01508658737,170731.9731812967,170450.17522332317,170172.9704030581,169899.75934768497,169629.99038209554,169363.15605768078,169098.7899298525,168836.46356652,168575.7837710155,168316.3900041416,168057.95199110822,167800.16750014393,167542.7602805103,167285.47814852424,167028.09121100802,166770.39021634185,166512.18502399602,166253.30318407167,165993.58861898395,165732.9003999833,165471.11161173313,165208.10829864544,164881.1784248383,164492.15777477503,164042.95048030914,163535.52970124708,162971.93879714454,162354.29292167502,161684.78094719964,160965.6675945764,160199.2955997771,159388.08769254087,158534.54809152515,157641.26313480485,156710.90056598512,155746.20689046176,154750.00211543546,153725.17111162702,152674.65081503335,151608.5133828409,150550.4040256072,149500.25464061182,148457.99815123927,147423.56846256636,146396.9004199136,145377.9297701501,144366.59312555648,143362.82793006478,142366.5724277067
S4,2100217.4390947046,2135210.8760484094,2170055.163710177,2204757.4932164815,2239325.6659541815,2273767.3405171186,2308089.745909581,2342299.595892575,2376403.0805513137,2410405.886512287,2444313.226797292,2478129.872925557,2511860.1864519375,2545508.1489304025,2579077.3899980076,2612571.2135477467,2645992.6220608256,2679344.3392036306,2712628.830802979,2745848.3243114497,2779004.8268691353,2812100.14206156,2845135.885466794,2878113.4990783096,2911034.264684001,2943899.316276075,2976709.651561192,3009466.1426352807,3042169.5458828514,3074820.5111563546,3107419.5902871736,3139967.019959889,3172463.4893733016,3204909.2232632884,3237304.4318280607,3269649.27522912,3301943.858196241,3334188.2321366807,3366382.3989158776,3398526.3148125997,3430619.8942744066,3462663.013389695,3494655.5130667877,3526597.201928416,3558487.8589331824,3599073.515629536,3639625.127568007,3680137.5980855157,3720605.023067854,3761020.634751066,3801376.7169530042,3841664.4996913723,3881874.0336295716,3921994.039033616,3962011.716123907,4001912.4892569464,4041679.627658103,4081293.621328467,4120731.0459712143,4159962.3038241705,4198946.72792143,4237620.953957398,4274473.047490523,4306401.061072686,4337911.923042031,4368783.606755063,4398850.57139805,4427935.3649600325,4455887.385071378,4482602.430630143,4508035.616235988,4532201.446457377,4555165.254048804
E4,0.0,10.130749266714124,14.556022124601382,16.774816935132357,18.162338643634534,19.2580525498907,20.272239461062284,21.28565465622734,22.32831881899292,23.41060984817159,24.535504480442825,25.703366459075156,26.91379032124788,28.166286431129468,29.460514312046318,30.796343691700507,32.17385304708414,33.59330820838464,35.05513702601753,36.55990570262903,38.10829839329087,39.70110020434338,41.33918323314023,43.02349517655561,44.75505005524311,46.53492066033312,48.36423239485032,50.24415824179196,52.1759146414466,54.16075810223114,56.19998240318068,58.29491627353225,60.446872542930194,62.65727060422458,64.927533835008,67.25910869097827,69.65346780425604,72.11210955826392,74.63655702895217,77.22835687865643,79.88907827382977,82.62031180037373,85.42366834024946,88.30077787641771,91.25328819580113,94.28286346034946,98.17805638621861,102.91887751795986,108.59168987684669,115.35657705772186,123.443650407538,133.16659190375856,144.95105239878473,159.3814221425128,177.2753999102606,199.80471232777984,228.69684888277885,266.58631059483014,317.6573860721681,388.89347923989106,492.6921129602115,652.8722308352556,920.2275221303294,1362.8467780393544,1883.3970629725309,2549.7149836757026,3366.055444022298,4315.6683362772865,5358.085428361365,6434.907279409259,7480.851788837941,8435.571046357712,9252.00260854502
I4,0.0,0.0,1.823414066530209,3.7270451119409533,5.282242307106815,6.476259309631763,7.398454157508388,8.140931015219211,8.774148380951099,9.346290384507721,9.888481209170028,10.420154513728043,10.953175434186797,11.494675227260945,12.048895697897072,12.618351089863374,13.204544546159038,13.808402865247402,14.430536623907939,15.07139355816241,15.731347432655875,16.41074832836047,17.109950116096403,17.829324625136792,18.56926819572275,19.330203988075674,20.112582024871536,20.916878108558834,21.743592258293297,22.593247018847464,23.46638582381086,24.363571498244713,25.28538493188139,26.23241512116517,27.205275164854008,28.20459351327743,29.23101209166665,30.28518571834441,31.367781674946677,32.47947925490443,33.620969290199945,34.79295366922878,35.99614484882936,37.23126535580202,38.499047269146416,39.80023167223675,41.13556806300405,42.64744160521271,44.41870740186026,46.515217462401544,49.005768736721805,51.973550434534445,55.52553212864599,59.803275338726195,64.99791621038935,71.3726842040249,79.2983029590035,89.31079477329165,102.20979871401822,119.23395911781441,142.3922815111743,175.13599370410614,223.84772694402372,301.5451251724994,428.3873701538304,599.095881367412,822.6754075534882,1105.3592551039228,1447.9173233222266,1843.533277974418,2277.5571961367145,2729.343984975,3175.4965190523085
A4,0.0,0.0,0.20273578729954514,0.4536151772826318,0.6988850507744515,0.9230282695759922,1.1244167178216626,1.3059549620604378,1.4715846228687177,1.625062345116363,1.7696035822614662,1.9078423693426112,2.0418949355449656,2.1734475335709718,2.303840469383822,2.43414005036082,2.565197412483115,2.697695591425612,2.8321867820237223,2.9691216632430284,3.1088724036834976,3.25175067278292,3.398021721328281,3.5479153756981647,3.7016346124782635,3.8593622381338553,4.021266085958375,4.187503053784598,4.35822223609472,4.53356734925321,4.713678605454851,4.89869415712469,5.088751206946236,5.283985879007455,5.484535566349562,5.690538757748301,5.902135281120643,6.119466560412573,6.3426758127697695,6.571908185214927,6.8073108419429325,7.049033012555814,7.297226008975912,7.552043216506302,7.813640062757844,8.08217396681428,8.357804269935349,8.656439006547528,8.990414976305455,9.371337974129741,9.811703803809676,10.326122248129524,10.932568064174504,11.653950900907937,12.520308227693743,13.57205338244303,14.86499195947476,16.4783753049515,18.5283777398395,21.19175033454366,24.749760843738777,29.67570563361152,36.82519410180211,47.89975256904862,65.62430216740304,90.23274183146683,123.2698846541194,166.0577398167353,219.3195770155974,282.82463763546696,355.2194787409693,434.1140407414033,516.387035695465
IH4,0.0,0.0,0.0,0.3547053627980644,0.9100793156209283,1.5023699936650594,2.0436619056704672,2.505468638855576,2.890844532487639,3.215089320076114,3.4955586607798206,3.74736223348125,3.9821637622533617,4.208356786487938,4.431707785229916,4.656050514217584,4.883874290016168,5.116770293353599,5.355748995941423,5.60145637609869,5.854316564092829,6.114623553577758,6.382598833533235,6.658426801551059,6.942275996570798,7.234311451505169,7.534701587272039,7.843621817952102,8.161256221133286,8.487798105336758,8.823449977101333,9.168423205406434,9.522937555312177,9.887220686540491,10.261505954761244,10.6460343760291,11.04105394944401,11.446818938690676,11.863589384010186,12.291630763971915,12.73121373117323,13.18261388228414,13.646111544280851,14.121991567991206,14.610543123410409,15.112059492189564,15.626837852801213,16.155179053715372,16.724937982062087,17.366765308519682,18.10946279677575,18.981440434793882,20.013703504962642,21.243237309717557,22.716876277129185,24.496237182553763,26.664673528684908,29.337790391392733,32.68017503835627,36.93325160931422,42.46393202929015,49.85445721090204,60.079966736945806,74.89083179654433,97.73258998933076,134.3244459042079,186.6235073238169,257.4025536129282,349.3208094314274,463.9154668914298,600.6625723914159,756.438935766439,925.5990107369141
IN4,0.0,0.0,0.0,0.3615740047286735,1.0970129049109003,2.133485339778305,3.396360725419015,4.829474041412578,6.395485718516652,8.071401155422768,9.844010371825313,11.706407259064104,13.655608368133336,15.691012882392819,17.813440086358607,20.024542200674965,22.32645348590273,24.721584925830808,27.212507173968643,29.801886251650707,32.492450303840165,35.286974309733885,38.188274918064714,41.19921078191428,44.32268569974203,47.561653024335364,50.919120485535984,54.39815497316146,58.00188705740704,61.73351515409532,65.59630931293857,69.59361464334907,73.72885440907517,78.00553282879304,82.42723587407832,86.9976352312469,91.72049048834833,96.59965092815497,101.63905718785114,106.84274281690242,112.21483572981255,117.75955955051072,123.4812348476895,129.38428026102724,135.4732135173019,141.75265233367406,148.227315203306,154.9020220561669,161.80977889775232,168.99969143125944,176.53343243112784,184.48570003947125,192.94694142645068,202.02791082855938,211.86632589019536,222.6364284330899,234.562914962832,247.94174768687733,263.1722197652259,280.8081959043885,301.6436192189006,326.8628692668753,358.32284324218443,399.1275136234303,454.93114767230804,535.3289361685789,648.77340153447,805.4181381745393,1016.5512384245314,1293.500580926685,1646.1291201196887,2081.2961735285653,2601.6986455468605
D4,0.0,0.0,0.0,0.0,0.0007056862516469369,0.002516288876529064,0.005505253692434332,0.009571118664053808,0.014555748043281769,0.020307082689402255,0.026703502278598815,0.033657915567641875,0.04111329201655726,0.04903580606218976,0.057408331086403544,0.06622521288002303,0.0754884244901829,0.08520489145884967,0.09538470498174463,0.10603996658786652,0.11718406297995662,0.12883122466784241,0.14099626706166976,0.15369444622386752,0.1669413850758383,0.1807530418471728,0.19514570310041016,0.2101359904714734,0.22574087458256573,0.24197769227821636,0.2588641649902206,0.27641841703709397,0.2946589932558964,0.3136048757062329,0.33327549937668194,0.35369076351688256,0.37487104687786876,0.3968372216048365,0.4196106657005339,0.4432132745177193,0.4676674715787141,0.49299621886913053,0.5192230266741032,0.5463719629892327,0.574467662520787,0.6035353352786844,0.6336007747566323,0.6646903656848525,0.6968310913315405,0.7301053522575253,0.7646565285271054,0.8006853013079439,0.8384488734333394,0.8782661327399904,0.9205295493167379,0.9657247703381383,1.0144600295415693,1.0675093924421226,1.1258769208312887,1.1908941228382195,1.2643728198720394,1.3488548045467397,1.4480402376609358,1.5675693200272633,1.7165646156053347,1.9110035847521922,2.178242044263889,2.5495294764968355,3.0616318078249036,3.7566054915757126,4.679565224490803,5.874583297721407,7.379518416181165
R4,0.0,0.0,0.0,0.04041462269933515,0.3033924026176613,0.8871261953546241,1.8079971476740742,3.0394440247610164,4.541355730374034,6.275488210300837,8.211403142557517,10.327437074956944,12.609578867056024,15.049764488959351,17.644257642358085,20.392343808142403,23.295363456908245,26.356033659606453,29.577989589390825,32.96548346136001,36.52319165213342,40.2560940107527,44.169400286568155,48.268506760743286,52.558971939056796,57.046504097949,61.736956089411194,66.63632451351575,71.75075146070665,77.08652771920372,82.65009677776828,88.44805922423949,94.48717730643898,100.77437952318884,107.31676497883791,114.12160716656142,121.19635869235096,128.54865574680005,136.18632230384804,144.11737414299273,152.35002275324,160.89267914310457,169.75395756414926,178.9426791484387,188.46787545714503,198.33879193563533,208.56489126862695,219.15585662706542,230.12473387361985,241.50062467495232,253.330033323647,265.67628924981295,278.6199120975351,292.26067607127516,306.721644863365,322.1555530362124,338.7542800442849,356.76277572241423,376.4998072248777,398.3896815439515,423.01246207654486,451.1869704952023,484.1155260510581,523.6540093024213,572.862182858869,637.0405612859595,724.35612388991,844.3004397816932,1008.0507434275955,1228.3078404394346,1518.571932936873,1891.9225053681746,2359.543703906568
G4,0.0,0.0,1.823414066530209,4.443324479467691,7.462591500860517,10.731595884642879,14.197815705996549,17.8465770779537,21.677741100835288,25.696572240037714,29.9102028589951,34.32630109824855,38.95260056779014,43.796761899139064,48.866357595203354,54.16889887714974,59.71187351868473,65.50278341843762,71.5491783213016,77.8586849801429,84.4390320575525,91.29807135587629,98.44379598723961,105.88435603089238,113.62807214022128,121.68344748023922,130.05917830557038,138.76416342996382,147.8075127901211,157.1985552674907,166.94684590005315,177.062172590588,187.5545623972934,198.43427867204898,209.71184024052212,221.3980221193743,233.50385967004465,246.04065331019402,259.01997314863223,272.4536634296786,286.35384677843024,300.73292825123445,315.6035991909345,330.97884087991804,346.87192797806927,363.29643172727003,380.2662228987091,397.9371023495921,416.46127307350304,436.0064823780416,456.7692907090043,478.98767581073616,502.95607444310684,529.0455354438556,557.7322909272935,589.6397490368536,625.602214736655,666.7649204996068,714.7472775677202,771.9218192380301,841.91800824231,930.5967135965021,1048.105930142149,1213.735911112443,1459.0320802484448,1798.0210935062637,2256.939387156331,2862.7892294298035,3639.558068897824,4603.949554910144,5762.1561338296715,7108.620252353759,8626.922452930534
H4,90888.80841351593,92403.62188707452,93911.82307959774,95413.82490084288,96910.00527211356,98400.71175912916,99886.2637953105,101366.95474554908,102843.05382186262,104314.80786152497,105782.44297750219,107246.16609032406,108706.16634986819,110162.6164549283,111615.67387787583,113065.48200120192,114512.17117224185,115955.85968193389,117396.65467304614,118834.6529829174,120269.9419253965,121702.60001633107,123132.69764664484,124560.29770675459,125985.45616580948,127408.22260898695,128828.64073584798,130246.74882254013,131662.5801504375,133076.16340362164,134487.52303743566,135896.67962018444,137303.65014990544,138708.44834799724,140111.0849313651,141511.56786462435,142909.9025937922,144306.09226279648,145700.1379140342,147092.0386741259,148481.79192592876,149869.3934677954,151254.83766099598,152638.1175661542,154019.22506948738,146651.87110503443,139341.4789668082,132095.18456353855,124920.96367314468,117827.7131014075,110825.33471479037,103924.81986450206,97138.33039459607,90479.2706526313,83962.34261249127,77603.57332024224,71420.30040429943,65431.0975151999,59655.61769224603,54114.32959062514,48828.120555690184,43817.74359594166,40498.037082994124,41770.32583978607,43033.73011797641,44288.31681818981,45534.15227352824,46771.302258121905,47999.831995309956,49219.8061654759,50431.288913560486,51634.34385627346,52829.034089024
E_Om,0.0,0.0,0.0,0.0,0.0,0.0,0.0,0.0,0.0,0.0,0.0,0.0,0.0,0.0,0.0,0.0,0.0,0.0,0.0,0.0,0.0,0.0,0.0,0.0,0.0,0.0,0.0,0.0,0.0,0.0,0.0,0.9834904963555906,1.381995985173341,1.658007947503948,1.9336311483225495,2.244470300202811,2.6046864354271073,3.0237790463220358,3.511006431292781,4.076646329755844,4.732462384973602,5.491987637538694,6.370785142695292,7.386729799549089,8.560325887740857,9.915067575356238,11.604873496744151,13.690300591124268,16.27619436442775,19.51156902856522,23.60350884123497,28.84243541558314,35.64263745496294,44.60735449216919,56.63587991159687,73.10554417182686,96.19276748046133,129.46487647210466,179.02916435235053,255.9075363152848,381.3342356245046,599.7670193234673,1015.0593877335823,1817.4435505084707,2990.3165029904158,4854.255843269666,7631.8837073795685,11581.182020045062,16893.146845896626,23647.305179242438,31779.933972548482,41089.12361154988,51267.02372464163
I_Om,0.0,0.0,0.0,0.0,0.0,0.0,0.0,0.0,0.0,0.0,0.0,0.0,0.0,0.0,0.0,0.0,0.0,0.0,0.0,0.0,0.0,0.0,0.0,0.0,0.0,0.0,0.0,0.0,0.0,0.0,1.0,0.6071767895869354,0.5456802157810967,0.5800671596394639,0.6506249758019198,0.7430749336500561,0.8551557430717575,0.988043218147716,1.1441610812411651,1.3266473436302308,1.539257203469199,1.7863880454323828,2.0731456453643715,2.4054312762171897,2.7900453226507738,3.2348073462283033,3.748693873341021,4.3648587612849825,5.114331789659739,6.034824461288846,7.176055106649999,8.605484239089725,10.416344743835145,12.73981249134835,15.764110348258306,19.765384956253254,25.15920920561526,32.58963899491822,43.08980637354518,58.386245094641254,81.51107788665513,118.12724987872983,179.67503605687483,291.7930975429531,504.2881636495098,844.4133815201733,1386.4163745560095,2215.4479062545206,3429.643214039287,5122.964750465218,7366.7782464928805,10192.945928826184,13584.47247903517
A_Om,0.0,0.0,0.0,0.0,0.0,0.0,0.0,0.0,0.0,0.0,0.0,0.0,0.0,0.0,0.0,0.0,0.0,0.0,0.0,0.0,0.0,0.0,0.0,0.0,0.0,0.0,0.0,0.0,0.0,0.0,0.0,0.0,0.019681537350390094,0.04341449534100063,0.06793990720713426,0.0930920203597649,0.11945064318228772,0.14776339092626076,0.17881894765374226,0.21343405256867004,0.2524683083053479,0.296845372058807,0.347575595592549,0.4057793674993266,0.47271144221414996,0.5497867736492038,0.6386084134470352,0.7435400589439611,0.8692873815779679,1.021716155071428,1.2085048941695051,1.4399455848410811,1.7300904393898808,2.0984811281966405,2.5728357464279226,3.1933434815281925,4.0197449892446535,5.1434262049326644,6.708944689256636,8.954259681803057,12.29046366792662,17.471637448488522,25.991223898453264,41.12326201377902,69.29603591010093,115.32411717928231,189.4776851528911,304.43469456641304,475.508511931091,718.7820400698072,1048.7236033291751,1475.642098782557,2003.7507834253383
R_Om,0.0,0.0,0.0,0.0,0.0,0.0,0.0,0.0,0.0,0.0,0.0,0.0,0.0,0.0,0.0,0.0,0.0,0.0,0.0,0.0,0.0,0.0,0.0,0.0,0.0,0.0,0.0,0.0,0.0,0.0,0.0,0.39282321041306456,0.6313363461869024,0.8456922004089265,1.0735560443136885,1.329136636083121,1.6210337170970113,1.9569587414936285,2.34508505047327,2.7945380796361077,3.3156759482468985,3.9203319045651055,4.622066591615373,5.43644631968127,6.381355556032902,7.477350116874533,8.7480575236877,10.220631485869307,11.935249317476865,13.944277550208598,16.314896669371375,19.133817674466695,22.51425162042495,26.606033603467516,31.610527646379442,37.80303608268808,45.567338056253575,55.45045938785729,68.25242600404387,85.17910207977722,108.11457432181822,140.13401762148342,186.5371431561124,257.1176676510571,371.7407690042524,569.8368644223617,901.5420398668682,1446.1585710892016,2316.4379301270046,3663.6813880372983,5676.100848148009,8569.942329336469,12573.968072664748
G_Om,0.0,0.0,0.0,0.0,0.0,0.0,0.0,0.0,0.0,0.0,0.0,0.0,0.0,0.0,0.0,0.0,0.0,0.0,0.0,0.0,0.0,0.0,0.0,0.0,0.0,0.0,0.0,0.0,0.0,0.0,0.0,0.0,0.17701656196799903,0.4257593600483904,0.7241810201156081,1.0722115697331769,1.4761894601687684,1.9450019596413441,2.4892461317144354,3.1211854232663385,3.8549331517160983,4.706719949997488,5.695212236979746,6.84187759589846,8.171400878683675,9.712157463102837,11.496751397028724,13.58549024715429,16.049581107136607,18.979102011497442,22.490951776021376,26.73930191355642,31.930596364260094,38.345846094815876,46.37463799463775,56.56842103894134,69.72654726186883,87.04009838277551,110.34223237758906,142.56534717441846,188.62565220847338,257.26126750021325,365.2121792129872,547.9107651940101,875.0289326537622,1413.250245942535,2286.9584144228775,3660.606477343722,5745.081144166291,8785.646138502516,13041.879094640892,18761.888258162653,26157.440551699918
beta,1.3556125466364466,1.3556125466364617,1.3552735285898627,1.3550625396840634,1.3548984331591603,1.354749931482699,1.3546049144355092,1.3544586492567317,1.3543092596746673,1.3541559760822262,1.3539984578878963,1.353836530414793,1.353670082503035,1.353499026561914,1.3533232829462527,1.353142773828807,1.3529574207879937,1.3527671438535869,1.3525718611261222,1.3523714886235423,1.3521659402182276,1.351955127611402,1.3517389603225483,1.3515173456861038,1.3512901888514968,1.3510573927852332,1.350818858274448,1.35057448393147,1.3503241661994443,1.3500677993588432,1.3498052755347636,1.3495364847051572,1.3492566327718762,1.3489721322775998,1.3486812219642992,1.3483833164422376,1.3480781235895625,1.347765417146835,1.3474449770355703,1.3471165725928833,1.346779956660774,1.3464348622500677,1.3460809996115963,1.3457180531184705,1.345345677765576,1.3449634951909666,1.3893546553348883,1.4385845859870365,1.493503094674032,1.555169570676518,1.6249222358870101,1.7044757938595154,1.7960624761103832,1.9026408558156125,2.028213522069734,2.1783255718239354,2.3608753343253825,2.587489219504582,2.8759715454816357,3.2549368743792906,3.7732252647592337,4.520821735084313,5.680771818624227,7.041284344059573,6.668779923087419,6.223337928413974,5.682412711955751,5.073501357265534,4.43701073942368,3.8184635166598095,3.2540280535204156,2.7635760081219267,2.3517146601095766
