series,2021-11-15,2021-11-16,2021-11-17,2021-11-18,2021-11-19,2021-11-20,2021-11-21,2021-11-22,2021-11-23,2021-11-24,2021-11-25,2021-11-26,2021-11-27,2021-11-28,2021-11-29,2021-11-30,2021-12-01,2021-12-02,2021-12-03,2021-12-04,2021-12-05,2021-12-06,2021-12-07,2021-12-08,2021-12-09,2021-12-10,2021-12-11,2021-12-12,2021-12-13,2021-12-14,2021-12-15,2021-12-16,2021-12-17,2021-12-18,2021-12-19,2021-12-20,2021-12-21,2021-12-22,2021-12-23,2021-12-24,2021-12-25,2021-12-26,2021-12-27,2021-12-28,2021-12-29,2021-12-30,2021-12-31,2022-01-01,2022-01-02,2022-01-03,2022-01-04,2022-01-05,2022-01-06,2022-01-07,2022-01-08,2022-01-09,2022-01-10,2022-01-11,2022-01-12,2022-01-13
S,101778.66004580054,101716.58704338265,101677.75019520018,101650.92477272877,101630.71924781086,101614.46937338334,101600.80546466511,101588.98336477639,101578.5688602221,101569.2870473769,101560.94923761483,101553.41661033151,101546.58147615322,101540.35711871006,101534.67191995251,101529.4657037422,101524.68728783095,101520.29273769027,101516.24405845226,101512.50818039295,101509.05615344136,101505.64007005966,101502.54893072233,101499.71197009462,101497.09099076412,101494.6616280415,101492.40587214891,101490.30901812518,101488.3583689884,104977.87154280393,108467.37893645091,111956.8805722112,115446.3712112957,118935.84269501554,122425.28497051561,125914.68638059637,129404.0335133071,132893.31074201525,136382.49948368882,139871.5771263647,143360.51550009038,146849.27866334107,150337.8196131745,153826.0752384276,157313.958292151,160801.3440795002,164288.04727374855,167773.7790817934,171258.0620820304,174740.0441834075,178218.03730581357,181688.14449560232,185138.77489113022,185019.00939562457,184849.70508199645,184530.82822505815,184029.29789660213,183265.7502070583,182211.8320048005,180847.818068028
E,0.0,62.07300241788749,82.28794987501536,84.42698738390315,79.30441608665939,71.76296568817389,63.89798469995393,56.55068917869135,49.99998697936836,44.28180373076033,39.33507237360542,35.06717794483848,31.382158739665712,28.19186856095392,25.41950675020485,22.999870935457263,20.878325566072988,19.009378036923064,17.355243863863492,15.88454876401397,14.571211086395872,13.393503555321335,12.333241742179933,11.375242582760684,10.50671919907722,9.716867132422228,8.996520138569208,8.337867113550905,7.734220284791346,7.179825596859246,6.796596838040317,6.532996278525069,6.357915640450066,6.2523294213919325,6.204679197051079,6.208332295992955,6.260213652603163,6.3601314556624065,6.510555327832505,6.716746972008812,6.987239475418209,7.334748041072421,7.777704039810985,8.342780082615311,9.06909781749775,10.015458363003557,11.27332592180311,12.991512138508385,15.426653768798488,19.056684597128367,24.870717670242392,35.259594507348126,57.70058473401146,132.9485241433274,215.34611000929658,357.919004848171,547.4547268087174,781.2784919255959,1030.106459823949,1264.4404741596352
I,527.7828187804577,316.6696912682746,206.76152541379435,146.2746617145308,110.56008362237232,87.74824251682142,72.02494624589981,60.46742361652745,51.549140248163134,44.42948063332733,38.61377538730169,33.78873477325448,29.741378909059073,26.318010205145185,23.402610634544672,20.904833203282113,18.75286507454273,16.888866947565347,15.265852238508433,13.845427186348203,12.596084478092695,11.491877680182501,10.511372568046262,9.63679881121634,8.853394784075189,8.148851054195964,7.512864758271579,6.936779292376634,6.413291696084723,5.9362144945444975,5.500281607878695,5.135250110998102,4.8450590618006295,4.623672660001896,4.46233253977696,4.352662907069967,4.287847464160078,4.2629661646989,4.2750151918481905,4.322859053623691,4.407237114616594,4.530896927132872,4.698920127369277,4.9193321671705315,5.204149922608453,5.571146364289465,6.046861576584639,6.671914944837624,7.510857244299839,8.671710864155495,10.348331359717957,12.92409258679622,17.274546069061728,25.943885519620128,51.462432830470476,89.02090940079236,150.05067694948158,237.8431824080427,353.65110226473655,490.3194055113081
A,58.642535420050855,53.71191408340989,51.058045842394534,49.23376131895532,47.62703242455538,46.001718977398994,44.28681718000432,42.480153637412776,40.60497417381946,38.6909373572322,36.76628585389234,34.855055695614794,32.97648353340917,31.145309763643326,29.37239103506344,27.66536715760256,26.029279520423046,24.467106569867553,22.98021154854243,21.568709544091966,20.23176473918934,18.96782914188578,17.774833095988754,16.650335427621023,15.591644723086903,14.595912254439238,13.660204678924593,12.78156029976848,11.957032104368412,11.183720229601246,10.458796009043898,9.783326022118574,9.156741039138199,8.577586442494095,8.043959152685783,7.55376934701141,7.104903933384999,6.6953352349838005,6.323200306227503,5.986866925312705,5.684997957534108,5.416624686107832,5.181241299336535,4.978937454924326,4.8105954505507995,4.678197050394597,4.585321426913116,4.537990744450633,4.546185177531764,4.62674487760255,4.809432102069156,5.151180110981773,5.775860503248733,7.021247933426355,10.419362284822963,16.00369325162491,25.395684614599137,39.68407589596915,59.785822679064715,85.66226838353538
IH,0.0,105.55656375609153,164.8967883584823,200.0102530386813,221.69783334274013,235.4219523186438,244.06445349429902,249.23530793438465,251.89901949858486,252.67829333999092,252.00415157245376,250.19237478853498,247.4841381313661,244.06889594938343,240.09819510182706,235.694645094314,230.95814712501908,225.970460080845,220.79868165572506,215.49797359761277,210.11373186741972,204.68333341542282,199.23755175497942,193.80170924417587,188.39661610813,183.03934289570256,177.7438524081155,172.5215185938501,167.3815537493026,162.3313610332026,157.37682601212708,152.5225583573221,147.77894474893134,143.1567667004984,138.66519064887933,134.31128454727147,130.10017377531977,126.0354265353058,122.11949201794825,118.35412598590678,114.74079067447894,111.28104086847044,107.97692203814397,104.83141859100117,101.84900711039027,99.03639818414607,96.40360310033783,93.96556238862115,91.74477518346141,89.77579952365845,88.11349042865119,86.84939859912258,86.1482857025826,86.343789983146,88.26576528444242,95.21873245721588,109.42033067853951,135.2905674888792,177.74050962272455,241.7459497834377
IN,105.55656375609153,200.98441345363057,245.0328276085509,262.8729288312027,266.90380465766304,263.40498087804593,255.67951963951833,245.55069826711775,234.08228668454797,221.9306735539008,209.5211404503806,197.1392270417824,184.9804159977835,173.17883640913266,161.82500744857967,150.9775588871172,140.6714252583919,130.92382637426428,121.73876185385181,113.11045021476353,105.0259859864079,97.46740058418041,90.41326031808529,83.83990132983654,77.72237636819482,72.03517967832167,66.75279103181015,61.85007842932482,57.302590099832486,53.086759957776266,49.18004571395559,45.561014915812066,42.21624308365471,39.13438169964283,36.30396403656185,33.71287198753372,31.348475083716068,29.197991557426437,27.248882110345654,25.489209893194094,23.907956362510898,22.49530813563859,21.24294298667315,20.144353578815824,19.195262079234325,18.394204511137378,17.743411968219313,17.250209475734952,16.929343060851274,16.807053946001318,16.928669846508207,17.373940153240902,18.291636649754466,19.99136597995099,23.26186512516198,31.322251934145672,46.120897045941916,71.70548691143377,112.39360031128103,172.3390566618775
D,400.0,400.0,400.10555656375607,400.27045335211454,400.4704636051532,400.692161438496,400.9275833908146,401.17164784430895,401.42088315224333,401.67278217174186,401.92546046508187,402.1774646166543,402.4276569914429,402.6751411295743,402.9192100255236,403.1593082206254,403.3950028657197,403.62596101284475,403.85193147292557,404.0727301545813,404.2882281281789,404.49834186004625,404.70302519346177,404.90226274521666,405.0960644544608,405.28446107056897,405.4675004134647,405.64524426587275,405.81776578446664,405.98514733821594,406.1474786992491,406.30485552526125,406.45737808361855,406.60515702836744,406.74831379506793,406.88697898571684,407.0212902702641,407.15139044403946,407.27742587057475,407.3995453625927,407.5178994885786,407.6326402792531,407.7439213201216,407.85189824215973,407.9567296607508,408.05857866786107,408.15761506604525,408.25401866914564,408.3479842315342,408.43972900671776,408.52950480624133,408.61761829667,408.70446769526916,408.7906159809718,408.8769597709549,408.9652255362393,409.06044426869653,409.1698645993751,409.305155166864,409.4828956764867
R,0.0,15.059335395193488,42.74907489498815,76.62814538898616,113.35908220715778,151.1405685562335,188.95519444155576,226.20267850232653,262.5168127983268,297.6709455933028,331.52684003961383,364.0053185649646,395.0682553011965,424.7067830292781,452.9331228089046,479.7746765165632,505.26963051604525,529.4636270445767,552.4072226714871,574.1539439028018,594.7588040301152,614.2771798736045,632.7639706913575,650.2729785865064,666.8564624814531,682.5648277258957,697.4464215282644,711.5474099792289,724.911717560432,737.5810140265836,749.5947367167275,760.990138878882,771.8026766768082,782.0668528550821,791.8163560395324,801.0839521970161,809.9013291335724,818.2989738197439,826.3061076959527,833.9506825706169,841.2594322851303,848.2579748288722,854.9709623661521,861.4222813156682,867.6353111509899,873.6332599419452,879.4396090905747,885.0787237824259,890.5767287490899,895.9628315592723,901.2714466133584,906.5458607108077,911.8451721899069,917.2592388329117,922.9483161771725,929.3077218957959,937.1662023730067,947.7574766691807,962.9580115058889,985.3165634810989
G,32101.0,32101.0,32117.75971065283,32139.97745711908,32162.772743712736,32184.184936056135,32203.56093679194,32220.81339266093,32236.082078739175,32249.582075223607,32261.53816223091,32272.158631771785,32281.62676981689,32290.099952676603,32297.71175718806,32304.575024010614,32310.78498916319,32316.422137066027,32321.554669135996,32326.24058497924,32330.529413145523,32334.46364013885,32338.07988609879,32341.409861369175,32344.48117686652,32347.317991050273,32349.941545176025,32352.370605613443,32354.6218297341,32356.710069211,32358.648622122146,32360.483703268415,32362.247612263618,32363.96424948654,32365.652378430314,32367.327641813517,32369.00389153343,32370.69414921964,32372.41138471267,32374.169234651177,32375.98275633362,32377.869310991984,32379.849692963067,32381.949673053816,32384.202223676126,32386.65088008685,32389.35505384486,32392.398851843744,32395.90656012114,32400.071756638717,32405.21706147994,32411.93215525091,32421.45224576789,32437.031403646073,32472.92750516477,32531.07095486728,32627.709086176284,32775.52186241464,32986.46705523455,33264.59579938702
H,83791.89362323299,83791.89362323299,83791.89362323297,83791.89362323299,83791.89362323299,83791.89362323297,83791.89362323297,83791.89362323297,83791.89362323299,83791.89362323297,83791.89362323299,83791.89362323299,83791.89362323299,83791.89362323297,83791.89362323297,83791.89362323299,83791.89362323299,83791.89362323297,83791.89362323299,83791.89362323299,83791.89362323296,83791.89362323299,83791.89362323299,83791.89362323297,83791.89362323297,83791.89362323297,83791.89362323299,83791.89362323299,83791.89362323297,81276.43153990395,78789.31770066054,76331.71638968916,73904.86074647451,71510.0567137122,69148.68688036432,66822.21411984268,64532.1848944144,62280.23206207377,60068.07698060606,57897.530654849215,55770.493617030865,53688.95416688787,51654.98452933217,49670.734415322826,47738.421400848674,45860.31747657714,44038.73107707894,42275.983887747236,40574.381767917024,38936.17924245514,37363.53722593341,35858.4739776397,34422.80976077827,34422.80976077827,34422.80976077827,34422.80976077827,34422.80976077828,34422.80976077828,34422.80976077828,34422.80976077828
S0,35622.53101603019,35508.243835642774,35359.00773150755,35216.9011298477,35078.94413022843,34943.660232095484,34810.28812301807,34678.41263660021,34547.79029804722,34418.26592414749,34289.73211875251,34162.109130056226,34035.33447426467,33909.35731720733,33784.13522980213,33659.63217077316,33535.81713636117,33412.66319649653,33290.146771759726,33168.24707153611,33046.94564698099,32926.13537372401,32805.9289394915,32686.292098524824,32567.20439618831,32448.6513828227,32330.62149493306,32213.104769909016,32096.092287190902,33081.685215533005,34046.576805462064,34990.310082910575,35912.399383019445,36812.33076349542,37689.56184442281,38543.52144221147,39373.609225658,40179.19554881026,40959.62157837925,41714.1998140015,42442.21508418749,43142.92607633063,43815.567408098985,44459.352139364324,45073.47439812771,45657.11132057309,46209.42248194436,46729.54265620993,47216.557948579146,47669.439320147074,48086.85605507363,48466.587403275305,48803.11996645304,48573.71086174299,48324.41988518995,48014.09645919636,47631.78393867632,47150.465947630335,46564.52213084876,45872.74192769129
E0,0.0,34.21346589962302,45.43319402106309,46.670933352303834,43.88618842470618,39.75254713627733,35.42908351914779,31.382503360030256,27.768688784402162,24.6090263750584,21.87108769984397,19.50481665762821,17.458131719910146,15.683109857480872,14.137953158018826,12.787145494112345,11.600900076722322,10.554389762396122,9.626970093228113,8.801476260439728,8.063617783746135,7.401470339011957,6.80503545304175,6.265949298039895,5.777152891386211,5.33266806945586,4.927410888946829,4.5570380413977185,4.217821000014425,3.9065430144597717,3.6888260102818853,3.5363073900042012,3.4318015180690375,3.3647277928328987,3.3285786514878244,3.3195199812929417,3.3356301135719253,3.37651410598101,3.4431595879577075,3.5379765012989486,3.6650137878416835,3.830390172434151,4.04303011817092,4.3158815530875785,4.667948596311664,5.127785081117504,5.739764385946614,6.575988975111855,7.760619035215248,9.524501712479859,12.344574151957996,17.37165700656658,28.19865717252916,64.37651669639274,103.79432273982253,171.742471587335,261.5845760011405,371.7152880589839,487.94261868021965,596.1830206947773
I0,527.7828187804577,316.6696912682746,199.23945055386298,131.81063271800483,91.68753163592493,66.86178985622563,50.850261640530256,40.07600953448805,32.518881627900996,27.008874948529183,22.849762090383276,19.615050933187838,17.03533105747232,14.93489419885913,13.195376180835314,11.734473061166272,10.493213120110095,9.428170892781084,8.506587771515603,7.703234588080953,6.998339343167299,6.376180407511836,5.82410523604033,5.331822713945471,4.890899938838054,4.49437124397711,4.136443125139348,3.8122668150992522,3.5177603602369354,3.249467886146056,3.004447345591772,2.798651430131172,2.6339938533798377,2.506982721906543,2.4126661372088085,2.3463159182269977,2.304059945885293,2.283056098195596,2.2814924675322303,2.2985485692679193,2.3343827969114677,2.390183400864135,2.4683153870757018,2.5726073641515694,2.708852437824588,2.885657583698902,3.1158965221210675,3.4192742974782266,3.8270816017671367,4.391616100568399,5.206585122710601,6.4569860946550195,8.564539048565988,12.752360865722466,25.03307602745952,43.0443127562278,72.19705498231713,113.94606850969822,168.7307688817446,232.98296837270607
A0,58.642535420050855,53.71191408340989,50.222259746846596,47.362604829266054,44.78051977821075,42.33199219526423,39.96532577570926,37.66794302314997,35.44232512145739,33.29542110214811,31.23423732475299,29.264218206271288,27.388848718083047,25.609758371877497,23.927001980320764,22.33937581010059,20.844711853095777,19.44013078204553,18.122250547108248,16.887354124973545,15.731522072659452,14.650735776664654,13.640956775837449,12.698186205679821,11.818510508451862,10.99813340599742,10.23339846353264,9.520804158327538,8.857013073859441,8.238856545333539,7.663335824455163,7.129672953251737,6.636304505961729,6.181282939447409,5.762507040519335,5.377857037566582,5.025276364437213,4.702823719491607,4.408709176036848,4.141322931985745,3.899262834482969,3.681366090911247,3.4867512371485665,3.314878655822168,3.165642538033002,3.039516094790418,2.9377893648676476,2.8629751228779563,2.8195379451187974,2.81529183518743,2.864319215380541,2.9938265826156636,3.2632575511055872,3.8348449664962354,5.44370951724101,8.099836098709815,12.571081972133893,19.36165190666563,28.8851970668673,41.09482945857023
IH0,0.0,105.55656375609153,164.8967883584823,198.50583806669505,217.3575318419989,227.4713549491778,232.23737501772987,233.62076792894544,232.7969699963584,230.49291472943153,227.17403164427205,223.14889533355245,218.62910710153938,213.7643802712229,208.66362213600308,203.4079466660712,198.05893811066255,192.66405634604334,187.26028051959912,181.87663895777604,176.53601587185068,171.25647525320986,166.0522533195146,160.9345171546701,155.91195311500405,150.9912323296332,146.17738039335273,141.4740740576359,136.88388121127844,132.40845619674027,128.04869958984992,123.80488948386397,119.68048398874203,115.67919312019689,111.80388814747626,108.05634132617051,104.4373122226858,100.94675724155442,97.58406601233773,94.348288876328,91.23834800805886,88.25323804009888,85.3922292929932,82.65509269576826,80.0423735660307,77.55575521053996,75.19857864356703,72.97663321677676,70.89943025162984,68.98237934884533,67.25076662277993,65.7476629579561,64.55150914500017,63.822122187731495,63.9578958185593,66.544675510772,72.63583220319097,84.32707952021597,103.92579329806455,133.73993333084383
IN0,105.55656375609153,200.98441345363057,245.0328276085509,261.3685138592165,262.65094050934636,255.78569128097703,244.61405089660406,231.31208321882076,217.13165971084373,202.8004977245641,188.74248566463987,175.20159210619371,162.31307711712302,150.14533975806975,138.72507418291582,128.0527402641107,118.11229295844808,108.87743248605969,100.31569757794445,92.39119007508629,85.06641060422817,78.3035036566847,72.06510183544118,66.31489283507887,61.0179904861745,56.141169552445426,51.652999802504965,47.523908202093274,43.72618965352868,40.23398111997307,37.02321008573334,34.07152551166274,31.36191159808307,28.87936804457549,26.60963553069088,24.538832613964026,22.653464213998586,20.940555751367146,19.387809202190727,17.9837442219058,16.717817969182,15.5805309231248,14.563532742505663,13.659747346966942,12.863543365440892,12.170988408030132,11.580248813696723,11.092241615007271,10.711736859250646,10.449305020691776,10.324961813450516,10.375543803120122,10.67135237607528,11.360287132960828,12.820679296882084,16.597082092896713,23.613366288581965,35.786949120635214,55.1422145982991,83.59717942014512
D0,400.0,400.0,400.10555656375607,400.27045335211454,400.46895919018124,400.68631672202326,400.9137880769724,401.14602545199017,401.3796462199191,401.61244318991544,401.8429361046449,402.07011013628914,402.2932590316227,402.51188813872426,402.7256525189955,402.9343161411315,403.13772408779755,403.3357830259082,403.5284470822542,403.7157073627738,403.89758400173156,404.07412001760343,404.2453764928566,404.4114287461761,404.5723632633308,404.72827521644575,404.8792664487754,405.02544382916875,405.16691790322636,405.30380178443767,405.4362102406344,405.56425894022425,405.6880638297081,405.80774431369684,405.923423506817,406.03522739496447,406.14328373629064,406.2477210485133,406.34866780575487,406.44625187176723,406.5406001606436,406.63183850865164,406.72009174669176,406.80548397598477,406.8881390686805,406.96818144224653,407.0457371974571,407.1209357761006,407.1939124093174,407.26481183956906,407.3337942189179,407.4010449855407,407.46679264849865,407.5313441576437,407.5951662798314,407.65912417564994,407.7256688511607,407.79830468336394,407.88263176288416,407.9865575561822
R0,0.0,15.059335395193488,42.74907489498815,76.55787310750893,112.93171298283485,149.90590746224098,186.38801519924624,221.77471250514208,255.7428099940659,288.13274761127775,318.8821543896906,347.9870668128424,375.4787554997848,401.4095573028448,425.84402399977216,448.853285003668,470.5114004643679,490.8929770846608,510.0716040477958,528.1188334654953,545.1035295586806,561.0914716757671,576.145134229455,590.3235908695074,603.6825060026704,616.2741874333866,628.1476813694172,639.3488958070816,649.9207420796957,659.9032870491993,669.3339103999033,678.2474629701186,686.676595730379,694.6523228218513,702.204191936812,709.360311604078,716.1473454060609,722.590517064308,728.713640491372,734.539176560357,740.0883142127225,745.3810731547031,750.4364267636691,755.2724461668416,759.9064696954518,764.3553065110491,768.6354902329807,772.7636100622334,776.756767715924,780.6332483487104,784.4135760140769,788.1223108290162,791.7914215856281,795.4675101960778,799.230897575577,803.2746907032408,807.9994585163129,813.9977818734608,822.1658164238753,833.7137394973535
G0,32101.0,32101.0,32110.2376357929,32122.504598178584,32135.105750183706,32146.955021058377,32157.68820878517,32167.25406133534,32175.727337242548,32183.224883214338,32189.869320335605,32195.774514014563,32201.040814512122,32205.7545100765,32209.988949738017,32213.806197090682,32217.258726374093,32220.390969394808,32223.240654630656,32225.83993655583,32228.216335146146,32230.393511947757,32232.39190893929,32234.22926851161,32235.921074822083,32237.48090610276,32238.920726481512,32240.25112742153,32241.481527692707,32242.62033936271,32243.675105976614,32244.67108899939,32245.62589199469,32246.552478404567,32247.46095490863,32248.35967114453,32249.25594153948,32250.156561670145,32251.06822047876,32251.997873567507,32252.953127222856,32253.942680945573,32254.97688629213,32256.068504424034,32257.233792443367,32258.494138564372,32259.878640536273,32261.428376920478,32263.20389394376,32265.299261083266,32267.870876545636,32271.203911566663,32275.894258958437,32283.507896395018,32300.889555903042,32328.914023042795,32375.284490371374,32445.91232589168,32546.275453667608,32678.019960711266
H0,29327.162768131544,29261.176651903246,29155.836415956393,29050.87540485895,28946.292253401458,28842.08560128921,28738.25409312457,28634.79637838932,28531.71111142712,28428.996951425983,28326.65256240085,28224.676613176205,28123.06777736877,28021.824733370242,27920.946164330107,27820.43075813852,27720.27720740922,27620.48420946255,27521.050466308483,27421.97468462977,27323.255575765103,27224.89185569235,27126.882245011857,27029.225468929813,26931.920257241665,26834.965344315595,26738.35946907606,26642.101374987385,26546.18981003743,25348.51421310791,24172.302968779255,23018.01054075086,21886.117319486817,20777.13048360712,19691.584729021582,18630.04281229454,17593.095842185907,16581.363238596503,15595.492261125979,14636.15699012494,13704.056621685633,12799.912914973896,11924.466606617558,11078.472584124098,10262.693590938416,9477.892223279974,8724.820978114236,8004.210128734185,7316.753247047778,6663.090268390885,6043.788114263518,5459.31905816516,4910.0372432510285,4892.361109175325,4874.748609182294,4857.199514189238,4839.713595938157,4822.290626992779,4804.930380735605,4787.632631364956
S1,10177.866004580055,9521.872248195905,8964.141281804506,8447.584383199495,7968.427600821369,7523.600704974512,7110.450553794641,6726.606116870833,6369.91081248905,6038.385296834212,5730.2044191783525,5443.68106987138,5177.253626553148,4929.4754731864205,4699.005860232574,4484.601734953382,4285.110337980701,4099.46244223244,3926.6661503600694,3765.8011884635375,3616.0136464439083,3476.5015516105364,3346.5435029042014,3225.4545039806067,3112.600113934169,3007.3919574688653,2909.284082065904,2817.769776581857,2732.378695887223,2744.093101759581,2754.8916274288704,2764.9406245740893,2774.3763741297053,2783.3082796500257,2791.8216994595155,2799.9804809254515,2807.829241781517,2815.3954330420006,2822.6912119495883,2829.7151494703267,2836.453793770161,2842.8831078544426,2848.9697949654806,2854.6725175719203,2859.9430013046654,2864.7269864233385,2868.9649287506168,2872.592215003091,2875.5383196318503,2877.723397512138,2879.047812077133,2879.358209194428,2878.3079365615267,2845.2591602293264,2812.5600298863733,2777.7422699018143,2740.133062155444,2698.1531082447063,2651.470241994351,2600.0038079738792
E1,0.0,9.775275971320866,12.60376923364281,12.591865877221498,11.504850242567406,10.105126058266285,8.710413725009898,7.441777641044035,6.33445774585298,5.387537507579679,4.586160605712326,3.911353894682506,3.344230559484428,2.8676438711959107,2.4666941122433554,2.128733887235721,1.843169813395395,1.6011976907803258,1.3955328960299902,1.2201621494849921,1.0701259633213158,0.9413332143195259,0.8304037267358487,0.7345454196682459,0.6514433017610539,0.579173677305086,0.5161337171677439,0.46098397110619443,0.4126015563574081,0.370042065309097,0.33818320027727655,0.3139319635586856,0.2953261962718905,0.28108273873874806,0.2703448961748688,0.26253888967178524,0.2572911440727757,0.25438094380834997,0.25371526592405375,0.25531946474984357,0.25934171366246195,0.266072373555319,0.275983007372084,0.28979501802334073,0.3085972493573179,0.3340503825327403,0.3687554311875868,0.4169547174443758,0.48596392124580384,0.5893860378377974,0.7553066442641799,1.0514229275640694,1.6888293566475998,3.814806207719478,6.110584021990962,10.044401512989165,15.209410692776784,21.496606655104845,28.079999821497566,34.15471636558557
I1,0.0,0.0,2.6393245122566342,4.986612400437539,6.391771227112328,6.941372301760596,6.893207416788255,6.487736155825626,5.901921656577265,5.251456585326664,4.605509078242512,4.001568810487835,3.4570068378569774,2.977146353774982,2.5605516574878853,2.202338404798437,1.8961611924327069,1.6353525650763807,1.4135349155565162,1.224914831262007,1.0643926791181522,0.9275696175676466,0.8107017384068599,0.710630049262795,0.6247052928681034,0.5507128671963466,0.4868046131901812,0.4314388715493995,0.3833289951283122,0.3413998172934875,0.30475124800954867,0.2741602128805939,0.24925775788920143,0.2292927277269313,0.21346797609562074,0.20107390762458702,0.19152984478613422,0.18438651577132997,0.17931476429105248,0.176091980374126,0.17459144370693336,0.17477712891302474,0.17670581820775097,0.18053890291511326,0.18656799661536994,0.1952620552956978,0.20735083646125854,0.22397446829740356,0.2469624546884236,0.2793877315494212,0.32676686914585806,0.3999929154388434,0.5238799397056048,0.7703118901182148,1.4921848101551878,2.5451685720306725,4.239089551725478,6.649994618085019,9.79408056772932,13.458048292441935
A1,0.0,0.0,0.293258279139626,0.6467144152797053,0.9700951182243682,1.2336757399754337,1.4331029709791752,1.5739211367747266,1.6648403320265972,1.714895511217324,1.732334480532167,1.7242658870505632,1.6966314936559455,1.6543068797193705,1.601243287609208,1.540612750608355,1.474941177907707,1.4062243006239867,1.336025924268154,1.265559832030768,1.195757354712816,1.127322732870381,1.0607782613338939,0.9965009154954751,0.9347522125059009,0.8757022316051839,0.8194490410243932,0.76603437861573,0.7154562894361314,0.6676792964298216,0.622642573197467,0.5804367386482259,0.5410520025887878,0.5044205332116672,0.47044170716762146,0.4389976606012267,0.40996322619626135,0.3832125533578819,0.35862375144980485,0.33608238762234843,0.3154844110857413,0.29673896476554906,0.279771541610272,0.2645280459549254,0.25098057254564954,0.23913622769729476,0.22905134066573624,0.2208555349934982,0.2147948052344639,0.211313933299258,0.21122839401929128,0.21612766501199293,0.2294984973945107,0.2608673128765144,0.3533779669085112,0.5069837274770799,0.7656889531680016,1.157592708756636,1.7051613630882476,2.404192641850811
IH1,0.0,0.0,0.0,0.5278649024513269,1.5052157086615536,2.7266203878053235,4.011733654981856,5.238591915269096,6.337937961202811,7.278527546878296,8.053437080085658,8.669838548717806,9.142130524825088,9.48764102422652,9.72410709905652,9.868307583113506,9.935409617190057,9.9387374153733,9.889777581438072,9.798306604131673,9.67257239798148,9.519490892533586,9.34483658606907,9.153416718121852,8.949224848705978,8.735573590755397,8.515207304682752,8.29039688670538,8.06301898222963,7.83462190469046,7.606480354035121,7.379640784159986,7.155265441686829,6.934398809041528,6.717895619783086,6.506418839520021,6.3004644316018625,6.100393459188254,5.906463470317189,5.718856437485026,5.537702926297136,5.3631032183699165,5.195146596107507,5.0339303203733765,4.879580250448476,4.732275806466493,4.592283411429984,4.460005359776036,4.336056750840957,4.221395312564881,4.11755712460618,4.0271234633780395,3.9547565527558923,3.9099050360667658,3.9160368585470526,4.066311268631334,4.42149682574668,5.102028196973202,6.23899279913892,7.961757739499242
IN1,0.0,0.0,0.0,0.5278649024513269,1.4745359358810075,2.611400610857533,3.749097284869209,4.767992931256638,5.608025865674763,6.250290269577287,6.700832971579844,6.978954202145249,7.109600166941263,7.1187975615983765,7.031140320473719,6.868575318884511,6.649966643821784,6.391099192081379,6.104909724542366,5.801818129594161,5.490085769358928,5.176161357681761,4.864995051683159,4.560313232922721,4.264852918343211,3.980558642092011,3.708745429511073,3.4502324904508272,3.205452095356725,2.974537706595319,2.757394946782126,2.5537584765378996,2.3635438023297732,2.186600747425544,2.0226433142880085,1.8712535191060886,1.7319115667657285,1.6040314037548482,1.486993357153009,1.3801713836965286,1.2829549903104078,1.1947669199164799,1.1150781012500683,1.0434215866931007,0.9794075130013276,0.9227417490996677,0.8732521785524783,0.830929151913143,0.7959919712878725,0.7690047963555309,0.7510922398543894,0.7443743159984483,0.7529462219474985,0.7854730127548835,0.864165074961052,1.0796807990111594,1.485113394751071,2.190426771178997,3.3102425887720504,4.951423308998474
D1,0.0,0.0,0.0,0.0,0.000527864902451327,0.002033080611112881,0.004759700998918204,0.00877143465390006,0.014010026569169156,0.020347964530371968,0.027626492077250264,0.03567992915733592,0.04434976770605373,0.05349189823087881,0.06297953925510533,0.07270364635416185,0.08257195393727536,0.09250736355446541,0.10244610096983871,0.11233587855127677,0.12213418515540844,0.1318067575533899,0.1413262484459235,0.15067108503199259,0.15982450175011442,0.1687737265988204,0.17750930018957578,0.18602450749425853,0.1943149043809639,0.20237792336319355,0.210212545267884,0.21781902562191913,0.2251986664060791,0.23235393184776593,0.23928833065680746,0.24600622627659055,0.25251264511611055,0.2588131095477124,0.2649135030069007,0.2708199664772179,0.27653882291470294,0.28207652584100007,0.28743962905937,0.29263477565547746,0.2976687059758508,0.3025482862262993,0.3072805620327658,0.3118728454441958,0.31633285080397183,0.3206689075548128,0.3248903028673777,0.3290078599919839,0.3330349834553619,0.3369897400081178,0.3408996450441846,0.34481568190273165,0.348881993171363,0.35330348999710964,0.35840551819408284,0.36464451099322176
R1,0.0,0.0,0.0,0.024656940869204984,0.14912746987384395,0.4276262764157747,0.8823651862882469,1.5103767586286443,2.293187782671236,3.2047430709477918,4.216782098234207,5.302063004906547,6.4360577598847595,7.597662001165288,8.769316976191751,9.936809409988227,11.08891669462838,12.21699738722702,13.314583284395683,14.37700212440974,15.401043658498338,16.384672475614753,17.32678591217847,18.227012915303295,19.085548767865298,19.90302047431916,20.68037794716047,21.41880661609317,22.119657675708865,22.784392760775567,23.41454036144843,24.011661750975136,24.577338906990697,25.1131876875195,25.620842310403415,26.101932574118507,26.558062679682457,26.99079469575036,27.401637174294937,27.792038444634862,28.16338384540014,28.51699619600783,28.85413897964543,29.17602193650003,29.483809034912355,29.77862912352077,30.06159003392382,30.333797631998042,30.596382574799943,30.850539902705467,31.097591464887614,31.339092168840658,31.577029071670317,31.81424708209897,32.05557158062332,32.31245109378362,32.60846087817075,32.97820901957542,33.47365396417521,34.16447025376342
G1,0.0,0.0,2.6393245122566342,6.0423422053401925,9.442145992189998,12.548455557683198,15.276839593415096,17.628651299167768,19.63793126224966,21.348234853629965,22.802869980676476,24.041133344218803,25.09719889578308,26.000141146843877,26.774404992066774,27.44041240237248,28.015170551926126,28.51282640154288,28.94514977805357,29.321943659981667,29.651387440342614,29.94032145043937,30.194481418305642,30.41869042452432,30.617017687834746,30.79290737931023,30.949284272182602,31.088640375817892,31.213106048016563,31.324508468233063,31.42441982586652,31.515729289941383,31.600490920102228,31.68022899309564,31.7561213325551,31.829114454522315,31.899999954733698,31.969468563633345,32.0381514184616,32.1066545402611,32.17559079574355,32.24561305843242,32.31745259929235,32.39196801128281,32.470212666149116,32.55353392347559,32.64372752675943,32.743291493180074,32.85586926689005,32.98707952562642,33.14621375584262,33.350146549793955,33.634030740236255,34.090014666531104,35.12001234261536,36.76987002855292,39.48185843706,43.58839932410973,49.39248312098804,56.97408307279238
H1,8379.189362323299,7846.661952671359,7391.526334855971,6968.5211791779875,6575.352817837052,6209.891411532364,5870.159247444694,5554.31987307675,5260.668006247755,4987.620165802625,4733.705971556143,4497.560065669632,4277.914611072092,4073.5923257083273,3883.5000143407224,3706.622562365116,3542.0173586397636,3388.8091166835966,3246.1850657888335,3113.3904856254844,2989.724559802617,2874.5365256037558,2767.222098741123,2667.220153484514,2574.0096399237673,2487.106721426711,2406.0621165643392,2330.458630898417,2259.908865069913,2102.6342079872006,1955.9110287316967,1818.8873516751262,1690.7900295106922,1570.918170705409,1458.6371093980551,1353.3728699760786,1254.607081510926,1161.8722997787215,1074.747696759606,992.8550793171667,915.8552002414999,843.4443260433146,775.3510268829343,711.3331549105484,651.1749782297185,594.6844388774888,541.6905049098583,492.04058923087223,445.59801161469005,402.2394858959446,361.8526219950754,324.33344266522784,289.5839277443077,286.5754955525609,283.7183172918377,281.00181819261985,278.4161780013711,275.9522770895077,273.60164641171684,271.356421038671
S2,10177.866004580055,10779.612511724166,11328.750474161345,11832.26359725291,12293.30672550871,12714.890013474784,13099.848752811162,13450.834833477287,13770.319205403413,14060.599574059515,14323.810298817689,14561.93295209286,14776.80678555101,14970.138756810225,15143.512975323705,15298.399526800129,15436.162683021947,15558.068524915838,15665.292014784325,15758.923555528962,15839.9750738414,15909.355864918489,15967.978754069993,16016.645919406163,16056.105235588238,16087.052075962838,16110.132252478947,16125.94524440754,16135.047392457416,16693.106876451657,17238.615243216645,17771.155762991624,18290.331795230002,18795.762880656726,19287.081140554084,19763.928032996482,20225.951498645543,20672.80352337438,21104.13814631624,21519.609946633198,21918.87304783044,22301.580682103388,22667.38535507363,23015.939636406336,23346.89756057493,23659.916525498997,23954.659358452944,24230.795711687057,24488.000689711553,24725.945124632202,24944.2607217358,25142.418806266985,25319.214670371133,25211.943737311525,25098.653067160918,24969.30915414519,24820.2909802819,24642.74409381013,24433.01427981504,24188.204538601844
E2,0.0,3.421346589962303,4.677661605816388,4.941586166147415,4.778106264324682,4.45253348067156,4.0849560775674325,3.726419444670926,3.396003798866502,3.0985785616813466,2.8331257300044523,2.5965264726163166,2.385204189284715,2.1957789941441272,2.0252822448334116,1.8711864147595108,1.7313657160375033,1.6040373608272736,1.4877034110251246,1.3810999792014775,1.283155072854306,1.192954348100469,1.1097104328207468,1.0327491701586204,0.9614843303460661,0.8954040518213253,0.8340591782282327,0.7770534813191713,0.7240355355688475,0.6746919805271497,0.640814648443073,0.6176548902026562,0.6023663977389204,0.593222362312052,0.5891829173912085,0.5896574606574798,0.594376969784201,0.6033309868324899,0.6167463215796254,0.6350977506248843,0.659149895094311,0.6900373018201198,0.729399450049124,0.7796028752998486,0.844111001161481,0.9281189922366613,1.0396925124402574,1.191930288577649,1.407381353684172,1.7279635903249462,2.2402742159608717,3.153264632910175,5.119318520568798,11.68884229726508,18.8515582019441,31.208261716170796,47.57622447379821,67.70140255235057,89.05048575719225,109.09678185373828
I2,0.0,0.0,0.9237635792898218,1.817226781144318,2.424564333546393,2.7448272914955,2.849080414678621,2.8123863897503796,2.693565083911378,2.5330600760407824,2.356452257278433,2.178815301468262,2.008351328487363,1.8490159281992908,1.702269885338489,1.5681881373081146,1.4461332143699366,1.335148671952088,1.2341792905946167,1.1421874953335536,1.058209491584531,0.9813775646213813,0.9109242127599554,0.846176344517575,0.7865480826533724,0.7315296187854612,0.6806768652630345,0.6336020972794436,0.5899656983238424,0.5494690135978942,0.511848242901067,0.48012890082026993,0.4548441608468791,0.43554542389763595,0.4214972921628356,0.41197776299332767,0.40639417217351614,0.40431828514584395,0.4054903375322786,0.409815709345866,0.4173658182762383,0.428389962641207,0.44334404907615654,0.4629442809589574,0.4882593449063336,0.5208655772574,0.5631114742583385,0.6185838629138726,0.6929714956642887,0.7957758628932996,0.9440156871237153,1.1712834505836645,1.554151521235946,2.314706913295143,4.544811568238657,7.816807655468102,13.116315256646978,20.715369761913706,30.70860054628288,42.468791482211635
A2,0.0,0.0,0.10264039769886908,0.23434031656913895,0.3628847397336526,0.4757168450907187,0.569294926334409,0.6439777090968962,0.7016251193122504,0.7445131082136561,0.7748723493708929,0.7947154228638953,0.8057921275800525,0.8095978425936233,0.8074008200278913,0.8002736190276302,0.7891227929541491,0.7747148991909675,0.75769855990422,0.7386229234412669,0.7179530495365898,0.6960827362684711,0.6733452411453102,0.6500221804652231,0.6263512677289801,0.6025326427676393,0.5787342619553059,0.5550964853267393,0.5317359847005669,0.5087490794487801,0.4862145896677646,0.46455846328552297,0.44402837536748274,0.42476578739934534,0.4068484626267276,0.39031643002270494,0.3751886348841092,0.3614743589313197,0.34918178974631225,0.33832523079849797,0.32893202623005635,0.3210501597415434,0.314757617004157,0.31017501108850387,0.3074838100722954,0.3069541270381356,0.3089892190969754,0.314200407715299,0.3235405767035376,0.3385589630917833,0.36193208167467505,0.39870932437120954,0.45978407600344995,0.574705323974845,0.8770497910656878,1.3688548344136877,2.190010376110709,3.4331626452888115,5.175546926459304,7.411905312260588
IH2,0.0,0.0,0.0,0.18475271585796438,0.5412079862297796,1.0056443458809707,1.5165614307815034,2.028998684077718,2.5147091608488332,2.9582786077073346,3.352964682552908,3.697396316816894,3.9932690508327235,4.243854698444938,4.453092402980993,4.625064427934182,4.7637135725715805,4.872705967109745,4.955377745471877,5.014727775660752,5.053433949053515,5.073880080570632,5.078186250977515,5.0682388278273605,5.045718189998897,5.01212396408929,4.968797076916077,4.916938904041077,4.8576278222359415,4.7918334847784765,4.720429127329023,4.64420218679328,4.56451541046028,4.482786621018144,4.40029027827132,4.3181055435042675,4.237126347598037,4.158094266876062,4.081637173343115,4.008307230703712,3.938616787650286,3.8730730917923384,3.8122140587806372,3.756648433650891,3.7071051703551734,3.664499380326912,3.6300268191904586,3.6053077006198904,3.592618303196562,3.5952865333981583,3.6184146850346,3.670315752049502,3.765706704197722,3.934062170916454,4.248159017169245,4.996392996586499,6.370716895082908,8.75294501569002,12.564852863815144,18.231184019294336
IN2,0.0,0.0,0.0,0.18475271585796438,0.5304700657565884,0.9644815065243658,1.4208998313555719,1.854373013522934,2.238913331955547,2.562790699164585,2.82348930775848,3.0238509336818398,3.169459404122401,3.2670031723078377,3.3233200167557637,3.34488375169164,3.337561981893347,3.306531790285616,3.2562822022200293,3.1906604532833516,3.1129371013402296,3.0258761179055975,2.9318027137725955,2.832665483047289,2.730091423564422,2.6254342386095297,2.5198157747571885,2.4141614139025784,2.3092301976618765,2.2056404102664406,2.1038912773254883,2.0043813610540755,1.9080760824189797,1.8159548598055744,1.7288134113760947,1.6472240223384005,1.5715596635591575,1.5020389845223254,1.4387740072187263,1.3818140516573814,1.3311847813325772,1.2869236807276705,1.2491144971539114,1.2179241232494145,1.1936466780910475,1.1767617957883127,1.1680183542731422,1.1685630719036488,1.1801499987096584,1.2055026247737353,1.2489834048875017,1.3179399375931442,1.4257332766948423,1.5997568853700392,1.9091930810607338,2.634958157961403,3.9454814306980093,6.190154541119417,9.739250221623916,14.946437440368223
D2,0.0,0.0,0.0,0.0,0.00018475271585796437,0.000725960702087744,0.0017316050479687147,0.003248166478750218,0.005277165162827936,0.00779187432367677,0.010750152931384104,0.014103117613937012,0.017800513930753905,0.02179378298158663,0.026037637680031568,0.030490730083012563,0.03511579451094675,0.03987950808351833,0.04475221405062808,0.04970759179609995,0.05472231957176071,0.05977575352081422,0.06484963360138485,0.06992781985236236,0.07499605868018973,0.08004177687018862,0.08505390083427791,0.090022697911194,0.09493963681523507,0.099797264637471,0.10458909812224948,0.1093095272495785,0.11395372943637178,0.11851824484683206,0.1230010314678502,0.1274013217461215,0.13171942728962577,0.1359565536372238,0.14011464790409986,0.14419628507744298,0.1482045923081467,0.15214320909579698,0.1560162821875893,0.15982849624636994,0.16358514468002083,0.167292249850376,0.17095674923070292,0.17458677604989337,0.17819208375051326,0.18178470205370983,0.185379988587108,0.1889984032721426,0.1926687190241921,0.19643442572838984,0.2003684878993063,0.20461664691647555,0.20961303991306204,0.21598375680814494,0.22473670182383496,0.2373015546876501
R2,0.0,0.0,0.0,0.008629929304221743,0.05286643059556048,0.15421423818159352,0.32380202387863033,0.5638730924202563,0.8706930275573761,1.2371496629581284,1.6546288470204695,2.1142142234690753,2.6073808327455046,3.126349089956937,3.664227449944283,4.215032220132896,4.773641454305368,5.335717688794644,5.897619721423391,6.456314517457274,7.009294839646116,7.5545050197021375,8.090275524762413,8.615266051155588,9.128416435287122,9.628904515894694,10.116110092837317,10.589584127570639,11.04902243068996,11.494243178369013,11.925167689910628,12.341803980586414,12.744263128319945,13.132819869204083,13.507907038960402,13.870087309477771,14.220021382775391,14.558440270102322,14.886124059520311,15.20388740415583,15.512571231128891,15.813040101455933,16.106184891798073,16.392930885821123,16.674251945500345,16.951192263692523,17.22489847557504,17.496667026154128,17.768015473905468,18.040793651824593,18.317365567825163,18.600926812051362,18.896108772637923,19.210282906679844,19.55701936971061,19.9704384843813,20.52241029212704,21.319798911898072,22.52484813841827,24.357361316758592
G2,0.0,0.0,0.9237635792898218,2.186732212860247,3.520960477720049,4.811049169087713,6.013233208869035,7.116171349812241,8.122304599873392,9.039225625567347,9.87584183722131,10.640785784322512,11.341847931928918,11.98585306303579,12.578713391454706,13.125539597559726,13.630759929544794,14.09822867287492,14.531318760298285,14.93299868127507,15.30589567565947,15.652347545330132,15.974445219317259,16.27406703617886,16.552909312121688,16.812510081315125,17.05426917530688,17.279465153428504,17.48926959338468,17.68475918798827,17.8669260227306,18.03994597781023,18.206712798164947,18.369351725554456,18.52952176337871,18.688601151074337,18.847808665451858,19.008290447293593,19.171189813738366,19.337711320564864,19.509187713233583,19.68715818490905,19.873468256400482,20.070406107913744,20.280898884244703,20.508808854558303,20.759400982462203,21.040117960821075,21.36193913873704,21.741932104231765,22.2084822736195,22.813356311928935,23.66473776281468,25.046953763368258,28.20294118362983,33.29286189815474,41.71909256152085,54.56467316944637,72.84405185858103,96.88768301302294
H2,8379.189362323299,8877.950633890163,9332.73659915371,9749.598758796354,10131.283619704349,10480.341158839086,10799.138864914743,11089.874777054665,11354.589592071403,11595.177906897774,11813.398657944415,12010.884814746705,12189.1523811666,12349.608753610242,12493.560482189287,12622.220477473276,12736.714702434198,12838.088386355677,12927.311794852652,13005.285587708371,13072.845793970806,13130.768431647532,13179.773797385329,13220.530449707489,13253.65890769796,13279.735085458015,13299.293481209232,13312.830138568479,13320.80539626874,12768.49450637732,12218.26850232794,11671.357049827275,11128.910548085114,10592.008459686447,10061.666908644838,9538.845572571086,9024.453884108476,8519.356545245071,8024.378345728451,7540.308263560596,7067.902811529533,6607.888579192946,6160.963905158154,5727.799600722659,5309.038634208182,4905.294677451517,4517.1494143812515,4145.148519609389,3789.7962363945653,3451.5485225800826,3130.8047946070146,2827.8983871117043,2543.0859605976825,2533.4956940008747,2523.8047092308093,2514.025009165574,2504.167698451171,2494.243048088755,2484.260555403616,2474.2289997258385
S3,30533.59801374016,30394.459415589274,30265.82649973301,30145.933493279823,30033.657674063237,29928.17915438204,29828.842497894824,29735.090425877428,29646.43110124914,29562.42122142559,29482.65665041647,29406.766715964142,29334.41034432347,29265.273162967896,29199.065151594445,29135.518634429187,29074.38650800466,29015.4406472463,28958.470456526633,28903.28154433745,28849.694506534386,28797.496196629545,28746.600667324456,28696.85620384429,28648.128632288,28600.296542225526,28553.248982116813,28506.884153908737,28461.10852867837,29391.70297252085,30349.533724567602,31335.388453578264,32350.111629599196,33394.60847020077,34469.8485640228,35576.86913936524,36716.77788605638,37890.75518708727,39100.055565066985,40346.00809273684,41630.01545328053,42953.551262064684,44318.15517305998,45725.42518393566,47177.00640918298,48674.57537546813,50219.818517694715,51814.40277375173,53459.93427616615,55157.895794539065,56909.53599451436,58715.61231298794,60575.4890158176,60354.13921858025,60124.861300558594,59869.836415485675,59581.53648711236,59241.72318613263,58841.34892730282,58372.28550100844
E3,0.0,5.8651655827925175,7.783564692408113,7.993720295178944,7.515891964156919,6.807752799750669,6.06765466321513,5.375402724704086,4.757587356891582,4.217777702105982,3.7503383061303466,3.3466269590721303,2.9976668794635275,2.6952052589738758,2.432048977246624,2.2020900133169485,2.0002093134548335,1.8221435153487722,1.6643505812373256,1.5238882822060784,1.3983096110216096,1.2855750099851693,1.183976615839978,1.0920872349286914,1.0087040852302471,0.9328100623131056,0.8635415325421217,0.8001618489825961,0.7420396622481666,0.6886311768637646,0.6516033916481067,0.6262268517735566,0.609656150070777,0.6001585025198657,0.5966927822499819,0.5986816371414678,0.6058923881707958,0.6183827355217275,0.636489953065811,0.6608558252413614,0.6924892166179184,0.732877453677292,0.784170137289365,0.8494796820809241,0.9333814736429398,1.0427741594296265,1.1884276029019545,1.38793321272576,1.671753474248816,2.0968587518817605,2.7816605217768986,4.01361540265621,6.6955489156766435,15.767879752764134,25.63242515579305,42.599212128197415,65.07363766531705,92.73617560882175,122.14412580623497,149.8519052853649
I3,0.0,0.0,1.5835947073539798,3.051719291362579,3.9893360545158623,4.422892463031886,4.491828733751812,4.333363999319173,4.051377135261607,3.715374867517691,3.36802490007923,3.0334062827027317,2.723633048571114,2.443549886597821,2.193835351881639,1.9729544349855719,1.7783369645869191,1.6070586933849564,1.4562139651751425,1.3231030360391633,1.2053116578191392,1.100730589667318,1.0075436064963865,0.924199850174626,0.8493834635355223,0.7819801811334801,0.7210468255046265,0.6657843090891488,0.6155142846787902,0.5696592796142791,0.527725985521784,0.4925685070580592,0.4646223542136958,0.44338057304732725,0.4280711395087601,0.41794973491275117,0.412413882975847,0.4110392745916231,0.41358690334584025,0.42000442933527316,0.4304337304163315,0.4452323267366368,0.46501630853485093,0.4907357221890391,0.523800947475273,0.5662935663687575,0.6213251628672536,0.6936705505038798,0.7909442977382831,0.9259400166901502,1.1217158730221655,1.424077864693062,1.9381228775330142,2.9706719337525023,6.039730693497818,10.544593208162816,17.828543199510992,28.267008089342198,41.9989722679872,58.178297328475765
A3,0.0,0.0,0.1759549674837755,0.39466774373449587,0.6012959783683618,0.776216212761121,0.915185107299006,1.0202666550861672,1.0957454653060668,1.146343611526989,1.1764932131072774,1.1900846764361313,1.1904220390921858,1.1802622341554732,1.1618828095462244,1.137154025016478,1.1076056496220787,1.07448525894755,1.0388076324685978,1.001395966614579,0.962915977195834,0.9239039969089776,0.8847900772601798,0.8459168754429102,0.8075554224755892,0.7699178778269034,0.7331680496201831,0.6974300641029241,0.6627955116707956,0.6293293413846326,0.5970747275716526,0.566421224457891,0.5375837491911475,0.5106737866280958,0.4857414645398896,0.4628014621853504,0.44184990403840246,0.4228762600536521,0.4058726165497065,0.39084184343784256,0.37780582286245273,0.3668148630703759,0.35795966222243547,0.3513877806707584,0.3473277444401723,0.3461261268227962,0.3483073209063463,0.35467472509643805,0.3664919309103829,0.38583016257858,0.4162956082506584,0.46474359470800586,0.5460767564494495,0.7010294910378527,1.1151238385443294,1.79033779933344,2.9177838750538934,4.624667878345558,7.017914465736052,10.092177142536642
IH3,0.0,0.0,0.0,0.316718941470796,0.9150797954169432,1.6783251264397017,2.4994044890042004,3.3032057153441405,4.044902319613104,4.702139593119653,5.267309958752627,5.741627211514316,6.131075032642171,6.443833518504173,6.68874221077254,6.87444191966603,7.008939530011663,7.099424953321049,7.152231222633588,7.172870630578969,7.166106964400564,7.13604092467451,7.086196214536823,7.019599973430113,6.938854637892948,6.846201010311074,6.743572259624887,6.6326397781819875,6.514851903988416,6.391466507999956,6.263578375318607,6.132142208373688,5.9986474095307445,5.864614131882161,5.731403623012536,5.600171223138295,5.471879696649013,5.347334886659627,5.227227285534118,5.112173459698912,5.002756179919667,4.899564543505964,4.80323686340589,4.714510520159399,4.634285004921626,4.563707852716448,4.504299498181037,4.458145167380414,4.428206154932172,4.418854629095277,4.436856060350989,4.493331581951273,4.608142760658555,4.821419081586303,5.233135942420652,6.2430873216426415,8.115799874565354,11.37444868231089,16.597500075032606,24.369331091134285
IN3,0.0,0.0,0.0,0.316718941470796,0.8966719317486154,1.6084986987624088,2.3387331808820098,3.012685032318962,3.590274669989779,4.056044135214673,4.409920087903293,4.660369766135629,4.819863741387029,4.902098774068676,4.9204262853195955,4.8870522673847585,4.812704480706221,4.70656726575454,4.576358827193429,4.4284756356323545,4.268160437500482,4.099670060173916,3.926431017617878,3.751177786529445,3.5760722843875334,3.4028058097500513,3.232684518988159,3.0667006003251376,2.9055912187319115,2.749887134835643,2.599952685424785,2.456018585559192,2.3188642328922238,2.1892813397226076,2.067884258552285,1.9550739866810491,1.8510641798466427,1.755927497125018,1.6696447637458174,1.5921508435770977,1.523376382664782,1.4632870575070664,1.411923342154338,1.3694450450041802,1.3361866492635501,1.3127326186508108,1.3000276508751059,1.2995481116723102,1.3135836643354288,1.345727180470972,1.4017854989576801,1.4916198947127417,1.6333066004356316,1.864206715263641,2.2794605464802444,3.268680314582907,5.063951684296587,8.143747210021596,13.015712942519208,20.16658047038229
D3,0.0,0.0,0.0,0.0,0.000316718941470796,0.0012317987368877393,0.002910123863327441,0.0054095283523316415,0.008712734067675781,0.012757636387288886,0.01745977598040854,0.022727085939161167,0.028468713150675482,0.03459978818331765,0.041043621701821825,0.04773236391259437,0.054606805832260394,0.06161574536227206,0.06871517031559311,0.0758674015382267,0.08304027216880566,0.09020637913320623,0.09734242005788074,0.10442861627241756,0.11144821624584768,0.11838707088374062,0.1252332718940517,0.13197684415367658,0.13860948393185857,0.145124335835847,0.15151580234384696,0.15777938071916556,0.16391152292753924,0.16991017033706998,0.17577478446895214,0.18150618809196467,0.18710635931510297,0.19257823901175197,0.1979255738984116,0.2031528011839457,0.20826497464364463,0.2132677308235643,0.21816729536707025,0.22297053223047614,0.22768504275063553,0.23231932775555716,0.23688303560827362,0.24138733510645466,0.24584548027383507,0.25027368642876724,0.25469254105786254,0.25912939711821353,0.2636227287001648,0.26823087146082336,0.27305229054240965,0.2782854264848303,0.2845285138064729,0.29264431368103827,0.3040187623633492,0.3206162624383818
R3,0.0,0.0,0.0,0.014794164521522983,0.09003469212261953,0.26033846062894384,0.5417669654857935,0.9351940688299152,1.431733492423682,2.0173621799630945,2.6761473985383484,3.3922418034723196,4.150982339078752,4.939400776251524,5.746376276231326,6.562586237661702,7.380354821863078,8.193459129888303,8.996927283476952,9.786846605231206,10.560190451211497,11.314666693044877,12.048587810629208,12.760761029500838,13.450396277291516,14.117029577492781,14.760459620460056,15.380695410001726,15.977913157547608,16.55242085955347,17.104629236102284,17.635027923609396,18.144196616554108,18.63286272871343,19.101895011004228,19.552275520752236,19.98506858407908,20.401394165913654,20.80240800093795,21.189288752698516,21.563231786997118,21.925449120845766,22.277175406907975,22.619680319525518,22.954288435552392,23.282408774182162,23.605577845887403,23.92552290543651,24.24425723082363,24.56422912602463,24.88856684521355,25.221508250202678,25.569223480406023,25.94160178578471,26.35702049322962,26.862267281246353,27.556407842678915,28.58659011580605,30.175840458515452,32.626194419057
G3,0.0,0.0,1.5835947073539798,3.6851571743041704,5.8434616540024855,7.872752484324854,9.710845740257534,11.349112499325619,12.800471234995722,14.08501982135645,15.223819800925066,16.23641114358026,17.140000422529734,17.949370479984886,18.677075899907834,19.33372912376442,19.928293427359996,20.468349941992802,20.960328691136972,21.40970334807105,21.82115318426669,22.198696779242525,22.54580203193852,22.865475718215315,23.160339271646063,23.432689374658228,23.684548091482768,23.91770430526914,24.133748004494443,24.334098713301447,24.520029131054663,24.695962046799654,24.865043296778513,25.029650457297624,25.191693252977988,25.352800304185482,25.51444434621368,25.678035291019793,25.844998629610657,26.016850916938427,26.195281989753596,26.382254078240432,26.580130990733302,26.79185692780143,27.02121644196328,27.273229439846872,27.554778462892873,27.875653915676402,28.250395883112358,28.70176932115954,29.267921184167616,30.01896952504738,31.102645683764557,32.91044389099725,37.16777142424357,44.08852621630769,55.59031349092099,73.1601956605566,98.19896307493848,131.17787704262193
H3,25137.568086969895,25027.840607225186,24924.965157330334,24828.361121485363,24737.524764030084,24651.989243612028,24571.321966091917,24495.12212667109,24423.01842772329,24354.666959778828,24289.749234005645,24227.97035536446,24169.05732638817,24112.757472253586,24058.836978480165,24007.079533209373,23957.285066593024,23909.268580352775,23862.859061068357,23817.898471212462,23774.24081237746,23731.75125553587,23690.305333545068,23649.788191448682,23610.09389044503,23571.124761687726,23532.790806357687,23495.009138700054,23457.703468955748,23420.8036233367,23377.636146789573,23328.27808964166,23272.820499011636,23211.367358520885,23144.03463600567,23070.94942961806,22992.249203092328,22908.081101210704,22818.6013366202,22723.974639121323,22624.37375836151,22519.979010512423,22410.97785898664,22297.564518556494,22179.93957138665,22058.309582508526,21932.886701195377,21803.888233618523,21671.53617119086,21536.05665829278,21397.679382837723,21256.636873630825,21113.16369000666,20967.495492120863,20822.927026043675,20679.447928317488,20537.048064738243,20395.71751775175,20255.446574723923,20116.225717022695
S4,15266.79900687008,15512.399032230536,15760.024207993758,16008.242169148854,16256.383117189105,16504.139268456518,16751.375537146407,16998.039351950625,17244.117443033272,17489.615030910092,17734.5457504498,17978.9267423469,18222.77624546093,18466.11240853817,18708.95270299965,18951.31363678633,19193.210622462466,19434.65792679916,19675.668665021498,19916.254820526883,20156.427279640673,20396.151083177072,20635.49706693219,20874.46324433874,21113.052612765394,21351.26966956158,21589.119060554192,21826.605073318035,22063.731464774475,23067.283376538853,24077.761535775735,25095.08564815665,26119.15202931735,27149.83230101259,28186.971722056398,29230.387285097724,30279.865661165673,31335.161049701346,32395.99298197675,33462.044123522835,34532.958121021766,35608.33753498792,36687.74188197643,37770.68576114937,38856.636922960686,39945.01387153665,41035.18198690592,42126.44572514159,43218.03084794169,44309.04054657701,45398.33672241267,46484.16776387767,47562.643301926895,48033.956417760484,48489.21079920062,48899.84392632912,49255.5534283761,49532.66387124049,49721.47642483952,49814.58229275254
E4,0.0,8.797748374188778,11.78976032208496,12.228881693051465,11.619379190904194,10.645006213208053,9.605876715013677,8.624586008242046,7.743249293355126,6.968883584334927,6.294360031914332,5.70785396083931,5.196925391522901,4.750130579159136,4.357528257862633,4.01071512603274,3.7026806464629356,3.4276097075705683,3.180686882342939,2.957922092681695,2.7560026554525052,2.5721706439042142,2.40411551374161,2.249911459965233,2.1079345903536426,1.9768112715268522,1.85537482168428,1.7426297707452236,1.637722530602499,1.539917359699463,1.4771695873899755,1.4388751829859685,1.41876537829944,1.4131380249883685,1.4198799497471952,1.4379343272292804,1.467023037003465,1.5075226835188285,1.5604441993053078,1.6274974300937737,1.7112448622018333,1.815370739585541,1.9451213269294905,2.1080209541236203,2.3150594970243477,2.582729747687024,2.9366859893266968,3.4187049446487467,4.1009359844044475,5.1179745046040015,6.748902136282446,9.669634537651088,15.998230768589256,37.300479189185964,60.95721988974595,102.32465790347865,158.01087797568493,227.6290190503347,302.8892297588045,375.1540499601692
I4,0.0,0.0,2.3753920610309702,4.608470523581522,6.066880371272808,6.777360604307818,6.940568040150865,6.757927537144212,6.38339474451188,5.920714155913012,5.434027061318237,4.959893445407812,4.517056636671301,4.113403837713964,3.750577559001345,3.426879165023718,3.1390205830430706,2.883136124370835,2.6553362956665545,2.4519872356325263,2.2698313064035736,2.1060195008143205,1.9580977743427301,1.8239698533158728,1.7018580061801365,1.5902571431035653,1.4878933291743892,1.3936871993593891,1.3067223577168439,1.226218497892781,1.1515087858545237,1.0897410601080075,1.042340935471016,1.0084712134234584,0.9866299948009345,0.9753455833123035,0.9734496183392878,0.9801659909945082,0.9951307191467886,1.0183983653005062,1.0504633253056226,1.0923141079778684,1.145538564474817,1.2125058969558526,1.296669195786889,1.4030675816687075,1.539177580876721,1.7164117656442408,1.952897394441706,2.278991152454225,2.7492478077156153,3.47175226142563,4.693852682021172,7.135833916731802,14.35262973111929,25.070027208902978,42.66967395928102,68.26474142900355,102.41868000099251,143.2313000354727
A4,0.0,0.0,0.26393245122566333,0.5954340141059277,0.9122368100182412,1.1841179843074987,1.4039083996824724,1.574045113305016,1.7004381357171545,1.7897640241261301,1.8483484861290091,1.8817715029929214,1.8947891549979377,1.8913844352973606,1.8748621375593553,1.847950952849504,1.8128980468433344,1.7715513290595182,1.7254288847932149,1.6757766970318058,1.6236162850846483,1.5697838991732969,1.51496274041192,1.4597092505375953,1.4044753119245712,1.349626096242091,1.295454862792071,1.242195213395547,1.1900312447014756,1.139105967004474,1.0895282941518536,1.0422366424751976,0.9977724060290514,0.9564433958075773,0.9184204778322103,0.8837967566355452,0.852625803829013,0.8249483431493398,0.8008129724448303,0.7802945314682707,0.7635128628728887,0.750654607619117,0.7420012413511043,0.7379679613879703,0.7391607854596804,0.7464644740459523,0.761184181376411,0.7852849537674419,0.8218199195645822,0.8757499834454991,0.9556568027439902,1.0777729442749013,1.2772436222957357,1.649800839040908,2.6301011710634232,4.237680791690886,6.951119438132639,11.107000756912516,17.002002856913812,24.659163828317105
IH4,0.0,0.0,0.0,0.47507841220619407,1.3787980104329454,2.5400075093400396,3.7993789018015716,5.043743690748248,6.204500060561702,7.246432862854085,8.1564082067905,8.934617377933495,9.588556421526732,10.129186436984893,10.568631253013947,10.91888449752908,11.191146294583199,11.395535398997538,11.541014586582417,11.635429629465337,11.685602684133467,11.697446264434245,11.676079383881408,11.625936570126429,11.550865316528117,11.454212000913628,11.33889537353903,11.207468967285763,11.062173829570199,10.904982938993445,10.737638565594422,10.561683694131181,10.38003249851148,10.195774018359671,10.011712980336132,9.830247614938367,9.653391076785063,9.482846681027443,9.320098076416107,9.16649998169113,9.02336677255299,8.892061974703347,8.774095226856724,8.671236621049244,8.585663118634304,8.520159934096258,8.478414727969309,8.465470944068052,8.488463722861892,8.557883699754814,8.689895935879493,8.910964843787667,9.268170539970253,9.856281506844995,10.91053764774618,13.368265359583397,17.876484879953598,25.734066073689117,38.41337058667333,57.443743602666004
IN4,0.0,0.0,0.0,0.47507841220619407,1.351186214930454,2.434908780924629,3.556738445807504,4.603564071198457,5.513413106084121,6.261050725380129,6.844412418499126,7.274460033625948,7.568415568209801,7.745597143088042,7.825046643114772,7.824307285045597,7.758899193522456,7.642195640083053,7.485513521951527,7.298305921167375,7.088392073980086,6.862189391734434,6.624929699570483,6.380851992258218,6.133369255725162,5.885211435424651,5.6385455060487635,5.395075722553001,5.156126934553289,4.922713586105788,4.695596718689856,4.475330980998156,4.263847367930664,4.063176708113614,3.874987521654578,3.7004878454441545,3.5404754595459567,3.395437920657097,3.2656607800373747,3.151329392357288,3.052622239021129,2.9697995543625724,2.90329430360917,2.8538154769021884,2.8224778734375096,2.810979939568455,2.821864970821864,2.8589275252385806,2.927880567267666,3.037514323709303,3.2018468893581207,3.444462201816447,3.808298174601214,4.3816422336016005,5.388367125777865,7.7418505696934865,12.01298424761428,19.39420926847854,31.186179960066767,48.67743602198338
D4,0.0,0.0,0.0,0.0,0.00047507841220619407,0.0018538764226391394,0.004393883931979179,0.00819326283378075,0.013237006524529,0.019441506585090702,0.026687939447944786,0.034844347654735285,0.04377896503266878,0.053367521454195516,0.0634967078911804,0.07406533914419436,0.08498422364172344,0.09617536993630664,0.10757090533530418,0.1191119199218866,0.13074734955135195,0.1424329522354854,0.15413039849991966,0.16580647788380107,0.1774324144539275,0.18898327977045562,0.20043749177136924,0.21177638714490826,0.222983856112194,0.2340460299417642,0.24495101288075766,0.25568865144635206,0.26625033514048324,0.27663036763899473,0.2868261416573544,0.2968378546376906,0.30666810225262897,0.31632149332941406,0.3258043400104415,0.3351244380868576,0.3442909380685487,0.3533143048411017,0.36220636681580504,0.3709804620426618,0.379651698663711,0.3882373617823453,0.3967575217164416,0.40523593644441086,0.41370140738847894,0.4221898711113408,0.4307477548110956,0.4394376507469751,0.4483486155907628,0.45761678613073303,0.467473067637578,0.4783836052853242,0.4917518706449076,0.5096283555248612,0.5353624215985503,0.5737757921852237
R4,0.0,0.0,0.0,0.02219124678228448,0.13534063173090607,0.3924821187661959,0.819245066656844,1.4185220773056257,2.1783885016085685,3.0789430681560455,4.097127306130153,5.209732720274356,6.395078869702621,7.633813859059476,8.909178106765072,10.206963645112369,11.515317080880502,12.824475754005915,14.126488334395319,15.414947190208286,16.6847455220786,17.9318640094757,19.153187214332284,20.34634772103931,21.509594998338883,22.6416857248025,23.741792498389323,24.809428018481622,25.844382216789796,26.846670178686296,27.816489029362973,28.754182253592486,29.660282294564478,30.535659747793687,31.381519742352307,32.19934518858961,32.99083108097451,33.7578276236697,34.50229796982761,35.22629140877069,35.9319312088817,36.62141625585942,37.29703632413147,37.96120200698002,38.616492039572925,39.265723269500604,39.912052502207686,40.55912615660372,41.21130575363674,41.87402053000722,42.55434672135529,43.262022650696714,44.011389279564526,44.8255968622704,45.7478071580319,46.88787433314394,48.47946484371716,50.875096748440505,54.61785252090454,60.454797994166434
G4,0.0,0.0,2.3753920610309702,5.55862734799391,8.860425405117805,11.997657786661938,14.871809464228111,17.465396177281804,19.794034399507154,21.884711708713038,23.76631027648347,25.46578748510034,27.006908054526953,28.410077910238137,29.692613166611103,30.869145796234015,31.952038880262855,32.951762654807844,33.8772172758519,34.736002734084494,35.534641699108555,36.27876241608073,36.97324848993487,37.622359678645104,38.22983577283572,38.798978112231204,39.332717155543456,39.83366835739821,40.30417839549942,40.74636347876209,41.162141165880946,41.56097695447624,41.94947325388245,42.3325399060233,42.71408717277016,43.0974547592019,43.485697027553805,43.88179324754474,44.28882437209482,44.71014430590726,45.149568612032574,45.61160472482707,46.10175482451516,46.62693758278613,47.1961032403995,47.821169304596076,48.518506336471575,49.311411553589785,50.234461888644944,51.341714604434145,52.723567720677224,54.545771297473486,57.15657262263928,61.47609493015838,71.5472243112386,88.00567368147,115.63333131540924,158.29626836884418,219.75610351243455,301.53619554731176
H4,12568.784043484948,12778.26377754303,12986.829115936573,13194.537158914325,13401.440168260036,13607.586207960287,13813.019451657054,14017.780468041154,14221.906485763413,14425.431639327773,14628.38719732593,14830.801774275977,15032.701527237346,15234.11033829058,15435.049983892693,15635.540292046695,15835.599288156773,16035.243330378382,16234.487235214656,16433.34439405689,16631.826881316993,16829.94555475347,17027.710148549602,17225.12935966248,17422.210927924552,17618.961710344927,17815.387750025657,18011.494340078636,18207.286082901137,17635.98498909483,17065.19905403207,16495.183357794234,15926.222350380249,15358.632241192325,14792.763497294172,14229.003435382909,13667.778883516761,13109.558877242767,12554.857340371826,12004.235682725188,11458.305225212685,10917.729336165288,10383.225131686886,9855.564557009026,9335.574626085705,8824.136554459636,8322.18347847822,7830.696416554264,7350.698101669135,6883.244307295446,6429.412312230077,5990.286216066779,5566.938939178593,5742.881969928648,5917.611099029655,6091.135490913352,6263.464223649332,6434.606290855484,6604.570603503415,6773.365991626115
E_Om,0.0,0.0,0.0,0.0,0.0,0.0,0.0,0.0,0.0,0.0,0.0,0.0,0.0,0.0,0.0,0.0,0.0,0.0,0.0,0.0,0.0,0.22568918727636106,0.2929207156460378,0.3009023995375891,0.2880563011058217,0.26908726531922933,0.24946381900567566,0.2310778116983799,0.2144553852262313,0.19961860010530447,0.19002148636314398,0.18426608480746653,0.18166115865061955,0.18188700351748333,0.18484936994430284,0.19062312901489142,0.19944183600742843,0.21171607180486285,0.22807719250781175,0.2494519694709479,0.27718224564808797,0.3132160819649298,0.3604182592324026,0.42308841048023094,0.5078558303984793,0.6252904917695686,0.7929524283871433,1.041525464324668,1.4281204838906483,2.0680456182994305,3.221103308298466,5.573404624248232,11.474176707828164,34.91532174183656,70.73504032922943,159.09196448246013,311.3972865796269,574.0752724621393,956.1170925527397,1463.8610813429018
I_Om,0.0,0.0,0.0,0.0,0.0,0.0,0.0,0.0,0.0,0.0,0.0,0.0,0.0,0.0,0.0,0.0,0.0,0.0,0.0,0.0,1.0,0.6,0.42093608056461757,0.3316502415632007,0.2802337928130695,0.24591547698641356,0.22020284782804003,0.19947693982835646,0.18207717305557644,0.1671492578444283,0.15418657673508918,0.14381774735910238,0.1360424913134774,0.1306740076237537,0.12751389552397274,0.12641766719934538,0.12731884515362793,0.13024060281418243,0.13530770107582243,0.14276546262260262,0.1530113093307175,0.16664599192341426,0.18455593728457959,0.20804649236349648,0.23906176624776024,0.28055813395624557,0.3371633131515309,0.41639514355544716,0.5310489615009286,0.7042219075510322,0.9809054614714656,1.4582411701234652,2.379763950621102,4.525886081486266,12.14266851918763,26.384062000404526,58.78526761050696,119.34842794280345,226.6093803304597,394.11724318751556
A_Om,0.0,0.0,0.0,0.0,0.0,0.0,0.0,0.0,0.0,0.0,0.0,0.0,0.0,0.0,0.0,0.0,0.0,0.0,0.0,0.0,0.0,0.0,0.006770675618290831,0.014989023651114427,0.02275582953005173,0.02948422511828651,0.03507783107026109,0.039612427349889304,0.04321417788333537,0.04601442308131804,0.048134122164704106,0.0497876850926759,0.05112955561664822,0.052280454867143444,0.05334136269938092,0.05440194117255601,0.055546559758250014,0.056859500863143175,0.058430277917510716,0.060359818811128424,0.06276836863151732,0.06580631763610961,0.06966985320764454,0.07462461086204286,0.08104288066690517,0.08946452965489747,0.10070113241829451,0.11602282796712796,0.1375134776779056,0.16879505992133154,0.2166442637215314,0.29506207228574766,0.43745560854018195,0.7448999632853908,1.72972897335679,3.706345840711658,8.167477937220761,16.822680984278232,32.630500488217066,58.57046473334428
R_Om,0.0,0.0,0.0,0.0,0.0,0.0,0.0,0.0,0.0,0.0,0.0,0.0,0.0,0.0,0.0,0.0,0.0,0.0,0.0,0.0,0.0,0.4,0.64,0.8083744322258472,0.9410345288511273,1.053128045976355,1.1514942367709204,1.2395753759021366,1.3193661518334792,1.3921970210557097,1.459056724193481,1.5207313548875168,1.5782584538311577,1.6326754503565484,1.6849450534060504,1.7359506116156391,1.7865176784953776,1.8374452165568285,1.8895414576825011,1.9436645381128306,2.0007707231618714,2.061975246894159,2.128633643663524,2.2024560185773563,2.2856746155227547,2.381299322021859,2.493522575604357,2.6283879008649698,2.7949459582871485,3.0073655428875194,3.289054305907933,3.6814164904965185,4.264712958545904,5.216618538794345,7.026972971388853,11.884040379063904,22.437665179225718,45.9517722234285,93.69114340054989,184.33489553273375
G_Om,0.0,0.0,0.0,0.0,0.0,0.0,0.0,0.0,0.0,0.0,0.0,0.0,0.0,0.0,0.0,0.0,0.0,0.0,0.0,0.0,0.0,0.0,0.06093608056461748,0.1400246737890477,0.22126832166419677,0.2990435229627686,0.3716970845989606,0.4390523157304931,0.5014433248890555,0.5593462789001381,0.6132433009285703,0.664549102246619,0.714300945144635,0.7633494579803024,0.8124589489300229,0.8623682788149846,0.9138365236490054,0.967685819371011,1.024849158758324,1.0864300007354333,1.1537820324925891,1.2286212388175728,1.3131895809481038,1.4105025109408524,1.5247363817705148,1.6618574559781043,1.830685888755888,2.0447830444204165,2.325994919788077,2.711587450438552,3.2699597673793983,4.139657660619984,5.644476909167007,8.742504620280611,18.16964149057648,37.26810237946843,80.22293278973268,164.30020016623195,319.3005237310096,577.4521387202493
beta,1.0,1.000000000000001,0.9974067180905067,0.995791023902733,0.9946780832268222,0.9938414319596209,0.9931695929595831,0.9926053714004259,0.9921177203756021,0.9916885281966868,0.9913063282129903,0.9909632508219527,0.9906535085359919,0.9903726147456632,0.9901169597189476,0.9898835650377089,0.9896699305429151,0.9894739317625092,0.989293746721093,0.9891278011247531,0.988974725872844,0.98883332335153,0.9886934329570867,0.9885668832984293,0.9884507680920517,0.9883435171177386,0.9882441279136981,0.9881518591452197,0.9880661055020029,0.9879863444648758,1.0287527617739212,1.0721767380572047,1.11866137056292,1.1686860805658081,1.2228262371519574,1.2817789865653912,1.3463977608166917,1.4177391026445163,1.4971272767465313,1.5862450884677461,1.6872642089168213,1.8030366125428283,1.9373833721510656,2.0955438821166306,2.2849000078181834,2.516193583680594,2.80567921703611,3.179172740005294,3.6802746962507653,4.388824460614349,5.4682760913262785,7.313340846608644,11.178327144981136,24.2277846719237,22.394942295893124,20.231362794740765,17.116779538062147,13.780181164500961,10.62653748677406,8.075584751196669
