series,2021-11-01,2021-11-02,2021-11-03,2021-11-04,2021-11-05,2021-11-06,2021-11-07,2021-11-08,2021-11-09,2021-11-10,2021-11-11,2021-11-12,2021-11-13,2021-11-14,2021-11-15,2021-11-16,2021-11-17,2021-11-18,2021-11-19,2021-11-20,2021-11-21,2021-11-22,2021-11-23,2021-11-24,2021-11-25,2021-11-26,2021-11-27,2021-11-28,2021-11-29,2021-11-30,2021-12-01,2021-12-02,2021-12-03,2021-12-04,2021-12-05,2021-12-06,2021-12-07,2021-12-08,2021-12-09,2021-12-10,2021-12-11,2021-12-12,2021-12-13,2021-12-14,2021-12-15,2021-12-16,2021-12-17,2021-12-18,2021-12-19,2021-12-20,2021-12-21,2021-12-22,2021-12-23,2021-12-24,2021-12-25,2021-12-26,2021-12-27,2021-12-28,2021-12-29,2021-12-30,2021-12-31,2022-01-01,2022-01-02,2022-01-03,2022-01-04,2022-01-05,2022-01-06,2022-01-07,2022-01-08,2022-01-09
S,481855.31092211057,481826.1526803671,481807.7414716389,481794.10507535236,481782.5919502017,481772.0176611227,481761.84884290956,481751.84210998856,481741.88376411184,481731.918443153,481721.9172722383,481711.8636002805,481701.7465823467,481691.55827062373,481681.29227875185,481670.9431543996,481660.5060725526,481649.9766755177,481639.350981273,481628.6253246959,481617.7963154874,481606.86080530554,481595.8158605509,481584.6587390427,481573.3868696424,481561.99783427466,481550.4893519814,481538.8592647416,481527.1055248476,481515.22618365823,481503.21938157995,481489.8683788263,481476.8735068399,481463.89254224,481450.8023595923,481437.55601651256,481424.13297668844,481410.5217272775,481396.7136826508,481382.70102617086,481368.47592745215,481354.03023994155,481339.3553655368,481324.44217635645,485145.8660581657,488966.37189667916,492785.86690558866,496604.2007036738,500421.1731052449,504236.53065916867,508049.9551951098,511861.04464186815,515669.28425391787,519474.0041739064,523274.31614021654,527069.0169786972,530856.4372486835,534634.1959050626,538398.7871275966,542144.8529834647,545863.8351364855,549541.3196145981,553151.4261888765,556643.9755135253,559912.7967087468,562585.6217222782,560618.8093801457,558655.3382734433,556177.0290488784,553388.7346441303
E,0.0,29.158241743405924,41.73780212302171,47.02663798494066,49.13443553855121,49.881837509817245,50.07428822107792,50.06616349776911,50.011276674954196,49.974342298855944,49.98064475380992,50.03818776084401,50.14756814244572,50.306366236950765,50.511084861452176,50.75799224136472,51.04347564009967,51.36417754703311,51.7170362823309,52.099285602972486,52.508437690820685,52.94226033461169,53.39875302229569,53.87612392604054,54.37276854117185,54.887250200663686,55.418282453847254,55.964713202814345,56.52551045631464,57.09974955436029,57.68660172172093,58.285323818031564,58.894735715091215,59.51453899348795,60.14426853377792,60.78344667150188,61.431626060190055,62.08839797889294,62.753390719484685,63.42626564363747,64.10671307551289,64.794448547938,65.48920945952139,66.19075209412551,66.89884894356778,68.21623650946381,70.0880773120863,72.51614307537332,75.53950387804488,79.22782402108216,83.6819215282159,89.03948580948324,95.48574014233654,103.27025818983394,112.73269070030429,124.3424279172309,138.7611192953227,156.9442135937579,180.3119039349886,211.04928191875194,252.65984369255693,311.0459831266103,396.75995623346535,530.032765053438,752.6713291787447,1155.0978013116182,1881.4216061924394,2357.427165934915,2827.0850754638177,3214.345059869327
I,90.52063148517458,54.31237889110474,37.835910848475905,30.21435089122945,26.59340537202699,24.80024162015541,23.85887572386035,23.32869731411024,23.009127818064584,22.807506492330504,22.679885509192374,22.604447361201213,22.56954221367265,22.56828759384382,22.596118478957425,22.649666362435852,22.72623842090716,22.82356866776224,22.939693159123298,23.072882426293546,23.221600864311174,23.384479302934423,23.560294441990763,23.747952209207682,23.94647363221191,24.15498251673808,24.37269454616231,24.598907569389894,24.83299291814052,25.074387633020947,25.322587499597418,25.577140809668222,25.837642773046618,26.103638092544386,26.374799874354466,26.6508482606927,26.93152935728596,27.216610305205787,27.5058778193242,27.799137021101764,28.096210028515802,28.396934370701807,28.701161361049927,29.00875451934381,29.31958808854888,29.63354566297153,30.059049969486406,30.651283897867376,31.443676092287618,32.46331635342065,33.738998135847176,35.30614475658717,37.210794299659284,39.51390980541615,42.296992357419796,45.67007974050665,49.78368486940555,54.84721239480142,61.158285883757266,69.15111423855231,79.47953928850674,93.16649543776431,111.88817422544844,138.54969665729283,178.53571570399455,242.6022686745708,353.4789654408338,550.7432683791394,754.7828508957684,961.7450241209483
A,10.057847942797174,9.645401821360275,9.833033874907178,10.264562834722415,10.784172634210993,11.324630541615027,11.857873718736933,12.373098997655323,12.867033736708093,13.339615763436575,13.792079745836995,14.226115409076773,14.643503261520198,15.045962733975422,15.435094354642734,15.812363074575671,16.179099135512768,16.536505974715276,16.885670529407463,17.2275739307552,17.563101751432836,17.893053492725443,18.218151226229576,18.53904740302719,18.85633188232579,19.170538244651166,19.482149456442365,19.791602949930592,20.099295177433543,20.40558569396799,20.710800816937134,21.015236906813627,21.319163308292527,21.622814718381136,21.926410241386158,22.230150694329055,22.5342191059596,22.838782052566366,23.143991105159603,23.449984185055104,23.75688678500854,24.064813058128063,24.373866787057047,24.684142246555393,24.99572497109815,25.308692437450894,25.635173675291348,25.98570358481828,26.370420491918512,26.799828377741175,27.285393768573947,27.84012933883144,28.479267935277765,29.221122210895167,30.088245337772776,31.109058656179265,32.32020582618834,33.77006083600516,35.524122957882206,37.673609372134834,40.34969851232873,43.74825944942601,48.175177051860175,54.134837767360644,62.51556451127186,75.00539078404891,95.03157128735799,128.76300643785382,170.63131457185938,220.17587073840446
IH,0.0,18.104126297034917,23.007123799381418,23.000869271652352,21.47236160477737,19.7228157779846,18.19054902204282,16.97439743980967,16.052540399553173,15.37022442470356,14.872187524447655,14.512569168515121,14.256241598193302,14.07731036967757,13.957028423244104,13.881906812368785,13.842223152302044,13.830916887814828,13.842798445099422,13.873993754580507,13.921558111030665,13.983209020113017,14.057141500134925,14.141900069452362,14.23628954435788,14.33931237473232,14.45012414305681,14.568001532073307,14.692318894360856,14.822530798146612,14.958158763864668,15.098780973961066,15.244024122258097,15.393556828684348,15.547065736726768,15.704275261149816,15.864944561730221,16.028861298669028,16.195836457950687,16.365700587770778,16.538301040406107,16.71349983998592,16.891171935073938,17.071203701081103,17.253491620078705,17.437941098545494,17.62446539991819,17.834690884768186,18.094161571664024,18.426698681618817,18.85369997627172,19.39527823793688,20.072010228887002,20.906906912804715,21.927597160741033,23.16891524670732,24.676236328514975,26.51010164776043,28.75300453740473,31.519808061713043,34.974406683123455,39.35751279497039,45.03518847127411,52.5882345490823,62.98728926672913,77.9604087997293,100.81801888245514,138.3267482322799,202.94129341055276,287.0940748006208
IN,18.104126297034917,36.02721133109948,46.529414996009436,53.63130301574452,59.13786016383297,63.86516263660005,68.18655933426511,72.27646888569453,76.21944365965963,80.05907478667596,83.8199853372753,87.51776258574102,91.16347443212385,94.76574813053715,98.33174816800053,101.86765438211201,105.37891111077806,108.87036968385172,112.34637972056565,115.81085455518465,119.26732249489152,122.71896944280482,126.16867560896367,129.61904774127217,133.072447705701,136.53101795508638,139.99670427888313,143.47127614532678,146.95634489775148,150.45338003240204,153.96372375868225,157.4886040210149,161.0291461427384,164.58638323592038,168.16124702207003,171.7545945267202,175.36721823359153,178.99985192271282,182.65317546452687,186.32781927374643,190.0243684852293,193.74336680608022,197.48532001215975,201.2506990842481,205.0399429972744,208.85346118501147,212.69163570575566,216.57652934259536,220.54102082874286,224.62434583891294,228.870765651208,233.32985762186536,238.0577879969641,243.1193689769263,248.5909572482403,254.56444614724185,261.15281763387077,268.4980264314131,276.7824886460593,286.2463209363501,297.2140805746971,310.1378476266515,325.66976823793783,344.79070540064816,369.05273767810024,401.0693534421182,445.57911364261105,511.8191155943518,616.849578114236,761.6376525122474
D,820.0,820.0,823.6208250951585,828.2222496463041,832.8224232919608,837.1168954181098,841.0614583947726,844.6995680341486,848.0944473681114,851.3049553023866,854.379000047882,857.3534374178446,860.2559511198832,863.1071993101831,865.9226612564032,868.7140668144278,871.4904480509588,874.2588925558366,877.0250758079196,879.7936353713516,882.5684339963968,885.3527454923005,888.1493871694614,890.9608153419559,893.7891952275448,896.6364530072585,899.5043153521128,902.3943400496263,905.3079402238739,908.246403869451,911.2109098946039,914.2025415116698,917.2222975694795,920.2711022556306,923.3498134817105,926.4592264880062,929.60008139776,932.7730701661726,935.9788422804855,939.2180094251399,942.4911493942174,945.7988094522561,949.1415092686211,952.519743502392,955.9339840877309,959.3846822552155,962.87227031672,966.3971632368068,969.9641012519564,973.5829334021312,977.26827297128,981.0390127954855,984.9180682671105,988.9324701307858,993.1138513236702,997.4993705568818,1002.1331533960247,1007.0684004378543,1012.3704205268953,1018.1210211735165,1024.4249824998979,1031.4198635192195,1039.2913657211452,1048.2984030068212,1058.8160494395347,1071.4135067214324,1087.0055877740879,1107.169190635914,1134.8345390274098,1175.422795868349
R,0.0,0.593487384407248,3.6879454597553987,7.528478838639243,11.456919028471171,15.264283208525748,18.915080511276056,22.433023677751063,25.855894066626316,29.219365614181008,32.552472678851096,35.87740785186867,39.21066472102288,42.56438283668821,45.94751354104745,49.36672374866575,52.8270597723999,56.33242100089805,59.88589261816999,63.48997749858608,67.14675743928306,70.85800544463194,74.62526431565219,78.44990210197633,82.33315165995825,86.27613926186747,90.27990562380953,94.34542164488946,98.47360042023904,102.66530659607366,106.92136380024897,111.24256065515075,115.62965572606973,120.08338165374215,124.60444822735269,129.19354305945825,133.8513349683291,138.57847709136806,143.37560930502627,148.24336008355598,153.18234797172036,158.19318279304815,163.27646666582598,168.4327948680717,173.66275657578626,178.966935490036,184.34591036395202,189.8007499466848,195.33596927204601,200.9601276303997,206.6856845852601,212.5287766433779,218.5091678280822,224.6504665476199,230.98065279457072,237.53296401495882,244.34722189191748,251.47174205715194,258.9660639717392,266.90489352846885,275.3839161359323,284.5286136049658,294.5081153506538,305.55790292380743,318.01897671607,332.4096707295497,349.56690238642716,370.94315137272196,399.21033781941736,438.59151089143745
G,65351.0,65351.0,65356.24848351382,65363.76128789596,65372.22608273325,65381.07028113019,65390.04901188195,65399.06238376175,65408.07429319135,65417.07632299284,65426.07170460663,65435.06822066232,65444.075094459266,65453.1016567249,65462.15680264755,65471.2487979226,65480.38523652605,65489.57306214127,65498.81861409974,65508.127680630554,65517.50555203909,65526.95707082344,65536.48667768367,65546.09845322768,65555.79615553436,65565.58325387178,65575.46295890791,65585.4382497496,65595.5118981261,65605.68649000823,65615.96444492803,65626.34803323794,65636.83939152515,65647.44044395389,65658.15306097272,65668.97902930879,65679.92004970968,65690.9777424005,65702.1536540367,65713.44926436621,65724.86599218205,65736.40520053565,65748.06820127428,65759.856258977,65771.77059435393,65783.81238716377,65796.09130973546,65808.70716365166,65821.76006940522,65835.35718010327,65849.61818842708,65864.68093430213,65880.70804174786,65897.89547497345,65916.48412144763,65936.7760057737,65959.15764279882,65984.13464427197,66012.38460271884,66044.84074542715,66082.82961617253,66128.30838803719,66184.29666499994,66255.713457122,66351.11935483161,66486.60019408376,66694.51779831987,67033.17368743452,67457.51057730279,67966.38589088629
H,84274.34555776161,84274.34555776161,84274.34555776163,84274.34555776161,84274.34555776161,84274.34555776161,84274.34555776161,84274.34555776161,84274.34555776161,84274.34555776163,84274.34555776161,84274.34555776161,84274.34555776161,84274.34555776161,84274.34555776163,84274.34555776163,84274.34555776161,84274.34555776161,84274.34555776161,84274.34555776161,84274.34555776161,84274.34555776161,84274.34555776161,84274.34555776161,84274.34555776161,84274.34555776163,84274.34555776161,84274.34555776161,84274.34555776163,84274.34555776161,84274.34555776161,84274.34555776161,84274.34555776161,84274.34555776161,84274.34555776161,84274.34555776161,84274.34555776161,84274.34555776161,84274.34555776161,84274.34555776161,84274.34555776161,84274.34555776161,84274.34555776161,84274.34555776161,81485.48681312808,78730.43178268525,76010.75264141354,73328.13082238659,70684.36387486594,68081.37221649461,65521.205573278174,63006.0488319108,60538.226943240865,58120.208410929066,55754.606773834865,53444.17934378295,51191.822293733865,49000.56101028717,46873.534439764044,44813.97198779151,42825.16140814271,40910.40608089471,39072.9701911679,37316.010650243414,35642.495231116176,34109.1128479022,34109.1128479022,34109.11284790221,34109.11284790221,34109.11284790221
S0,168649.35882273866,168253.86245437205,167637.99900601487,167026.96975643284,166419.3024857387,165814.33446404577,165211.76319293916,164611.4469871965,164013.31621070928,163417.33367526185,162823.4769322009,162231.7303319451,161642.08144932945,161054.51946394684,160469.03441789147,159885.61686851905,159304.25771994566,158724.94813614016,158147.67949186955,157572.44334172757,156999.2313982522,156428.03551499074,155858.8476725626,155291.6599667635,154726.46459821018,154163.2538632359,153602.02014584784,153042.7559106093,152485.45369633735,151930.1061105237,151376.7058243987,150824.76517832678,150274.95268515853,149727.12540879537,149181.22805470697,148637.2357355833,148095.13410269385,147554.91243176095,147016.5612077556,146480.07127450418,145945.43352925222,145412.6388071099,144881.67783153866,144352.54118759822,144972.5392074351,145571.05119513857,146147.43409303515,146700.97945576778,147230.9162326937,147736.4083067601,148216.5486117502,148670.35024205176,149096.73402345987,149494.5110911326,149862.35775566002,150198.77785139385,150502.04401318263,150770.10223816196,151000.4100445005,151189.64929321027,151333.19029998902,151424.0325108723,151450.5658761605,151391.47105181374,151203.236985347,150770.38070463797,149430.78592143854,148114.7950185407,146621.86451627527,145033.6289042117
E0,0.0,16.07147182707413,23.04339135313066,25.9943810475597,27.188699911282733,27.630659592067904,27.76457086517186,27.785581067951696,27.778010552211608,27.77700206772171,27.796011359133107,27.839060492265233,27.906187595572092,27.995857508244875,28.10601557823876,28.23453693871358,28.379407799384886,28.538789199865832,28.711030336705228,28.89466125374981,29.088377984492993,29.29102577954891,29.5015827414388,29.719144733790657,29.942911805671013,30.17217611328332,30.406311224267004,30.644762662159305,30.887039549375785,31.1327072184383,31.381380675491812,31.63271881430729,31.88614145168699,32.14154402561586,32.39872854183365,32.65748741964839,32.917626790776154,33.17897105550102,33.4413620816953,33.70465715834796,33.9687268722772,34.23345318509967,34.49872773954917,34.764450367577574,35.03052776735998,35.60801504420931,36.46625602349338,37.60372381423216,39.03778742819551,40.801034639686264,42.94131787669692,45.52438371625515,48.63892020624882,52.40456782627593,56.98419178189044,62.60279898039982,69.577335477753,78.36503486520114,89.64472389005229,104.45940856806129,124.4788595269495,152.51143034074565,193.5684548733387,257.23707511677793,363.27667333909307,554.2647176403184,897.4096268514676,1120.2051996953865,1338.3078535059558,1516.0212381456029
I0,90.52063148517458,54.31237889110474,35.480292263536185,25.43598580168523,19.940580069571883,16.85831402577402,15.088507142036637,14.050727040952918,13.431840816803057,13.059146389479924,12.835348205877862,12.704490968170678,12.63372546951015,12.603349048909067,12.601263780829518,12.619841072580687,12.654121292516857,12.700766179399395,12.757441763615486,12.822450518776233,12.894509336940706,12.972613639373161,13.0559528239427,13.143856587824605,13.235760004777081,13.33118012788703,13.429699777123215,13.53095588664199,13.63463081117387,13.740445605591965,13.848154662674073,13.95754131919297,14.068414178091095,14.180553968158314,14.293810305505843,14.408057320833564,14.523182128036849,14.639082099161818,14.755664049487276,14.87284360439752,14.990544451141146,15.108697507694584,15.227240077934692,15.346115039879667,15.465270090091764,15.584657052179853,15.760236939265589,16.02006824778816,16.380711235234685,16.855228478216002,17.45732332207313,18.203831211049323,19.11668779555552,20.2250183144581,21.56783319740453,23.197854439182997,25.187216479981764,27.636250273984597,30.687456440126965,34.548524164285595,39.53180804082239,46.12527953934435,55.127225184940826,67.91865698816547,87.05386771391932,117.62212182938835,170.34092227289034,263.7382861969984,359.8799076633686,456.82335822909323
A0,10.057847942797174,9.645401821360275,9.571298476580541,9.639672307290027,9.764262099354108,9.907629166149071,10.053956316935325,10.196961198232259,10.334522026243366,10.466290433029833,10.592635191309155,10.714179066284165,10.831599726496787,10.945547813637925,11.056616585062908,11.165333877148763,11.272163383742058,11.377509508007961,11.481723290384455,11.585108359987366,11.687926495771032,11.790402662487251,11.892729504682155,11.995071329101727,12.097567621973232,12.200336150538755,12.303475695836894,12.407068459506181,12.511182182781013,12.61587201145269,12.721182136577825,12.827147237175907,12.933793748045677,13.04113541629974,13.149183334077156,13.257944178772076,13.367420202342286,13.477609687032977,13.588507473535667,13.70010545146911,13.812392988817427,13.925357301292358,14.038983768088306,14.153256200815465,14.26815707156673,14.383667705172268,14.50599129438853,14.640463531717268,14.792170769002292,14.966338160294763,15.168628345187221,15.40542880174593,15.684180005755564,16.01379107944534,16.40519861476157,16.872148026639675,17.432321204531597,18.10901387082184,18.933711122881267,19.95018347127127,21.22126663234816,22.840615006119407,24.954209541303342,27.80227156578887,31.806914396951246,37.768129230909395,47.304651072557284,63.31300320120441,83.12080600271248,106.47839553020148
IH0,0.0,18.104126297034917,23.007123799381418,22.52974555466441,20.200648385680992,17.539157385267327,15.137317194491173,13.172148337113677,11.646313617145232,10.498972721220003,9.65477220654011,9.043704207744863,8.607614842011559,8.30092335817254,8.0891126488127,7.946608290342489,7.854728675685227,7.799949843621299,7.772531969837383,7.765474571011463,7.773742062942704,7.7936998428746085,7.822708823206268,7.858836525224987,7.900652538937576,7.947084328460191,7.997315823636289,8.05071615056347,8.106789491916961,8.165139713423851,8.225445290433923,8.28744141566168,8.350907117882327,8.415655885303295,8.481518747450192,8.548352278416793,8.616035091075464,8.684463179037412,8.753546246927716,8.823205085669112,8.89336968513891,8.963977818449308,9.034973926024039,9.106308198046847,9.17793579659583,9.249816182714513,9.321912526696751,9.40539232498606,9.51335868028621,9.65791349496682,9.849787507911588,10.098919804981183,10.415344833473346,10.810181052478832,11.296712017846884,11.8916507183372,12.616752995124392,13.501040035310037,14.584046083406731,15.920791708127242,17.589723760093758,19.705937039251072,22.444233974918106,26.081533204832766,31.079800273201013,38.25979042949285,49.18993732717727,67.06588151104147,97.73693271268496,137.5400759821146
IN0,18.104126297034917,36.02721133109948,46.529414996009436,53.16017929875658,57.715774666106064,61.12673293335938,63.88712840918059,66.2659585534961,68.41344437615173,70.41567809575082,72.3233505926893,74.16718672793797,75.96641305429273,77.73349401765184,79.47682888725713,81.20231335455045,82.91425843552109,84.61594010966925,86.30993394445244,87.998322957731,89.68282983190895,91.364903400978,93.04577709484285,94.72650988868295,96.40801610736105,98.09108794724285,99.77641309334783,101.464588917839,103.156134205989,104.85149902616389,106.55107315702065,108.25519335798526,109.964149688244,111.67819102697979,113.39751991034166,115.12230677233941,116.85269516878273,118.58880464270227,120.33073301610762,122.07855849584399,123.83234163176506,125.59212710567564,127.3579453361578,129.12981389838316,130.90773876737526,132.69171539771986,134.48172965417862,136.28895974548996,138.1300837975927,140.0249252066637,141.99572165024028,144.0672290981525,146.26732304938082,148.62798737799812,151.18671116710976,153.98841069491957,157.08809747580696,160.55465979704525,164.4763632538717,168.96909090935839,174.18910483312192,180.35357539295518,187.7750955468945,196.92278962841374,208.5372931297627,223.86269374124893,245.1484911697141,276.76519071259503,326.74519604486875,395.4537256170938
D0,820.0,820.0,823.6208250951585,828.2222496463041,832.7281985528374,836.7683280467046,840.2761593646352,843.3036226662011,845.9380522141205,848.2673148318892,850.3671092808819,852.2980636345976,854.1068043940982,855.8283272844085,857.4885118807334,859.106334337108,860.6956559230814,862.266601586957,863.8265914849168,865.3810978083685,866.934192652119,868.4889409941808,870.0476808920479,871.6122225857181,873.1839898194643,874.7641202555736,876.3535370491663,877.9530001413385,879.5631432984117,881.1845011232467,882.8175289918538,884.4626179753158,886.1201061832609,887.7902875310743,889.4734186317845,891.1697223043266,892.8793926824555,894.6025996225022,896.3394921795204,898.09020134949,899.854842286576,901.6335161429192,903.426311625284,905.2333063285197,907.0545678855127,908.8901549615657,910.7401181141903,912.6045005349572,914.4855789146246,916.3882505643726,918.3198331757452,920.289790587966,922.3095744573404,924.3926433295426,926.5546794419637,928.8140217430443,931.1923517788256,933.7157022633858,936.4159101479605,939.332719232329,942.5168774295142,946.0348220219514,949.9760092510209,954.4648558423806,959.6811622467243,965.897122019395,973.5490797581842,983.3870667773473,996.8002424711049,1016.3476281269301
R0,0.0,0.593487384407248,3.6879454597553987,7.517745752347173,11.35499079700904,14.942032995561664,18.225258043950685,21.23182284826788,24.01418380739049,26.62655649692697,29.116143904542692,31.520937048932307,33.870216265711235,36.185969748455214,38.48444899018836,40.77755495680136,43.07396556572782,45.38000760849658,47.70031022291815,50.03828452759118,52.39647061453328,54.77678605122046,57.180702608302184,59.609371378759384,62.063711149556624,64.54447079350156,67.05227338675017,69.58764751482502,72.15104961287356,74.74288003314209,77.36349471814859,80.01321378647562,82.69232793914472,85.40110331719066,88.13978502096994,90.90859880380765,93.70775386973284,96.53744527014423,99.39785574610238,102.2891571411504,105.2115115162513,108.16507205811412,111.14998383767633,114.16638445343025,117.21440458144832,120.29416844671044,123.40579422618474,126.54964957466454,129.72787532570914,132.9446803035749,136.20624913486864,139.52060720747053,142.89757331311077,146.34884634194324,149.88824662203496,153.53213379537564,157.3000392793091,161.21558006858245,165.307766233923,169.61288857480906,174.17729907789246,179.06162267956142,184.34736424825437,190.14772149241824,196.62620598479683,204.03072116273938,212.7604403407144,223.50601891234462,237.53340235586882,256.8348744663665
G0,65351.0,65351.0,65353.89286492887,65358.04067537244,65362.719663961,65367.61362994503,65372.5871486716,65377.58477142733,65382.58617601956,65387.58621791896,65392.58607829115,65397.58936033579,65402.6003912244,65407.6235049916,65412.66275934308,65417.72184214716,65422.80405879613,65427.912352200015,65433.04933425599,65438.2173197166,65443.418358742274,65448.654266779486,65453.9266514198,65459.23693631326,65464.58638236534,65469.976106490365,65475.40709819076,65480.88023421112,65486.39629149031,65491.9559586092,65497.559845908516,65503.2084944301,65508.902383816676,65514.64188927798,65520.42736720259,65526.259138340116,65532.137486075655,65538.062658898,65544.03487368798,65550.05431886269,65556.1211571512,65562.2355279882,65568.39754956152,65574.60732055464,65580.8649216208,65587.17041661893,65593.57985932688,65600.14378541111,65606.91245569767,65613.93925743474,65621.28344366989,65629.01288088769,65637.20726995662,65645.96227559375,65655.39509780248,65665.65225232323,65676.9207561397,65689.4446765257,65703.55038280143,65719.68643310164,65738.4891266439,65760.89532135874,65788.34737882006,65823.18970069727,65869.49237421829,65934.88217541932,66034.64982459458,66196.18355742785,66397.82049337302,66638.7159070041
H0,29496.02094521656,29429.654898089826,29323.708140456703,29218.14279115106,29112.957477102915,29008.150830185343,28903.721487196675,28799.668089842766,28695.989284719333,28592.683723294344,28489.750061890485,28387.186961667678,28284.993088605675,28183.167113486696,28081.70771187814,27980.61356411538,27879.883355284564,27779.51577520554,27679.509518414798,27579.863284148505,27480.57577632557,27381.645703530798,27283.071778998088,27184.852720593695,27086.987250799557,26989.47409669668,26892.311989948572,26795.499666784755,26699.03586798433,26602.919338859585,26507.14882923969,26411.723093454428,26316.64089031799,26221.900983112846,26127.50213957364,26033.443131871176,25939.72273659644,25846.33973474469,25753.29291169961,25660.581057217492,25568.20296541151,25476.15743473603,25384.44326797098,25293.059272206283,24054.684354174078,22839.596871931546,21648.39268370287,20481.705934915783,19340.210762532948,18224.62280713554,17135.700430802503,16074.245510425588,15041.103641839385,14037.163549532173,13063.35544961319,12120.648060685728,11210.043899941982,10332.572443447194,9489.280675911867,8681.220515226596,7909.432583781616,7174.925830081324,6478.652603250637,5821.478976227288,5204.150427532829,4646.243005312666,4629.516530493541,4612.850270983764,4596.244010008222,4579.697531572193
S1,48185.53109221105,45118.868479434466,42499.23297338104,40065.26343942627,37803.308968301186,35700.920721600196,33746.63458507374,31929.845746237992,30240.72414790117,28670.14936450471,27209.65576026278,25851.383940562755,24588.03667758639,23412.838412613575,22319.497834899914,21302.173213444898,20355.440240635537,19474.262189241646,18653.962209187688,17890.197607536687,17178.935968297217,16516.43297977931,15899.211847065435,15324.044176091418,14787.932224031709,14288.092418255554,13821.940053132488,13387.075080466617,12981.268915370365,12602.45218498528,12248.703352652357,11918.200194432642,11609.340659936419,11320.574905073678,11050.470455304066,10797.699411620484,10561.029488455535,10339.316676428414,10131.498762460036,9936.589425882523,9753.672794795028,9581.898404430893,9420.476520171174,9268.673796194402,9198.607483094156,9133.764855877274,9073.730860922185,9018.108621740706,8966.518523495164,8918.597007057442,8873.995203711387,8832.377445339462,8793.419624608427,8756.807325195714,8722.233570718523,8689.395925214758,8657.992471023874,8627.715798950947,8598.243371570925,8569.221009465955,8540.23270190899,8510.741613286244,8479.966191800328,8446.598900436125,8408.119283129054,8358.050694726904,8259.776196591207,8164.853419677704,8062.092230979966,7955.898564009229
E1,0.0,4.591849093449752,6.405009108122875,7.04051841138209,7.165969730446623,7.068390702114991,6.873357221783283,6.637231759142028,6.386236294157716,6.13314327765805,5.884496304152984,5.643797000990958,5.41295674699409,5.19299027026304,4.984369612375051,4.787219845165354,4.601436678886271,4.426762474722686,4.262838104918912,4.109239571054863,3.9655043284081386,3.831150318604303,3.705689682555864,3.588638529854322,3.479523764656516,3.377887712658927,3.283291110869646,3.1953148864515484,3.113561048611971,3.0376529394300915,2.9672350296246846,2.9019723992697886,2.841528053188579,2.785619683734492,2.733972812115061,2.6863271494130134,2.6424377764173315,2.602074766007452,2.565022382615594,2.531078202931248,2.5000522567929946,2.471766213688899,2.446052619330686,2.4227541812284104,2.401723100886302,2.4025626700672658,2.4227404723242034,2.4616232242741294,2.519775031100343,2.5986921538965655,2.700776886474375,2.829469384638815,2.989520322268069,3.1874311866305014,3.432132691995105,3.736032828434265,4.116669063581861,4.599389569044632,5.221861216808599,6.041971956297213,7.15237553236784,8.708821949534892,10.989026810143574,14.52377538573331,20.405708380721045,30.985264602160488,49.955867628190916,62.20055456253114,74.13369042425052,83.79616463507308
I1,0.0,0.0,0.8265328368209555,1.6488213415546908,2.256586118981591,2.6438262228693468,2.8586060601023062,2.952367935982375,2.9661224782349898,2.9291960198893827,2.8614834019120785,2.776099375894784,2.681543085715243,2.5832580658880824,2.4846930881801965,2.3880023831356274,2.29450100201114,2.204959203406213,2.119792767493811,2.039186519381691,1.9631750344188899,1.8916957997647987,1.824624537207654,1.761798865184648,1.7030342544845667,1.648134830328913,1.5969006864759545,1.549132811842109,1.5046363666665443,1.4632228087500816,1.4247112143474654,1.3889290339409226,1.3557124522331154,1.3249025209138137,1.296353055620497,1.2699269395530093,1.245495050626148,1.2229358301308084,1.2021349559598264,1.1829850024467028,1.1653850779956465,1.149240453020127,1.134462190276078,1.1209667856451704,1.1086758240082162,1.0975156525644643,1.0909706721507864,1.0906756883088284,1.0974975933546403,1.112058061610846,1.1349994246678894,1.167139494366121,1.2095881858546593,1.263866569521048,1.3320575553061191,1.4170184177427902,1.522696959763842,1.6546186073030402,1.820661286809858,2.0323317911114627,2.306954026800376,2.671600011906437,3.170547958060143,3.8803536006619295,4.942491729829154,6.63852254642728,9.560461156245257,14.72833286682152,20.033099541348516,25.363924001174205
A1,0.0,0.0,0.09183698186899505,0.2161711688412525,0.3481169210335221,0.4771609483170165,0.5989616359169798,0.7118669252690863,0.8154197538173169,0.9097062415487568,0.9950644259109059,1.0719493542070684,1.1408674459840022,1.2023425814196265,1.2568974522936303,1.3050427569901184,1.3472707529206547,1.3840514255088086,1.415830334524967,1.4430275859398771,1.4660375783053197,1.4852292860222893,1.5009469116460934,1.5135107857008963,1.5232184249830585,1.5303456839839404,1.5351479516353463,1.5378613587749956,1.5387039716738475,1.537876954457776,1.5355656888779088,1.5319408440774607,1.5271593921045303,1.521365128089243,1.5146903043454072,1.5072562602883992,1.49917415374218,1.4905456858539392,1.4814637887295623,1.4720132688602088,1.4622714065777316,1.4523085137458303,1.4421884523117519,1.4319691163250214,1.4217028799013345,1.4114370134605356,1.4016089148210527,1.392587396928216,1.3847134830023728,1.3783254938943814,1.3737778020209468,1.3714582937861115,1.3718077524998824,1.3753438995754912,1.3826932557661769,1.3946352641279256,1.4121655645905993,1.4365897178390339,1.469666710350357,1.5138367345919972,1.572597676088803,1.6511570560970399,1.7576238490935276,1.9053288137003137,2.1176717543149337,2.438945724452601,2.9586362111252473,3.8364276063906897,4.923116803790009,6.203906427641055
IH1,0.0,0.0,0.0,0.1653065673641911,0.44065556697323016,0.746918716608002,1.0298148265747828,1.2625437565898445,1.4374158413282645,1.5574748088936028,1.6306277259699518,1.6661577958284428,1.6729153467004432,1.6585372031313166,1.6292350227028065,1.5898654769517295,1.5441173745862098,1.4947282602616658,1.4436885911525728,1.392416765955256,1.3419012428833663,1.2928120166213506,1.2455860318422936,1.2004915450470226,1.157676032312199,1.117201518007025,1.0790704344934001,1.0432444322050953,1.0096579831888424,0.9782281618932553,0.9488616315859744,0.9214595951751396,0.8959212674845622,0.8721462765312348,0.8500355009086896,0.8294932109143816,0.810427765588186,0.792751865731746,0.7763826373716712,0.7612416223936638,0.747254704227429,0.7343519855204791,0.722467631666728,0.7115396919086555,0.7015099074853396,0.6923235141085979,0.6839290441234771,0.6769888520569737,0.6722742210721583,0.670475923423383,0.6721816792694557,0.6779142105996065,0.6881877332444346,0.7035691775770969,0.7247430670985748,0.7525851772894594,0.7882544526033485,0.8333178991789391,0.8899317845516508,0.9611181659276405,1.0512056646336825,1.1665627968367929,1.3168761075319524,1.5174991875004946,1.7940427118329119,2.1919818453991815,2.798134373968116,3.789142608063898,5.487507174888101,7.687760995068437
IN1,0.0,0.0,0.0,0.1653065673641911,0.49341777000148734,0.9398008160977906,1.459168052510682,2.016297584006036,2.5866081953624507,3.153966609055824,3.708266146943142,4.243480165856127,4.756265239376523,5.245011204125806,5.709212705262164,6.149059195845582,6.565169080514251,6.9584175901113365,7.329825254891466,7.680485555841313,8.011518004159239,8.324037831001425,8.61913661264437,8.897870153959458,9.161251225456793,9.410245564099139,9.64577007452393,9.868692511073883,10.079832148331565,10.27996110018156,10.46980605092976,10.650050233289956,10.821335537745242,10.984264672814412,11.139402530269031,11.28727911609044,11.428391712840138,11.563206805836966,11.692161903804758,11.815667275958676,11.93410760368843,12.047843543250675,12.157213198422193,12.262533504493186,12.364101526577288,12.462195676113158,12.557076849864918,12.649700215796427,12.741338351300229,12.833424486458155,12.927501853915743,13.025226720310163,13.128402351980286,13.239035965631416,13.359418919879312,13.492236241741743,13.640717562872883,13.808849779196922,14.001685002865562,14.225800410198879,14.490008764319182,14.806499482036065,15.192754489596991,15.67493653631305,16.294257891082307,17.119813658137314,18.276320030841397,20.005649061782034,22.751259144528518,26.530366461352937
D1,0.0,0.0,0.0,0.0,0.03306131197310546,0.12119242136993338,0.27057615791516376,0.4765391138871943,0.7290478537508196,1.0165310089756137,1.3280259566242483,1.6541514870244778,1.9873830310740614,2.3219660852367374,2.653673510816033,2.9795205005754686,3.2974935815418664,3.606317042450207,3.905262680941718,4.194000386074465,4.472483726632908,4.740863963035272,4.999426354630591,5.248543549698554,5.488641847816579,5.720177043776081,5.94361733724175,6.159431414350635,6.368080291326889,6.5700118788046025,6.765657502308344,6.955429820017056,7.139721730692203,7.31890597606093,7.493335223454688,7.6633423159245355,7.82924095058189,7.991326496346976,8.149876862301136,8.305153382731792,8.45740170030421,8.606852634370277,8.753723024812015,8.89821654459082,9.040524476517154,9.180826451649821,9.319291148190482,9.456076950810276,9.591474715079736,9.725929553195005,9.860024731796834,9.994461061552402,10.130043897521992,10.267681437927342,10.408395267059678,10.55334387390421,10.703860902534323,10.861511785903607,11.028175358179174,11.206161707015658,11.398385331481506,11.60862645487125,11.841939003655044,12.105314213214164,12.408814036946854,12.767622563037104,13.206018912230332,13.76564576163807,14.523474248874106,15.620975634066685
R1,0.0,0.0,0.0,0.003765995190200068,0.03563763362800789,0.11177014341817923,0.23722067608335193,0.40940353772538707,0.6218510827944873,0.8668377757566919,1.136873462291155,1.4254022016711787,1.727025631829998,2.0374759902775197,2.3534774048768656,2.6725727931081806,2.9929552840656544,3.3133208896787996,3.6327472773570326,3.9505977141527477,4.2664468551566,4.580024410792815,4.891172922987808,5.199816407879405,5.505937228387651,5.809559126177053,6.110734824533555,6.409537002831148,6.706051747180487,7.000373814003296,7.292603217927136,7.582842785400992,7.8711964114958315,8.157767827983566,8.442659724541786,8.725973058792345,9.00780669806717,9.288257202828744,9.567418691763715,9.845382764062746,10.12223846424659,10.398072278491249,10.672968153647652,10.9470075320397,11.220269396758903,11.492830323528919,11.764764536288231,12.036160156003067,12.30721554094948,12.578255392396915,12.84972185008713,13.12216293843847,13.396226674879383,13.672663610201859,13.952338832650494,14.236254461353248,14.525584559481233,14.821726025141059,15.126371585614928,15.441615162887613,15.770106899669143,16.115287667718675,16.48175645143558,16.875870870012,17.306780174542457,17.788313637239344,18.342682210714575,19.008228516066897,19.855080419840085,20.993341898816123
G1,0.0,0.0,0.8265328368209555,1.9794344762830731,3.2467277903318497,4.536602341812242,5.80891266819294,7.046116968113932,8.240818684759496,9.390341217707885,10.494307007686334,11.553516342433872,12.569399802612244,13.54373201707118,14.478470265718528,15.375656795946037,16.2373563680758,17.06561497027533,17.862432215725413,18.62974307461082,19.369406197400693,20.08319697651416,20.772804033862933,21.439828176722987,22.085783112096763,22.712097389734936,23.320117178013543,23.91110957797008,24.48626625753136,25.046707246281514,25.59348477537893,26.127587080711372,26.649942112579932,27.161417162153878,27.662828705226087,28.1549438114068,28.638482698301143,29.114121498056264,29.582494955937605,30.04419898480841,30.499793061336035,30.949802467558776,31.394720386022776,31.8350098575023,32.27110561012341,32.703415768282944,33.135877048895054,33.57197033391341,34.015062514282754,34.46862201988082,34.9363866075822,35.42252644714759,35.931830936382575,36.469944594390824,37.04368220798432,37.661466092543435,38.3339520016616,39.07495243310633,39.90284255553436,40.84277757455991,41.93033252669341,43.21776012251962,44.785348073435905,46.763372899261746,49.37765246869374,53.050679977223524,58.62802760561241,67.62008377868678,78.81618359994238,92.16024787630747
H1,8427.43455577616,7891.84099177603,7434.084821425152,7008.644112057571,6613.211989530174,6245.646351481303,5903.9580979355915,5586.300202579814,5290.957564661833,5016.337585753835,4760.961419603849,4523.455846997808,4302.5457309885405,4097.047011036911,3905.8601975713977,3727.9643312219164,3562.4113735368805,3408.3209983632705,3264.8757552709194,3131.3165784464327,3006.938616380336,2891.0873594336554,2783.1550440068195,2682.577313553583,2588.830118093893,2501.426835190065,2419.9155965674545,2343.8768056907365,2272.9208326561093,2206.6858737339876,2144.8359638014545,2087.059130743756,2033.0656816842095,1982.5866116261966,1935.3721257635316,1891.1902673400302,1849.8256435190501,1811.0782422622938,1774.7623337172108,1740.7054500766715,1708.7474383057493,1678.73958053082,1650.543777257954,1624.0317889327957,1526.2862933453089,1433.0562671530645,1344.0652585007513,1259.0662282204673,1177.839291419449,1100.1896437401913,1025.9456508699295,954.957079646231,887.0934484662062,822.2424736422632,760.3085868608761,701.2114970315474,644.8847676583283,591.2743786119842,540.3372391412049,492.03961762366106,446.35545362953457,403.2645203127256,362.75041117315743,324.7983362463293,289.3927301720634,257.5673975016298,255.89620107063897,254.2841605039415,252.72726715777296,251.2217979396759
S2,48185.53109221105,51051.801463048316,53665.55426058028,56061.36428215559,58254.919981029794,60260.83819428778,62092.71460639386,63763.18371519877,65283.98115301418,66666.00485039086,67919.37343974011,69053.48126254833,70077.04981677388,70998.17570323226,71824.37522787318,72562.62585481025,73219.40471446209,73800.72436763442,74312.16601721845,74758.91034790533,75145.76616254314,75477.19697222221,75757.34568617637,75990.05753724668,76178.90136899271,76327.18940153981,76437.99558488585,76514.1726406194,76558.36788578445,76573.0379259243,76560.46229811599,76522.59071955203,76461.61671938222,76379.31513618588,76277.35880678026,76157.30869845176,76020.61593098933,75868.62754812851,75702.59323383491,75523.67202210217,75332.93869238191,75131.3897653842,74919.94909010903,74699.47303809813,75064.2803756776,75410.17772679853,75737.33518200899,76045.87140856097,76335.8550065707,76607.3047675832,76860.18922172244,77094.42556575997,77309.87786473228,77506.35421491056,77683.60225989099,77841.30194609603,77979.05347616483,78096.35663707551,78192.57410906177,78266.86385183879,78318.04896284848,78344.3537860423,78342.83413628704,78308.05370168122,78228.77647360235,78069.78034837676,77533.52470163307,76994.21403743885,76396.89323839311,75763.77208299223
E2,0.0,1.6071471827074135,2.3674676482580574,2.740994608123437,2.9438356739783558,3.0754327030351165,3.1802937581152237,3.2774457118661284,3.374333441943358,3.4733008414723514,3.5745676756860343,3.677567468258316,3.7815276011645103,3.885704454482853,3.98946522905035,4.092304398678565,4.193834486277672,4.293768602094257,4.39190203837575,4.488095675140164,4.582261982396055,4.674353598724722,4.764354177031658,4.852271120032615,4.938129847720338,5.021969288231299,5.10383833760039,5.183793083381078,5.261894629125399,5.338207391088581,5.412797766077718,5.485733091202471,5.557032691456367,5.626791639981217,5.695082692102906,5.761971002404196,5.827518414551845,5.891784519474226,5.954826788710365,6.016700489899492,6.077458583236892,6.1371516442657885,6.195827816288558,6.253532786586538,6.310309780264028,6.422576573323442,6.584890878646269,6.79706761433138,7.062330852950369,7.386649675775468,7.778747049893486,8.250576039596295,8.81823340604617,9.503409270747635,10.335607517237808,11.355568010862154,12.620656863621631,14.213612442788385,16.25725379366059,18.940277220990108,22.564770200150896,27.638844524059053,35.06934749128681,46.591705526724986,65.78471642626603,100.36864681979293,162.5738728230483,203.1129690075706,242.93390662816026,275.56858609399114
I2,0.0,0.0,0.2892864928873345,0.599716072418851,0.8532086729135293,1.0418156250642217,1.178667261584854,1.2796532334116528,1.3577321681828949,1.4220193204595413,1.478405743740748,1.5304656278679352,1.580241521007258,1.6288198808139667,1.6767187302952937,1.7241349794062393,1.7710957794058855,1.8175476751735122,1.8634069534810735,1.908586538996279,1.953009144922997,1.9966126437850882,2.039351234041503,2.0811944922906003,2.122125496980231,2.162138670777799,2.2012376743483135,2.2394335053770584,2.276742858234829,2.3131867481834694,2.348789379306026,2.383577225477605,2.4175782917030078,2.4508128594839507,2.4833102108869896,2.515101011110717,2.5462153870991857,2.5766825468788435,2.6065307416326666,2.6357872669474656,2.664478448350388,2.692629613992873,2.7202650643635655,2.74740804555008,2.774080728915625,2.8003041977969003,2.8362463018763595,2.8870281392821444,2.955689054148935,3.044632986020428,3.1563767332518413,3.294000508931932,3.4615039924864925,3.664184408580206,3.909124313882698,4.2058839414324245,4.567532606814643,5.01223779954068,5.565792919426317,6.265781434514697,7.168718760487038,8.362889892319384,9.99272594972226,12.308118118264982,15.771377865769487,21.304075676189576,30.848801833276475,47.77257820811458,65.22388134623145,82.86243200080773
A2,0.0,0.0,0.03214294365414828,0.07817419830273942,0.1297883704076193,0.1833428011994099,0.2373330449920164,0.2912065107509885,0.3448138052124393,0.39816055889384816,0.4512990492823611,0.5042838054063321,0.5571557906743079,0.6099388363317564,0.662640923968466,0.7152570518867775,0.7677723129718436,0.8201646618689348,0.8724072194507744,0.924470114677965,0.9763219190449157,1.027930742247281,1.0792650544905784,1.1302942919931032,1.1809892923684677,1.2313225975035733,1.2812686538336804,1.330803933599814,1.3799069956061234,1.4285584999753387,1.4767411882332386,1.524439837566776,1.5716411961529708,1.618332942091424,1.664505160233583,1.7101497971318038,1.7552604326809893,1.799832146921149,1.843861413465591,1.8873459999663298,1.9302848709709337,1.9726780926920822,2.0145267401381095,2.0558328071001086,2.0965991193546247,2.1368292513025597,2.1776549862880024,2.2200528504285018,2.26495562341349,2.3133223155207006,2.3661919921421397,2.4247355686488636,2.490315005511194,2.5645583479746974,2.6494606818241295,2.7475253572485183,2.861967865879253,2.9970191626593294,3.1583914694458666,3.3540191456764217,3.595285109489419,3.8991472447353086,4.2920302725185415,4.817412250996728,5.551696845015708,6.639730560242535,8.374825457386542,11.282873156581816,14.882451325149663,19.130838930212178
IH2,0.0,0.0,0.0,0.0578572985774669,0.1587551690155724,0.2771382104468705,0.394273561333805,0.500220870703613,0.5914898616292987,0.6683309047407847,0.7327350051020047,0.7872159836108796,0.8341750048494495,0.8756313327183042,0.9131568255987323,0.9479095254324124,0.9807056543375434,1.0120981824013353,1.0424473631547808,1.071978119982462,1.1008239213951043,1.1290588436601292,1.1567201532795808,1.1838236891384097,1.2103739916303518,1.2363707222414377,1.261812538422497,1.2866992716948773,1.311033008576432,1.334818487623608,1.3580630906171614,1.3807766102353696,1.4029709103982606,1.4246595506865418,1.4458556834669618,1.4665739880511142,1.4868304446853469,1.5066417986608842,1.5260251246944394,1.5449975271199308,1.5635759390199182,1.5817769845858334,1.5996168813229712,1.617111368390019,1.6342756531799827,1.6511243714208157,1.6676715577496188,1.6859601968476148,1.708384987614549,1.7371602158221413,1.7742520612105064,1.8214828402729202,1.8806910458040096,1.9539099152862511,2.0435628342903667,2.152691974747931,2.285250139430322,2.4465028189105547,2.6436157185345905,2.8865544317737135,3.1895207925766593,3.5733447881529496,4.069656633260564,4.728560798928864,5.633646708746792,6.933450288948079,8.911926818284376,12.148077829902913,17.703714722386998,24.920819357038944
IN2,0.0,0.0,0.0,0.0578572985774669,0.17722194007546244,0.3460914552574137,0.5509936657176839,0.7812171813774779,1.0293356562460336,1.2905887333201522,1.562086710078859,1.8421469917262199,2.1298186473825447,2.4245687651101706,2.726087053621862,3.0341699291447024,3.348655225734503,3.6693878293583353,3.9962034860994544,4.328922841934674,4.667350921314584,5.011279241086037,5.360488977432195,5.714754334466174,6.073845689579632,6.437532332079882,6.805584742914643,7.177776430355159,7.55388536712702,7.933695085102715,8.316995483888382,8.703583404910704,9.093263015957119,9.48584604413815,9.881150155593557,10.27900069621502,10.679230891475013,11.0816816599801,11.486201352756067,11.89264548755504,12.300876486068983,12.710763410878371,13.122181699568163,13.535012895445194,13.949144375600758,14.364469077627875,14.780885226410977,15.20032563452214,15.625728006033347,16.0606085368028,16.50892904863886,16.97511510480284,17.464164055541197,17.981823213483082,18.534841863064294,19.13131830721019,19.78118191242457,20.496876614663254,21.294355408424757,22.19457043822577,23.225781020746453,24.427266962636395,25.855572271473907,27.59556173870362,29.78122974496958,32.63769302067378,36.57213122570496,42.3761702801032,51.506924218925086,64.03663124598212
D2,0.0,0.0,0.0,0.0,0.011571459190586915,0.043322491553405756,0.09875013112846201,0.17760483981820252,0.2776490094207048,0.3959469763803124,0.529613151265082,0.6761601456377937,0.8336033352180053,1.0004383286198983,1.1755645872194527,1.358195944054645,1.5477778405412816,1.743918962511404,1.946338589809478,2.1548280529829005,2.369223667253943,2.589388441545813,2.815200200034528,3.046544220196178,3.283308947283699,3.5253837346287322,3.7726578678601292,4.025020364096919,4.282360206762402,4.544566796583429,4.8115304819980995,5.083143087800595,5.359298397320666,5.639892566671959,5.924824463884139,6.2139955874601025,6.507310371764931,6.804676447212831,7.106004793276101,7.411209804370229,7.7202092957773285,8.032924469395875,8.349279851962475,8.669203213714653,8.992625472721523,9.319480588530663,9.64970544783511,9.983239744255195,10.320431768328957,10.662108750352658,11.009540777756817,11.364391173902135,11.728687725431438,12.104825917529796,12.49560788286033,12.904320431178316,13.33485880659775,13.791908813751034,14.281209355337412,14.809932475060304,15.387243335226975,16.025147464805592,16.73981639001725,17.553747679747676,18.499459796633897,19.626189087272373,21.012879082158726,22.79526436496274,25.2248798207307,28.765622604592334
R2,0.0,0.0,0.0,0.0013180983165700243,0.01257627621501135,0.040178439092131445,0.08695789846365504,0.1531316787815865,0.23750295652537556,0.33834365181077963,0.453910654430834,0.5826912947879352,0.7234830435571935,0.8753857193275646,1.0377556331144246,1.2101493697035253,1.3922708663729575,1.5839272653060277,1.7849946850428395,1.9953930361392698,2.2150682658100402,2.443980323896447,2.6820953366873552,2.9293807632876074,3.185802597536214,3.4513239276912384,3.7259043651896597,4.009500004965173,4.302063690458412,4.603545435121737,4.913892906765106,5.233051918032508,5.560966890732029,5.897581277483302,6.242837894486339,6.596679027003394,6.959046779747525,7.329883390709552,7.709131468433339,8.096734166041283,8.492635309792625,8.896779495082521,9.30911215812543,9.72957962853837,10.15812916628322,10.594708985429726,11.03926826661316,11.491803397166887,11.95263404582948,12.422456851440105,12.902328978113765,13.393643804533935,13.898122384237553,14.417829087367084,14.955215168448827,15.513194236000826,16.0952565188441,16.70563401319011,17.349536840103696,18.03349454475385,18.765858895676235,19.557565601583327,20.42332934205224,21.383599770660258,22.467930501511663,23.721146114573987,25.21544969504784,27.075824836803328,29.531531044558797,32.94381966498145
G2,0.0,0.0,0.2892864928873345,0.7154306695737849,1.2088096990360035,1.7387001203521075,2.2922780068984285,2.8647308833591687,3.454671111495072,4.062051131044877,4.6872452825099,5.330667464133386,5.9926296084198825,6.673304576629494,7.3727313784364075,8.09083511966547,8.827449911427612,9.582340118957593,10.35521846733456,11.145760834242195,11.953618055767425,12.778425212598716,13.619808860369165,14.477392612234864,15.350801413840735,16.239664786430396,17.14361925831203,18.0623101590801,18.995392914088693,19.942533947331267,20.903411277727212,21.8777148756212,22.865146832037645,23.86541271649979,24.87823521169641,25.903350096274934,26.94050487670769,27.98945819132702,29.04997940483238,30.121848226800246,31.204854314982153,32.298796859964796,33.40348415593264,34.51873316286458,35.64436906445015,36.78022482489768,37.9362886080959,39.12156896625223,40.345041136831874,41.61626069036294,42.94585763200253,44.34603210098336,45.83113578811069,47.418417801199006,49.12903146993358,50.98944082303638,53.03344306499157,55.305161300443466,57.86361154014538,60.78991722300428,64.1991671227825,68.26082575880966,73.23581777314028,79.54830032157192,87.93480731638242,99.7760562731103,117.84241270067304,147.10570980882173,183.66604423018444,227.3941474232533
H2,8427.43455577616,8929.067565048552,9386.47206963912,9805.734413197593,10189.616916282686,10540.684237960048,10861.317498328235,11153.7273922483,11419.966366334378,11661.939926115767,11881.417135501568,12080.040366241108,12259.334350952367,12420.714589464022,12565.495154663515,12694.895940744049,12810.049393679614,12912.006760912253,13001.743894594007,13080.166640272953,13148.115840634926,13206.37198179739,13255.65950768792,13296.650826215931,13329.970029252903,13356.196346863742,13375.867354771797,13389.481952684093,13397.503129844335,13400.3605330121,13398.452850981052,13392.150028740904,13381.795323451875,13367.707213531081,13350.181171343296,13329.491309238985,13305.89190798662,13279.618836000043,13250.890867161634,13219.910904484748,13186.867116341597,13151.933991502226,13115.273318784164,13077.035096698015,12443.833330730446,11820.661211554965,11208.141070032549,10606.882087017031,10017.483914535289,9440.539958306585,8876.640288082535,8326.374126272007,7790.331846470843,7269.10639160085,6763.29399632776,6273.494070573387,5800.308071125166,5344.3371582963255,4906.178407253549,4486.419323628168,4085.6304071000045,3704.355523976539,3343.0999020193817,3002.3156613181854,2682.3849573285024,2393.3829896978145,2383.288006308671,2373.193830119566,2363.1046769398527,2353.024426058981
S3,144556.59327663315,143922.84099132,143329.5025291502,142772.67364858504,142249.2057636372,141756.30131729745,141291.42146581953,140852.23777345533,140436.6038928512,140042.5366012753,139668.20145218066,139311.90090509757,138972.06395281764,138647.23678052236,138336.0742230853,138037.33189192275,137749.8588914643,137472.59106870467,137204.54475125813,136944.81093607968,136692.54989531828,136446.98616888444,136207.40391581279,135973.14259864407,135743.59297695835,135518.19338792906,135296.42629336333,135077.81507416762,134861.92105454457,134648.3407394922,134436.7032503525,134226.41122188815,134017.51197234762,133809.64676659447,133602.5273488037,133395.9038812543,133189.55276530405,132983.2714435204,132776.8756997194,132570.1978930364,132363.08557674213,132155.40030593466,131947.016561738,131737.82076303623,132575.436710766,133444.11524679192,134344.93263022602,135279.06056732836,136247.772362063,137252.4475588236,138294.5752282304,139375.75559769673,140497.69936372788,141662.22360989833,142871.24267177162,144126.7513639835,145430.79639671862,146785.42890605805,148192.62537454296,149654.15249810746,151171.32553334528,152744.54756382425,154372.35719452015,156049.26829105278,157760.39706201796,159391.07998815455,158677.15980382886,157951.50899561966,157124.58571936155,156231.88929765232
E3,0.0,2.755109456069851,3.946726718359262,4.450075698338975,4.653026030168114,4.727571782831825,4.7498227171482625,4.753237864100643,4.752300587222519,4.75306599567553,4.757864878698198,4.7674019253656486,4.7816904102609215,4.800466856819763,4.823373244310521,4.850035416008857,4.880095295651147,4.913222709927763,4.949118358776526,4.987513081783817,5.028165701472123,5.070860439361,5.115404326567713,5.161624775791578,5.209367369801903,5.258493873883062,5.308880460503579,5.360416127793648,5.4130012920867445,5.466546535625392,5.520971492152016,5.5762038549054065,5.632130530889317,5.688720849440969,5.745928492521342,5.803705968948442,5.862008620572166,5.920795388006738,5.9800286512778875,6.039673856335413,6.099699129097367,6.160074924522619,6.2207737154643254,6.281769716390958,6.3430386362331195,6.46144963241232,6.632174793147222,6.855714875126976,7.136091977567077,7.480241787947838,7.898098746452245,8.403177731059346,9.013637819681396,9.753952016314853,10.657459364045708,11.770301675547543,13.157636492242167,14.913743400357191,17.17906842123161,20.170210017369925,24.235334653005467,29.962613920064776,38.40676190811667,51.59690462633431,73.74399359080013,114.01053049400534,187.19970295032996,235.1936312595149,282.4564413421985,321.4207054616368
I3,0.0,0.0,0.4959197020925732,1.0079626305602112,1.4057912040371423,1.681019407852546,1.8595745656212563,1.970712828459441,2.0380105126137806,2.0782204132683217,2.1024841271825885,2.1179061544752287,2.128876039250954,2.1380298973975385,2.1469019726660803,2.156348367575542,2.1668153954269194,2.178506390473358,2.1914839220710123,2.205731657822382,2.221191349414516,2.237784635913692,2.255425660633195,2.2740281751621056,2.2935093647397475,2.3137917454081913,2.334803944543866,2.356480849616964,2.378763412773035,2.401598280239435,2.4249373445562314,2.448737275321102,2.4729590590756345,2.497558931005458,2.522505111502649,2.5477701955554313,2.5733291917439782,2.599159066749377,2.625238609890839,2.6515483231645236,2.6780702880390885,2.704788016060979,2.731686296050659,2.758751046413974,2.785969176798757,2.813328460601216,2.851058010194947,2.9044262688834683,2.9766844388529368,3.070507219273836,3.1887478533949123,3.3349064863983515,3.513515883429693,3.730564337600467,3.994049965496954,4.3147726648264,4.7075179004943974,5.1928853089002285,5.800204997404432,6.572355314264349,7.574050991685196,8.906790832552103,10.737345005142922,13.355624146546756,17.30081732066823,23.65440923874496,34.71454103216794,54.52467115036016,75.04965631692878,95.871953231753
A3,0.0,0.0,0.05510218912139703,0.13177712637446226,0.21537480395632508,0.2996033653719733,0.38186884813690736,0.46120585662153313,0.5373577641737228,0.6103681350019498,0.6803998490433104,0.7476557227381101,0.8123443493347201,0.8746660337078987,0.9348075972204376,0.9929410397634857,1.049223824826605,1.1037997972069153,1.1568002995352442,1.20834530242232,1.258544473588639,1.307498160017854,1.3552982781558323,1.4020291158169853,1.4477680526461958,1.4925862068062394,1.536549015395142,1.5797167555555167,1.6221450125841161,1.6638851006962636,1.7049844414899482,1.745486904601911,1.7854331145542428,1.824859768103374,1.8638014437541737,1.9022903756763982,1.9403565263769036,1.9780277365152545,2.015329883890438,2.0522870327208875,2.0889215693331735,2.125254324567341,2.1613046841441723,2.197090688283645,2.2326291217127197,2.2679355950390767,2.304162461868506,2.3423182625541994,2.383380194972701,2.4283658266476857,2.478389711061279,2.5347193855668144,2.5988407066750527,2.672541781353402,2.7580268510443946,2.858076547857597,2.9762803136828633,3.1173835475849296,3.287822643909585,3.4965789776781664,3.7565975903886057,4.087256010421823,4.518900576079223,5.101727483238443,5.924457032838546,7.156390367909209,9.143136066854138,12.512193953630732,16.70297412642052,21.6671575321283
IH3,0.0,0.0,0.0,0.09918394041851464,0.2681273053094174,0.4610239628212227,0.6454689444584828,0.8049097459277605,0.9340938117619817,1.034212874921717,1.1094169352510197,1.1647182237121632,1.2048999556286515,1.2340487263694708,1.2554331375994312,1.2715526883015886,1.284255318136486,1.2948699285280725,1.3043286427708782,1.3132692636420253,1.3221163768603457,1.331143154246784,1.3405171733091814,1.3503336774059171,1.3606393082044859,1.3714487910140882,1.3827565071059795,1.3945444127880298,1.406787381446831,1.4194567480239213,1.4325226126100576,1.4459552961933455,1.4597262233562356,1.4738084223854369,1.4881750470967248,1.5028017325548362,1.5176666532203764,1.5327501697552097,1.548034500993503,1.563503476800094,1.5791423502901876,1.5949376452212891,1.6108770237413967,1.6269491671108143,1.6431436661499785,1.659450920080762,1.6758620431682614,1.6944168971398486,1.7175375549838825,1.7474990372259882,1.786362417746795,1.8360809591049014,1.8986649820281467,1.976369607117952,2.0719052777342117,2.1886898425007857,2.331176049350447,2.5053079929833277,2.7191930307685985,2.984135778674168,3.3162952925747406,3.739454370707172,4.2898668003055045,5.02520645671044,6.042144377510724,7.51336744393131,9.771014774524712,13.497520856567178,19.9593695158073,28.399117436565497
IN3,0.0,0.0,0.0,0.09918394041851464,0.29978462712637177,0.5779450216625366,0.9083694530164205,1.2712006716105075,1.6526312305862907,2.043707020803184,2.4389140332488166,2.8350217183528463,3.2302527320643635,3.6237254125939105,4.015094137947479,4.40432359110122,4.791550028705316,5.1769976075036475,5.560928909523283,5.943616404842253,6.325326572358307,6.706311576517627,7.086805387935189,7.467022466182476,7.847157876553072,8.227388170735491,8.607872638109775,8.98875470063745,9.370163323554468,9.752214372873532,10.135011885192684,10.518649235252003,10.903210197963704,11.288769907799194,11.675393994922294,12.0631410772736,12.452063705611952,12.842208906904627,13.233618631185456,13.62633016685177,14.020376529816156,14.415786822125812,14.812586557116749,15.210797950755714,15.61044018053095,16.011529614085394,16.414080010064783,16.820150812003124,17.232834557659785,17.655843099853776,18.093386112710004,18.550201822261887,19.031681101318938,19.544067466991688,20.094739659841863,20.692602256342834,21.348630766744687,22.07664803917612,22.894458620564404,23.825555033839645,24.90177054635412,26.167563039227616,27.68724557534576,29.557842120620887,31.93338852872403,35.07421810757044,39.454357774243725,46.00272240293488,56.44762940897756,70.89308437827354
D3,0.0,0.0,0.0,0.0,0.019836787183863273,0.07346224581317974,0.16566703419481527,0.29476081723053804,0.4557427591136004,0.6425615129914932,0.8494040785930096,1.0712874555781027,1.3042310897537073,1.5452110699480635,1.7920208040261332,2.0431074201561863,2.2974179462804276,2.5542689982564046,2.8132429722143986,3.07410868893514,3.3367625297489973,3.601185793126254,3.8674144118989036,4.135517834398987,4.405584557629359,4.677712406925947,4.952002152686387,5.228553441562617,5.507462311468313,5.788819774994694,6.072711111721552,6.359215621247098,6.648406667367435,6.940351898795414,7.235113569901473,7.53274856581945,7.833308898696349,8.136842215571495,8.443392235616763,8.752999121771024,9.065699802946263,9.381528258677637,9.70051577325193,10.022691163385634,10.34808098204741,10.676709700370095,11.00859986933099,11.343772262760496,11.682655626815981,12.026163122230512,12.375662913821643,12.732935381164348,13.100151556327607,13.479884535507725,13.875158439000835,14.289539475750455,14.72727742439387,15.193512613114521,15.694574188981948,16.23841277046597,16.835239899127433,17.498498927555517,18.246389767771003,19.104363088912574,20.109404334663814,21.31783315534901,22.82050657597075,24.774709442228815,27.474213491086896,31.466087213168315
R3,0.0,0.0,0.0,0.002259597114120041,0.021467646940498093,0.06793357706578258,0.14555309172572403,0.25367656073347844,0.3892779751540113,0.5485042138612257,0.7275683466642529,0.9231710708661867,1.132636564763371,1.3538976728310697,1.5854145347523427,1.8260737261759852,2.075091402900025,2.331930253437611,2.596232771276746,2.8677698714827478,3.1464025035328262,3.432053625975845,3.7246881217379544,4.024298630017327,4.330895694369254,4.644501007212538,4.965142845037958,5.292853034819245,5.62766497871179,5.969612402128057,6.318728590510508,6.675045951895925,7.038595793175215,7.409408233581455,7.78751216438121,8.172935083183077,8.565703248202924,8.965841852470952,9.373375163991263,9.788326634515542,10.210718986666055,10.640574286257339,11.077914003510013,11.522759064958004,11.97512989694616,12.435046461256059,12.902528283287579,13.377641133203374,13.860776238284616,14.35270870185152,14.854586355938252,15.367911079467033,15.894536430395767,16.43669049554025,16.997028434256197,17.578719712905524,18.18557838062684,18.822250631982413,19.49448333218401,20.209512623136998,20.97663818140319,21.808096251670147,22.72043449150292,23.73677130174157,24.89070392863219,26.233495927692633,27.848264116237367,29.879943124342866,32.59664432274655,36.424375658518656
G3,0.0,0.0,0.4959197020925732,1.2063305113972405,2.007344137098256,2.8448888225285165,3.6958517434382454,4.550819832524933,5.406402648063049,6.261816753763103,7.117368632984698,7.973784311150374,8.83191665771619,9.692620931563157,10.556704965790715,11.424912149766609,12.297918524648203,13.17633567786541,14.060715765652407,14.951557070232182,15.849309424953269,16.75437925121825,17.66713413030323,18.58790690908542,19.5169993687279,20.454685495292246,21.401214392591196,22.35681287548184,23.321687778484698,24.29602801106031,25.28000638747288,26.273781256060243,27.277497949943218,28.291281445503294,29.31525119840267,30.34951832705651,31.394185401467233,32.44934695317022,33.51509012301143,34.59149528024145,35.67863657438183,36.77658241761935,37.88539590403342,39.005135172817,40.13585372176737,41.27760067628933,42.44066161012355,43.63445307289005,44.868481750412904,46.152978306374976,47.499421828205584,48.92107960256699,50.43365159415767,52.056106401700326,53.811817764637,55.73016045016523,57.84881475176379,60.21718932036738,62.90166313243168,65.99389544825337,69.62453325137996,73.98689348892094,79.38016399453261,86.2933811379936,95.58082397073377,108.8547428170778,129.37663830599877,163.07258483705817,205.40743846377086,256.2495979053666
H3,25282.303667328484,25171.94440528856,25068.476625304593,24971.316368541804,24879.956998961068,24793.928987258805,24712.797248531173,24636.158670249704,24563.63981695296,24494.894799029953,24429.603293872748,24367.46870851311,24308.216473635515,24251.592459580843,24197.361505625577,24145.30605444374,24095.22488423699,24046.931931555013,24000.255198326726,23955.035737085836,23911.126708803848,23868.392508142802,23826.707951310626,23785.95752204599,23746.03467157913,23706.841168711842,23668.28649643524,23630.28729175985,23592.766825669994,23555.654520335174,23518.885500915858,23482.400179491335,23446.143868813917,23410.06642375775,23374.121908482757,23338.268287475676,23302.46713876146,23266.683387700195,23230.885059897933,23195.043051864996,23159.13091815284,23123.124673791346,23087.002610932395,23050.74512868396,23014.334575191333,22970.68932671629,22919.989072940734,22862.419414833283,22798.171658840827,22727.442655904477,22650.43468089464,22567.355347697692,22478.417554636784,22383.839454139466,22283.844439540695,22178.661140596043,22068.52341764552,21953.670342392823,21834.346150947837,21710.80015215724,21583.286571408647,21452.064307207624,21317.396575171093,21179.550412068707,21038.796011745733,20895.405865901765,20749.770138325177,20605.22786343805,20461.769938744157,20319.38738778962
S4,72278.29663831658,73478.77929219228,74675.45270251247,75867.83394875261,77055.85475149484,78239.62296389154,79419.31499268321,80595.1278879,81767.258359636,82935.89395172025,84101.20968785378,85263.36716012673,86422.51468583934,87578.7879103087,88732.31057500196,89883.19532570268,91031.54450604501,92177.45091379678,93320.99851173919,94462.26309144664,95601.31289107661,96738.20916942881,97873.00673893372,99005.75446029706,100136.49570144946,101265.26876331434,102392.10727475188,103517.0405588787,104640.09397281082,105761.28922273275,106880.64465606044,107997.90106462668,109113.4514700151,110227.23032559062,111339.21769399726,112449.4082896027,113557.80068924566,114664.39362743923,115769.18477888087,116872.17041064554,117973.34533428088,119072.70295708187,120170.23536197993,121265.93339142947,123335.00228119279,125407.26287207288,127482.43413939627,129560.180650276,131640.1109804223,133721.7730189443,135804.64692969547,137888.13579102024,139971.55337738947,142054.10793276923,144134.87988217536,146212.789892009,148286.5508915935,150354.59232481619,152414.9342279205,154464.96633084223,156501.03763839373,158517.64414057296,160505.70279010854,162448.5835685414,164312.26690465046,165996.32998638207,166717.562756654,167429.9668021663,167971.59334386847,168403.54579526483
E4,0.0,4.132664184104777,5.9752072951508515,6.800668219536464,7.1829041926753785,7.37978272976741,7.506243658859294,7.61266709470862,7.720395799418994,7.837830116328307,7.967704536139593,8.11036087396386,8.265205788454107,8.431347147140235,8.607861197477481,8.793895642798361,8.988701379899691,9.191634560422568,9.402147443554492,9.61977602124383,9.844127694051378,10.074870198372754,10.311722094701661,10.554444766571372,10.802835753322075,11.056723212607078,11.315961320606643,11.58042644302877,11.850013937114738,12.124635469777928,12.404216758374709,12.688695658346608,12.977902987869964,13.27186279471541,13.570555995204955,13.873955131087843,14.182034457872554,14.494772249903495,14.812150815185536,15.134155936123356,15.460776234108437,15.792002580361034,16.127827568888662,16.468245042342037,16.813249658824365,17.32163258945147,17.982015144475227,18.79801354740867,19.783518588231587,20.96120576377602,22.36298096869887,24.031878937933634,26.025428388092074,28.420897889865017,31.32329934513523,34.87772642198712,39.28882139812403,44.852433316366536,52.00899661323551,61.4374141560334,74.22850378008327,92.2242723922059,118.72636515057955,160.08330439786744,229.4602374418645,355.4686417553412,584.2825359394027,736.7148114099119,889.2531835632526,1017.5383655330229
I4,0.0,0.0,0.7438795531388599,1.5218650450104692,2.137239306522845,2.5752663385952754,2.873520694515299,3.0752362753038525,3.215421842229863,3.3189243492333365,3.4021640304790974,3.4754852347925853,3.5451560981890458,3.6148307008351668,3.6865409069863424,3.761339559737752,3.8397049515463566,3.9217892193097583,4.0075677524619175,4.09692719131696,4.189715998614066,4.285772584097687,4.384940186165708,4.487074088745723,4.592044511230281,4.699737142336142,4.810052463670959,4.922904515911771,5.038219469292241,5.155934190255998,5.275994898713625,5.398355955735623,5.522978791943763,5.649809812982852,5.778821190838485,5.909992793639983,6.043307599779801,6.178750762284941,6.316309462353594,6.455972824145553,6.597731762989536,6.74157877993324,6.887507732424931,7.035513601854918,7.185592268734517,7.337740299829096,7.520538045998723,7.749085553604775,8.033093770696425,8.38088960829954,8.801550802459408,9.306267055841442,9.90949844233292,10.630276175256325,11.493927325329498,12.53455027732204,13.798720922350906,15.35122040507287,17.2841702399897,19.732121534376212,22.89800746871174,27.099935161642037,32.86033012758229,41.086943803653696,53.467161073808356,73.38313938382063,108.0142391462538,169.97939995684476,234.59630602789102,300.8233566581201
A4,0.0,0.0,0.08265328368209555,0.19876803391393255,0.32663043945942005,0.4568942605775535,0.5857538727557021,0.7118585067814555,0.834920387261247,0.9550903949621881,1.0726812302912632,1.1880474604410953,1.3015359490303817,1.4134674688782154,1.524131796097291,1.6337883487865277,1.7426688610516092,1.8509805821226561,1.9589093855120214,2.0666225677276735,2.1742712847229297,2.28199264195077,2.3899114772549193,2.498141880414481,2.606788490354836,2.7159476058186542,2.825708139741302,2.936152442494085,3.0473570147884437,3.1593931273859206,3.272327361758211,3.3862220833915737,3.501135857435105,3.6171214637973534,3.734229998975839,3.852510082460375,3.972007790817244,4.092766796243045,4.214828545538343,4.338232432038571,4.4630159493092725,4.589214825830453,4.716863142374708,4.845993434031153,4.976636778562741,5.108822872476452,5.245756017925259,5.390281543190095,5.545200421527657,5.713476581383644,5.898405918162357,6.10378728908372,6.334124464836073,6.594887102546236,6.8928659343765,7.236673460305548,7.637470877504028,8.110054537100023,8.67453101129513,9.358991042916983,10.203951504013743,11.270084132052423,12.652412812865538,14.508097653636284,17.114824482151427,21.002194900535173,27.250322479434786,37.81850852004618,51.0019663137867,66.69557231822144
IH4,0.0,0.0,0.0,0.14877591062777198,0.4041751777981566,0.6985775028411774,0.9836744951845764,1.234574729474777,1.4432272676883997,1.6112331149274526,1.7446356515845696,1.8507729576187737,1.9366364490031998,2.008169749285937,2.0700907885304347,2.1259708313405667,2.178416129556579,2.2292706730024547,2.279801878183809,2.3308550339893,2.3829745069491444,2.4364951627101465,2.4916093184976016,2.5484146326360246,2.606947673273268,2.6672070150095766,2.729168839398645,2.7927972648218344,2.8580510292317873,2.9248876871819762,2.9932661386175536,3.0631480566955323,3.1344986031367137,3.207286693777841,3.2814807578042013,3.3570540512126907,3.4339846071608484,3.512254285483775,3.59184794796336,3.6727528757879773,3.7549583617296625,3.8384554062090097,3.923236472318803,4.009295275624769,4.096626596667573,4.185226110220806,4.27509022818008,4.3719326137376875,4.482606127707225,4.61365001018048,4.771116310133374,4.960880422978267,5.189121634337065,5.462877160344583,5.790673963770996,6.183297533831945,6.654802692006465,7.223932901377572,7.916217920143162,8.767207977210276,9.827661173244618,11.172213800022405,12.914554955257987,15.235434901109732,18.437655195437692,23.06181879195787,30.14700558850067,41.82612542670444,62.05376928478542,88.54630102983336
IN4,0.0,0.0,0.0,0.14877591062777198,0.45166116052358807,0.8745924102229212,1.3808997538397472,1.9417948952044095,2.537424201313136,3.1551343277459774,3.787367854315185,4.429926981867853,5.080724759007691,5.738948731055424,6.404525383911903,7.077788311470052,7.759278340302902,8.449626547209144,9.149488125599005,9.859506794835399,10.580297165150437,11.312437393221746,12.056467536109066,12.812890897981116,13.58217680675045,14.364763940929002,15.16106372998694,15.971463585421263,16.796329852749405,17.63601044808036,18.490837181650754,19.361127789576972,20.247187702828327,21.149311584188798,22.06778043094348,23.002866864801742,23.954836754881722,24.923949907288865,25.910460560672963,26.914617847536952,27.936666233890694,28.976845924149693,30.035393220894843,31.11254083517088,32.208518147190155,33.323551419465154,34.45786396523632,35.6173929347837,36.81103611615682,38.049544509134535,39.3452269857031,40.71208487633795,42.166217438742855,43.72645495282201,45.415245638345056,47.259878647027506,49.29418991602164,51.5609922013316,54.11562636033286,57.03130414472747,60.40741541015544,64.38294274979623,69.15910035462667,75.03957537659686,82.50656838356163,92.37493491448768,106.12781344210693,126.66938313693662,159.39856929693622,204.72384480954506
D4,0.0,0.0,0.0,0.0,0.029755180775794914,0.110590212668574,0.2503057068990119,0.4470405970116062,0.6939555317059651,0.9826009721500624,1.3048475805177484,1.6537746950065721,2.0239292697393134,2.4112565419699488,2.812890473608151,3.2269086125334776,3.652102759513863,4.087785965661644,4.533640080037227,4.989600434990638,5.455771420641972,5.932366300412425,6.419665310849515,6.917987151944077,7.427670055350961,7.949059566354257,8.482500945158115,9.028334688277642,9.586894115904542,10.158504295821423,10.74348180672197,11.342135007289274,11.954764590838174,12.581664283027989,13.223121592685663,13.879417714475489,14.55082849426138,15.237625384538953,15.940076209771016,16.65844576677689,17.392996308613682,18.143987946893006,18.911678993310677,19.696326252181137,20.498185270932026,21.317510553099172,22.15455573717315,23.009573744023697,23.88396022710717,24.78048141198047,25.703211372159537,26.65743459090058,27.649610630488976,28.68743491027843,29.78001029278576,30.93814503300446,32.1748044836733,33.50576496169934,34.95055147643621,36.53379498864549,38.287236504547636,40.25276865003576,42.48721130868108,45.070122182566244,48.117209024565724,51.80473989637887,56.41710344554364,62.446504289737085,70.81172899561325,83.22248228959167
R4,0.0,0.0,0.0,0.003389395671180062,0.03224667467861386,0.10236805338799297,0.22009080105264,0.38498905224273483,0.5930782447619488,0.8391234758253415,1.1179763109221568,1.4252062356110597,1.757303215161079,2.111653705796841,2.486416978115458,2.8803729028767,3.2927766533334393,3.7232349839790295,4.171607661575222,4.63793234922013,5.1223692002503185,5.6251610327463695,6.146605325936886,6.687034922032605,7.2468049901085045,7.826284407285085,8.425850202298172,9.045884087448865,9.686770391014795,10.348894911678485,11.032644366897632,11.738406213345712,12.466568691521925,13.21752099750317,13.991653422973416,14.789357086671796,15.61102437257865,16.457049375214577,17.327828234735577,18.223759377786017,19.145243694763785,20.092684675102916,21.066488512866563,22.0670641891054,23.09482353434965,24.150181273110853,25.233555051578293,26.345495685646913,27.487468121273306,28.662026381136247,29.87279826625235,31.124451613467944,32.42270902545874,33.774437012567454,35.18782373718023,36.67266180932359,38.24076315365618,39.906551318255914,41.68790597991357,43.60738262288131,45.694013081291246,47.98604140443222,50.53523081740869,53.41393948897535,56.72735612658682,60.63599388730433,65.40006602371298,71.47313598316425,79.69367967640314,91.39509920275466
G4,0.0,0.0,0.7438795531388599,1.819416866266013,3.043537145782577,4.3364599004641455,5.6648207918222795,7.0159446504169525,8.386224727464505,9.775895971359924,11.18670539229902,12.620892208804147,14.080757166117642,15.568494208039382,17.086136694524626,18.635551710070573,20.21845292577428,21.836419174156223,23.490913395032287,25.183299934872096,26.914859618695985,28.68680260362523,30.50027923933233,32.35638921637863,34.256189274361475,36.20069970995945,38.190909888228724,40.22778292593792,42.3122596856831,44.44526219436376,46.62769657892378,48.86045559543123,51.14442081393362,53.48044335175022,55.86937865479899,58.312078733935884,60.809390657531694,63.362156859948755,65.97121586493138,68.63740301166477,71.36155108016698,74.14449080230649,76.98705126677147,79.89006022917144,82.854344336793,85.88072927538138,88.99862314148265,92.23538586748819,95.61902830602175,99.18006165190343,102.95307868938312,106.97841526374891,111.30415347257697,115.98873058243355,121.10449220260925,126.74268608473359,133.02067684069127,140.0926646923536,148.16610268929958,157.52772207968198,168.586456627768,181.947587308183,198.54795633878007,219.9187020658844,248.73369685750055,290.03653959703615,354.02089511299755,459.19175158209003,591.8004176358742,751.8659906772597
H4,12641.151833664242,12851.837697558645,13061.60390093605,13270.507872813589,13478.602175884771,13685.935150876114,13892.551225769937,14098.49120284103,14303.792525093111,14508.48952356772,14712.613646892969,14916.193674341908,15119.255913579518,15321.824384193147,15523.920988022988,15725.565667236535,15926.776551023566,16127.57009172554,16327.961191155166,16527.963317807888,16727.588615616936,16926.84800485697,17125.75127575816,17324.307175352416,17522.52348803613,17720.40711029929,17917.964120038556,18115.199840842182,18312.11890160685,18508.725291820767,18705.02241282356,18901.013125331192,19096.69979349362,19292.084325733736,19487.168212598386,19681.952561835744,19876.43813089804,20070.625357054385,20264.51438528522,20458.1050941177,20651.39711954991,20844.389877201185,21037.082582816114,21229.47427124055,20446.348259686918,19666.428105329396,18890.164556236625,18118.057157400028,17350.658247537427,16588.577151407822,15832.484522628569,15083.116767869284,14341.280451827644,13607.856542014315,12883.804301492342,12170.164574896244,11468.062137362867,10778.706687538845,10103.391966509585,9443.492379155849,8800.456392222908,8175.795899316497,7571.070699553634,6987.867264382905,6427.771104337051,5916.513589488327,6090.641971704175,6263.556722856885,6435.266955052202,6605.781704541737
E_Om,0.0,0.0,0.0,0.0,0.0,0.0,0.0,0.0,0.0,0.0,0.0,0.0,0.0,0.0,0.0,0.0,0.0,0.0,0.0,0.0,0.0,0.0,0.0,0.0,0.0,0.0,0.0,0.0,0.0,0.0,0.0,1.1995372555388237,1.6768269551949009,1.9131673183361668,2.076526533965309,2.2260066811026746,2.382871222927353,2.5552635369736,2.746825747822849,2.959711177970509,3.195641525145496,3.4562812596086765,3.7433734580969724,4.05879239756998,4.404567305883392,4.836763685190782,5.3617521691103995,5.995774493971682,6.763054857392448,7.696654156866961,8.841075646402139,10.256611885429116,12.026037499806119,14.264893871880844,17.137581959464946,20.883188131622333,25.858182420919874,32.60946677852333,42.00435227765457,55.47258509810257,75.48153652369379,106.5289461503184,157.37293469866677,246.47114509005618,416.3843394203941,773.0834910688995,1542.725801185819,2248.66622544023,3198.2951067395234,4224.991058031781
I_Om,0.0,0.0,0.0,0.0,0.0,0.0,0.0,0.0,0.0,0.0,0.0,0.0,0.0,0.0,0.0,0.0,0.0,0.0,0.0,0.0,0.0,0.0,0.0,0.0,0.0,0.0,0.0,0.0,0.0,0.0,2.0,1.2,0.9359167059969883,0.863378875533275,0.862397442620475,0.8912132416860405,0.9354091476101059,0.9901623086929872,1.0540448218710403,1.1268555277307373,1.208861328673134,1.3005322717300698,1.4024499897676037,1.5152772163180175,1.6397489613534066,1.7766714918710544,1.9366203584569734,2.127087605514056,2.3554919722233367,2.6306450576646427,2.963784782834839,3.369664486053288,3.867988831009214,4.48548004857063,5.2589689260809305,6.240146108352248,7.50306152870337,9.156309752987598,11.36348987192676,14.378877333133879,18.612391717538788,24.754111604788157,34.02767726993021,48.743734607718146,73.611046880841,119.11580922417556,210.62451392690727,404.06535256959177,647.1991321209965,964.0125984857121
A_Om,0.0,0.0,0.0,0.0,0.0,0.0,0.0,0.0,0.0,0.0,0.0,0.0,0.0,0.0,0.0,0.0,0.0,0.0,0.0,0.0,0.0,0.0,0.0,0.0,0.0,0.0,0.0,0.0,0.0,0.0,0.0,0.0,0.02399074511077648,0.05654348630605657,0.09248813171884925,0.1302259652502827,0.16940587156095394,0.21011640289968703,0.25260534776913923,0.2971831760031337,0.34419069232696964,0.3939891599072821,0.4469583168553406,0.5034971907472584,0.564025931617784,0.6289880448012649,0.6999301586776601,0.7784628911017817,0.8664556474159878,0.9661856574757937,1.0804979858273907,1.2130110934176856,1.3684009087327835,1.552807105139761,1.7744284116551456,2.044415367950356,2.378242986517712,2.7978810905848253,3.3353366172315093,4.038650203960463,4.982487390577139,6.2877993034431725,8.160531970488195,10.973348524390202,15.452783012785133,23.146791458144143,37.6592717098531,66.96947918553752,109.19655995494412,168.6845958619078
R_Om,0.0,0.0,0.0,0.0,0.0,0.0,0.0,0.0,0.0,0.0,0.0,0.0,0.0,0.0,0.0,0.0,0.0,0.0,0.0,0.0,0.0,0.0,0.0,0.0,0.0,0.0,0.0,0.0,0.0,0.0,0.0,0.8,1.28,1.6543666823987953,1.9997182326121055,2.3446772096602957,2.701162506334712,3.0753261653787543,3.471391088855949,3.8930090176043652,4.34375122869666,4.8272957601659146,5.347508668857942,5.908488664764985,6.514599551292191,7.170499135833554,7.881167732581975,8.655815875964764,9.506650918170386,10.44884770705972,11.501105730125577,12.686619643259514,14.034485437680829,15.581680970084513,17.375872989512768,19.479460559945142,21.97551900328604,24.976743614767386,28.63926751596243,33.184663464733134,38.93621439798668,46.381171085002194,56.28281572691746,69.89388663488955,89.39138047797681,118.83579923031323,166.4821229199834,250.73192849074633,412.358069518583,671.2377223669816
G_Om,0.0,0.0,0.0,0.0,0.0,0.0,0.0,0.0,0.0,0.0,0.0,0.0,0.0,0.0,0.0,0.0,0.0,0.0,0.0,0.0,0.0,0.0,0.0,0.0,0.0,0.0,0.0,0.0,0.0,0.0,0.0,0.0,0.2159167059969883,0.5177455579320704,0.8621156752325806,1.235890451346336,1.6365716539448176,2.065488474071741,2.5254359107269893,3.019864545335102,3.5526125573697938,4.127828031895983,4.749958658625545,5.423765881082999,6.154348512645596,6.947170627704606,7.817788091038947,8.782903481478819,9.862142890393724,11.079492764724364,12.464890512960416,14.056284129312802,15.902474268690042,18.067161018655145,20.634841915593697,23.719606668297388,27.478580531989408,32.13305336775499,38.00275738788918,45.56354079786701,55.54860611552547,69.13528268979036,88.31049299684769,116.63762124260771,161.0024273588178,235.9516084544888,375.10663684689075,652.797281060338,1057.5572016395797,1633.2503208526937
beta,1.0000081870611102,1.000008187061114,0.9990610489491071,0.9984639269036398,0.9980221240068189,0.9976494168391147,0.9973073471853596,0.9969786153664916,0.99665533483977,0.9963338255881693,0.9960122987243545,0.9956898237503524,0.995365866338857,0.9950400804752686,0.9947122142752969,0.9943820667488277,0.9940494674852448,0.9937142667143314,0.993376330112868,0.9930355358225043,0.9926917725323751,0.9923449381033982,0.9919949384922734,0.9916416868600676,0.9912851028082901,0.9909251117117753,0.990561644130443,0.9901946352879577,0.9898240246084862,0.9894497553046777,0.9890717740109138,0.9886900304569113,0.9882658953260826,0.9878534230905028,0.9874417359024574,0.9870269322360262,0.9866075347454492,0.9861829062111757,0.9857526968719972,0.9853166508031967,0.9848745374781553,0.984426127025552,0.983971180739801,0.9835094468994164,0.9830406584083566,1.0164935770979227,1.053054140557621,1.0932032873831474,1.1375246130894203,1.1867339310837954,1.2417189999346878,1.3035940394523602,1.3737759882137746,1.4540933037622215,1.5469445620652689,1.655535218871214,1.7842405933050676,1.9391792800135526,2.129150031136244,2.3672214762912422,2.673544723770276,3.080555058681343,3.6429964782261592,4.457586583156785,5.698153494689063,7.634559819089237,10.006552175781776,6.335059145944749,4.636702012451202,3.4644043488744787
