series,2021-12-01,2021-12-02,2021-12-03,2021-12-04,2021-12-05,2021-12-06,2021-12-07,2021-12-08,2021-12-09,2021-12-10,2021-12-11,2021-12-12,2021-12-13,2021-12-14,2021-12-15,2021-12-16,2021-12-17,2021-12-18,2021-12-19,2021-12-20,2021-12-21,2021-12-22,2021-12-23,2021-12-24,2021-12-25,2021-12-26,2021-12-27,2021-12-28,2021-12-29,2021-12-30,2021-12-31,2022-01-01,2022-01-02,2022-01-03,2022-01-04,2022-01-05,2022-01-06,2022-01-07,2022-01-08,2022-01-09,2022-01-10,2022-01-11,2022-01-12,2022-01-13,2022-01-14,2022-01-15,2022-01-16,2022-01-17,2022-01-18,2022-01-19
S,774330.9383061111,774271.6078686173,774220.9002851865,774170.2988486821,774115.5030049741,774053.9905046128,773983.9380676523,773903.7340374201,773811.7498777197,773706.2243709202,773574.8716009951,773427.5904994712,773258.741643525,773064.0512945207,772839.1518954748,772579.099686996,772278.1388539169,771929.511461359,771525.2545874091,771055.9640376193,770510.5139864879,769875.7245294873,786576.4660371663,803099.6166559092,819400.9338280495,835416.0125196595,851055.4007368009,866196.5167141575,880672.4206246107,894257.6213500163,906652.0776094411,917466.7149872633,926217.200323494,932336.2123700492,935214.5101086199,934273.039824113,929052.2016073426,919290.7416513364,904969.0106334365,886308.669371316,863738.096860454,837839.195582639,809289.0700256338,778805.3043825611,729659.0909819294,682420.8492225222,637118.482417995,594042.9622999872,553465.4515517178,515570.433769553
E,0.0,59.33043749390403,94.84917316513373,121.1688124643756,144.9449178482879,169.3508944134299,196.04877236811552,226.06347174915456,260.1744081696824,299.0941449207688,343.5530380096337,394.32912117429305,452.3022352737098,518.4487903412477,593.8586964232517,679.7475572631785,777.4666191460856,888.510730669326,1014.5236256327877,1157.2992545111267,1318.777351499262,1501.0308273694309,1706.2418900734124,1978.4824792366371,2323.1604591938503,2753.16685211313,3287.6666571788137,3951.8035045146753,4776.583199960773,5798.16678213205,7055.5623415458385,8585.407310710778,10412.572878534285,12536.439248551358,14915.579861493077,17457.536497143366,20021.915070205,22440.230252201967,24546.43066194775,26205.938307393015,27333.498882763517,27897.41963179001,27913.420452069076,27433.05297828683,26530.796867201338,25033.503762066237,23206.732825803818,21216.05444017157,19175.512517845782,17165.367513857047
I,19.05845667622661,15.829597476308573,15.50081508304127,16.636409124571056,18.623450282573486,21.216810820822165,24.338749607748635,27.990612501932528,32.21416571992773,37.075011155510296,42.65589680402829,49.05451755181017,56.38287379393415,64.76888548803068,74.35752501998786,85.31242961877457,97.81772420004303,112.0799299575039,128.3298652880461,146.8244341842181,167.84816444580116,191.71430947839642,218.76526342689587,249.37195891965902,285.59038062867353,329.3426670751578,382.73656902535436,448.28282949421566,529.0640220708735,628.8701662532903,752.2833296207895,904.6563542652921,1091.8882527695075,1319.865026991146,1593.450898775296,1915.043020686478,2282.965525899472,2690.258435484372,3124.4587859967214,3568.629468482547,4003.365468383775,4409.168154393494,4768.585392182571,5067.745217354571,5297.170375858065,5451.9431041324515,5521.111728706669,5506.112082061261,5414.70326806365,5257.852839545814
A,103.96327584186551,90.00959822713136,90.76454666701656,99.10244281240622,112.01535157508684,128.33894780173236,147.75172700616227,170.3349068995445,196.38053994137093,226.3101021786697,260.64265923553677,299.98561744878407,345.0331818134954,396.57673148241327,455.5126694933545,522.85288181674,599.7364306509344,687.4418306497092,787.3993995174948,901.2030938632283,1030.6210445333961,1177.603718876065,1344.288260004167,1532.9970774834183,1755.2755847289677,2022.2895605704043,2346.4950411184054,2742.8224837945454,3229.6380995465524,3829.5509631604027,4569.958852294006,5483.021463727222,6604.508402820399,7970.769111703881,9613.140216517162,11549.79002513031,13776.445536831106,16259.033806091093,18931.60423336152,21701.133670552015,24457.9691146977,27088.730620214857,29488.399253611213,31569.452356356822,33267.26723181153,34542.00791870522,35321.72547913021,35601.57997545575,35413.20127694935,34808.64672187432
IH,0.0,1.4783518370524749,2.0919095183601195,2.4249979704762152,2.707757759611727,3.0271493055375642,3.4149819600913425,3.8838162723265937,4.441097613543916,5.094417185613362,5.853300338293688,6.729732839800013,7.738297862698943,8.896206293296167,10.223439646946405,11.742921470104122,13.48074258966836,15.466434156032411,17.73327527041392,20.318620230194067,23.26422851085921,26.61657694097442,30.427127617663896,34.75251669061054,39.654617979694564,45.32907481371295,52.03932933903194,60.102846329372895,69.89992375679314,81.89193877943825,96.6425311440161,114.83654629406314,137.28945643421574,164.93544425708558,198.7770631985527,239.77756696586152,288.6858717347957,345.80968336436496,410.7889586427593,482.44652762746273,558.7805966940324,637.1159896643156,714.3767122257398,787.4112585625177,853.3017018008243,909.6075243202331,954.5209055096686,986.1357561755492,1003.4494449722125,1006.4778556568778
IN,1.7505073628655605,3.3225836957406667,4.437847954129435,5.409233712802644,6.385908718879218,7.445538720664033,8.635358086496028,9.990646062125053,11.543209459484256,13.325449190146482,15.37248900022357,17.723472787758364,20.4225276870885,23.51957007446475,27.071177666516622,31.141476777826107,35.80308723871338,41.13813842362153,47.23935701760271,54.211218504425744,62.1711455450419,71.25072548786518,81.59690497648114,93.37310091950415,106.76014290130348,122.10926926950083,139.91246350759855,160.80515630636657,185.5886184280958,215.26557873791074,251.08466783616316,294.5881021621055,347.6525536434227,412.50522372066007,491.6869184836557,587.9262327674858,703.8938098757934,841.8341443490156,1003.1236773473431,1187.8538325349723,1394.5510517700163,1620.1096397311765,1859.9495307122236,2108.3545421950266,2358.9170167899374,2605.011956391303,2840.2379623007005,3057.8402326444175,3251.8843698235423,3417.753544390204
D,16602.0,16602.0,16602.00750531944,16602.018125557996,16602.030436825153,16602.044183611575,16602.059551889924,16602.07688912309,16602.096606541534,16602.1191531745,16602.14501659036,16602.17473271593,16602.208898327564,16602.248184237684,16602.29334863521,16602.345251151528,16602.404867796635,16602.473307038847,16602.551827270683,16602.64185583649,16602.74500972153,16602.86311791619,16602.998245365136,16603.152718276622,16603.32915039017,16603.530469567257,16603.760596914457,16604.02479098548,16604.329922044108,16604.684791056756,16605.100541316508,16605.591177611423,16606.17418156348,16606.871174796564,16607.70852160767,16608.717676072552,16609.934982528284,16611.40058742113,16613.156199363235,16615.241699093778,16617.690991077416,16620.527817041988,16623.762337339616,16627.389096066967,16631.386637707288,16635.71869296763,16640.336602497482,16645.18252897471,16650.18895821415,16655.283285856298
R,0.0,14.1321086447246,27.158463098423077,40.65167566723381,55.49971800828482,72.29651670542323,91.52333742118952,113.63616596378239,139.11064082672024,168.46789726663698,202.29205861419223,241.2444059537779,286.07665470345694,337.6441786220561,396.92072098678796,465.0143068978993,543.1847201647488,632.8627384112124,735.6712315065946,853.4481548118597,988.2713827018831,1142.485213714133,1318.7282234574832,1519.9619316660937,1749.499470832788,2012.2473983744428,2314.727022228808,2665.289751899709,3074.4860055112918,3555.569043403637,4125.118250081097,4803.748902710873,5616.8309809638995,6595.0613900381395,7774.626242502494,9196.588081926478,10905.121475709999,12944.407114099253,15354.407595765872,18166.226316136013,21398.00746677498,25052.206011294125,29114.644691904956,33555.32141204438,38330.61073916538,43386.362873295046,48661.40426891635,54083.51001449078,59578.33466640399,65074.761603266146
G,603279.0,603279.0,603281.3530476368,603285.1147698186,603289.9203299978,603295.6688515126,603302.3853150805,603310.1606176068,603319.1263043684,603329.4448322974,603341.3069186164,603354.9322464983,603370.5713559659,603388.5096815678,603409.0713823149,603432.623843097,603459.5826596986,603490.4170183886,603525.6553911944,603565.891440694,603611.7899776171,603664.0927426324,603723.623688137,603791.2933129865,603869.7600110086,603961.8966521574,604071.087364866,604201.4763622384,604358.2050548024,604547.644544645,604777.6000821594,605057.4239802432,605397.9215939025,605810.8846705373,606308.080376394,606899.6328986427,607591.9995275656,608386.0695181399,609276.0499901565,610249.5624586702,611288.8910699335,612372.938780859,613479.3516123185,614586.3990369807,615674.395067506,616726.6075828621,617719.4373909343,618639.8173871351,619481.2469951552,620241.7486250402
H,383690.9330862726,383690.9330862727,383690.9330862726,383690.9330862726,383690.9330862726,383690.9330862726,383690.9330862726,383690.9330862727,383690.9330862727,383690.9330862727,383690.9330862727,383690.9330862727,383690.93308627274,383690.9330862727,383690.9330862727,383690.9330862727,383690.9330862727,383690.9330862727,383690.9330862727,383690.9330862727,383690.9330862727,383690.9330862727,371181.3519154405,358827.7008392887,346637.1941687744,334617.4914552038,322776.7241469176,311123.52086558525,299667.0303221775,288416.9406025338,277383.4932019074,266577.4897717109,256010.28905822386,245693.79096697335,235640.40409287595,225862.9924456614,216374.79652543564,207189.32344722177,198320.20059614265,189780.98747972952,181584.9412365063,173744.7328977712,166272.11422204555,159177.53891752564,159177.5286362849,159177.52863628487,159177.5286362849,159177.5286362849,159177.52863628487,159177.52863628487
S0,271015.8284071389,270373.41455636715,269372.11682485335,268374.42638719274,267377.9607492953,266381.3212130961,265383.49918530975,264383.60773015214,263380.7559193187,262373.98565751174,261357.89784871388,260336.4159622426,259306.88177110173,258267.19017912805,257215.1694980673,256148.37718677716,255064.0010785575,253958.7814566878,252828.9297894098,251670.03619936365,250476.96217823838,249243.7164440961,253609.51843227728,257776.8394871975,261722.66748482126,265414.8331852831,268810.17453282047,271851.4409287332,274463.0989676631,276546.304939686,277973.7827192303,278586.2831300943,278193.632426149,276584.45588891656,273547.93348945514,268906.7120819503,262553.153850367,254476.52670248025,244771.69507705176,233628.49572522272,221308.06370595397,208114.04864789755,194364.72895886115,180369.43935647377,163865.52485407627,148513.77469321905,134268.55198220513,121162.23951474816,109214.256543006,98413.63041023401
E0,0.0,32.70181594152191,52.38444516702771,67.02560496999169,80.29400213543134,93.94039617701577,108.88088390040554,125.67858438389567,144.759667244676,166.51182943876833,191.33072897815774,219.63584496050603,251.90021166774497,288.64651615214143,330.4556597427687,377.97253308055065,431.91038897168545,493.0539462957313,562.2608352083353,640.4606749472257,728.6507891013416,827.8872515174329,939.2696030007129,1086.8202974975743,1273.183448512738,1504.996268932676,1792.1650224243467,2147.6275593467853,2587.1936001812087,3129.0413425604693,3792.3297672061876,4594.247887671132,5544.882123509719,6639.932199718765,7852.882352247119,9130.285855079412,10394.457811645982,11555.069969990225,12525.99827779546,13240.712407537778,13661.112699138643,13778.790287191934,13610.711029122926,13192.160785900365,12569.239624101496,11685.600533907476,10671.57370034756,9607.656799912958,8548.031939549965,7529.383758955055
I0,19.05845667622661,15.829597476308573,14.444722836571987,14.075085775583393,14.348741160936633,15.10225939063411,16.26933409116465,17.831224867169983,19.79469962319171,22.182281558968647,25.02805410024928,28.376018115993446,32.27935646316426,36.80100238699077,42.01395685368952,48.00189167079033,54.859879465724454,62.69517341992999,71.62797800253342,81.79214644412363,93.33572347116386,106.42122615843235,121.22552208008446,137.93912196791266,157.67299200075675,181.45474554974567,210.40113119248167,245.8325822320086,289.35894154801736,342.9443286882428,408.9410526744239,490.06274333965064,589.2450078411064,709.3261343719638,852.4930029060715,1019.5103787136034,1208.8937621238788,1416.329169236881,1634.6510634951735,1854.4922007987516,2065.433727909314,2257.3109061790333,2421.3475979444206,2550.9273741054876,2641.954191188798,2692.8542827061433,2700.085782891874,2665.8757849185276,2595.266611922227,2494.595187774999
A0,103.96327584186551,90.00959822713136,85.00359700569909,84.92771213951005,88.02954335388085,93.58559661996925,101.34825016275934,111.30130964465471,123.55258187477624,138.28760346995054,155.75088482448072,176.2397171335788,200.10224184836767,227.7422120453793,259.62227047266487,296.2686398580304,338.2764330921638,386.31519673471774,441.13438199830244,503.5683940927155,574.540764348073,655.066835389573,746.2541487483697,849.2994739941118,970.4360736665268,1115.6326369945104,1291.4926743968256,1505.8765538517048,1768.3886751853597,2090.764703343488,2487.0979220467457,2973.7349871960846,3568.547294074845,4289.189725330847,5150.0172318174045,6157.721547028743,7306.533364714398,8574.651037591939,9923.657078541553,11301.65784945145,12649.331284846912,13907.07472784778,15021.466023675534,15949.923664766007,16663.215215367738,17146.005225617475,17372.826176779752,17349.82492213663,17099.738511447635,16653.97427573243
IH0,0.0,1.4783518370524749,2.0919095183601195,2.3430775957476433,2.461199498169887,2.5514627443832887,2.6626667277614677,2.8181887610413634,3.030237962126651,3.3064748939793582,3.653123858524199,4.0764664584366415,4.583587075126862,5.182751512263281,5.883672383236888,6.69768883133042,7.637918350257353,8.719402139159785,9.959250538343316,11.37678781404151,12.993690880000305,14.834112472426021,16.92477492473919,19.295015522197385,21.976758141234512,25.074837501683316,28.730235217721646,33.11197300265016,38.421260207734576,44.900567458240815,52.8439614091115,62.6057754547263,74.60359311400143,89.30918287872223,107.21843251258139,128.79079690964926,154.35412539248588,183.98487682666035,217.39310449071834,253.85352400677806,292.21563426064495,330.99884491219365,368.54935749697097,403.21985545625364,433.53433772109537,458.31243266980186,476.74219974631325,488.07436263345727,492.0437632506702,488.8865604395786
IN0,1.7505073628655605,3.3225836957406667,4.437847954129435,5.31223229843231,6.063538806589652,6.763398940123566,7.461131784387409,8.194939080177296,8.997407331622743,9.898423094522107,10.926895298915131,12.111916699041139,13.483656046923311,15.074091774672437,16.917723099002657,19.05223778893945,21.519167263498854,24.364541962659366,27.639551533782804,31.401208515957023,35.713008436836965,40.64557247494777,46.277250410874785,52.694650927264775,59.993052885900546,68.36006482626678,78.05855780237901,89.42718080980323,102.89134497656124,118.9809618982056,138.3523318879142,161.81091600464725,190.32931903495782,225.05064083840108,267.26215892184973,318.32080082365957,379.51542426491295,451.8671619940387,535.8968249084895,631.4139870459658,737.3872572297328,851.9334098809535,972.4275536489619,1095.7062723067877,1218.3208850349984,1336.7980195856524,1447.8737986736685,1548.2917172465745,1635.3317663067537,1707.014324429341
D0,16602.0,16602.0,16602.00750531944,16602.018125557996,16602.030020930528,16602.04251598616,16602.05546929163,16602.068987159204,16602.083294583437,16602.09867854233,16602.115464905146,16602.13401114078,16602.154706608664,16602.177976634328,16602.204288507262,16602.2341588261,16602.268161756216,16602.30693805808,16602.351204853545,16602.401766130515,16602.459523982623,16602.52549055319,16602.600800604527,16602.686724563297,16602.784681796144,16602.896253741343,16603.023554063693,16603.169412165633,16603.33751554164,16603.532573188942,16603.760525083377,16604.02880412292,16604.346642090797,16604.725390764692,16605.178797003857,16605.7231251982,16606.376972305337,16607.16059971338,16608.094656978003,16609.198321648873,16610.487089140734,16611.970613986497,16613.651034035167,16615.522091106155,16617.569163896726,16619.770137719115,16622.09690535668,16624.517237520417,16626.995100983742,16629.493116361435
R0,0.0,14.1321086447246,27.158463098423077,39.878456146419474,52.78048956916385,66.22391031519697,80.52143831733306,95.97761650384322,112.90830401711004,131.65216267557565,152.5789473817491,176.09673222610303,202.65903684542752,232.7720906097203,267.0029660767608,305.9883338362977,350.4439887122014,401.1752177769541,459.08803886837796,525.2013003988598,600.6595859550318,686.7468030951288,784.900248611073,896.724825766425,1024.006935463338,1169.3924065852032,1336.3903250942324,1529.4807470919743,1754.3026248571452,2017.9099422322238,2329.085356041198,2698.690691364117,3140.0093254048948,3668.9938338130055,4304.276551312567,5066.751260096976,5978.536797608742,7061.243609145765,8333.691449884242,9809.477851401378,11494.918195216933,13387.78842695579,15477.0650739441,17743.608079367434,20161.563573714855,22700.196795739717,25325.87614143171,28000.885850619114,30687.695678525564,33351.440992988246
G0,603279.0,603279.0,603280.2969553904,603282.3745246805,603285.032762982,603288.2172264708,603291.9429065192,603296.2611269366,603301.2455448591,603306.9867193273,603313.5905854595,603321.1787701872,603329.8895370008,603339.8799099498,603351.3276428743,603364.4335281854,603379.4239346839,603396.5535188069,603416.1080589753,603438.4073472576,603463.8080444604,603492.7063652856,603525.5404083681,603562.7918801772,603605.8952187122,603656.3897276247,603716.0779427078,603787.1552825863,603872.3302815726,603974.9384881556,604099.0363989039,604249.4403563646,604431.6484200822,604651.5586774233,604914.898666668,605226.3443097828,605588.4518293415,606000.6964616645,606458.9710208155,606955.7526373346,607480.8798461849,608022.6801482141,608569.147548316,609108.9489180007,609632.1505675025,610130.6471376278,610594.0985444129,611017.3336044926,611398.3736757245,611737.3889805976
H0,134291.82658019543,133989.66997038998,133507.30715849658,133026.680852726,132547.78480165618,132070.61277637022,131595.1585703753,131121.41599952194,130649.37890192366,130179.04113787673,129710.39658978037,129243.43916205717,128778.16278107377,128314.5613950619,127852.62897403968,127392.35950973313,126933.74701549808,126476.7855262423,126021.46909834782,125567.79180959376,125115.74775907923,124665.33106714654,118570.33009252347,112592.33378931004,106734.25368845408,100999.17978209408,95390.38636248073,89911.33659870966,84565.68533269184,79357.27944786478,74290.15501399741,69368.53023880711,64596.79306392905,59979.48203448138,55521.25885873473,51226.87087536174,47101.101488651446,43148.70655799673,39374.33479309414,35782.43048269711,32377.117457942753,29162.064152290408,26140.33104966021,23314.203754648635,23230.26871993996,23146.639752548173,23063.311849439,22980.28392678102,22897.554904644607,22815.123706987884
S1,77433.09383061112,72503.19459984175,68290.65258087161,64375.78379879382,60736.77458410275,57353.65679380373,54208.00431417234,51282.75078776419,48562.06172545973,46031.23297256446,43675.878716498715,41484.21907958144,39444.2280288074,37544.85134021512,35775.83325992425,34127.629526942874,32591.345051300043,31158.68017865668,29821.881148268658,28573.693369329234,27407.316943345646,26316.36410140515,25870.789629204035,25437.191390191114,25014.05999489952,24599.063464835,24188.992531067088,23779.60086246529,23365.371638270095,22939.242748908666,22492.353666965006,22013.938426104527,21491.569889406244,20912.009376529448,20262.826607287287,19534.6329771186,18723.313341125464,17831.4185067294,16868.195701121967,15848.370498520895,14790.229389430553,13713.578730416668,12637.956661679427,11581.268209369442,10397.380437594986,9318.404207222631,8336.216857537906,7448.17274465991,6651.263738486209,5941.064357053332
E1,0.0,9.343375983291974,14.474494212194626,17.880595550411492,20.601760152390536,23.09684542124045,25.57867901369282,28.155193229949262,30.889391995755815,33.82517647575411,36.998712641830764,40.44235424893821,44.19001957564616,48.276277306150575,52.73746392867853,57.61219837092488,62.94162597520161,68.76948101990598,75.14197258643159,82.10746187452756,89.71587610478427,98.01778438319823,107.06304144516936,119.23523955185277,134.55621423337695,153.4163333809937,176.46520973590515,204.5612772224431,238.73547227405808,280.1314836971487,329.88188184705365,388.87512438927683,457.38007456344104,534.5489068667857,617.9332967147353,703.2788163774815,784.8707863753829,856.4709305041068,912.5248711764464,949.1555480226436,964.6273554858208,959.2712510464665,935.0565158818548,895.0253232860185,842.7465679331729,775.1026323319728,700.7523607850096,624.9196529628225,550.9979071105676,481.17511186227483
I1,0.0,0.0,0.3705586829716779,0.881838154765852,1.4415834383017736,2.0144188984774964,2.589160498590784,3.1649597408256565,3.745392478322222,4.335927486118942,4.942848148455214,5.572807670660277,6.232615231856831,6.929271609153915,7.669962512477058,8.462097364670477,9.313361921987259,10.231771655748464,11.225718569754305,12.304005559426688,13.47586215218368,14.750934336448008,16.139239462561783,17.651074995160307,19.389527184620835,21.44108353950394,23.893060972910977,26.843746947445343,30.408822715708283,34.72525794352428,39.952175818208424,46.26665886923442,53.85102480009473,62.86736641096594,73.41669015348646,85.485789440658,98.89496434643459,113.26831504734933,128.046215888567,142.54356542557028,156.0375668420689,167.85904443897047,177.46531919036855,184.4837538264436,188.72549552431104,190.1752291755777,188.6965894974717,184.51972416574668,178.04296961296106,169.7317589425502
A1,0.0,0.0,2.0213858460763054,4.881554618953768,8.094729560908931,11.465348974371523,14.923370108183445,18.454195208934113,22.06853632988215,25.78929831890734,29.64580956078056,33.6712863623053,37.90148637435642,42.37470597507697,47.131580240107034,52.215151503023634,57.671040052205875,63.54764469984086,69.89632995724614,76.77156339597266,84.23096476168894,92.33522169729041,101.14781684602659,110.7344981639158,121.66786561421205,134.448390289989,149.59382522573372,167.69297199812218,189.44132204363166,215.664056955211,247.32303514006236,285.49604200372295,331.3084181516549,385.79263095223473,449.6591505289672,522.9934085806026,604.9489493310895,693.5565879197508,785.761822997318,877.7184625985794,965.2577607429906,1044.3950012626296,1111.7518868739073,1164.8295891712792,1202.122822686728,1223.1004473201326,1226.6281325226566,1213.597085950209,1185.9090604646537,1145.9447029199202
IH1,0.0,0.0,0.0,0.02874399113283227,0.08520293695295642,0.16161926294973022,0.2507150142175345,0.34736907427574615,0.44852260506548336,0.552665254723898,0.6593385120390118,0.768761799500594,0.881579442624631,0.9986961989667984,1.1211838969094152,1.250226353977193,1.3870901926644779,1.5331118655724878,1.6896942130708785,1.858308083029237,2.040495942680015,2.2378752105310245,2.4521394147343,2.6850553717850714,2.938454459603319,3.2214033533682382,3.54590982191762,3.9257648835174335,4.376652749276776,4.916713325738562,5.567173071113402,6.3527808031234025,7.301737065837522,8.44466584305877,9.812038658098732,11.429499501688781,13.31101149849961,15.45079614943166,17.816317928748862,20.345151758654254,22.94767063159823,25.515425451567737,27.933125965792797,30.091295891646475,31.89704692950141,33.28144161254265,34.203001669272496,34.62690748804778,34.55066125730096,34.003701831541925
IN1,0.0,0.0,0.0,0.03403558398959074,0.11156258632771503,0.23259943625125395,0.39391345445827597,0.5915742252010254,0.8219740300876355,1.082201329082907,1.3701436620229248,1.6844810189226909,2.0246390325444903,2.390727300355444,2.7834872654517646,3.2042447978427293,3.6548711711017425,4.137752849867014,4.655769260005721,5.212277124838402,5.811099553854055,6.456517689367397,7.153262270441781,7.906501914387329,8.721824211700536,9.61371561181018,10.603129769075581,11.716904514174374,12.9881697120428,14.457303517068079,16.173148874912762,18.19418548470216,20.58919706913458,23.436701922147392,26.822103009220786,30.831375462644864,35.54051786357606,41.00127685285162,47.22559831815618,54.172809222987155,61.74345623509058,69.78183496654148,78.08664876833774,86.42727463739263,94.56237071148145,102.25784934052642,109.30207698810945,115.4924670773493,120.6682218116601,124.72152063350725
D1,0.0,0.0,0.0,0.0,0.00014592793818116574,0.0005784875246027908,0.0013989986952201014,0.002671832552103547,0.004435361234070722,0.0067124277236331265,0.009518207225635098,0.012865547168117546,0.016768408946606774,0.021244025078361317,0.026314221367773824,0.032006265094124436,0.03835343355978876,0.04539543447578676,0.05317876047634795,0.06175702615735969,0.07119131333789329,0.08155053465849174,0.09291181409496213,0.10536087335299314,0.1189924039395478,0.1339103949293019,0.15026486523353066,0.1682667949898246,0.18819717879033182,0.21041663707242736,0.23537788323122388,0.2636413934727551,0.29589328918315233,0.3329628607062797,0.37583487070001004,0.42564878012244706,0.4836742397399529,0.5512517885259012,0.6296926290801785,0.7201427871430501,0.8234313678555641,0.939932456582405,1.0694695626424442,1.2112808880184438,1.3640488438104854,1.52598426436429,1.6949480012292009,1.8685903284251215,2.04438474722972,2.219792077992315
R1,0.0,0.0,0.0,0.2713050950225739,0.9417625338204225,2.0745613335346276,3.7034603124356926,5.849500396593533,8.529260511763415,11.759134008372323,15.557671725407657,19.94695734733736,24.953488281761608,30.608767168688182,36.94981924024095,44.01963919778289,51.8676198478771,60.54998769163118,70.13025702842145,80.67970550288857,92.2778671564157,105.0130324409287,118.98273743747973,134.29421606291476,151.06477883070943,169.48991040241845,189.83746562817083,212.45185554152323,237.76491506983353,266.3116411311479,298.74934613650737,335.87813217391295,378.65887855464484,428.2220916988101,485.8574269530566,552.9711101470305,631.0001233128411,721.2813175589592,824.8901478297748,942.4799645223341,1074.1581223990438,1219.425530952011,1377.1878946513966,1545.829649495046,1723.331400240804,1907.4089875172747,2095.6548057327996,2285.4704045585045,2474.3420067299144,2659.993667674397
G1,0.0,0.0,0.3705586829716779,0.9446177298882752,1.6537628985894108,2.4708295694180067,3.386851426549755,4.401302907943503,5.517939051106305,6.743013631880079,8.084521548135829,9.551892041704882,11.155837505695558,12.90841553356538,14.823054714235461,16.914624743272448,19.199526944533446,21.695794467875583,24.42319496646963,27.403328747590518,30.6597141257215,34.21784953100632,38.10523896645133,42.35136367595767,47.08023827237306,52.416743366584996,58.50124157640389,65.4998591881741,73.61276801364612,83.08102684671591,94.19105322726017,107.2741824829014,122.69698620950112,140.8366991302693,162.03693117345372,186.54419161169653,214.43625893562114,245.56426720825135,279.53194019697213,315.7227148213392,353.3662636242003,391.623424959298,429.6681629679177,466.7525435653455,502.24928538717177,535.6726495812978,566.4132524552945,594.2051204445667,618.9894600643271,640.8420601463699
H1,38369.09330862727,35930.600396387905,33846.49175139646,31909.511503495873,30109.156732887408,28435.67470582427,26880.009289974612,25433.75119725835,24089.091780766747,22838.780131901764,21676.083242005137,20594.749009585124,19588.97188988388,18653.360998046897,17782.910490637198,16972.972062755372,16219.229409650743,15517.674512502912,14864.585618075747,14256.50679125296,13690.228928106571,13162.772125174502,12095.398016017647,11110.512291812025,10201.092060276578,9360.762560024754,8583.742588121153,7864.794426043096,7199.177860613428,6582.607920017503,6011.215965054703,5481.513792527096,4990.360421471859,4534.931244322025,4112.689234832853,3721.3579139351186,3358.8957852960075,3023.4719666668575,2713.4427642147593,2427.3289688699897,2163.7937007472297,1921.6206944803778,1699.6930085884162,1496.972257239446,1473.9765534200474,1452.3214812818278,1431.9121357280135,1412.6606201197071,1394.4853122475683,1377.3104161723197
S2,77433.09383061112,82038.30792376399,86236.97976684116,90084.63907260798,93606.4196814625,96825.70270423715,99764.20470965917,102442.07650190293,104878.0031442369,107089.30070818259,109090.76811398941,110898.6505911742,112526.31268003314,113986.26346463528,115290.06528442747,116448.34406336595,117470.8220827118,118366.35098375671,119142.93844807126,119807.76624679315,120367.19844504407,120826.77880289096,123934.462644038,126925.57449704362,129793.44756381401,132529.036934908,135120.23181160545,137550.76568474373,139798.70852919857,141834.53758424407,143618.90144672187,145100.4654604469,146214.67918208268,146884.811181867,147026.71689581385,146557.90208327296,145409.4045643426,143537.07381079954,140928.77953496942,137606.07392914363,133621.07382064755,129050.36544605813,123987.6507869348,118536.35697652579,111486.259921014,104621.84762833916,97962.47347561702,91561.59294543357,85469.44658526927,79723.6995986545
E2,0.0,3.2701815941521915,5.412356192788096,7.169953151297363,8.909119435453993,10.819172503050398,13.009673722621107,15.55675597549431,18.525219275507208,21.979192019430823,25.987468289431565,30.625362944676848,35.97875389295488,42.14369967605864,49.22780709191989,57.351267284103514,66.64772265600052,77.26496281037043,89.36537336685426,103.12601122341377,118.73813111368503,136.40593312275263,156.34423664446274,182.68381123869457,215.98170907335134,257.49976833460653,309.10003790191524,373.2235810168804,452.8860765747048,551.6189758447484,673.2612713798696,821.4775743721099,998.8795179479002,1205.728893348348,1438.4693044517535,1688.7053939236444,1943.4055113486224,2186.6714940610327,2402.5403113388975,2577.703802118669,2703.2421203749554,2775.1274179610987,2793.7729298391964,2763.065313568568,2689.246375180147,2556.6008119012167,2389.6827776506952,2203.868035974133,2009.9522776302358,1815.7780936366253
I2,0.0,0.0,0.1296955390400873,0.3223769611233306,0.5521209136930983,0.8119173492205575,1.1034521917147493,1.4324709465756058,1.8067651563365874,2.235376301687455,2.7283574021996415,3.29678668398914,3.9528525048323395,4.710084208039851,5.583528698784468,6.58995134504605,7.748043933529661,9.078631775812937,10.604873327827944,12.352443790188707,14.349690588059412,16.627743733068257,19.22055781427102,22.16485462410923,25.654961090031883,29.8743742338768,35.02554780355422,41.35048503015836,49.147001939293276,58.78206090016109,70.70051149499719,85.42409206787592,103.53148735756723,125.60691955844266,152.14601534424756,183.41938613638862,219.3188364939233,259.23766550677254,302.04143695472663,346.1548148746071,389.7415524691263,430.92273604286095,467.9780304140562,499.4949462891148,524.4544414941918,542.257668957634,551.7839679414757,553.076357380782,546.7803714244486,533.8603362045475
A2,0.0,0.0,0.707485046126707,1.7834605063736446,3.095267397554312,4.6072656741266425,6.329556550775273,8.294588457875301,10.546925595317475,13.139169984838475,16.13073735419711,19.58795201375768,23.58453033742484,28.202873874336476,33.535106169293584,39.68426630108807,46.76556637927758,54.907667814965805,64.25393685640488,74.96362870900609,87.21292900825631,101.19575308227388,117.12416697166097,135.22824871517358,156.60086420235686,182.30871277967182,213.54831567097602,251.75844376999623,298.7128699652509,356.5997208563374,428.07744768516596,516.2782353928546,624.7066929198226,756.9620616657625,916.2171393450103,1104.449473183587,1321.5549017722424,1564.6239210907268,1827.6980567221146,2102.16505481297,2377.6894312090767,2643.3931457054664,2888.986778197928,3105.651328518523,3286.5923156091017,3427.2775747620826,3520.383320815324,3564.8808982783053,3563.206173419508,3519.803662763926
IH2,0.0,0.0,0.0,0.010060396896491297,0.030886334711340335,0.06087907542655078,0.09856047683034291,0.14319741929739577,0.19480710837723225,0.25400398458371565,0.32184849742689126,0.3997402293913229,0.4893564927681977,0.5926230303491412,0.7117147987193726,0.8490701229595421,1.0074145530703014,1.189790937788234,1.3995930662207297,1.6406008139459003,1.9170149257972584,2.2334894050245557,2.5951590037388166,3.0076585468288686,3.477129775298084,4.022236021435701,4.668118754136691,5.44517602980798,6.389945928292295,7.546884408521391,8.970438645293948,10.726936807967506,12.895615086558163,15.567671017774263,18.841722447062267,22.813851700557652,27.561204944195065,33.120477366867775,39.46605397094761,46.494966685721664,54.02483837630879,61.80664284626502,69.54909141882231,76.948496071716,83.71780142491228,89.61019242653595,94.43496661495024,97.9937396180597,100.17390325503436,100.95971767933841
IN2,0.0,0.0,0.0,0.011912454396356763,0.04030832845071244,0.0869116204282876,0.15262673116931724,0.2384207260679977,0.3456898176291722,0.47640354929353046,0.6331611612613561,0.8192203140647001,1.0385241396823828,1.2957333356257439,1.5962761914253392,1.946409734291621,2.3532930947615727,2.8250724947303576,3.370976595135309,4.001420459676608,4.728115784983762,5.564184175635899,6.524269009614812,7.624639758040246,8.88328040171645,10.33419060276734,12.024758489560485,14.016137119935365,16.385474003045786,19.22940713873506,22.668429380164202,26.851610775841294,31.960747851313148,38.21225825628504,45.85416040939305,55.15471495574039,66.37969394513996,79.75784132308915,95.4388598272996,113.45299558074181,133.68271806171586,155.85381863298446,179.5474619765037,204.22949337851853,229.29046880798913,254.08946710738033,277.9958931469398,300.34049702207994,320.5261974270644,338.07606608164593
D2,0.0,0.0,0.0,0.0,5.107477836340802e-05,0.00020787899951594754,0.000516950830018452,0.0010173241812186655,0.001744311051426269,0.00273331078835053,0.004022842140792536,0.005656807564006353,0.007686214935222521,0.010170587536620316,0.013179225291129786,0.016792469974868586,0.02110304229038774,0.026217500054582163,0.032257849065814435,0.03936332476341017,0.04769235231741629,0.057424683304137886,0.0687636968154671,0.08193884013212795,0.09720816750087916,0.11486091365407462,0.13528106361771997,0.15898024101545793,0.18662439479324575,0.21906497098517658,0.25737911032434346,0.30292037180188314,0.3573790502836738,0.4228477081490001,0.5018819008402028,0.5975378484006995,0.713359563111381,0.8532827141000043,1.0214292651961165,1.221791137613641,1.457837502674595,1.732111636645518,2.0458925557522254,2.3989804573668856,2.7896337708192758,3.2146535982517768,3.669588007338947,4.149016904552395,4.646513035519105,5.155077454914204
R2,0.0,0.0,0.0,0.09495678325790088,0.33967196774936703,0.7718973995486182,1.424120896384462,2.329671478659959,3.526030955569369,5.056811805936661,6.973139584542523,9.334814701596247,12.211445994044354,15.683626741223353,19.844275483278036,24.800121419667466,30.67336204405811,37.60350682786169,45.74941320898891,55.29151462327309,66.43423248913956,79.40855348941577,94.47473896928338,111.92511352914573,132.08685356505066,155.43817122496802,182.6115747154346,214.41531647439345,251.8694680631732,296.25503391868716,349.1748016069174,412.6230002672549,489.0566736740513,581.4543002869856,693.3369333872379,828.7172318868552,991.9400594905178,1187.3950567245097,1419.1197367454904,1690.3566269419512,2003.1531576950579,2358.082716372941,2754.128498661729,3188.7304219148464,3657.96563678902,4156.819405864773,4679.502055004771,5219.098374824553,5768.405443086889,6320.440189018209
G2,0.0,0.0,0.1296955390400873,0.3443498124161786,0.628710454807589,0.9820465048972737,1.4111353396763702,1.9270995446025623,2.544081138396871,3.2787921110441305,4.150487787432002,5.181151868629245,6.395755046174781,7.822673933028578,9.494094827942831,11.446471719784284,13.721025383209302,16.364276856192163,19.42860851854477,22.972842970557718,27.0628248965132,31.771984151442712,37.181849174307914,43.38246815023102,50.62771575815251,59.1935593893316,69.40601099036037,81.66493144440736,96.46699430508018,114.42847507732289,136.3057067713852,163.00727700301158,195.58711202136493,235.20271555482617,283.0219739833672,340.07172686776534,407.045853545159,484.12139755120415,570.8448806241262,666.1297300348882,768.36157082908,875.5722665851953,985.6339362554698,1096.4350877080506,1206.018373812732,1312.673997728019,1414.068893046001,1508.8438121319764,1596.249310777683,1675.9641023226727
H2,38369.09330862727,40652.967910331274,42735.4754635217,44644.32635691286,46392.0971029136,47990.46428498992,49450.268855822724,50781.575842537306,51993.72978707317,53095.40622632945,54094.659494961365,54998.96711349791,55815.27100568854,56550.015771564904,57209.18422652582,57798.33040173174,58322.610187146034,58786.80978560744,59195.3721342909,59552.42143874523,59861.78595432585,60127.019140210534,57608.17316144495,55071.14434249228,52525.75303367383,49981.14713939325,47445.87060353434,44927.925722632455,42434.82946441336,39973.663866544906,37551.12047920956,35173.53869507992,32846.93768234299,30577.04150330497,28369.296868317215,26228.882851715338,24160.711797852335,22169.420592515955,20259.351497273947,18434.521879001815,16698.58245828437,15054.764195480058,13505.814673208612,12053.925840680431,12017.351295189728,11979.571628824615,11940.694929525405,11900.823237678294,11860.051100571627,11818.466109772982
S3,232299.28149183333,231279.67845222724,230324.19924986435,229426.66710284163,228582.01288690965,227785.67588611107,227033.4772788601,226321.55120784952,225646.30191679706,225004.3730430361,224390.3872982221,223804.02213628814,223241.82107889897,222700.85067218964,222178.37454298168,221671.74110951656,221178.32593784443,220695.48500161874,220220.5059309438,219750.55249798225,219282.59964174495,218813.35676910094,223270.09171642864,227858.6180214536,232576.7095524424,237419.1410909865,242376.670730282,247434.3512111719,252569.08599171258,257746.3260663196,262915.936775577,268007.6426511688,272927.169865503,277555.1404271606,281751.3312316606,285366.01889386063,288257.24391384237,290309.4398025885,291447.87598986115,291645.67733457894,290923.5268040751,289344.1082545583,287003.6180928071,284022.16389988887,269801.5763524709,255816.2550395236,242105.98827355128,228786.42055034506,215971.98051919835,203755.24835713403
E3,0.0,5.606025589975183,8.970458518431641,11.471070803722844,13.736726552787454,16.067939308615607,18.622572862482592,21.498366807303388,24.769962877040676,28.50582471003106,32.77627083956251,37.656380072064934,43.23102525460671,49.59449322144238,56.852118983720956,65.12148961002833,74.53345215075434,85.23295225588014,97.37964268782783,111.14814671039217,126.72781152301476,144.32173141021448,164.14475571845065,190.44103259603395,223.82169048484212,265.6505239895793,317.9477403105381,383.390476266011,465.3418881061567,567.8368747735833,695.4259850167862,852.7419051455792,1043.6407244426966,1269.8563572645044,1529.3724588296004,1815.12090722654,2114.844114647278,2412.590610029893,2691.4230857931802,2936.2493025362355,3135.8049020095636,3283.449909421357,3376.983723106139,3417.882987263243,3410.3214631550104,3305.8883373421454,3140.831667811028,2938.3139305508726,2714.798307488777,2482.410282261034
I3,0.0,0.0,0.22233520978300667,0.5404362254001525,0.9038193643865258,1.2954946016125062,1.7132687198441299,2.1615809584645675,2.6479948229846038,3.1817527138427293,3.7732464666560137,4.433896181603077,5.1761648087978145,6.01376990205769,6.961844424685317,8.037135123773801,9.258215042145347,10.645700001113378,12.222461666630325,14.013828651688003,16.047763994224216,18.35500278814385,20.96912775513499,23.926553009484174,27.425846526489998,31.65617253026342,36.82873543670371,43.19907918361746,51.08562914216079,60.88624638474715,73.09141113410973,88.288982038971,107.15095602557088,130.38841382835193,158.66073291498262,192.43561155273233,231.8211891592525,276.4211478651997,325.2736774538934,376.90818202929574,429.5046533122858,481.10468156372036,529.8183066233408,573.9884869944143,612.2974787886186,643.8163201376601,665.8534578079557,677.6109375489364,679.3446182603237,671.9199420413778
A3,0.0,0.0,1.2128315076457832,2.9907557404167595,5.07104479260158,7.362284552857162,9.850344654331726,12.55714419737826,15.522805759085868,18.798215081072335,22.442239870250848,26.521059776320847,31.108214859839418,36.28573658178431,42.145044772284386,48.78807775814238,56.328531260267944,64.89314906821394,74.62302191392115,85.67484366231058,98.22205588196229,112.45578545144454,128.58544498656366,146.8388217170575,168.33132699764016,194.16087873882498,225.57308434173888,264.0834293059791,311.5831778585332,370.43735329315984,443.5664789554089,534.4835783660671,647.232421395684,786.1482765685334,955.3596664966157,1158.004769701257,1395.2714189640308,1665.5361604001055,1963.9424264931804,2282.621196027812,2611.494487633161,2939.399980757874,3255.2370116829143,3548.918731036946,3812.031583367561,4038.194227848864,4211.408408407249,4325.665172451467,4380.773142146043,4380.128340943175
IH3,0.0,0.0,0.0,0.017246394679699358,0.052000881256074265,0.10050042210856996,0.1592278165945375,0.2259573212999201,0.2997324562415119,0.3805809057624786,0.4692357767600269,0.5669316190795659,0.6752758111422675,0.7961745230516933,0.9318058715603375,1.0846167041708359,1.257336107377113,1.4529997859240844,1.674981103614587,1.9270257524124232,2.2132876140718687,2.5383634861992705,2.907324053739035,3.3257378522181957,3.799684013637884,4.348118253917435,4.996792525777275,5.777140464511894,6.727355734467466,7.8944605490627415,9.336798714476803,11.12651531269651,13.351375118439407,16.114798337754646,19.53238665005118,23.72285057097494,28.791849137494676,34.8095227489801,41.786122630209654,49.65303309747169,58.25607877944206,67.36397552401137,76.68963748184709,85.91867526312785,94.73880935462596,102.86531244427027,110.05971758181065,115.97387149947059,120.3424003178431,123.03005390110273
IN3,0.0,0.0,0.0,0.020421350393754437,0.06797851132421466,0.14406463629397154,0.2483703500100537,0.38041636648830585,0.5401799952312452,0.7283355618726775,0.9463375660532685,1.1964467323798191,1.4817422765376331,1.8061342607628195,2.1743941393600865,2.5921969605950226,3.06617748746001,3.604000117081362,4.214441556975537,4.907484644021686,5.694421071499176,6.587959946286749,7.602337922037335,8.753425047588376,10.058818334942384,11.55255945915332,13.282594808092611,15.311382538532499,17.7184859339415,20.60460548163681,24.09672045531891,28.3539173023455,33.573061073952026,39.99267266132909,47.89227259609221,57.58345300161855,69.389002887409,83.60874158272509,100.47552597262097,120.11013592977017,142.4859667930874,167.4119591164973,194.53664962782364,223.37080840819394,253.32287502316055,283.74055345200674,313.95271231514675,343.1094118638437,370.3740559885624,395.0188241688016
D3,0.0,0.0,0.0,0.0,8.755676290869942e-05,0.0003515556401082844,0.0008617777354626318,0.0016701479742840958,0.002817291593340296,0.004338977957045714,0.006271116978115845,0.008653340417685958,0.011531547618616139,0.014959798287363671,0.019001829404211516,0.02373243584621628,0.029238834683631518,0.03562209805517834,0.042998709812318285,0.05150227975197425,0.06128543385788933,0.0725218866048602,0.08540868956077652,0.10016863722517874,0.11705279452478612,0.1363430890175634,0.15841768293285663,0.18378547641136403,0.21311495235899086,0.24726849586675867,0.2873472151251084,0.33474841906090663,0.3912356838676497,0.4590181513027905,0.5408300084233468,0.639992330678017,0.7604288648950088,0.90659976933349,1.0833212921155813,1.295461724939706,1.5475410103413387,1.8432963709493242,2.185290842436516,2.5746299786013647,3.0108232363318184,3.491794687059401,4.014022894199635,4.5727757684715,5.161553710706331,5.772509867525355
R3,0.0,0.0,0.0,0.16278305701354434,0.5733552366949647,1.282251788161413,2.3263359666643013,3.7390992243582977,5.556012468426388,7.817536827669096,10.571043279850262,13.872253053273251,17.786507026307508,22.389990089319898,27.77107817406953,34.03179776617452,41.28944008195676,49.67835279210418,59.35192211034233,70.48475038231749,83.27502607098894,97.94707255471113,114.75404808794539,133.98075028878816,155.94645318087714,181.12442738920421,210.14655396990491,243.82735392131337,283.20402190856635,329.59138067156437,384.6512461687609,450.4743112032535,529.6686070528314,625.4410011756744,741.646993599695,882.7721473714118,1053.8037123693746,1259.9646390132016,1506.319333874971,1797.308311028603,2136.3000713109336,2525.2444782148737,2964.478806362176,3452.6967615197345,3987.059301943529,4563.409658888931,5176.551213800098,5818.973810097448,6482.131241479441,7157.257410621566
G3,0.0,0.0,0.22233520978300667,0.5781039704736063,1.0330471191709942,1.5778462698040752,2.2151014160078377,2.9536734359935197,3.8062995643225177,4.788677329852573,5.919219532206385,7.219127806983103,8.712581418390583,10.427125691307467,12.394045370409414,14.648802791327647,17.231523797760232,20.18752363290601,23.56786609051509,27.429946799584467,31.83808695506971,36.86411726978962,42.587923184396374,49.09791107362463,56.65081040559487,65.52758802803788,76.06329893984808,88.67311964212735,103.87840199435931,122.33388077382038,144.85431501890744,172.43493872204428,206.25471840880493,247.64555326728143,298.0081096015878,358.6630853973257,430.65085662894444,514.5256628248507,610.209107502791,716.951059852192,833.4028302154969,957.7689840150131,1087.9907449945993,1221.9220609438592,1357.4754434232113,1492.728935539614,1623.8406055106773,1748.406121052494,1864.9397746493644,1972.6087892706018
H3,115107.2799258818,114604.82751350691,114133.7511879221,113691.39225496943,113275.44406185555,112883.76889827954,112514.38587513899,112165.4596697012,111835.29007534105,111522.30229836884,111225.03794857684,110942.14667394538,110672.37839348985,110414.57608551659,110167.6690916083,109930.66689949403,109702.65337059028,109482.78138044424,109270.26784257872,109064.3890883464,108864.47657735714,108669.91291485923,108480.12815414267,108261.93867144678,108015.36471040487,107740.5432548857,107437.71905084967,107107.23651832514,106749.53247260854,106365.12957657981,105954.63044756718,105518.71234239946,105058.12234305899,104573.67296260901,104066.23808676946,103536.7491606692,102986.1915230412,102415.60078175219,101826.05911562468,101218.6913789144,100594.66087788776,99955.1646855516,99301.42836311819,98634.6999681066,97956.24325219,97283.00493098353,96614.92717118753,95951.95390820771,95294.03075942119,94641.10492095663
S4,116149.64074591667,118077.01233641706,119996.95186275603,121908.782487246,123812.33510320392,125707.63390736483,127594.75257965096,129473.74780975131,131344.6271719074,133207.33198962532,135059.93962357097,136904.28273018476,138739.49808468373,140564.89563835264,142379.70931007396,144183.00780039342,145973.64470350306,147750.21384063901,149510.9992707157,151253.91572415107,152976.43677811482,154675.5084119942,159891.60361521834,165101.39326002338,170294.0492320723,175453.93784364688,180559.33113102586,185580.35802704355,190476.1554977663,195191.21001085805,199651.10300094695,203758.38531944883,207390.14896035314,210399.79549557553,212625.7018844031,213907.77378791053,214109.08593766514,213136.28282873862,210952.4643304323,207580.05188384984,203095.2031403468,197617.09450370833,191295.1155253512,184296.07594030324,174108.3494167733,164150.56765421783,154445.25182908366,145084.5365448005,136158.50416575806,127736.79104647723
E4,0.0,8.409038384962775,13.607419074691657,17.621587988952207,21.403309572224558,25.42654100350769,29.956962868913465,35.17457135251195,41.23016677670272,48.272122276784515,56.4598572606511,65.96917894810704,77.00222488275705,89.78780398545464,104.58564667616359,121.690068917571,141.43342939244377,164.1893882874382,190.37580178333872,220.45695975556742,254.9447436564364,294.3981269358327,339.42025326461686,399.30209835248155,475.617396889542,571.6039574752748,691.9886468061086,843.0006106625553,1032.426162824644,1269.5381052560992,1564.6634360959408,1928.06481913268,2367.7904380705286,2886.372891352954,3476.9224492498693,4120.145524536289,4784.336846187734,5429.427247616711,6013.944115843764,6502.11724717769,6868.711805754536,7100.780766169156,7196.896254118962,7164.918568268632,7019.242836831512,6710.311446583427,6303.892319209526,5841.296020770786,5351.732086066237,4856.620267142058
I4,0.0,0.0,0.33350281467451004,0.8166720076983296,1.3771854052554569,1.9927205808774924,2.663534106434324,3.400375988896715,4.219313639092601,5.139673094892522,6.183390686468142,7.375008899564237,8.741884785282899,10.31475738178845,12.128232530351493,14.2213541144939,16.638223836656305,19.428653104899116,22.648833721300104,26.362009738791084,30.639124240170002,35.55940246230394,41.210816314843605,47.690354322992654,55.44705382677405,64.91629122176795,76.5880936197038,91.0569361009859,109.06362672569378,131.53227233661502,159.59817849905014,194.61387794956013,238.10977674516835,291.67619282142175,356.7344574565078,434.1918548430958,524.0367737759829,625.0021378281695,734.4463922043608,848.5307053543223,962.64796785098,1071.9707861689085,1171.9761380103846,1258.85065613911,1329.7387688621457,1382.8396031554366,1414.6919305678919,1425.0292780472687,1415.26869684369,1387.7456145823396
A4,0.0,0.0,1.8192472614686748,4.5189598071520045,7.724766470141162,11.318451980407792,15.300205530112475,19.72766939070212,24.689690382309205,30.29581532390103,36.672987625827496,43.96560216282144,52.3367083935071,61.97120300583623,73.07866783900465,85.89674639645554,100.69485986701923,117.77817233197086,137.49172879162015,160.22466400322352,186.4143305334156,216.55012325548313,251.17668245154587,290.89603489315965,338.2394542482317,395.73894176740794,466.28714148313105,553.4110848687428,661.5120544937774,796.0851287122063,963.8939684666225,1173.0286207684933,1432.713576278392,1752.6764171865045,2141.8870283291653,2606.62082663612,3148.136902049346,3760.6660990885707,4430.544848607354,5136.971107661202,5854.1961502655595,6554.467764641107,7210.957553180928,7800.129042864066,8303.3052947804,8707.430443156667,8990.479440605228,9147.611896639139,9183.574389471512,9108.79573951487
IH4,0.0,0.0,0.0,0.02586959201954904,0.07846810852146932,0.15268780066942447,0.2438119246874605,0.34910369641216854,0.46779748173303737,0.6006921465639119,0.7497536935435586,0.9178327333918885,1.1084990410369855,1.3259610286652526,1.575062696520391,1.8613194576661312,2.190983386299112,2.5711294275878185,3.0097563491644106,3.5158977667649958,4.099739148309763,4.772736366793549,5.547730220712553,6.4390493975810195,7.462591589920763,8.662479683308263,10.098273019478706,11.842791948885429,13.984709137022033,16.633313037874743,19.92415930402045,24.02453791554941,29.1371360493792,35.499126179775686,43.37248293075913,53.020568282990894,64.6676807621205,78.44401027242507,94.32735962213488,112.09985207883707,131.33637464603842,151.4311009302778,171.65549986230673,191.2329358797737,209.41370637068934,225.53814516708232,239.08101989732194,249.46687493651365,256.3387168913638,259.59782180531613
IN4,0.0,0.0,0.0,0.030632025590631662,0.10252048618692274,0.21856408756695328,0.37931576647097276,0.5852956641904268,0.8379582849134626,1.14008565537526,1.4959513119708925,1.9114080233500184,2.393966191400682,2.952883403048301,3.599296971276774,4.346387496157284,5.2095782218912,6.206770999283432,7.358618071703331,8.688827759932023,10.224500697867938,11.996491201627363,14.039785363512443,16.393883272223434,19.103167067043564,22.248738769503223,25.943422638490844,30.333551323921107,35.60514380250446,41.99330070226516,49.794037237853075,59.37747259456927,71.20022861406514,85.81295004249743,103.85622354709996,126.03588852382245,153.0691709147554,185.59912259631102,224.08686832077697,268.70390475550744,319.2516534503898,375.1286171341998,435.3512166905966,498.620693464134,563.4204172123078,628.1260669057372,691.1134811768358,750.6061394345695,804.984128289502,852.922809076908
D4,0.0,0.0,0.0,0.0,0.00013133514436304916,0.0005297032497732491,0.001304871034724846,0.0025426591800524925,0.004314994218475935,0.006689915699636206,0.009739518867985533,0.013545880000540769,0.018205547398853956,0.023833192452973054,0.030564851884939768,0.038561154512056536,0.04801072988586234,0.059133948184751164,0.07218709777803248,0.08746707530208477,0.10531663939319455,0.12613025842851683,0.15036056013818144,0.17852536261647095,0.21121522805977028,0.24910142831542492,0.2930792389778253,0.3443463074274745,0.4044699765248868,0.47546776388844875,0.5599120244478832,0.6610633041637947,0.7830314493517772,0.9309553117180352,1.1111778238496437,1.3313719151515302,1.6005475552001012,1.9288534357914382,2.3270991988386536,2.8059817952088104,3.3750920558083966,4.041862591316735,4.810650343620847,5.682113636822037,6.652967959602255,7.7161226988425184,8.861138238032666,10.074908452845166,11.341405736947172,12.642790094432408
R4,0.0,0.0,0.0,0.24417458552031648,0.8644387008562179,1.9438958689815857,3.5479819283719918,5.7402783603273875,8.591032873851052,12.182251949083252,16.611256642642694,21.993648625468026,28.466176555915936,36.18970401310435,45.3525820124386,56.174414677976706,68.91030947865539,83.85567332266118,101.35160029046394,121.79088390452074,145.62467103030698,173.3697521339484,205.61645035170167,243.03702601881983,286.3944497928125,336.80248277264894,395.741102821065,465.11447887050446,547.3449756125732,645.5010454500134,763.4575001277137,906.0827677023351,1079.4374962774773,1290.950163063663,1549.508337249938,1865.3763324242057,2249.8407829285234,2714.522491656817,3270.3869274313956,3926.6035622417467,4689.477920153009,5561.66485879851,6541.784418285554,7624.456499747323,8800.69082647717,10058.528025284351,11383.820052946965,12759.081574391152,14165.760296582192,15585.629342963724
G4,0.0,0.0,0.33350281467451004,0.8731736253085103,1.572046543270118,2.420902697673125,3.429320379208562,4.617414781744299,6.0124397553500115,7.647629897200066,9.5621042892314,11.801304593777466,14.417644994875246,17.47155646001036,21.03254452805625,25.180415657224458,30.00664888913813,35.61590462470431,42.12766264348865,49.67797491869432,58.4213071794368,68.53242639467742,80.20826844382017,93.66968990952631,109.50602786038229,128.3690337487218,151.0388706515934,178.48316937727515,211.91660891669252,252.8626737915227,303.2126082378414,365.26722567060466,441.73435718061205,535.6410251615798,650.1146949676042,788.0095849830166,951.4147291144309,1141.1617288912241,1356.4930410170714,1595.0063166272387,1852.8805590798775,2125.2939570854705,2406.9112197844706,2692.340426762664,2976.501397380213,3254.8848623853573,3521.016095509472,3771.0287290135475,4002.694773939408,4214.944692702846
H4,57553.6399629409,58512.86729565658,59467.90752493581,60419.02211816849,61366.4503869599,62310.412420808694,63251.11049496102,64188.73037725385,65123.44254116803,66055.40329179587,66984.75581094895,67911.6311271871,68836.14901613664,69758.41883608239,70678.54030346169,71596.60421255842,72512.69310338754,73426.8818814758,74339.2383929795,75249.82395833432,76158.69386740388,77065.89783888187,74427.32249131185,71791.77174422758,69160.73067596504,66535.858718806,63919.00554193172,61312.22759987489,58717.80519185035,56138.25979152678,53576.371296078534,51035.19470289727,48518.075547420965,46028.66322225596,43570.921044221686,41149.13164398,38767.895930594656,36432.12354829006,34147.01242593512,31918.014770246198,29750.78674164421,27651.119169968766,25624.84712747014,23677.737096850524,24499.688815545156,25315.99084264674,26126.682550404938,26931.806943498166,27731.406559399897,28525.523482395074
E_Om,0.0,0.0,0.0,0.0,0.0,0.0,0.0,0.0,0.0,0.0,10.796307511927479,16.952370810933083,22.934344061520648,30.287916018527106,39.8719173233727,52.4923759749212,69.11354422934049,90.96471056297737,119.63147602416392,157.15833842893875,206.17288303020334,270.0374116094175,353.03230522640274,472.9696604056841,641.9808356703016,880.3429649746311,1218.5279435925013,1701.3176414943146,2393.9003462150763,3389.9944526602535,4821.51698578221,6867.875177666466,9760.391839080345,13774.301533568514,19199.776785703638,26288.872502467246,35188.55871945793,45883.364873896746,58171.402642247034,71682.11344698744,85925.96493404696,100357.98502314446,114438.99039630432,127684.64147298333,139698.41836622026,147599.47890067546,152292.66484392525,154208.72787068452,153694.19722696807,151098.27907661346
I_Om,0.0,0.0,0.0,0.0,0.0,0.0,0.0,0.0,0.0,10.0,8.305812871015053,7.326834753105082,6.7578635762561685,6.522532073619914,6.618713103183963,7.078701159820377,7.961286550852659,9.353541690287088,11.37654092829741,14.19373135849722,18.021953947318764,23.145522884979886,29.933933247061354,38.86384082119117,51.03757547942625,67.85184197302071,91.27090911418597,124.13477846447142,170.5783530155628,236.62137603127002,330.9806090882889,466.1278659730969,659.5373001743795,934.8968889549107,1322.7972372805596,1860.154583679464,2587.627373234904,3544.8145873653757,4763.9928358573525,6263.963567440257,8045.646544888766,10090.390832278925,12361.09169570785,14805.546604550997,17361.18818567478,19960.323154440834,22432.472413988893,24671.925279038536,26607.96406201624,28195.595339372394
A_Om,0.0,0.0,0.0,0.0,0.0,0.0,0.0,0.0,0.0,0.0,0.0,2.3357192553872133,5.6897734254517,9.887820890405294,15.113320608006463,21.710911244146494,30.153354506987366,41.05856972026844,55.22749021697641,73.69658586296146,97.80552964831278,129.28265018622386,170.35171908705843,223.86407509180916,296.1419027504411,395.28338951088165,532.6866471085422,724.8123825865158,995.6002910740501,1379.8800571529289,1928.082054318061,2712.407516208288,3834.1807431245325,5431.171918486708,7682.205494250269,10804.881737152347,15042.125812664854,20636.05423398228,27792.940304710686,36647.69448608496,47236.95168731181,59486.52225713972,73214.27249802544,88145.8649978438,103938.99909837829,120211.5320309715,136009.3575306948,150702.18429828619,163837.50773208175,175098.52682501727
IH_Om,0.0,0.0,0.0,0.0,0.0,0.0,0.0,0.0,0.0,0.0,0.7756933639314882,1.097627973711824,1.2098429751194286,1.2312919680950394,1.2255732570337714,1.2296916727248002,1.2677796363061526,1.3585015916020258,1.51952006429909,1.7705495197601118,2.1357904987182095,2.6462071420272553,3.3419504088509235,4.275147890576439,5.5132392694751085,7.181146455379732,9.460221131797464,12.608820756038076,16.99823857933699,23.166217472102407,31.89398707761859,44.31428804928822,62.05657746836592,87.42864496314533,123.61673170212765,174.85591938268192,246.48495649447972,344.77790664057886,476.4732935482052,648.0131017155308,864.6207449068971,1129.4203764869826,1442.7911574789482,1802.076497781101,2201.6744458880803,2633.4576490005643,3087.425177810481,3544.5080697845533,3985.3616211967624,4393.194355846603
IN_Om,0.0,0.0,0.0,0.0,0.0,0.0,0.0,0.0,0.0,0.0,1.8369875301069174,3.1755089541738983,4.169917211894928,4.919370101329699,5.5011646778425,5.982197488319271,6.4244465263178725,6.888880715282724,7.4391153520250155,8.145309238170158,9.08859381098076,10.366291773302034,12.098201270692808,14.43425703788078,17.56391982373499,21.785027121985983,27.52661339718677,35.40094081438537,46.285588518554036,61.44507274345939,82.70720220788883,112.71338787489859,155.2622670044509,215.75655679192573,301.7348806615306,423.414950825985,594.0963248355995,830.2035261854228,1150.7540417933437,1576.1528761875088,2126.413237965399,2819.083466056227,3667.2399366137533,4677.87103558713,5850.868968377349,7178.715796639128,8646.834635692763,10223.858949569225,11870.534990272285,13544.459199083823
D_Om,0.0,0.0,0.0,0.0,0.0,0.0,0.0,0.0,0.0,0.0,0.0,0.003938052051861355,0.009510506703462639,0.015652656207554468,0.021903698290499693,0.02812570753279421,0.03436862521148462,0.0408049084520158,0.04770177031654219,0.05541609325045098,0.0644048464014052,0.0752478605960788,0.08868216588972444,0.10564863134727433,0.12735276819481128,0.15534246647908934,0.19179982172832516,0.2398276184988382,0.30384027447697215,0.39013719466217467,0.5077478053647009,0.6696676916152023,0.8946431536905595,1.2096929447473979,1.6535520399748542,2.281131372943023,3.1688426054009726,4.420201239895847,6.170575041987977,8.58954201858361,11.879384942996303,16.268904896222605,22.002763709318526,29.327548143879227,38.4763579438362,49.65385277918722,63.02343124969819,78.69771908274305,96.6925324021555,116.92547784108233
R_Om,0.0,0.0,0.0,0.0,0.0,0.0,0.0,0.0,0.0,0.0,0.0,0.5056497738567527,1.5933770457312972,3.2786993135696982,5.612669290368114,8.704947632942169,12.73345993381327,17.955807887030005,24.72640463120228,33.520896892712734,44.969287338851885,59.89958958385935,79.3944192150095,104.86355276564251,138.13614610315034,181.9368964080788,240.15905466004455,318.3438689288321,424.4103582429319,569.7325242118297,770.70874130581,1051.0130028482704,1444.7441668931392,2000.6566252721805,2787.4939191836,3900.0772338644015,5465.213392989365,7645.861064747598,10641.724682350952,14684.898615973374,20030.30874841296,26941.982058263355,35677.059095381206,46469.723428663725,59516.95964683835,74967.49918816707,92914.68089613275,113318.19499793978,136042.11109889913,160877.82310874743
G_Om,0.0,0.0,0.0,0.0,0.0,0.0,0.0,0.0,0.0,0.0,0.0,0.42818200827315045,1.1005137449152609,2.010090791311943,3.211310809627829,4.7926327212500714,6.874482551772202,9.615528611668186,13.223192843889358,17.967782195398357,24.200688482203507,32.377513661535325,43.08720872015274,57.08848473698914,75.84648128544242,101.30746812622105,136.2219070022475,184.54877629973385,252.02310524421574,346.96529327616463,481.41261530467204,672.6341809755778,945.0143982761446,1332.1119475607672,1878.4013235059638,2639.8652752706257,3682.483060185276,5078.062773350117,6897.798946697344,9204.879212788852,12047.794835476154,15455.622204937587,19435.824095813976,23974.47924976422,29038.45748038971,34578.90260596133,40432.70412337279,46472.637591931416,52588.56220041166,58684.080502004006
beta,27.21160058667638,27.21160058667638,27.198798785476896,27.18786709082614,27.17696703586325,27.165173316152615,27.151946158172816,27.136898319200895,27.119690301618064,27.099981669447658,27.077406904810548,27.049359478965222,27.01797993699826,26.98209465406516,26.940835448601508,26.893331067049147,26.83860995942687,26.77555804952457,26.70288924606437,26.619117217429853,26.522525464296166,26.411135350211183,26.282672952727992,27.15562028226463,28.053731066181353,28.96976806567745,29.890066767706674,30.79201593815743,31.640531914934193,32.38384527217656,32.94963829491959,33.24396792594663,33.157276792355155,32.58267564560146,31.448248558899028,29.75458301023602,27.596073546056648,25.145566512111806,22.6052036373085,20.151774339584335,17.90464830685098,15.92253720556468,14.217755597456804,12.774475855285761,11.563500008334989,10.247338906758824,9.23681711656859,8.43874923589694,7.798105980172532,7.2776497643864
