series,2021-12-01,2021-12-02,2021-12-03,2021-12-04,2021-12-05,2021-12-06,2021-12-07,2021-12-08,2021-12-09,2021-12-10,2021-12-11,2021-12-12,2021-12-13,2021-12-14,2021-12-15,2021-12-16,2021-12-17,2021-12-18,2021-12-19,2021-12-20,2021-12-21,2021-12-22,2021-12-23,2021-12-24,2021-12-25,2021-12-26,2021-12-27,2021-12-28,2021-12-29,2021-12-30,2021-12-31,2022-01-01,2022-01-02,2022-01-03,2022-01-04,2022-01-05,2022-01-06,2022-01-07,2022-01-08,2022-01-09,2022-01-10,2022-01-11,2022-01-12,2022-01-13,2022-01-14,2022-01-15,2022-01-16,2022-01-17,2022-01-18,2022-01-19
S,120838.30933552206,120298.86803904944,119841.22526471931,119445.33542839195,119097.40747689988,118787.80153406979,118509.61807005802,118257.79980800537,118028.54829594518,117818.93878724377,117626.66265139755,117449.85309651482,117286.96600252423,122147.60047902644,127007.01008843626,131865.327271907,136722.46636901173,141578.14565066242,146431.89995429953,151283.0830925334,156130.8587845963,160974.17805984235,165811.73976818108,170641.92873734035,175462.72274944262,180271.5539655128,185065.10101279098,189838.97139668136,194587.20365722023,199301.46108055906,203969.67391925794,208573.6466400617,213084.61801132985,212443.64859115312,211798.36399487546,211131.18062330046,210435.63416031664,209710.48650885274,208957.06969646894,208178.0131376185,207376.59676157293,206556.4000414029,205721.0976846536,204874.3325572273,204019.6325588807,203160.3548228984,202299.64840768476,201440.43037342915,200585.3719792797,199736.8927016638
E,1144.8391054878018,1455.312580862865,1621.7435678386457,1693.1606559431002,1702.3485276605334,1671.3872769856773,1615.202771749897,1543.8947665317833,1464.2850535791777,1380.9578685754777,1296.9648017349318,1214.305486394083,1134.2570832133513,1057.6010615372397,997.4958545826461,950.4985695699818,914.0727466211717,886.3850312135196,866.151892488567,852.5272033402931,845.0237546710007,843.463958400146,847.9572517808517,858.9042992194977,877.0314212970447,903.4635135151087,939.8514341302242,988.5831161716629,1053.1318941527802,1138.64213663968,1252.94646174391,1408.4089420273351,1625.4351029396294,1939.5230938469767,2194.8231664189334,2420.534499660264,2628.9434348484906,2824.664322326881,3008.8201653863716,3181.011111729656,3340.265660390425,3485.5064491042804,3615.7764355428526,3730.3426437400876,3828.7351770793694,3910.7510449545025,3976.4386617351406,4026.0719869550653,4060.119643527073,4079.212320557688
I,6942.190198328377,6098.217008708969,5437.784604580001,4907.203790591061,4469.731301885429,4100.082736181735,3780.7725122222496,3499.646494738343,3248.2068837058423,3020.4691404263035,2812.179082826936,2620.275283374634,2442.519306191676,2277.241179985877,2123.1641902367032,1981.5732504551897,1852.9392032573705,1737.205110960901,1633.9926442051515,1542.7496624595356,1462.855236588835,1393.694658747298,1334.714233157674,1285.463712262289,1245.6330705017485,1215.089913082363,1193.924351837237,1182.5100231781475,1181.5938769117495,1192.4350828143931,1217.0283406902943,1258.476512350992,1321.6386678531742,1414.3119109181528,1549.5036575793758,1710.2009263689285,1887.2198945167324,2074.977384095387,2269.565286430593,2467.8687562476275,2667.172112238575,2864.9955645692257,3059.0404799701273,3247.1836384040535,3427.491032800658,3598.236603843483,3757.9188298169615,3905.2720169621307,4039.271227338182,4159.130902596701
A,771.3544664809308,639.9803552945007,541.0905358528578,465.3073000390592,406.10905315010933,358.93421307329817,320.5751159983521,288.7641482336796,261.88921391757935,238.79707220564703,218.6568151360272,200.86474814352042,184.977908242698,170.6674682584254,157.68599583748514,146.09871376164102,135.88894240071247,126.99260885299338,119.32178770666512,112.78046801510344,107.27491847888861,102.7204098765309,99.04560706922766,96.19563069099914,94.13459053718928,92.84830085569233,92.34791095485605,92.67535744648933,93.9119482806247,96.19219650755538,99.72659993883792,104.84020918594854,112.04034618930554,122.14097901023703,136.50324508512915,153.099059396482,170.88993751039087,189.2908187052825,207.92594141076367,226.51715643633838,244.83394738366383,262.67247111473955,279.84810587387733,296.19401340995887,311.5620636027689,325.8243544238025,338.8745044381321,350.62837678520845,361.02414116726806,370.021705804356
IH,0.0,440.6153771244071,786.1026165263715,1057.0840370090318,1268.8291097006963,1432.8349197647194,1557.9092883748235,1650.9194273338835,1717.313373167757,1761.4859180638962,1787.0374737240847,1796.958827080743,1793.764347421954,1779.5891599594277,1756.2609986949694,1725.3541613362083,1688.375999646377,1646.7215657958106,1601.6507074161236,1554.2804225278064,1505.5873024220537,1456.4164098134672,1407.4940803646557,1359.4429942123697,1312.798519234728,1268.0258467139688,1225.5378849528765,1185.7143132801455,1148.9227115148292,1115.5433951827818,1086.000724399201,1060.8056328003577,1040.6177955190828,1026.3430640440604,1019.296719898882,1021.4955488776958,1033.6862992939346,1055.9623910719445,1088.0540722052615,1129.4689909216254,1179.5635406041959,1237.5824617951714,1302.684345893476,1373.9612591895,1450.4561513034473,1531.1794974004815,1615.125559681937,1701.2881679273814,1788.6757280993465,1876.3251280025434
IN,609.428851482806,1119.7991934949396,1473.1230698510096,1711.0396714943688,1863.706849271225,1953.1549472814477,1995.6138043367791,2003.1402158529254,1984.76426129026,1947.3022521834357,1895.937194831144,1834.6361744601888,1766.4527023644912,1693.7474584783074,1618.350809770227,1541.683531541879,1465.0482594854254,1389.577228240579,1316.2136370714452,1245.714162508908,1178.664018119656,1115.4987859496014,1056.5292842522363,1001.967203014187,951.950297911281,906.5667173908007,865.8786595276371,829.9461231031921,798.8521546453951,772.731873957862,751.8089758344074,736.4459022212719,727.218571200555,725.0358488360255,731.3433497069797,748.4935858770148,776.9631787328935,816.3450647296977,865.8082194704396,924.3136177052584,990.7176800734571,1063.824308770378,1142.4141320909346,1225.2641904992963,1311.1639186763823,1398.9297412213434,1487.4189405778877,1575.5427271840958,1662.2781762963964,1746.6786571625862
D,497.0,497.0,497.5038239867357,498.4026971872728,499.6114255283406,501.0622748943063,502.7006575724627,504.48205719987504,506.36980976331745,508.3334808357857,510.3476612386797,512.3910587032296,514.4458007918247,516.496890135734,518.5317707864592,520.5399767276263,522.5128420819146,524.4434245613601,526.3263770577925,528.1577930424884,529.9350432240273,531.6566149994733,533.3219620573275,534.9313686184516,536.4858309106075,537.9869573307935,539.4368882014422,540.8382359871739,542.1940472989469,543.507789058811,544.7833630626183,546.0251563430425,547.2381401625295,548.4280400925505,549.601617505259,550.7671377384328,551.935172234249,553.117146308198,554.3245920972782,555.5687332891268,556.8602305891401,558.2090087673186,559.6241289882357,561.1136903033438,562.6847535824851,564.3432853511771,566.0941206575229,567.940944533413,569.88629150007,571.9315622352625
R,0.0,253.3294027668586,604.3992027652721,1025.315070809183,1494.9969587827968,1997.3853126551978,2520.160480743172,3053.820070239112,3591.0078250594192,4126.020513904942,4654.441723578236,5172.866819919777,5678.693943948267,6169.963268785808,6645.231872585184,7103.475175005013,7544.059275869753,7966.699133654144,8371.410924851314,8758.463948252365,9128.335378640806,9481.669769022094,9819.244273187373,10141.939981646367,10450.71944119301,10746.610299174354,11030.695041776946,11304.10697108189,11568.032908659825,11823.723688620523,12072.514449544504,12315.858332917032,12555.380013299467,12792.960711911015,13030.87658380581,13272.033548606667,13519.502224509073,13776.292588856462,14045.240146618013,14328.945036709645,14629.73700276652,14949.653830716805,15290.427742737844,15653.477430856912,16039.904831445341,16450.496304586668,16885.728040645416,17345.775494772653,17830.526561154635,18339.598098459865
G,135175.0,135381.0710389878,135643.02730354312,135934.94114575407,136239.71006382382,136546.13279880272,136846.98250866018,137137.71900757516,137415.62006555084,137679.1913751951,137927.7637915387,138161.21745585097,138379.79244340188,138583.95871838028,138774.326909457,138953.8761632819,139124.96590580445,139289.4990001963,139449.04830581468,139604.95564646262,139758.4105430639,139910.5148189047,140062.3383314167,140214.97063673724,140369.57341059673,140527.43906643023,140690.0624988629,140859.23575700636,141037.18071791728,141226.74445886482,141431.70004345992,141657.2304065738,141910.7440161387,142203.32233466784,142552.43649156034,142947.50466151573,143383.20087145458,143856.41068972726,144364.8502677461,144906.43789751563,145479.01989762697,146080.26771649724,146707.65887733607,147358.4986357338,148029.960311607,148719.1326434813,149423.06783157305,150138.82679068542,150863.5197483373,151594.34128417217
H,100218.057824981,100218.057824981,100218.057824981,100218.057824981,100218.05782498099,100218.057824981,100218.057824981,100218.05782498102,100218.05782498099,100218.05782498099,100218.05782498099,100218.05782498099,100218.057824981,96649.14032049257,93129.67088974387,89662.28748193379,86249.79465439565,82895.17406428032,79601.593981561,76372.41724457336,73211.20690365211,70121.72858699717,67107.94837488644,64174.02468721951,61324.29238572147,58563.236987529395,55895.45661868641,53325.6091627695,50858.342065834666,48498.20255619567,46249.526761571215,44116.3074992536,42102.0424935868,42102.04249358679,42102.04249358679,42102.04249358679,42102.04249358679,42102.04249358679,42102.0424935868,42102.0424935868,42102.0424935868,42102.0424935868,42102.04249358681,42102.04249358679,42102.0424935868,42102.0424935868,42102.04249358681,42102.0424935868,42102.0424935868,42102.0424935868
S0,42293.40826743272,41901.58724254053,41498.775093071374,41131.20578027616,40791.257646821345,40473.591003317364,40174.37376541908,39890.78796522257,39620.7088563482,39362.4929536204,39114.836230891684,38876.67820902815,38647.13642754046,40101.215728675976,41518.521831078484,42898.07002013008,44238.68217629769,45538.99807864521,46797.482523018894,48012.42813794515,49181.95368890695,50303.99738566831,51376.30418551734,52396.40518938762,53361.58571681359,54268.83607517404,55114.7745792313,55895.524438113964,56606.51154748043,57242.12245376716,57795.10658811987,58255.49203738005,58608.53342428668,58075.099015205444,57543.0296643904,57003.61049262568,56453.81109417197,55893.24574376944,55322.805254488274,54744.002289759504,54158.639317216104,53568.62931113439,52975.89247498642,52382.29328293994,51789.60066752161,51199.462697994786,50613.39107896628,50032.7527102735,49458.76650529241,48892.50417719633
E0,1144.8391054878018,1213.2011328397189,1223.373915167018,1197.6082889895022,1150.6098406403876,1091.8818952064387,1027.5342792580077,961.4514857639361,896.0559142668494,832.8103786251284,772.5505181743391,715.7052139673824,662.4427939138209,612.7678568683677,573.6218599911093,542.792822309736,518.6317999286236,499.9271600559623,485.8088835846804,475.6773324847354,469.1522039687575,466.0386196637106,466.30853846488446,470.0970592309427,477.71490171785524,489.6807861835049,506.78124510923834,530.1718857830567,561.5458779552897,603.4179330879982,659.617310176488,736.1791456158431,843.0358363959789,997.3981762547589,1121.3478645369744,1229.6600207929143,1328.4983498281924,1420.1551831386341,1505.1857875728456,1583.4073445551132,1654.3774936724476,1717.6253113542593,1772.7605099242708,1819.520705859305,1857.7862099488914,1887.5774299596942,1909.0429960591894,1922.443198318534,1928.1314595523384,1926.535515119152
I0,6942.190198328377,6098.217008708969,5394.204543935834,4798.5089149418245,4288.27769448908,3846.7620154605147,3461.4569669918533,3122.8488431487463,2823.5621467764126,2557.7729969129136,2320.8017129323116,2108.8268565730555,1918.682201596469,1747.7107298196759,1593.658139382848,1455.860566198189,1333.3564026762904,1225.0326797326682,1129.7266770402505,1046.2949386401199,973.6590276943549,910.8351723321244,856.9533234503506,811.2699842315287,773.1784336119321,742.2196499624538,718.0974108318192,700.701874880947,690.1478241857643,686.8374499606248,691.5647578626304,705.6929224706394,731.4652553054962,772.5735862118823,835.2492784557156,910.7558734168222,994.3378711328647,1083.0685338797257,1174.8764286872224,1268.1033861816193,1361.3091368304897,1453.1916348694945,1542.5610098332584,1628.3371138889838,1709.5559484358498,1785.377780874837,1855.0935661523326,1918.1282595864104,1974.0406473605387,2022.5198677672006
A0,771.3544664809308,639.9803552945007,536.2483068923949,453.4661238172563,386.72506483359507,332.3922486796838,287.7514368478758,250.75183506346082,219.8304977660474,193.7855164981749,171.6846207710425,152.7987069803208,136.55306986360426,122.49131176915984,110.24840655269523,99.67116244197837,90.59278639977741,82.8468651183944,76.27603529583477,70.73700590836143,66.10315137638385,62.26556518048223,59.13322453766,56.63275039942569,54.70814150415941,53.32081123768463,52.4502647138178,52.095836673239006,52.28010705425234,53.05500320250767,54.512361223766106,56.802235182542645,60.165371058350985,64.99301357460037,71.94237438477548,79.98085679855987,88.57788585470618,97.4322756803288,106.34892420703574,115.18285511708551,123.81443098477068,132.1390946612655,140.06378195609759,147.5062357633635,154.3954027278769,160.67204638127936,166.28918570421737,171.2122084845577,175.41863075401685,178.89753379426026
IH0,0.0,440.6153771244071,786.1026165263715,1054.318044677036,1259.4252457937093,1412.8013734449664,1523.687373703026,1599.6588472524393,1646.9729854568216,1670.828642073257,1675.5646426727528,1664.813529810477,1641.6226563839234,1608.550970470343,1567.7474040067357,1521.0151083728817,1469.9450145906148,1415.9169538352335,1360.1099630040612,1303.518067317313,1246.9689545641706,1191.143791886112,1136.5970549059534,1083.7756960231236,1033.037318905238,984.6672875143265,938.8949146115547,895.9090816216559,855.8738818531035,818.9452153530584,785.2898033841619,755.109035850306,728.671825821981,706.364101897558,688.7697068319242,676.8129111338638,670.7763056822689,670.6139976148402,676.098665242075,686.8929571635102,702.5861005305908,722.7146565861844,746.7762614233513,774.2404173469411,804.5581106522194,837.1709300808507,871.5198403275142,907.05353554043,943.236215125752,979.5546153271097
IN0,609.428851482806,1119.7991934949396,1473.1230698510096,1707.2139413505417,1850.961049868299,1926.5517588398166,1951.0967066214748,1937.8275545875467,1896.9900750888714,1836.5171927117729,1762.5411324998208,1679.7865564592944,1591.8746952247454,1501.5602219209945,1410.916806651116,1321.4831618560813,1234.4896146090707,1150.8820947710624,1071.3550743626681,996.3880728485332,926.2822873580955,861.1952855516391,801.172661894924,746.1762214348327,696.1087087494965,650.8354148559332,610.2032310109847,574.057930996521,542.2607144564897,514.705418375587,491.33844267256154,472.1846023742793,457.3843469797687,447.2522287868,442.37576366083147,443.7939987844486,451.61015034724915,465.49318993664525,484.9089682215795,509.228314872367,537.7787624387302,569.8707126120588,604.8123548761714,641.9198735355449,680.525780350231,719.9864569247815,759.6891836740127,799.0585900014927,837.5623468660416,874.7159191799931
D0,497.0,497.0,497.5038239867357,498.4026971872728,499.60826273975823,501.04835920773104,502.66383442123845,504.4061028190595,506.2352412007011,508.1184811842765,510.0289990447638,511.94493231022125,513.848572158732,515.7256942801905,517.5650004072236,519.3576494800637,521.0968622619391,522.7776786745815,524.3967164149881,525.9519413561416,527.4424559944275,528.8683092502179,530.2303289280605,531.5299768505911,532.7692259105336,533.9504579044197,535.0763809297154,536.1499652927774,537.1743972774285,538.1530508008539,539.0894780449734,539.9874218300179,540.8508552565703,541.6840589152886,542.4917546889304,543.279332058344,544.0532373663864,544.8202400859516,545.5870572134975,546.3601458132918,547.1455772033567,547.9489530013249,548.7753449033278,549.6292501748264,550.5145594808824,551.4345357139291,552.3918032480884,553.3883472256017,554.4255223951138,555.504070841243
R0,0.0,253.3294027668586,604.3992027652721,1024.3466250170904,1490.7806870644806,1986.3442172842874,2497.6200333728193,3014.2900249386366,3528.4825586738225,4034.2618584356514,4527.225655620381,5004.186285042571,5462.916714741943,5901.947540491818,6320.404283125236,6717.876763774882,7094.342296048331,7450.093064439809,7785.670302465138,8101.806519229408,8399.376134809392,8679.35432839,8942.783582806369,9190.747255276792,9424.349467381124,9644.700654931235,9852.908231544863,10050.071993199463,10237.284134994175,10415.63409771964,10586.218978841778,10750.161066357385,10908.635458766172,11062.913291081406,11214.43103769631,11364.906516433843,11516.106042400988,11669.732925552611,11827.372155806419,11990.461697744524,12160.276817815482,12337.921272807582,12524.322633816555,12720.230598083956,12926.217828318417,13142.683121979577,13369.856778841027,13607.808016320538,13856.454234321274,14115.571881823398
G0,135175.0,135381.0710389878,135599.44724289895,135819.654547629,136035.22403964712,136242.3338109624,136438.87255209955,136623.828722366,136796.8899898035,136958.1800543715,137108.08592252404,137247.14501579542,137375.97195430956,137495.21165721404,137605.50987145034,137708.76180624875,137806.4645142645,137899.81823825164,137989.8051270617,138077.25072610695,138162.8726459542,138247.32004266858,138331.20699420804,138415.1425311317,138499.76000179327,138585.7486841025,138673.89122561552,138765.11184973517,138860.54278917614,138961.6210472081,139070.23627516392,139188.96739099568,139321.47963720653,139473.2260877578,139652.75775948365,139854.6003751003,140075.93917884302,140315.0688818121,140570.69681477704,140841.63025654014,141126.64357856006,141424.4315274211,141733.6040834649,142052.70097525127,142380.21470230594,142714.61622009674,143054.38015748948,143398.00789678012,143744.04767247746,144091.11133519688
H0,35076.32023874335,34997.39851820617,34871.40788354063,34745.870815159884,34620.78568022531,34496.150851776496,34371.964708710104,34248.22563575875,34124.93202347001,34002.08226818552,33879.67477202005,33757.70794284078,33636.18019424655,31839.335448269903,30079.90396670337,28358.973881708192,26677.70605431923,25037.336275410325,23439.176731099265,21884.61642560481,20375.12017539737,18912.225696109555,17497.53819923102,16132.721802638327,14819.486944750151,13559.572889193818,12354.72433533361,11206.661139186837,10117.040239130167,9087.409121573872,8119.15060997279,7213.4194695160295,6371.072322731715,6348.136462369881,6325.2831711053495,6302.5121516893705,6279.823107943289,6257.215744754693,6234.6897680735765,6212.244884908511,6189.880803322841,6167.597232430879,6145.393882394127,6123.270464417508,6101.226690745605,6079.262274658921,6057.376930470149,6035.570373520457,6013.842320175783,5992.19248782315
S1,12083.830933552208,11236.307899846432,10520.682191673635,9866.266493196374,9266.019584239702,8714.231302126762,8206.134266374762,7737.655732559793,7305.253955903474,6905.806911414554,6536.534221074206,6194.9406115493975,5878.773642629262,5829.599114199489,5774.774936974897,5715.47419955089,5652.691674739525,5587.265258756032,5519.894273974443,5451.155092789187,5381.51445515228,5311.340762543576,5240.9135340259045,5170.43109695916,5100.016438663115,5029.720934413681,4959.525334059474,4889.33682527352,4818.979981016457,4748.177498578769,4676.512888673943,4603.359506018591,4527.743432582111,4390.944571507708,4262.450158821899,4141.007119988555,4025.8605882879137,3916.4942616568237,3812.5155993792696,3713.6019224315737,3619.4736220066043,3529.8799879753724,3444.591190999338,3363.3934334774794,3286.0858397815095,3212.478368407642,3142.39036394431,3075.6495304926084,3012.091192301159,2951.5577535692246
E1,0.0,84.95138527127928,135.75531354367897,164.10163992565276,177.46243536039657,180.9032997592586,177.88604921828974,170.7880032901658,161.24429850847986,150.3771487129172,138.95151774716606,127.48211350781892,116.30771510904972,105.64329005567595,96.63976874093595,88.98074376418239,82.42920284666735,76.80719333676461,71.98095735849589,67.85022501292883,64.34067296793594,61.39882307641523,58.98888273041749,57.09123161909898,55.70245999901037,54.837093268888474,54.53144881890647,54.850558496818905,55.89993864432279,57.84558335587278,60.94873375218021,65.62865362745896,72.58135973251632,83.01577294105708,90.86647648682042,97.32888515849476,102.90882702386989,107.81103576758477,112.10933787922991,115.8237039699226,118.95561182658136,121.50412733937365,123.47283489557259,124.8723409310327,125.7206204567301,126.04233276495466,125.86768359416162,125.23113803546377,124.17014683948055,122.72397181867768
I1,0.0,0.0,15.291249348830272,37.414320707456355,61.29349529902248,83.9657573363655,103.82807135646183,120.14299667303764,132.71255205555428,141.66302659323483,147.3036059511299,150.03440326363378,150.2876597870617,148.49121816469173,145.0469016513549,140.5029230081321,135.26762148615097,129.64491058176105,123.86070373584413,118.08266732833833,112.43505870057925,107.00996239178164,101.87590858459129,97.08461922736294,92.67646138498614,88.68508262923086,85.14165572441867,82.07917551404054,79.5373519236837,77.56888147705493,76.2483689974984,75.68615832260332,76.05137066410258,77.61282974081544,80.81630397138153,84.94836184565457,89.61865693253014,94.58693388529304,99.68612935541199,104.78773800747902,109.78628635075732,114.59252033837687,119.13051794634363,123.3364859616567,127.15818940206785,130.5545296139996,133.49506301257486,135.959387804522,137.93639179576263,139.42338470744755
A1,0.0,0.0,1.6990277054255858,4.074328435214048,6.541495546684295,8.782445144555368,10.644022110829466,12.072938673029368,13.074111004226811,13.684174773551046,13.95488279309918,13.942936589422667,13.703991541694512,13.289347535536603,12.744343829542801,12.12827043845296,11.482231226046016,10.834369037770161,10.20363909695142,9.602530424731054,9.03902884004342,8.518036531393454,8.042405686643068,7.613702203922805,7.232786395520224,6.900278316396387,6.616964518494878,6.384200591174032,6.2043716428756035,6.081496087186939,6.022108536867007,6.03666150453721,6.141902276178947,6.3651490155934844,6.752434671295929,7.219277266773152,7.721999516588417,8.235776153748132,8.744841638350202,9.23806006826476,9.706922134010261,10.144649943739836,10.545802501779342,10.906098699334926,11.222325778088596,11.49227303160548,11.714665080583478,11.889085736350015,12.015891349789289,12.096116016621043
IH1,0.0,0.0,0.0,0.9705236252617429,3.2536349231624118,6.836980251240337,11.521310953693398,17.024429448590087,23.043952153999335,29.293452637263577,35.52153761217639,41.52015067833725,47.126255588503426,52.219628790240165,56.71854186668831,60.574478985007865,63.77829528835874,66.34762549719639,68.31773005765739,69.73488196153947,70.65163107321217,71.12345691487927,71.20645033888916,70.95576088637246,70.42461877260568,69.66379524523246,68.72140804974073,67.64301465162738,66.47196938524807,65.25005746903908,64.01846726435105,62.819237077669754,61.69744331530244,60.70464446319335,59.904597693437466,59.38333874333766,59.17350693858489,59.27988786069578,59.691566864027195,60.388055466131206,61.342641663650795,62.52443879002172,63.89980873332362,65.4334676442554,67.08941097934557,68.83171507355434,70.62523632533586,72.43621388464678,74.23277656713155,75.98535421167267
IN1,0.0,0.0,0.0,1.3423614539743896,4.408632691319719,9.072765636185146,14.969088421323221,21.650642177630814,28.67838100308557,35.667242887040224,42.30584147201498,48.360546382740736,53.670826702435,58.14018956102374,61.725385049013106,64.42546779227683,66.28777162387948,67.38778315668118,67.81539859518472,67.66573422209629,67.03316461904936,66.00763250830289,64.67254479161737,63.10376715470773,61.36937430867943,59.52991955724268,57.63906747115235,55.74449635076826,53.889031207039466,52.11202212252873,50.451049122119294,48.94413313132798,47.632801704986065,46.56667889384685,45.81092172362824,45.45922872755283,45.52743890272854,45.994549675358726,46.82188118080626,47.9623748379599,49.36534011595581,50.979066762173616,52.75241439523434,54.63589024461804,56.58244608558586,58.54809554865754,60.492394052435344,62.37879847860724,64.17491454693084,65.85263794894641
D1,0.0,0.0,0.0,0.0,0.0011097503797795943,0.004830136465867765,0.012647917746888412,0.025822021780648352,0.045288695805207516,0.07163842495026229,0.10513417852400095,0.14575146884996967,0.19322790505868548,0.2471146716202181,0.30682548274682986,0.37168059985964286,0.4409448086937494,0.5138724382492514,0.5897379820407596,0.6678562523267798,0.7475949724633788,0.828381954227372,0.9097084477490915,0.991129840541078,1.072264581150783,1.1527919844972547,1.2324494201515748,1.311029278175763,1.3883760415570616,1.464383767025962,1.5389942908422964,1.6121965463158414,1.6840275356805847,1.754575804026058,1.82398885126563,1.8924870807887981,1.9603892740045752,2.028051533931813,2.0958354356878957,2.164090073980836,2.2331411158548726,2.3032836843725226,2.3747775850738266,2.4478441598215817,2.522664404974217,2.5993781473042286,2.6780841364790486,2.75884093702878,2.841668509460727,2.9265503710076324
R1,0.0,0.0,0.0,0.3398055410851172,1.4632995375535205,3.7913763153893147,7.6596740119984545,13.295195621642659,20.815340361073183,30.23894965940042,41.50291271107936,54.48042988447262,68.99867944426748,84.85468526771828,101.82884412261998,119.69597492642373,138.23808006986064,157.25222436066505,176.5550142719976,195.98474502234328,215.4019820086134,234.68912450696354,253.74934157334124,272.50515665600767,290.8968768497922,308.8810065599369,326.428747762356,343.5246663243095,360.16559420905537,376.3598412154882,392.12681059782034,407.49715897748035,422.5137307891756,437.23367031445434,451.73245590913217,466.111304453398,480.47778358476745,494.93634144495053,509.5834932332114,524.5052968295253,539.7760246970964,555.4575189239572,571.5989827487617,588.2370841799444,605.3963024257755,623.0894717520624,641.318487112766,660.0751395978521,679.3420512770247,699.0936801583005
G1,0.0,0.0,15.291249348830272,39.72720578669249,69.26550097330998,101.20873933818137,133.77133329484792,165.79082215414007,196.5326627463699,225.5566364778963,252.6245232462214,277.6357964407113,300.58257687211875,321.5179655917477,340.5337578017694,357.9289161751379,373.9454500526907,388.78270656509085,402.6080013657085,415.56457369023775,427.77761419256495,439.3589353267934,450.41072348054814,461.0287223720233,471.3051440634611,481.331586863283,491.2022636516829,501.0179244390861,510.8910249685135,520.9530139244915,531.3652189285486,542.3359910039411,554.1491486568838,567.2137934087367,582.1566325381269,598.5125983057546,616.0317976342837,634.5553864985803,653.9613729367456,674.1410537550071,694.9893204695932,716.4013305983779,738.2720735194652,760.4971838006683,782.9742051682541,805.6039168504656,828.2915367481575,850.9477197951065,873.48932464149,895.8399510725966
H1,10021.8057824981,9384.884232856839,8840.525993746893,8334.596919717147,7864.353703243355,7427.248981460498,7020.917340136858,6643.162317364153,6291.944335555445,5965.369495443119,5661.6791705055075,5379.240344648672,5116.536640053709,4628.551986597416,4183.787569322968,3778.374725729661,3408.800612853586,3071.8778419719247,2764.716613997967,2484.6991270556314,2229.4560407854897,1996.844793069843,1784.9295743296314,1591.962772740882,1416.367711257219,1256.722505122708,1111.7448779242147,980.2777869425556,861.2757268854572,753.7916076799293,656.9641395977197,570.0057097550455,492.1907985467611,479.9701732981123,468.5398807556358,457.8437658319268,447.82968344715664,438.4492121038127,429.6573879203716,421.4124576625528,413.67564941518395,406.410959634633,399.5849554117675,393.16659085897436,387.1270366123792,381.43952151246486,376.0791855932038,371.02294357195325,366.2493580900588,361.73852200768744
S2,12083.830933552208,12767.65960752843,13386.75966440992,13950.472932246561,14463.237128179691,14929.106368781882,15351.796646699506,15734.720366246513,16081.01428366445,16393.563284762764,16675.021350942832,16927.8304610218,17154.23784558447,18094.840198972255,19017.923305426382,19921.530163148473,20803.836166392917,21663.128607606388,22497.78820584592,23306.272377048404,24087.100024286647,24838.83765037939,25560.0865679268,26249.47087688389,26905.625648067813,27527.18430179173,28112.76333519475,28660.941007812547,29170.223707144167,29638.988175810493,30065.376761537547,30447.099930375363,30781.050238446653,30677.348594876636,30564.68616687252,30442.111254541065,30309.643944158513,30167.74386696841,30017.071111944406,29858.372382316174,29692.423760207952,29520.00018393256,29341.858127561063,29158.725209569067,28971.293733359093,28780.216669226113,28586.105290084633,28389.528007033576,28191.01011429129,27991.034237583444
E2,0.0,29.73298484494775,50.74815064012298,65.31417760338877,75.1056790746102,81.35428063611928,84.96871528422693,86.62226845939361,86.8163596270362,85.92669075086222,84.23669313747189,81.96175133988991,79.26675267872525,76.278820991796,74.19563389777731,72.80665508048182,71.96307087244678,71.56436987712684,71.54809791842325,71.88233559492846,72.56055042757525,73.59859728547579,75.03378875727421,76.92615012428348,79.36224673992766,82.46239033576408,86.3927189335629,91.38484457725927,97.76796468353078,106.02257444376933,116.87349610713666,131.45817244098853,151.64684437664602,180.68543807182,204.34478636937766,225.30503208672567,244.68622261756622,262.900723174218,280.039467086337,296.0539975623953,310.84447779836705,324.3027921413243,336.3334645255673,346.8632331069645,355.84461994996116,363.2562297208699,369.10124491607195,373.4049480995683,376.21176615545613,377.58214432090966
I2,0.0,0.0,5.351937272090596,13.677094609580088,23.36491122974592,33.349862876256054,42.949284267841406,51.74733891929395,59.512279266942876,66.13766633713382,71.60078698647193,75.9333811938883,79.20115731248538,81.48956466536373,82.89401018906037,83.71105197062079,84.15449552787966,84.37902066482991,84.49781896791613,84.59571942548402,84.73897468527888,84.98264047356137,85.37629891338109,85.9687488265086,86.81221249671752,87.96659506541644,89.50439680548443,91.51705677100209,94.12387352702389,97.48535661329636,101.82422675843569,107.45998496782808,114.86854567083175,124.79048200461894,138.43861807816913,154.2810816337604,171.50013017632992,189.6033177656184,208.24690934082875,227.15552964805084,246.0867332238535,264.8167751821591,283.1362924568584,300.85040359859903,317.7805169109453,333.7665076397183,348.6686196153351,362.36880840242185,374.7714352934629,385.803324297561
A2,0.0,0.0,0.5946596968989551,1.490690770321624,2.4988361683250746,3.501182516152264,4.428031625644198,5.241799606199897,5.925885054147789,6.477035235858956,6.900162003704409,7.2048634657129655,7.403125799368171,7.507835693069042,7.531844974291154,7.509388657388469,7.463644027520412,7.4101766394652655,7.3594287091147494,7.318504925660265,7.292450652426782,7.2851715304929305,7.300109170103861,7.340763111228573,7.4111334914685285,7.5161517279733765,7.662169189093984,7.8575897299464454,8.113768675502342,8.44637423407249,8.877550876133379,9.439510623049436,10.18077194725932,11.177554445340377,12.555752317708702,14.131497581554516,15.811298706978127,17.542763417933827,19.29222519783142,21.03456949999188,22.74873555124141,24.415877996960468,26.01875824039486,27.541675882827235,28.97060536840108,30.29337669372009,31.499825949393472,32.58188565783622,33.533607488260344,34.3511213137174
IH2,0.0,0.0,0.0,0.33968326884161004,1.1757165349320653,2.547767630051185,4.424134657613405,6.732777827192727,9.382059812073386,12.274278301048778,15.314191326855624,18.41409920280696,21.496589180961593,24.495721064657694,27.357197983854903,30.037900119810104,32.51759731611308,34.79153773026069,36.86523515171486,38.75086745343123,40.46484783857014,42.02624630973372,43.45582840184666,44.77554784277822,46.008384759434804,47.17846614531955,48.31144530528376,49.4351572866598,50.580615112182315,51.78347823322263,53.08622987554005,54.541481870220736,56.21716182357444,58.20499586727964,60.63506150163232,63.70214343475003,67.48542623175145,72.00472375845288,77.24672574463091,83.17756083948927,89.74907481515919,96.90226785221213,104.56950448015593,112.6762409532581,121.14259602263174,129.8848883034694,138.8171668119129,147.85271782709233,156.90551486440881,165.8915759247715
IN2,0.0,0.0,0.0,0.4698265088910364,1.594120270312847,3.3861248392894634,5.763392741316949,8.596949151633117,11.742278498815399,15.058010983593572,18.416411626349785,21.708513996793304,24.845849749551277,27.760098756283835,30.40154713596687,32.73693707765613,34.76445032375954,36.50133334693518,37.97560808326602,39.220678358982624,40.2719652547148,41.16494846722763,41.934173846007624,42.61292467667258,43.23335813904741,43.82698888088659,44.42546790635541,45.06166609159711,45.771138467451316,46.594133610411824,47.578448495714284,48.78366284357018,50.28771989188569,52.197672479621914,54.668184875148555,57.93525100499992,62.06202826755029,67.02962170822977,72.77897763572244,79.2304659217312,86.29322561184719,93.86988120270365,101.85924319112151,110.15819053986287,118.66325592218217,127.27211202516614,135.8850073918779,144.4061358151907,152.744901056049,160.8170369134897
D2,0.0,0.0,0.0,0.0,0.0003884126329228581,0.0017327919320894564,0.004646050323173893,0.009704850530287282,0.01740348099761228,0.02813144698273226,0.042166535517991495,0.05967762870380858,0.08073332796934987,0.10531371672712411,0.13332347872250833,0.16460521165724318,0.19895220764793914,0.23613462653170839,0.2759171946261843,0.3180709430207648,0.3623808276581802,0.4086505722452488,0.4567057061842703,0.5063955033384409,0.5575943406773687,0.6102028719184898,0.6641493389177522,0.7193913169384114,0.7759182093760264,0.8337548816312654,0.892966974093341,0.953668704820977,1.0160344511498163,1.080316262596722,1.1468710734096612,1.2162045556432832,1.2890451089584305,1.3662116770263393,1.4485458597880598,1.5368740374856558,1.6319838599857204,1.7346079149479363,1.8454113263759624,1.9649818801364856,2.0938221246553064,2.2323432677210864,2.3808608311998034,2.5395920558496936,2.7086550291655773,2.8880694712028125
R2,0.0,0.0,0.0,0.11893193937979103,0.5250900017430736,1.3935277789328864,2.8815652170986663,5.116227261833208,8.189345195584853,12.157400929351299,17.044142905241866,22.844664523730653,29.5300949092782,37.052366919257594,45.348741251822425,54.34590875614095,63.967983406449406,74.14153397583664,84.79860285264684,95.87838943639053,107.32807840330636,119.1031503942093,131.16741116704185,143.4929049954938,156.05983175353128,168.856559637348,181.8798138508799,195.13512498658397,208.6376411066438,222.41345046225126,236.50163994372295,250.95745313557762,265.8571628485637,281.30574444913634,297.4493652768896,314.49663218612534,332.67588832261043,352.21442301043066,373.32782219373394,396.2140994430541,421.050145840195,447.9893843129721,477.1601431953136,508.66455294065,542.5778960679111,578.9483884769238,617.7973817511737,659.1199715757165,702.8859872226743,749.0413262643698
G2,0.0,0.0,5.351937272090596,14.486604387312735,26.243156355922714,39.76217858935255,54.40594910385403,69.70031785501487,85.29232617770572,100.91927091057224,116.38607524572744,131.54868001047237,146.30179525165255,160.5698107338231,174.29999851234638,187.6552126139463,200.76041052843303,213.71376328547345,226.5953498633563,239.47400748867247,252.4128278957596,265.4737269727231,278.72147448410874,292.2275564604181,306.07426348278915,320.35946789597614,335.2026981564137,350.753387564455,367.2026595883617,384.80089323139725,403.8849566312757,424.9221859305603,448.58465696993824,475.8810889577345,508.4044678106621,545.1865293571501,585.7414351327608,629.7849552039227,677.1070853752819,727.5141894508226,780.8039090120539,836.7559150157599,895.1304176011982,955.6704412158003,1018.105823175054,1082.157854766047,1147.5439761158036,1213.9822002006965,1281.1950908586189,1348.913208766601
H2,10021.8057824981,10618.341840980129,11162.281883315378,11660.863717591163,12117.372262837729,12534.857381368949,12916.15067312364,13263.881070358135,13580.489318379881,13868.241421891224,14129.241130828932,14365.441534307553,14578.655826374035,14032.038937594034,13459.611909089124,12866.559255022032,12257.681565985404,11637.433059645891,11009.955676965066,10379.109814873149,9748.501724034926,9121.507532847945,8501.293786512433,7890.834314642477,7292.923166144769,6710.1832825208285,6145.070530788136,5599.872700227695,5076.703104138733,4577.488545108406,4103.95162974813,3657.587784567539,3239.6378462218995,3236.227214615455,3231.9842839627554,3226.9754149219343,3221.2621670656204,3214.9016424658266,3207.9468047296014,3200.4467752390374,3192.4471082239934,3183.990046179554,3175.1147570322714,3165.8575543589186,3156.252101868382,3146.329603270833,3136.1189785780234,3125.64702780399,3114.938582966225,3104.0166492230596
S3,36251.49280065662,36042.352119137446,35850.511525643575,35673.29428541905,35508.68107127064,35355.09114614116,35211.25050355919,35076.10572872523,34948.766410291035,34828.46584941965,34714.533736067315,34606.37678394388,34503.46473508611,35847.30542208614,37240.46435532465,38684.94715302082,40182.86569306624,41736.450802238294,43348.06248055096,45020.19705469943,46755.49039325758,48556.715981348876,50426.776220439904,52368.684753065965,54385.536851907025,56480.46384951128,58656.566013628304,60916.8157816406,63263.9189929723,65700.11382111053,68226.87125599176,70844.42722762667,73551.0004111145,73222.94291326957,72895.8122611949,72567.24600998987,72236.30060299991,71902.70160349486,71566.50672933999,71227.94490938207,70887.33475723141,70545.04045593884,70201.44608612951,69856.93958970303,69511.90215899203,69166.70095973738,68821.68408844867,68477.17713903611,68133.48098759723,67790.87052573462
E3,0.0,50.97083116276755,84.26893377510422,105.23797544492152,117.58564303862433,123.9081224276006,126.03639559770971,125.26905231667298,122.53103474967004,118.48310042031164,113.59800774005859,108.2139663081792,102.57240374138772,96.84482386766958,92.38780998219974,88.96040425055226,86.39005460517839,84.55742402653976,83.38537339380831,82.8313525818272,82.88267476677304,83.55438147088978,84.88965492516071,86.9630365256917,89.88712580345329,93.82406937992054,99.00420037628376,105.75603778647923,114.55527941238557,126.10707461926972,141.48943310682824,162.41474335899917,191.7321105229095,234.4480490145715,269.1164470158139,299.55641393402243,327.42565371275504,353.3926722326398,377.6684697360712,400.2578598166565,421.08173333795935,440.0376665453955,457.03003557037994,471.98449669919796,484.8541519643324,495.62114794069714,504.29571804461153,510.9138040937012,515.5339326264109,518.2337653410317
I3,0.0,0.0,9.17474960929816,22.955426641275242,38.42612841758095,53.77938212058411,67.94841853674757,80.35739988681695,90.75133316262165,99.08028403255553,105.42080735996748,109.92297518057245,112.77503804193165,114.18022953790931,114.34191375901824,113.67687985818229,112.49550293967289,111.03015280389633,109.45657138479183,107.9100336460536,106.49769445088175,105.3082172751876,104.41956223332741,103.90567034763852,103.84271610780635,104.31562011099068,105.42564464153568,107.30019547137289,110.10654097166065,114.07227486210506,119.51749295353247,126.90791656098723,136.9470540310765,150.74484315255933,170.14451014919317,192.85018307203805,217.6006928519899,243.62401584778007,270.3852322739552,297.4683119312776,324.5210179099195,351.2301514141991,377.31145040308206,402.5064367272897,426.582346602557,449.3331814056287,470.5808873149381,490.1761841379974,507.9988406548953,523.9573460520975
A3,0.0,0.0,1.0194166232553512,2.5009119741063657,4.105489088183523,5.636104131319305,6.987045753607457,8.11036451484016,8.993672658205588,9.645558821557872,10.086109065652531,10.340847407323198,10.436957252022143,10.40101387644547,10.257707578509768,10.05392226245181,9.822345894972493,9.585677808081563,9.359690726996046,9.155460049473003,8.980995091214947,8.84244956830742,8.74504728406373,8.693830925754199,8.694325471117194,8.753202892962822,8.87904370196867,9.083318969100612,9.381775931010074,9.79652633305577,10.35936255883001,11.117278709200573,12.142117834540443,13.548336478090544,15.527630162763867,17.80443307052737,20.234674735102345,22.73625286233698,25.256855734522382,27.758853982339332,30.212240382204598,32.59142697252287,34.873894908926204,37.03971663854856,39.07146324482281,40.954253635144894,42.67582586692986,44.226575054436125,45.59953612542293,46.790307552866565
IH3,0.0,0.0,0.0,0.5823141751570455,1.9843493248575637,4.236048374501428,7.249810945670956,10.878592712800167,14.952671591800868,19.302150625949,23.76998939472276,28.21881946860278,32.53375489131205,36.6226946412595,40.41512436473691,43.86008845803964,46.93789107561568,49.650393482059684,52.014029704229884,54.05483780347434,55.804985551271415,57.30040747278088,58.579275907305565,59.68111058855934,60.64639646069644,61.51663438956378,62.334800442695666,63.146243932413434,64.00012286202897,64.95157471233713,66.06498121953564,67.4189674298892,69.11430091121467,71.28689527734637,74.13029073407147,77.93675959243814,82.82528786866023,88.82359260028655,95.90777663044516,104.02224600358409,113.090245650696,123.0199043586857,133.7081383457802,145.04354549994622,156.90882650344074,169.18297316772419,181.7433170430348,194.46745966013353,207.23507330362852,219.92954940002608
IN3,0.0,0.0,0.0,0.8054168723846336,2.6896726905810624,5.6257704675271984,9.432430130045358,13.864189776321773,18.664935025190616,23.597796263724682,28.460021873676865,33.08853659601712,37.359946205894744,41.18743917919371,44.516155729128144,47.31800572474885,49.60605325179997,51.418485584675665,52.80768179001205,53.83293479940609,54.55577516414252,55.03713878715116,55.3358402894808,55.50797820223821,55.607023627490165,55.68444337668584,55.790793542433406,55.97730210509893,56.29805476079133,56.81302980727261,57.59243607788042,58.72317044943462,60.31888923148871,62.53653303482195,65.60497012008695,69.8776776908009,75.44913164704917,82.28773817026101,90.29926574073652,99.35784092799727,109.32152843895636,120.04054203801923,131.36194767401005,143.1327153853649,155.20199836090632,167.42303545131819,179.65483668577764,191.76369837557007,203.6245447075792,215.12207544226487
D3,0.0,0.0,0.0,0.0,0.0006658502278677564,0.0029348649736779518,0.007778596924149412,0.01606843164931522,0.028507616106305277,0.04560532763624908,0.06767647400523405,0.09485639427872183,0.1271233528638548,0.16432424721256547,0.20620066137582604,0.25241354939337474,0.30256559985000236,0.35623698001158227,0.41300998541684697,0.47248570317958444,0.5342949937727443,0.5981055000779527,0.6636259544999608,0.7306087378070788,0.7988514198164525,0.8681978630690531,0.9385393844907182,1.0098164422193339,1.082021349304158,1.1552026287737047,1.229471850900945,1.3050142035961088,1.3821047789950227,1.4611338924426591,1.5426472704256091,1.6274119440038757,1.7165291445595792,1.8112361586653007,1.9128019660870128,2.022468221260089,2.1414130094169677,2.2707266497998906,2.4113944110258805,2.5642836900156984,2.730134500355049,2.909552729103476,3.1030058958664055,3.3108212543606585,3.533186101125109,3.7701501433351376
R3,0.0,0.0,0.0,0.20388332465107026,0.8892427051276994,2.3324367253778124,4.768817206808169,8.374964966917231,13.264270698755173,19.490202631190886,27.053613618651685,35.911784287894015,45.98779285229969,57.17939186258113,69.3669560253667,82.42031026175958,96.20934220277496,110.61076522699685,125.51221309958298,140.81451936820469,156.43279663487337,172.29675823600635,188.35060146501186,204.55268531672414,220.87517833693323,237.30381795127832,253.83790874741047,270.49069361558617,287.290262218292,304.28122563202004,321.5275042387388,339.1167881676762,357.1676174052684,375.84076446190477,395.35806766353886,416.03494013343436,438.216372042686,462.2449833932683,488.44442113337993,517.110326359882,548.5051739984783,582.8552146240369,620.3486736235184,661.1348085392536,705.3236366081765,752.9862398242054,804.1555929947175,858.8278709276889,916.9641893362759,978.4927281636191
G3,0.0,0.0,9.17474960929816,24.343157688816923,43.2859932689028,64.45140901585518,86.75487105282329,109.44142226041104,131.9898516774122,154.0454379323528,175.3723960080089,195.82003740121945,215.2985513366917,233.7615840101415,251.193652306322,267.82345810311796,283.8363308682174,299.3865406971495,314.60687702192666,329.61624423281216,344.52588769754107,359.4447691555602,374.4845578203204,389.7646957068493,405.4180422814738,421.5977249260954,438.4860574144811,456.30681348221214,475.3429002837784,495.9628505780078,518.6621240094763,544.1302219687054,573.3648757733253,607.876655667449,650.0773044900718,698.5182649529183,752.4384194610424,811.3750371293382,874.9857181312134,942.9660426837062,1015.0124574507043,1090.807169451537,1170.0139494297082,1252.2793558323765,1337.236565238232,1424.510312591812,1513.7221192211375,1604.4953484691675,1696.4598332060339,1789.2559410787878
H3,30065.4173474943,29934.179414628255,29811.136750946593,29695.59491949008,29586.951434656126,29484.647937734444,29388.167030888668,29297.029337454165,29210.790772384404,29129.04000783334,29051.396119933434,28977.50640382481,28907.044344915645,28839.707735212465,28766.424920009435,28686.938187450894,28601.053693686685,28508.636360120072,28409.605260210094,28303.929450624593,28191.62420299883,28072.747593259974,27947.397405373853,27815.7083054066,27677.84923994062,27534.021010157125,27384.453969388207,27229.405787866974,27069.15922416127,26904.019839009197,26734.31358493541,26560.384205415095,26382.590382091013,26201.302579457184,26021.484905754747,25843.1152015873,25666.172282227904,25490.635872341074,25316.486545339016,25143.705667041308,24972.27534333071,24802.17837151991,24633.398195164144,24465.91886207387,24299.72498529896,24134.801706872284,23971.134664115856,23808.709958326534,23647.514125671478,23487.53411013572
S4,18125.74640032831,18350.961169996608,18584.49678992081,18824.095937253805,19068.2120463885,19315.781713702636,19566.062888005476,19818.530015251254,20072.804789738013,20328.6097880264,20585.73711242151,20844.027030971607,21103.353351683927,22274.64001509259,23455.325659631853,24645.305736056755,25844.390658515367,27052.302903416512,28268.67247090931,29493.03043005124,30724.800222992813,31963.28627990219,33207.659260271146,34456.936821043724,35709.958093991074,36965.34880462207,38221.47175067714,39476.353343840725,40727.56942860688,41972.05913129212,43205.80642493481,44423.267938661025,45616.29050489993,46077.31349629376,46532.38574359574,46977.20574615529,47410.01793069831,47830.301032963194,48238.17100131698,48634.091633729164,49018.72530491086,49392.85010242174,49757.30980497728,50112.98104153778,50460.75015922645,50801.49612753249,51136.07758624087,51465.322986593346,51790.02317979761,52110.926007580194
E4,0.0,76.45624674415133,127.59725471272172,160.89857397963493,181.5849295465149,193.3396789562602,198.77733239166284,199.76395670161475,197.637446427142,193.36055006625827,187.62806493589616,180.94244127081237,173.66741777036788,166.0662697537305,160.65078197062383,156.9579441650292,154.65861836825565,153.52888391712602,153.4285802331592,154.28595766587318,156.08765253995907,158.87353690365458,162.73638690311492,167.82682171948096,174.36468703679824,182.65917434703078,193.1418208922328,206.4197895280489,223.36283345725138,245.24897113276987,274.01748860127697,312.72822698404553,366.4389519115787,443.97565756476905,509.1475920099472,568.6841476881066,625.424381666107,680.4047080138042,733.817103111888,785.4682058255681,835.0063437550697,882.0365517239277,926.1795906270625,967.1018671435876,1004.5295747594548,1038.2539045682863,1068.131019121106,1094.0788984077976,1116.0723383533866,1134.1369239579165
I4,0.0,0.0,13.762124413947241,34.648033690924635,58.36907244999915,82.2257183880138,104.58977106934589,124.5499161104479,141.66857244431088,155.81516655046548,167.05216959705461,175.55766716348418,181.57324945372807,185.36943779823662,187.22322525442178,187.82182942006574,187.66518062737674,187.1183471777457,186.45087307634896,185.86630341953958,185.52448105774022,185.55866627464295,186.08913997602357,187.23468962925028,189.1232469003065,191.90296531427114,195.7552438339791,200.91172054078496,207.67828630361694,216.4711199013121,227.8734941181974,242.72953002893385,262.30644218166736,288.5901698082767,324.8549469249165,367.36542640065335,414.1625434230178,464.09458271696997,516.3705867731744,570.3537904792009,625.468937923555,681.1644827649961,736.9012093305846,792.153198227524,846.4140314492381,899.2046043092989,950.0806937217809,998.6393770307784,1044.5239122335224,1087.4269797723946
A4,0.0,0.0,1.529124934883027,3.7752450421608565,6.238167513321384,8.622232601587406,10.764579660395128,12.587210376149361,14.065047434951785,15.204786876504269,16.03104050252858,16.57739370074079,16.880763786008878,16.97795938421446,16.90369290244618,16.73596996136942,16.527934852396122,16.31552024928201,16.122993877768128,15.966966706877686,15.859292518819613,15.809187065854871,15.82482039075699,15.91458405066789,16.088203674923932,16.357856680675113,16.739468831480707,17.254411483029223,17.931924976984355,18.812796650732512,19.955216743241408,21.444523166618666,23.410183072975844,26.05692549661225,29.725053548585183,33.962994679067094,38.544078697015806,43.34375059093479,48.28309463302392,53.302817768656894,58.35161833143688,63.3814215402509,68.34586826667928,73.20028642588467,77.9022664835795,82.4124046820527,86.69500183700788,90.71862185202842,94.4564754497787,97.88662712689069
IH4,0.0,0.0,0.0,0.8734712627355683,2.9901631240350035,6.412750063959991,11.026658114819655,16.62478009286142,22.96170415306181,29.78739442637779,36.867112717576816,43.99222792051914,50.98509137725342,57.70014499292736,64.0227304729537,69.86658540046919,75.19720137567464,80.01505525106064,84.34374949846017,88.2217679920485,91.69688339482927,94.82250722996127,97.65547081066066,100.25487887153619,102.68180033675293,104.99966341952657,107.27531654360178,109.5808157877889,111.99612230226651,114.61306941512461,117.54124265561255,120.91691057227192,124.91706364701034,129.7824265386829,135.85706313781657,143.66039597330618,153.4257725726691,165.24018923766903,179.10933772408336,194.9881714489106,212.79547794409908,232.42119420806745,253.7306329108647,276.5675877450992,300.7572071458099,326.108990774883,352.4199991741391,379.4782410150788,407.0661482384258,434.96403313896315
IN4,0.0,0.0,0.0,1.2081253085769503,4.053373750712457,8.518527498629258,14.352186422618894,21.20088015979281,28.688591674297065,36.46200933730459,44.21378735928168,51.692021025343294,58.70138448186463,65.09950906081134,70.79091520500292,75.71995909111568,79.90036967691572,83.38753138122448,86.2598742403143,88.60674227988977,90.52082572365404,92.09378063528048,93.41406343020647,94.56631154573586,95.63183308656761,96.68995072005238,97.8200995967112,99.10472755920682,100.63321575362323,102.50727004206178,104.84859946613183,107.81033342265995,111.59481339242582,116.48273564093482,122.88350932728454,131.42742966921253,142.31442956831646,155.53996523920299,170.99912669159488,188.53462114520303,207.95882346796753,229.06410615542262,251.62817195439717,275.4175207939057,300.19043795747683,325.70004127142005,351.6975187737842,377.9355045132353,404.17146911979574,430.1709876778924
D4,0.0,0.0,0.0,0.0,0.0009987753418016347,0.004417893203673213,0.011750586230071141,0.02435907685524338,0.04336876970721239,0.0696244519399605,0.10368500586867319,0.14584090117588322,0.19614404720077272,0.2544432199836557,0.32042075639032447,0.3936278866523266,0.47351720378375006,0.5595018419861552,0.6509954807206084,0.7474387878196065,0.8483164357054054,0.9531677227048052,1.0615930208336615,1.1732576861739394,1.2878946584294464,1.4053067068887843,1.5253691281669102,1.6480336570629808,1.7733344212811213,1.9013969805261501,2.032451901808295,2.166855058291634,2.3051181401338354,2.4479552181965514,2.5963556212276244,2.7517020996528885,2.9159713403400147,3.091406852622962,3.2803516222177262,3.485155143108593,3.708115400525922,3.9514375168733284,4.21720076243231,4.507330398543548,4.823573071618174,5.167475493119246,5.540366545889204,5.94334306057214,6.377259465204744,6.842721408473954
R4,0.0,0.0,0.0,0.30582498697660543,1.3386394738918108,3.5237545512104678,7.230390934447014,12.743657450082488,20.256310130183415,29.872102249348483,41.61539872288188,55.44365618110819,71.26066200047819,88.92928424443411,108.28304806013878,129.1362172858061,151.30157414233736,174.60154565083647,198.87479216194848,223.97977519601736,249.79638678461856,276.22640749491455,303.1933361756085,330.6419794013487,358.53808687162865,386.8682600945547,415.6403398714352,444.8844929559486,474.6552761316591,505.0350735911244,536.139515922444,568.1258662789149,601.2060434902869,635.6672416041126,671.9056572599393,710.4841553998671,752.0261381580212,797.1639154552021,846.5122542512684,900.6536163326602,960.1288404152696,1025.4304400482577,1096.9973093536958,1175.2103871131092,1260.3891680250613,1352.7890825539007,1452.5997999457306,1559.94449635086,1674.8800989973852,1797.398482050175
G4,0.0,0.0,13.762124413947241,36.72963026223715,65.69137357857144,98.37666089694413,133.17780310907096,168.9577229395703,204.91523514586095,240.48997550274652,275.294874514673,309.0679262031343,341.63756563188053,372.89770083054674,402.7896293862182,431.70677014093053,459.9592000906358,487.79775139692185,515.4329505020046,543.0500949439732,570.8215673238304,598.9173447810231,627.5145814236809,656.8071310662416,687.0159589757482,718.4016026423718,751.2802540248374,786.0457817854393,823.2013439004882,863.4066539227935,907.5514687266921,956.874616674922,1013.1656975320502,1079.1247088761345,1159.040327237793,1250.6868937995835,1353.0500403834426,1465.626429083342,1588.0992765258268,1720.1863550859666,1861.570632134569,2011.8717740104817,2170.6383533207886,2337.3506796336596,2511.4290157195055,2692.244339176207,2879.1300419984987,3071.393625440298,3268.3278271537015,3469.2208480573113
H4,15032.70867374715,15283.253818309604,15532.705313431507,15781.131453022728,16028.59474401848,16275.152672640614,16520.858072121733,16765.759464045805,17009.901375191257,17253.324631627795,17496.066631693073,17738.161599359184,17979.640819391057,17309.506212818753,16639.942524618957,15971.441432023015,15304.552727550752,14639.890527132113,13978.139699288618,13320.062426415174,12666.504760435493,12018.402971709853,11376.789409439501,10742.79749179123,10117.66532362871,9502.737300534915,8899.46290525224,8309.391748545437,7734.163771519036,7175.493442824267,6635.146797317159,6114.910329999893,5616.551143995405,5836.406063846163,6054.750252008306,6271.595959556263,6486.955252902823,6700.840021921389,6913.261987524232,7124.232708735391,7333.763589294068,7541.865883821823,7748.550703584489,7953.829021877524,8157.711679061473,8360.209387272298,8561.332734829568,8761.092190363866,8959.498106683253,9156.560724397183
E_Om,0.0,0.0,0.15984237523397427,0.2603648544661233,0.3233102518016023,0.3622563871590007,0.3857541223571473,0.39922797877776295,0.4061423691405223,0.40872442458966296,0.40841560841011454,0.4061557581591421,0.40256275325989216,0.3980467372492108,0.3996760958612,0.4065268659592045,0.4181172748731237,0.4343264385089722,0.4553480427771733,0.48167569239277286,0.5141196377933925,0.5538583276855185,0.6025333372477022,0.6624038502233452,0.7365891310056765,0.8294482571343202,0.9471834783425017,1.0988225026266796,1.2978687639272775,1.5651805436369264,1.9342210976166858,2.4611371425449864,3.245286691314992,4.473931811500158,5.748755893506196,7.206331194176823,8.906605391535617,10.884783453168634,13.166578766309364,15.772722370924102,18.72019422166035,22.022464144120786,25.689472831245943,29.727589750172726,34.13962124901101,38.92488568328875,44.07935234887336,49.59583405657294,55.464221243901996,61.671745640627954
I_Om,0.0,1.0,0.8487445318251212,0.7491389078451596,0.6826932254149247,0.6376279873092608,0.6063894172560131,0.5841054440769494,0.5676173378495923,0.554867738114268,0.5445113550367977,0.5356658446179899,0.5277514929736495,0.5203874894107097,0.5133244487724008,0.5076230162027359,0.5040170951033038,0.5030428628924736,0.5051336380852561,0.5106920608656821,0.5201487187369489,0.5340149155666389,0.552936738483632,0.5777580339377861,0.609601665062931,0.6499821233946735,0.7009694592994881,0.7654370216585027,0.8474485370619633,0.9528836893414501,1.0904873186485502,1.273704946298599,1.5240547939876434,1.8776847770355727,2.398982413070243,3.0708992658691185,3.903548574644022,4.9163044779192715,6.1319475639916945,7.5744411423120095,9.26785552793488,11.235676660978816,13.500262673302649,16.082379231792686,19.000797586753027,22.271954876894576,25.90967933781209,29.924982082107544,34.32591503733664,39.117492511735534
A_Om,0.0,0.0,0.0,0.0031968475046794858,0.0077647750930660555,0.012678025110484891,0.01738754783156793,0.02162512071239729,0.02528465614547309,0.02835057229918892,0.0308549463311444,0.032852269233117806,0.034404930549677096,0.03557519950493952,0.03642109434893583,0.037130397396372666,0.037834855236282224,0.03863022968648826,0.039590712519370054,0.040779530871039506,0.04225713854468706,0.04408810359161751,0.04634764942700438,0.04912878628655755,0.05255110603371295,0.05677266744708389,0.06200709910035353,0.06854934884713286,0.07681592913023988,0.08741011858273745,0.10123170573892849,0.11966978654347651,0.14495857208568094,0.1808725914948446,0.23417670942587887,0.302316485410827,0.3859798122121981,0.4869159576004709,0.6072284351437494,0.7491143234411869,0.9147459061714316,1.1062006093703525,1.3254097703786978,1.5741172729278772,1.8538456133457561,2.165868915656825,2.511192846191235,2.8905413239304556,3.304349740275824,3.752764217098699
IH_Om,0.0,0.0,0.06346921713993138,0.11135152263513912,0.14839535450620772,0.1777277063633492,0.20143297717976305,0.22091951906449003,0.2371536122943387,0.2508099089448608,0.2623688442907301,0.27218015121208505,0.28050457173740523,0.28754145895853017,0.2934471918798626,0.2983475705006199,0.3024238468308786,0.3058867562405621,0.3089611868763255,0.3118783163019361,0.31487307110829654,0.3181855470743382,0.32206564457872977,0.3267806983518481,0.33262638457918653,0.33994175651427516,0.3491300092085473,0.360687690107556,0.3752468781501306,0.3936379518632952,0.4169861417894503,0.4468655672802593,0.4855552428240134,0.536484955545968,0.605055251757496,0.7002438870819098,0.8290997236591161,0.9986486066906408,1.2164833175821839,1.4909263013897203,1.8310359063986048,2.246543760319586,2.7477541722036016,3.3454185321602172,4.050592067145626,4.8744785969588005,5.828268373724811,6.922973776651151,8.169267289612467,9.577325745217133
IN_Om,0.0,0.0,0.17557250206989472,0.2960505886145474,0.3777325939381088,0.4319119591172738,0.4665051295121364,0.48711890545587644,0.4977599025156814,0.5013124535486313,0.49986478461017925,0.4949345289829239,0.4876266184635139,0.47874517022822094,0.46887367612290143,0.45843307337703054,0.44786152687801917,0.4375793409373041,0.427973453598665,0.4193945344164404,0.4121621242705063,0.4065750138193446,0.40292536299307,0.4015160893567238,0.4026819530980593,0.40681570191600436,0.41440181189323533,0.42606207127288553,0.44262001287798936,0.46519594982524237,0.49535296028793785,0.5353304421315939,0.5884342232952551,0.6597201336983702,0.7572592831823133,0.8946328784299975,1.0813836512633426,1.3265692427608768,1.6398187473021308,2.0315904173955137,2.513149613152381,3.096435624249483,3.793876838795237,4.618178803118323,5.582098344022731,6.698213057651595,7.978693877839085,9.435087415738687,11.078113788440403,12.917484607134384
D_Om,0.0,0.0,0.0,7.257421250961986e-05,0.00019989970085108622,0.00036958315495183325,0.0005728068421453218,0.0008031364468111426,0.0010557480410074449,0.0013269225950928922,0.0016137125139153005,0.0019137195585819838,0.0022249453941144445,0.0025456898323876964,0.00287448063662551,0.0032100243824525194,0.0035511714921687707,0.003896979641645256,0.004246747473227885,0.004600030778805004,0.004956649691474698,0.005316692972389741,0.005680523921493009,0.006048791588638994,0.006422450708995597,0.006802794110231103,0.007191502312252375,0.0075907168704834,0.008003147120154793,0.00843222515050764,0.008882332551507941,0.009359137563945295,0.009870108363719435,0.010425319077917763,0.011038765641882253,0.011730619274239148,0.012531316855833736,0.01347935532626017,0.014621265365021376,0.016012259657734538,0.017717067233896742,0.01981077493933041,0.022379597301108327,0.02552153136306538,0.029346867903003022,0.03397853885654087,0.03955228722638982,0.04621665156832345,0.054132762601448274,0.06347395455308517
R_Om,0.0,0.0,0.0,0.03445238580504586,0.09358886496947469,0.17036764994738915,0.25966885719070343,0.35774378866756223,0.46183268394902466,0.5698958543468265,0.6804221897780297,0.7922911910609487,0.9046725274318071,1.0169522419778636,1.1286781117815172,1.2395189321131332,1.349261197645419,1.457805862748279,1.5651609887764324,1.6714333254032274,1.776820808566082,1.8816072953925924,1.986160495924992,2.0909339400381763,2.1964739079745748,2.3034325634215587,2.412589114387979,2.5248818139318403,2.6414552420572557,2.7637300401120046,2.893506981851751,3.033125719149546,3.1857144035798313,3.355597734850162,3.548996708108322,3.7753004361140476,4.046431253109619,4.376657014214626,4.782722377436457,5.284065367660166,5.903038856130656,6.66510536520631,7.598990377892265,8.736785984059308,10.114000100392882,11.769548840725271,13.745691555223477,16.087909774380815,18.844732805361264,22.067514012932293
G_Om,0.0,0.0,0.0,0.028771627542115367,0.07563730134601757,0.13383314667030596,0.19903929635892612,0.2684750383832126,0.34033607456321,0.41344170100850397,0.4870120974346433,0.560526906948464,0.6336349434171096,0.7060962390038901,0.7777446517087481,0.849686348963764,0.922861184836421,0.9981222943135832,1.0763010532451982,1.1582637009450893,1.2449653255757887,1.3375068603785993,1.4372013593619926,1.545657360066579,1.664890053106781,1.7974760966878027,1.9467767829719804,2.1172698090736306,2.315057859546433,2.5486742370533433,2.83040673490799,3.178566532478994,3.621571218137091,4.20572282257379,5.011030548643818,6.045806609474933,7.342946224426761,8.946135194903173,10.905396216473527,13.275380394409211,16.11447042117555,19.484105381074414,23.448148927016156,28.072254036640427,33.42322019167152,39.568352016493506,46.57483143948547,54.509114862282686,63.43636499246581,73.41992481636817
beta,1.0,0.9999999999999994,0.9824566337235835,0.9680489989661908,0.9559221058924358,0.9455124961308646,0.9364382396125026,0.9284322317779696,0.9213021441991157,0.9149055923593082,0.9091343319389454,0.9039039778317418,0.8991471857525138,0.8948090495505372,0.9322683064550608,0.9720471684047591,1.0145548886449853,1.0602752462122063,1.1097874433302346,1.16379365441579,1.2231558802206337,1.2889460368135108,1.3625151992338826,1.4455910966703658,1.5404181537655306,1.6499631030892918,1.7782242817321439,1.9307096175832534,2.115197863836927,2.3429922053457286,2.6310622954604526,3.005851921298567,3.5103176511596184,4.217323465961902,3.977025345081138,3.7612698137649176,3.561499747652957,3.3746446681586235,3.199630917047516,3.0360395399525446,2.883589467440274,2.7419547502507924,2.6107178271419755,2.4893756263049696,2.377363071556113,2.2740791805152347,2.1789100216194517,2.0912468015478116,2.01049906769763,1.9361036728840175
