series,2021-11-15,2021-11-16,2021-11-17,2021-11-18,2021-11-19,2021-11-20,2021-11-21,2021-11-22,2021-11-23,2021-11-24,2021-11-25,2021-11-26,2021-11-27,2021-11-28,2021-11-29,2021-11-30,2021-12-01,2021-12-02,2021-12-03,2021-12-04,2021-12-05,2021-12-06,2021-12-07,2021-12-08,2021-12-09,2021-12-10,2021-12-11,2021-12-12,2021-12-13,2021-12-14,2021-12-15,2021-12-16,2021-12-17,2021-12-18,2021-12-19,2021-12-20,2021-12-21,2021-12-22,2021-12-23,2021-12-24,2021-12-25,2021-12-26,2021-12-27,2021-12-28,2021-12-29,2021-12-30,2021-12-31,2022-01-01,2022-01-02,2022-01-03,2022-01-04,2022-01-05,2022-01-06,2022-01-07,2022-01-08,2022-01-09,2022-01-10,2022-01-11,2022-01-12,2022-01-13,2022-01-14,2022-01-15,2022-01-16,2022-01-17,2022-01-18,2022-01-19,2022-01-20,2022-01-21,2022-01-22
S,11307.406307775032,11289.572205625574,11274.07803616346,11259.84258900851,11246.32817316342,11233.255885172146,11220.47850962079,11207.9183114051,11195.53496115769,11183.308454764996,11171.229824768387,11159.296019151316,11147.507054460686,11135.86442867944,11124.370239660333,11113.0267019196,11101.835889467804,11090.799607067733,11079.919334190025,11069.196209655212,11058.631038503474,11048.224310437681,11037.97622370899,11027.88671095003,11017.955465001833,11008.181963682626,10998.565492973335,10989.10516840002,10979.799954567601,10970.648682895857,10961.650067659048,10951.841656261844,10942.40846306512,10933.271512728345,10924.380287858037,10915.701636980062,17538.718800673916,24152.69726873401,30756.761193382583,37350.25013534032,43932.02079480891,50500.10305884484,57051.53892802278,63582.27432718834,70087.03800206342,76559.19125814496,82990.56167325277,89371.28856079391,95689.7129509007,101932.34234568421,101452.40930152018,100919.29106361706,100325.63710128352,99670.84292836535,98957.0018813486,98187.52824092252,97366.55668450118,96498.61376646277,95588.40820783103,94640.68635756319,93660.13002640201,92651.28452162136,91618.50904837552,90565.94386732767,89497.49000359251,88416.798309529,87327.26544595443,86232.0349316352,85134.00186038722
E,0.0,17.834102149457344,27.98992857623266,33.847054298324444,37.229915155896045,39.15804480304882,40.21410834216688,40.73687942013361,40.92631966795394,40.90221026117747,40.737441209831985,40.47716866487751,40.14996346808579,39.77436281702779,39.362755236455676,38.923704287981806,38.46335067859659,37.98626624415264,37.495979609325246,36.99530381355807,36.486543639888055,35.97162931004313,35.45220471756952,34.92968730223636,34.40531000829562,33.88015174137399,33.35516029186793,32.83117019969087,32.308917120188795,31.789049687619965,31.272139523832372,30.758689822483404,30.234034651885576,29.70747781395554,29.183892411148392,28.66575130198022,28.15424422878104,36.43193581526305,51.72270657861137,72.53453397874182,98.22799017741511,129.08185315095562,166.1561212591004,211.12880079472006,266.17302369607444,333.8749499063968,417.1643786752598,519.2246574893687,643.3557600579888,792.778705722618,970.3874886877791,1132.016933130718,1285.9196755737369,1432.3620505307763,1569.330517677008,1694.4937191610056,1805.9027245241066,1902.2140465552466,1982.7144560234387,2047.259917083998,2096.1798939666483,2130.172736790834,2150.2055105013796,2157.4249203484565,2153.0820928348853,2138.471682973028,2114.884481653149,2083.5720291458974,2045.7214701207254
I,15.224103921015585,12.110595034952361,10.167669756939711,8.926093463247723,8.113757526849161,7.568814210123632,7.1930335984456955,6.925716068363801,6.728716413537727,6.577676092575601,6.456803624272958,6.355718913359754,6.267516391099288,6.187557979860032,6.11270902391253,6.04084677157623,5.970538934966598,5.900829957862479,5.831096556897322,5.760948541041429,5.690159721610282,5.618619158036284,5.546296376396721,5.473216342275645,5.399441344211924,5.325057838146932,5.250166894014503,5.174877282289842,5.099300509172346,5.023547297152019,4.94772514045519,4.871936660023603,4.796278551874092,4.7203887361778945,4.6442576766010495,4.568023655351533,4.4918706952172505,4.41598079712033,4.603390263295454,5.210176174153336,6.3158347825310885,7.964464206508696,10.199488735582987,13.087181174556648,16.73048909623577,21.276355184595744,26.91908302453322,33.90093751215676,42.50992574717847,53.07393322531688,65.95020486757349,81.50955171562154,98.72493820439965,117.02639866305412,135.9685044080935,155.13665018360524,174.13123706546378,192.5760508198814,210.13160239893864,226.5064829352781,241.46456863894798,254.82788778706413,266.47576992794467,276.34117062817245,284.40508155405377,290.6898321996431,295.2519387670328,298.17499691508567,299.56296878873087
A,137.0169352891403,131.53625787757468,131.07931629427773,133.3766329320798,137.15996710356262,141.7033109291289,146.5843593029767,151.55466935480902,156.46700158024666,161.2338757365607,165.8035798502564,170.1461070020717,174.24481562066708,178.09142678491378,181.68298665322988,185.01999700738543,188.1052465821525,190.94306686993053,193.53884775641538,195.89871414368164,198.0293037708013,199.93760977604217,201.63086557404938,203.1164581079522,204.40186070155679,205.49457990100993,206.40211264788616,207.13191134091525,207.69135510800615,208.087726097568,208.3281899142017,208.4197795333013,208.36938217166215,208.17965855408482,207.85566942145556,207.40358589926723,206.82999845630093,206.1415544592777,207.71065908408735,213.33633455029883,224.3436911814756,241.8325729707935,266.9339329637328,301.0190497379239,345.85640577493376,403.72918619775066,477.5259604470175,570.8090433685288,687.8558513150367,833.6617172008766,1013.8899035256875,1234.7567845895264,1490.3319773599296,1777.1455751511285,2091.938218086926,2431.0384727405785,2790.2936950064127,3165.1923045011767,3551.0412484807957,3943.1430522916326,4336.949336996613,4728.182416509426,5112.923847772541,5487.672452834323,5849.376023359289,6195.441492938377,6523.728297996295,6832.529236683324,7120.542560285824
IH,0.0,0.6206399445309689,0.8034110850602538,0.8154067897616204,0.7707773953527108,0.7153908871188084,0.6655373546920009,0.6253410209667638,0.5943853360040403,0.5709073785135497,0.5530344278745446,0.5391882263240232,0.5281580586443864,0.5190582591203252,0.5112578003842202,0.5043140094960005,0.49791945459418924,0.4918623372032108,0.48599801479232857,0.48022890139073604,0.47449039470948656,0.468741037188637,0.46295561879967273,0.45712031741015946,0.45122925354617366,0.4452820326625908,0.4392819824245089,0.43323488364750173,0.42714805519664406,0.42102969495078213,0.4148884074672099,0.4087328686293749,0.4025715912436346,0.396412765199893,0.3902457163709949,0.3840647296004524,0.3778725903659591,0.371678190664582,0.36549338722129954,0.37004727846939867,0.39705646758684954,0.4556083575548709,0.55203530725455,0.6912674386398456,0.8784666212106353,1.1204054841094715,1.4264539710587731,1.8092088441821115,2.284832283293965,2.8731303807457786,3.5973532609335277,4.483666513812552,5.560243595713521,6.799273976672999,8.163644452918387,9.616676776811698,11.123166320271071,12.649255553416843,14.162712470353584,15.6336133746527,17.035146497556518,18.344306724971098,19.542359144596084,20.61503567160893,21.55248333611036,22.349010594754386,23.002687672282068,23.51485560276631,23.88959150039416
IN,2.4928689415322562,4.599534223279746,5.8700067053686835,6.6255092576739125,7.06066505703413,7.295389209475609,7.404517431557094,7.435206993603734,7.417370150609327,7.370038968277261,7.305308414303634,7.230813889155448,7.151308203953702,7.069677096832981,6.987599776222183,6.9059820181199685,6.82524168295262,6.745497365004858,6.666692818104323,6.5886784504704545,6.511263953805558,6.434251465777839,6.357455611605933,6.280714745445937,6.203896352159344,6.126898645728401,6.049649765885361,5.972105534880734,5.894246429738397,5.816074210615794,5.737608495220759,5.658883463647983,5.57994480434959,5.500846961045552,5.421576654136148,5.342121099816233,5.262492137793236,5.1827299063149725,5.102898126994225,5.06612149500814,5.1344005038744776,5.37314742536626,5.8448614822933695,6.609469811892864,7.728467269200977,9.270678856104052,11.318328084107634,13.972716336699891,17.359120679858727,21.63056951975442,26.97007315441143,33.590786333277315,41.733559559879794,51.43375815912909,62.62793958500389,75.1895533619965,88.94376515647397,103.67739428461331,119.1486835813532,135.09774012604166,151.25721777781894,167.36252450151684,183.16091779507548,198.41905170922436,212.9287528536136,226.51098624411088,239.01810993998205,250.33460942590062,260.3765544450748
D,129.0,129.0,129.00062063994454,129.0014240510296,129.00223945781934,129.0030102352147,129.00372562610184,129.00439116345652,129.0050165044775,129.0056108898135,129.00618179719206,129.0067348316199,129.00727401984622,129.0078021779049,129.00832123616397,129.00883249396438,129.00933680797385,129.00983472742845,129.01032658976567,129.01081258778046,129.01129281668184,129.01176730707655,129.01223604811375,129.01269900373256,129.01315612404997,129.01360735330348,129.01405263533618,129.0144919173186,129.01492515220227,129.01535230025746,129.0157733299524,129.0161882183599,129.01659695122854,129.0169995228198,129.017395935585,129.01778618130135,129.01817024603096,129.0185481186213,129.01891979681196,129.0192852901992,129.01965533747767,129.02005239394524,129.0205080023028,129.02106003761003,129.02175130504872,129.02262977166993,129.02375017715406,129.0251766311251,129.02698583996929,129.0292706722526,129.03214380263333,129.03574115589427,129.04022482240805,129.04578506600376,129.05258433998048,129.06074798443342,129.0703646612102,129.08148782753048,129.09413708308387,129.10829979555425,129.12393340892888,129.14096855542647,129.1593128621514,129.178855221296,129.19947025696763,129.22102274030374,129.2433717508985,129.26637443857075,129.28988929417352
R,0.0,5.866881071350378,12.151226705437267,18.70550612609462,25.47472106678708,32.44037048046427,39.59642464998922,46.93970050028647,54.46644511619996,62.171441834805606,70.04804183460013,78.08846524799728,86.2841257037377,94.62590213162015,103.10434654002006,111.70983741859615,120.43269231767891,129.26325135740484,138.191940391395,147.20931983358628,156.3061231257502,165.47328743487375,174.70197827119523,183.98360915763843,193.30985714106703,202.6726747318681,212.06429873596903,221.47725636795772,230.90436898461334,240.33875374269854,249.77382345654132,259.20328490617385,268.6211358238813,278.0216607652326,287.39926324433867,296.74854181056156,306.0643370201949,315.34175627526974,324.57618353683694,333.8579147733127,343.36125241426123,353.32896692923487,364.06250013864917,375.92138075445956,389.3317378068161,404.80254755012083,422.94816255956493,444.5159015034012,470.417567976589,501.76355166347025,539.8976662876728,586.4302337072982,643.2663361997488,712.1252408211977,794.5789920107558,892.0408744775077,1005.7393708433872,1136.6921697277342,1285.686541099457,1453.2684629797877,1639.7407890682434,1845.1696138571237,2069.397430348211,2312.061470644432,2572.615634947176,2850.3545577160876,3144.4385682795123,3453.9185353480007,3777.7598141770427
G,7674.0,7674.0,7674.533834303534,7675.371666446818,7676.384821945571,7677.499237779984,7678.671368981207,7679.87511169498,7681.0945026949385,7682.319564274885,7683.54390417968,7684.763311995883,7685.974928984625,7687.176751627855,7688.367331287823,7689.545590156744,7690.710706762861,7691.862043446314,7692.999099397567,7694.121479430625,7695.228872563165,7696.32103680273,7697.397787934847,7698.458990952275,7699.504553276489,7700.534419235102,7701.548565450981,7702.546996917532,7703.529743608723,7704.496857519155,7705.448410059214,7706.384489749844,7707.305200174254,7708.210205915287,7709.099450049679,7709.97302152242,7710.831083299421,7711.673833959556,7712.764363604355,7714.312597140974,7716.483798253552,7719.424090413171,7723.287941847812,7728.261550080339,7734.581340972175,7742.548789489265,7752.542783011175,7765.02990760444,7780.572037569023,7799.829826451072,7823.5603436747215,7852.607285586373,7886.4923371590385,7924.984212368549,7967.859597473199,8014.834906737324,8065.556769090152,8119.6134754562645,8176.553101696228,8235.902374335124,8297.183708423641,8359.929380978383,8423.692572969881,8488.055412855736,8552.63435381555,8617.083299428159,8681.09490662543,8744.400470026194,8806.768747033955
H,92841.0827332436,92841.08273324359,92841.0827332436,92841.0827332436,92841.0827332436,92841.0827332436,92841.0827332436,92841.0827332436,92841.08273324359,92841.0827332436,92841.0827332436,92841.0827332436,92841.0827332436,92841.0827332436,92841.08273324362,92841.08273324359,92841.0827332436,92841.08273324359,92841.0827332436,92841.08273324359,92841.0827332436,92841.08273324359,92841.0827332436,92841.0827332436,92841.0827332436,92841.0827332436,92841.0827332436,92841.0827332436,92841.0827332436,92841.08273324362,92841.0827332436,92841.0827332436,92841.0827332436,92841.0827332436,92841.08273324362,92841.0827332436,86209.57709361198,79578.07145398036,72946.56581434872,66315.06017471709,59683.554535085466,53052.04889545384,46420.54325582221,39789.03761619057,33157.53197655894,26526.02633692731,19894.52069729568,13263.01505766405,6631.5094180324195,0.003778400788959857,2.1699974648669955e-11,2.1699974648669958e-11,2.1699974648669955e-11,2.1699974648669955e-11,2.1699974648669955e-11,2.1699974648669955e-11,2.1699974648669955e-11,2.1699974648669955e-11,2.1699974648669955e-11,2.1699974648669955e-11,2.1699974648669955e-11,2.1699974648669958e-11,2.1699974648669955e-11,2.1699974648669955e-11,2.1699974648669955e-11,2.1699974648669958e-11,2.169997464866996e-11,2.1699974648669958e-11,2.169997464866996e-11
S0,3957.5922077212613,3938.8799222666958,3916.161966735164,3894.2065700005837,3872.718466666968,3851.5449980309954,3830.606169700375,3809.8603290652113,3789.28642348838,3768.874531662266,3748.6207063510788,3728.524129333099,3708.585531451669,3688.8063150306975,3669.1880704449695,3649.732315554015,3630.440361672749,3611.313251380739,3592.351736864159,3573.556280764354,3554.927069114114,3536.464030335122,3518.1668568235896,3500.0350271440307,3482.0678277274415,3464.264373485497,3446.6236270549693,3429.144416563134,3411.8254519064403,3394.6653395914586,3377.6625962170992,3360.442036913557,3343.4679148359296,3326.7070366956395,3310.1378300454217,3293.745786881707,5318.7044238680455,7324.348607391952,9310.340986917514,11276.471454390245,13222.295723234412,15146.962983084733,17049.142581487078,18926.982311619737,20778.064768609795,22599.354199702848,24387.141484176187,26137.002112126494,27843.78389717167,29501.63884811679,29163.42779921767,28803.27387885785,28418.45497385813,28009.505820281833,27578.239081549775,27127.046366140792,26658.583729453003,26175.59771099909,25680.815966275473,25176.874944549934,24666.272258900375,24151.33675265763,23634.211550900996,23116.846629676398,22600.998266288472,22088.233353398766,21579.93704088173,21077.32254639044,20581.442269757237
E0,0.0,9.829820082378063,15.45626190297415,18.715287774557382,20.609121504146387,21.69793266942856,22.301838074139184,22.606941568700037,22.723115989490797,22.716250075738365,22.6265500536717,22.479061023932,22.28977954558245,22.069237325558582,21.824619781885733,21.561028527956253,21.282239900531323,20.991164821024547,20.690130550485804,20.381055596227476,20.065560128595386,19.745037216504716,19.420700073613084,19.09361447381665,18.76472188089795,18.434856664205235,18.104759461347303,17.775087955815067,17.446425856420877,17.119290572994217,16.794139904502565,16.471377946733153,16.14329161419316,15.814997121755255,15.489203642227274,15.167313826822625,14.850028638963884,19.165602757899492,27.154859876164245,38.00714141559559,51.360987621051734,67.33502258447707,86.45103834313196,109.5434324179243,137.6900869351956,172.16471414160281,214.39589582837172,265.91560205608886,328.2841373015403,402.98617648957287,491.3019982865288,570.7294976763633,645.4139755285346,715.4797330370744,779.9344568661395,837.6611092644775,887.7660945982855,929.6842298268014,963.1831401579414,988.324714239965,1005.4100303807201,1014.9210094695236,1017.465628863838,1013.7300114535333,1004.4386544051039,990.3228622111544,972.0967779050033,950.4400729442807,925.9862356945561
I0,15.224103921015585,12.110595034952361,9.928074833306338,8.3603239802014,7.2107502154671215,6.352966625154983,5.7032016588203405,5.204398202740869,4.816738706645361,4.511837640453072,4.2690869201712145,4.0732965649208674,3.9131328077419436,3.780058601243897,3.6675980741590717,3.5708148308900762,3.485934735330813,3.4100685451261517,3.3410050356839363,3.277054866636218,3.216931614991538,3.1596604435544156,3.104507580048464,3.0509256328268455,2.998511060469356,2.946971031696424,2.896097578144572,2.845747433194405,2.795826316606415,2.7462767019188306,2.697068315316182,2.648190777789165,2.599647928896304,2.5512119445245145,2.5028547386966054,2.454635063949053,2.4066416432717976,2.3589660369352914,2.4502202166236327,2.7619570165088145,3.334785032320905,4.19018822383986,5.348807643251764,6.8426819842449325,8.722273957123033,11.059990668318665,13.951557582691613,17.51588540734636,21.893423192591086,27.24260163042412,33.73389175128903,41.54122426940302,50.1293957794164,59.196741001758326,68.50700951630182,77.8425636456089,86.99683851067834,95.77876588264117,104.01943542187675,111.57752519180104,118.34246779352526,124.23532044622792,129.20771060269988,133.23935726740874,136.33466509977478,138.51882457685815,139.83376481442278,140.33421661796297,140.08406253659024
A0,137.0169352891403,131.53625787757468,128.92296198157737,127.92996185668906,127.85466360131532,128.29257625416767,129.0062982272944,129.8541634921364,130.75030905540999,131.64190619561936,132.49598977243457,133.2917448121208,134.01593609227027,134.6601672738296,135.21921511410844,135.69000105238985,136.07094404549477,136.36154363743628,136.56210359295903,136.67354249055512,136.69725901162045,136.63503236433274,136.48894588143438,136.26132640222704,135.9546948120244,135.57172479115573,135.115207851915,134.5880233739432,133.9931127416876,133.33345693542446,132.61205708647378,131.831917611986,130.99603161586722,130.105194571938,129.1615484438154,128.1678793679713,127.12723990978236,126.04274937161966,126.16425451288316,128.43320603862713,133.53500513143862,142.03025963587913,154.48911042382468,171.59946355430003,194.2464956115563,223.57035765878408,261.0087329110778,308.32665731867144,367.631278266648,441.3658034118321,532.2756836637885,643.341459084188,771.3623790060412,914.3824672181308,1070.5574733106012,1237.8495875875792,1414.001582669826,1596.6057855287165,1783.198569694481,1971.3522519661387,2158.752929278186,2343.2603652111,2522.949762333302,2696.137104265554,2861.3905768523673,3017.5308181066416,3163.6226540172,3298.96070773107,3423.0509210215455
IH0,0.0,0.6206399445309689,0.8034110850602538,0.8056392408217812,0.7428387047960351,0.6646366467146758,0.5906446180849447,0.5272336743648884,0.475256928995614,0.4335168463893433,0.40025866543396854,0.3737666320634505,0.3525653361458961,0.3354565051667497,0.3214941719471217,0.3099422974886915,0.30023235664865744,0.2919267954468242,0.2846894889127448,0.2782625658529897,0.27244847932532074,0.26709620989241856,0.2620906577375496,0.257344474410791,0.25279175755991645,0.24838317076724525,0.2440821573287391,0.23986199721783572,0.23570351660135935,0.2315933042208435,0.22752232268120295,0.2234848281518423,0.21947753134097214,0.21549894741899445,0.21153904776678312,0.20759168312439144,0.20365618017151535,0.1997358198850434,0.19583597210337272,0.19761010061010625,0.2112039423313544,0.2413397076812013,0.29124961469230176,0.3633880124460021,0.46028574024453106,0.5852628965644691,0.7429280258217947,0.9394832247893803,1.1828709639615287,1.4827802124006695,1.8505044982422472,2.2986288722065633,2.8405238954621836,3.461042879477435,4.14032966001956,4.858844807329364,5.597965726486294,6.339978727128091,7.068255413083316,7.767612259051711,8.424711424730944,9.028389834648692,9.569858859502524,10.042760973133609,10.443096976109224,10.769050832344767,11.0207432781922,11.199943882323904,11.309766866300421
IN0,2.4928689415322562,4.599534223279746,5.8700067053686835,6.586276817671323,6.934868787540028,7.0412189058638734,6.9906352415121935,6.8414924879849845,6.633778924727011,6.3947677924765856,6.1428590846019056,5.890227737405919,5.644675223549906,5.410938539036561,5.191622910750939,4.98786956433783,4.799834613454919,4.627031990673757,4.468577833152009,4.323363132371453,4.190174070330322,4.067774232635875,3.9549591297896107,3.8505907244192517,3.7536176551635956,3.663085363269585,3.5781392238236958,3.498022959531943,3.422073998953912,3.3497169805445277,3.2804562600457032,3.213868022896586,3.149592413807207,3.0873259561901936,3.0267748840439572,2.96768634365142,2.9098562746722534,2.8531267584165274,2.7973793340148205,2.7652108924583834,2.7890713965717033,2.9030330008439944,3.139407174970407,3.5288794532798073,4.102627635466832,4.895262361416764,5.947888566357353,7.3109176243385665,9.046422027872621,11.229855601394672,13.950924821822788,17.313352293262735,21.43327182681147,26.321188579187876,31.936584070354723,38.206532285082915,45.03376809870939,52.30227108797489,59.88270866209175,67.63812666934176,75.4296476144999,83.12180452751954,90.58719096249932,97.71021795308806,104.38988305623847,110.54155270824656,116.09782987382508,121.00862457126264,125.24056881638333
D0,129.0,129.0,129.00062063994454,129.0014240510296,129.0022296902704,129.00297252897522,129.00363716562194,129.00422781024002,129.0047550439144,129.0052303008434,129.0056638176898,129.00606407635522,129.00643784298728,129.00679040832344,129.0071258648286,129.00744735900054,129.00775730129803,129.00805753365466,129.00834946045012,129.00863414993904,129.00891241250488,129.00918486098422,129.0094519571941,129.00971404785184,129.00997139232626,129.01022418408382,129.0104725672546,129.01071664941193,129.01095651140915,129.01119221492576,129.01142380822998,129.01165133055267,129.01187481538082,129.01209429291217,129.0123097918596,129.01252133090736,129.0127289225905,129.01293257877066,129.01313231459054,129.01332815056264,129.01352576066324,129.01373696460558,129.01397830431327,129.01426955392796,129.01463294194042,129.01509322768067,129.01567849057724,129.01642141860307,129.01736090182786,129.01854377279182,129.02002655300421,129.02187705750245,129.02417568637466,129.02701621027012,129.0304772531496,129.03461758280963,129.03947642761696,129.04507439334344,129.05141437207058,129.05848262748367,129.06625023974271,129.07467495116745,129.0837033410021,129.09327319986158,129.10331596083472,129.11375905781082,129.12452810864318,129.13554885192136,129.1467487958037
R0,0.0,5.866881071350378,12.151226705437267,18.619251953586605,25.159638254937313,31.719617401121997,38.27448814321287,44.81307515811705,51.33076561362412,57.826133833563375,64.29926748750256,70.75090884783843,77.18199589315861,83.59340811853161,89.98582390059549,96.35964331322239,102.71495207088054,109.05151256939371,115.36877310615155,121.6658891356373,127.94175210853908,134.19502260055316,140.42416529649864,146.62748406102259,152.8031558495331,158.94926262122863,165.06382073085206,171.14480751391358,177.19018495606792,183.19792046363014,189.16600483954693,195.09246762644105,200.97539001292552,206.81291551712914,212.60317171810283,218.34432134791334,224.03459633650613,229.67231876606579,235.25591266606443,240.8337802689121,246.49830935363843,252.37740387266788,258.6290317704438,265.44058853710675,273.0329669861169,281.6685625837834,291.66239888518345,303.3956791613346,317.3311190696528,334.0293078779883,354.16509720582894,378.5427011029141,408.1079168022829,443.70318863237674,486.08677602321393,535.9269630467886,593.7894537282705,660.1252830592096,735.2623479897582,819.4016495722524,912.6182723694876,1014.8665605317772,1125.9886802152637,1245.7256731280947,1373.7301341278555,1509.5797382672436,1652.7909663844446,1802.8325113494736,1959.137975633745
G0,7674.0,7674.0,7674.2942393799,7674.756896974831,7675.317108110264,7675.934008021031,7676.583499690286,7677.251068267389,7677.927769612163,7678.607948445765,7679.287921759614,7679.965210051901,7680.638083504416,7681.3052911294435,7681.965897188469,7682.619181026563,7683.26457469714,7683.901623292003,7684.529959036561,7685.14928381893,7685.759356954562,7686.359986256026,7686.951021235101,7687.532347719106,7688.103883437538,7688.665574301051,7689.2173911957625,7689.759327177552,7690.2913949889635,7690.813624844897,7691.32606244806,7691.828767204613,7692.321810616652,7692.805033307842,7693.278429047259,7693.742072698582,7694.19608111153,7694.640592117999,7695.214282686458,7696.027118431598,7697.164799246527,7698.702205325382,7700.71776767798,7703.305536294361,7706.584537472076,7710.7060621244855,7715.859527631002,7722.277113600339,7730.236856627086,7740.063498435514,7752.126222034228,7766.832533452778,7783.916375484469,7803.23577363695,7824.652474168194,7847.99852008035,7873.072517700989,7899.646325052731,7927.474882340166,7956.306174013437,7985.890037056847,8015.985320735074,8046.365299816257,8076.821447863545,8107.1657763921485,8137.231983539745,8166.875657832503,8195.973764485232,8224.423613551868
H0,32494.378956635257,32421.26660398283,32304.550044208492,32188.25366404934,32072.375950858765,31956.915397435674,31841.870502004906,31727.239768197687,31613.021705032177,31499.214826894062,31385.817653517242,31272.82870996458,31160.246526608706,31048.069639112913,30936.296588412108,30824.925920693822,30713.956187379325,30603.385945104757,30493.21375570238,30383.438186181855,30274.0578087116,30165.07120060024,30056.476944278078,29948.273627278675,29840.459842220473,29733.034186788478,29625.99526371604,29519.34168076666,29413.072050715902,29307.184991333324,29201.679125364524,29096.55308051321,28991.805489423365,28887.43498966144,28783.44022369866,28679.819838893345,26535.388821439185,24406.026016845582,22291.65072580593,20192.182634764584,18107.54181418533,16037.648716827298,13982.424176028331,11941.789403995748,9915.665990104479,7903.975899202549,5906.641469923882,3923.5854130083685,1954.7308096291958,0.0011097274008673593,6.350402248500586e-12,6.3275408004059845e-12,6.304761653524523e-12,6.2820645115718345e-12,6.259449079330176e-12,6.236915062644587e-12,6.214462168419067e-12,6.192090104612758e-12,6.169798580236152e-12,6.147587305347301e-12,6.125455991048051e-12,6.103404349480278e-12,6.0814320938221486e-12,6.059538938284389e-12,6.037724598106565e-12,6.015988789553381e-12,5.994331229910989e-12,5.97275163748331e-12,5.95124973158837e-12
S1,1130.7406307775034,1056.2479967865852,992.8171463070267,934.1150853789527,879.7150964816893,829.2630614526026,782.4507417019827,739.0023892519794,698.6674502872893,661.2162451111649,626.4371755068091,594.1347515792525,564.1280800871435,536.2496282420425,510.34416385200325,486.2678175271636,463.8872362039098,443.07880979460435,423.7279595684419,405.72848061941613,388.98193289472204,373.3970764903762,358.88934767101824,345.3803725538235,332.79751572964193,321.0734613421062,310.1458243428685,299.95678980785556,290.4527783463345,281.58413576770937,273.30484529373723,265.5427368998016,258.29625839390525,251.52580798787187,245.19559713295388,239.27299757045964,379.28993819539414,513.2242529397644,641.6128047896392,764.9482010763,883.6586590055734,998.1021019233228,1108.5670029629296,1215.2749341957297,1318.3825234051412,1417.982390455265,1514.103615078047,1606.7126815938639,1695.7158894780202,1780.964022001775,1746.0676344039787,1711.1776904094584,1676.0621975049758,1640.687968755159,1605.098480637711,1569.3712660583283,1533.5992194069254,1497.8806445420648,1462.3132850664922,1426.990582596868,1391.9993661804594,1357.41852405479,1323.3183630715275,1289.7604466565222,1256.7977586297459,1224.4750809930497,1192.8295042757934,1161.8910119613886,1131.6830976934823
E1,0.0,2.8085200235365897,4.265650595905495,4.9879399461850245,5.292957729720438,5.357260902678805,5.28207685648241,5.126890943527938,4.927379854932472,4.7052960026612185,4.474060522049173,4.242003332663079,4.014281985403995,3.7940423447573304,3.583135142175758,3.382567103256303,3.1927903109229083,3.0138910734738333,2.8457151826433447,2.6879521733160887,2.5401926953593246,2.4019679576457933,2.272777031138239,2.1521058104205673,2.039440168059766,1.9342750183502206,1.8361204701703167,1.7445058910920361,1.6589824632594974,1.5791246460065778,1.5045308452249253,1.4348235086132592,1.3690112145858868,1.307167165901611,1.2491809754605998,1.1948556600190026,1.1439591477530366,1.4262799370473591,1.9611522854770267,2.682145523772808,3.5569128439738167,4.587233105377444,5.801907328133997,7.249328303915106,8.992019672082836,11.10298217706702,13.662767368310654,16.756136038737907,20.467498723766766,24.874854044443957,30.042517445257957,34.6101938312441,38.83650955712719,42.737963343665974,46.265639820357734,49.3643516540926,51.99262622517848,54.12815908819889,55.7674447916488,56.92306404187272,57.620185957418876,57.893038316418966,57.781710605829986,57.329447436286586,56.580473891061374,55.578330199129404,54.36466027194708,52.97838500445016,51.45518911974755
I1,0.0,0.0,0.0840683942573235,0.19456059971222944,0.3040763805601458,0.4003250940638202,0.4788146189423869,0.5390015999879556,0.5822344000233146,0.6106535484101255,0.6266129334155018,0.6323867848341765,0.6300335679762022,0.6213451504493427,0.6078411080346103,0.5907856439159046,0.5712145514722542,0.5499653244684084,0.5277067628082891,0.5049662729551052,0.48215410726839125,0.4595843634413678,0.43749286999706355,0.41605223126204743,0.3953843630475359,0.3755708583898326,0.3566615046827112,0.3386812431312979,0.321635826567907,0.30551639668376934,0.2903031689438994,0.2759683839298153,0.26247865794897873,0.24977775810512054,0.2378231429960848,0.2265776671834524,0.21600588554217362,0.2060726552079098,0.20662169281203968,0.2230689634184706,0.25773431129651087,0.3114948970798118,0.3851017389087114,0.48001437367822447,0.5988424038170576,0.7455332788321515,0.9254123045791178,1.1451268762204183,1.4125020920928433,1.7362894151340496,2.1257852903565975,2.590310106360746,3.0965599421264125,3.6257834729294407,4.163558103078642,4.696946627296756,5.214005710043805,5.703993154654922,6.157696023810347,6.567680604695084,6.92841004908062,7.236233255400369,7.489270367274653,7.687225993513541,7.831159609690371,7.923237820726288,7.966487439896385,7.964562802947989,7.9215359233622
A1,0.0,0.0,0.7566155483159117,1.875517582664045,3.1442483519203615,4.4444017088736985,5.709872212158838,6.904469306468351,8.009475418022049,9.016532979804143,9.923478829229982,10.73185198529122,11.445373987304407,12.069006957692572,12.608362030158673,13.069324480278265,13.457815384570756,13.779640767675367,14.040397664709111,14.245417685663586,14.399735536800572,14.5080742571686,14.574841671882185,14.604134342723324,14.599746468957148,14.565181975901238,14.503668561725702,14.41817283996138,14.311415971179215,14.185889357956347,14.043870106072895,13.887436047588666,13.718480188656974,13.538552726120153,13.349161569776689,13.151724574738449,12.94754981460912,12.73783051987793,12.612557243102216,12.636389556433121,12.853504220827269,13.297596693813224,14.001493839473993,15.004468444762233,16.35725940760501,18.12541994411047,20.391547548893307,23.256636411487868,26.840475519125835,31.280802505424496,36.73085833421987,43.355080917355785,50.94486702860703,59.36963153414789,68.5084574623701,78.23208671529282,88.40156404632408,98.87231969124014,109.499557856774,120.14333021243694,130.6726756043866,140.9686518877473,150.92629556996235,160.4556418095887,169.48197446085675,177.94548026526053,185.8004682362576,193.0142939002794,199.56610385531545
IH1,0.0,0.0,0.0,0.003427210154329547,0.009641815777509867,0.017207525908245102,0.024906579612438993,0.03194818420029852,0.037915583197117006,0.042655783731786516,0.046179705167447196,0.04858875705921127,0.05002625613679723,0.050647634754895185,0.05060350259578987,0.050030962327009015,0.049049965859502026,0.04776259531067432,0.04625393170490563,0.044593695390720535,0.04283817756321069,0.04103219225702521,0.039210906473418405,0.03740148255037471,0.035624511042658076,0.03389523677016255,0.032224593195430744,0.03062006579535602,0.02908640659921541,0.02762622139491744,0.026240449344594928,0.024928752535443934,0.02368983068276779,0.022521673993921288,0.021420987139955373,0.0203843914694566,0.019408686729965572,0.018490831006653233,0.017627873717408635,0.017219640606412456,0.017686436976440793,0.019332568097285553,0.022345641442745756,0.026849889844509475,0.03296680632072935,0.04086340136111789,0.05078393858886829,0.06306740191098986,0.07815393817536107,0.09658218587756698,0.11897769588414736,0.14603160557961833,0.17846875612747584,0.21529314472645222,0.2552433320785616,0.2971018950576704,0.33973392941107716,0.3820862248196909,0.42319530297902563,0.46220480506510864,0.49838435839157114,0.5311437866962483,0.5600397478305648,0.5847743780931804,0.6051870013058298,0.6212406316197044,0.6330051389225213,0.6406387821663346,0.6443695086095869
IN1,0.0,0.0,0.0,0.013765768421961096,0.043491429589407354,0.0865445385961579,0.1386879480580655,0.19560538192471494,0.25356028455267643,0.30961576759184817,0.3616404360409082,0.4082185349290097,0.44852603628353527,0.48220363646100617,0.5092411054809192,0.5298786209669599,0.5445261582037273,0.5536997835765567,0.5579727480356894,0.5579390051161324,0.5541868511726462,0.5472806184255175,0.5377486427315654,0.5260760240868911,0.5127009722342356,0.4980137710746584,0.48235760085288704,0.4660306276036889,0.4492889084690498,0.4323497733521491,0.4153954321723233,0.3985766266578423,0.38201619965787353,0.36581249638484514,0.35003941823097984,0.3347524515992655,0.3199924043770526,0.30578795839877215,0.2921575975485714,0.28072880024067415,0.2737637469511017,0.2735540161327827,0.28217979773521357,0.301521987037624,0.33340907636360856,0.3798135908567897,0.443048840028835,0.5259417392072638,0.6319697253348838,0.7653528188233122,0.9310902674713779,1.1349290639514205,1.3832520232925605,1.6759997670327045,2.0100516825622767,2.3804089870172733,2.780728924808897,3.2036957214810626,3.641368007404188,4.085526145463409,4.528006680083484,4.961004235243412,5.37732482092982,5.770581147471372,6.135327096851457,6.467133765706947,6.762613161757975,7.019397797060498,7.236085341621145
D1,0.0,0.0,0.0,0.0,3.427210154329547e-06,1.3069025931839415e-05,3.027655184008452e-05,5.518313145252351e-05,8.713131565282203e-05,0.00012504689884993903,0.00016770268258172556,0.00021388238774917276,0.00026247114480838405,0.00031249740094518126,0.00036314503570007646,0.00041374853829586635,0.00046377950062287534,0.0005128294664823774,0.0005605920617930517,0.0006068459934979574,0.0006514396888886778,0.0006942778664518885,0.0007353100587089137,0.0007745209651823321,0.0008119224477327068,0.0008475469587753649,0.0008814421955455274,0.0009136667887409582,0.0009442868545363142,0.0009733732611355297,0.001000999482530447,0.001027239931875042,0.001052168684410486,0.0010758585150932537,0.001098380189087175,0.0011198011762271305,0.0011401855676965872,0.0011595942544265526,0.0011780850854332058,0.0011957129591506144,0.001212932599757027,0.0012306190367334677,0.0012499516048307532,0.001272297246273499,0.0012991471361180084,0.0013321139424387377,0.0013729773437998556,0.001423761282388724,0.0014868286842997138,0.0015649826224750749,0.001661564808352642,0.0017805425042367892,0.0019265741098164076,0.0021050428659438836,0.002320336010670336,0.0025755793427488976,0.002872681237806568,0.0032124151672176453,0.003594501392037336,0.004017696695016362,0.00447990150008147,0.004978285858473041,0.005509429645169289,0.006069469392999854,0.006654243771093035,0.007259430772398864,0.00788067140401857,0.008513676542941091,0.009154315325107425
R1,0.0,0.0,0.0,0.03026462193263647,0.10913156956415407,0.24646025040960318,0.44624785337620654,0.7085820360935218,1.0310387455981866,1.4096579679422168,1.8396138974181098,2.3156694585980944,2.832480508059084,3.38479576112423,3.967584469659303,4.576114050856271,5.205993093390978,5.85319051970862,6.514038485042719,7.185224376513287,7.863775723098097,8.547040728477345,9.232666353160399,9.918575305733771,10.6029428917509,11.284174368943738,11.960883238564477,12.631870743163741,13.29610672545905,13.952711919840988,14.600941689178399,15.240171178727318,15.869881831486461,16.48964919178662,17.09912504290778,17.6980312859102,18.2861534428735,18.863334080790676,19.42946641840337,19.98804468485009,20.545601539469587,21.110997329315325,21.694947391435555,22.309896211217964,22.970212696581267,23.69263933406489,24.49692983434199,25.406622325389538,26.449902149971336,27.660505020017876,29.078599251839822,30.751570076055817,32.73461615192819,35.07594327747255,37.818026644839314,40.997390591840656,44.64400599251445,48.78073541783155,53.422998658594395,58.57871163096943,64.24849072460168,70.42608398658287,77.09897745491382,84.2491224396353,91.85373318483248,99.88611121970884,108.31646090956453,117.11266903599709,126.24102895192435
G1,0.0,0.0,0.0840683942573235,0.2117535782885201,0.36105929746217313,0.5194952186877455,0.6798559488699774,0.8379661691806292,0.9914311562708993,1.1389241094378966,1.2797693503954526,1.4136929403099456,1.5406702826904828,1.6608311637882984,1.7743995360964988,1.8816547506882697,1.982906293299783,2.07847718202061,2.16869301843625,2.253874788163232,2.3343341835591795,2.4103706437636294,2.4822695754303323,2.5503013907321574,2.6147211129480192,2.675768375803839,2.7336676941216735,2.788628918644419,2.8408478125128953,2.8905067042489287,2.937775184519462,2.982810822937094,3.0257598877117444,3.066738970490573,3.1058668541240557,3.1432590172077033,3.1790250419699486,3.2132675639536346,3.2559608910669016,3.3146647358507897,3.3949503188120644,3.501420612347514,3.6387318360601024,3.81240232037868,4.029398953782376,4.298560166316783,4.630909544377589,5.039881851549844,5.541449025338453,6.154109692789975,6.898697240458014,7.797970231180759,8.833969047619146,9.996475623917496,11.275765756093953,12.660651039584788,14.138291128434007,15.694604262519453,17.314841035095395,18.984147109532493,20.6880447318044,22.412809543752864,24.145741739055634,25.875341523769507,27.591403559730793,29.285046313379468,30.9486915557803,32.57600759949942,34.16182778961578
H1,9284.10827332436,8694.07003502505,8189.781592297599,7721.09357300692,7285.464602411289,6880.534827090717,6504.112949157863,6154.164186596662,5828.799093576698,5526.263179316479,5244.927268456407,4983.278549976469,4739.912265476879,4513.523991152893,4302.902471057065,4106.922962271272,3924.541055423536,3754.7869365964207,3596.7600590990537,3449.624195826793,3312.602845023705,3184.9749642048023,3066.0710087980488,2955.2692537404464,2851.992377817189,2755.7042919765263,2665.9071941934985,2582.1388347004836,2503.969976558352,2431.0020376153325,2362.864900897323,2299.2148813988265,2239.7328381030434,2184.1224208576073,2132.1084424734163,2083.435367102059,1892.3040620397746,1710.1540548032697,1536.2067367535458,1369.752395041423,1210.1443238252011,1056.7934253255355,909.1632607851732,766.7655146066566,629.1558378923629,495.9300403282939,366.72060185424255,241.19347786532907,119.04517380905118,6.699236559513793e-05,3.802101703571578e-13,3.7591374914053436e-13,3.7184191394052913e-13,3.6797891918317965e-13,3.6431014291175395e-13,3.608220065322173e-13,3.575019002911509e-13,3.5433811407666305e-13,3.513197731620788e-13,3.4843677853935184e-13,3.4567975151436273e-13,3.4303998225968123e-13,3.405093820421187e-13,3.380804388625843e-13,3.357461762645092e-13,3.335001150845136e-13,3.3133623793515484e-13,3.2924895622460907e-13,3.272330795320769e-13
S2,1130.7406307775034,1196.874732290153,1257.0079190469603,1311.9409090973966,1362.043286687577,1407.664746907193,1449.133477853306,1486.7560788702053,1520.818180747366,1551.585402053317,1579.304457510157,1604.2043187304566,1626.4973718339456,1646.3805412267045,1664.0363631788343,1679.6340012690764,1693.3302007251582,1705.2701815816515,1715.5884722307685,1724.4096858501737,1731.8492426529615,1738.01404109798,1743.0030812324908,1746.908043279734,1749.8138244715392,1751.7990369851218,1752.9364696885827,1753.293516240404,1752.9325719299256,1751.9114014916197,1750.2834799778282,1747.9665442458545,1745.167989053878,1741.9200411715378,1738.2555155600735,1734.2065950775834,2776.8380829474895,3814.101097246161,4845.350662557808,5870.023400668829,6887.5636015956,7897.384127195213,8898.845220652518,9891.238351451584,10873.76854745929,11845.533491286966,12805.500477878551,13752.483739486588,14685.125182202413,15601.881472182922,15495.708191206095,15382.751889539999,15262.2622883575,15134.15889170445,14998.629563907076,14856.00062145466,14706.682316430317,14551.139288732878,14389.871193155353,14223.398564542742,14052.251973586184,13876.963526590527,13698.060148958804,13516.058273317993,13331.459656582289,13144.748117932571,12956.387037249717,12766.817487939548,12576.456903239603
E2,0.0,0.9829820082378065,1.600051950841686,2.0069938388305024,2.2901062012890936,2.498006383728855,2.658338022688362,2.786909648802107,2.8928253327756344,2.9813982479220225,3.055810755527177,3.118058414141688,3.1694833495941452,3.211072276298636,3.243620203974892,3.2678181063736624,3.2842980936947237,3.293655297218745,3.296457374060537,3.2932477462458554,3.2845459342613563,3.2708467760408073,3.252619439391749,3.230306648311876,3.204324282103001,3.1750613723257537,3.142880459628926,3.108118247767287,3.0710864872217662,3.0320730254596517,2.9913429694177056,2.949139915325487,2.9042482940661194,2.8577204883479332,2.8101754021311187,2.761991511184263,2.7134135670477764,3.502048644021853,4.95549809370448,6.929463240217024,9.36102608480056,12.274243966035552,15.766613885261808,19.993161384734602,25.154462431618626,31.488643871445557,39.26473620165931,48.77428611086854,60.31884971187361,74.19233057420031,90.65877383159666,105.64183855196225,119.91331498925236,133.50395053548087,146.23268535537608,157.88784699003963,168.29145538442322,177.31960482567146,184.90478572771124,191.0304817820591,195.7227012610727,199.0407422675143,201.0683660414797,201.9059511054633,201.66385882329183,200.45704389931578,198.40083396495484,195.60774749607623,192.18519806024216
I2,0.0,0.0,0.029423937990063223,0.07130129996056597,0.1167953785526546,0.16145988083396468,0.20321311293754685,0.24122657841964695,0.2753144203107944,0.30560130685935816,0.3323454512271379,0.3558475176507369,0.3764064147220689,0.3943000950123681,0.4097792021737734,0.42306691757306636,0.4343614625086799,0.44383944085630356,0.45165915318422223,0.4579635176020064,0.4628824902175793,0.4665350005665198,0.46903046784488134,0.47046997749313785,0.4709471939958921,0.4705490750034137,0.4693564393157406,0.4674444293884253,0.4648828988273384,0.4617367470859193,0.45806621715068846,0.4539271671435672,0.4493713231910411,0.44440344676861704,0.4390588269068552,0.4333840614779397,0.42742754758451185,0.42123511078257175,0.43991558493470495,0.49828228317013745,0.6037996794814902,0.7605223287924012,0.9723956982801616,1.2454767717501753,1.5892242411404691,2.017166293580667,2.547192374944417,3.2015863106007307,4.006801587838218,4.992908226334698,6.192624088405368,7.639879601129731,9.239647506034101,10.939437002950436,12.69841265194452,14.478670616157768,16.243722776212493,17.95921572557633,19.594112822450143,21.121703996872846,22.520247315018075,23.773225839614426,24.869275532423114,25.80186368907503,26.568798285108,27.17163907552621,27.61506780567003,27.9062608903089,28.05429513688987
A2,0.0,0.0,0.2648154419105691,0.6852769644839868,1.1985502075785097,1.7675630169975163,2.369823641989499,2.991187200016323,3.6223334234238806,4.256767492735586,4.889685750624929,5.51733401447667,6.13664587263416,6.745039138726613,7.340300734790454,7.920520281671043,8.484049963770858,9.029478168661264,9.555610076831599,10.061451588429692,10.546194765540339,11.009203946631029,11.450002206014657,11.868258088881381,12.263772668498767,12.636467013125195,12.986370153426323,13.313607627324753,13.618390659248165,13.901006010254886,14.161806517094627,14.40120232287985,14.619652789844789,14.817271431304295,14.994450732037421,15.151734210214899,15.289745604686914,15.409149640836763,15.736235876593897,16.441798076101037,17.650924176604523,19.466748483305498,21.994760978386147,25.36249774571899,29.73415732092422,35.321405481889514,42.39159276910715,51.2738525417896,62.36269552905665,76.11809127492151,93.06078818984486,113.76183853077835,137.67128584866322,164.46909231661175,193.8563049710008,225.4971514307567,259.0122656304798,293.9895083044618,329.9998455473746,366.6132177215101,403.4123180796697,440.0035387754678,476.02499119062054,511.151827537232,545.0992359219592,577.6235282885879,608.5217329108997,637.6300662060586,664.8216084221158
IH2,0.0,0.0,0.0,0.0011995235540153413,0.0035052971970732207,0.0065105320597497905,0.009830978793495584,0.013190032709923206,0.016415892814867803,0.019415253594595793,0.022146637939227477,0.024599875328242787,0.026782147829111334,0.028709224878469376,0.03040030669758645,0.03187519216853255,0.03315285935211425,0.034250859174024734,0.03518514914362467,0.03597014548591426,0.03661886822941495,0.03714311227962067,0.037553611686156584,0.03786018342424507,0.03807184710736998,0.038196921935935824,0.038243104187189896,0.03821752903766015,0.038126820267490154,0.037977130859874794,0.03777417690475737,0.037523266652498236,0.03722932608404752,0.03689692197916032,0.03652852727166238,0.03612681458089177,0.03569501719598661,0.035236721529413255,0.03475558536812275,0.03527704396364183,0.03791668277248607,0.04353548260936864,0.05272836464844165,0.06595303913094402,0.08368482808840176,0.1065465190253464,0.13540038553377393,0.1714059998834201,0.21605043173558452,0.27115415625615474,0.33885145287240614,0.42154113374752467,0.5218034454200486,0.637051961532703,0.7638561666754777,0.8988394982295427,1.0387718284696281,1.1805538151346024,1.3212384035942597,1.4580897450544534,1.5886537634747357,1.7108195230655867,1.8228603220797233,1.9234512594194788,2.0116648911501223,2.086949060645358,2.14909182816822,2.198178296163975,2.2345434911351836
IN2,0.0,0.0,0.0,0.004818018947686383,0.01574681741679381,0.03243191164342597,0.053845678018104054,0.07877882915008687,0.10607376248387625,0.1347217820285052,0.16389087616252151,0.1929202123905668,0.2213005688419164,0.24865055876362344,0.2746933944322305,0.2992362106240716,0.32215256625031563,0.3433680666228984,0.3628487605085583,0.38059187741976425,0.39661847818975143,0.41096764048267853,0.42369186202077436,0.434853424234379,0.4445215119271654,0.4527699286388055,0.4596752828850933,0.4653155483963453,0.4697689231414661,0.4731129285661384,0.47542370318502714,0.4767754543575372,0.47724003946980537,0.47688665340741854,0.4757745508182308,0.4739595848180829,0.4714965857324279,0.46843981416522584,0.46484262818454336,0.46486156222313413,0.47443481044399916,0.49980287128835554,0.5469033567177362,0.6214000538494235,0.7290710968434924,0.8763482641348244,1.0708820726262067,1.3220671003695514,1.6414913478396722,2.043279186294163,2.5442906032933754,3.1641309624537737,3.9249242317963877,4.8298066334016285,5.872833415920258,7.04229421505347,8.322086316715842,9.692626951147828,11.131741983152647,12.615610478380532,14.119728284954821,15.61982738664772,17.0926948863395,18.51685330419989,19.873082827135637,21.144782307523055,22.318177905373002,23.382396282208067,24.32942373491621
D2,0.0,0.0,0.0,0.0,1.1995235540153413e-06,4.704820751088562e-06,1.1215352810838352e-05,2.1046331604333935e-05,3.423636431425714e-05,5.065225712912495e-05,7.006751072372074e-05,9.221414866294821e-05,0.000116814023991191,0.00014359617182030233,0.00017230539669877172,0.00020270570339635816,0.0002345808955648907,0.00026773375491700497,0.0003019846140910297,0.00033716976323465436,0.0003731399087205686,0.00040975877694998355,0.0004469018892296042,0.0004844555009157608,0.0005223156843400059,0.0005603875314473759,0.0005985844533833117,0.0006368275575705016,0.0006750450866081617,0.0007131719068756519,0.0007511490377355267,0.0007889232146402841,0.0008264464812927824,0.0008636758073768299,0.0009005727293559903,0.0009371012566276527,0.0009732280712085445,0.0010089230884045312,0.0010441598099339444,0.001078915395302067,0.0011141924392657088,0.001152109122038195,0.0011956446046475636,0.0012483729692960052,0.0013143260084269492,0.001398010836515351,0.0015045573555406975,0.0016399577410744714,0.0018113637409578915,0.002027414172693476,0.0022985683289496305,0.0026374197818220366,0.0030589609155695615,0.00358076436098961,0.004217816322522313,0.00498167248919779,0.005880511987427333,0.006919283815896961,0.008099837631031564,0.009421076034625823,0.010879165779680277,0.012467819543155012,0.014178639066220598,0.01600149938830032,0.0179249506477198,0.019936615538869922,0.02202356459951528,0.0241726564276835,0.026370834723847474
R2,0.0,0.0,0.0,0.010592617676422764,0.03934988176951676,0.09148408870730206,0.17046633649556836,0.2785167255221114,0.4169639116499741,0.5864984998488226,0.787348378969198,1.019399654968567,1.2822808028417063,1.5754223417820814,1.8981003025252385,2.2494689119116575,2.6285860017260756,3.034433391480023,3.465933686174875,3.9219644169467553,4.401370129836933,4.902972826199611,5.425581032423898,5.967997698020328,6.529027071643787,7.107480673029611,7.7021824581368294,8.311973260739231,8.93571458366892,9.572291805318125,10.22061686089669,10.879630452764776,11.548303839586485,12.225640249894257,12.91066045604793,13.602411346195208,14.299971538473278,15.002454711716755,15.709011333217493,16.42785354788977,17.17518191316518,17.973678261750567,18.85154708802317,19.84242982109513,20.986175641546716,22.330334500420705,23.93223080642406,25.861499370547588,28.20297556398603,31.05981397402581,34.55666640250475,38.842693733499935,44.094135676468476,50.46995132587925,58.115490924043755,67.16151035610503,77.72183212154137,89.89099432660475,103.74246600708437,119.32764602346838,136.6756725068906,155.79396801476545,176.66939563987665,199.26988335913137,223.54637542379703,249.43498228920637,276.85921890437874,305.73224148969405,335.959012939191
G2,0.0,0.0,0.029423937990063223,0.0773188424622677,0.13739487820381016,0.20594541350627094,0.2807190963587024,0.3602920412149695,0.44371356470477064,0.5303054987323995,0.6195487162433737,0.7110193488963445,0.8043532620892954,0.8992264955334974,0.995344624601598,1.0924370219651764,1.1902537434503606,1.288563766054943,1.387153881045697,1.4858278715647366,1.5844057871922739,1.6827232284936409,1.7806306081879597,1.8779923827554386,1.974686260885732,2.070602399926441,2.1656426022404562,2.259719522244399,2.352755893023999,2.444683779399182,2.535443862426953,2.624984758701287,2.713262376465746,2.8001962379161123,2.885737366581145,2.9698553118543645,3.052530952174432,3.133752492211913,3.238580516810869,3.386915142874302,3.5943371454906936,3.874543953686822,4.24195311306603,4.713900580451395,5.312362745455172,6.065319906988757,7.007880296599114,8.183205128093196,9.64318258241971,11.4487274232005,13.669551930524968,16.38327213813911,19.545485566929774,23.13489200047367,27.131111594590728,31.50834477887916,36.23445591854065,41.27198184067411,46.579750460128686,52.11456890413208,57.832749911578745,63.69138473591039,69.64933962104055,75.66798806484458,81.71170822997973,87.74818176370273,93.74853129190888,99.68733158208609,105.54252545589715
H2,9284.10827332436,9836.733765784144,10340.634794883741,10802.516399156382,11225.421697238347,11612.17605339584,11965.402635647608,12287.536862544031,12580.839817984936,12847.410707788213,13089.198426456198,13308.012297697655,13505.532047723382,13683.317066117881,13842.815005175018,13985.369764950821,14112.22890791126,14224.550543918758,14323.409723390898,14409.804373762367,14484.66081187187,14548.838862565566,14603.13661164489,14648.29481927755,14685.001018124754,14713.89331870545,14735.56394290966,14750.56250507932,14759.399058687934,14762.546925362483,14760.445321794978,14753.501798980562,14742.094507187852,14726.574299109643,14707.266682752928,14684.473634801589,13611.44137814303,12539.598493690206,11469.76551811544,10402.681638559028,9339.011741665357,8279.352875054119,7224.240169142194,6174.152263385218,5129.516277466407,4090.7123646997825,3058.0778819135694,2031.9112073166725,1012.4752353082663,0.0005748500796016742,3.289637117397104e-12,3.27763264007265e-12,3.265464185962776e-12,3.2531497490303997e-12,3.240705984340741e-12,3.228148304258953e-12,3.2154909677700765e-12,3.202747163412658e-12,3.1899290862822688e-12,3.1770480095285808e-12,3.1641143507393848e-12,3.151137733576847e-12,3.138127045005195e-12,3.1250904884248084e-12,3.112035633005174e-12,3.098969459488292e-12,3.0858984027147065e-12,3.0728283911063284e-12,3.059764883323487e-12
S3,3392.2218923325095,3375.73180296775,3360.3818569365744,3345.9904898457926,3332.4376549414337,3319.6328597623096,3307.502863452303,3295.98547076832,3285.0261785360844,3274.576256249498,3264.591583409313,3255.0319011463866,3245.8602982323755,3237.0428342905125,3228.5482464983343,3220.347709482332,3212.414630944638,3204.7244727174298,3197.2545909867504,3189.984091748365,3182.8936989104654,3175.965633259921,3169.1835009946712,3162.5321908272726,3155.9977788591814,3149.5674405556874,3143.2293692428775,3136.97270061543,3130.7874427962784,3124.6644115314834,3118.595170139193,3112.364415642515,3106.2197581984583,3100.1384153414824,3094.104142118793,3088.1048638300476,4915.790605106011,6736.926828757292,8551.420638090009,10359.185223325498,12160.06991342316,13953.826044689948,15740.089879285093,17518.368615004274,19288.022431997262,21048.240577134355,22798.012341133795,24536.09522905777,26260.983316526657,27970.87897567172,27870.190444971333,27762.025885704497,27645.163951548137,27519.155914891424,27383.86255134086,27239.315684280475,27085.664659605558,26923.14881355427,26752.079390048802,26572.825698471046,26385.80364649315,26191.465866070845,25990.293045502567,25782.786247703272,25569.460077668038,25350.836608075846,25127.439998788966,24899.79176146444,24668.40662884338
E3,0.0,1.685112014121953,2.649448677497274,3.209676192200792,3.5370499564500792,3.7273480824718916,3.8353180576456807,3.8927792275283646,3.9184966278874347,3.9236968588761005,3.9152019632348294,3.8972331710286836,3.872460126889207,3.8426168203215854,3.8088661524569103,3.7720174141899294,3.7326570365700875,3.6912278531568536,3.6480776019109955,3.603488939138157,3.557698274892903,3.510907806512331,3.463293383701245,3.4150097969444486,3.36619445569521,3.3169700458448186,3.2674465279194305,3.217722699018176,3.1678874572178746,3.1180208556921087,3.0681950022491287,3.0184748405856454,2.9674622148723953,2.916069401042191,2.864780657955141,2.8138482286629194,2.763400124143933,3.5556273135108394,5.016370708717932,7.001494612130424,9.449500314938255,12.386892219967997,15.914718159311596,20.192931198201673,25.42882010615726,31.869520173606357,39.795945210663014,49.51499706845519,61.34759615383787,75.61139690528526,92.59869189333678,108.17020801385178,123.12068085435502,137.48578692423422,151.08049882419894,163.68400850858728,175.10592281810437,185.20786195012897,193.90670917489015,201.16996821785796,207.00792084795535,211.4648934291779,214.61081192300625,216.53362609366278,217.33284485143054,217.11423005731154,215.9855878629422,214.05354172658485,211.42114911089925
I3,0.0,0.0,0.050441036554394074,0.11943210644284846,0.19108317105994335,0.2578801388275856,0.3167125976783238,0.3667450268522603,0.4082652388401993,0.44206388534176894,0.4691059701322524,0.49036334887640143,0.5067354768173091,0.5190177713773492,0.5278948818339056,0.5339462481276107,0.5376570326764822,0.5394307303014346,0.5396015718605334,0.5384458430174559,0.5361917866059279,0.5330280436504077,0.5291107283023363,0.5245692912967403,0.5195113425626353,0.5140265976531766,0.5081900966312279,0.5020648244675627,0.49570384229074416,0.4891520206191179,0.4824474496797195,0.4756225882265014,0.46870520079721545,0.46167552227550246,0.4545451372132691,0.4473377564716123,0.44007979223864346,0.43279608689493243,0.45071599373204196,0.5086960018185445,0.6142398095811006,0.7714756586112017,0.9844808817753173,1.2595236487148584,1.6063781444458434,2.039024463736754,2.575981192530154,3.2403883369751076,4.059840097420762,5.065893555388212,6.293160456258484,7.777923328968512,9.425142214003571,11.183003038216066,13.011356234994537,14.872724809159648,16.730686730197526,18.55056959877533,20.300649760185962,21.953203459814823,23.4852040558436,24.87864189412449,26.12051734355907,27.20258246881173,28.120908765135862,28.875349787740237,29.46895484762339,29.90737663426036,30.19830339201925
A3,0.0,0.0,0.4539693289895468,1.149572269138024,1.9682764348032014,2.8424269555350197,3.7328777877965473,4.616797707843184,5.480840875450578,6.317250586336041,7.1216048514846895,7.891496420373438,8.62575153226138,9.323962579342396,9.986205395052117,10.612866065158624,11.204533255039506,11.761930068034998,12.285869982752693,12.77722761929396,13.23691876059041,13.665886247146469,14.065089677827286,14.43549764146978,14.778081683927997,15.093811507340957,15.383651077352328,15.64855542435572,15.88946799347644,16.107318441184717,16.30302080402417,16.477471982926748,16.631550498624872,16.765723067714838,16.880683505347882,16.9772283334499,17.05619016737068,17.11840280401518,17.391553011650643,18.04730161374486,19.211612830849877,20.98884455698088,23.486320658910724,26.834294343844704,31.200900060938167,36.803390494633845,43.916906491586566,52.881261470432804,64.10535569951065,78.06818942305232,95.31517900997125,116.44866781935974,140.93178492737545,168.46323608627702,198.76339007308806,231.51395451565028,266.3498830292227,302.8694391501227,340.64967634187485,379.2621742749465,418.28689493368915,457.3233717325578,495.9990982758982,533.9753064842284,570.950472675681,606.6619418250916,640.8860573632207,673.4371519705982,704.1657093898305
IH3,0.0,0.0,0.0,0.002056326092597727,0.005894986773999375,0.010731472228118844,0.015867985628295462,0.02082952441401447,0.02534500069313078,0.029290874838480724,0.03263773301681987,0.03541023796453989,0.03766031595676378,0.039450546231682974,0.04084458255374006,0.04190209919901369,0.04267649561745945,0.043214196715845136,0.04355481776685757,0.0437317523568084,0.043772927202955274,0.043701582496320564,0.043537005407238275,0.04329518452803687,0.04298937547504961,0.0426305797270276,0.04222794444934076,0.041789093230329415,0.04132039794432793,0.04082720129582336,0.04031399852753403,0.039784585587109726,0.039242179896104776,0.038689518822779184,0.0381271625508242,0.0375558628784923,0.0369769615720726,0.036392204916707666,0.035803477056217364,0.03624024140105893,0.03882185360945395,0.04441277488643521,0.05361266709998846,0.0668869818565984,0.08472351352676594,0.10776413499568568,0.13689906634636514,0.1733274732552859,0.21859108635371083,0.27458415999845576,0.34353841237578664,0.42797848538372796,0.5306433025649732,0.6490250996048983,0.779760201534322,0.9195333600625789,1.0651624443380496,1.21357475677949,1.3618235340955096,1.5071450654644525,1.6470300468851176,1.7792876102176873,1.9020903139910363,2.013996309889372,2.1139498726192407,2.201264042190058,2.2755900554623,2.336878190670493,2.3853340794370603
IN3,0.0,0.0,0.0,0.008259461053176653,0.026536272437024954,0.05371407296548163,0.0876190579301104,0.1259048817511567,0.16645189037598412,0.20751594152240785,0.2477525664710572,0.2861836005479794,0.32214155602888805,0.355209635821094,0.3851658599661964,0.4119347461972412,0.43554738653318803,0.45610949897044534,0.47377649352468226,0.4887344321569929,0.5011857918427707,0.5113390547353374,0.5194012932303628,0.5255730622616268,0.5300450430104888,0.5329959962609211,0.5345916790353779,0.5349844561450918,0.5343134009970748,0.5327047297649959,0.5302724521046944,0.5271191519911391,0.5233368356985881,0.5190078018798107,0.5141983627664234,0.5089664541865493,0.5033649188864247,0.4974427378962585,0.4912453717523631,0.4889424153064007,0.4964901696148011,0.5201508576311573,0.5658925160086536,0.6394262353907739,0.746604705639654,0.8939743708450905,1.0893566467332856,1.3423935524175425,1.6650223902426045,2.071849504226434,2.5803856845955706,3.211096386729199,3.9872175667124514,4.91282308202015,5.982871365640495,7.186527621489118,8.508498950851708,9.929897761725197,11.429085163952683,12.982580051418019,14.565999467479248,16.15496745082381,17.725935457730383,19.256874541327306,20.727817996338615,22.121249154271425,23.422341108380227,24.619063295331326,25.702174566129422
D3,0.0,0.0,0.0,0.0,2.056326092597727e-06,7.951312866597102e-06,1.8682785094715945e-05,3.4550770723011406e-05,5.538029513702588e-05,8.072529583015666e-05,0.00011001617066863738,0.00014265390368545727,0.00017806414164999715,0.00021572445760676093,0.0002551750038384439,0.00029601958639218395,0.00033792168559119767,0.00038059818120865713,0.00042381237792450227,0.0004673671956913598,0.0005110989480481683,0.0005548718752511235,0.000598573457747444,0.0006421104631546823,0.0006854056476827192,0.0007283950231577688,0.0007710256028847964,0.0008132535473341371,0.0008550426405644666,0.0008963630385087945,0.0009371902398046179,0.0009775042383321519,0.0010172888239192617,0.0010565310038153665,0.0010952205226381457,0.0011333476851889698,0.0011709035480674621,0.0012078805096395347,0.0012442727145562423,0.0012800761916124596,0.0013163164330135186,0.0013551382866229726,0.0013995510615094078,0.0014531637286093963,0.0015200507104659946,0.0016047742239927605,0.0017125383589884462,0.0018494374253348114,0.0020227648985900975,0.0022413559849438084,0.0025159401449422643,0.002859478557318051,0.003287457042701779,0.0038181003452667523,0.0044671254448716505,0.005246885646405973,0.006166419006468552,0.007231581450806601,0.008445156207586091,0.0098069797416816,0.011314124807146053,0.012961154854031171,0.01474044246424886,0.016642532778239894,0.018656529088129266,0.020770478960748507,0.022971743002938565,0.025247333058400864,0.027584211249071358
R3,0.0,0.0,0.0,0.01815877315958187,0.0664494105200763,0.15223905007787264,0.2796234296651604,0.450446773806081,0.6650390530280806,0.9227324763524546,1.222217006413818,1.5617827297434128,1.9394842336511098,2.3532517087063844,2.800965759174957,3.280507459658752,3.7897914713612146,4.326787518706257,4.889533840893159,5.476145100545358,6.084816467229719,6.713825073604573,7.3615296848019165,8.026369173847089,8.706860222261472,9.401594542180174,10.109235828786487,10.828516589108814,11.558234948055643,12.297251499998671,13.044486250755735,13.798915677987988,14.55956992602289,15.325530142650134,16.095910262992106,16.86986252818355,17.646580391749154,18.425299469287133,19.205297189720774,19.9949664376755,20.810727230110633,21.6755206008748,22.617864294869438,23.67179343095721,24.87767076350658,26.283735040480114,27.948250250846872,29.9421428475736,32.352025177314644,35.283485829892925,38.864483396131725,43.248621811354084,48.618031643531324,55.138337878096614,62.96249098414897,72.22979328782739,83.06347923310611,95.56822111572338,109.82815929465704,125.90569051597332,143.84105508503288,163.6526596447329,185.3380203343819,208.87519109695216,234.22454142937073,261.3307587093549,290.12496689228914,320.5268722548447,352.4468657046051
G3,0.0,0.0,0.050441036554394074,0.12974789358862285,0.22582423319203376,0.33169996409469443,0.44327195414835313,0.5580758465437419,0.6745997438683109,0.7918934489686982,0.9093428143689304,1.0265378991409455,1.1431951178857098,1.259110796593651,1.374133165358475,1.488145263792763,1.6010543562913437,1.7127852610910184,1.8232760519175846,1.9324752114566262,2.0403396832419824,2.1468334873508352,2.251926696302688,2.355594646386642,2.457817307288532,2.5585787618185405,2.6578667651857635,2.755672364085484,2.8519895625404783,2.9468150255901824,3.040147814533165,3.131989149095781,3.222342192986358,3.3111682584346864,3.3984559651393127,3.4842084282855272,3.5684363135365023,3.651154118351983,3.7575859316626574,3.9077426786137957,4.117320821019885,4.400175958727107,4.770957056972561,5.247337780449273,5.851779723876746,6.612949327891545,7.56691061864022,8.758136311807965,10.240285721574093,12.076624382854325,14.339926289947769,17.11171473103525,20.349610711123038,24.035024328455993,28.150433598485115,32.67277804798353,37.57238768067224,42.81389339645767,48.35778392509735,54.162060034735866,60.1837497713737,66.38018894873105,72.71004021680245,79.1340593433987,85.61563472682333,92.12113339976086,98.62008820099784,105.08525896787631,111.492597134327
H3,27852.32481997308,27730.747211631926,27616.761624937182,27509.72473990656,27409.078419444915,27314.305405202376,27224.926384604212,27140.497267537838,27060.606657719592,26984.873504833653,26912.944924528947,26844.49417428235,26779.218773993067,26716.838760968403,26657.095069699833,26599.748027513942,26544.575957819787,26491.37388326547,26439.95232166586,26390.1361680733,26341.763656836527,26294.685397932793,26248.763482266277,26203.87065100507,26159.88952438095,26116.71188570307,26074.238016640134,26032.376080107537,25991.041547357585,25950.156666113988,25909.649966817353,25869.4558042581,25829.513932067624,25789.769107719298,25750.170725858658,25710.672477937846,23837.572679737033,21970.123658266963,20108.29362995085,18252.06313450766,16401.423754651245,14556.37694592186,12716.932967619628,10883.10990653498,9054.932785839375,7232.432752114484,5415.646334064272,3604.6147669755264,1799.3833774720688,0.0010235493398340623,5.868727812746721e-12,5.858984094276178e-12,5.849178663015217e-12,5.839310081132504e-12,5.8293771369924765e-12,5.81937882733112e-12,5.809314340725491e-12,5.799183042264327e-12,5.788984459333704e-12,5.778718268437854e-12,5.768384282980974e-12,5.757982441941126e-12,5.747512799372293e-12,5.736975514675204e-12,5.726370843581778e-12,5.715699129801991e-12,5.704960797285645e-12,5.694156343054868e-12,5.683286330566391e-12
S4,1696.1109461662547,1721.8377513143917,1747.7091471377348,1773.5895346857833,1799.4136683857512,1825.1502190190452,1850.7852569128245,1876.3140434493846,1901.7367280985713,1927.0560196887511,1952.2759019910309,1977.4009183621201,2002.4357728555533,2027.3851098894836,2052.2533956861907,2077.044858087014,2101.7634599213507,2126.412891593309,2150.996574539905,2175.5176706729026,2199.9790949312105,2224.3835292542826,2248.73343698722,2273.0310771451677,2297.278518214029,2321.4776513142137,2345.630202644038,2369.737745173196,2393.8017095886225,2417.8233945135853,2441.80397603119,2465.525922560116,2489.256542582948,2512.9802115318116,2536.687203000796,2560.371393620263,4148.095750556978,5764.096482398841,7408.036101027608,9079.621855879448,10778.432897550163,12503.827801951622,14254.89424363516,16030.410114917013,17828.799730591923,19648.08059956552,21485.80375498619,23338.99479852919,25204.10466552194,27076.979027711015,27177.015231721096,27260.06171910524,27323.693690014767,27367.334332732487,27391.172203913175,27395.794302988255,27382.026759605378,27350.84730863448,27303.32837328491,27240.5965674026,27163.80278124185,27074.099852247575,26972.62593994163,26860.49226997349,26738.77424442396,26608.505149128756,26470.671864758224,26326.212123879377,26176.012960853506
E4,0.0,2.5276680211829308,4.018515449014058,4.927156546550746,5.500679764290042,5.877496764740704,6.136537331211246,6.323358031575159,6.464501862867609,6.575569075979766,6.665817915349111,6.7408127231120565,6.803958460615985,6.857394050091656,6.902513955962384,6.940273136205656,6.971365336877547,6.99632719927866,7.015598900224561,7.029559358630486,7.038546606779089,7.042869553339475,7.0428147897252025,7.038650572742814,7.030629221539689,7.018988640647963,7.003953372801951,6.9857354059983,6.964534856068778,6.940540587467411,6.913930802438051,6.884873611225856,6.850021314168018,6.81152363690855,6.770551733374259,6.72774207529141,6.683442750872411,8.782377162783511,12.634825614547696,17.91428918702597,24.49956331265073,32.49846127509757,42.221843543261045,54.14994748994439,68.90763455102008,87.24908954267504,110.04503406625507,138.2636362152182,172.93767816697033,215.11394770911565,265.78550723105894,312.8651950572963,358.63519464446773,403.1546166903207,445.8172368109358,485.8964027438085,522.7466254981152,555.8741908644458,584.952376171247,609.8116888022432,630.4190555194815,646.853053308199,659.2789930672254,667.9258842595104,673.0662608639976,674.9992166061165,674.0366216483015,670.4922819745057,664.6736981352805
I4,0.0,0.0,0.07566155483159115,0.18047547693067673,0.2910523812092968,0.39618247124327766,0.4910916100670975,0.5743446603630704,0.6461636477180586,0.7075197115112759,0.759652349326851,0.8038246970775716,0.8412081238417634,0.8728363617770752,0.89959575771117,0.9222331310695707,0.9413711529783679,0.9575259171101802,0.9711240333603404,0.9825180408306434,0.991999722526846,0.999811306823574,1.006154730203976,1.0111992093968736,1.0150873841365051,1.0179402754040838,1.0198612752402514,1.020939352108151,1.021251624879941,1.0208654308443816,1.0198399893647005,1.0182277429345539,1.0160754410405528,1.01332006450414,1.009975830788235,1.0060891062694766,1.0017158265801236,0.9969109072996242,1.0559167751930345,1.2181719092373684,1.5052759498510815,1.9307830981854217,2.5087027733670335,3.259484396168456,4.2137703497093675,5.414640480127507,6.918939569787917,8.797950581014144,11.137358777235558,14.036240398035801,17.604743281264017,21.960214409759537,26.83419276281916,32.08143414719984,37.58816790177397,43.24574448538216,48.9459833383316,54.583506458233636,60.059708370615425,65.28636968209429,70.18823942548042,74.70446635169691,78.78899608198796,82.41014120936342,85.54954979434478,88.20078093879224,90.36766385942023,92.06257996960544,93.30477179986931
A4,0.0,0.0,0.6809539934843205,1.7363042591046725,2.9942285079452313,4.356342993554979,5.7654874337374,7.188051648344789,8.604042807940163,10.001418482065578,11.372820646482229,12.713679769809538,14.021108136196892,15.293250835322596,16.52890337912021,17.727285127887697,18.887903933276593,20.010474228122618,21.094866439162967,22.141074759739276,23.149195696249535,24.119412960763334,25.051986136890875,25.947241632650677,26.80556506814846,27.62739461348684,28.41321500346679,29.163552075330184,29.878967742414684,30.56005535274762,31.207435400536223,31.821751567920042,32.40366707866829,32.95291675700753,33.469825170478146,33.955019412892696,34.40927295985186,34.833422122928184,35.80605843985745,37.77763926539268,41.09264482175533,46.04912360081474,52.962247063137255,62.21832564929795,74.31759337391009,89.90861261833278,109.81718072635269,135.07063562614712,166.91604630069554,206.82883058564616,256.5073943278631,317.84973823784446,389.42166054924263,470.46114799596114,560.252592269866,657.9456924912995,762.5283996305603,872.8552518266357,987.6935990402914,1105.7720781166004,1225.8245191006813,1346.6264889025522,1467.023700402759,1585.9525727377202,1702.453763448425,1815.6797244527959,1924.8973854687165,2029.4870168753173,2128.9382175970177
IH4,0.0,0.0,0.0,0.003084489138896592,0.008896590808093295,0.01630471020801877,0.024287192572826057,0.0321396052776392,0.03945193030331077,0.046028619959343375,0.05181168631708158,0.05682272390857865,0.061124002575817946,0.06479434808852802,0.06791523658998203,0.07056345831275364,0.07280777711645602,0.07470789055584236,0.07631462726419584,0.07767074230430313,0.07881194238858491,0.07976794026325204,0.0805634374953099,0.0812189924967118,0.08175176236117954,0.08217612346221959,0.08250418326380839,0.08274619836632047,0.08291091378425125,0.08300583717932303,0.08303746000912063,0.08301143570248071,0.0829327232397424,0.08280570298503775,0.08262999164176982,0.0824059775472203,0.08213574469641902,0.08182261332676448,0.08147047897617801,0.0837002518881792,0.09142755189711435,0.10698782428058025,0.1320990193710723,0.16818951536179155,0.21680573303020728,0.27996853216285233,0.36044255476797105,0.4619247443430354,0.58916586306778,0.748029666212932,0.9454812015589407,1.189486416895118,1.4888041961388399,1.8368608913315105,2.224455092610466,2.6423572161325413,3.0815323915660224,3.533062029554969,3.988199816601472,4.438561500016976,4.87636690407415,5.294665970342882,5.687509901192234,6.05005275107329,6.378584594925943,6.6705060279545,6.924257371536829,7.139216451441607,7.3155775549119095
IN4,0.0,0.0,0.0,0.012389191579764985,0.04002175005087635,0.08147978040667021,0.13372950603862094,0.19342541279279155,0.25750528846977855,0.3234176846579154,0.38916545102724254,0.4532638038819744,0.5146648192494567,0.5726747267506973,0.6268765055918966,0.6770628759938658,0.7231809585104692,0.7652880251612013,0.8035169828833838,0.838050003406112,0.869098762270068,0.8968899194984297,0.9216546838336193,0.943621510443789,0.9630111698238581,0.9800335864844304,0.9948859792883071,1.0077519432036652,1.018801198176893,1.0281897983879829,1.0360606477130114,1.0425442077448774,1.0477593157161158,1.0518140531832834,1.0547894382765566,1.0567562655609157,1.0577819541250775,1.0579326374381886,1.0572731954939267,1.0663778247795475,1.1006403802928724,1.1766066794699708,1.3104786368613586,1.5182420823352352,1.8167547548873904,2.225280268850583,2.7671519583619526,3.4713963203669667,4.374215188568943,5.52023240901584,6.963381777228319,8.767277626880185,11.00489391126692,13.693940097486736,16.825599050526133,20.373790253353715,24.298682865388148,28.54890276228434,33.063779764751935,37.77589678143795,42.61383573080148,47.50492090128237,52.37777166757646,57.164524763137734,61.80264187704942,66.23626830836291,70.41714789064577,74.30512748003805,77.86830198602468
D4,0.0,0.0,0.0,0.0,3.084489138896592e-06,1.1981079946989888e-05,2.8285790155008658e-05,5.2572982727834714e-05,8.471258800547391e-05,0.00012416451830878468,0.00017019313826812806,0.00022200482458520964,0.0002788275484937883,0.00033995155106960625,0.00040474589915813426,0.0004726611357481163,0.00054322459406087,0.0006160323711773259,0.0006907402617331683,0.0007670548889973641,0.0008447256313016672,0.0009235375736902522,0.0010033055139535042,0.0010838689514488143,0.001165087943945526,0.0012468397063067056,0.0013290158297689252,0.0014115200130327336,0.001494266211399054,0.0015771771251833053,0.0016601829623626282,0.0017432204223717489,0.0018262318580742295,0.0019091645813139719,0.0019919702842990097,0.0020746002759407796,0.002157006253488,0.0022391419981844193,0.0023209646115111837,0.0024024350904873616,0.0024861353423755407,0.002577562894272655,0.002684550718553235,0.0028166497379243072,0.0029848392532860987,0.003201644986316306,0.003481613518479158,0.0038420560732471292,0.004303980817590165,0.004893146680657944,0.005641176346870876,0.006586657548429816,0.007776143965324935,0.009264948161463775,0.011101809052795286,0.013326264145405753,0.015968621361538295,0.019050153753104315,0.022583215782659285,0.026571415599260757,0.031009977099277733,0.03588634400335188,0.04118100997369476,0.046868519874886994,0.05291857262596028,0.05929715722088622,0.06596766324884072,0.07289192062037755,0.08003113707181916
R4,0.0,0.0,0.0,0.02723815973937282,0.10015194999601994,0.23056969014749384,0.4255988872394203,0.6890798067477073,1.0226377922995928,1.4264190570987338,1.899595064296454,2.4407045568487655,3.0478842660271845,3.7190242014758415,4.451872108065078,5.244103682947076,6.093369680320102,6.997327358116239,7.953661273132698,8.960096803943573,10.014408697046381,11.11442620603908,12.258035904310375,13.44318291901465,14.667871105877769,15.930162526485969,17.228176479629173,18.560088261032373,19.92412777136179,21.318578053910603,22.741773816163573,24.19209997025274,25.667990213859902,27.16792566377245,28.69039576428799,30.23391530235928,31.79703531059286,33.378349247409325,34.97649592943083,36.61326983398526,38.33143237787736,40.19136686462629,42.26910959387723,44.656672754082464,47.46471171906465,50.82727609137173,54.90835278276856,59.90995779855588,66.0815460156642,73.73043896154537,83.23282003136751,95.04464698347422,109.7116359255379,127.73781970737255,149.59620743450975,175.72521719494594,206.52059976795476,242.32693580836485,283.4305691493627,330.0547652371241,382.3572983822307,440.4303416792653,504.30235670377465,573.9416006206184,649.2608507813208,730.1229672305742,816.3469551888352,907.7142412179911,1003.9749309475775
G4,0.0,0.0,0.07566155483159115,0.1959491576493383,0.3434354264498656,0.5080891626640386,0.6840222915445517,0.8677093706508723,1.0569886179318906,1.2504927719811152,1.4473215390588121,1.6468517556351008,1.8486268175439602,2.05229204249658,2.2575567732977486,2.4641720937346703,2.671917672679604,2.880593945143725,3.090017409606531,3.300017740511289,3.5104359546112702,3.721123187096135,3.93193981982481,4.142754813295414,4.353445157829171,4.563895396502984,4.773997193671809,4.983648935005371,5.192755351682894,5.401227165019508,5.608980749674897,5.815937814497705,6.022025100438266,6.227069140603374,6.4309608165756975,6.63362606649055,6.835009880209981,7.035067667040025,7.297953578356291,7.67615615203735,8.212390721701611,8.945744563027125,9.918532163733248,11.18237310469838,12.803262076985495,14.865897963583173,17.47755492055575,20.771570712650032,24.910263612604954,30.08686651671367,36.525946179562865,44.48179503324018,53.84689634889706,64.5820467787513,76.64981235583389,89.9946127905259,104.53911666151622,120.18667090388263,136.82584393574052,154.33542427328726,172.58912695203668,191.45967701491423,210.82215157672636,230.55657606017874,250.54983090686915,270.69695441157,290.9019377442403,311.0781073915013,331.14818310224723
H4,13926.16240998654,14158.26511681965,14389.354676916582,14619.494357124393,14848.742063290281,15077.15105011899,15304.77026182901,15531.644648367377,15757.815458930192,15983.320514411189,16208.194460284803,16432.469001322544,16656.173119441562,16879.333275891506,17101.973598899574,17324.11605781374,17545.78062470969,17766.985424358187,17987.7468733854,18208.07980939928,18427.997610799892,18647.512307940196,18866.634686256304,19085.374381941856,19303.739970700233,19521.739050070075,19739.378315784266,19956.6636325896,20173.600099923828,20390.192112818473,20606.443418369425,20822.3571680929,21037.93596646172,21253.181915895617,21468.096658459945,21682.681414508766,20332.870152252955,18952.16923037433,17540.649203722955,16098.380371844392,14625.432900758333,13121.876932325022,11587.782682246876,10023.220527667967,8428.261085256318,6802.9752805822,5147.434409539713,3461.7101924981525,1745.874821813837,0.0010032816030616232,5.810997299668386e-12,5.8599033647746086e-12,5.90872823222691e-12,5.957471387752037e-12,6.006132305094808e-12,6.054710447903078e-12,6.103205271464171e-12,6.1516162243035505e-12,6.1999427496557534e-12,6.248184286816868e-12,6.2963402723871836e-12,6.344410141412025e-12,6.392393328428201e-12,6.4402892684229704e-12,6.488097397711931e-12,6.535817154741779e-12,6.583447980823462e-12,6.6309893208008425e-12,6.678440623659633e-12
E_Om,0.0,0.0,0.0,0.0,0.0,0.0,0.0,0.0,0.0,0.0,0.0,0.0,0.0,0.0,0.0,0.0,0.0,0.0,0.0,0.0,0.0,0.0,0.0,0.0,0.0,0.0,0.0,0.0,0.0,0.0,0.0,0.9519291430563149,1.4086112560302662,1.5913462571652972,1.6282686007322913,1.5926970813350319,1.5257900810004226,1.8691285092697965,2.5181000479387627,3.430441208172022,4.650288630322136,6.303731444979194,8.595507655557055,11.820143752197643,16.38976703251105,22.876834465840865,32.069575814726946,45.03773550022549,63.20478817362922,88.42027193359365,123.02311539591335,162.12345582169206,207.9465169843252,260.8807947801623,320.723679859861,386.95287114854494,458.82081633954135,535.4165276781924,615.7203854691384,698.6545546384175,783.1277334256756,868.0729770200066,952.4780304695248,1035.408242112856,1116.0225775521963,1193.5835233316498,1267.4617981266201,1337.1368175754606,1402.1938205708962
I_Om,0.0,0.0,0.0,0.0,0.0,0.0,0.0,0.0,0.0,0.0,0.0,0.0,0.0,0.0,0.0,0.0,0.0,0.0,0.0,0.0,0.0,0.0,0.0,0.0,0.0,0.0,0.0,0.0,0.0,0.0,10.0,7.954882006706949,6.356509195976615,5.098692507271455,4.103584042336543,3.3130922092817183,2.68320050885535,2.1801263432501563,1.7902140475182964,1.4994693048787435,1.29549471393195,1.1697494453569592,1.119213639447593,1.1476135263992584,1.2667294409296461,1.4982688482227335,1.8766353317331324,2.4527908883051137,3.2992962121964444,4.516481835053145,6.239522369970192,8.645959580095422,11.730655902689186,15.556132854520811,20.183754545535926,25.65627062591484,31.992053720536177,39.18334229581524,47.1966932340901,55.974982303407685,65.4405046438998,75.49878064608144,86.0427156700097,96.95681701819088,108.12123436338344,119.4154532129954,130.72152946663647,141.92680349013506,152.92607304335968
A_Om,0.0,0.0,0.0,0.0,0.0,0.0,0.0,0.0,0.0,0.0,0.0,0.0,0.0,0.0,0.0,0.0,0.0,0.0,0.0,0.0,0.0,0.0,0.0,0.0,0.0,0.0,0.0,0.0,0.0,0.0,0.0,0.0,0.25644979722255706,0.6256718050892698,1.0293537584718624,1.426835316414996,1.7988346414980416,2.1379292416372047,2.5559554613947495,3.1320936235660666,3.930971050320607,5.026520385843306,6.523685391734949,8.578368515766487,11.419581570876371,15.378203028730443,20.926096181436506,28.72859895872609,39.712625016911254,55.15149566583501,76.7658650939786,106.837668902889,146.24023580600115,196.41143685399283,258.8362890851231,334.8858258790858,425.73553132358336,532.3124794837913,655.2612412787926,794.9259191527722,951.3464825857536,1124.2673054856334,1313.15555177545,1517.2269972457439,1735.4769914133387,1966.714495071562,2209.597424390297,2462.6678504468773,2724.3859160014417
IH_Om,0.0,0.0,0.0,0.0,0.0,0.0,0.0,0.0,0.0,0.0,0.0,0.0,0.0,0.0,0.0,0.0,0.0,0.0,0.0,0.0,0.0,0.0,0.0,0.0,0.0,0.0,0.0,0.0,0.0,0.0,0.0,0.4076692774503648,0.527723069435445,0.5224691627513255,0.46857014125100577,0.40110701463387044,0.33521699101073243,0.2766591197843067,0.22692995388269876,0.18621957371079434,0.1540523240895782,0.12968544911764004,0.11240013022836605,0.10171456655457398,0.09754024642067749,0.10031325055480741,0.1111361299049841,0.13196158579513423,0.16584158022899037,0.2172571188263512,0.2925343909257306,0.4003408186920532,0.5522392780155906,0.7537902013165954,1.0103170545294191,1.3269778733915947,1.708089289636178,2.156554297968876,2.673505078869001,3.2581432172344345,3.907741524492699,4.617771345138444,5.382121236661245,6.1933756697999645,7.043126012999493,7.922290429482954,8.821424077086961,9.731005760953419,10.641691617682085
IN_Om,0.0,0.0,0.0,0.0,0.0,0.0,0.0,0.0,0.0,0.0,0.0,0.0,0.0,0.0,0.0,0.0,0.0,0.0,0.0,0.0,0.0,0.0,0.0,0.0,0.0,0.0,0.0,0.0,0.0,0.0,0.0,3.2748974316853707,5.372681547331455,6.618548402544533,7.255050305637997,7.462862100802714,7.376126920402463,7.093908578022792,6.688803613608096,6.216040764719724,5.716777557947156,5.221145445802609,4.751178889148283,4.32354593435908,3.9520376311611694,3.6498839258260216,3.432049194916122,3.317701966798511,3.3330608359060605,3.514801465659912,3.91416757958953,4.6018556686526075,5.673634254848805,7.208757799612156,9.286319063483502,11.984926159360324,15.378850122583106,19.533606625262383,24.501895406943028,30.320305274676425,37.00698877022438,44.56038237364978,52.95895125430843,62.16186546586711,72.11046586177969,82.73035084520053,93.93390605288988,105.62310421780151,117.69241770450259
D_Om,0.0,0.0,0.0,0.0,0.0,0.0,0.0,0.0,0.0,0.0,0.0,0.0,0.0,0.0,0.0,0.0,0.0,0.0,0.0,0.0,0.0,0.0,0.0,0.0,0.0,0.0,0.0,0.0,0.0,0.0,0.0,0.0,0.0004076692774503648,0.0009353923468858098,0.0014578615096371356,0.001926431650888141,0.0023275386655220113,0.002662755656532744,0.002939414776317051,0.0031663447301997494,0.0033525643039105436,0.003506616628000122,0.0036363020771177615,0.003748702207346128,0.0038504167739007024,0.003947957020321379,0.004048270270876187,0.004159406400781171,0.004291367986576305,0.004457209566805296,0.004674466685631647,0.004967001076557377,0.005367341895249431,0.005919581173265022,0.006673371374581618,0.007683688429111036,0.009010666302502631,0.010718755592138808,0.012875309890107685,0.015548814968976688,0.01880695818621112,0.02271469971070382,0.027332471055842262,0.03271459229250351,0.03890796796230347,0.04595109397530296,0.05387338440478592,0.06269480848187288,0.07242581424282629
R_Om,0.0,0.0,0.0,0.0,0.0,0.0,0.0,0.0,0.0,0.0,0.0,0.0,0.0,0.0,0.0,0.0,0.0,0.0,0.0,0.0,0.0,0.0,0.0,0.0,0.0,0.0,0.0,0.0,0.0,0.0,0.0,0.0,0.7111927883915741,1.8176662514077515,3.129295534374033,4.528731605175435,5.9425302788182535,7.324826607124354,8.647685566874483,9.899640765784174,11.081044286880118,12.20097174124591,13.275752733976962,14.328968864303484,15.392779198864652,16.510595576892054,17.74133264472197,19.1656491875104,20.89476351129553,23.08255832240127,25.94177159976458,29.765069434920676,34.95168159324334,41.956389208849004,51.3065468424203,63.60382478621903,79.51949191939833,99.78550111964574,125.18248963338272,156.5256080553327,194.6490403317634,240.39001784681824,294.5730403874249,357.9949023276207,431.41099579551206,515.5232349113802,610.9698247626626,718.3169911500131,838.0526954050929
G_Om,0.0,0.0,0.0,0.0,0.0,0.0,0.0,0.0,0.0,0.0,0.0,0.0,0.0,0.0,0.0,0.0,0.0,0.0,0.0,0.0,0.0,0.0,0.0,0.0,0.0,0.0,0.0,0.0,0.0,0.0,0.0,0.0,0.028494421913617445,0.070658866330908,0.11829318028492611,0.16703270342737145,0.21470745206510977,0.2603794504872303,0.3163287159786784,0.3917038693816903,0.4943884440147106,0.6335871304075466,0.8222788883325881,1.079571170521581,1.4333875922705301,1.923988116791544,2.608768258331019,3.5687178832806907,4.916847885117825,6.80877851285118,9.45549287449307,13.13798603145635,17.990883104703876,24.215417602507397,32.02445201420628,41.624784053913785,53.20757721832056,66.94161826422626,82.96842503915437,101.39899476416895,122.31206145295698,145.75369280888032,171.7380193099072,200.24887125894185,231.24210170976676,264.64838874473975,300.376334202695,338.31570342849415,378.340678936543
beta,6.209117661985222,6.209117661985222,5.763682609979595,5.425529284066344,5.148032655609203,4.9096407639057,4.699154277242356,4.510156720967396,4.338625384401284,4.181820742744331,4.037738912254859,3.9048278895089195,3.7818331840589128,3.6677094044370677,3.5615667040498935,3.4626363654562327,3.3702473426942565,3.2838093796914802,3.2028002821050556,3.1267559545839476,3.055262375411979,2.9879489919884303,2.9244831993070304,2.8645656698407054,2.8079263689187592,2.7543211320740424,2.7035287093797122,2.655348201852787,2.6095968296258696,2.566107982610174,2.5247295129056657,2.4853222349608286,2.443746425786853,2.4050525151075184,2.3687243432193053,2.334411498597802,2.301864379240947,2.96643494254229,3.3873217731364247,3.6543792089863794,3.8191402626789137,3.9118302995944187,3.950147257355743,3.9444501502271,3.900927387686289,3.8235580206638105,3.7153618295889386,3.5792254982503873,3.4184437149454032,3.2370197207236013,3.039728095652773,2.7371543499588205,2.4646399088932167,2.2186644963112174,1.9986522327155896,1.8036643238611658,1.6320347656740946,1.4816146253325855,1.350063702801646,1.235064071182961,1.1344478219125416,1.0462597573131787,0.9687776354560812,0.9005075283038976,0.8401662124982504,0.7866580319242327,0.7390505556878718,0.6965513477873252,0.6584869418885255
