series,2021-11-01,2021-11-02,2021-11-03,2021-11-04,2021-11-05,2021-11-06,2021-11-07,2021-11-08,2021-11-09,2021-11-10,2021-11-11,2021-11-12,2021-11-13,2021-11-14,2021-11-15,2021-11-16,2021-11-17,2021-11-18,2021-11-19,2021-11-20,2021-11-21,2021-11-22,2021-11-23,2021-11-24,2021-11-25,2021-11-26,2021-11-27,2021-11-28,2021-11-29,2021-11-30,2021-12-01,2021-12-02,2021-12-03,2021-12-04,2021-12-05,2021-12-06,2021-12-07,2021-12-08,2021-12-09,2021-12-10,2021-12-11,2021-12-12,2021-12-13,2021-12-14,2021-12-15,2021-12-16,2021-12-17,2021-12-18,2021-12-19,2021-12-20,2021-12-21,2021-12-22,2021-12-23,2021-12-24,2021-12-25,2021-12-26,2021-12-27,2021-12-28,2021-12-29,2021-12-30,2021-12-31,2022-01-01,2022-01-02,2022-01-03,2022-01-04,2022-01-05,2022-01-06,2022-01-07,2022-01-08,2022-01-09
S,8737425.390684916,8737236.039628653,8737119.003377602,8737031.98026003,8736957.673808612,8736888.994888408,8736823.036573386,8736758.60952067,8736695.23075451,8736632.707764385,8736570.967111211,8736509.983695695,8736449.751555515,8736390.271827,8736331.547811734,8736273.582986768,8736216.380233958,8736159.94157279,8736104.2680993,8736049.360007519,8735995.216642004,8735941.836560331,8735889.217596807,8735837.356923945,8735786.251110485,8735735.89617556,8735686.287639044,8735637.42056823,8735589.289621036,8735541.889085993,8735495.212919204,8735447.777600763,8735401.642496562,8735356.337492213,8735311.712455325,8735267.711737014,8735224.307160322,8735181.4780367,8735139.20516278,8735097.46897759,8735056.248956144,8735015.523366703,8766643.895859417,8798271.260500044,8829897.485682279,8861522.301520746,8893145.336111143,8924766.117644845,8956384.056119086,8987998.408002134,9019608.221060934,9051212.25110989,9082808.835171089,9114395.693357479,9145969.609145103,9177525.89276506,9209057.43768652,9240552.966135548,9271993.534604058,9303344.943262475,9334539.26473548,9365422.266447019,9395564.25867232,9398348.44191405,9391833.150122322,9381751.946032997,9367482.126177449,9348926.201092247,9326319.38723226,9300131.8614869
E,0.0,189.35105626153035,266.14991999181507,296.6157749399111,307.8909232447462,311.14255417608285,310.9826034099908,309.3253801185475,306.97203274185784,304.2629992252103,301.3473024978798,298.2939580987837,295.1381786901838,291.90059554122575,288.59529048184874,285.23317747256164,281.82344643399324,278.3741967852556,274.89273024733785,271.38569893738094,267.8591908462519,264.3187872404467,260.7696066360376,257.2163416436179,253.6632914631085,250.11439131205074,246.57323942788562,243.04312200212127,239.52703627550807,236.02771196110928,232.54763112936863,229.08904666997282,225.6537453498554,222.243733568452,218.86070270651882,215.50614629052853,212.18139765620202,208.8876467813063,205.62595172037686,202.39724845560625,199.20236000513145,196.04200493789102,192.91680531575503,191.21245989044849,190.7186471320353,191.38898069541673,193.26958665469732,196.47246116451598,201.1713146573934,207.6109680505582,216.12812868393513,227.18562340565427,241.42620574512654,259.75780197257654,283.49222997510407,314.5793676445107,356.0207186472394,412.64113766663223,492.6301871838782,610.8975851683906,797.2529823565894,1119.724412604275,1768.5556836867509,3507.3831284994185,5844.226141216419,8705.034923243591,11921.47039322248,15110.109846548276,17975.52460128502,20321.776979133687
I,485.8187087171512,292.40835514077366,212.21016654764819,178.627538203656,164.241119100391,157.7384664198212,154.4464692879352,152.4344659906982,150.90652393980662,149.53679961959674,148.19428010828517,146.82861076836937,145.42268289011332,143.97293332583598,142.48116316389954,140.9511495891501,139.3872533238809,137.79385659406393,136.1751460114709,134.53503789134018,132.87716162482926,131.2048660185721,129.52123408842093,127.82910037357944,126.1310684043163,124.42952743015856,122.72666811651003,121.0244971564054,119.324850833774,117.6294076039251,115.93969976272321,114.25712427311561,112.58295281229458,110.91829250411206,109.26419343420297,107.62161111068082,105.99140627722723,104.37435200369447,102.77114117310327,101.18239317485157,99.60865981724466,98.05043062812315,96.50813767370195,94.98215997789234,93.73773876129793,92.89429575932132,92.514838129494,92.64611066332631,93.33766760012668,94.65255692724347,96.67554814244257,99.52205781494605,103.35006880500016,108.37759484888143,114.90949547801983,123.38014539705206,134.42390106276977,148.9966075761116,168.59632365101822,195.69095576808377,234.61737097862215,293.6869337402996,390.9124262715899,573.5194042106978,1015.976812652767,1729.204728239614,2705.6138838770394,3908.44176108622,5242.232352963283,6593.031500634806
A,53.987375697462454,43.50589565524415,39.08360532882023,37.15208095335033,36.24304120167483,35.750117325815225,35.421999391914525,35.154185123852216,34.903145496071424,34.65082916752843,34.38992467357868,34.11770720446002,33.833447738251365,33.53730715858968,33.22985358662522,32.91184412310607,32.584120832434394,32.24755760653641,31.903030809420144,31.55140184389694,31.193506250339922,30.830146738523528,30.46208879226163,30.09005806196167,29.714739046465056,29.336774721410304,28.95676686518233,28.575276895454287,28.19282707323859,27.809901964012774,27.426950070472934,27.044385570906805,26.662590112433797,26.28190922040835,25.902663979156777,25.52514908209231,25.149633750467597,24.77636327421041,24.405560611355227,24.037427919970284,23.672148002024848,23.309885660511,22.95078897404911,22.594990492825296,22.272047033485677,22.001307124434415,21.797376997376364,21.67300743880783,21.64085394360173,21.71480681777325,21.911262741811157,22.250591011155855,22.759042660146036,23.471432489476857,24.4351121052421,25.716119771634464,27.409113026659593,29.65416234882354,32.666685720598124,36.794329662192304,42.63411970313308,51.300709758195524,65.1381344622496,90.07855811158532,147.1318563767373,242.77293000243944,380.64583126888016,560.1094515805862,772.4983393612508,1004.550721908702
IH,0.0,96.42242910099438,105.90128576334004,94.68949511994316,82.4584818392587,73.53145866593394,67.80931812166061,64.3153700417924,62.1815817894693,60.819074586910716,59.87084708053892,59.13367480350411,58.496679439505286,57.901423392600066,57.31819001251998,56.73258489707424,56.138212083390165,55.53276199261928,54.91595786724963,54.288493253937276,53.65148972865448,53.006224401710284,52.35399590465385,51.696060799974035,51.03360545015464,50.367735519864034,49.69947408476892,49.02976380808842,48.35947092112847,47.68938989124641,47.020248236011504,46.35271122906868,45.687386384997836,45.024827679778866,44.36552985230682,43.70994691452995,43.05849388963067,42.41154763779236,41.76944867342574,41.132503553247204,40.50098739019186,39.87514627484847,39.255199529540135,38.64134178370445,38.03374488126997,37.4851376401254,37.04539770046981,36.75179049504103,36.632092874991116,36.70992899411054,37.00953969310693,37.55978310414416,38.39789211445941,39.573705294190596,41.15523347161742,43.236745146549985,45.9512489989969,49.49067621814042,54.14001533849998,60.338065565936205,68.79247010695103,80.71527135209692,98.35773916184299,126.41251444231635,176.5821567318894,289.30359005969837,486.81777212962163,778.6592353814731,1162.2646829802093,1617.4161042807987
IN,96.98792447538312,193.00596970601242,249.4517587679508,289.3224758588203,322.0901136270527,351.6579976265465,379.6320255529409,406.6691051439148,433.03414142136035,458.8304918864376,484.09542968458004,508.83970005884566,533.0638880956503,556.7651574802223,579.9399889209011,602.5852578848023,624.6986251543815,646.278645470587,667.3247628862295,687.8372628208153,707.8172096853933,727.2663818116607,746.187208297395,764.582709436826,782.4564412032653,799.8124437741304,816.6551939103038,832.989560945339,848.8207661318426,864.1543451021304,878.9961132158264,893.3521335835951,907.2286875720242,920.6322476092555,933.5694424232526,946.0470440918018,958.071947727737,969.6511513299977,980.7917372517309,991.5008553484037,1001.7857076306507,1011.653534250963,1021.1116006887152,1030.1671860253664,1038.8275722191759,1047.1529206624277,1055.2266322619669,1063.1438525448532,1071.0081076242884,1078.931781266578,1087.0387201808348,1095.4684558306446,1104.3821659096689,1113.9709557328542,1124.4675434103174,1136.163181449023,1149.4329275720547,1164.7747306437052,1182.8723831404973,1204.7019092111404,1231.7222609262753,1266.2436047385781,1312.2122704538765,1377.1311622171263,1477.8561753816957,1665.905295242908,1994.4613906075085,2514.6603947229314,3269.787682124261,4283.639117646665
D,13577.0,13577.0,13577.349638643966,13577.733648695297,13578.07700352446,13578.37600731479,13578.642640708456,13578.888524972703,13579.121739785656,13579.347217240846,13579.567754090664,13579.784852560193,13579.999277959596,13580.211393541687,13580.421350657969,13580.629192903982,13580.83491167955,13581.03847519201,13581.239843273894,13581.438974754194,13581.635830976766,13581.830377352442,13582.022583922993,13582.212425439175,13582.399881208179,13582.58493483909,13582.767573950248,13582.94778986979,13583.125577344048,13583.300934260418,13583.473861387109,13583.644362130406,13583.812442308943,13583.978109944272,13584.14137506673,13584.302249500624,13584.460746716568,13584.616881690092,13584.770670763262,13584.922131512902,13585.071282627423,13585.218143792845,13585.362735587525,13585.505079385128,13585.645197265047,13585.783111929812,13585.919037282609,13586.053368088604,13586.186634241632,13586.319466357541,13586.45258071603,13586.586781496831,13586.722977522533,13586.86221262639,13587.005711361951,13587.154944897733,13587.311726230493,13587.478350661533,13587.657809456372,13587.854127281214,13588.07291993787,13588.322369222518,13588.615051934268,13588.971708231613,13589.430094320222,13590.070401211515,13591.119448781317,13592.884705136015,13595.708211676027,13599.922714997252
R,0.0,11.451359286972135,70.03494116137163,133.06342000395753,190.51020265735912,241.9932038686787,289.21306394637804,333.78814174306086,376.83477412150677,419.02951769510275,460.75204446053203,502.2024946173148,543.4789834773242,584.6240563672405,625.6510452488008,666.5585001670132,707.3378903400612,747.9776273769978,788.4651234094646,828.7878167863345,868.9336626922682,908.8913499124161,948.6503793580205,988.2010741064473,1027.5345565469345,1066.6427106510089,1105.5181384075563,1144.1541148994563,1182.5445441907054,1220.6839170308556,1258.5672708015122,1296.190151840174,1333.548580134528,1370.639016312187,1407.4583297714225,1444.0037658830681,1480.2729219386138,1516.2637239425455,1551.974403915185,1587.403478229272,1622.5497272693792,1657.4121764750278,1691.9900787177576,1726.2828979244514,1760.2902938532002,1794.0178233595661,1827.5017634672947,1860.8069975975077,1894.0204672350471,1927.246493358822,1960.6050285863785,1994.2325667245184,2028.285379330974,2062.945061108408,2098.4267940980526,2134.9912831218376,2172.9620967675314,2212.7514301756014,2254.8996094031218,2300.1381029362783,2349.495014358567,2404.482738002064,2467.459144508291,2542.4021910704655,2636.8626898477323,2768.4897804512907,2976.92155386428,3314.154915210942,3837.3405080743505,4601.09792340031
G,1006052.0,1006052.0,1006088.2131441564,1006139.1139714886,1006195.841354103,1006254.7250942207,1006314.2307045409,1006373.7057244842,1006432.8638026206,1006491.5718061202,1006549.7617104703,1006607.3939915992,1006664.4423245682,1006720.8871188145,1006776.7127294787,1006831.9062048328,1006886.4566804308,1006940.3550493858,1006993.5937538148,1007046.1666322795,1007098.0687955505,1007149.2965187187,1007199.8471442846,1007249.7189936589,1007298.9112857075,1007347.424061513,1007395.2581147634,1007442.4149273043,1007488.8966094617,1007534.70584478,1007579.8458388571,1007624.3202719846,1007668.133255316,1007711.2892417209,1007753.7930677913,1007795.6498935929,1007836.8651648267,1007877.4445821925,1007917.394073971,1007956.7197707959,1007995.4279823047,1008033.5251755372,1008071.0179549583,1008107.913044001,1008144.4821791896,1008180.9568733282,1008217.5597678919,1008254.5223259086,1008292.0974295251,1008330.5711827836,1008370.2765114093,1008411.61073597,1008455.0596920681,1008501.2321410865,1008550.91048413,1008605.1280057749,1008665.2909022176,1008733.3794033414,1008812.2964862363,1008906.5113712046,1009023.3447427915,1009175.8183426186,1009389.9641856352,1009728.1981685167,1010398.9806471156,1011516.6813239087,1013181.5079733433,1015461.4737386827,1018351.2626677594,1021789.0584557898
H,671813.8117007337,671813.8117007337,671813.8117007337,671813.8117007337,671813.8117007337,671813.8117007337,671813.8117007337,671813.8117007336,671813.8117007336,671813.8117007336,671813.8117007336,671813.8117007336,671813.8117007336,671813.8117007336,671813.8117007336,671813.8117007337,671813.8117007337,671813.8117007336,671813.8117007336,671813.8117007336,671813.8117007336,671813.8117007336,671813.8117007336,671813.8117007336,671813.8117007336,671813.8117007336,671813.8117007336,671813.8117007336,671813.8117007336,671813.8117007336,671813.8117007336,671813.8117007336,671813.8117007336,671813.8117007336,671813.8117007337,671813.8117007336,671813.8117007336,671813.8117007336,671813.8117007336,671813.8117007336,671813.8117007336,671813.8117007336,648820.8224167856,626118.30996256,603720.3665908265,581642.091131214,559899.6531864831,538510.3558245957,517492.6945287471,496866.4094080967,476652.5267280584,456873.38466648915,437552.6368252015,418715.2254266192,400387.314335854,382596.17015198607,365369.9777675897,348737.57526775345,332728.0922332473,317370.47599588457,302692.8929035909,288721.9970465624,275482.0680298197,272811.377666035,272811.377666035,272811.377666035,272811.377666035,272811.377666035,272811.377666035,272811.377666035
S0,3058098.88673972,3051114.032345761,3040065.502605728,3029073.196255261,3018127.418263437,3007224.1079444373,2996361.519243378,2985538.858677044,2974755.7250415483,2964011.878475494,2953307.1451365277,2942641.377828784,2932014.439754713,2921426.197838397,2910876.520014986,2900365.2741640895,2889892.327723655,2879457.5475840033,2869060.800095503,2858701.9511205563,2848380.866101052,2838097.4101293455,2827851.4480178547,2817642.8443653523,2807471.4636192555,2797337.1701337555,2787239.828223843,2777179.3022153843,2767155.4564914363,2757168.155535012,2747217.263968495,2737302.0623551877,2727423.2360976865,2717580.466029206,2707773.5611214456,2698002.3683546525,2688266.7460336033,2678566.555868939,2668901.660618454,2659271.9233772643,2649677.2073561233,2640117.3758027023,2640131.26201672,2639983.2451389846,2639667.7162616476,2639178.6410819883,2638509.5635370193,2637653.5943267983,2636603.3926825603,2635351.1448419862,2633888.5400924427,2632206.7432079124,2630296.3594604055,2628147.383770627,2625749.116597813,2623090.0108549255,2620157.3749143053,2616936.767664098,2613410.703007087,2609555.6888313717,2605334.79471746,2600676.1744409055,2595395.4826372876,2585318.799459688,2573334.9458931987,2560031.852599486,2545217.200123363,2528916.065020155,2511267.315641225,2492483.7910520453
E0,0.0,104.36672392367814,146.94096840669604,163.9600095074839,170.3812904418347,172.36410118444678,172.45055079886788,171.69284149986774,170.52875115603993,169.14255330333978,167.6139721230425,165.97967561674707,164.25863571575036,162.46255195854488,160.60010379880242,158.67865918380494,156.70494097167654,154.68527195457227,152.62565415164636,150.53178675150758,148.40906452656475,146.26257280984285,144.09708466321953,141.91706171742342,139.7266586072419,137.52973041654323,135.32984244925288,133.1302816933005,130.93406943997087,128.74397462067697,126.5625275128334,124.39203354257307,122.23445005549826,120.0917612855205,117.96569447421501,115.85778844273804,113.76941909294283,111.70181358347838,109.6560614716849,107.6331248371423,105.63384781017035,103.65896556596758,101.70911278389039,100.50432740971083,99.93059112570236,99.95917872847936,100.60890320655739,101.9318523276309,104.01080093502694,106.96352889774599,110.95280168621323,116.20293765662828,123.02588789147754,131.86255366623453,143.34998866775297,158.43476707748349,178.57305704417803,206.1036761905189,244.99260095091964,302.45241741519044,392.88694171420866,549.1270792183396,862.8705650050988,1701.7032655519786,2824.356264405652,4192.569565308737,5723.053758652873,7230.958164995317,8575.466957246508,9664.751984616752
I0,485.8187087171512,292.40835514077366,195.95702310733083,146.04641188557684,119.2606933196784,104.36675768433435,95.78148947525935,90.63065463333419,87.38551904620394,85.20968074805691,83.63496167242431,82.39481829793336,81.33583403795177,80.36929767751838,79.4440525399549,78.53096797980595,77.61391972725534,76.68448851887692,75.73881612851294,74.77572821528469,73.79560792017766,72.79971759431058,71.78978959477634,70.76777944807853,69.73571744286336,68.69562015362278,67.64943861174143,66.59902897896856,65.54613708860343,64.49239155445788,63.4393021738656,62.38826158770329,61.34054891928895,60.29730839715612,59.25960820066723,58.22842158666488,57.20462864412379,56.1890222273098,55.18231423803644,54.18514153775154,53.19807144206567,52.22160685015499,51.2561910522038,50.30221224077165,49.497610388357785,48.90360402640094,48.551546184351885,48.463905827893804,48.66416847149089,49.18230034137119,50.05886299092872,51.34939860972712,53.13023795916503,55.506983833817266,58.62751906531031,62.702688218383294,68.04042715050534,75.10456896993112,84.6215850068379,97.78721734805913,116.70056631483028,145.37976595846322,192.52215026549976,280.8996114944911,494.5185945029193,837.7991861605962,1306.0846081332518,1880.6430106767084,2514.847468985065,3153.7029612689917
A0,53.987375697462454,43.50589565524415,37.27744894695879,33.16305826187147,30.209166202389632,27.965233344741844,26.199093341151023,24.777681190007083,23.616128303457955,22.65534707690285,21.851637910825566,21.171479709560305,20.588638691555747,20.082377488817972,19.63623347659243,19.237124660034375,18.874665462287254,18.540629513407335,18.228521944570222,17.933236405217542,17.650779050579004,17.378046082453636,17.112644372995387,16.852746853646458,16.59697599770901,16.344310018671585,16.09400743806462,15.84554650589148,15.598576626034415,15.35287948046266,15.108337984497876,14.86491156060605,14.622616506051921,14.381507553143301,14.141670978640034,13.903213017686497,13.666251984489202,13.430912464710707,13.197320936674087,12.96560247949352,12.735878335464925,12.508264148218288,12.28286873407799,12.059793271743171,11.854422130391894,11.676729641738156,11.5341431607442,11.433047873633878,11.379696314452632,11.380886305846177,11.444599048356482,11.580725442018243,11.802003496337019,12.12532801510655,12.573684122536577,13.17913363771906,13.987631044855393,15.06715658264601,16.522198799883785,18.521248288200894,21.353371483516387,25.557635132399163,32.266197051959374,44.340245257439975,71.89771186569038,117.96452023768728,184.16598752094336,270.0417461242084,371.2922098974457,481.45981101709333
IH0,0.0,96.42242910099438,105.90128576334004,91.46366716617715,74.3906141054632,60.59897686282149,50.796503425877255,44.2264286289322,39.94261983188464,37.17198591179311,35.36474661699879,34.15506007353713,33.30841391038989,32.67794281421233,32.17313336377225,31.738899818306216,31.34211496181792,30.963133607614175,30.590532531339175,30.21787528412944,29.841733622513416,29.46048174926684,29.07356313384653,28.68104533264102,28.283350003193505,27.881089423481377,27.474967776937707,27.06572186188275,26.654085838079347,26.240770658124298,25.826452489134297,25.41176664810444,24.99730492078395,24.58361495294566,24.171195705375837,23.760506876980536,23.351969836711692,22.945968434444698,22.542850581090757,22.14293027985785,21.746489808000707,21.353781890401685,20.965031796628445,20.580439336103307,20.200180743930204,19.851721017699937,19.560844561408857,19.34657397411118,19.222811918587112,19.201121189159558,19.293189281411927,19.512868492824808,19.878059035109878,20.412796569310395,21.14997224252418,22.13526471412576,23.433196864164866,25.136916284196943,27.384721945549753,30.389453647961655,34.49409266803666,40.28551802580453,48.852562386425504,62.461937073605,86.75850847298082,141.21759146114073,236.38435006279718,376.56934061947624,560.1946127066038,777.2226070259057
IN0,96.98792447538312,193.00596970601242,249.4517587679508,286.077729165883,312.37338021199304,333.05862475719556,350.5636198291609,366.17961830792063,380.61115391509577,394.25052145985103,407.31911510306867,419.94264888386704,432.1923674585123,444.10817524067926,455.71186746140694,467.01480857763454,478.0224338149901,488.736905028238,499.1586816478322,509.28744826097846,519.1226581658273,528.6638466170866,537.9108055302975,546.863674746326,555.5229831052272,563.8896594816258,571.9650260465024,579.7507812493285,587.2489771156878,594.461993685753,601.3925123326636,608.0434890289006,614.4181282114001,620.5198576344794,626.352299206524,631.9192518661351,637.2246708616759,642.2726475883176,647.0673908111997,651.6132093305367,655.9144960003508,659.9757130039354,663.8013783005873,667.3960531676212,670.7643307676038,673.9382964056487,676.9619360851851,679.8850552088707,682.7614467869785,685.6490545031893,688.6112250048478,691.7187691043214,695.0528778431078,698.7091688805491,702.8033860407713,707.4796387573467,712.9226879780384,719.3769227709704,727.1768870745333,736.7988107445764,748.9528770179825,764.7612277013643,786.1369558351406,816.710342770821,864.6215043747993,954.7000424842814,1112.4096806673801,1362.0298348727426,1723.857535976965,2208.6783338206237
D0,13577.0,13577.0,13577.349638643966,13577.733648695297,13578.065306307102,13578.335055095658,13578.554793846213,13578.738987718341,13578.899357755452,13579.044194216893,13579.178984046073,13579.307220620973,13579.431070735516,13579.551850815222,13579.670344735358,13579.787008159276,13579.902097003198,13580.01574706031,13580.128022888128,13580.23894762226,13580.348521059026,13580.456730563543,13580.563557605607,13580.668981636967,13580.772982354343,13580.875540983432,13580.976640970119,13581.076268313736,13581.174411685335,13581.27106241811,13581.366214423251,13581.459864063807,13581.552010006555,13581.642653064158,13581.731796035105,13581.819443527169,13581.905601815048,13581.990278701367,13582.073483380638,13582.155226308936,13582.235519080947,13582.314374314925,13582.391805545534,13582.467827124294,13582.542454127251,13582.615702269504,13582.68768685734,13582.758616694215,13582.828769561684,13582.898473653928,13582.968099093132,13583.03805838166,13583.10881425188,13583.18089434435,13583.254913455656,13583.33160564941,13583.41187062521,13583.496842049926,13583.58799135414,13583.687291456155,13583.797487055494,13583.922566540607,13584.068646389718,13584.245791311561,13584.472285366746,13584.786881540456,13585.29895251443,13586.156108928983,13587.52159198973,13589.5529210754
R0,0.0,11.451359286972135,70.03494116137163,132.7127603946501,187.7398667090725,233.92066235791637,272.9774437292179,306.9655773870485,337.5491588542211,365.90982716573905,392.8351609516504,418.8316026122845,444.21743876915934,469.18932937613226,493.8668811160307,518.3214697131934,542.5945042520069,566.708869685723,590.6760537297952,614.5005766239876,638.1827461296114,661.7203751770077,685.1098566289984,708.3468384083976,731.426648892019,754.3445651128709,777.095981128209,799.6765123221289,822.0820581339607,844.3088375038567,866.3534062317484,888.2126622535991,909.8838428177494,931.3645162479107,952.6525695703292,973.7461922392229,994.6438621527227,1015.3443303977851,1035.8466050713496,1056.1499348535851,1076.2537927842243,1096.157860496608,1115.8620130491242,1135.3663044310138,1154.6709537837723,1173.7793011174817,1192.710675075661,1211.4991772315414,1230.1901573421367,1248.8376677265644,1267.5034408071763,1286.2572352334746,1305.1783635920156,1324.358372745804,1343.905062584844,1363.9482970593585,1384.6484432434952,1406.2088963523827,1428.8952633558722,1453.0659262124498,1479.2231516720733,1508.1039052675937,1540.854445860915,1579.404336754292,1627.4081910824082,1693.388573793366,1796.4406233064435,1961.5017853682664,2215.818010211573,2585.2145611259675
G0,1006052.0,1006052.0,1006071.9600007161,1006100.0622705237,1006131.4194098893,1006164.004610913,1006196.969021922,1006229.9499663077,1006262.7859997719,1006295.3994024661,1006327.7476966173,1006359.8036515983,1006391.5470494902,1006422.961300731,1006454.0320532806,1006484.7466150329,1006515.0937029923,1006545.0633199011,1006574.6466777275,1006603.8361363177,1006632.6251454809,1006661.008186769,1006688.9807142976,1006716.5390950242,1006743.6805491872,1006770.4030915936,1006796.7054743303,1006822.5871313438,1006848.0481252128,1006873.0890963341,1006897.7112146589,1006921.916134051,1006945.7059492839,1006969.0831294705,1006992.0505232062,1007014.6113094192,1007036.768961335,1007058.5272153186,1007079.8900424277,1007100.8616220963,1007121.4463177547,1007141.6486542723,1007161.4732971197,1007180.9250331491,1007200.1463555366,1007219.2579516034,1007238.3750150121,1007257.6163373854,1007277.1106720638,1007297.0026029695,1007317.4592392722,1007338.6788188264,1007360.9024800821,1007384.4310217294,1007409.6495642558,1007437.0650638414,1007467.3655077516,1007501.5173735234,1007540.9344345339,1007587.7889520142,1007645.6325849391,1007720.7717034548,1007825.7915458184,1007990.8144233025,1008316.2629678404,1008856.4174437202,1009658.2409405216,1010752.7675561599,1012135.678935629,1013775.7258794555
H0,235134.83409525678,234605.78071854246,233761.1999079557,232919.65958828706,232081.14881376922,231245.65667803964,230413.1723139987,229583.68489366828,228757.18362805108,227933.6577669901,227113.09659902894,226295.48945127244,225480.82568924787,224669.0947167666,223860.28597578622,223054.3889462734,222251.3931460668,221451.28813074096,220654.06349347028,219859.7088648938,219068.21391298017,218279.56834289344,217493.76189685904,216710.78435403036,215930.62553035584,215153.27527844656,214378.72348744413,213606.96008288933,212837.97502659092,212071.7583164952,211308.29998655582,210547.5901066042,209789.61878222044,209034.37615460446,208281.85240044788,207532.03773180628,206784.92239597178,206040.49667534628,205298.75088731502,204559.6753841207,203823.26055273786,203089.496814748,192819.40457244686,182747.71508316783,172879.84724881733,163221.57819443117,153779.05941824958,144558.83087278545,135567.83187901773,126813.40746279276,118303.30832430793,110045.68220361992,102049.05388810091,94322.29053147712,86874.548343167,79715.1961081717,72853.71049075991,66299.53778118761,60061.916837517536,54149.65868510272,48570.87984536002,43332.68927552361,38440.83307460779,37360.79104046672,37226.29219272104,37092.27754082724,36958.74534168027,36825.69385845022,36693.1213605598,36561.02612366179
S1,873742.5390684917,818185.1562456553,770711.0131095268,726592.9314424262,685588.7604029063,647475.200602085,612045.5064485641,579107.9355153962,548484.533858217,520010.09539738134,493531.2295717057,468905.50881746516,446000.6821088908,424693.94669596985,404871.2726527866,386426.7759826817,369262.1366232627,353286.058070375,338413.76561958843,324566.54045583407,311671.2870265534,299660.13131958334,288470.04783791624,278042.5132215324,268323.184613015,259261.60099961475,250810.90589064552,242927.58980628088,235571.25116264526,228704.37423914403,222292.123007817,216302.1035253065,210704.34497505857,205470.9401670078,200575.98484075436,195995.4276676551,191706.935880879,187689.7719201787,183924.67929835484,180393.77674016793,177080.45991858916,173969.31022117776,171666.25163547267,169509.613930608,167488.73504204414,165593.6185277862,163814.88872574826,162143.7478359566,160571.9353280006,159091.6897352084,157695.71273121506,156377.1352682539,155129.48541297973,153946.65726467394,152822.87984828517,151752.68386235277,150730.8619869555,149752.4135094492,148812.45188473968,147906.02093889128,147027.6637210959,146170.21204284125,145320.46030855976,144242.94035242766,143098.17443003075,141916.97271136445,140686.7019744246,139406.93081317763,138083.55787957998,136726.55344743558
E1,0.0,29.81906397819376,40.84641930596328,44.39726637520435,44.86066787336578,44.00262765186957,42.55678682663379,40.844052280550635,39.015859007165005,37.150823803379836,35.29393634442008,33.47302218379234,31.70607950538388,30.004853691810585,28.37678902477728,26.82622735684214,25.355219556465197,23.964112532843796,22.651990840617227,21.417015753521632,20.256688022898746,19.168052041409634,18.14785426604966,17.19266563663077,16.2989755462686,15.463263306623016,14.682051814517667,13.951947161600085,13.269667167535097,12.632061213308047,12.036123270424563,11.47899963819733,10.957981775412595,10.470535775509893,10.01427645169153,9.586968394518406,9.186522190866835,8.810988875744746,8.458553597614136,8.12752889115971,7.816347770844695,7.523556788412568,7.247809159355635,7.034640996005862,6.874253942953817,6.762679352218857,6.699149526082503,6.685080413808293,6.723829873367154,6.820892844204437,6.984434753835693,7.226203239707384,7.562977398457801,8.018873259392446,8.629100638013272,9.44630566952354,10.55176584244531,12.076259914373026,14.241701429856974,17.45165370729702,22.511680646536174,31.256626883254405,48.806948143700396,95.66972058478233,158.1516405185049,234.00271717724948,318.50925601414247,401.39789231134165,474.9212719957739,534.0950370727423
I1,0.0,0.0,5.702857347479779,11.244305043571025,15.258729722556645,17.763587908096508,19.10713241712783,19.63928028524656,19.632015333698824,19.278003053339113,18.708241813669176,18.010182152567566,17.241781083183128,16.441364354163003,15.634246055356538,14.837086137912664,14.060742396898636,13.312142232666105,12.595521508926208,11.913254662641888,11.266419184444207,10.655185624734148,10.079091379644009,9.53723577766447,9.028420912282035,8.551254379159623,8.104224780027119,7.6857574312236085,7.294255469285626,6.928130048835616,6.585822311416212,6.265819100081205,5.966663897562235,5.686962038883422,5.425389485860461,5.180693152175371,4.951691301298848,4.737273062875278,4.536397080557797,4.348089486657846,4.171441396537158,4.005606079664352,3.8497959291646033,3.7032793232745824,3.5743246302583067,3.4660345573470694,3.379517587395113,3.315294081518092,3.273948037186483,3.2564731413405843,3.2645183820783465,3.300637892654777,3.368615695162264,3.4739383268340704,3.624520226866505,3.831858831268974,4.112942811679689,4.493541656706907,5.014176975159957,5.741678906978882,6.793452659974667,8.394226048739498,11.030171662878088,15.973191376884524,27.910779158114053,47.04545386404381,73.0688013059638,104.89370277121138,139.901067075985,175.03282375461342
A1,0.0,0.0,0.6337390813548874,1.378802057544728,2.054678888091612,2.6091849338889608,3.0377995951933987,3.352471872234312,3.5696510791896503,3.705811367427157,3.7758993117037534,3.792915813352958,3.767929060769752,3.7102409003005916,3.6275968763893096,3.5263969722147275,3.4118909108434776,3.2883527847675342,3.1592342575943615,3.0272974074519072,2.8947289855322516,2.7632380760548223,2.634139134907221,2.5084222735289923,2.3868124991367887,2.2698194507826868,2.1577789981500364,2.050887904640068,1.949232602545532,1.8528129880251352,1.761562017871701,1.6753617785363042,1.5940565998407865,1.5174634703567558,1.4453810571019177,1.37759642332619,1.3138904645375555,1.2540422087826921,1.1978321641270455,1.1450448816023862,1.095470877593507,1.0489080362181722,1.0051625918917495,0.9640497750480936,0.9263884591728883,0.892630293382117,0.8630548955838181,0.837871281005839,0.8172779781328645,0.8015063357033184,0.7908595697592571,0.7857555662259782,0.7867807501617354,0.7947642970891464,0.8108869342325145,0.836848462052374,0.875137548696186,0.9294870706908205,1.005684595144927,1.1131103388649313,1.2679002358873341,1.5001779805272926,1.8732144616313022,2.5468208265930135,4.085614505834847,6.653572958264897,10.335019292412849,15.097726266074398,20.697385524757642,26.772467325502117
IH1,0.0,0.0,0.0,1.1318694574617583,2.7935833281718865,4.415246837846698,5.717418793525081,6.63049880024367,7.189385456448733,7.465384787667863,7.532133477198474,7.4521858619666395,7.273951689333597,7.032965381189385,6.754473522316552,6.456033155705947,6.14966647723881,5.8434965089663535,5.542930572444362,5.251493667096505,4.971406929306406,4.703986824497823,4.449920719262845,4.209458019668855,3.9825437753417905,3.7689129545300863,3.568157634585391,3.379775342073806,3.2032041063659333,3.037848019254369,2.883095916699193,2.738335013021871,2.602960788099856,2.4763840664878702,2.358035566188083,2.2473698982509775,2.1438676167669852,2.047036315495924,1.9564110762682283,1.8715544232095507,1.7920558980374413,1.7175313519328128,1.647622032540406,1.5819935292737588,1.520334626826016,1.4641318893239421,1.414739080545456,1.373048237942231,1.339605462908371,1.3147977582193113,1.2990144600252274,1.2927761231098127,1.296848089377688,1.3123613184716616,1.3409661743098558,1.3850527379406965,1.4480894311529378,1.5351698512080147,1.6539371259708577,1.8162279291818435,2.0411822469727494,2.361603399995733,2.838378187559073,3.5982245606406145,4.956487129628969,8.00005467327642,13.308672781017197,21.108925205358265,31.29752723071422,43.3033847393315
IN1,0.0,0.0,0.0,1.1385076115569648,3.371914242256813,6.38441892647413,9.866863695474592,13.582706691278865,17.367628247007847,21.11325022604814,24.750741645889512,28.238112099578174,31.551249543550018,34.67785348272563,37.61339770665862,40.358454923835026,42.91691807666745,45.29480880773343,47.49947151623635,49.53902279717525,51.42197210768559,53.156958918514995,54.752570354061795,56.21721531412265,57.559038801146414,58.785865219775864,59.90516275364954,60.924023171889004,61.84915295906872,62.68687274012789,63.44312273968225,64.12347257255911,64.73313407365814,65.27697618318834,65.75954072368923,66.18505977100605,66.55747291645262,66.8804444357929,67.15738018998486,67.39144408697332,67.58557397452756,67.74249687393589,67.86474349659835,67.95466201046008,68.01443104220725,68.04785811359837,68.05933208975421,68.05341924255646,68.03474406507296,68.00800139358694,67.97803749379261,67.94997936957981,67.9294126571124,67.92262257117756,67.93692679628933,67.98114986372885,68.06632338575658,68.20676024465605,68.4217747656594,68.73857778778168,69.19744988388003,69.86170737382683,70.83889764845982,72.33255119729216,74.7980832799206,79.62215739779295,88.21800089748129,101.9231376291131,121.84468588887466,148.55582239951192
D1,0.0,0.0,0.0,0.0,0.004104286792432212,0.014234136203765126,0.030244321090757316,0.05097632890877155,0.07501926820152754,0.10108879378160418,0.1281591241827448,0.15547149288878587,0.1824939624910749,0.20887013480539018,0.2343724634841582,0.2588649491544092,0.2822752562687026,0.3045746431229036,0.3257638230104479,0.34586311678489867,0.36490562734679693,0.38293251168866693,0.3999897004556974,0.41612561676215715,0.4313895880969508,0.4458307426927057,0.4594972477469134,0.47243579128336166,0.4846912393002813,0.49630642002678,0.5073220008613422,0.5177764330524534,0.5277059458183547,0.537144576318885,0.5461242252970174,0.5546747292147522,0.5628239468920151,0.5705978535790565,0.5780206390053545,0.5851148070544707,0.5919012752729195,0.5983994728390145,0.604627435963962,0.6106018999823131,0.6163383876179739,0.6218512930929149,0.6271604010789249,0.6322904051485122,0.6372692335029728,0.6421267945690825,0.6468944000894933,0.6516047735838149,0.656292526162235,0.6609950441513324,0.6657538148653872,0.6706163100250856,0.6756386680555779,0.6808896042720828,0.6864563039501382,0.692453667212204,0.69903951529976,0.7064410732108501,0.7150045144978883,0.7252967951406142,0.7383443647548349,0.7563171482139943,0.7853262521506763,0.8335850063381277,0.9101283588878792,1.0236167358398194
R1,0.0,0.0,0.0,0.12303845940611687,0.9679987628895379,2.797296612328738,5.575135804973599,9.122042548567162,13.223700346139942,17.684790856661017,22.347760250330662,27.09408333264297,31.83861351625086,36.522314699557946,41.10559935396829,45.562960647915716,49.87891776565496,54.045058609218415,58.057922253767366,61.91749477193624,65.62614199635742,69.18784987598227,72.60768074283807,75.89138165086432,79.04510066213903,82.07518057386824,84.98800886787112,87.78990897240487,90.48706221972128,93.08545282679154,95.59083026868872,98.00868485126846,100.34423331800517,102.60241207427713,104.7878761218675,106.90500217656717,108.95789526334958,110.95039756446064,112.88609882235106,114.7683477856999,116.60026429475863,118.38475168651586,120.1245092704334,121.82204468365052,123.47968598191565,125.09978639495486,126.68556813088661,128.24102839598046,129.77069661850808,131.2794600421191,132.77249125888628,134.2552648429968,135.73364802449916,137.21406037980327,138.70371074955514,140.21093549537076,141.74568417089407,143.32023387190958,144.95027612471634,146.65664046586832,148.4681674981571,150.42680252542536,152.5973726583644,155.0885050578354,158.10524244561736,162.1244588879896,168.21212755148585,177.75457233018918,192.2585174843231,213.1426889234172
G1,0.0,0.0,5.702857347479779,13.514682112589748,22.00560177864654,30.585146380769586,39.00059190234567,47.13952223955809,54.95089431412499,62.412626794056564,69.5176737079022,76.26759330130226,82.66926542094996,88.73301204288565,94.47140143235578,99.89842556383682,105.02890678548103,109.87805967137618,114.46116514154456,118.79332903826938,122.88930554981846,126.76337088639215,130.429236002117,133.89998961523568,137.18806464067322,140.30522259433684,143.26255166505072,146.07047505016203,148.73876686644326,151.27657351793067,153.69243885685643,155.99433183639826,158.18967564317515,160.28537545880855,162.28785185857356,164.2030692538609,166.03656453690255,167.79347500237802,169.4785652079374,171.09625262322587,172.65063199233347,174.14549837539687,175.58436886245698,176.9705029727627,178.31586894804252,179.6305611072493,180.92391477055187,182.2051184369253,183.48363140380644,184.76955515461825,186.07404207283236,187.40980616935238,188.79180817552145,190.23821780317306,191.7718169234968,193.42212123927357,195.2287149584251,197.24672650323686,199.55629556392637,202.28000250855973,205.6176086669258,209.92293842084095,215.9007278111771,225.2349934015696,243.5317034984139,273.77799982101124,318.5307162698038,379.445198770961,456.2120255601797,547.040103445393
H1,67181.38117007338,62911.76446321104,59262.64781213986,55871.1418595128,52718.85678692257,49788.71629501481,47064.86378084042,44532.57521682506,42178.178252669044,39988.97709568224,37953.18275680896,36059.84827907911,34298.80859259804,32660.624665608044,31136.531644759256,29718.390699646425,28398.64430702112,27170.27472898831,26026.765457045527,24962.06541011877,23970.555689881046,23047.018710690558,22186.609534532792,21384.829253466283,20637.50027332177,19940.743362850924,19290.95634222112,18684.794293760126,18119.151186218518,17591.142811584352,17098.090940696282,16637.50861059815,16207.086462796344,15804.680057355456,15428.298093129499,15076.091469404719,14746.34312885317,14437.458625989157,14147.957369306892,13876.464488979305,13621.703285435045,13382.4882173224,12537.476792063393,11733.973951345166,10969.345403433394,10241.23616882219,9547.549061440928,8886.42491603602,8256.224350408302,7655.510846750885,7083.03492751734,6537.719187919989,6018.643929458261,5525.0331174484845,5056.240361807348,4611.734596971053,4191.085118152302,3793.9456237439176,3420.0369269185167,3069.128045663318,2741.0154744875304,2435.5005986670053,2152.3654465831573,2084.4742066997014,2070.0820396811173,2056.2336887405477,2042.8920529774866,2030.0226752805722,2017.5935535080948,2005.574965155532
S2,873742.5390684917,925738.5811774204,973151.6459580107,1016611.0794977645,1056402.5654463947,1092791.7278098522,1126025.3525342576,1156332.6372087628,1183926.4045810984,1209004.253432703,1231749.6380044362,1252332.8750864926,1270912.0812678337,1287634.044152269,1302635.031738724,1316041.544155516,1327971.0117672472,1338532.4434417782,1347827.0285185247,1355948.6957769652,1362984.6324732166,1369015.7662954254,1374117.212886004,1378358.6913900073,1381804.9103134787,1384515.9258125674,1386547.4743827886,1387951.2817771623,1388775.3498513608,1389064.222912716,1388859.2350373117,1388198.5386191865,1387118.0002044048,1385650.574031334,1383826.8721027952,1381675.3044342198,1379222.228505537,1376492.0937417913,1373507.5773660636,1370289.711048462,1366857.9986535497,1363230.525616168,1364352.5199670554,1365216.4805429985,1365832.0730140046,1366207.943099761,1366351.766849725,1366270.2951057998,1365969.3942897993,1365454.0847659844,1364728.5775931452,1363796.3101426715,1362659.9805605707,1361321.5800676767,1359782.4200311038,1358043.1463395157,1356103.723946455,1353963.3521515224,1351620.2160059072,1349070.828728898,1346308.2523763103,1343316.7458155323,1340051.9979824168,1334548.566305,1328274.600403865,1321597.7363873809,1314445.9056730475,1306802.6175435388,1298691.8587027597,1290166.8161443246
E2,0.0,10.436672392367816,15.095140948250155,17.292589947993847,18.46490206854663,19.219503044542257,19.80485046360944,20.316646433071043,20.78739116490464,21.224733741095733,21.627561355053516,21.992514183807693,22.31644296802137,22.597187888757023,22.833693122308294,23.025882627792242,23.17447066424545,23.280773881961164,23.346547554968954,23.373850773322705,23.364938802891714,23.322178779430523,23.247984656861668,23.144767721428313,23.014899546064168,22.86068481430197,22.68434193071177,22.48798974300076,22.27363903473961,22.043187717694714,21.798418869953984,21.54100094031772,21.272465571503126,20.99427391377194,20.707768617075168,20.414188094563528,20.114673748955923,19.81027553842471,19.501957209916,19.190601458477634,18.877015013699133,18.56193360803228,18.246026784898618,18.06003578530253,17.98399163915541,18.013253762183815,18.151710952535037,18.409213825215776,18.80111345995924,19.349047223218253,20.082747855698774,21.04304290989252,22.28657322048508,23.89326488938381,25.978478605206515,28.713500696162477,32.361700198363906,37.34593869234562,44.383087066736586,54.77660102848566,71.129121642556,99.37214760362585,156.07100010532236,307.62804070579614,510.4206359786648,757.5634341948282,1034.0926680773657,1306.729240328984,1550.1240636498653,1747.7203984209373
I2,0.0,0.0,1.9960000716179227,4.088294244134662,5.767879860241518,7.003005130327054,7.890728424178353,8.53698518242088,9.023839558668111,9.40690058945397,9.721101552611106,9.987255539159667,10.217247132933355,10.417627228215334,10.591925665798769,10.742065088887085,10.869188170253192,10.974119271816924,11.057606374625422,11.120435373231416,11.163473086285189,11.187672558034787,11.194060125834444,11.18371519517899,11.157748602439579,11.117282506729477,11.063433089671065,10.997296434368042,10.919937486749848,10.832381784534434,10.735609559531607,10.630551812685471,10.518087990779804,10.399040346791987,10.274183227854161,10.144239484123663,10.009881035203822,9.87173059309934,9.730363763710459,9.586311312562408,9.440061515235097,9.292062544833142,9.142724859159813,8.992423557072259,8.86638849893026,8.775986190295832,8.727170486497815,8.724268668044894,8.771769189650463,8.875309471567522,9.042420726582787,9.283322247946261,9.611973120129523,10.047607632054728,10.61708843104407,11.358646399089636,12.328050526076165,13.60923647368223,15.333595822240879,17.71731218990067,21.139788074575005,26.32713294337953,34.850774667615205,50.82463272957266,89.42419069374867,151.44061490061893,236.03328412406125,339.8344375990517,454.45247696204535,569.9886214124114
A2,0.0,0.0,0.2218086784742106,0.4995594714246536,0.7700877964832985,1.0130088276750429,1.224804896594078,1.4079217025520971,1.5663640592750872,1.7040499794634731,1.824299370445369,1.9297639396567683,2.0225091681337557,2.1041325996036635,2.175875717443987,2.238716535692603,2.2934415739396585,2.340699831474141,2.381042288930553,2.41495026029352,2.442855375405922,2.4651533952780507,2.4822135534592973,2.494384701279584,2.5019992082977893,2.5053753181663585,2.504818469543697,2.5006219484727676,2.493067131909657,2.482423503168308,2.468948562190231,2.4528877115397134,2.4344741688765885,2.4139284251027853,2.391459217059359,2.3672632910753224,2.3415255155624917,2.3144191253310797,2.2861060367629125,2.25673721301755,2.2264530679850267,2.195383899913605,2.1636503464408623,2.1313638534677386,2.1013928495667953,2.0756244700318667,2.055480843261234,2.042190643786756,2.0369533561336413,2.0410618423338835,2.056017814270794,2.0836633356337644,2.1263505396741533,2.1871786775735873,2.2703439453366636,2.381679600139357,2.529526707356078,2.7262042742979076,2.990626610941385,3.353271398295879,3.8664012753426578,4.627445705040936,5.840979575642205,8.023919925095896,13.004063141218364,21.327240859485123,33.28698009778139,48.80179832876806,67.09875806980108,87.01624574235677
IH2,0.0,0.0,0.0,0.3961543101116154,1.0080785216334744,1.6452027765262283,2.206622913879131,2.6615118930788975,3.0155920659414854,3.287991717984526,3.4992434222288717,3.6664732623663863,3.802313789130637,3.915394806505325,4.011300484872708,4.093503487286008,4.164109300069442,4.224389914875413,4.275140385378379,4.316903845167687,4.350105895088835,4.375129851988491,4.39235515573489,4.402173868378503,4.404994850495885,4.401241539964262,4.39134685836214,4.375747248768221,4.3548769133609575,4.329162761973707,4.29902026288139,4.2648502125174845,4.227036352901916,4.185943727776257,4.141916747236467,4.095280070401998,4.046338330842179,3.9953761126928633,3.9426582807623247,3.888430561493826,3.8329202810543306,3.7763371982342235,3.718874391764442,3.6607091745886082,3.602004015399383,3.547847040264343,3.503020042009038,3.4710784733487223,3.454646177078037,3.4559165172296735,3.477097200450628,3.5207789220771017,3.590276014154944,3.690004286493186,3.8259733334086787,4.006497963617751,4.243293635198594,4.5532448089216295,4.961392284779787,5.506244584593857,6.249824868924213,7.2982241011597235,8.848221634941167,11.309389953450134,15.70155454309462,25.542915223847558,42.736994729871626,68.06189392617236,101.23546259107661,140.4521214563298
IN2,0.0,0.0,0.0,0.3984776640449377,1.2106721869426038,2.350054047605072,3.724620153171511,5.262663990347502,6.914344861174666,8.646703606467991,10.438212341090606,12.27453247200787,14.145623878084265,16.04391945514427,17.963235578149153,19.898155149023623,21.843699073511313,23.79516616932096,25.748066840032486,27.698105710705903,29.641187254646777,31.573429950456944,33.49118135589614,35.39103044918696,37.26981580923305,39.12462939441278,40.95281626923519,42.751970879943805,44.51993054826913,46.254766826507485,47.95477528783481,49.618464241312424,51.2445427761716,52.83190846183721,54.379634045062886,55.886956134325764,57.35326328045098,58.7780842895091,60.16107699655212,61.502017571150404,62.8007903822002,64.05737843331835,65.2718543705131,66.44437205634902,67.57515869878861,68.66947607512736,69.73480253247408,70.77973025083841,71.8136293784935,72.84667242880548,73.8900556338811,74.95636678052563,76.06010793797498,77.21842291988939,78.45212399870849,79.78717813204875,81.25692494863385,82.90550429613972,84.7933713798756,87.00660761869264,89.67359210426439,92.99716333157447,97.32309052584482,103.30740209624922,112.42086124129293,129.14912824921907,158.09095375123604,203.63128084693307,269.4388698408966,357.47051067237834
D2,0.0,0.0,0.0,0.0,0.0014365003773512744,0.005091907222017943,0.011057598744176136,0.01905906324311407,0.028710006678906927,0.0396448849071457,0.05156751511223393,0.06425616791285471,0.07755121504601285,0.09133883530781237,0.10553650014058785,0.12008192982066757,0.13492543689375316,0.15002496863732137,0.16534308471458356,0.1808452277433832,0.1964988098054473,0.21227278625935106,0.2281375024139514,0.24406467947002397,0.2600274602897251,0.2760004703099491,0.29195987040127075,0.30788339125691977,0.32375034616213927,0.3395416228684278,0.35523965715067046,0.37082839131875245,0.3862932210158013,0.4016209333769526,0.4167996392272755,0.431818698261838,0.4466686474264303,0.4613411283026526,0.4758288144063997,0.49012533968334665,0.5042252291110708,0.5181238319775665,0.531817258179949,0.5453023177406703,0.55857646363899,0.5716377379840405,0.584502633006105,0.5972049802576023,0.6097915037650115,0.6223184419058322,0.6348499864438588,0.6474583345371235,0.6602250774982419,0.6732438247830455,0.6866241980736498,0.7004976105215138,0.7150256257158265,0.730412288823083,0.7469228699760327,0.7649134400830848,0.7848797063123452,0.807542278833794,0.8340064656612863,0.8660911190224969,0.9071002473370837,0.9640358616935252,1.0566573640252066,1.2116265451986314,1.4584266779061168,1.8255179261937835
R2,0.0,0.0,0.0,0.043063460792140906,0.3420959384393977,1.007707876237578,2.050410195108527,3.428663182562605,5.08527271658236,6.966184715339712,9.027339479750694,11.235371968136109,13.565850864854887,16.000961181459168,18.527436940351578,21.134983198252954,23.81517689859985,26.560750545089157,29.36515157085495,32.222286976225796,35.1263857963757,38.07193269256509,41.05364198822593,44.066452871210444,47.105534161389606,50.16629200530245,53.24437695546178,56.33568875680095,59.4363782416947,62.542846326250185,65.6517403976463,68.75994850753035,71.86459181543142,74.96301570444156,78.0527798468378,81.13164735792284,84.1975742320993,87.24869854433524,90.28332957025128,93.29993702017343,96.29714052760065,99.27369948375876,102.2285032771091,105.16056197489635,108.06899746856455,110.95357204529405,113.81701083148843,116.66478052564352,119.50444986190482,122.34522595847066,125.19776524967935,128.07423144142012,130.98856698247775,133.95697302240632,136.99863157018922,140.13675196963524,143.40009278270375,146.8252225749716,150.45998449760737,154.36901771046726,158.64299190719967,163.41501606219254,168.89218399220826,175.4231458332663,183.66823812216842,195.16723402417568,213.36968053060838,242.77977743322296,288.31877070807826,354.65346779571877
G2,0.0,0.0,1.9960000716179227,4.882926218291215,8.190111638799014,11.7215002333274,15.397205286733206,19.184857275565847,23.070389580393286,27.045951205211715,31.10515403103568,35.24139711606117,39.44743695669463,43.715427757575,48.03711066076803,52.40402488342372,56.80769509997175,61.23978258595702,65.69220042458697,70.15719739295277,74.6274160664503,79.09593033715068,83.55626680877083,88.00241375058746,92.42882058724685,96.83039030364581,101.20246665242054,105.54081765320669,109.84161655251842,114.10142115662228,118.31715224495089,122.48607160831077,126.60576012617956,130.67409160271995,134.68921928518887,138.6495532009066,142.5537402221039,146.40064551280244,150.1893350401639,153.91905908670464,157.5892367492251,161.19944141051445,164.7493871612399,168.23891614138043,171.6928745838479,175.1322896818997,178.577301123064,182.04879232247566,185.5695306126256,189.1652192001124,192.86569940983182,196.70649891481324,200.7309536045973,204.99323185496536,209.56278780512355,214.53113817649634,220.02255797883228,226.21169120877335,233.35405359231163,241.84226148399694,252.31821545336732,265.92156780123685,284.92636226797816,314.7747388075649,373.6082029804442,471.2254882287302,616.10851339811,813.8773962320101,1063.7876702374726,1360.246888821782
H2,67181.38117007338,71180.27290638727,74826.58616677868,78168.83974661274,81229.05416816588,84027.67424618219,86583.68166908584,88914.69953832342,91037.08944025944,92966.04158401843,94715.65850056693,96299.0327629513,97728.31915475515,99014.8016833365,100168.9558060783,101200.50621158398,102118.48047332559,102931.25887057322,103646.62065037509,104271.78698480244,104813.46085951565,105277.86411284625,105670.77182893311,105997.54427391244,106263.15655066108,106472.22613505715,106629.03844508153,106737.57058327492,106801.51338302833,106824.29187986504,106809.08432021791,106758.83981216981,106676.29471516289,106563.98785875355,106424.27467405569,106259.34031554047,106071.21184531295,105861.76954683445,105632.75743027612,105385.79298724714,105122.37624851654,104843.89819451765,99623.1891098315,94484.35075665309,89433.22530162906,84475.52682607967,79616.87580039998,74862.83020452797,70218.91290902479,65690.63475666403,61283.51257806286,57003.08113459399,52854.897708122655,48844.53775532476,44977.57972745242,41259.57684897231,37696.01339145139,34292.242835092096,31053.40536870256,27984.322557710497,25089.36785209002,22372.313064694852,19836.153156411674,19268.10841679317,19187.61718850037,19107.05617718592,19026.465057605652,18945.88038213255,18865.335806770057,18784.862300987657
S3,2621227.6172054745,2609767.884033268,2599029.4490064667,2588947.764259028,2579468.6599849127,2570542.7798100477,2562124.735463927,2554172.6172102853,2546647.659980405,2539513.9828740195,2532738.36763844,2526290.061375706,2520140.5968227074,2514263.62691791,2508634.7717946707,2503231.47696578,2498032.881755478,2493019.6971868644,2488174.0926241474,2483479.590533773,2478920.968779934,2474484.169914245,2470156.216959008,2465925.1352196997,2461779.8796956595,2457710.2676888346,2453706.916239056,2449761.1840408714,2445865.117521626,2442011.4007833423,2438193.3091322402,2434404.3539254903,2430639.303336515,2426892.8616019045,2423160.2370967553,2419437.062530742,2415719.3510329197,2412003.464327067,2408286.085845574,2404564.196562761,2400835.0527981594,2397096.1656833556,2402020.9195689033,2407208.348183504,2412667.2657883973,2418407.5195821854,2424440.0365715874,2430776.865374788,2437431.2121163043,2444417.4676525504,2451751.2217279305,2459449.257847112,2467529.5203199573,2476011.0416618637,2484913.813535746,2494258.576027327,2504066.4842758705,2514358.578092009,2525154.9003666104,2536472.8936583013,2548324.027668528,2560705.0722148935,2573568.0751344278,2571581.99923972,2565027.1831422015,2557825.9886900554,2549844.9871037444,2541032.24966529,2531405.734640784,2521036.022382106
E3,0.0,17.89143838691625,25.16665133584866,28.067742270543523,29.156804107284994,29.488666697149313,29.498840767847796,29.3677551467402,29.170572836930987,28.938946664559854,28.6865204859605,28.419473439772347,28.140882810893633,27.852528745288545,27.555639407239305,27.251197313685758,26.940064230801575,26.623031396077018,26.300839315095153,25.974185417504557,25.64372707357066,25.310083001603974,24.973834250852036,24.635525190021884,24.295664629679756,23.954727091352964,23.613154196608907,23.271356139859538,22.92971321028574,22.588577333475005,22.248273609145215,21.90910182661868,21.571313958699093,21.235178852652986,20.900931691950856,20.56878511880278,20.23893285228376,19.911551360186873,19.586801040073567,19.264827264795915,18.945761367486732,18.629721576591585,18.31681390018628,18.138049502012368,18.07389394213874,18.120239078474597,18.28165495232935,18.568891145752705,18.99850826815907,19.593792950308043,20.38675318165913,21.42139541666197,22.75887045550315,24.485625101882135,26.72667096309403,29.667994002856418,33.596155091421096,38.97223243596219,46.579603521210274,57.84587692420672,75.62822976028204,106.45379173502059,168.59585328360447,335.4884389527916,559.4728439435872,832.9917207877625,1139.8447494913585,1443.42900703848,1715.6785298593104,1938.0809235593085
I3,0.0,0.0,3.4217144084878663,6.87257762511803,9.504439986424039,11.296807505412573,12.43907994349398,13.12854556926862,13.51845656467939,13.715428375738151,13.789685100972498,13.786103138592294,13.73287479757101,13.647557211561447,13.541058255770063,13.42017813206548,13.289197704100523,13.15085838315728,13.006961514393609,12.858732926221872,12.707043812328367,12.552544254778201,12.395743859112354,12.237060475605855,12.07684971305249,11.915422917409291,11.753058235637482,11.590007540552929,11.426500880481129,11.262749448516328,11.098947664518583,10.935274722330075,10.771895810858183,10.608958544763622,10.446603188201554,10.284959142990129,10.12414496205249,9.964269049469149,9.805430401570696,9.647719278866829,9.491217810426997,9.336000546027831,9.182134967307602,9.029681964548438,8.903733902175004,8.815657631952623,8.771509046463187,8.775807128065454,8.833327640760277,8.950112253740675,9.134250911961264,9.396734341124876,9.752593902367472,10.222571799914942,10.835685352686905,11.6333080389207,12.675911625093924,14.054697724983743,15.912740087192153,18.4859729847867,22.18943066950638,27.81934861630137,37.103276344287075,54.57574795565328,97.01020625951,165.3877163547781,258.8534364474439,373.7945574812632,501.0363121533102,629.6889407646042
A3,0.0,0.0,0.3802434488129323,0.8412825844721661,1.274468766694697,1.6466988381400118,1.953714620654833,2.2013404774302527,2.3981046104477652,2.5524769234408757,2.6719556265304005,2.762873146176088,2.830463812154197,2.8790111264652296,2.912004795715897,2.9322831128455564,2.942154206353396,2.943496403771565,2.9378401772447598,2.926434600369217,2.910301065355373,2.8902766352817024,2.8670490095559567,2.8411847218307464,2.813151884390945,2.7833385406436046,2.752067481501381,2.71960821473332,2.686186641804893,2.6519928883349957,2.6171876470583717,2.5819073220026905,2.5462682061478352,2.5103693696872194,2.4742963624077383,2.438123123183918,2.401913755134956,2.3657240330359284,2.3296026536014174,2.29359226813113,2.257730336890891,2.222049838552058,2.186579861767553,2.151346100689498,2.1191536171935947,2.0918477173122167,2.0708281370981565,2.057319984477192,2.0525389753950547,2.0578167579365783,2.074721351358053,2.1051966087961054,2.151744251465227,2.217679925942419,2.307512794414506,2.427533428034126,2.5867638287242958,2.798564630429439,3.083501752144083,3.4747972816260373,4.02956404473272,4.8545496505509975,6.174496880855102,8.558874289804516,14.027269708994972,23.194292626642962,36.3946131066736,53.5536236467283,73.83328636799617,95.96178506239309
IH3,0.0,0.0,0.0,0.6791216744770547,1.7011566610534172,2.7308694354100504,3.59777561957643,4.254834694928901,4.717851525565837,5.025088514275952,5.216700199841856,5.326557671070356,5.380381938989331,5.396536812120659,5.387623046532258,5.362060811410623,5.325379691809026,5.28117431223974,5.231773207109964,5.17868982249769,5.122918755030439,5.065126649471235,5.005773464539262,4.9451886753892795,4.883618771779888,4.821256694727349,4.758260017677182,4.694762167845624,4.630879371095732,4.566714982638152,4.502362226188713,4.437905966957253,4.373423898873047,4.308987376297894,4.244661118487281,4.1805050920274445,4.116574748302899,4.052921144047415,3.989591140129921,3.926627647323053,3.864069881667521,3.8019536111934085,3.7403113879839553,3.679172764827052,3.6185644973937947,3.5634800520224745,3.518654299484669,3.4876396513084638,3.473096488440743,3.477293336551326,3.5025554467982323,3.551642759557054,3.6281067324679057,3.7366937078268814,3.8838766442592245,4.078628019229477,4.333613493181289,4.667122603504213,5.106335758388939,5.69314222685346,6.495163425634539,7.628341371785479,9.30826385250246,11.984826293482884,16.781352310563285,27.584573545211136,46.51864844016333,74.4683829200066,111.1559613066402,154.622517328649
IN3,0.0,0.0,0.0,0.6831045669341786,2.0483018678393448,3.9252671998394284,6.141287726440303,8.56318914822495,11.09851516407843,13.68632901048575,16.287587796754227,18.877658466777913,21.44111333393365,23.968307247492927,26.45319658105729,28.891975771985265,31.28223489264977,33.622442738190614,35.911630705938826,38.14919949637883,40.334800525046674,42.46826261677628,44.54954608930222,46.57871339386424,48.555909776025125,50.48135002195634,52.35530892648328,54.17811406521426,55.95014002141216,57.6718035589181,59.34355943612309,60.96589667744589,62.539335190979465,64.06442266373563,65.54173077536663,66.97185349079778,68.35540466883842,69.6930156973902,70.98533329206056,72.23301746474033,73.43673964663816,74.59718095074211,75.71503056188621,76.79098424496222,77.82574296323332,78.82501006231531,79.79670111106945,80.74986150956376,81.69434836492246,82.64087363765488,83.60124831603025,84.58878033968368,85.61883873646265,86.70963967632997,87.88335810181259,89.1677401684596,90.59851429289483,92.22312407620413,94.10674600045203,96.34246775436712,99.06954762004457,102.50870794665722,107.03742279811439,113.3742762031969,123.13593212782233,141.27150616916313,172.87648074180035,222.82472444369205,295.22011284727876,392.29384964710823
D3,0.0,0.0,0.0,0.0,0.002462572075459327,0.008631158717488688,0.018533600453786683,0.031579542156883716,0.04700805445329317,0.06411551819602805,0.0823370580423247,0.10125340355296661,0.12056810469131866,0.14007797871862523,0.15964643214480967,0.17918256324783738,0.1986260027923968,0.2179364324445875,0.23708656838594022,0.2560575703273612,0.27483608590657366,0.2934123692812711,0.31177909193852915,0.32993059322781126,0.3478624072127922,0.3655709617569168,0.3830533843495976,0.40030737385939985,0.4173311129770801,0.4341232058415323,0.4506826313693453,0.4670087065168553,0.4831010559712571,0.49895958614672875,0.5145844621964424,0.5299760839529173,0.5451350686943035,0.5600622347717488,0.5747585856738978,0.5892252948122112,0.603463691197469,0.6174752460422546,0.6312615602580777,0.6448243527939872,0.6581654497607866,0.6712867742883718,0.6842083563808947,0.696967395219963,0.7096139714335559,0.7222078124921495,0.7348168717971201,0.7475175343737858,0.7603961931037215,0.773552118855968,0.787101793274068,0.8011851696823475,0.8159747366241987,0.8316889097616702,0.8486124246899555,0.867128576241459,0.8877725544803561,0.9113247523833737,0.9389859818069455,0.9727388003307114,1.0161971372808434,1.0770482205867322,1.1770730071291415,1.3457548927795548,1.61578567986146,2.0188497795978586
R3,0.0,0.0,0.0,0.07382307564367009,0.5835175760094335,1.7019384920198033,3.4262076232347947,5.6656582116502,8.30590434046794,11.241192992981027,14.385935714635002,17.67568488555318,21.06391003602724,24.517802026477998,28.014467993765333,31.537931979887855,35.07694073247566,38.62342956599138,42.1714803089773,45.716626405478316,49.25539446698379,52.78500317396372,56.30316530147837,59.807956701654405,63.29772856500423,66.77104765110755,70.22665466687113,73.66343451581236,77.0803944090551,80.47664726945622,83.85139877288051,87.20393694854049,90.53362362719352,93.83988726015562,97.1222166838346,100.3801554174495,103.61329725553475,106.82128229989483,110.00379332084056,113.16055243853424,116.29131810737915,119.3958823751857,122.47406838604746,125.52572809799226,128.5507401902348,131.54954832227025,134.52550796176405,137.48469271431696,140.43528054047434,143.38711407317717,146.3515357636931,149.34147312287524,152.3717439832054,155.45958114196048,158.625416243656,161.89401431758503,165.29612499479884,168.87093905908372,172.6698596226327,176.7625233841436,181.2468906822188,186.26721045944393,192.0486295233254,198.97148697489519,207.7587962886208,220.10344681246016,239.81033903764882,271.86228955190336,321.7187330000833,394.5785446878413
G3,0.0,0.0,3.4217144084878663,8.234803866529262,13.602723206713517,19.178924212011832,24.818593507607435,30.46020858104097,36.07675369929318,41.65558795629532,47.19012400796341,52.67638388005811,58.111571350598204,63.49347872435183,68.82023875669614,74.09021908783586,79.30197526306735,84.45422763935103,89.5458478967921,94.57584933622898,99.54337864101673,104.4477082157218,109.2882287939859,114.06444223436635,118.77595450523039,123.4224688843067,128.00377940095123,132.51976454407244,136.97038125172858,141.35565919179098,145.67569533744353,149.93064883676996,154.12073617217342,158.24622201552927,162.3074224554042,166.30469855889896,170.2384520606614,174.1091217438614,177.91718014090574,181.66313046002688,185.34750371182687,188.97085602419932,192.53376613607477,196.03683306029097,199.50571152499217,202.96232032199774,206.42779256627534,209.92413538727146,213.47541175807063,217.10885184684935,220.85613935974297,224.75507948939637,228.85189360584604,233.20449809042748,237.8873421636693,242.99878335401038,248.67274876445734,255.09796989313833,262.55135884785693,271.4596476653022,282.52259667268436,296.98639761830475,317.34554734906425,349.58928582979394,413.751015067022,520.7494715287114,680.0580587720345,898.0518901470458,1174.1058174056122,1502.2271131336258
H3,201544.1435102201,200664.38732823107,199839.5683017623,199065.03125837597,198336.7374234444,197650.94382787004,197004.18208461616,196393.2386823525,195815.13668783676,195267.11875639358,194746.6313570429,194251.31012550287,193778.96626449216,193327.57391651132,192895.25843962774,192480.28552175083,192081.0510734932,191696.07184399175,191323.97670803673,190963.49857654565,190613.4668858459,190272.80062441048,189940.5018586457,189615.64972207288,189297.39483479268,188984.95412248682,188677.60600640724,188374.6859378429,188075.5822524475,187779.73232157028,187486.61897936513,187195.76720596827,186906.74104844435,186619.14076250687,186332.60015923306,186046.78414212106,185761.38642088362,185476.12738934427,185190.7521557049,184905.0287142916,184618.74624866355,184331.71355669273,184043.75758889312,183696.04995553129,183290.06323871916,182827.32729865398,182309.4272714757,181738.00199421815,181114.74281336786,180441.39272931629,179719.74582272276,178951.64690012942,178138.99128470683,177283.72466338336,176387.8428835138,175453.39157052562,174482.46541278283,173477.20693186024,172439.80452689348,171372.4895530825,170277.53217058908,169157.2356864543,168013.92911602787,166849.95772049445,165688.92364921406,164536.60663295278,163392.93319883515,162257.83095857827,161131.22856228217,160013.0556552961
S4,1310613.8086027373,1332430.3858265493,1354161.392697869,1375807.0088055516,1397370.26971096,1418855.1787219855,1440265.922883259,1461606.5609091825,1482880.9072932412,1504092.4975847865,1525244.5867601011,1546340.1605872472,1567381.9516013707,1588372.4562224525,1609313.951610566,1630208.5117187013,1651058.0223643156,1671864.1952897673,1692628.5812415376,1713352.5821203901,1734037.462261246,1754684.3589017321,1775294.2918960245,1795868.1727273536,1816406.8128690757,1836910.9315407865,1857381.162902711,1877818.0627285305,1898222.1145939678,1918593.7356157792,1938933.2817733402,1959240.7191755918,1979516.757882896,1999761.495662761,2019975.057293575,2040157.5487497447,2060309.0457073813,2080429.5921787238,2100519.202034334,2120577.8612489337,2140605.530229721,2160602.1460432988,2188472.9426712664,2216353.572703948,2244241.695576186,2272134.5792290256,2300029.080427063,2327921.615001502,2355808.121702422,2383684.021006405,2411544.1689162,2439382.8046439392,2467193.489417175,2494969.0305926376,2522701.3791321553,2550381.475680938,2577998.9925629334,2605541.85471847,2632995.263339714,2660339.5111050126,2687544.5262520867,2714554.0619328464,2741228.242609627,2762656.1365572144,2782098.2462530276,2800379.3956447113,2817287.331302868,2832768.338050085,2846870.920367912,2859718.6784609887
E4,0.0,26.83715758037438,38.10073999505691,42.89816683868545,45.02725875371414,46.067655598074914,46.67157455303193,47.10408475831786,47.46945857681724,47.80594171283508,48.12531218940324,48.429272674664276,48.71613769013457,48.98347325682473,49.22906512872145,49.45121099043654,49.6487510108045,49.82100701980139,49.96769838501013,50.088860241524436,50.18477242032608,50.25590060815974,50.30284879905474,50.326321378113484,50.327093133854106,50.30598568322955,50.263849036794376,50.2015472643604,50.11994742297678,50.01991107595454,49.90228786701144,49.76791072226601,49.617533988742316,49.45198374099668,49.272031471586246,49.07841623990578,48.871849771152654,48.653017423471596,48.422578401088245,48.18116600403066,47.92938804293052,47.66782739888703,47.39704268742408,47.475406197416916,47.85591648208499,48.53362977406013,49.52816801719301,50.87742345210831,52.637062120881026,54.88370613508146,57.72139120652828,61.2920441827641,65.79189677920297,71.49748505568363,78.80799110103727,88.31680019848478,100.938040470831,118.1430304334325,142.43319421515469,178.37103609321076,235.0970085930066,333.5147671640344,532.211317149025,1066.8936627040703,1791.8247563700102,2687.9074857750134,3705.9699609867407,4727.595541874151,5659.333778533561,6437.128635463948
I4,0.0,0.0,5.132571612731801,10.375949405255447,14.449376211490362,17.308308191650724,19.22803902787568,20.499000320427935,21.346693436556322,21.926786853008572,22.340289968608094,22.650251640116505,22.894945838474072,23.097086854377814,23.269880647019257,23.420852250478937,23.554205325373243,23.67224818754669,23.776240485012725,23.866886713960312,23.944617621593842,24.00974598671439,24.06254912905379,24.103309477051585,24.132331733678818,24.14994747323738,24.156513399432924,24.152406771292256,24.138019908653963,24.113754767580847,24.080018053391214,24.03721705031557,23.98575619380541,23.926023176516914,23.85840933161956,23.783297744726767,23.701060334548277,23.612057070940885,23.51663568922789,23.415131559012956,23.307867652979724,23.195154607442834,23.077290865866125,22.954562892225404,22.895681341576577,22.933013353324853,23.085094824785987,23.36683495780408,23.794454261038567,24.388361719223496,25.175495130891452,26.19196472349303,27.486648128175872,29.126493256260417,31.20468240211205,33.85364390938945,37.26656894941465,41.73456275080759,47.71422575958735,55.958774338358424,67.79413325973583,85.766460173416,115.40605333130975,171.2462206540962,307.11304203847493,527.531756959577,831.5737538663184,1209.2760525579852,1631.9950277868784,2064.6181534341863
A4,0.0,0.0,0.5703651732193986,1.2693785780373092,1.9346395480155931,2.5159913813693624,3.0065869383211954,3.4147698816284717,3.7528974437009683,4.033143820294073,4.266132454073592,4.4606745957139005,4.623907005637911,4.761545043402222,4.878142720483593,4.9773228423188085,5.061968679010602,5.134379073115837,5.196392141080251,5.249483170564753,5.294841773467374,5.333432549455318,5.366042721343767,5.3933195116758865,5.415799456930526,5.433931393146067,5.448094477922599,5.458612321716649,5.465764070944088,5.469793104021676,5.470913858854756,5.469317198222051,5.465174631516666,5.458640402118291,5.449856363947729,5.438953226820381,5.426052030743392,5.411265442350003,5.394698820189767,5.3764510777256955,5.356615384090498,5.335279737608877,5.312527439870957,5.288437491876794,5.27068997716051,5.264475001970058,5.273869960688956,5.3025776559041615,5.354387319487535,5.433535575953291,5.545064958066574,5.695250058481765,5.8921636225078995,6.146481573765155,6.472684308721842,6.890924643689549,7.430053897027645,8.13274979075936,9.064673962483942,10.33190235520456,12.116882663653985,14.76090128967713,18.98324649216161,26.608697812651933,44.117197154998706,73.63330332035915,116.46323125106899,172.614557214807,239.5766995012503,313.3404127613567
IH4,0.0,0.0,0.0,1.0186825117155824,2.5650492229367012,4.1411627533294695,5.490997368802718,6.542096024608735,7.316132909628604,7.868623655189264,8.25802336427094,8.533397934563599,8.731618111661835,8.878583578572371,8.99165959502621,9.08208762436545,9.156941652454968,9.220567648923598,9.275581170977748,9.323530635045959,9.365324526715382,9.401499326485887,9.432383431270322,9.458194903896368,9.479098049343573,9.495234907160954,9.506741797206512,9.513757187518014,9.5164246922265,9.514893469255878,9.509317341107907,9.499853388467635,9.486660424339064,9.469897556271182,9.449720715019152,9.426284976869002,9.399743357006908,9.37024563111146,9.337937595174505,9.302960641362926,9.265451521431855,9.22554222308634,9.183359920622891,9.13902697891172,9.092660997720568,9.057957640814703,9.048139717021796,9.073450158330429,9.141932827976856,9.260800192950672,9.437683304420919,9.681716806575384,10.004602243348998,10.421849412088473,10.95444507711548,11.631301711636302,12.493055575299216,13.598222670309628,15.033628223810638,16.932997177345385,19.512206897382868,23.141584453351456,28.510313100414777,37.058136561137715,52.384254275621714,86.95845515622253,147.8691061157723,238.45069271045958,358.3811191451744,501.81547373058265
IN4,0.0,0.0,0.0,1.0246568504012683,3.0858451180208983,5.93963269543228,9.335634148693604,13.080927006142897,17.042499234003657,21.1336875835847,25.299772797777024,29.506748136614636,33.73353388157009,37.96690205418035,42.198291593629065,46.42186346232391,50.633339296562866,54.82932272710395,59.00691217618948,63.16348655557678,67.29659163218699,71.40388370882594,75.48310496783735,79.53207553332612,83.54869371163346,87.53093965635973,91.47687991443325,95.38467157896352,99.25256548740467,103.07890829082385,106.86214341952267,110.60081106337714,114.2935473198149,117.93908266601487,121.53623767260983,125.0839228295371,128.58113600031905,132.02695931898774,135.42055596193362,138.76116689500282,142.04810762693387,145.28076498903118,148.45859395913007,151.5811145459739,154.64790874734277,157.67228000573803,160.6738604434841,163.67578633302404,166.70393902882114,169.78717930334133,172.95815373228314,176.25456023653422,179.72092873501103,183.4111016849083,187.39174847273577,191.7474745274391,196.58847696673112,202.06241925573485,208.37360391997703,215.8154453057227,224.82879430010385,236.11479838515535,250.87590364631671,271.40658994956726,302.87979435786065,361.1624609424516,462.8662745496108,624.2514169304507,859.4264775702463,1176.640601107043
D4,0.0,0.0,0.0,0.0,0.003693858113188991,0.012995016986444749,0.028011341953740377,0.047922320052394884,0.07164470087256301,0.09817382706703129,0.1267063472527384,0.15665087486776946,0.18759394185001554,0.21925577763505472,0.25145052684116737,0.28405530248435085,0.3169879803993343,0.35019208749444347,0.38362690965588825,0.4172612170764179,0.4510693946820488,0.4850291216703867,0.519120022578065,0.5533229127461012,0.5876193982360131,0.6219916808977751,0.6564224776328471,0.6908949996539268,0.7253929602744928,0.7599005935691219,0.7944026744759086,0.8288845357107537,0.8633320795819049,0.897731784271542,0.9320707049038297,0.9663364620255043,1.0005172385074712,1.0346017720710243,1.0685793435410238,1.102439762415102,1.1361733508948961,1.1697709270593881,1.2032237875899217,1.236523690316237,1.2696628367769467,1.3026338549407344,1.3354790348035916,1.3682886137632824,1.4011899712485698,1.4343396546469627,1.467920364567802,1.5021424726758843,1.5372494738899698,1.5735272942518663,1.611318100084435,1.6510401580938925,1.6932165748875014,1.7385178087504662,1.787826503616623,1.8423401415229685,1.9037411062836231,1.97449457748314,2.0584085825847875,2.161790205557941,2.296167204104318,2.486118440563147,2.8014396435827553,3.337629762716018,4.2022789696418235,5.501809480221318
R4,0.0,0.0,0.0,0.11073461346550517,0.8767236709482589,2.5655985301761994,5.183866593843148,8.606200413232408,12.670737864095416,17.227521964381943,22.155848064165223,27.365751818698033,32.793170291031814,38.39364908361316,44.13665984468477,50.00115462776333,55.97235069132392,62.039518970975834,68.1945155460697,74.4308320087065,80.74299430293985,87.12618899289748,93.5760346964798,100.08844447432053,106.65954426638267,113.2856253078598,119.96311678914317,126.68857033230937,133.45865118627378,140.27013310450087,147.11989513054857,154.00491927923548,160.92228855614837,167.86918502540198,174.84288754855365,181.84076869190557,188.86029303490741,195.8990151360697,202.95457713039258,210.02470613127906,217.10721155541657,224.19998243295967,231.30098473504333,238.4082587368985,245.51991642871272,252.63561547956522,259.7630014674946,266.9173187300255,274.1198828720233,281.3970255584907,288.7797955069434,296.3043620837516,304.0130567487761,311.9560738184342,320.1939729498085,328.80128427988797,337.87175157563945,347.5261383172538,357.9242258022931,369.28399516334935,381.9138125989181,396.26980368740817,413.0665124734783,433.51471645017676,459.92222190891727,497.70606693329916,559.0887834380939,660.2564905273598,819.226476670293,1053.508660867365
G4,0.0,0.0,5.132571612731801,12.419288767372299,20.62350758954304,29.234912481670918,38.045291922178194,46.97117008028699,55.979765254727305,65.05823769851885,74.20106210607243,83.40496570344219,92.66700134975828,101.98389955857486,111.35192534811821,120.76692026493369,130.22440028995445,139.71965958790614,149.24786262437604,158.8041201943653,168.38354981241625,177.98132251038385,187.59269838210957,197.21305303451038,206.83789678724133,216.4628881372577,226.08384271469228,235.69673871309513,245.29771957824812,254.8830945794703,264.4493377589476,273.99308565212596,283.51113409049225,293.00042317342434,302.45805098598845,311.88126316020276,321.26744667223704,330.61412461478284,339.9189511543888,349.1797065295577,358.3942920966018,367.5607254548293,376.6771356788033,385.741758677582,394.8213685961066,403.9737506135239,413.2557444198777,422.72794237654784,432.45818368683433,442.5249536124542,453.02139129467855,464.0605325698583,475.78255660003396,488.3651716085496,502.0389729818692,517.1108991637016,534.0013727642864,553.3056422128594,575.9003436982425,603.1405075326578,637.253737059434,682.2157353235511,746.0000023885843,847.7847271752091,1051.8267577292504,1394.5109206102024,1908.5697443817207,2617.3316973728683,3521.47821892719,4603.818470933504
H4,100772.07175511005,102451.60628436189,104123.80951209714,105789.13924794516,107448.01450843163,109100.820653627,110747.91185219258,112389.61336956438,114026.22369191732,115658.01649764928,117285.2424872859,118908.13108192792,120526.89199964044,122141.7167185112,123752.77983448213,125360.24032147904,126964.24270082696,128564.9181264394,130162.38539180599,131756.75186437296,133348.11435251083,134936.55990989288,136522.16658176295,138105.00409725166,139685.13451160226,141262.6128018922,142837.4874195796,144409.80080296632,145979.58985244835,147546.88637121874,149111.7174738985,150674.1059653932,152234.07069210958,153791.6268675133,155346.7863738675,156899.5580418611,158449.94790971212,159997.95946321948,161543.59385813068,163086.85012609488,164627.72536538064,166166.21491745283,159796.99435355084,153456.22021586256,147147.88539822763,140876.42264322707,134646.74163491683,128464.26783702809,122334.98257692847,116265.46361257277,110262.92507544746,104335.25524022589,98491.05001481286,92739.6393589855,87091.10301991343,81556.2710273454,76146.70335444325,70874.64209586958,65752.92857321522,60794.87715432555,56014.09756106429,51424.258421222614,47038.78723618921,47248.04628158097,48638.46259591843,50019.20362632854,51390.34201493648,52751.94979159344,54104.098382914926,55446.85862093394
E_Om,0.0,0.0,0.0,0.0,0.0,0.0,0.0,0.0,0.0,0.0,0.0,0.0,0.0,0.0,0.0,0.0,0.0,0.0,0.0,0.0,0.0,0.0,0.0,0.0,0.0,0.0,0.0,0.0,0.0,0.0,0.0,1.4583464567788194,2.023369469666094,2.3428330161527113,2.609686736281254,2.8823050512084176,3.1793628063432364,3.507991828182324,3.8721482648741405,4.275102154691556,4.720180961550447,5.210996228837988,5.751519356328947,6.4125054454566675,7.20521510710615,8.15632673109337,9.304787278684104,10.703629797902547,12.424728294560957,14.566566987744633,17.266283377474142,20.718501709450333,25.2054880621209,31.146883459519472,39.184607886048106,50.33375420794822,66.26376965692245,89.8530227242727,126.36130253295394,186.13562596500495,291.61183131356233,498.5273349711823,977.2375351655362,2478.7008286873806,5074.87745831775,9418.513744728987,15739.346923886646,23965.797404036537,33733.63764665975,44512.24348623868
I_Om,0.0,0.0,0.0,0.0,0.0,0.0,0.0,0.0,0.0,0.0,0.0,0.0,0.0,0.0,0.0,0.0,0.0,0.0,0.0,0.0,0.0,0.0,0.0,0.0,0.0,0.0,0.0,0.0,0.0,0.0,2.0,1.2037756055665487,1.0034447244705273,0.9909279296984885,1.0444912129127435,1.127765727952642,1.2300255423197668,1.348386388056204,1.4824762120344683,1.6328276882223145,1.8003868171662947,1.9863593582191235,2.192161746221393,2.419406041088039,2.6825943434867128,2.9926088681647176,3.3611016949292396,3.8025346243694456,4.335754539582766,4.985850960106161,5.786759941014772,6.785134549114558,8.046276331082435,9.66347251312016,11.773127340926436,14.580107231477832,18.401853977704413,23.748711542724667,31.47833397745046,43.112860648474204,61.54730224612364,92.8149553959352,151.2068964101555,277.90499898110534,641.3159509043481,1356.5639866598344,2617.7778668118335,4585.738273207509,7343.52763300083,10871.494200931127
A_Om,0.0,0.0,0.0,0.0,0.0,0.0,0.0,0.0,0.0,0.0,0.0,0.0,0.0,0.0,0.0,0.0,0.0,0.0,0.0,0.0,0.0,0.0,0.0,0.0,0.0,0.0,0.0,0.0,0.0,0.0,0.0,0.0,0.030993968975418743,0.06797888602149985,0.10457279715108923,0.13973350797751624,0.1738617837273745,0.20767747536682138,0.24191224844624998,0.27723979722798203,0.31427251786345767,0.3535746296862625,0.3956775660792937,0.4410939877260932,0.49174076899781627,0.5494019487968631,0.6160821913668779,0.6942246942653308,0.786925417503663,0.8982067751695949,1.0334033092350898,1.1997284351030757,1.407131419441571,1.669628858971402,2.0074346255125475,2.4504807382728724,3.0444615905556023,3.8616806071130956,5.021577165104801,6.73218719105552,9.381060333793894,13.757329434689606,21.681496720892554,38.241151550037834,83.49612439145199,175.14105020693722,341.30790343162533,609.5494869155748,1000.5480451638266,1523.2295687597298
R_Om,0.0,0.0,0.0,0.0,0.0,0.0,0.0,0.0,0.0,0.0,0.0,0.0,0.0,0.0,0.0,0.0,0.0,0.0,0.0,0.0,0.0,0.0,0.0,0.0,0.0,0.0,0.0,0.0,0.0,0.0,0.0,0.7962243944334514,1.2754621457214446,1.674945729765938,2.0694462251416246,2.4852709168878793,2.934248208788826,3.4239363800744433,3.9607454477206225,4.550937309815194,5.200985928449686,5.917741880071787,6.708535768634407,7.581262098077061,8.54445715305404,9.612430681380696,10.80382477329601,12.141920354133152,13.655755768433547,15.381872534779237,17.36680061550222,19.67058033038534,22.371825154144457,25.575145903724618,29.42229217866632,34.10931777247485,39.91383629805396,47.23983881797921,56.69449055131955,69.22639925580425,86.39015493686684,110.89288666683302,147.84365249408117,208.04096225824998,318.6783320201298,573.9940343447935,1114.0587037390212,2156.2280021207935,3981.8663419282684,6905.41426322397
G_Om,0.0,0.0,0.0,0.0,0.0,0.0,0.0,0.0,0.0,0.0,0.0,0.0,0.0,0.0,0.0,0.0,0.0,0.0,0.0,0.0,0.0,0.0,0.0,0.0,0.0,0.0,0.0,0.0,0.0,0.0,0.0,0.0,0.27890687019197186,0.6658736594644266,1.1139374380543678,1.6130366448405216,2.1642737511085928,2.7723227681306466,3.4432216597550913,4.183764998037508,5.001372745615981,5.904101238290911,6.9006975148558,8.0006681391651,9.227051496540751,10.60503954954541,12.164926468225246,13.944454978502595,15.99151030801631,18.367723494885393,21.15356055651699,24.455714879499897,28.41810148522689,33.23861841684478,39.195419519592754,46.68942500395268,56.31569027575837,68.98855036070387,86.17282452877001,110.33925990427845,145.93745718299047,201.70784206276824,297.0505489042367,483.9459612393553,957.994282924478,1928.5580210046278,3729.8365705508545,6739.966275328303,11323.3939749291,17774.908464155098
beta,1.6150353191552853,1.6150353191552853,1.6139044495012767,1.6132062603530717,1.6126875084137933,1.6122448255505615,1.6118358849358567,1.6114433390884104,1.6110600909812738,1.6106832564967524,1.6103116829375308,1.6099449269959285,1.6095828332108646,1.6092253600262463,1.6088725081336288,1.6085242911315225,1.6081807237067387,1.6078418170681879,1.6075075773732408,1.607178005377464,1.606853096572907,1.60653284150964,1.6062172261748366,1.6059062323777318,1.6055998381202763,1.6052980179460385,1.6050007432653588,1.6047079826569468,1.6044197021469273,1.6041358654666313,1.603856434290647,1.6035813684563427,1.603301925536105,1.6030302356268091,1.6027635237746765,1.602500901659039,1.6022420379640518,1.6019867633986677,1.6017349529545826,1.6014864905513673,1.6012412581917517,1.6009991323984614,1.6007599827927763,1.6530173685874754,1.7104313839238727,1.7738224601068426,1.8441943367384337,1.922788560852167,2.0111592100041484,2.1112773868179984,2.22568038703515,2.357689528011885,2.511736493050963,2.693866787379104,2.9125432141732035,3.179980124763161,3.51446617041549,3.9446453064212474,4.517982553058083,5.319067586437033,6.5141047141549855,8.477988006234986,12.255353603224492,22.06104423204522,22.10051083009751,16.79981661776999,12.252664238054916,8.858678623734695,6.512777013196606,4.924130845657175
