series,2021-12-01,2021-12-02,2021-12-03,2021-12-04,2021-12-05,2021-12-06,2021-12-07,2021-12-08,2021-12-09,2021-12-10,2021-12-11,2021-12-12,2021-12-13,2021-12-14,2021-12-15,2021-12-16,2021-12-17,2021-12-18,2021-12-19,2021-12-20,2021-12-21,2021-12-22,2021-12-23,2021-12-24,2021-12-25,2021-12-26,2021-12-27,2021-12-28,2021-12-29,2021-12-30,2021-12-31,2022-01-01,2022-01-02,2022-01-03,2022-01-04,2022-01-05,2022-01-06,2022-01-07,2022-01-08,2022-01-09,2022-01-10,2022-01-11,2022-01-12,2022-01-13,2022-01-14,2022-01-15,2022-01-16,2022-01-17,2022-01-18,2022-01-19
S,42906.63283956576,42901.120534962094,42896.93757966829,42893.64076668908,42890.96234116036,42888.73553842965,42886.852792960875,42885.24188734769,42883.852180760616,42882.64656555662,42880.097178337375,42878.04006093882,42876.30049684479,42874.782541761,43000.30522913712,43125.90641005926,43251.56897124605,43377.27859589357,43503.02240692149,43628.78805801926,43754.56301284711,43880.33384198762,44006.08539636614,44131.79969682709,44257.45430405208,44383.0197639635,44508.4553653083,44633.701656555975,44758.66629784892,44883.19492700579,45007.00413250788,45129.501840125355,45249.18333947427,45360.6491712822,45420.5515216349,45455.42330734896,45475.99862425897,45483.30766254175,45485.13898609087,45354.850229009506,45255.07900625099,45161.93455475515,45075.43120372244,44995.41250062165,44921.63608619819,44853.80579949655,44791.59297091843,44734.6519236223,44682.63135593727,44635.18261591402
E,0.0,5.512304603674112,8.041568516375687,8.925910940666842,8.926563187187071,8.475396961741232,7.815523341994687,7.081771952574012,6.346946953878926,5.648478071708268,5.003791939020916,4.417614783304709,3.891379595292912,3.4226775204050615,3.007324950526046,2.664466978853898,2.378228526622463,2.1373971070667013,1.933859759477026,1.761622828964135,1.6161971782866675,1.4942166985953573,1.3932118980813863,1.311496016079943,1.2481477526169025,1.2031004589603977,1.177383294074477,1.1736267206049456,1.197096648512881,1.2579182430321811,1.3763432742277186,1.5972020862547112,2.039547694560239,3.1463868747880532,8.551170867324988,13.08355936811365,15.154621364342105,16.1285352613403,16.159200969851266,15.672628056844779,13.889369628767668,12.129165282655809,10.50792003164458,9.057692065381449,7.780667009519093,6.6670169085653646,5.702153393391329,4.870056015574878,4.1548901188159695,3.541791769886281
I,69.29863197233001,53.00335547055423,42.02816568838165,34.316646033103005,28.65722965082999,24.32877689808963,20.89632639049286,18.092836041216763,15.750461565060897,13.76048366491941,12.049853946721074,10.567406224292636,9.275281902416074,8.144911579888237,7.153793437099233,6.2835872867539,5.525434733211864,4.868274123360146,4.3006175330115886,3.8114878747571996,3.390870989457157,3.02989543754749,2.7208670110919533,2.457233999407787,2.23352987313876,2.045324782900561,1.8892125442609216,1.7628657953884028,1.6652146685324882,1.596862666451436,1.561005175427859,1.5655541782633908,1.6286653818128454,1.7963695703958575,2.223485415973278,4.009458477788247,6.599212518665279,9.139183727746136,11.344848337915312,13.040140103177869,14.205416584273484,14.615203516145831,14.453375632658444,13.891864665090145,13.070829045699146,12.098059670623899,11.053347320462162,9.99378145583378,8.958701674134433,7.973921677722954
A,7.699847996925557,6.159882372699833,5.093278216399651,4.315872258090525,3.7204773628247376,3.244180706626372,2.8496081490091756,2.5141536906191555,2.2237774090412383,1.96943148390704,1.74500054602475,1.5461150958725363,1.3694213184017503,1.2122791495640153,1.0725042711202435,0.948223719108026,0.8385134741864312,0.7421580680426902,0.6578487507961338,0.5842951330452777,0.5202850929560727,0.4647142583182634,0.41659814752801877,0.3750750900397564,0.3394051461522162,0.30896872472316145,0.2832681530569739,0.26193616750914933,0.2447578708538536,0.23171932249830762,0.2231131249181081,0.219780913346739,0.22374090673015043,0.24017927173045006,0.286535147624071,0.4857633920469763,0.7811177454634616,1.0795332405645175,1.3474832076166816,1.5627632908468396,1.7203902811822698,1.7929942019855445,1.7982712457276468,1.7538555259153432,1.67481608814734,1.5732737454517984,1.4586303158440308,1.3379696075162444,1.216478057226663,1.0978297773704366
IH,0.0,3.2629163843391513,4.123850847440364,4.036691870203531,3.6301037172362998,3.1607434008866324,2.72272801116559,2.342541880101016,2.0208270501036822,1.7500009756667507,1.5211609336992056,1.326424991970846,1.1594509135862985,1.015291355679282,0.8901324079036993,0.781011433970858,0.6855865332216059,0.6022720009085085,0.5297557339744462,0.4668420856919177,0.41241757372008275,0.36545505508978454,0.32502427496958025,0.2902987554951211,0.26055759783186394,0.23518368269196924,0.21366048871274085,0.19556989201707903,0.18059366528431753,0.16852263850819632,0.15928085169847167,0.15298085513576215,0.15005134601260303,0.15156110314345872,0.16021080019194817,0.18463768881027762,0.2809189978032068,0.4509015774297352,0.6553170734370967,0.8611738153129616,1.043718904928965,1.1896757846164978,1.281803027896022,1.320154879055034,1.312853787489147,1.2705521956069243,1.2036409914237733,1.1210621657928077,1.0299658214102707,0.9357721589572665
IN,13.032360117436628,25.93439663369889,35.64290912087137,43.19033288703195,49.21204742040995,54.109230113501,58.14342844550974,61.49177521013991,64.27941170945608,66.59866289238532,68.52048461417954,70.1013856279469,71.38768724244342,72.41812783347616,73.22568560702005,73.8387772755103,74.28208631291763,74.57838344099731,74.74813141032281,74.80942791509409,74.7781253121037,74.66803416322625,74.4911585541905,74.25793555052944,73.97746572679495,73.65773061159788,73.3057988369914,72.9280277787447,72.53027355320872,72.11813251532483,71.69725855173095,71.27384993728138,70.85553089834804,70.45326379682965,70.08655795975332,69.80384295300408,69.85982672090081,70.40228201545739,71.41698191939587,72.83633400113133,74.5603105842847,76.48619029527984,78.46987609075912,80.40329153782892,82.21177459665395,83.84776816268297,85.28446195071461,86.51031930097915,87.52465521319425,88.33418977548057
D,129.0,129.0,129.00326291638433,129.00738676723176,129.01142345910202,129.01505356281925,129.0182143062201,129.02093703423128,129.0232795761114,129.02530040316148,129.02705040413713,129.02857156507085,129.02989799006284,129.0310574409764,129.0320727323321,129.03296286474,129.03374387617393,129.03442946270718,129.03503173470807,129.03556149044203,129.0360283325277,129.03644075010146,129.03680620515655,129.0371312294315,129.037421528187,129.0376820857848,129.03791726946756,129.03813092995622,129.03832649984827,129.03850709351354,129.03867561615206,129.03883489700377,129.0389878778589,129.0391379292049,129.03928949030808,129.03944970110825,129.03963433879707,129.0399152577949,129.04036615937233,129.04102147644574,129.04188265026107,129.042926369166,129.04411604495056,129.04539784797848,129.04671800285755,129.04803085664503,129.04930140884065,129.05050504983208,129.05162611199788,129.05265607781928
R,0.0,1.6702892254000907,4.7930646783170605,8.230072207046355,11.543493694504233,14.594759579140462,17.365058047188224,19.877776495875974,22.16679462818302,24.264756604079984,26.199629000870754,27.994413522184995,29.66786209541981,31.235347981333916,32.70963014156424,34.10145350211428,35.41999124614203,36.673307637824436,37.86865870314721,39.01258729477283,40.11096134172785,41.16900813169534,42.1913586126206,43.18210175007801,44.144845307700805,45.08277961789224,45.9987423507892,46.89528406788555,47.77473638995498,48.63928740594016,49.491073795218675,50.33230931638341,51.16549431252834,51.99382336035463,52.82217228024467,53.66045014153503,54.54795984309713,55.54324075503694,56.68862045469444,57.99994475647232,59.471446855510024,61.08298658187711,62.801284291875724,64.58653788749295,66.40141844212822,68.21492543482046,70.00333315111547,71.74972357646404,73.44295108312706,75.07647552938484
G,7683.0,7683.0,7684.488322242991,7686.659545742413,7689.069541696394,7691.479713756933,7693.768070936604,7695.878262238942,7697.790340666137,7699.504016343684,7701.0291054230465,7702.380129246581,7703.572885238074,7704.6235577288035,7705.547680659312,7706.359658395954,7707.0790644802455,7707.7211861824335,7708.298283401342,7708.820425536401,7709.29606370022,7709.732436938358,7710.135875446979,7710.512042659461,7710.866146583804,7711.20314647701,7711.5279836009295,7711.845877090329,7712.162756304894,7712.485972399992,7712.825610325611,7713.197223009653,7713.628467572941,7714.179145450471,7715.0286699066655,7717.337486040843,7720.870047070233,7724.961794838607,7729.316499359167,7733.679483621027,7737.911093196375,7741.661222996143,7744.936097622461,7747.773236031005,7750.218812888657,7752.319592981228,7754.119687546539,7755.659268962757,7756.974184086961,7758.096004419041
H,3171.8518602401255,3171.851860240126,3171.851860240126,3171.851860240126,3171.851860240126,3171.8518602401264,3171.8518602401264,3171.8518602401264,3171.8518602401264,3171.8518602401264,3171.851860240127,3171.851860240127,3171.8518602401264,3171.851860240127,3081.406639995597,2991.9407350148167,2903.4943871057667,2816.109711968251,2729.830821075855,2644.703937968837,2560.777506279876,2478.102286095792,2396.731434409637,2316.720564426877,2238.127777348845,2161.0136589658578,2085.441231963071,2011.4758533040404,1939.1850444658085,1868.6382407461927,1799.9064444863768,1733.0617660453865,1668.1768359912637,1605.3240725748915,1544.5747905360706,1485.9981411210556,1429.6598793427595,1375.6209634076974,1323.9360031210904,1323.9360031210904,1323.9360031210904,1323.9360031210904,1323.9360031210906,1323.9360031210906,1323.9360031210904,1323.9360031210904,1323.9360031210904,1323.9360031210904,1323.9360031210902,1323.9360031210904
S0,15017.321493848016,14980.501078484636,14924.265379653003,14868.716998774418,14813.707724809185,14759.144723783364,14704.96769790902,14651.135811564882,14597.620125352212,14544.399170491493,14490.826249642021,14437.67252630646,14384.860200954277,14332.34550667473,14322.379111346318,14311.839344678981,14300.702087896885,14288.94360685742,14276.539986829897,14263.46674870123,14249.69854436209,14235.208865485189,14219.969711859203,14203.951157963153,14187.120726313404,14169.442408409239,14150.875030294337,14131.369342683944,14110.86246386562,14089.266336833949,14066.441006165183,14042.12274114792,14015.681969545027,13984.928160410058,13932.4826060166,13869.40017162844,13800.18993214255,13725.220386326093,13647.54959427993,13548.354655571473,13461.458654349432,13377.592047904878,13296.710772717797,13218.71429123245,13143.474332330317,13070.846119996117,13000.676060304831,12932.807355591853,12867.084075585377,12803.354047759005
E0,0.0,3.038278128009353,4.4410208528836845,4.936319486456103,4.942670498854615,4.697979763196923,4.336463060978296,3.9327568119598464,3.5273148456862713,3.1410617904657596,2.7838547041261763,2.4584958347817873,2.1659531446463376,1.9050357731454168,1.6735410354940312,1.4822011826178216,1.322239271058151,1.1874602429796544,1.073381530662341,0.9766886187679472,0.8948940785752953,0.8261261959245023,0.7690033908784568,0.7225704657509116,0.6862874213519075,0.6600756040713958,0.6444451054358002,0.6407630055532081,0.6518028841688205,0.6829268948815564,0.7448855297172512,0.8614976162421712,1.0960235172546136,1.6837785376168801,4.553314811880492,6.946842867223274,8.027087915443527,8.521048274507027,8.514478586669721,8.234657796534036,7.28095071720582,6.342954042566127,5.4812005715743215,4.712156884494125,4.036567229795725,3.4488603400922995,2.940983440997861,2.5041663600536124,2.129779494195602,1.8097486081511538
I0,69.29863197233001,53.00335547055423,41.36017853995216,32.833585332490316,26.445714629370293,21.56163913614236,17.759966577990454,14.75463152969921,12.346987458907977,10.396021248513314,8.79952806158171,7.481997496454082,6.386431706000753,5.469496992520133,4.697727859371544,4.044933353224463,3.4939789189979304,3.029389344117022,2.637655680347819,2.3072352574902917,2.028404695663281,1.7930554203646603,1.5944801908342305,1.4271759186663746,1.2866756397490036,1.1694169776676597,1.0726539970893492,0.9944241823259059,0.9335956064769515,0.8900513769358851,0.8651498693636044,0.8628326760492547,0.8925456241799479,0.9785936930918293,1.203101782641365,2.1495925505541953,3.519772643161347,4.859426918502161,6.017436525692208,6.901371317798559,7.501901016103265,7.70371781650583,7.60481915852376,7.296502659214754,6.85304366868492,6.3314529536717,5.773831201097292,5.210205052587454,4.661172567030084,4.140158265159953
A0,7.699847996925557,6.159882372699833,5.019057422129709,4.148479154452238,3.466875049868642,2.9217819446856113,2.478366457057151,2.1127883369680793,1.8082144646912055,1.5523919506407733,1.3361462156716897,1.152433303466205,0.995702112777002,0.8615407986068018,0.746384156862869,0.647313941886877,0.5623175231733466,0.4895214869750852,0.42724124959210047,0.3739946661631079,0.32849658457375286,0.2896442596074378,0.2564993430967797,0.2282697086253229,0.20429299872036855,0.18402312708610702,0.1670208647956641,0.1529501312265748,0.14158307411060317,0.13282061890788438,0.12674437054334547,0.12374212775983293,0.12483869457881866,0.1327517256304992,0.15671480516792988,0.2619713693970738,0.41798251678091647,0.5751988666776398,0.7157908385321684,0.8280673979633383,0.9094940797686231,0.9460242548707224,0.9471085135724494,0.9221233169638413,0.8790638361655749,0.8243485396559218,0.7629450675095227,0.6985859511191278,0.6339941123521472,0.5710890020163389
IH0,0.0,3.2629163843391513,4.123850847440364,4.005239788840527,3.5445794231820793,3.013937902988851,2.519181773603359,2.0932972448883596,1.7392750850693777,1.4492544433260348,1.2126731722225315,1.0194484597504645,0.8609935860272722,0.730340042179376,0.621970181189467,0.5315549789718814,0.45570105513714076,0.3919083347438126,0.33820063217862173,0.2929557638842551,0.2548207752552638,0.22266271796313553,0.19553445969674188,0.17264757194067565,0.1533495167186239,0.13710435120058118,0.12347690591964654,0.11212073933112404,0.10277057232779292,0.09524073401551988,0.08943307074611602,0.08536256277695056,0.08322227457754693,0.0835533007688499,0.08777004411596169,0.10044513101060462,0.15133538466581825,0.24124435906963543,0.3491863712947534,0.4575741556237817,0.5532796059359855,0.6293124824099587,0.6767554035622891,0.695772791752413,0.6907454292548294,0.6673565708854214,0.6311265047674182,0.5867921596237826,0.5381310631043758,0.48799805822540643
IN0,13.032360117436628,25.93439663369889,35.64290912087137,43.06471065143531,48.808775740833475,53.29409174052282,56.81605115732075,59.587845180642645,61.766735378986525,63.4710530680502,64.79142720272422,65.79835971912726,66.54744698316861,67.08301033312028,67.44077852154497,67.64982946350165,67.7340248017698,67.71376522358834,67.60633712758471,67.4263135440181,67.18595104839525,66.89555506331449,66.56380305167825,66.1980243323145,65.80444001534124,65.3883689386762,64.95440680829647,64.50658697016739,64.04853336441248,63.58362082061105,63.11516843712287,62.64671757861501,62.1825154553317,61.7285431957706,61.29529293238761,60.908596355361894,60.70376460905988,60.75865842267683,61.06493982925791,61.585934700912105,62.26795315838275,63.05608756099403,63.87429446001929,64.66572032367834,65.39124966361443,66.02612643234909,66.55656363652933,66.97682964399846,67.2868969748782,67.49061211269604
D0,129.0,129.0,129.00326291638433,129.00738676723176,129.01139200702062,129.0149365864438,129.0179505243468,129.0204697061204,129.0225630033653,129.02430227845036,129.02575153289368,129.0269642060659,129.02798365452566,129.0288446481117,129.02957498815385,129.03019695833504,129.03072851331402,129.03118421436915,129.03157612270388,129.03191432333605,129.03220727909994,129.0324620998752,129.03268476259316,129.03288029705286,129.03305294462479,129.0332062941415,129.03334339849272,129.03346687539863,129.03357899613798,129.03368176671032,129.03377700744434,129.03386644051508,129.03395180307785,129.03403502535244,129.03411857865322,129.03420634869732,129.03430679382834,129.034458129213,129.03469937357207,129.03504855994336,129.035506134099,129.03605941370492,129.03668872618732,129.03736548159088,129.03806125438263,129.0387519998119,129.03941935638278,129.04005048288755,129.04063727504717,129.04117540611028
R0,0.0,1.6702892254000907,4.7930646783170605,8.215228086509939,11.478188776621835,14.43193946576988,17.0562042151939,19.37962762548721,21.444711276373486,23.29365813211906,24.963473473145637,26.484952884613413,27.883146777412573,29.178257948767484,30.38656578812667,31.521235109977667,32.59297334829069,33.61062733820697,34.58162320248713,35.51223491920115,36.40777467673585,37.27274372217101,38.11095933417411,38.92566433073708,39.719622183908044,40.49519983669558,41.25444023209522,41.99912683987017,42.73084302651998,43.45103018805578,44.16105081848064,44.862267846899954,45.556164665742855,46.24456863205091,46.93018099098411,47.61836182249324,48.330064490185016,49.096366116175105,49.93961435631737,50.86801473842625,51.878274215337996,52.95949189630389,54.093913375694065,55.26045523583124,56.43942302227732,57.614520546944405,58.773329379059774,59.907046887429104,61.00992809324957,62.07866108971221
G0,7683.0,7683.0,7683.820335094562,7685.019410724841,7686.3522169861835,7687.686738020874,7688.955192556938,7690.126037583402,7691.187881922631,7692.140256930967,7692.988343614393,7693.739984384507,7694.403778259898,7694.988585608952,7695.502945267702,7695.954801347285,7696.354995666592,7696.7120002697775,7697.032614535382,7697.322427548661,7697.586133475728,7697.827754876944,7698.0508089498435,7698.258439865381,7698.453533891134,7698.638831494899,7698.817051907999,7698.991052086466,7699.164058097966,7699.3400448766915,7699.52443513831,7699.725554231333,7699.958158587719,7700.254084937377,7700.708705142534,7701.938100141742,7703.8137477158925,7705.9810614530625,7708.281744487179,7710.58065370558,7712.804011310644,7714.7698680042895,7716.482465595783,7717.962389750108,7719.234672108922,7720.324545260966,7721.255737552791,7722.049803081861,7722.725927999075,7723.300968462508
H0,1110.148151084044,1107.650317744105,1103.6627766002262,1099.6895906044654,1095.7307080782894,1091.7860775292074,1087.8556476501024,1083.939367318562,1080.0371855962153,1076.149051728069,1072.274915141848,1068.4147254473373,1064.568432435727,1060.7359860789584,1014.6406430679111,969.3614415509936,924.9136820607862,881.3135116234005,838.57794259625,796.7248669356809,755.7730643223422,715.7422022477931,676.6528257926009,638.5263344028666,601.3849425006279,565.2516202504913,530.1500102636019,496.104315473705,463.1391529046038,431.27936761653353,400.54980084448755,370.9750063224353,342.5789091486072,315.3844024397581,289.41287861837344,264.6836946552884,241.2135741136217,219.01595351702755,198.1002864002086,197.38712536916785,196.67653171783886,195.96849620365464,195.26300961732147,194.5600627826991,193.85964655668138,193.16175182907733,192.46636952249264,191.77349059221166,191.0831060260797,190.3952068443858
S1,4290.663283956576,4017.1633985488415,3783.5683740395903,3566.6040306597206,3365.0373587827135,3177.7412815697603,3003.6794105703075,2841.8953543785824,2691.504651119314,2551.688289466282,2421.581957119859,2300.6215548708205,2188.1397904040905,2083.5235828116047,1992.0872006609943,1906.821180632266,1827.3026152324262,1753.1373452934279,1683.9579198882477,1619.4217294034902,1559.2092819879858,1503.0226033709603,1450.583744739849,1401.6333849883356,1355.9295127674307,1313.2461697137362,1273.3722263703257,1236.1101396449696,1201.274586073158,1168.6907215236504,1138.191389314351,1109.611076045256,1082.76744499582,1057.3730467992827,1032.0366001435827,1007.5376693571673,984.1256007680915,961.7395835169148,940.5071829265778,919.0631629088368,899.6421462468677,881.5102246303477,864.5768982296219,848.7550670223511,833.9625008170442,820.1220912210277,807.1618657782645,795.0148795832665,783.6190296117065,772.9168212451746
E1,0.0,0.8680794651455295,1.2282373131151856,1.3230966673859255,1.2829180606279067,1.17928808583559,1.051116543856876,0.9190529316172102,0.7935452941430653,0.679374051623134,0.5782145493585099,0.4899431547767758,0.4138712594502703,0.3488622670752993,0.29363243600683625,0.24876082045458775,0.21206403851100825,0.18190873033549648,0.1570470982902828,0.13651027706238333,0.11953743534779723,0.10552751789314041,0.09400588568752298,0.08460136811490832,0.07703136389690815,0.07109427874773756,0.066670388977645,0.06373513325496004,0.062395078260941414,0.06297280657077567,0.06621480548617462,0.07386788311813415,0.09066250643889624,0.13427183782900284,0.3491424678162918,0.5228831053196343,0.5958874759513909,0.6240762000413334,0.6155164454457404,0.5876079667751144,0.5142114387241441,0.44323866127949824,0.3788720221280914,0.3221251234938223,0.27287721551557215,0.2305605352892944,0.19444493287658052,0.1637694619287549,0.1378054206156223,0.11588532213081167
I1,0.0,0.0,0.23438145558929296,0.5108917347059581,0.7479938316368674,0.9184941621597211,1.0209219770202893,1.064658013581178,1.0624525331618095,1.0268785998989487,0.968843489199067,0.8971420206040356,0.8184675687141741,0.7377536654848382,0.6584668629604356,0.5829119580752403,0.513008129272514,0.4496337552894026,0.3930196607081517,0.3430054873369176,0.2992069908913476,0.2611248560327535,0.22821489436735476,0.19993272853846555,0.17576177312692282,0.15523061321717593,0.1379242546348308,0.12349296191194623,0.11166260681839699,0.10225229420721854,0.09521076294578028,0.09070035730870009,0.08931688519971,0.09279327892833414,0.10722673303641936,0.17628129232613965,0.2760079398859373,0.3719954734725406,0.45302290515580546,0.512685949578988,0.5507841954022201,0.5601067393214062,0.548074477056461,0.5214925571579757,0.48583959924182074,0.445273346523658,0.4028205707255367,0.36059917067937997,0.3200235748636171,0.281978865463829
A1,0.0,0.0,0.026042383954365884,0.05768104000171069,0.08583776180162866,0.10715779557514281,0.12110493435696455,0.12841750632347534,0.13030565930471646,0.12805095354027166,0.12282205048909298,0.11560414028071347,0.10718166655020592,0.09816152635777918,0.08899513977580908,0.08000513084589769,0.07146697059417724,0.06353553452654312,0.05628572233245034,0.049740019872997907,0.04388734988928414,0.038696025629348874,0.03412266601766372,0.03011832700108314,0.026632718193341526,0.023617129221111595,0.021026543932010526,0.018821357670199268,0.01696914985060998,0.01544718098888856,0.014246936963067716,0.013384001090229438,0.01292324427541431,0.013058477285312611,0.014474943704750474,0.022054236471190983,0.03332989372236465,0.0445405564634796,0.054354754166738795,0.06194932475820178,0.06718773079206176,0.06917656248202454,0.0686384455374189,0.06627695252938141,0.06268534994476797,0.05833462878351225,0.05358454920159576,0.04870101501138295,0.04387392100958183,0.03923332207668893
IH1,0.0,0.0,0.0,0.011035818022106469,0.029562138994831233,0.049970692198997,0.06818254443983486,0.08209305803043035,0.0910937094703917,0.0954811898021623,0.09599554882052305,0.09351963890852236,0.08890810625212142,0.08290257590407249,0.07610541342710318,0.06898042135469473,0.06186755819202404,0.05502682748148292,0.048629329330586946,0.042771311036125095,0.03749324955618287,0.03279725080451189,0.02866085543925816,0.02504723321450389,0.021912373905911477,0.01920999305939914,0.016894798227081294,0.01492464853486248,0.013262048441025381,0.01187538038091663,0.010740349767105393,0.00984241997721053,0.009181981194105404,0.008787281650775622,0.008754012090657686,0.009417007746098317,0.012999266834412788,0.019482429357716245,0.02723708703714185,0.03492182649582616,0.04156573757931692,0.046674899780663096,0.049663322394377304,0.05058800789443926,0.049797819982122175,0.047724801681946566,0.0447803092203574,0.041312124477123596,0.03759351158023686,0.03382742749644642
IN1,0.0,0.0,0.0,0.044077977402328564,0.13971593508979568,0.2789871367450026,0.44893006466005836,0.6364362259389729,0.8302923621223914,1.0217951724062193,1.204692890211041,1.3748474981836785,1.5298163204446638,1.668439869636862,1.790498057524256,1.8964249195014842,1.987083592695903,2.063689505206365,2.127611119508809,2.1802466225231694,2.222950062201195,2.256989684705706,2.2835271520673888,2.303610169160921,2.318173587740006,2.3280457615441685,2.33395810608252,2.3365566785489946,2.336415304013764,2.334050516506414,2.3299396654198694,2.324545686440593,2.318357416501596,2.311970852311541,2.3063019273472505,2.3034040593815965,2.3135216296951744,2.3422927031111507,2.3888275636202927,2.450135163766965,2.5220499711774442,2.6004104192734188,2.679740468487268,2.7560144196558203,2.826526612675952,2.889628757945692,2.9444709575114,2.990781029682954,3.0286878084564988,3.058584838120032
D1,0.0,0.0,0.0,0.0,1.1035818022106468e-05,4.059795701693771e-05,9.05686492159347e-05,0.0001587511936557696,0.00024084425168619994,0.00033193796115659163,0.0004274191509587539,0.000523414699779277,0.0006169343386877993,0.0007058424449399208,0.0007887450208439933,0.0008648504342710964,0.0009338308556257911,0.0009956984138178152,0.0010507252412992982,0.0010993545706298852,0.0011421258816660103,0.001179619131222193,0.001212416382026705,0.001241077237465963,0.001266124470680467,0.0012880368445863785,0.0013072468376457776,0.001324141635872859,0.0013390662844077214,0.0013523283328487467,0.0013642037132296633,0.0013749440629967687,0.0013847864829739792,0.0013939684641680846,0.0014027557458188601,0.0014115097579095177,0.001420926765655616,0.0014339260324900288,0.001453408461847745,0.0014806455488848868,0.001515567375380713,0.00155713311296003,0.0016038080127406932,0.0016534713351350706,0.00170405934302951,0.0017538571630116321,0.0018015819646935787,0.001846362273913936,0.0018876743983910597,0.0019252679099712965
R1,0.0,0.0,0.0,0.005208463346110751,0.02270333035284706,0.0560490672464837,0.10525578850667819,0.1680572857223917,0.2411516119642718,0.3210624549094283,0.40463112613444435,0.48924017613595105,0.5728692389458598,0.654057733252302,0.731825674494936,0.8055823437938466,0.8750377885315669,0.9401357607775023,1.000993143674465,1.0578410349430074,1.1109771349818869,1.1607307077023594,1.2074384151001518,1.2514286299276611,1.293011998077711,1.332476450797204,1.3700853185938784,1.4060775966993848,1.4406697495695442,1.4740587480397442,1.506426371618211,1.5379453231933857,1.568788783354756,1.5991479903000934,1.6292730283640289,1.6596080349508784,1.6917614153261589,1.7280622265777437,1.770134456585694,1.818512198512377,1.8728642963673532,1.9323051763405477,1.995482007206604,2.0608387267605455,2.1269482311937513,2.192649444938295,2.2570750289993207,2.3196267753611237,2.379930825756179,2.437789221182224
G1,0.0,0.0,0.23438145558929296,0.5660055301303931,0.9232416303245929,1.2696295066941277,1.588037289869737,1.8718387567110937,2.1199830482477404,2.334240277666368,2.5176712716046143,2.673789199931412,2.8060738517211417,2.9178190917727145,3.0120119038830455,3.0912926616048915,3.15845808312763,3.2157153735256023,3.2648307307161866,3.307233447254563,3.3440912220614063,3.3763663296053115,3.4048587594364594,3.4302403485720907,3.453082717963116,3.473881186215281,3.49307664147717,3.511077646501134,3.5282861324799732,3.5451328036104273,3.562135461384537,3.580013458865804,3.5999577873077,3.6244366640462022,3.660690060260033,3.754958526570432,3.8961369650067335,4.0570265835136095,4.22552715752477,4.39171659779512,4.550370748824401,4.68920783727992,4.808882275825384,4.9111777217999695,4.998151505143301,5.0718283533325055,5.134079697860615,5.186579829737292,5.230797584458056,5.268005048024274
H1,317.18518602401264,297.02693464795084,279.79826617411885,263.78586172887117,248.9028969886993,235.06874918144547,222.20855411901877,210.25279487062923,199.13691981650254,188.80098798347018,179.18933971372908,170.2502908572591,161.93584880763672,154.2014488210027,141.1254808026113,129.15173821629568,118.18281226376341,108.13001105254443,98.91261952694678,90.45722085685999,82.69707413804466,75.57154365140929,69.02557528715712,63.00921606531513,57.47717297972415,52.38840766083317,47.70576359655492,43.395622873317535,39.427589605131686,35.77419741156608,32.41063849149592,29.31451202495915,26.465589828186847,23.845597395683743,21.43800869760926,19.227853369993433,17.201535247358105,15.346661546424048,13.65188241391687,13.389908986820702,13.144080567662513,12.913253184156552,12.696364543049956,12.49242819602589,12.30052812232747,12.119813698336705,11.94949502646876,11.78883859771625,11.637163264011338,11.493836498275844
S2,4290.663283956576,4545.6976915105,4778.235303398284,4991.37097904477,5186.509182751002,5364.9548357777385,5527.920001367839,5676.530222505009,5811.830516593915,5934.791022215444,6046.132275020566,6146.9055478046985,6237.871045045121,6319.740912429204,6412.096772224328,6496.797426354098,6574.337242476664,6645.176291506329,6709.742493719232,6768.433659725414,6821.619408736626,6869.642954948655,6912.822754937627,6951.454005482088,6985.809970678028,7016.143094546784,7042.685807834986,7065.650833505622,7085.23054884208,7101.594317354702,7114.880783995666,7125.175313555908,7132.431565714737,7136.080232815307,7130.550602864092,7119.388844283638,7104.093757147532,7084.952350999222,7063.119805754688,7029.001425572139,6997.798646064603,6966.470201995056,6935.114340681808,6903.796636322567,6872.563186656748,6841.445943950453,6810.466332994702,6779.637963382005,6748.968703746916,6718.462272222713
E2,0.0,0.30382781280093535,0.45846032539027,0.525719857232915,0.542745963066449,0.5316407649789996,0.5054648580121179,0.47187670694865175,0.4353251508439221,0.3983609048573986,0.3624160690962568,0.32813877548099263,0.29600932546559633,0.26622685821970343,0.2388334320800385,0.2158718122912109,0.19634343703465057,0.1795795921474105,0.16512199957510484,0.1526495165496903,0.14193387199017993,0.13281392016969348,0.12518216321124961,0.11898021331463163,0.11420213443843802,0.11090689970500874,0.10924449836142949,0.10950651983762942,0.11222643007976148,0.11839238914546699,0.1299486711239896,0.1511686670450853,0.19336801513347496,0.2986076545655978,0.8117220649883546,1.241639833511101,1.4376478497552303,1.52923352199679,1.5311254404885162,1.4837906656517048,1.3140585903306297,1.1465955403516215,0.9923787627901401,0.8544525432272282,0.7330307631834746,0.627185415364935,0.5355331679565118,0.4565512319668727,0.38873158001382685,0.3306563056593841
I2,0.0,0.0,0.08203350945625255,0.1865279689130732,0.2846110773766256,0.3642274115506563,0.4221239022573595,0.4593387862643915,0.4787339489016384,0.4836995019660747,0.47751708007854543,0.4630833225630049,0.4427887320312396,0.418591376036991,0.39204265851095665,0.3643405331451199,0.3369528065676826,0.310732525273837,0.28615159270503915,0.2634472111549683,0.2427140972665122,0.22396306227778928,0.20715886586432133,0.19224552988621166,0.179164474517347,0.1678692919956484,0.15834040988855685,0.15060335523391385,0.1447563816420258,0.14101867461301776,0.1398246823309965,0.1420316483544165,0.1494490546685758,0.16651611364062804,0.2079846294404064,0.3782428921739498,0.6245434511441529,0.8658496529654166,1.0751418664497543,1.2357307303260066,1.3457774214590281,1.3841194441661648,1.3682304809585333,1.3144392094550377,1.2360566457752167,1.1433215256198326,1.0438144278728234,0.9429598911711649,0.844495744097024,0.7508737134574255
A2,0.0,0.0,0.00911483438402806,0.0210456819745974,0.032608152161807166,0.042368917455875704,0.0498443787876452,0.05503947450337083,0.058187909226091655,0.059610111946552,0.05963894747755757,0.058583670844414536,0.056711130184640156,0.0542492131896322,0.05138620430524832,0.04827399293548096,0.045095373639277514,0.041966625303609145,0.03896070967319506,0.03612224783984662,0.0334773024170079,0.031039875376459775,0.028816333931049244,0.026808546918031643,0.025016257774169548,0.023439083167498525,0.022078485625919318,0.020940134849920154,0.020037314285716548,0.019396654675523275,0.019069105428589906,0.01915375432129679,0.019858073356796402,0.021687509391462804,0.026308248346632777,0.04539827420897567,0.07356783781003803,0.10198374372116191,0.1274640532874357,0.14790507164978983,0.16283785364754413,0.1696921246953829,0.17015165357290155,0.16589277358531054,0.15834788080964118,0.14866930929263159,0.1377510866477633,0.12626693547292353,0.11471015052450116,0.10343012704081228
IH2,0.0,0.0,0.0,0.003862536307737265,0.010710048919191813,0.018745187142297327,0.02650344506361477,0.033100863925543414,0.038145233540888404,0.04157559249632212,0.043521143985925784,0.04420087571022681,0.043860450388815975,0.04273501019956541,0.04103408642586413,0.038935282814997585,0.03658362911873005,0.03412060665278216,0.0316569801684948,0.02927024078425973,0.02701022520494307,0.024906261666142685,0.022973494003055102,0.02121781970369912,0.01963954589171623,0.018236067598892403,0.01700389984310862,0.015940382053040665,0.015045388540600634,0.014323482844918054,0.013787262490605124,0.013463469574367566,0.013405811595393927,0.01372628780172254,0.014689805510924959,0.017123140108496027,0.026353960536673895,0.04255716726641044,0.06200443615349638,0.0815631178983384,0.09888420426156236,0.11270895940184467,0.12141284098797875,0.12500794829134498,0.12426915234796987,0.12020986113522508,0.1138178546708267,0.10594296567905467,0.09726467433159025,0.08829803636958314
IN2,0.0,0.0,0.0,0.015427292090815,0.05035162885761062,0.10337231569132443,0.17083551169242947,0.24851213939294536,0.33241066379586276,0.419117673861908,0.5058914399920548,0.5906347969024143,0.6718162954356106,0.7483693608956679,0.8196063201957845,0.8851381353327824,0.9448049468814725,0.9987245309833233,1.0471739106733322,1.0905160853217672,1.1291550327718245,1.1635085035813018,1.193992103973124,1.2210106567823653,1.2449544093187865,1.2661986898467494,1.2851063458644645,1.3020329155867194,1.3173351824827668,1.3313848398453245,1.3445910842471775,1.3574407229932073,1.3705769092735045,1.3849766574791345,1.4024420539394107,1.4275314010547846,1.4843887694994966,1.58699705845854,1.7339595156411927,1.918812021282684,2.132016481232504,2.3637843716269873,2.6004452167668286,2.83175136141765,3.0506284120040577,3.252575999985351,3.4350642659166897,3.597014259109127,3.73837796176549,3.8598107755130475
D2,0.0,0.0,0.0,0.0,3.8625363077372655e-06,1.4572585226929079e-05,3.33177723692264e-05,5.982121743284118e-05,9.292208135838459e-05,0.000131067314899273,0.00017264290739559514,0.00021616405138152092,0.00026036492709174773,0.0003042253774805637,0.0003469603876801291,0.00038799447410599325,0.00042692975692099083,0.0004635133860397209,0.000497633992692503,0.0005292909728609978,0.0005585612136452575,0.0005855714388502005,0.0006104777005163432,0.0006334511945193982,0.0006546690142230974,0.0006743085601148137,0.0006925446277137061,0.0007095485275568147,0.0007254889096098554,0.000740534298150456,0.000754857780995374,0.0007686450434859791,0.0007821085130603467,0.0007955143246557406,0.0008092406124574631,0.000823930417968388,0.0008410535580768841,0.000867407518613558,0.0009099646858799684,0.0009719691220334648,0.0010535322399318032,0.0011524164441933655,0.0012651254035952102,0.0013865382445831889,0.001511546192874534,0.001635815345222504,0.001756025206357729,0.0018698430610285556,0.0019757860267076103,0.0020730507010392005
R2,0.0,0.0,0.0,0.001822962171138763,0.008117628775693234,0.02049778312179018,0.039377861467452584,0.06430678914082218,0.09435020898326207,0.1283844841965222,0.16528544879801874,0.2040326938969329,0.24375618364527463,0.28374676855301456,0.32344778189272894,0.3624381026397874,0.40041189906555374,0.4371708145404414,0.4726116665715021,0.5067040175830844,0.5394687297477613,0.5709608358782046,0.6012570107975903,0.6304469307482042,0.6586276427111785,0.6859001983900486,0.7123680236206917,0.7381367227277328,0.7633152590694529,0.788018757677167,0.8123736684193766,0.8365270217481637,0.8606639047411325,0.8850441840509023,0.910094585208353,0.9367255445905173,0.9686420600595838,1.0113764576044486,1.068921707915869,1.1427562660013306,1.2323068831351236,1.3356366367403099,1.449567297490532,1.570308413023485,1.6943083698558201,1.8186187245623595,1.940983200235642,2.059792916443757,2.173987863781804,2.2829459514493577
G2,0.0,0.0,0.08203350945625255,0.20581779731162547,0.34776215876451255,0.49430356879245374,0.6378465753367837,0.7743220870000556,0.9017287978761915,1.0192665886040504,1.1268240329155481,1.2246763715715374,1.3132738409514055,1.3931963588271166,1.4650776105464365,1.5295626372080469,1.587848026526674,1.6408607545260296,1.6893472444058304,1.7339301842911088,1.775145553759525,1.8134676991968737,1.849327457642691,1.8831266417097283,1.9152512993046789,1.946085875603057,1.9760307385234093,2.005526753080995,2.035093513437155,2.0653946495586903,2.0973605946279665,2.1324467358314436,2.1732622759336166,2.225471640019655,2.3060957067523664,2.525260664299222,2.8605034193472196,3.248668338781132,3.6615613897202652,4.074965258652164,4.475588738378125,4.830384557767395,5.139965353662333,5.4079076196156715,5.638609806287023,5.836528112346561,6.0058681744950935,6.150462129843351,6.273730962474407,6.37868848907814
H2,317.18518602401264,336.0652566206801,353.28068937385893,369.0605573223215,383.50882652530845,396.7220236134857,408.78976732152364,419.7952620523878,429.8157561853805,438.9229676462571,447.1834790778591,454.6591047826748,461.4072314536376,467.48113456544934,454.0130612783807,439.80245827209626,424.9727232034116,409.6373065912617,393.90060860863133,377.8587993203586,361.6005676090116,345.2078033694064,328.75621690538867,312.31589882650957,295.95182311538605,279.72429541976294,263.6893480213713,247.8990823566503,232.40195942930615,217.24303798752786,202.464159976524,188.1040825698497,174.19855609477378,160.78034747535145,147.87920951016415,135.5217974715643,123.7315362421679,112.52844354589455,101.92891778317406,101.69061274389225,101.43643228171405,101.16771860462192,100.88571622962571,100.59157897996707,100.28637648230264,99.97110019958433,99.6466690328038,99.31393452239915,98.97368567792175,98.62665346251873
S3,12871.989851869728,12815.282470300288,12762.208324493327,12712.42794026327,12665.657850145604,12621.643100616708,12580.151934264291,12540.972263048678,12503.909185721544,12468.78313242718,12435.103769053245,12403.121058697812,12372.659438775278,12343.570560002498,12352.15321338958,12362.753971067612,12375.302118449032,12389.735886101673,12406.001774693248,12424.054016854183,12443.854109209507,12465.370369457545,12488.577480953923,12513.455983953843,12539.99165720309,12568.174698667879,12597.99854053271,12629.457972140712,12662.545862971027,12697.246780232996,12733.522823404975,12771.276435161915,12810.2265283353,12849.298399567715,12879.646125110337,12906.524410188273,12932.03510233324,12956.480093260272,12981.525564710833,12929.64813333897,12884.272419201248,12840.3020661903,12797.73967614077,12756.545960683357,12716.661613852475,12678.015337031293,12640.528879024989,12604.120600221713,12568.708049663199,12534.209819932585
E3,0.0,0.5208476790873175,0.7605409051156584,0.8449471083504249,0.8457756851063505,0.8037588197370951,0.7418547347567204,0.6728154594434674,0.6035413185387626,0.5375921284536337,0.47663665108496567,0.4211408092509492,0.37125776068008887,0.32677490818539956,0.2873094220631899,0.25471231966577856,0.2274838713750963,0.20456518308317548,0.18519020245903056,0.16879304346659832,0.15494997010705747,0.14334349808716781,0.13374120592782257,0.12598524706788272,0.1199911035688382,0.11575660351804565,0.11338568487267438,0.11313790479016093,0.11552952353065019,0.12155073680394843,0.13318016300452107,0.15479659566841064,0.1980295631639535,0.3061668448829169,0.8344435338597934,1.279195775504443,1.484360683246023,1.5829564056053784,1.5894565472009017,1.5453240108684998,1.3712124593027837,1.1984190203380218,1.0387567701942895,0.8956236274812204,0.769387054062223,0.6591757036455373,0.5636128601202893,0.4811564495023657,0.4102665314079288,0.3494881502560895
I3,0.0,0.0,0.14062887335357574,0.3129066404801425,0.4674637034071462,0.585901050679929,0.6651438093597914,0.7090388697886637,0.7239715904259543,0.7166889277180609,0.6933124706312495,0.6589749084173346,0.6177277995948223,0.5727113486361405,0.5262699531410573,0.4800933716348298,0.43597379784787427,0.394877071833999,0.35725601908590754,0.3232501509917829,0.29281338420466785,0.2657960629595853,0.24199800164454088,0.22120333363744557,0.2032043338563288,0.18781930303915967,0.174908681310741,0.16439378895122805,0.1562845278724196,0.15072786186420403,0.14810354965237216,0.14923627829135988,0.15593908746162438,0.17273866098747556,0.21478495281553198,0.38957894522853487,0.6433539842135478,0.8928494347917,1.1102979437941574,1.2783694054689387,1.3950037979723735,1.437201993701788,1.4228232359201076,1.3687167739076633,1.2886872661665674,1.1933924795807285,1.0907487892998178,0.9864393554130144,0.8843946072798303,0.787204966726308
A3,0.0,0.0,0.015625430372619525,0.035316579518422826,0.05360169509795283,0.06825465430421353,0.07871652327294938,0.08522890129962002,0.08836762882366955,0.08880038823618212,0.0871681202870567,0.08403364076401407,0.07986118027233848,0.0750267182677783,0.06982466059342762,0.06447904718464226,0.05922464062594036,0.05420425921759397,0.04950039085031374,0.045156044309324225,0.041188650063927065,0.03759944041859768,0.034379876688755404,0.031516155277954254,0.028992497905076985,0.026793746398928727,0.02490770905734865,0.02332775065102903,0.022056349707821245,0.021110976859090323,0.020535314490241943,0.020423667083986283,0.02098284208125883,0.022727171392625443,0.02736675419382321,0.04692672349934034,0.07591727629121439,0.10526468072375883,0.13170049109160273,0.15304415728161813,0.1687951251626389,0.17617256105215207,0.17689071040352916,0.17267536275107398,0.16500908817148277,0.15508896734741326,0.1438465250542493,0.13198568010988507,0.12002330571252093,0.1083267024760454
IH3,0.0,0.0,0.0,0.00662149081326388,0.018037289274679492,0.031011070376253908,0.04306159306058925,0.05280593807821948,0.05973515901683124,0.06389594532576635,0.06562927453992493,0.06539352860865244,0.06365911207949757,0.06085152388729695,0.05733094408847753,0.05338748816395665,0.04924548578230102,0.04510126263900799,0.04109826169984293,0.03732938222964939,0.033847549835764754,0.030677004568310736,0.027822795691556525,0.02527801707685845,0.02302905851634443,0.021059347809884027,0.019352060145298028,0.01789222878412428,0.016668680700276738,0.01567630678386921,0.014919477358539877,0.014418254102220354,0.014221478066697234,0.014438887656333747,0.015338380609021436,0.017766971356492238,0.027208988800407626,0.043869517686038244,0.06393057996010675,0.08417958263761063,0.1021974562159838,0.11668008917334766,0.12589381915708017,0.12981444862189429,0.1292232475360957,0.12516006002673508,0.11864558777481066,0.11056190233473956,0.1016167482093104,0.0923483536215319
IN3,0.0,0.0,0.0,0.02644678644139713,0.08502780954573337,0.17208915612801903,0.28055331827305363,0.40283529990477984,0.532149404402378,0.6629786280953459,0.7911299757613176,0.91360361339733,1.0283949632798453,1.134281433029725,1.2306432057358525,1.3173075520779765,1.3944212474654258,1.462466641042283,1.522102895169431,1.5740677393343718,1.619117762360955,1.6579933207110693,1.6913992228905688,1.7199955822424988,1.7443953149145268,1.765166142935909,1.782835940596675,1.7979010576942227,1.8108380839524336,1.8221207053599693,1.8322455091818783,1.8417755345619835,1.8514232816068807,1.8622350872181763,1.8760981169678148,1.8977297780946876,1.9520170306214093,2.0534865619388345,2.2008617261956673,2.3876566917656556,2.604191370799243,2.8404950668520157,3.082371554796862,3.3191251963512847,3.5433359938750266,3.7502542656126923,3.937182135400301,4.102937466130471,4.247418722023713,4.371264542572053
D3,0.0,0.0,0.0,0.0,6.62149081326388e-06,2.4658780087943372e-05,5.566985046419728e-05,9.873144352478653e-05,0.000151537381603006,0.00021127254061983726,0.00027516848594560364,0.00034079776048552855,0.00040619128909418097,0.00046985040117367854,0.0005307019250609755,0.000588032869149453,0.0006414203573134096,0.0006906658430957107,0.0007357671057347186,0.0007768653674345616,0.000814194749664211,0.0008480422994999757,0.0008787193040682864,0.000906542099759843,0.0009318201168367014,0.0009548491753530459,0.0009759085231629299,0.0009952605833082279,0.0010131528120923522,0.001029821492792629,0.0010454977995764982,0.001060417276935038,0.0010748355310372583,0.0010890570091039555,0.0011034958967602892,0.0011188342773693107,0.0011366012487258029,0.0011638102375262104,0.0012076797552122488,0.0012716103351723554,0.001355789917809966,0.00145798737402595,0.0015746674631992976,0.0017005612823563778,0.001830375730978272,0.0019595989785143675,0.0020847590385411024,0.002203404626315913,0.0023139665286506525,0.002415583276859963
R3,0.0,0.0,0.0,0.0031250780076664494,0.013763588949695106,0.034352823029422004,0.06523014540220615,0.10530973913126228,0.1527867974286743,0.205649351124764,0.2619871418713351,0.3201466579545023,0.3787861431620059,0.4368718436595159,0.4936457248533743,0.5485825250256526,0.601345120777086,0.6517569736924901,0.6997730952821923,0.7454433076985686,0.7888798617561321,0.8302325230461651,0.8696708272098885,0.9073721748732083,0.9435143540189763,0.9782713210395072,1.0118113918209297,1.0442973102520454,1.0758879733079625,1.1067419530522755,1.1370234979707767,1.1669127440382567,1.1966243493077666,1.226445878740736,1.2568330959863743,1.28873660417084,1.3259827081032922,1.3742907888745464,1.4378132951372713,1.518127232605293,1.614702343286789,1.7256019229923438,1.8475813395063014,1.976730015391094,2.109363475069582,2.242410191222316,2.373510477294341,2.5009743232837223,2.623681716994832,2.7409688774984375
G3,0.0,0.0,0.14062887335357574,0.3459749177348035,0.5741106369894182,0.8024700719681328,1.0194849532971484,1.2197857316814629,1.4014459057311992,1.5644020617366652,1.7095519364191463,1.838243832212087,1.9519518507098435,2.0521914460934676,2.1404206713035254,2.2179942152605867,2.286766541570347,2.348187186841623,2.40341978627408,2.453421140938018,2.4989952626739997,2.5408317546029053,2.579534499086441,2.615644624686953,2.6496606413952812,2.6820582393588674,2.71331252230874,2.743926657224362,2.7744738915177054,2.805666862870981,2.838485561808047,2.874444205819268,2.9162392866497386,2.9697072687040063,3.0523723168223937,3.277672070964538,3.6230549303507376,4.023832314827164,4.451230544340616,4.880383812084859,5.297621295019354,5.6678486590311055,5.991421794522371,6.27188612247483,6.513704501894759,6.7214390064915595,6.899416446475855,7.051591918708333,7.181504160073971,7.292276123554112
H3,951.5555580720377,947.4019425407708,943.507703217463,939.8508615165301,936.4123490672534,933.1744940931848,930.1209212092355,927.2364583815577,924.5070505385255,921.9196793576732,919.4622887873861,917.1237158936563,914.893626651479,912.7624563276411,910.7213541268803,908.5369269053275,906.2015293986414,903.709049072741,901.0547749327451,898.2352781012654,895.2483031566162,892.0926692923231,888.7681804216656,885.2755434051207,881.6162936246794,877.792727167276,873.807838910165,869.6652658242632,865.3692348275925,860.9245145305686,856.3363702188558,851.6105214191335,846.7531013902818,841.7706178798244,836.6699144864848,831.4581319789803,826.1426689442931,820.731141182164,815.2313393335734,809.6511843365457,804.1146936664065,798.6213144606355,793.1705144425663,787.76178058685,782.3946178793401,777.0685481646586,771.7831090751863,766.5378530356645,761.3323463380149,756.1661682813639
S4,6435.994925934864,6542.475896117822,6648.660198084081,6754.520817946904,6860.050224671858,6965.251596682083,7070.133748849418,7174.708235850546,7278.987701973633,7382.9849509562255,7486.452927501683,7589.719373259033,7692.77002166603,7795.601979842965,7921.588931515899,8047.6944873263,8173.924907191047,8300.285466134726,8426.780231790863,8553.411903334943,8680.181668550897,8807.089048725275,8934.131703875537,9061.305164439666,9188.60243709013,9316.013392625862,9443.52376027594,9571.113368580727,9698.752836097028,9826.39677106049,9953.9681296277,10081.316274214352,10208.07583088339,10332.969331689837,10445.83558750029,10552.572211891445,10655.554231867556,10754.915248439249,10852.436838418836,10928.782851618089,11011.907140388836,11096.060014034565,11181.289515952443,11267.600545360925,11354.974452541604,11443.376307297662,11532.759832815635,11623.071124843465,11714.251497330071,11806.239654754532
E4,0.0,0.7812715186309764,1.1533091198708885,1.295827821241473,1.3124529795317497,1.2627295279926243,1.1806241443906753,1.0852700426048367,0.9872203446669058,0.8920891963083412,0.8026699653550071,0.7198962090142038,0.644288105050619,0.5757777137792426,0.5140086248819502,0.46292084382449905,0.4200979086435568,0.38388335852096467,0.35311892849026677,0.32698137311751574,0.30488182226633737,0.28640556652085325,0.2712792523763344,0.2593587218316087,0.2506357293608107,0.24526707291821015,0.24363761642692794,0.24648415716898697,0.2551427324727073,0.2720754156304336,0.302114104895782,0.35587132418090983,0.4614640925693009,0.723561999893656,2.002547988780057,3.092997786555201,3.609637439945934,3.871220859189771,3.908623950046387,3.8212476170154233,3.4089364232042905,2.9979580181205407,2.616711904957737,2.2733338866850525,1.968804746962098,1.7012349141732983,1.4675789914400863,1.2644125121232732,1.0883070925829894,0.9360133836888419
I4,0.0,0.0,0.21094331003036365,0.47273435651351203,0.7114464090390595,0.8985151375569629,1.028170123864969,1.1051688418833199,1.1383160336635183,1.1371953868230122,1.1106528452305005,1.0662084762541795,1.0098660960750852,0.9463581972101349,0.8792861031152384,0.8113080706742472,0.7455210805258625,0.6836414268458846,0.626534580164671,0.5745497677832391,0.5277318214313489,0.4859560359127011,0.4490150583815058,0.41667648867928997,0.3887236518891577,0.36498859698091723,0.3453852013374439,0.32995150696540865,0.3189155457226942,0.31281245883111064,0.3127163111351059,0.32075321825965947,0.3414147303029873,0.38572782374759046,0.49038731803955526,0.915762797505427,1.5355345002602938,2.1490622480143196,2.6889490968233876,3.1119827000053784,3.4119501533365977,3.5300575224506416,3.5094282801995806,3.390713465354713,3.207201865830622,2.9846193652279798,2.742132331466691,2.493577985982768,2.2486151808638777,2.0137058669154375
A4,0.0,0.0,0.023438145558929292,0.05334980214355627,0.08155470389470652,0.10461739460552896,0.12157585553446526,0.13267947152460985,0.13870174699555488,0.14057807954326096,0.13922521209935304,0.13546034051718905,0.12996522861756363,0.12330089314202368,0.11591410958288956,0.10815160625512821,0.10040896615368947,0.09293016201985876,0.08586067834807419,0.07928215486000104,0.0732352060121008,0.0677346572864193,0.06277992779377066,0.058362352217364466,0.054470673559259594,0.05109563884951561,0.04823454964603127,0.045896793111426096,0.04411198289910265,0.04294389106692107,0.04251739749286307,0.04307736309139355,0.04513805243786223,0.04995438803054998,0.061670396210934675,0.1094127884703954,0.18032022085892807,0.2525453929784775,0.3181730705387359,0.3717973391938915,0.4120754918114018,0.4319286988852627,0.43548192264134805,0.4268871200857361,0.40970993305587317,0.38683230037231964,0.36050308743089965,0.3324300258029252,0.30387656762791165,0.27575062376055104
IH4,0.0,0.0,0.0,0.00993223621989582,0.027214816865518156,0.0470785481802333,0.06579865499819205,0.08124477517846357,0.09257786300619311,0.09979380471646503,0.1033417941303004,0.10386248899297988,0.10202965883859139,0.09846220350897125,0.09369178277278746,0.08815326266532758,0.08218880499140999,0.0761149693914229,0.07017053059689977,0.06451538775762844,0.05924577386792825,0.05441182008768369,0.05003267013896858,0.04610811355938395,0.042627102799267916,0.039573923023212505,0.036932824577606355,0.03469189331392758,0.03284697527462184,0.031406734482972556,0.030400691336105255,0.02989414870501314,0.030019800578859522,0.031055345265776912,0.033658557865382396,0.039885438588586425,0.06302139696589422,0.10374810404993477,0.15295859899159836,0.20293513265740476,0.24779190093611642,0.28429935385068383,0.30807764179429664,0.31897168249494245,0.3188181383681299,0.3101009018775963,0.2952707349903604,0.27645301367810726,0.25535982418475756,0.23330028324429858
IN4,0.0,0.0,0.0,0.039670179662095705,0.12817630608333483,0.26068976441383074,0.4270583935634392,0.6161463642605706,0.8178239001489327,1.0237183499716394,1.2273431054909025,1.4239400003362066,1.6102126801146794,1.7840268367936358,1.9441595020191809,2.0900772050964003,2.221751724105024,2.339737540177003,2.4449063573865275,2.5382839238966906,2.620951406374471,2.693987590913698,2.7584370235811724,2.815294810029148,2.8655023994803877,2.9099510785948652,2.9494916361512833,2.984950156747374,3.0171516183472695,3.0469556330020753,3.0753138557591746,3.103370414670594,3.1326578356343475,3.165538004050186,3.206422929111247,3.2665813591111172,3.406134682024854,3.6608472692720286,4.0283932846807975,4.493795423403926,5.03409960269276,5.625412876533385,6.233024390688853,6.830680236725833,7.400033914484476,7.929182706790141,8.41118095535688,8.84275690205814,9.223273746070351,9.55391750657939
D4,0.0,0.0,0.0,0.0,9.932236219895821e-06,3.7147053085413976e-05,8.422560126564727e-05,0.00015002425626383932,0.0002312690314423029,0.000323846894448496,0.00042364069916496104,0.0005269824932952615,0.0006308449822882414,0.0007328746411268327,0.000831336844635804,0.0009250286274085915,0.001013181890073919,0.001095370695065329,0.001171485664456752,0.0012416561950536519,0.0013061715828112804,0.0013654173566792086,0.0014198291767668922,0.0014698618469058608,0.0015159699604652447,0.0015585970632645127,0.0015981709862877252,0.0016351038108653316,0.0016697957041792591,0.001702642679453881,0.0017340494139368536,0.0017644501052729588,0.001794344253977972,0.0018243640545568315,0.0018554193998226085,0.0018890779576879908,0.0019289633962765772,0.0019919847932424713,0.002095732897292406,0.0022486914962840045,0.002451626628941409,0.0026994185298775254,0.0029837178837282094,0.003291795525522506,0.0036107672080174483,0.003929585346385578,0.004239686248263175,0.004534956983253536,0.004811409996931643,0.005066769821116401
R4,0.0,0.0,0.0,0.004687617011499675,0.02072036980416248,0.05192043997288496,0.09899003661798234,0.1604750563942884,0.23379473343332596,0.31600218173021294,0.40425181092132,0.49604110958419345,0.589303752254097,0.682413687101598,0.7741451721965313,0.8636154206773368,0.9502230894771383,1.0336167506070308,1.1136575951319259,1.190364015347022,1.263860938506229,1.3343403428976095,1.4020330253388626,1.467189683791855,1.5300691289848916,1.5909318109698978,1.6500373846584833,1.7076455983362122,1.7640203814880429,1.8194377591151893,1.8741994387296674,1.9286563805036547,1.983252609381826,2.0386166752119905,2.0957905797018057,2.1570181353295506,2.231509169423078,2.3331451658051026,2.472136638738225,2.652534320927068,2.8732991173827624,3.129950949500016,3.4147402719782227,3.7182054964866036,4.031375343731748,4.3467265271530735,4.658435065526392,4.962282673946318,5.255422583344665,5.536110389542598
G4,0.0,0.0,0.21094331003036365,0.5223367723955036,0.8722102841307013,1.2265725886042738,1.5675095611622822,1.8862780801477645,2.1793009916510706,2.4458504847111353,2.6867145677143873,2.903435458360239,3.097807434794074,3.271765223157741,3.4272252058781367,3.566007534596263,3.690996162428878,3.8044225977626382,3.9080711045632985,4.00341321525567,4.0916981859974,4.174016278009311,4.251345780969941,4.324591179111551,4.394618034006085,4.462289680933504,4.528511790621421,4.594293947056691,4.660844669492318,4.729733207259948,4.8031935694801655,4.884764377802027,4.980849635330872,5.105444940324584,5.300806680295871,5.841494637266486,6.67660403963639,7.651206148421792,8.69643578040303,9.751764246915554,10.78350110350972,11.703913937774878,12.513362602667424,13.219874817006014,13.833674966410978,14.365252248090744,14.824585674917534,15.220832002606357,15.562223380879642,15.85606629587705
H4,475.77777903601884,483.70740868661915,491.6024248744589,499.4649890679378,507.29707958057554,515.1005158228027,522.8769699402459,530.6279776169895,538.3549481035025,546.0591735246569,553.7418375193042,561.4040232591991,569.0467208916463,576.6708344470752,560.9061007198134,545.0881700701033,529.2236401791645,513.3198336283032,497.38487541128205,481.42777275467233,465.45849705386127,449.4880675348599,433.5286360028245,417.59357172706507,401.69754512842746,385.8566084674946,370.0882711713782,354.4115667761042,338.8471076991742,323.4171231999965,308.14547495501364,293.0576437090087,278.18067952941396,263.5431073842738,249.17477922343883,235.10666364522933,221.37056479531867,207.9987636161872,195.02357719021745,201.8171716846639,208.56426488746843,215.2652206680218,221.9203982885271,228.5301525755485,235.09483408043891,241.61478922943343,248.0903604641389,254.5218863730988,260.90970181506265,267.2541380345461
E_Om,0.0,0.0,0.0,0.0,0.0,0.0,0.0,0.0,0.0,0.0,1.5680019835811558,2.2885666260612902,2.5799694901028656,2.6554864500093087,2.6239914783524716,2.5726319627351724,2.519105834002607,2.472938648519539,2.4395234991256647,2.42235426389429,2.4243115720437705,2.4484861073645097,2.498830852708812,2.5808505787978357,2.7025337955436344,2.875816034945082,3.119091451659779,3.4618329299298516,3.9537230340822296,4.684330455511301,5.830546287640489,7.790034206021039,11.65340524224441,21.663074214974863,74.84523149634666,135.80731756299002,193.41546332265108,247.0021612162206,290.29240602602044,325.9933056092975,322.3760551425564,313.6529144682188,301.2554141355049,286.39890136557796,270.0356850273301,252.89346744975364,235.51815266003518,218.31133734623063,201.56138325985341,185.46861548874466
I_Om,0.0,0.0,0.0,0.0,0.0,0.0,0.0,0.0,0.0,10.0,7.648542830068816,6.273381277906621,5.416135528378612,4.8391462185538945,4.418223052860014,4.08777452441489,3.821162482903643,3.602791066294765,3.423303612934757,3.276999775150011,3.1604629646875315,3.0718577592777034,3.0106148129598918,2.9773659644077144,2.9740807662315705,3.004422536857386,3.0744157747129446,3.193634764981256,3.3773601194366494,3.6506935718099567,4.057017837332587,4.677274966782077,5.680743026769823,7.491360050092366,11.578828857903005,29.064329348184394,58.89795252668874,97.27052634748966,141.08836221559076,186.29098775004638,230.50365238071586,263.34324066061015,286.10549242659874,300.1679730908633,306.9124632087472,307.6529469507814,303.5909103664276,295.7927092939299,285.182381669154,272.544539537916
A_Om,0.0,0.0,0.0,0.0,0.0,0.0,0.0,0.0,0.0,0.0,0.0,0.04704005950743468,0.10628907067290666,0.16243039611470192,0.20960899424911356,0.24640704796358054,0.27430472446416976,0.2950170962052486,0.3102019887266851,0.3213474561014414,0.3297487586983161,0.3365285243575959,0.3426775764447953,0.3491071636494221,0.3567114285151629,0.36644534083594277,0.379430942899885,0.39711769375648703,0.42154934792091525,0.45585138699022876,0.5052112585974821,0.5790856563299176,0.6969698502060231,0.9071783972530516,1.3756354125958312,3.34586598515901,6.7509140423692635,11.203198618833268,16.372629515368725,21.806884245685556,27.22531782295099,31.45154996810686,34.57084364585571,36.694355188454466,37.94747013572962,38.45906625034125,38.35407687882227,37.748825883713224,36.74842031574216,35.445596722299946
IH_Om,0.0,0.0,0.0,0.0,0.0,0.0,0.0,0.0,0.0,0.0,0.47084859996110584,0.5950840197086374,0.5923282050070646,0.5505897573721925,0.5025948111300421,0.45882622462939315,0.42142657726780974,0.39021076258654547,0.36435208348241316,0.34299746099693673,0.3254528086576955,0.311210907735395,0.2999322354835187,0.291420562476709,0.28560772026719977,0.2825524289084715,0.2824564765424167,0.28570421811685875,0.2929382506281665,0.305198715443577,0.32418655472371766,0.3527932076796633,0.39627264760639885,0.4652170412449316,0.5848729427202759,0.8370391341107056,1.7861724061613522,3.664501879451222,6.408555552665696,9.840995002781812,13.682141583136211,17.68062085092312,21.22210942203752,24.0610696566214,26.13984074695367,27.494710893975185,28.205656670661995,28.369158189355336,28.083568241463237,27.441473066739643
IN_Om,0.0,0.0,0.0,0.0,0.0,0.0,0.0,0.0,0.0,0.0,3.761217139940156,6.600388007342877,8.837586489039765,10.660842849624323,12.185307735587001,13.48470741088076,14.608385559059952,15.592814189916087,16.465796513837944,17.249131255809132,17.96037149214213,18.61404051400492,19.222518079794195,19.796728833635648,20.346721681306292,20.88220972074295,21.41313888577959,21.95037076775986,22.506611105550647,23.097817840303595,23.745553352346306,24.481305220144826,25.355322568666033,26.45738866908961,27.976788005527755,30.44908412344422,37.03875625404582,50.625693530457085,73.15462320706624,105.81478250643382,148.82059331186244,201.8214328266269,262.02446158217793,326.9738258922718,394.56601925863947,463.04678332916853,530.9910907983578,597.2728431891069,661.0296026009755,721.6260523813631
D_Om,0.0,0.0,0.0,0.0,0.0,0.0,0.0,0.0,0.0,0.0,0.0,0.00047084859996110586,0.0010659326196697434,0.0016582608246768081,0.002208850582049,0.0027114453931790425,0.0031702716178084356,0.003591698195076245,0.00398190895766279,0.004346261041145203,0.004689258502142141,0.005014711310799836,0.00532592221853523,0.00562585445401875,0.005917275016495458,0.0062028827367626585,0.00648543516567113,0.006767891642213547,0.007053595860330404,0.007346534110958573,0.007651732826402149,0.007975919381125867,0.008328712588805529,0.00872498523641193,0.00919020227765686,0.009775075220377136,0.01061211435448784,0.012398286760649194,0.01606278864010042,0.022471344192766113,0.03231233919554793,0.045994480778684135,0.06367510162960725,0.08489721105164477,0.10895828070826616,0.13509812145521985,0.16259283234919503,0.19079848901985702,0.21916764720921236,0.24725121545067558
R_Om,0.0,0.0,0.0,0.0,0.0,0.0,0.0,0.0,0.0,0.0,0.0,0.27303647137995446,0.6459903489240686,1.0517880755792892,1.4661773781274965,1.8812495516844945,2.294791020489465,2.706448967992968,3.1164857581195515,3.525360002598151,3.9336193709746645,4.341899071726968,4.75095046186845,5.161677098784788,5.575175920857695,5.992789099349887,6.416176289995961,6.8474219098181575,7.289201060287653,7.745045948610397,8.219793526793305,8.720384328575406,9.257410816921213,9.848493976631376,10.527111595051206,11.374442318793841,12.766624196763082,15.380277285599744,19.959419100581087,27.169760559448378,37.509771476917116,51.284097710724666,68.4329162207502,88.57836642905714,111.21749160998274,135.82254661225426,161.89216328754512,188.9756981057698,216.68275132069652,244.68449655867573
G_Om,0.0,0.0,0.0,0.0,0.0,0.0,0.0,0.0,0.0,0.0,0.0,0.42336053556691217,1.0412735246034606,1.7378652869312345,2.454846628433748,3.1633243275889154,3.857934957527412,4.538093532708116,5.2057869678083915,5.86445831257232,6.518493963823779,7.173058088275597,7.834149337264015,8.508833667495395,9.20566332377081,9.93534744856759,10.711817778002764,11.553972469950905,12.488667361031965,13.556172580234167,14.820941803222219,16.39518930088515,18.49849853651083,21.644917951916824,27.493947989960034,47.702160493973636,84.37013623598094,136.59231133309675,203.28289486147634,281.66184448850186,369.6800370030121,456.72157189150244,541.4078587979216,622.7468206145079,700.0745239832139,772.9841589405931,841.2653951520265,904.855296370236,963.7993574537184,1018.2209309338787
beta,1.0,1.0,0.9937442485914427,0.9890491214340523,0.9853797855539751,0.9824186963599985,0.9799704057284694,0.9779098941566415,0.9761537554689628,0.9746438181326935,0.9733376778311252,0.9705872164437068,0.9683791571893453,0.9665197767441553,0.9649030932266602,1.0036912974982959,1.0468625767429285,1.0951827337108468,1.149613682602841,1.211377484377402,1.282048472053258,1.3636882066504012,1.4590479216437613,1.5718809807310172,1.7074415611759899,1.873312563645138,2.080846085896941,2.347815722427093,2.703653200055326,3.200741845956121,3.941757046493607,5.157241142192468,7.483756634503187,13.435644541111445,45.094473696313464,40.914194188348866,19.3159314791577,10.844177824208016,6.918757668414326,4.997367700911392,2.9175494910444613,2.212443243182654,1.805154502140394,1.5415961281620265,1.3581648085553308,1.2238964747723016,1.1219223397146523,1.0422728383307336,0.978680237462388,0.9270078852096874
