series,2021-12-01,2021-12-02,2021-12-03,2021-12-04,2021-12-05,2021-12-06,2021-12-07,2021-12-08,2021-12-09,2021-12-10,2021-12-11,2021-12-12,2021-12-13,2021-12-14,2021-12-15,2021-12-16,2021-12-17,2021-12-18,2021-12-19,2021-12-20,2021-12-21,2021-12-22,2021-12-23,2021-12-24,2021-12-25,2021-12-26,2021-12-27,2021-12-28,2021-12-29,2021-12-30,2021-12-31,2022-01-01,2022-01-02,2022-01-03,2022-01-04,2022-01-05,2022-01-06,2022-01-07,2022-01-08,2022-01-09,2022-01-10,2022-01-11,2022-01-12,2022-01-13,2022-01-14,2022-01-15,2022-01-16,2022-01-17
S,160616.18545518236,160522.76632037788,160443.0468365288,160371.95582728658,160306.22290486383,160244.0026510781,160184.24541348888,160126.3475773259,160069.95644746703,160014.86105809436,159960.93089942442,159908.08143770666,159856.2546531274,159805.4080151471,159755.5082097679,159706.52755024482,159658.44190781217,159611.22950655178,159564.8702117263,159519.34510148244,159474.63620244776,159430.7263210077,166148.36469762796,172862.17808942866,179571.81573859396,186276.78997399655,192976.4548457152,199669.96702378377,206356.22321824354,213033.76311820213,219700.61781286632,226354.06680248515,232990.23298330238,239603.37255086165,246184.54805334442,252718.9394053353,259179.7875577761,265512.65828895755,271585.3784024061,276974.081470649,279829.9070327576,281420.5816936188,277549.41877516865,275269.59716019576,272985.1755745532,270795.3419695113,268703.65373896266,266703.58935218054
E,160.61618545518238,205.8504646230871,223.38278367959782,227.201118615022,224.60788368672894,219.3286332769133,213.19586656848472,207.0570295678846,201.26009184173606,195.90991824236434,191.00106799865205,186.48462127931177,182.30028826715642,178.39063245815376,174.70637299866885,171.20746515983222,167.86236471518765,164.6466640274297,161.54165210877107,158.5330278444564,155.60983789368876,152.76363897588246,149.98785574797031,151.86070900795335,157.3372256902602,165.82235298493615,177.0572633883665,191.05742920137902,208.09265256831182,228.70741572982104,253.78939783451443,284.7084225946753,323.5749754707366,373.7247533732193,440.67159225058697,534.1294881234921,672.7773166617119,897.2203121989048,1313.1923273251655,2284.6874655820775,5482.101966162712,7350.155867227547,8979.494895448359,8539.068806677456,8229.8612973221,7916.029779430587,7595.715525446069,7277.506633306877
I,805.958259449636,500.0864599324656,321.2135092934249,215.69207881750071,152.77174917645317,114.75296425148568,91.39898108230078,76.75613663873176,67.33935139843497,61.09334926694975,56.79574479914105,53.712547411223596,51.39833374541656,49.5796519336367,48.08652632506113,46.81190540822858,45.687441638144186,44.66888370982997,43.72717171080972,42.84294618536759,42.00312129119553,41.19871950853635,40.42348634785972,39.67299316361372,39.415228438500236,39.82356098744681,40.940840076302564,42.76616753872964,45.3005950429017,48.57248951959633,52.6548444453618,57.68271020907663,63.87793628965263,71.5905923873865,81.37363329602113,94.12565973364642,111.38444062283304,135.99284438946563,173.83085072862264,239.29599309376204,378.4457489004309,790.6330061130008,1229.9831669850278,1661.0909427339298,1874.4793664301183,1970.725579898837,1996.2111145358324,1978.5738101295078
A,1546.0371591892767,1515.8690241955765,1495.827769280734,1480.0455203719384,1465.6475332556147,1451.314082285795,1436.5129064460277,1421.0944021693808,1405.082065537775,1388.567072040896,1371.6576293929984,1354.4565440851352,1337.0528634068412,1319.5201836643278,1301.9178308903213,1284.2930399411173,1266.6832594982152,1249.1182198058996,1231.621648736981,1214.212635261251,1196.906684624163,1179.716521873484,1162.6526980485714,1145.724045496122,1129.841863838331,1115.674933067529,1103.747938156474,1094.513536153777,1088.4093289483758,1085.908619067079,1087.5731482897381,1094.1172381666433,1106.4967652541736,1126.0455566716328,1154.701882553144,1195.4138051701605,1252.9270546177563,1335.4809874157938,1458.9926974838904,1659.5932051254958,2043.7475635509256,3043.06269408496,4370.783583172598,5966.699665937289,7411.927520513273,8738.370848848606,9949.869182127306,11049.741931068027
IH,0.0,161.19165188992721,180.0107908036298,153.57544838984592,119.35227240604789,89.78450071218215,67.5073441913755,51.78121266331454,41.04834206890743,33.83865539315452,29.01155216725966,25.756517165718567,23.52452332274075,21.954023991084878,20.810906469989263,19.94499409115209,19.260349385412898,18.695692600091803,18.211762582772742,17.783263482456533,17.393770005864997,17.032513714523386,16.6923551238194,16.36850027175405,16.057684361883148,15.851884892136058,15.831420680844213,16.044720861877515,16.515639403073134,17.256224486525035,18.278128568823103,19.60173303167242,21.264162484303643,23.328210403061533,25.895052824905683,29.125490661134698,33.27904364397392,38.79205567299237,46.44964189072405,57.817422056582615,76.55186246744486,113.67902858547748,214.54132947971465,352.46561851344217,507.13393453647177,626.5678260008909,705.0877241136209,749.151373682394
IN,161.19165188992721,297.1318188171422,350.60191331025646,359.9210577883292,346.67602520357514,322.9218278236612,295.28508824194734,267.3069866204573,240.78322678892005,216.531190614111,194.82915775341655,175.66733686383952,158.89067234887213,144.2793141814008,131.59316257587983,120.59573545853702,111.06618656245686,102.80459679289717,95.63351512826127,89.39747716166087,83.96150087822211,79.20913270779027,75.0403666151581,71.36961211683678,68.12380118099472,65.33490994792062,63.06457909729557,61.3733628387192,60.31214962628827,59.92406631483121,60.25115710608666,61.34347846092258,63.270255321013586,66.13423808768584,70.0920947339114,75.38654136355804,82.40199152271748,91.77019222186867,104.59249780234138,122.97372583411652,151.5684702934849,203.5136550259841,329.7588161160362,524.097068394384,774.2128087908177,1027.82434216282,1260.9555928702262,1462.6627646833467
D,824.0,824.0,824.6023271278269,825.2749759984808,825.848843550856,826.2948288769884,826.6303278920012,826.8825835408345,827.0760751313308,827.229461052317,827.3559064350245,827.464314312764,827.5605590551271,827.648463474496,827.7304993867766,827.8082637956312,827.8827925374401,827.9547629576836,828.0246234169227,828.0926755680143,828.1591265404512,828.2241220870995,828.2877677222491,828.3501422819766,828.4113066886933,828.4713096651988,828.5305436279119,828.5897011217169,828.6496556573286,828.7113698809204,828.775851459279,828.8441516010906,828.9173976744383,828.9968557714591,829.0840266255617,829.180789036084,829.2896226694066,829.4139769429679,829.558931766633,829.732500801137,829.9485479807358,830.234600409067,830.6593864446911,831.4610660681118,832.7781293351471,834.6731438885157,837.0144487551075,839.6491600366904
R,0.0,87.09297133028333,274.8707557364488,479.63281929010526,672.0058126481598,844.616397396613,998.1485434761469,1135.6206296676262,1260.2299992453422,1374.677359355803,1481.0600726481005,1580.9531237568553,1675.5288181003325,1765.664219214531,1852.0241205488949,1935.1210194018574,2015.357168022804,2093.0537511926277,2168.4711846915116,2241.823404241139,2313.28810691333,2383.0142517299,2451.12767945644,2517.7354167081858,2582.929038232473,2646.8234918877215,2709.611474704605,2771.5564868451233,2832.9738354423903,2894.2162306218993,2955.6680947405093,3017.748732490746,3080.924053714973,3145.72761005855,3212.7937993581972,3282.909681102334,3357.0986604272775,3436.76395185939,3523.9554824899383,3621.9249534486053,3736.4818468413,3880.2516456646467,4090.695107853332,4424.455497038751,4921.4587410833155,5592.787149086104,6416.619761312855,7364.693441748805
G,84805.0,84821.51150426269,84842.67313759665,84865.63711083807,84888.99361272404,84912.08352746966,84934.63073000107,84956.54747799039,84977.8331474056,84998.52288583349,85018.66262107245,85038.29772160419,85057.46852690287,85076.20917858926,85094.54791375416,85112.50790336732,85130.10820176052,85147.36462048748,85164.29046197238,85180.89710513125,85197.19445871122,85213.19130544506,85228.89556008778,85244.3144614427,85259.92589398303,85276.10031790739,85293.14702139123,85311.34868488417,85330.98957940383,85352.38171189767,85375.89306263128,85401.98286617314,85431.25117633736,85464.51500695095,85502.93428481455,85548.23576457058,85603.14480935321,85672.30698936897,85764.54213346391,85899.53961612048,86134.40776916467,86697.9733259374,87453.57668925464,88376.67773179756,89254.50253258733,90100.54049262809,90914.31625922462,91695.16340063263
H,133582.76903943863,133582.76903943866,133582.76903943866,133582.76903943866,133582.76903943866,133582.76903943866,133582.76903943866,133582.76903943866,133582.76903943866,133582.76903943866,133582.7690394387,133582.7690394387,133582.76903943866,133582.7690394387,133582.7690394387,133582.7690394387,133582.7690394387,133582.7690394387,133582.7690394387,133582.7690394387,133582.7690394387,133582.7690394387,128733.46031695117,123952.09784759159,119242.26860787557,114607.81009481037,110052.8259412364,105581.70034687166,101199.11047281785,96910.03567419655,92719.76211237271,88633.88089184053,84658.2774108183,80799.10911389063,77062.76832277849,73455.82635750255,69984.95484162656,66656.82005480945,63477.94664710304,60454.548199501645,57592.324256672124,55547.263078888085,55547.26307888809,55547.263078888085,55547.263078888085,55547.263078888085,55547.263078888085,55547.26307888808
S0,56215.664909313826,56037.804656003456,55792.18162153864,55552.103718849066,55315.7816395662,55082.20513020828,54850.80002856443,54621.23691993664,54393.3240401701,54166.94718837339,53942.035948048455,53718.54466442455,53496.4417141778,53275.70344336195,53056.31073792202,52838.247081507136,52621.49745513457,52406.047714297485,52191.88423737621,51978.99372849003,51767.3631083793,51556.97945547944,53536.56791790781,55466.7331526812,57345.820333885844,59172.003299327,60943.270712096775,62657.40405912082,64311.9451203311,65904.14800111203,67430.906418347,68888.63863959204,70273.09576263843,71579.02295227867,72799.51903451809,73924.72331859749,74938.82912710318,75812.27408283218,76476.82097261598,76719.10508170267,75620.5006300334,74400.66414451295,72248.9200105147,70891.81783526644,69546.89863468516,68260.94909624012,67034.52430847804,65863.45569013037
E0,160.61618545518238,163.92219152187303,158.60610349429902,150.2818586312668,141.5923469231193,133.62889479118962,126.73017037027381,120.89429072888322,115.98541297558177,111.83258669256864,108.27330429400922,105.16958242304705,102.4111147116661,99.9129113546065,97.61106849787112,95.45834884349998,93.42026215353603,91.47185285989607,89.59518486747197,87.77742911750454,86.00943831989662,84.28469989383976,82.59857491344134,83.45753121424963,86.27198805330636,90.70045715152982,96.5854884641443,103.91799307845216,112.82426607982987,123.57440657790741,136.6157870952083,152.64261880012833,172.72630264376613,198.560228877788,232.94122017972688,280.7903161666968,351.5553230512621,465.7366967365952,676.5972807907401,1166.935096022261,2770.293108321549,3681.9654955751653,4455.454964600975,4210.846852037808,4030.5363300868044,3849.171122690798,3666.4151654235393,3486.7063117734524
I0,805.958259449636,500.0864599324656,316.90324094733194,206.4468103981543,139.31721138379663,98.14616149388273,72.62488072814305,56.602916508880774,46.38980372224039,39.75729851501069,35.350880701596964,32.34113222853186,30.2162174368543,28.657695326399136,27.465764260212275,26.513973876113347,25.721597915390756,25.03665499191219,24.425390816677663,23.865708967798344,23.34303275208887,22.84767580308118,22.373156801083596,21.915110068066728,21.728583593768587,21.905996682876435,22.467695582088858,23.40970201758602,24.728694675774136,26.435664029397078,28.564970820303145,31.183221835681234,34.40174674922343,38.39748445286273,43.45068049071897,50.016998353535975,58.87572392275074,71.46567264084274,90.75760111273942,124.00943681064598,194.36775530658502,401.4095512473961,619.3554606548835,829.638496153445,930.6623592054239,972.7405753145869,979.3429805410622,964.5169287623003
A0,1546.0371591892767,1515.8690241955765,1487.5595556964627,1459.3341386871386,1430.5962055841292,1401.294226774095,1371.5939423086747,1341.721247655415,1311.8926311509515,1282.2891335159215,1253.0508425904648,1224.2801963674754,1196.0483251399553,1168.4017616835704,1141.3684175582366,1114.9624860852825,1089.1882777051985,1064.0431290003737,1039.5195618767973,1015.6068603841752,992.2922073326497,969.5614943834848,947.3998932570624,925.7922540133958,905.2183056642062,886.0223233270146,868.46746996703,852.7753330392593,839.1568441760021,827.8394030089784,819.0945764593265,813.2712901860166,810.8414105707998,812.469208537769,819.1263190405932,832.297042273783,854.3767305222115,889.5280199295094,945.7897106250738,1041.3824302942905,1229.8455686689997,1726.9507803552592,2383.9526679071523,3167.2058308106434,3870.8923916762033,4510.874435243863,5089.492159289038,5608.925882106875
IH0,0.0,161.19165188992721,180.0107908036298,152.71339472062732,117.07541313572035,85.96367149075911,62.289846375791754,45.43713998264984,33.86936768881241,26.086084443076714,20.89702568346581,17.440602770313227,15.12335728356078,13.548410465867795,12.45511776100261,11.67417051766215,11.096256995793258,10.650984540353772,10.293023583826884,9.99312786829093,9.732364265313365,9.498421619729918,9.283253083932653,9.081569038948652,8.889871305479685,8.757433463520353,8.72719204272141,8.82452411570969,9.061227737168064,9.442493585761238,9.973095699287875,10.662275405802333,11.527940194568192,12.601242829786983,13.933031062971008,15.60458787518739,17.747383723852266,20.58251974644147,24.50748340843798,30.313684466528727,39.84545602145535,58.6473879923829,109.38645572060855,178.1555740734567,254.33976981138585,312.3519617278888,349.5569259290809,369.34086475848
IN0,161.19165188992721,297.1318188171422,350.60191331025646,359.0590041191106,344.0999629040623,318.058411112796,287.8621897276352,257.2921025122621,228.3065807432272,201.81916454084276,178.1546345890562,157.31598900308018,139.13987261756998,123.38615354564205,109.78862957115422,98.08284006986734,88.02046343524769,79.37593364066764,71.94862443760044,65.5625878330661,60.06501968989967,55.3241380707921,51.226868070036815,47.676552272067525,44.59080199718676,41.95114476570551,39.760485765949824,38.02534432318687,36.75042282274767,35.93902273487397,35.5961264323976,35.73280792269586,36.37172777149541,37.55426258739044,39.35069490301339,41.87634624673416,45.319605146225534,49.99520529277273,56.45633884659645,65.76368894792664,80.26336286977762,106.56325346667478,170.1514927912543,267.3674957087065,391.4107287263637,516.2267365025024,629.9053305864767,727.0960808091065
D0,824.0,824.0,824.6023271278269,825.2749759984808,825.845622302705,826.2830996565654,826.6043213249297,826.8370806758044,827.006866280093,827.1334264258707,827.2309026669453,827.3089888786844,827.3741594259866,827.43067108927,827.4812976264811,827.5278388413627,827.5714618796233,827.6129254202442,827.6527251049766,827.6911871919347,827.7285286543264,827.7648957176709,827.8003886042195,827.8350774674539,827.8690126950619,827.902231603035,827.934955628649,827.9675666507178,828.0005413749218,828.0344005928994,828.0696844923715,828.1069511002737,828.1467929757429,828.1898695930847,828.2369568355798,828.2890205900217,828.3473304744703,828.4136473745051,828.4905583674564,828.5821358276945,828.6954094016327,828.8443004812945,829.0634490063566,829.4721949241808,830.1379113802124,831.0883063991013,832.2554763968822,833.561670711155
R0,0.0,87.09297133028333,274.8707557364488,479.3020907467344,670.2805569492127,839.9471058084637,988.8061643087444,1119.909908549989,1236.6034335183417,1341.7791995556186,1437.7297967725824,1526.2091650442294,1608.5450171153016,1685.745591321979,1758.5849300620234,1827.6661679981835,1893.466924110268,1956.3714330940309,2016.6932907256723,2074.6916997605276,2130.583248046766,2184.550606642254,2236.7490823888297,2287.3116518192646,2336.352898787769,2383.991940617312,2430.383408618484,2475.7143839977066,2520.1945212810883,2564.048547939741,2607.5133999613367,2650.8400435431163,2694.299757371795,2738.195198425861,2782.8776527572145,2828.773705804747,2876.4280222045077,2926.576327925325,2980.280709570071,3039.2102098205105,3106.3245627058245,3188.014773927732,3303.110170063034,3479.816593853149,3737.4670803353347,4080.789124973022,4498.269604225664,4975.305599447349
G0,84805.0,84821.51150426269,84838.36286925054,84854.6677350803,84870.1168602252,84884.67269488881,84898.40987872062,84911.4378667926,84923.86592060952,84935.78933689119,84947.28583848377,84958.41644229135,84969.22798039108,84979.75594525537,84990.02709231974,85000.06160763973,85009.87482122944,85019.47851747212,85028.88191529365,85038.09238977144,85047.11599714284,85055.95785329468,85064.62240461391,85073.11362060133,85081.69313815427,85090.56198468088,85099.88608225324,85109.81516692157,85120.4980403868,85132.09648761073,85144.8000600134,85158.84429935689,85174.53611300471,85192.29254940804,85212.70473922705,85236.65132928615,85265.51685419677,85301.65709248396,85349.5352900122,85419.09016615519,85539.05225937538,85823.84115743883,86202.35088734528,86660.3761071058,87093.25536861915,87507.59852841048,87903.29716376279,88280.20830420045
H0,46753.96916380353,46648.772733184975,46480.837151345506,46313.50613760066,46146.7775155053,45980.64911644948,45815.11877963026,45650.18435202359,45485.843688356304,45322.09465107822,45158.93511033434,44996.362943937136,44834.37603733896,44672.97228360454,44512.149583383565,44351.90584488338,44192.2389838418,44033.146923499975,43874.62759457537,43716.6789352349,43559.29889106806,43402.48541506021,41057.498525224495,38761.21481487224,36515.117965744954,34320.79246523338,32179.927333355205,30094.318893167343,28065.872148871767,26096.60021623985,24188.621108388474,22344.151017346572,20565.493052827525,18855.020214544453,17215.151202325836,15648.31754042344,14156.920455748652,12743.276069804317,11409.547824567568,10157.665759428588,8989.233381373793,8159.3213086599335,8129.947751948757,8100.679940041742,8071.517492257592,8042.460029285464,8013.507173180036,7984.658547356588
S1,16061.618545518237,15027.068628728299,14144.316556426345,13325.450814055133,12565.366834912687,11859.562352559376,11203.9837205855,10594.935536032006,10029.02414138726,9503.119599270478,9014.328012202335,8559.969865370163,8137.562070437096,7744.802444472719,7379.555918302437,7039.842067536758,6723.82372041671,6429.796484260208,6156.179080960637,5901.504409796391,5664.411272374803,5443.636704973394,5461.282741419028,5473.408355072503,5480.808384209751,5484.15417116288,5484.004921449579,5480.817223237399,5474.9527501823095,5466.6839590832,5456.19727302634,5443.592671653411,5428.877489956961,5411.949830405673,5392.561415007777,5370.235375618848,5344.072842345137,5312.24001142687,5270.323361366054,5204.300091371575,5053.7903234643,4902.597263230809,4697.759335436257,4551.863991645283,4412.79862865364,4282.9906960573435,4161.915231285356,4048.8059440386314
E1,0.0,14.71167477235582,22.059799887453647,25.394360614094357,26.506241951043236,26.39452318561944,25.622180257702972,24.509354256472253,23.23936375722102,21.917464107180635,20.60379604347998,19.332100344761745,18.120497298731475,16.977787982088344,15.907193587898622,14.90860709268733,13.979967315195466,13.11810676811576,12.319278875709559,11.579486804081085,10.89468783010001,10.260918704468072,9.674370407785323,9.38745396162912,9.319600587588768,9.420595200599882,9.661728815513131,10.030413871747648,10.527344830766138,11.165773073926609,11.97292325773394,12.994158834679626,14.301481705009483,16.0099503897727,18.31026981899016,21.538045109075632,26.33670442698577,34.09933193921123,48.43512663006686,81.683833811825,189.6917046053683,249.25453085297613,298.23332416769324,279.76904577113913,265.3726143642855,250.975174728871,236.66986644171223,222.8015521222301
I1,0.0,0.0,1.512374858278244,3.1751943732154904,4.5156822549052125,5.434277495727565,5.973949839568482,6.218355621589986,6.250599466562816,6.139389481959039,5.936770887069571,5.680153341304811,5.3954512260503895,5.100075953809474,4.805379131557757,4.518502865344678,4.243721416679799,3.9833874509770486,3.738586946626416,3.5095863389344775,3.2961346105692906,3.097665555156664,2.913432022886357,2.7425941528740707,2.6105961336753443,2.5244219275436066,2.4830997509394566,2.483095221395938,2.5209936956347097,2.5948177790206515,2.704743290009665,2.8536744415516493,3.048017169634467,3.2990169031001484,3.625249030119913,4.057463440848381,4.648610610494654,5.496605882301017,6.803408905718901,9.061224730300435,13.833914526852798,27.800845383437252,42.30412191751614,56.0411567029424,62.385231315848884,64.71170855810307,64.62752373106296,63.1064128570531
A1,0.0,0.0,2.901127573428502,7.135252978478911,11.857585412592144,16.610286438616992,21.1508485946262,25.35748301030315,29.176403873223872,32.59212704343987,35.610543995962324,38.24917024010475,40.53147431266159,42.48355931159532,44.13221977448594,45.50381367346606,46.62362355686063,47.515514208175674,48.201771194243186,48.7030498382277,49.03839107871431,49.22527699578065,49.27970883749749,49.21629666719093,49.09884134704113,48.97270362209772,48.87152744298048,48.821949619082936,48.847059233046764,48.96915875131491,49.21227170084302,49.60482934258363,50.183071314580694,50.995986372180845,52.1132931459656,53.63952834304759,55.74122819606275,58.70515088031175,63.08129905052436,70.10940569065434,83.41299991790312,117.48349463547191,161.9368994184921,214.27073713962767,260.87008409130084,302.7664952683407,340.14788928006726,373.2130350229629
IH1,0.0,0.0,0.0,0.3024749716556488,0.7851460979617866,1.292775633421299,1.7284125828431711,2.05253767556548,2.262270215507879,2.3728015439221726,2.4054121872287357,2.3810719332515666,2.3176692496816846,2.229264402551233,2.1263172681817646,2.0162890205612483,1.9043107876190777,1.79378381206348,1.6868665388595705,1.584847320676044,1.4884188067029045,1.3978745298367306,1.313246918402443,1.2344026354250723,1.1611075384824376,1.098334268997859,1.0499473587940718,1.0176702764237862,1.0016514395606233,1.0012815737913032,1.0158628396664886,1.0450840887792412,1.0893717521887298,1.1502186391711344,1.2306146619313938,1.335758681758952,1.474380680670868,1.6614031232700857,1.923814549521775,2.315400310839406,2.9612931123559996,4.2363639556485575,7.662520973338681,12.263452219562744,17.294132434830612,21.059489251059254,23.393393045497923,24.534786845956305
IN1,0.0,0.0,0.0,0.3024749716556488,0.8901296169741717,1.6538227756112842,2.481598598733271,3.2876336344610726,4.01628037438855,4.637229697818478,5.138662182117432,5.521019020656721,5.7921542235237125,5.9638743068044615,6.049618518814823,6.062991103259268,6.016893551686138,5.923061124248051,5.791861226510807,5.632254353366062,5.45185058006509,5.257017621736278,5.053012417553643,4.844118950703171,4.633782124628968,4.429996018993253,4.240899193025392,4.073160902910696,3.931698755734682,3.819977061983717,3.7405219515131374,3.6954989868914088,3.6873153269823185,3.7192822242748305,3.7964412926292836,3.9267594293102905,4.123105454989478,4.406922319740216,4.815876896044528,5.422127280792022,6.384968651099142,8.151514025615946,12.434707331984104,18.94757211877235,27.18757075731118,35.405546987376965,42.80143125615888,49.02187600034666
D1,0.0,0.0,0.0,0.0,0.0011302625091359486,0.0040641290497728,0.008894862062764174,0.015353445832566091,0.023023192425424006,0.031476649569754,0.04034313069391231,0.049331468470627554,0.05822885367568817,0.06688932117537504,0.07521944503112167,0.08316488487230707,0.09069918060278907,0.09781504568480766,0.10451790305238666,0.1108212411314111,0.1167433625534241,0.12230515818200381,0.127528615729259,0.13243584408267928,0.1370484538875921,0.1413871808660208,0.1454913420795998,0.14941469524074089,0.1532174381711983,0.15696032328714862,0.16070182632044203,0.1644978153763781,0.16840299588759883,0.17247366673772258,0.17677170501192577,0.18137016024265323,0.1863615086209375,0.19187084778521643,0.19807903635868737,0.2052677814239491,0.21391977054773958,0.2249852764477415,0.24081535762078987,0.2694480082306139,0.3152730237698556,0.3798962532956827,0.458589544947998,0.5460039679532481
R1,0.0,0.0,0.0,0.11604510293714007,0.6000769372286963,1.6063966950572053,3.176275645336061,5.275270812728589,7.8308633553139755,10.758225187879505,13.974756453671041,17.406881645998528,20.992279887622473,24.67974364689911,28.427989199390073,32.2041398663275,35.982235048188834,39.74191209504684,43.467301957338265,47.146130337007804,50.768997031962805,54.3288019589055,57.82028861886906,61.23968030299792,64.58438914404711,67.85480189954076,71.05685839040018,74.20105140781902,77.30084572224943,80.37147424422952,83.42930004745247,86.4916939579431,89.57734772425549,92.70699298956747,95.90458607630585,99.19915680245315,102.62776393954502,106.24050866507116,110.10978286207457,114.34937349525272,119.16085345405156,124.97825753779944,133.07275507136188,145.32945113148588,163.000239428902,186.34117904307334,214.5280409221753,246.53571301815177
G1,0.0,0.0,1.512374858278244,3.780144316526788,6.390709947502707,9.115578090287144,11.828961432419087,14.462947150267983,16.98253324387681,19.371563045898156,21.624700243792304,23.742791052855374,25.730150274122877,27.592955492302117,29.33828905157419,30.973564437984216,32.506184135457204,33.94333873642638,35.29189321246656,36.55832738342519,37.748710190633794,38.86869497944888,39.92352766924124,40.918062608383494,41.883102250334396,42.841166497672795,43.80961309208609,44.802848462918355,45.8339850257155,46.916206587355326,48.0640592099526,49.29488767749845,50.63070018220193,52.100906783521395,53.74674567178122,55.629059694557654,57.84319224054328,60.5506317565475,64.05607713288579,69.03525651975488,77.43243620842742,96.932932875753,122.55654756320678,153.21523111563948,181.97576840972292,209.25633817831664,235.05683677451776,259.3867353929331
H1,13358.276903943866,12509.310698566434,11783.724087651155,11109.360523706631,10482.563394108663,9899.937265013863,9358.329225760663,8854.811565813,8386.66568906507,7951.36717712422,7546.571919502086,7170.103234506283,6819.939910068294,6494.205098797836,6191.156006247538,5909.174315730037,5646.757297076614,5402.509550484401,5175.1353400886865,4963.431475137109,4766.2806996513045,4582.645554255485,4188.288805615473,3824.9225249391925,3489.920687014815,3180.904932417016,2895.7238068448605,2632.433689012053,2389.2812388153666,2164.6872027890918,1957.2314171643293,1765.6388503871474,1588.7665271140709,1425.5911752306329,1275.1974375430925,1136.7664923455711,1009.5649347614951,892.9337872217027,786.2775371373392,689.0531476301588,600.75905739384,537.6546940489532,528.6243440423466,520.1332742320516,512.143345285341,504.6191407370868,497.52777250415113,490.83870029158845
S2,16061.618545518237,17011.528647028,17876.88667047443,18669.28828290145,19393.98215285777,20055.87025018962,20659.521726724975,21209.18913789374,21708.82610703836,22162.105569753472,22572.437946364935,22942.988808412123,23276.695778159115,23576.284522769634,23844.283785692558,24083.03944841655,24294.727645826024,24481.366975162793,24644.829847043547,24786.85303036753,24909.0474433486,25012.90724160977,26163.230948055276,27288.18695193695,28386.010137817615,29455.0044273778,30493.524742843263,31499.95915226174,32472.71072266567,33410.17818945034,34310.733777283946,35172.694996751234,35994.28413161874,36773.56234823423,37508.30944255193,38195.77925127835,38832.14160705709,39411.01500257674,39918.765541612054,40314.36950195146,40422.66564050637,40380.52432289689,39884.00497136788,39527.862412580995,39164.60618530749,38804.3553662571,38448.186837821675,38096.151976091685
E2,0.0,5.149086170324536,8.264560130118387,10.187801732390652,11.412385702459483,12.223972616762463,12.786434006129047,13.19312424835614,13.497039861810453,13.728355911077859,13.904504494659246,14.035895953574549,14.1291223076895,14.188722453248626,14.218136087369231,14.220206671331692,14.197438185945568,14.152120564204688,14.086387289444296,14.002239574861086,13.901555304296698,13.786091987539038,13.6574881737887,13.945568825297999,14.55770962037733,15.441583964375319,16.575119687083998,17.96107459415008,19.625387982529716,21.619195392238602,24.02525501750043,26.9708573811285,30.651766884396757,35.37703449104001,41.65706566890682,50.39041367971723,63.30381885540235,84.1490359909066,122.69177659266765,212.54648504355941,508.0551753566145,681.6938060458813,833.9464153301662,794.7561335596686,767.6689869456274,739.945616409993,711.3547734777815,682.6773132776984
I2,0.0,0.0,0.5293312003973853,1.1672037549423286,1.747638445010599,2.2217877140942695,2.5897092208187007,2.8682837173771896,3.0772365783507354,3.2338511235005267,3.3515993714567576,3.4403565705318417,3.5071180631662697,3.556758721049593,3.5926700702622076,3.617240630751033,3.632195825143439,3.6388283187436485,3.638149118132781,3.630984151476956,3.618034702390958,3.59991458937791,3.577172777301004,3.5503070895722977,3.56380265559935,3.634828680258568,3.768307460290158,3.9649233325986932,4.225370404501457,4.552731726019954,4.954113911746742,5.442288555449269,6.038004206250733,6.773834769574349,7.701095336376918,8.903045153039125,10.522011940026236,12.820902960133438,16.3431467106139,22.418725185120195,35.30122603116214,73.40931501003242,114.12439303484882,154.20516012984518,174.22482028381776,183.45203065394554,186.13836669926744,184.81100112104423
A2,0.0,0.0,1.0153946506999754,2.6045418690035946,4.509384521915444,6.579520204688761,8.72689458916781,10.89929082255384,13.064990116234107,15.203993293637792,17.303051637859195,19.352883973084815,21.346633279386623,23.279016757368176,25.145857985415585,26.943825903616023,28.67028342217807,30.323192717417033,31.901049051095164,33.40282859528736,34.82794311242941,36.17619821127791,37.44775385541424,38.643086730142585,39.84741550667031,41.12428468561774,42.524378235370605,44.09200015565638,45.87022612273291,47.90552398926343,50.2525867712297,52.98023959722942,56.179656154697625,59.97696772800484,64.55420489156434,70.18676844536084,77.31623696325882,86.70703734523147,99.83286171416034,120.03424306464237,157.14682793503448,251.0489280332823,375.436308696886,524.8722566391245,660.6024822355495,785.5619405461608,900.0559995404121,1004.3322105006463
IH2,0.0,0.0,0.0,0.10586624007947708,0.2859782791500067,0.49144820949243917,0.6882452460825612,0.8594926914495583,1.0001914106910683,1.1118055916102794,1.1985185208097282,1.2651006135704463,1.3158943015171096,1.3544536425244214,1.3835173593692627,1.4051228848319774,1.4207590259882044,1.4315097076547585,1.438171374983682,1.441341475779344,1.4414816870854834,1.4389613789917806,1.434086620013257,1.4271190936895075,1.4182882286361542,1.4166049077333636,1.4299747423028624,1.4633054563437988,1.5191694404749092,1.5989820991805717,1.7040624557453004,1.8364864159168812,1.9998384942562974,2.20004726356237,2.446569637937235,2.7543617548385013,3.1474976454605184,3.6663899117203016,4.383675296793635,5.4440864489724055,7.185445266597017,10.626117884469103,19.95521517909371,32.72791926142373,47.082696777403,58.21037786580304,65.57807952055585,69.77166656190873
IN2,0.0,0.0,0.0,0.10586624007947708,0.32272251080434144,0.621694091390441,0.9686601203430996,1.3348564728760084,1.699401219811916,2.0486287663776492,2.3744709660725243,2.6728179919491124,2.94217889183466,3.182695347219438,3.395461818811848,3.5820796197483618,3.7443769133785243,3.8842405565714366,4.003520353615366,4.103978528946728,4.187266431292432,4.254916973998526,4.308345695507398,4.348856176000231,4.377647347932861,4.404627350828666,4.441586005175229,4.499450655987017,4.587573691969537,4.713981224448271,4.886058643947916,5.11145570525041,5.399178109236149,5.760970478162417,6.213252361080642,6.780134120090817,7.498600956786773,8.42830969855417,9.672153082550658,11.425590879345394,14.119459499711645,18.96782018799111,30.678278525818342,48.697250128338524,71.90961240048628,95.48957312168432,117.22105618476645,136.08546006954808
D2,0.0,0.0,0.0,0.0,0.00039559187819758197,0.0014642109628815456,0.0033006124453938265,0.005872388200856193,0.00908406671000482,0.012821496115406663,0.016975995810923353,0.021454516936692706,0.026181836311174437,0.03109895717856191,0.03616016328142853,0.04132997218652391,0.04658051476451467,0.051889485132546063,0.057238627724972915,0.06261266306402606,0.06799854416360579,0.07338494919275833,0.07876193655097369,0.0841207083282954,0.08945344445135439,0.09475318215593793,0.10004662977147095,0.10539003663713478,0.1108579908538637,0.11653469281103788,0.12250963186001407,0.12887722616513145,0.1357396509571284,0.14321247577305418,0.15143342353187428,0.16057555493737408,0.17086781750393118,0.18262911651913602,0.19632936761233857,0.21270990915953114,0.23305290407275558,0.2599028591345872,0.2996096242819115,0.37417655937480054,0.49647143865270627,0.6724060183147149,0.8899215614494902,1.134968099672171
R2,0.0,0.0,0.0,0.040615786027999014,0.2143150610914827,0.5882356899591241,1.1945321167590894,2.0394760149979136,3.114305990164377,4.403221069263689,5.888211621819571,7.551565796153566,9.376941876083002,11.349661515265499,13.456634279439946,15.686143491657129,18.027608802737802,20.471375174454803,23.008543603683663,25.630842901514505,28.33053571116536,31.100350676977378,33.9334334912911,36.82331103048166,39.76386429251395,42.752685555322905,45.79596647831945,48.90772582013195,52.10792018506733,55.42098049863566,58.87516143350083,62.50272185326952,66.34090995222125,70.43382391786119,74.83541132975921,79.61420165265561,84.86099546180117,90.70208740929962,97.32390106699923,105.0242447292905,114.33753409302018,126.42801436167304,144.75443508941814,174.55540203129001,219.54292168138815,280.7733726950771,356.25996231753203,443.4145115144983
G2,0.0,0.0,0.5293312003973853,1.3789362351012828,2.4262524271464847,3.5994570742343948,4.856093666596534,6.170551851482504,7.526818199406925,8.914327375897011,10.325616073253453,11.75501302091124,13.197917141758406,14.650405024908238,16.10901986254069,17.5706584511344,19.032509897827218,20.492020721484803,21.946872848371395,23.39496752896868,24.834411740473467,26.263505508416802,27.68072953209106,29.084732955282757,30.518351357138727,32.014898444037684,33.6023086961727,35.3062475525973,37.15266395753954,39.17017344085862,41.39264831699339,43.86246852539461,46.63509959837578,49.78613184419969,53.422926318832,57.70531427004497,62.885499118247736,69.39319491436544,78.04379984889927,90.65663700765113,112.50662792774115,164.73520731907627,234.81401134790565,320.54453565684156,402.24625986275225,481.1633983464071,557.2305466533072,630.358527754791
H2,13358.276903943866,14153.412433940524,14878.44162152931,15543.011894200472,16151.501790010463,16707.976534946672,17216.210428460203,17679.707629961435,18101.721460496155,18485.27232566156,18833.164358245893,19148.00087204073,19432.198711743076,19688.001577798634,19917.49239940564,20122.604823668495,20305.13388403411,20466.745906634413,20608.987708970984,20733.295141489572,20841.00101898163,20933.34248539742,19948.055156557628,18958.87920712812,17969.714519788336,16984.222860486305,16005.854746071522,15037.87369928655,14083.377834898121,13145.318644509585,12226.516761149673,11329.674388541058,10457.383976389552,9612.132617523112,8796.301545221833,8012.160035947352,7261.852998467032,6547.381589255957,5870.576379703385,5233.0629629063615,4636.220474247572,4212.207258565521,4200.465840776572,4188.219176770352,4175.511801396803,4162.384995091032,4148.877017106883,4135.023322082097
S3,48184.855636554705,47965.71017237181,47760.91806140917,47568.95638751509,47388.53362159194,47218.569601473035,47058.128684891744,46906.38066748494,46762.57719987281,46626.03694518855,46496.13572820624,46372.29958501348,46253.99954020313,46140.747448994975,46032.09252651065,45927.618345908966,45826.9401767633,45729.70258575289,45635.57725060516,45544.260954839185,45455.473740570545,45368.95720244269,47195.92995333915,49088.94810673972,51050.703557321336,53084.0802664766,55192.166459589855,57378.26330969222,59645.888598218684,61998.77295851443,64440.84491814622,66976.19857612214,69609.03330381689,72343.54574453819,75183.73373624687,78133.01940250961,81193.44687944102,84363.69043547634,87632.8863046248,90954.48557231486,94105.80053211427,96445.46594090978,95625.57854177566,95007.25201858542,94387.1495042675,93778.40911461088,93181.67688978468,92596.2634172082
E3,0.0,8.827004863413487,13.687417965730809,16.302486859864963,17.644715736601,18.26491098457076,18.475775168988772,18.45522214427897,18.304679255990013,18.08206981793807,17.820515781845806,17.5389678174162,17.248261448911666,16.95457566912895,16.661412970204715,16.37073567263339,16.083619606818306,15.80063097079558,15.522043993484253,15.24796680789107,14.978414265432962,14.713350009818653,14.452710707988995,14.63730011093925,15.175953151795321,16.01972500370395,17.15184062942089,18.582651996051055,20.348781872067427,22.51649161388391,25.190352959103365,28.529952444142516,32.78049695787078,38.32995338520689,45.82146999716885,56.392472332401255,72.23990493049395,98.16402226372321,146.7400624153525,261.6089834939671,646.3068675576185,886.1698172658926,1107.2290836092016,1064.1327634896609,1035.159124155793,1003.5906297227496,969.5832122252984,934.5383377125
I3,0.0,0.0,0.9074249149669459,1.9515351846726259,2.8468330403277666,3.5219942226539627,3.9908476228933094,4.293836711772687,4.473517293635055,4.565849683498087,4.598364644877277,4.590985605595949,4.557614770118478,4.5077073638384615,4.447571728622158,4.381352929278704,4.3117397332000635,4.240455997261243,4.168594241310791,4.096838168264566,4.0256091160531655,3.955161414175439,3.885643922867647,3.8171394475698173,3.7950127373529323,3.8371107817437604,3.949110197379542,4.132692463661675,4.389930660787279,4.725833494046645,5.150217920224597,5.679724192447215,6.34074211790343,7.174313093956004,8.244945342231835,9.65746008024188,11.591678519745033,14.381341480425132,18.720164407572902,26.31712360146928,42.68393891749088,92.05135476388654,146.32995503868537,201.62222854248046,230.36724789872102,244.63574045468263,249.9515632349532,249.6450604231797
A3,0.0,0.0,1.7406765440571002,4.3701946363216,7.410220979304034,10.59333246265487,13.77142137021897,16.86396892807014,19.82876154765958,22.645275555233148,25.305230643626818,27.807209333765904,30.15358789887922,32.34878431583017,34.39825833361657,36.30794199922791,38.083917045415966,39.73223408830361,41.2588133730561,42.66939241270104,43.9695005434659,45.16444885681361,46.25932883112427,47.259015796426766,48.25511612904043,49.31759429008541,50.50396429125989,51.86613156320181,53.45596671689878,55.330487512268775,57.55749767214659,60.222710212679274,63.43987993497976,67.36656600172786,72.23053189136257,78.37725873995595,86.36270761847818,97.15383642430913,112.6255301271359,137.05750268973068,183.16423287372228,303.28873241266695,465.9089861155746,665.6170962344428,848.8383306587306,1019.0171429636692,1176.1635271998036,1320.3178272971932
IH3,0.0,0.0,0.0,0.1814849829933892,0.48037137092573823,0.8077572830254123,1.1052591279674973,1.346669051130275,1.5270697506096877,1.6525321108739446,1.7332609520007383,1.7798267042363465,1.8014597695922117,1.805521298593046,1.7975554050645375,1.7815750975241547,1.7604008977267136,1.7359702805444401,1.7095895149986617,1.6821253584158053,1.654144691217883,1.6260131029319207,1.5979628881176395,1.5701390980837822,1.5426302775574463,1.524553317850042,1.5240019953057842,1.5461282772955687,1.5938251919557045,1.6689430589745724,1.773401865138644,1.9101178207563114,2.083866184562638,2.302294703586017,2.5774069533685964,2.928061512076151,3.38458144317772,3.997979212139013,4.860318596627694,6.1560305585142565,8.318436673003673,12.664922499908556,24.695407007511612,41.52141483448139,60.92999946704954,76.31077132159143,86.79738221209928,93.06466674601953
IN3,0.0,0.0,0.0,0.1814849829933892,0.5433614823331692,1.0276077746777665,1.5710266803246191,2.12308695464678,2.6492620214013187,3.128945227458033,3.551950118797481,3.9151921534834075,4.220054684190144,4.470484795313891,4.671702285658541,4.82937091460149,4.9490961980200145,5.036143272945788,5.095297237523766,5.130812084118759,5.1464121363270685,5.14532255126251,5.130314114816225,5.103753327347049,5.0676525260892165,5.032781755317637,5.011793275476629,5.016492629949339,5.057172260107176,5.142926860527833,5.282428137087942,5.484952720574622,5.761652061416598,6.127208640547472,6.602213133709194,7.216932227800288,8.017855424120597,9.080153651552905,10.533970097911382,12.627803453542874,15.913019096129837,21.956952208148678,36.92755589521875,60.40865909105729,91.26978378527966,123.04536157214842,152.696833404166,178.76641723331377
D3,0.0,0.0,0.0,0.0,0.0006781575054815688,0.002473168008491763,0.005491526084493219,0.009621563516628719,0.014653680826615764,0.020359903984526025,0.026534944120377307,0.03301164485985527,0.03966234850500683,0.04639388873176243,0.05314060573144005,0.05985755646398568,0.06651479335509018,0.07309290831401959,0.07957973303982646,0.08596798038550998,0.09225360202844286,0.09843466791609684,0.10451061409950543,0.1104817446480724,0.11634890564648054,0.12211327404574807,0.1278100940137368,0.13350485384696859,0.1392822932713835,0.14523796243211914,0.1514743255900902,0.15810102144802016,0.16523858575298073,0.1730253980289687,0.1816284152445815,0.1912594482990958,0.20220077720782698,0.21484799060668003,0.2297872961335187,0.2479489174476898,0.270952243995002,0.3020358640864564,0.349361059306428,0.44164073631792033,0.5967943950051683,0.8244723866827098,1.109623926315661,1.433960933336411
R3,0.0,0.0,0.0,0.069627061762284,0.3636078763065878,0.9853227166625744,1.9739145955654154,3.3235102646144234,5.003995822902365,6.975701412783888,9.197943535790355,11.633214131825326,14.24875044770659,17.016716691357814,19.913752695710585,22.920306448369,26.01995697953741,29.198814981931648,32.44502672061028,35.74837801469902,39.09998397185957,42.492047747482346,45.917672972502224,49.37071714184872,52.84567601351948,56.341069115701984,59.86446018242018,63.431742436726665,67.06531070047701,70.79269349686761,74.64604994909487,78.6625697891083,82.8857826056411,87.36790273977142,92.17357085726303,97.38576558395711,103.11545550932149,109.51829201216617,116.8258869249346,125.41126695421697,135.94979141877022,149.92843374170027,171.83211155386846,208.6010623141458,265.4497745950379,344.16617934778736,442.3579269860488,556.7238879979335
G3,0.0,0.0,0.9074249149669459,2.314505150659404,3.990417080183595,5.804311478640898,7.68196256794183,9.581290705978532,11.478505972549975,13.360245279867028,15.219100114645453,17.051066933315038,18.854090340075945,20.62722884184332,22.3701761521624,24.08298604426781,25.76591401990065,27.419326177241853,29.043646820195896,30.63932844367399,32.206834658768415,33.74663060331196,35.25917767767434,36.74493077152356,38.24965984033461,39.80976297966661,41.456606707999896,43.21983305323384,45.130148235824116,47.2220233333984,49.53674115719501,52.126334597507466,55.05924219994257,58.42911002315651,62.36946750901475,67.07996038391752,72.87716285551743,80.30349722409554,90.39485674341336,105.4798817003389,132.3735464569482,198.8145378703402,289.91368005069364,403.7379355699629,513.1318463431957,619.5472380586457,722.7173570207893,822.3914795029971
H3,40074.83071183159,39899.90089523233,39735.894726271355,39581.8865752373,39437.073376327,39300.71088140535,39172.109439952525,39050.63008067269,38935.680873214245,38826.713549990985,38723.22036952275,38624.73120404156,38530.810835341705,38441.05644399652,38355.09527812748,38272.58248889792,38193.19912081982,38116.65024581339,38042.663230748694,37970.986128932585,37901.3861866854,37833.64845678423,37767.57451113718,37690.32157064624,37601.93650049953,37502.51220251666,37392.18439678719,37271.12874998148,37139.55831634218,36997.72125697859,36845.89880179555,36684.403416079986,36513.577130333375,36333.78998729952,36145.438554280634,35948.94444186665,35744.7527624219,35533.33045366918,35315.164385474985,35090.759162973445,34860.63453855469,34625.3223516173,34386.92332319389,34150.37117455747,33915.64450020723,33682.72260319832,33451.58545049418,33222.21363146752
S4,24092.427818277352,24480.654216246327,24868.74392668023,25256.15662396583,25642.558655935216,26027.795316647807,26411.811252722237,26794.605315978573,27176.20495899851,27556.651755508465,27935.993264602424,28314.27851448632,28691.555550150242,29067.870155547826,29443.26524134023,29817.780606875393,30191.45290967155,30564.3157470784,30936.399795740737,31307.73297798931,31678.340637774498,32048.24571650242,33791.353136906706,35544.90152299828,37308.47332535941,39081.54780965226,40863.48800973573,42653.52327947157,44450.72602684578,46253.980010042134,48061.93542606281,49872.94191836628,51684.942295271394,53495.291675404886,55300.42442501978,57095.18205733096,58871.29710182966,60613.438756645446,62286.5822221872,63781.82122330841,64627.14990663924,65291.330022068345,65093.155916074174,65290.80090211762,65473.72262163939,65668.63769634588,65877.35047159293,66098.91232471164
E4,0.0,13.240507295120237,20.764902201995973,25.034610777405238,27.452193373505917,28.81633169877101,29.581306765390117,30.005038189894037,30.233595991132795,30.349441713599127,30.398947384657774,30.408074740512237,30.391292500157665,30.356634999081344,30.308561855325166,30.249566879679822,30.18107745369226,30.10395286441757,30.018757082660997,29.925905540118634,29.82574217396248,29.718578380216933,29.60471154496596,30.432854895837345,32.011974277192394,34.2399916647272,37.08308579220418,40.56529566097808,44.766871803118676,49.83154907186452,55.9850795049684,63.570835134596315,73.11492727969343,85.44758622941171,101.94156658579428,125.01824083560115,159.34156539756765,215.07122526846868,318.72808089633816,561.9130672104652,1367.7551103215621,1851.0722174876316,2284.6311077403234,2189.5640118191814,2131.1242417695903,2072.3472358781764,2011.6925078777365,1950.7831184209963
I4,0.0,0.0,1.3611373724504194,2.9513351065159625,4.3443840524129556,5.428743325127149,6.219593670877235,6.772744079111117,7.148194337645978,7.396960462981406,7.558129194140477,7.659919665259137,7.721932249227122,7.757414568540032,7.775141134406734,7.780835106740813,7.778186747730124,7.769556950935847,7.756450588062074,7.739828558893243,7.720310110093242,7.698302146745155,7.674080823721113,7.64784240553081,7.717233318104023,7.921202915024443,8.272627085604551,8.775754503487315,9.435605606204112,10.263442491112002,11.280798503077651,12.52380118394726,14.04942604664057,15.945943167893262,18.351663096573493,21.49069270598107,25.74641562981639,31.828321425763313,41.206529591977514,57.48948276622613,92.25891411834002,195.96193970824845,307.8692363390941,419.5839012052165,476.83970772630676,505.18552491751865,516.1506803294867,516.4944069659305
A4,0.0,0.0,2.6110148160856514,6.601392200995305,11.274136757673686,16.236716405739138,21.26979958333993,26.25241175303859,31.11927884970595,35.83654263266373,40.38796052508528,44.76708417070435,48.972842775958206,53.00706159596342,56.87307723856657,60.57497227952469,64.11715776856201,67.50414979162943,70.74045324178896,73.8305040308597,76.7786425569036,79.589103426127,82.26601326747297,84.8133922889657,87.42218519137273,90.2380271427135,93.38059821983323,96.95812177657658,101.07923269969521,105.86404580525347,111.45621568619224,118.03816882813439,125.85274727911569,135.23682803195018,146.67753358365815,160.91320736801313,179.1301513177452,203.3869428364322,237.66329596699597,291.00962338617796,390.1779341552661,644.2907586482796,983.5487210344928,1394.73374511345,1770.7242318514893,2120.150834826572,2444.0096068179864,2742.9529761403496
IH4,0.0,0.0,0.0,0.2722274744900839,0.7253635222900121,1.2288480954838965,1.6955808586905066,2.0853732625193833,2.389443003286388,2.615431703671409,2.7773348237546465,2.8899151443469817,2.9661427183889706,3.0163741815483816,3.048398676371086,3.0678365705725605,3.078621678285642,3.083444259475354,3.0841115701039437,3.0818214592944093,3.0773605555453623,3.071243083033037,3.0638056133534066,3.055270405607038,3.0457870117274233,3.054958934034438,3.100304541720085,3.1930927361046715,3.3397655939138318,3.5445241688173486,3.811705708984797,4.147769300417654,4.563145858727787,5.074406966955026,5.707430508697451,6.502720837273705,7.525200150812546,8.883763679421499,10.774350039342972,13.58822027172782,18.241231394032823,27.504236253068367,52.84173059916209,87.7972581245176,127.4873360458028,158.6352258345485,179.761943406387,192.43938877002944
IN4,0.0,0.0,0.0,0.2722274744900839,0.8198486894011586,1.5602920691856776,2.4016131149111564,3.269307046211305,4.111702430091109,4.897222381614077,5.6094398973729005,6.24231869467011,6.796411931753643,7.2761061864209395,7.6877503814403925,8.038453751060578,8.335356464124494,8.58521819846424,8.794211873010886,8.96784436216322,9.110952040637855,9.227737490000845,9.321826317244014,9.396331390718801,9.453917185156907,9.516360057075554,9.609814857668498,9.758914326685277,9.985282095729199,10.30815843299742,10.746021941140073,11.318763125510277,12.050382051883112,12.972514157310695,14.129493043478892,15.586369339622488,17.442824540595105,19.859601259248652,23.114158879238364,27.73451527250959,34.88766017676664,47.874115137553616,79.56678157176069,128.6760913475093,192.4351131213769,257.65712397910784,318.3309414386582,371.69293057103175
D4,0.0,0.0,0.0,0.0,0.0010172362582223536,0.00372771240192311,0.008319566478794537,0.01465546748011174,0.022447911275638447,0.03137657677661883,0.04114969745395785,0.05152780381239496,0.062326590648742436,0.07341021814027024,0.08468154625138108,0.09607254074571031,0.10753616909451096,0.11904009830800254,0.13056204812890557,0.14208649149888247,0.15360237737937316,0.1651015941376657,0.17657795164980805,0.1880265174636961,0.19944318964595376,0.21082442509603214,0.22223993339805453,0.23382488527433543,0.24575656011030209,0.2582363094906917,0.27148118313696945,0.285724437827244,0.3012234660977358,0.318274637834717,0.33723624619343096,0.3585632825831506,0.3828620916036699,0.4109816135517225,0.4441776990721631,0.4844383654113292,0.5352136604876424,0.6033759281036908,0.7061513971254776,0.9036058400077418,1.2316790975070309,1.7080628311212958,2.3008373255122803,2.972556324573679
R4,0.0,0.0,0.0,0.10444059264342606,0.5472558243203981,1.4893364864704237,2.9976568097418883,5.072464025296037,7.677400558619692,10.761012130257352,14.269364264237065,18.152297138648684,22.365828773618645,26.872506039029588,31.640814312330868,36.64426159732024,41.860443082071754,47.270215847163335,52.857021684206714,58.60635322739032,64.50534215157593,70.54244470428041,76.70720198494787,82.99005641359292,89.38220999462312,95.8829946998439,102.5107810349816,109.30158318273911,116.30523755350805,123.58253444242537,131.20418334912392,139.25170334730933,147.82025606106015,157.0236919854892,167.00257833765517,177.93685125852133,190.0664233121023,203.72673584752812,219.4152020658591,237.9298584493347,260.7091051696339,290.902166095742,337.92563607565,416.15298770868094,535.9987250426534,700.7172930271448,905.2042268614352,1142.713729770872
G4,0.0,0.0,1.3611373724504194,3.4957900554961308,6.069373043999509,8.891485937678885,11.85383361347983,14.894821490064606,17.979369380243913,21.087413240637733,24.207366156989366,27.33240830576422,30.45838875583586,33.58264397483962,36.703336368122336,39.81908679421911,42.928772477904744,46.03141738020252,49.12613379770308,52.21209200375908,55.28850497851638,58.35462105920559,61.40972059487961,64.45311450617776,67.58164238096329,70.87250530512532,74.3924106417152,78.20458889383978,82.3747417979515,86.97682092534103,92.09955393375148,97.85487601585216,104.39002135212436,111.90630889203328,120.69040608787081,131.17010093590778,144.02210094213552,160.402572990009,182.51210972652854,215.27767473756816,273.04289919617247,413.64949043341693,603.9415629475619,838.803922349322,1063.8932893524989,1282.9749896342335,1496.0143550132088,1702.8183537814473
H4,20037.415355915797,20371.372278514395,20703.87145264133,21035.003908693594,21364.85296348724,21693.4952416233,22021.00116563501,22347.435410967948,22672.857328306887,22997.321335583674,23320.8772818336,23643.570784912958,23965.443544946636,24286.53363524115,24606.875772274456,24926.501566258852,25245.439753666335,25563.7164130065,25881.355165054945,26198.377358644517,26514.802243052287,26830.64712794133,25772.04331841638,24716.759730005793,23665.578934827943,22619.377634157,21579.135658177627,20545.945315424233,19521.020933890417,18505.708353679416,17501.49402387468,16510.013219485754,15533.056724153766,14572.575119292916,13630.679583407098,12709.637846919539,11811.863690227477,10939.898154858298,10096.38052021976,9284.0071665631,8505.476805102231,8012.757465996379,8301.301818926524,8587.859513286474,8872.44593974112,9155.07631057618,9435.765665602832,9714.528877690283
E_Om,0.0,0.0,0.46236978644541976,0.598801669006343,0.5955980856072277,0.5411978230040941,0.47554790999845015,0.4150761692342285,0.3651987678796708,0.32648470489136855,0.29761662753732016,0.27675323923340917,0.2621094374419267,0.25216525575425935,0.24570765971668337,0.2418041942243331,0.23975476496596074,0.23904183482541463,0.2392868334549585,0.24021484788574776,0.24162723687769866,0.24338095319780112,0.24537320265684381,0.2557351638576203,0.2730948587578774,0.29698135613945975,0.32763817339843615,0.36596878971551655,0.4136006005912869,0.4730831675422742,0.5482761480475868,0.6450499860669361,0.7725579840808056,0.9456398756234554,1.1896532981068506,1.5510234650347674,2.122934343805878,3.1178541281585326,5.119948434022797,10.279946437807926,29.68082295839367,46.18463438554609,70.062756661448,76.09916890517654,85.89823682680974,95.5404353631404,104.74070070710218,113.49370181155243
I_Om,0.0,5.0,3.0,1.8475320757879665,1.1700766550344666,0.7632740710097082,0.5136001192729244,0.3570468716131858,0.25689836767722746,0.19168181864679112,0.14857204489188536,0.11973851345810307,0.10029361744515893,0.08712128238932867,0.07819560954767182,0.07217635852119542,0.0681635277545357,0.0655451459201353,0.06390082688908576,0.06293942157423878,0.06245797919556888,0.062314308767208906,0.0624083902992323,0.06266964445237769,0.06389161690358297,0.06640939434615384,0.07037561659655614,0.07590690137617173,0.08316609787985794,0.09241821350717312,0.10408435016784763,0.11881394565098383,0.1376001501315669,0.16197982235044384,0.1944006169790095,0.23893791726922464,0.30280951148257057,0.39992547748184026,0.5604738044804392,0.8626200946956949,1.5743608165989857,3.9958347305658726,7.145327375038292,11.489717777353867,14.716901225606634,17.660565262652145,20.417991323508026,23.018243425142046
A_Om,0.0,0.0,0.0,0.09117886014565928,0.2056147968800489,0.31484155269798686,0.4089715608241962,0.4863902713413321,0.5487872665486315,0.5988526082101329,0.6392809616453274,0.6723994249177384,0.7000789103207545,0.7237634732182691,0.7445396709017416,0.7632113891880845,0.7803664792460425,0.7964312202985752,0.811712782597252,0.8264313958890621,0.8407442681681984,0.8547631472549124,0.8685671022851493,0.8822117687179581,0.8973540168943694,0.9153138896419539,0.9372657609092498,0.9643850510741725,0.9979783288917058,1.0396208211341653,1.091327516487937,1.1557939246924205,1.2367653807838277,1.3396424285052126,1.4725359704832977,1.6482329740142019,1.8881639334430282,2.2312779086547727,2.756864512764806,3.6562386504536217,5.537184275996285,11.168725551868054,19.82954030875839,32.85266434251156,46.54523788116974,61.62247488667771,77.99805433423597,95.53289374195995
IH_Om,0.0,0.0,1.0,1.0962632858416375,0.9135416355369146,0.6873725048115861,0.49377255203693615,0.34776121298684576,0.24399049656776278,0.1724631990762962,0.12392351758972142,0.09121310101050618,0.06921341591089962,0.054406800693298694,0.04442435416205323,0.03768529787738752,0.03313710145679231,0.030077432403122602,0.028035354618080422,0.02669308258032127,0.025834681185400166,0.025312399612851595,0.025024476357852106,0.02490040692366052,0.02489108664920517,0.025130855829420068,0.025753399959151234,0.026855590204633517,0.028508823713402263,0.030781102107464584,0.033759173575111955,0.03757030843925276,0.04240755384634415,0.048565342042606305,0.056497160690175595,0.06691759000063144,0.0809963265481618,0.10075740545040714,0.1299872965980652,0.1766026838235152,0.26016544710184847,0.44398272296101926,1.0194992710667272,1.9350055331803866,3.2582157594886216,4.560313103906156,5.795229017941575,6.959557659350098
IN_Om,0.0,0.0,2.0,2.886689916423765,3.167004920380541,3.1265984962225835,2.9263278224836666,2.65622377548797,2.365918347509569,2.0819343997180972,1.8175845803428388,1.5786773572566313,1.366823935038306,1.1813607038400065,1.0204662434357283,0.8818063399380152,0.7629008351589224,0.6613259935864878,0.5748196422419378,0.5013291728190886,0.43902644426655424,0.3863040492820261,0.3417616461061258,0.30418756259590846,0.27253874772238784,0.24613507737421483,0.2244859792294372,0.20721441940828564,0.19402993739589947,0.184726651836837,0.1791955526365056,0.17744822174810598,0.17965465421612958,0.18620358986503965,0.19780268405032336,0.21565344065104547,0.24177532511573996,0.27965194815219485,0.33564919538730614,0.4225669642449794,0.5704169135457449,0.8702876281191083,1.7171940532147292,3.1996314602849587,5.502650035061425,8.222152626324954,11.220379188005438,14.405536018179797
D_Om,0.0,0.0,0.0,0.0037367141583624663,0.007833136699859872,0.011246780663624265,0.013815295234422792,0.01566038212062998,0.01695986636892723,0.017871589111957884,0.018516034789742758,0.018979101552474353,0.019319938838448448,0.01957856958963134,0.019781872252093196,0.019947873365266648,0.02008869255140719,0.02021251642758788,0.020324907195095814,0.020429667301631912,0.020529411721240134,0.0206259485402024,0.020720533742217873,0.02081404305732986,0.02090708876043049,0.02100009963632961,0.021094006461119162,0.021190239555372494,0.021290591219521336,0.021397120544729458,0.021512140724784426,0.021638289106657157,0.021778678610136163,0.02193714351701532,0.022118618318231646,0.022329732058489902,0.022579783964488752,0.022882444084676618,0.023258945708183022,0.023744671079788275,0.02440458482883642,0.025376748738538592,0.027035785265495355,0.03084536262613061,0.038075925198475476,0.05025094615795632,0.06729153269988836,0.08894664702218363
R_Om,0.0,0.0,0.0,0.8133100835762352,1.8173034103895827,2.77842610817863,3.6245034407727568,4.346172586541103,4.955619650435839,5.470199426978051,5.906530651232563,6.27879743688028,6.598607731753237,6.875337456781942,7.1165575064842175,7.328412452410102,7.515922965948336,7.683218438058585,7.833714454232949,7.970249037921921,8.09518857756522,8.210511394857315,8.31787459753713,8.418668204759793,8.51405939430023,8.605093667213938,8.692829951545907,8.778364142418884,8.862828523095672,8.947397836058943,9.033311581320921,9.121916155554514,9.214731225355012,9.313549424873196,9.420587524186113,9.53872433108624,9.671895643804064,9.825795688075207,10.009234394770512,10.237083762309682,10.537831895681663,10.978760675700595,11.783836004006506,13.355774358054864,16.13862209846304,20.49155736464207,26.524654575327478,34.299920228243224
G_Om,0.0,0.0,0.0,0.04753207578796664,0.10908948534965354,0.17031756333868198,0.22595324000578132,0.27484004005521256,0.3175102847645285,0.3550530828049832,0.38861603650879395,0.4192113230317658,0.4476618324020628,0.4746069443242961,0.5005297844383707,0.5257887772309631,0.5506464898727815,0.5752935191401954,0.5998672584772,0.6244661839179874,0.6491605101690129,0.6740000314188805,0.6990198364577875,0.7242444467306257,0.7505342769627822,0.7786087011667862,0.80913868115565,0.8428202125738881,0.8804421696280429,0.9229607244073013,0.9715941464708451,1.0279574820211204,1.0942692647620968,1.1736889970336006,1.2709017206023439,1.3931992676841625,1.5526460288051984,1.7708857993974965,2.0914043173888315,2.617740129396263,3.674528889177832,6.725747129784312,11.47357366648308,18.67609501881397,26.499165578008284,35.32959010529645,45.151242271213185,55.91869090225042
beta,1.4307563340022902,1.4307563340022882,1.4264007399888832,1.4227047979782455,1.4194250063977947,1.416405837424672,1.4135598171083057,1.410837204029356,1.408209292374156,1.4056591622090906,1.4031765326846306,1.4007548876967575,1.3983898650634776,1.3960783504460745,1.393817965473155,1.3916067769905756,1.3894431307302961,1.3873255552298858,1.38525270558425,1.3832233299002339,1.381236248777783,1.379290342331318,1.3773845416268564,1.4624424502973148,1.556269750689087,1.660750657842204,1.7783133142677243,1.9121426647662714,2.0665002983286795,2.247219452440789,2.462497581950947,2.724216560360237,3.050246935517029,3.4687016863063285,4.026346228702993,4.806714902417262,5.973688632991867,7.892890796119894,11.545862565022718,20.398212310201703,49.26357676469119,34.95575242610147,24.190718867878715,9.914810511082695,7.357669529574689,5.8466979371511565,4.885042985246759,4.221774339528746
