series,2021-12-01,2021-12-02,2021-12-03,2021-12-04,2021-12-05,2021-12-06,2021-12-07,2021-12-08,2021-12-09,2021-12-10,2021-12-11,2021-12-12,2021-12-13,2021-12-14,2021-12-15,2021-12-16,2021-12-17,2021-12-18,2021-12-19,2021-12-20,2021-12-21,2021-12-22,2021-12-23,2021-12-24,2021-12-25,2021-12-26,2021-12-27,2021-12-28,2021-12-29,2021-12-30,2021-12-31,2022-01-01,2022-01-02,2022-01-03,2022-01-04,2022-01-05,2022-01-06,2022-01-07,2022-01-08,2022-01-09,2022-01-10,2022-01-11,2022-01-12,2022-01-13,2022-01-14,2022-01-15,2022-01-16,2022-01-17,2022-01-18,2022-01-19
S,2838396.1780789183,2837639.7064087833,2837144.7173422733,2836785.8469118406,2836504.0019447417,2836270.431918771,2836070.477752487,2835896.12716804,2851223.6613544878,2866564.617472439,2881917.3372294186,2897280.3436137107,2912652.3246931755,2928032.113352078,2943418.6664927322,2958791.460193404,2974175.685817663,2989565.834198402,3004959.4317434207,3020355.0503541254,3035751.5873654005,3051147.988567266,3066543.116065378,3081935.6504502837,3097323.9795535645,3112706.0412099245,3128079.0797401443,3143439.247594979,3158780.920317135,3174095.451684582,3189368.7588239126,3194283.3457935294,3193947.2107503996,3193543.5560049484,3193047.9353218,3192435.8967414154,3191677.8635993293,3190737.9081088826,3189573.0733823897,3188133.2130763885,3186361.585726761,3184196.490441891,3181574.1608651676,3178432.9342582,3174718.397633948,3170388.8647972927,3165420.2960006413,3159809.7668574257,3153576.862432871,3146762.822920083
E,12.677564950521257,765.3459656002085,1030.7312424306156,1080.3823001338737,1038.1125771929342,960.2488300055994,872.1283472882459,784.8404275488675,702.9402594015928,632.1882101952268,570.8981367227775,517.7084579795136,471.50098768627004,431.34817904322097,396.4767312419856,366.2412775925299,340.09324615912965,317.5969432352732,298.3934586100757,282.19766938359624,268.7954584226194,258.0436234885085,249.87391722536802,244.30288665642945,241.45019873840457,241.5701411896406,245.1047646512121,252.77451983003934,265.73749325586084,285.8819123427194,316.39636376856515,362.9704135378456,412.9142510473248,460.98996050140323,511.4957081395696,565.4479379527185,622.9256299825547,683.5952747335652,746.7920580770297,811.4950868207085,876.2907144009671,939.3624690179092,998.5336775630408,1051.3812039131126,1095.4244161410893,1128.3715248460971,1148.3822778271924,1154.2925110318383,1145.7507725232995,1123.2398297599284
I,4633.70026131675,2992.371247415721,2136.859536731072,1656.6694340503368,1360.3306715399522,1157.7658097608478,1006.0790103693329,884.44156639314,782.4121211167683,694.4854234934345,618.6656343392204,553.2100875580721,496.627057053465,447.65240106573003,405.2202527864159,368.43428822416627,336.5420884601828,308.91019450374824,285.0123590729368,264.41222287852327,246.75133106600933,231.74065225646376,219.15508340503007,208.83099598048784,200.66730980301918,194.63113361828957,190.76990874895517,189.2335906880206,190.31342926830283,194.50997729733592,202.6559355996637,216.14935264234876,237.4282163613185,264.6388914632991,295.1714612576974,328.5029151602642,364.57032733408676,403.35443235158687,444.7527555682727,488.51969634333835,534.2211898841705,581.1955600021854,628.5255479488472,675.0317781978333,719.2992529154292,759.7454632509847,794.7308355792118,822.7009019328244,842.3386351810744,852.6996006487504
A,514.8555845907499,412.2647946211156,352.77221466489874,313.1397090048374,282.92323620788613,257.48196628209695,234.79303792584554,213.99828075932385,194.7438374339251,176.88327772918785,160.4722684892071,145.504758893049,131.9350608538246,119.69307831364779,108.69490802221485,98.85022835503145,90.06742101180103,82.25673419421473,75.33329565242998,69.21844028024626,63.8406823057049,59.13640959724249,55.05043638244925,51.536566622720436,48.558339897869224,46.09017788044751,44.11924654004723,42.64854017157415,41.7020677321605,41.33377898340422,41.643480557004956,42.80667535866092,45.134452693064105,48.49498968587103,52.625690563738914,57.44542369517822,62.91977709472413,69.02359057525594,75.72673070221171,82.98514630408026,90.73296964788547,98.87509715033738,107.28095179080718,115.78077175953698,124.16605352502295,132.19557530425104,139.60760598878375,146.13755312584277,151.53881783162936,155.60357744100247
IH,0.0,718.0119041743196,1151.4453596771214,1434.0544865145498,1630.3507113069065,1772.4586657233574,1877.1917902228338,1954.008336056494,2008.7406120307292,2045.3572980809545,2066.8068245919403,2075.6041506178144,2073.8882548305232,2063.476858542122,2045.9152243699727,2022.518357562884,1994.406977359414,1962.5380003149064,1927.7298741108427,1890.685023698967,1852.008667480407,1812.2249839185633,1771.7912829458865,1731.1107288811957,1690.5441471433764,1650.42149998391,1611.0537528169123,1572.7461223721107,1535.8142038817457,1500.6054280386056,1467.5301522771279,1437.110477654654,1410.0631445333183,1387.4524762037581,1370.0107308023305,1358.0349010197733,1351.7284254949222,1351.27642205319,1356.853224869886,1368.6099451207936,1386.6532712963071,1411.0181372433774,1441.6354755756693,1478.296995270758,1520.6204305628612,1568.0203592151706,1619.690804258963,1674.605682785789,1731.5412657572338,1789.1212966537744
IN,926.74005226335,1844.2127040040664,2424.24482644717,2827.3742855289124,3130.4344294836906,3371.196219496844,3569.0374192540453,3734.5628471353716,3874.1055319426455,3991.846900846573,4090.8255165367946,4173.650388239271,4242.555901868492,4299.455754260501,4345.991676931041,4383.575810719014,4413.426910256658,4436.601058846128,4454.017087158417,4466.479388101418,4474.697038796109,4479.30033462135,4480.85546172643,4479.877923790172,4476.845343748368,4472.210352271489,4466.414475472431,4459.904312467497,4453.151987480426,4446.683153459283,4441.118317384158,4437.238321330249,4436.095808645416,4439.220493831225,4447.756067185573,4462.312798765257,4483.390253809657,4511.470416738378,4547.026599041311,4590.5068841645525,4642.305754591575,4702.726935022493,4771.938777672705,4849.924499485749,4936.431610130458,5030.927144612238,5132.566965816312,5240.187463273992,5352.325769027817,5467.270238373753
D,4476.0,4476.0,4476.718011904174,4477.8694572638515,4479.303511750367,4480.933862461672,4482.706321127397,4484.5835129176185,4486.5375212536765,4488.5462618657075,4490.591619163788,4492.658425988379,4494.734030138997,4496.807918393828,4498.871395252369,4500.9173104767415,4502.939828834303,4504.934235811663,4506.896773811977,4508.824503686088,4510.715188709787,4512.567197377267,4514.379422361185,4516.1512136441315,4517.882324373013,4519.572868520157,4521.223290020141,4522.834343772957,4524.407089895329,4525.942904099211,4527.443509527248,4528.911039679526,4530.348150157181,4531.758213301714,4533.145665777918,4534.51567650872,4535.87371140974,4537.225439835236,4538.576716257288,4539.933569482158,4541.302179427279,4542.688832698575,4544.099850835819,4545.541486311395,4547.019783306665,4548.540403737228,4550.108424096444,4551.728114900703,4553.402720583489,4555.134261849247
R,0.0,112.23851744078348,242.66300791163218,384.81495770276535,534.6944598166139,689.6342695384767,847.7378633655219,1007.5894031895008,1168.096450938366,1328.3989905207316,1487.8127524742065,1645.8162453154043,1802.0162892605415,1956.1208797358972,2107.917886662676,2257.2583680594507,2404.0435207526875,2548.2144968521256,2689.7444136867643,2828.632262431146,2964.898233533451,3098.5802016473663,3229.7311796438253,3358.4176127137102,3484.718442663701,3608.7249349765766,3730.541336009274,3850.2865295309634,3968.0970166941706,4084.131801051054,4198.580221286506,4311.6746590968405,4423.711877433335,4535.090860651962,4646.243297700994,4757.589910580929,4869.553511972807,4982.563394557058,5097.056252091803,5213.474654538958,5332.263057152878,5453.861074203417,5578.6937732019105,5707.158949269401,5839.611711028169,5976.34722019106,6117.582988025047,6263.442591093769,6413.942852041229,6568.986317212934
G,336852.0,336855.42294253665,337062.06635324867,337340.36378870497,337632.0670097411,337912.3574055832,338171.62458968477,338407.0992434526,338619.0061588908,338808.8000289292,338979.49084568187,339133.633342597,339273.4146262515,339400.7198929268,339517.18390126846,339624.2326187038,339723.1177636538,339814.9429401167,339900.69411479024,339981.26034861495,340057.45371934853,340130.02849312266,340199.70027146454,340267.1662291154,340333.12800851266,340398.319562172,340463.5435002932,340529.7217867491,340597.97090710315,340669.7200302822,340746.9081466148,340832.3351648323,340930.33717648755,341041.8240242703,341166.2913136057,341304.3951548033,341457.0660980505,341625.2560181459,341809.82674232393,342011.46059800463,342230.56427144626,342467.1627643346,342720.7906309694,342990.3947239115,343274.2676489679,343570.03224132606,343874.6925530345,344184.75576804794,344496.41474602657,344805.7674546078
H,361253.16838391527,361253.1683839152,361253.16838391527,361253.16838391527,361253.16838391527,361253.16838391527,361253.1683839152,361253.16838391527,350284.3904797059,339442.78307483636,328734.2915300126,318165.1304536663,307741.8029112655,297471.11834106914,287360.20862459793,277416.5416098299,267647.9312078724,258062.54297787964,248668.89388006798,239475.84461519707,230492.58268711038,221728.59403488753,213193.6208027879,204897.6025798763,196850.59829048003,189062.68591011286,181543.83739390064,174303.76672473986,167351.7499132644,160696.4172034099,154345.51972284538,152321.38254745145,152321.38254745145,152321.38254745142,152321.38254745145,152321.38254745145,152321.38254745145,152321.38254745145,152321.38254745145,152321.38254745145,152321.38254745145,152321.38254745145,152321.38254745145,152321.38254745145,152321.38254745145,152321.38254745145,152321.38254745145,152321.38254745145,152321.38254745145,152321.38254745145
S0,993438.6623276214,990787.4105923339,986947.7184603148,983196.4928649964,979501.0605440731,975845.4694490598,972221.5486822465,968624.8019954424,970323.9220689052,971937.7230497354,973462.9755779885,974896.4145685004,976234.7287138039,977474.548353866,978612.4340709146,979636.7516457362,980554.7367904539,981360.7236989082,982050.2081870663,982619.0242723218,983063.059466485,983378.1615792033,983560.1128278369,983604.6259914457,983507.3436195569,983263.8274634022,982869.5217391981,982319.661462975,981609.0698114688,980731.7282356839,979679.8607302683,976836.0566293149,973166.8423769443,969483.4254088666,965776.1245519368,962035.674511469,958251.0784036336,954409.1409938902,950494.2606896755,946488.434354945,942371.5505480724,938122.0667290083,933718.1368475774,929139.1786427699,924367.7538648049,919391.5117663712,914204.8678661467,908810.1015793169,903217.6666999148,897445.6793881822
E0,12.677564950521257,425.8271845160661,571.9223188909563,599.2755799291001,575.9812104559987,533.0416014888997,484.4067974741608,436.1834249801526,390.88242159105755,351.7089368998359,317.7274171668959,288.18781760950594,262.47744861358154,240.089856110571,220.60359096168392,203.6670747343913,188.9810511060023,176.30754905766548,165.4497615870899,156.25042534014506,148.59027897660772,142.38794625049948,137.6020042030344,134.2361065824926,132.34856480356413,132.06883798956682,133.62536027860364,137.39299640873648,143.97638534781953,154.36296245809183,170.22109176173632,194.52738543755714,220.5134050082462,245.40327984372917,271.45449519425165,299.1802456748047,328.5985837088166,359.51237549936894,391.55407867816706,424.17507408850565,456.6292848099412,487.97107602961296,517.0805866226278,542.7253646610359,563.6595912408375,578.7508675575776,587.1129476341495,588.2164683680058,581.9528301574042,568.6384569156471
I0,4633.70026131675,2992.371247415721,2045.1894658383535,1473.6596420952123,1112.3821826145454,873.0522407620709,707.0798028605797,586.8886028230661,496.33947869810936,425.699887046169,369.5572832215746,324.1677292094647,286.9137019009542,255.9413531441209,229.91812361112414,207.8706604056664,189.0761802766251,172.98765580801157,159.1879771568821,147.35495153314122,137.23828876595775,128.64433970171012,121.4262202053045,115.47799910205168,110.73233245808763,107.16152444221743,104.7826639416565,103.66845128645221,103.96699498922504,105.93708432653867,110.01225774933854,116.9226256456007,127.94282785038936,142.0675868854409,157.89896779282674,175.14475969396238,193.7550357719765,213.7024651039909,234.916191871288,257.2512743951371,280.46609150048346,304.20334572526315,327.9772424880225,351.1720595921667,373.05786607828776,392.8274520351403,409.65438252483693,422.7662828526198,431.52200802579,435.47866834838595
A0,514.8555845907499,412.2647946211156,342.58665123237444,291.22699055262825,250.9598598399756,218.04732418566044,190.42910739319535,166.8754898387811,146.58589462042946,128.9951883440753,113.74741878225532,100.52975754081113,89.06944056093408,79.12987590715471,70.5065964090409,63.02338485608323,56.52872012689832,50.89240763469873,46.00315257948895,41.766014911203854,38.10032468916744,34.93796812063218,32.22201288402073,29.905670433307613,27.951619544120867,26.331752579403616,25.027467203209895,24.030734570926025,23.346377549002913,22.996393599636917,23.02800375345229,23.52903575561392,24.65905016761785,26.342642284341665,28.436212222785205,30.892604634055715,33.68949107748871,36.80955037325547,40.23301156358544,43.933031611213366,47.87167751162586,51.996220553598924,56.23610872376753,60.501304577692856,64.68280460198537,68.65603141881341,72.28735116177806,75.44326935844693,78.00110953779772,79.8594725349603
IH0,0.0,718.0119041743196,1151.4453596771214,1419.8498123997915,1588.3862730418023,1693.8413563453785,1757.7687631662643,1793.2849768873386,1808.6808660032502,1809.39719974782,1799.1374464075873,1780.610362447418,1755.8304541768978,1726.3217670278714,1693.2568817534543,1657.5524964066205,1619.935866404856,1580.9916119592042,1541.194960940857,1500.936488501015,1460.5403910120804,1420.2784240033677,1380.3808880873885,1341.0456217574401,1302.4457147454523,1264.7365298636357,1228.062593424791,1192.5649913333161,1158.390131251674,1125.701203236858,1094.694623218052,1065.6257114435143,1038.8521661453922,1014.914127894893,994.1732108705022,976.7591795965388,962.7510527162483,952.2167837080311,945.2172283550055,941.7996993760065,941.9870570245849,945.7637582825212,953.0595501187863,963.7318630529772,977.5487247569519,994.1748291528968,1013.1639148072363,1033.9604601039555,1055.912662875632,1078.2968309880027
IN0,926.74005226335,1844.2127040040664,2424.24482644717,2809.040271350369,3075.6817970559077,3267.4014156082576,3409.3378496045893,3516.6604316806593,3598.871547928466,3662.1507281888034,3710.669198316149,3747.4739629773026,3774.8327691894224,3794.467181877719,3807.710780687766,3815.6172976031135,3819.0352567082155,3818.6601401964585,3815.0710699560964,3808.757954687912,3800.141365447661,3789.587609546376,3777.420601391254,3763.9316394184025,3749.387922844629,3734.0405101078004,3718.132409895166,3701.9076185845456,3685.6222326559905,3669.5594093272757,3654.0512320993107,3639.5131713281853,3626.5025647440234,3615.826104666661,3608.081360997083,3603.580340945677,3602.573489475013,3605.298761734658,3611.9862671381097,3622.8496428409862,3638.0714012916037,3657.7839055787845,3682.046735668049,3710.821716808973,3743.9479115593167,3781.120005659381,3821.874296009815,3865.5864295546844,3911.4838218296613,3958.6733852165225
D0,4476.0,4476.0,4476.718011904174,4477.8694572638515,4479.289307076251,4480.877693349293,4482.571534705638,4484.329303468805,4486.122588445693,4487.931269311696,4489.740666511444,4491.539803957851,4493.320414320298,4495.0762447744755,4496.802566541503,4498.495823423257,4500.153375919664,4501.773311786069,4503.354303398028,4504.895498358968,4506.396434847469,4507.856975238481,4509.277253662484,4510.657634550572,4511.998680172329,4513.301125887075,4514.565862416938,4515.793925010363,4516.986490001696,4518.144880132948,4519.2705813361845,4520.365275959402,4521.430901670846,4522.469753836991,4523.484667964886,4524.478841175757,4525.455600355353,4526.41835140807,4527.370568191777,4528.315785420133,4529.257585119509,4530.199572176533,4531.145335934816,4532.098395484935,4533.062127347988,4534.039676072745,4535.033850901898,4536.047014816706,4537.08097527681,4538.136887939686
R0,0.0,112.23851744078348,242.66300791163218,382.77784501626047,527.5072730283607,673.7810255429821,819.7264785100456,964.196770783911,1106.4902272806596,1246.1810568153612,1383.0159972848655,1516.8646195410968,1647.675800808289,1775.4493928095292,1900.2178233711531,2022.0341869678068,2140.964572646606,2257.083160030224,2370.469088100613,2481.2045726158517,2589.3738034477997,2695.0623752925503,2798.357099547815,2899.3461117774036,2998.1192392493062,3094.768635574863,3189.389732970103,3282.082617149843,3372.954010410478,3462.1201818391555,3549.711343043502,3635.8785485960443,3720.805073781359,3804.726390293774,3887.8931699671375,3970.548212327505,4052.9333426798576,4135.291674860577,4217.868032718627,4300.908089798368,4384.656233220589,4469.352028794677,4555.22518098682,4642.488990390306,4731.332504960832,4821.911822338637,4914.341281539322,5008.68550454872,5104.953324199843,5203.094505765198
G0,336852.0,336855.42294253665,336970.396282356,337124.81530845654,337286.6197150374,337442.13464186055,337586.0558742625,337716.8457095806,337834.61523432523,337940.1534881548,338035.11490111775,338120.9013037528,338198.7120145074,338269.580925633,338334.4051867829,338393.9681563425,338448.9582665208,338499.98315031943,338547.586188565,338592.2576241935,338634.44523903535,338674.56461435906,338713.0093598467,338750.1619009815,338786.40564975876,338822.1397622557,338857.7983485129,338893.87719578814,338930.9733048185,338969.8469288624,339011.5249287261,339057.4846235018,339110.0070175699,339169.5456369221,339235.80452247994,339309.09723618237,339389.87590251456,339478.59752011596,339575.6658615008,339681.38546274387,339795.9127327478,339919.2026396465,340050.95483017445,340190.56658856256,340337.10243702104,340489.2905266561,340645.55326089665,340804.0737567579,340962.89220321726,341120.01946735976
H0,126438.60893437034,126154.122064268,125699.96722483664,125247.44734282723,124796.55653239305,124347.28892887644,123899.63868873249,123453.59998945305,117737.75163922642,112129.11851973129,106629.95171267184,101242.6363613731,95969.69434194974,90813.78601711732,85777.71075113898,80864.40579576873,76076.94307824475,71418.52333362162,66892.46692622406,62502.20060145094,58251.239304391136,54143.16210349352,50181.58117747017,46370.10277813048,42712.27909302045,39211.550027740865,35871.17414246987,32694.14834812438,29683.116532029126,26840.26807078003,24167.228211118905,23270.790858951994,23187.016011859767,23103.542754217073,23020.370000301893,22937.496668300806,22854.921680294923,22772.64396224586,22690.662443981775,22608.976059183442,22527.583745370383,22446.48444388705,22365.677099889057,22285.160662329457,22204.93408394507,22124.996321242867,22045.346334486392,21965.98308768224,21886.905548566585,21808.112688591744
S1,283839.61780789186,265689.0380850413,250208.91008062457,235842.31071664364,222500.5193114508,210105.97095806454,198588.79722019966,187885.11418710978,178908.022466284,170518.01706792155,162676.74023364278,155348.28768528358,148499.0486408278,142097.55633820992,136114.3486821944,130520.75714211982,125292.4663350738,120404.99152751041,115835.57551970432,111562.96205315924,107567.26132330047,103829.85023132265,100333.28766183513,97061.2378264665,93998.39889737724,91130.43534218702,88443.91236932203,85926.2301098682,83565.55327805225,81350.7278300524,79271.1661236238,77189.76168325751,75181.02777765437,73300.74431472241,71539.03121702121,69886.74126791238,68335.24921451834,66876.37968120807,65502.35801185919,64205.778210652956,62979.59129586092,61817.118567499536,60712.092214021846,59658.72084587665,58651.770772017015,57686.647242154424,56759.45646422859,55867.03131078009,55006.9112278912,54177.277232628054
E1,0.0,119.12939687162894,156.8242523365784,160.20928091946456,149.68381863629517,134.27608902755,117.95208057960656,102.40011208570192,88.27507742657886,76.19099303137952,65.88321501453649,57.11060734029823,49.65720573738332,43.33253072293289,37.97072372611767,33.42888959343845,29.5841508971687,26.333758641746,23.590920060829273,21.28313551898287,19.35052008370258,17.74434888028833,16.425924788139575,15.365838626840127,14.543716295313262,13.94861809491937,13.580397775529413,13.45261037237175,13.598138723199487,14.079983356288635,15.012681070828775,16.60768087545916,18.290273317249877,19.8366961657578,21.4217072261811,23.081283140569845,24.814135893381426,26.60438668857889,28.425678958442944,30.241085334207153,32.00259002939375,33.65150632322774,35.12060046122019,36.33835437758222,37.23529520712283,37.751635332936026,37.84482694906095,37.49536618479876,36.70949377934401,35.5182490976016
I1,0.0,0.0,32.164937155339814,63.090401674531016,83.95269647445772,94.56795465356801,97.25519401848436,94.58110386297,88.65716208481732,81.02218971404254,72.83458103389168,64.77009941563176,57.19953636841264,50.30375899765761,44.14800538678835,38.729575265125746,34.008145143306734,29.924527623499618,26.412801902017982,23.407012002752104,20.84503840711725,18.67064225664742,16.834391202849407,15.293950900645022,14.014073285197696,12.96652073750209,12.130124984962135,11.491192037393905,11.044548505190853,10.795735681964382,10.765338097817471,10.997558650610916,11.57800146068924,12.406713543205292,13.358804855531476,14.400900223437532,15.521184828544488,16.711689809179795,17.96298761067056,19.26188075638113,20.589885881542422,21.92211610933331,23.226672852929415,24.46482695320364,25.592286455867935,26.561723353845732,27.32646626438229,27.84492210635583,28.084995397661324,28.027668086017325
A1,0.0,0.0,3.573881906148868,7.563833095016447,10.857344903597095,13.176390481966532,14.569395056399726,15.194078462507978,15.22726613257744,14.830065228859318,14.14978197402884,13.296322029659168,12.35037584393628,11.370016847270524,10.395989399504405,9.455913231387054,8.567597272912797,7.7416023452452984,6.983294635448619,6.2943633101837735,5.6739847137165045,5.119703373484281,4.628093165196075,4.195252275801048,3.817176979446042,3.4900530724162313,3.210501000780566,2.975812733890335,2.7842284982834204,2.635326960322721,2.5306610689468356,2.4749092872823315,2.47815785608964,2.5312344843892083,2.6200884724841007,2.7387219947727135,2.883416090035266,3.0511569488296555,3.2390571597210913,3.444016096530161,3.6624454372503434,3.8900340506820874,4.121572430242502,4.350875958030607,4.5708513977519525,4.773739974415247,4.951541039520278,5.096577640088051,5.202123097614404,5.262983291471843
IH1,0.0,0.0,0.0,4.984096180617012,14.550263755921717,26.946143845743528,40.4647075589412,53.83017920885996,66.21824684093579,77.16650661512418,86.47048118001075,94.11380533059291,100.18551573089157,104.82835397964769,108.20707459470745,110.48960046583728,111.83636203999859,112.39478307213723,112.29690550895164,111.65899410215097,110.58219559827276,109.15377008487192,107.44858722229029,105.53070290867602,103.45491469360117,101.26824985080046,99.01137901256163,96.71997937937299,94.42610324873837,92.15965102402235,89.95012215300612,87.82896303337414,85.83314476256449,84.01134569938317,82.39470540032289,80.99369936506804,79.81319016823095,78.85600478335195,78.1236162835292,77.61597484587973,77.33098774028397,77.26378631893085,77.4058507044558,77.744077109107,78.25991251267541,78.9287222410745,79.71957571636129,80.59561342868092,81.51508360695327,82.43302000737559
IN1,0.0,0.0,0.0,6.432987431067963,18.986737891663488,35.587409807638394,54.14512664027561,73.05471417756974,91.24038780838804,108.05941634726761,123.18326012660344,136.51834373211574,148.10718017792092,158.06601564982424,166.54610729285753,173.71024729728663,179.7190598773389,184.72349830722686,188.8611688488545,192.25511754076956,195.0139687659123,197.23283675967662,198.99463684340932,200.37156871554512,201.42664320851867,202.21519143347302,202.78634366663871,203.18450522696475,203.4508985821739,203.6252992973903,203.74819344080927,203.86377912596467,204.0246530648272,204.30000682631677,204.73834946669467,205.36272694313402,206.1892797183902,207.2316238869152,208.50164560988202,210.00922667591732,211.76151056043437,213.76187263113852,216.00867712669378,218.49392492601274,221.20195106739334,224.108388847893,227.1796496301832,230.37314638675784,233.63839934416143,236.91901443025208
D1,0.0,0.0,0.0,0.0,0.004984096180617012,0.01953435993653873,0.04648050378228226,0.08694521134122346,0.14077539055008342,0.20699363739101923,0.2841601440061434,0.3706306251861542,0.4647444305167471,0.5649299462476387,0.6697583002272864,0.7779653748219939,0.8884549752878312,1.00029133732783,1.1126861203999672,1.2249830259089187,1.3366420200110696,1.4472242156093422,1.5563779856942141,1.6638265729165045,1.7693572758251805,1.8728121905187818,1.9740804403695822,2.0730918193821437,2.1698117987615166,2.264237902010255,2.3563975530342773,2.4463476751872832,2.534176638220657,2.620009782983222,2.704021128682605,2.786415834082928,2.867409533447996,2.947222723616227,3.026078728399579,3.104202344683108,3.181818319528988,3.259149307269272,3.336413093588203,3.4138189442926588,3.491563021401766,3.569822933914441,3.6487516561555156,3.7284712318718767,3.8090668453005576,3.890581928907511
R1,0.0,0.0,0.0,0.7147763812297736,2.4968519164809537,5.456591480337143,9.555947559571955,14.675454588088218,20.65867087977903,27.339860822336682,34.56006581589433,42.17809364561039,50.073124429207425,58.14456328145288,66.31046294489545,74.50531340235707,82.67766260600246,90.7878244985611,98.805797760849,106.70946081300518,114.48304194543549,122.11585078528655,129.60124572022332,136.9358082025208,144.1186957215678,151.15114876803995,158.03613237591372,164.77809961688106,171.38287329244866,177.85765467684655,184.21118823582918,190.45414709827247,196.59987535093833,202.66578079222685,208.67013065451613,214.63014778559096,220.56251674960828,226.48353970437879,232.40916847064284,238.35495683098674,244.33593521160026,250.36640174210444,256.4596258485171,262.6274683041462,268.8799340529771,275.2246897190614,281.66659336348255,288.2072949610489,294.84496731855205,301.5742160000219
G1,0.0,0.0,32.164937155339814,74.507485286216,117.76399113447144,158.17862216627114,194.43316620370965,226.28022796020343,253.92825822334297,277.76252912851925,298.33409724699175,316.1225653009166,331.5424292827971,344.9498748318906,356.6496581270825,366.90175353313424,375.9275537233626,383.91527446559815,391.0253892988696,397.3949377152935,403.1413843054189,408.3660247280186,413.1569989256964,417.59199861849413,421.74077504774095,425.66757844747553,429.4337053331038,433.1004127324967,436.73261753303706,440.40411498830093,444.2057104944989,448.25913438362267,452.74320821999663,457.6815820156541,463.0374899804087,468.8213509314776,475.05329737943146,481.7531140706444,488.9362984765607,496.6112317953403,504.77632483557625,513.4170241435125,522.5029308507841,531.9854929753135,541.7968486572607,551.850378363184,562.0433199030766,572.2614231793231,582.3851720492187,592.2967353696415
H1,36125.316838391525,33829.42393432303,31867.191349874178,30043.48327832115,28348.410997446674,26772.79210114567,25308.100048350647,23946.41731560504,21708.44996842679,19672.078253701176,17819.07827114736,16132.862901587818,14598.341862829338,13201.793434504649,11930.74686551027,10773.874553583659,9720.893155547803,8762.472849413036,7890.154026479231,7096.270743488217,6373.880312481796,5716.698450195524,5119.039450602603,4575.7608848669215,4082.2123739575145,3634.1880222406244,3227.8821473956864,2859.8479949217494,2526.9591859948096,2226.373716530715,1955.500402798005,1838.862098090089,1791.2896524615956,1746.8136492141768,1705.21399961406,1666.2863316427138,1629.8408673884028,1595.701380624007,1563.70422884352,1533.6974544387458,1505.53995007761,1479.100683698257,1454.2579788606604,1430.8988465016423,1408.9183644216255,1388.2191010937115,1368.7105806292066,1350.308785959843,1332.9356975069388,1316.5188648027115
S2,283839.61780789186,300685.124994548,316049.3424417383,330133.282294203,343028.1504806179,354819.54216788174,365587.36531380133,375406.00500108016,386442.43151582655,396723.97315067414,406294.97062142607,415196.80789195164,423468.09411568847,431144.83371016465,438260.585829671,444844.10059727455,450927.76806526305,456538.100084543,461700.0788218986,466437.03988380847,470770.7028036395,474721.25177342107,478307.43157253874,481546.64611748536,484455.0546821839,487047.6626576914,489338.40268221434,491340.19833792554,493064.9946116841,494523.72170429607,495726.1171865875,495865.9732232609,495437.3925396888,494861.94388289744,494147.46051718417,493300.91999902134,492327.8808231265,491232.3910143625,490016.9569463232,488682.5761656663,487228.8672768601,485654.3345210913,483956.7944567145,482133.9650691693,480184.1758476811,478107.1118882554,475904.4743407182,473580.4405465157,471141.8443591973,468598.05751990894
E2,0.0,41.69528890507013,58.273881806434765,63.0878209906259,62.552202583236536,59.70315821827934,55.95349284552404,51.946750315874645,47.96796495603788,44.462826295618214,41.34309435422789,38.54909201444477,36.039210929596706,33.78346955301329,31.759562359167802,29.950461878632563,28.341999719949907,26.924748758125585,25.691514009998745,24.637681574322826,23.761579597252183,23.06504099223688,22.554289469306195,22.241303751840338,22.145915682513284,22.299088194396422,22.748174304427597,23.56565121869844,24.864253173260284,26.824572643415348,29.74867499091062,34.17278202859019,38.90626926253108,43.456984677406616,48.22668405996306,53.30747532669359,58.70295427267261,64.37784216918804,70.26584691349515,76.26763334186703,82.24777438031076,88.03428381350629,93.42312185052218,98.18930136135765,102.10485296246219,104.96185532862718,106.59662454114988,106.90998976049143,105.87912435644363,103.5585768521366
I2,0.0,0.0,11.257728004368936,22.99569682801658,31.866986410639736,37.444756402406774,40.2734308236572,41.08564536958327,40.52774036520969,39.093594108876474,37.22211683305223,35.1726008894483,33.09618886594893,31.07914038131706,29.169001811814226,27.390420249836275,25.75469677894683,24.265295648508502,22.921906133835396,21.722385157859858,20.664104584655306,19.74491774597515,18.963934829386467,18.322262266937265,17.82384801314555,17.476593276513487,17.293954689328416,17.297397708597543,17.52033738013327,18.014766178393494,18.862981592402445,20.199626909049424,22.256333087447647,24.861044062213594,27.76989476867035,30.934055164403297,34.34689677927953,38.0051148119894,41.89705225799476,45.9972909492137,50.262614512095794,54.62858110188904,59.00718650732098,63.28657324912765,67.33384161918464,71.00171350222632,74.13904902942419,76.60416142427921,78.278880117973,79.08081650622297
A2,0.0,0.0,1.2508586671521038,2.748903387914726,4.091757340050558,5.149971949537543,5.911072306178414,6.407462630308452,6.684372613723001,6.786537039659537,6.763114420596176,6.650784367103777,6.4771002541163645,6.262856531180993,6.023789311535193,5.771818320003188,5.515968512361527,5.263034801487719,5.0181703039339425,4.785281663447116,4.567355777987378,4.366732010307468,4.185336838013081,4.024898154489651,3.8871576361469304,3.7741035793929427,3.688255509346247,3.633049636609825,3.613409245848813,3.636654991876859,3.714061172803947,3.863709187970476,4.116150811234086,4.460108726863202,4.87179652181276,5.3442377392491,5.874614451200087,6.460780189140248,7.09995941638784,7.787942940515126,8.518383352668112,9.282139913543812,10.066740445240239,10.856086011707855,11.630547850207014,12.367583869039477,13.042922755090396,13.632236940306813,14.113089245060193,14.466845126741463
IH2,0.0,0.0,0.0,1.7444336632159545,5.23422928411724,9.951656306761755,15.334653655853518,20.92919884833359,26.413920905749553,31.581140353419226,36.30845513068019,40.54663060182706,44.28868469184572,47.55134965490316,50.36401917295996,52.76221618815509,54.78378635466288,56.46673216886712,57.847992010761345,58.96290002301624,59.84496976115004,60.52589572674729,61.035704603557306,61.40302027227287,61.65543223260445,61.81997948445849,61.923786292444305,61.99491943091229,62.063589481244165,62.16391216099128,62.33662246662535,62.63349171880249,63.12497384716527,63.914447014576105,65.07427357929151,66.63597957091584,68.62219650756089,71.05357540779265,73.94938523925266,77.32627692976773,81.19626130469304,85.5641466498122,90.42455315140333,95.75869099582063,101.53122912041695,107.68773145608994,114.15323376027833,120.8325100041519,127.61239073078926,134.3661628893267
IN2,0.0,0.0,0.0,2.2515456008737873,6.828169510468366,13.13328509749163,20.490903526998068,28.34068065645953,36.274402923811586,44.01720696761541,51.39575371971455,58.32621954912785,64.77747753152623,70.74894052940076,76.25727920037016,81.3285067707293,85.99330575298927,90.28431205124875,94.23452806043797,97.87656400660066,101.24227539810663,104.36267356105662,107.26803037464109,109.98813703677197,112.5527081197917,114.9919506412229,117.33734979011336,119.62276723007791,121.88601909949664,124.17122638452832,126.53246735636174,129.0397390012786,131.7892669930757,134.92264094063447,138.54562334367085,142.71414606396823,147.4738156362092,152.868456835703,158.94079522974386,165.73079772904538,173.27294794159766,181.59274136460084,190.70253017133263,200.5969421710835,211.2482873991982,222.60257284904316,234.576889820998,247.05893072867286,259.909173706242,272.96585799277415
D2,0.0,0.0,0.0,0.0,0.0017444336632159545,0.006978662947333195,0.016930319254094953,0.032264972909948474,0.05319417175828206,0.07960809266403161,0.11118923301745084,0.14749768814813102,0.18804431874995808,0.2323330034418038,0.27988435309670695,0.3302483722696669,0.383010588457822,0.43779437481248484,0.49426110698135195,0.5521090989921132,0.6110719990151294,0.6709169687762795,0.7314428645030268,0.7924785691065841,0.8538815893788569,0.9155370216114613,0.9773570010959198,1.039280787388364,1.1012757068192764,1.1633392963005207,1.225503208461512,1.2878398309281374,1.3504733226469399,1.4135982964941052,1.4775127435086812,1.5425870170879727,1.6092229966588887,1.6778451931664495,1.748898768574242,1.8228481538134949,1.9001744307432626,1.9813706920479557,2.066934838697768,2.1573593918491714,2.253118082844992,2.354649311965409,2.4623370434214986,2.576490277181777,2.6973227871859287,2.8249351779167178
R2,0.0,0.0,0.0,0.25017173343042076,0.8942105317001278,1.9961098664651709,3.566715119152717,5.584501127156439,8.010147719261514,10.79608162409032,13.892386737949863,17.252211285623712,20.833176323425057,24.597815164247496,28.51350228061902,32.55213493715208,36.68971541431705,40.90591427279578,45.183650329208035,49.50872219824167,53.86948909954003,58.256604486767365,62.662803287200276,67.08274333851477,71.51290317257772,75.95154146519991,80.39872864438986,84.85646942446046,89.32894867011376,93.82295652354352,98.34859153200361,102.92042317790265,107.55946637293918,112.29670617248668,117.166539659536,122.20264027885466,127.43914206157858,132.91100227649721,138.65403645309203,144.7047247367385,151.09978989985618,157.87552403385342,165.06684378580422,172.706073635367,180.8214917915113,189.43572076373746,198.56409594147752,208.21318633844234,218.37965605393197,229.04963225513342
G2,0.0,0.0,11.257728004368936,26.991676092106324,44.025387759575324,60.91448245704919,77.03433517598461,92.1417782442761,106.16740082956225,119.11875136769248,131.1237144675094,142.28634994315092,152.69460478705102,162.42519173804214,171.54672851735575,180.12181035433105,188.20843506156183,195.8607749859483,203.1304571506422,210.06716593334187,216.71933995840902,223.1349664496671,229.36252751757107,235.45218567428373,241.4573376872806,247.4367349215592,253.45748873404625,259.5994957962417,265.9622216252903,272.67556998207056,279.9182045957927,287.9503468433386,297.17699799105793,307.6816906919413,319.4150765548411,332.4362812510311,346.8292995892384,362.67909724286005,380.06111462854085,399.0328932951845,419.6251542974886,441.8320533801725,465.6013100098192,490.8255529094602,517.3366642770268,544.9049745768916,573.244675515621,602.0257641417314,630.8914613770642,659.478824953304
H2,36125.316838391525,38275.63331686721,40236.358439356154,42033.5821257834,43679.145429880344,45184.04210315177,46558.47913295799,47811.93295625735,46855.3688958818,45733.484019902935,44469.148823153104,43083.35079772227,41595.3635488288,40022.90134267755,38382.26007763961,36688.44553873309,34955.28966650944,33195.555444532154,31421.03088473272,29642.612467938736,27870.378279864708,26113.650974502554,24381.0506028868,22680.537273960283,21019.443577071917,19404.496707087612,17841.83031079412,16336.986236842768,14894.906640365407,13519.917283129405,12215.70338671778,11799.530131669899,11790.406827585026,11777.994102432462,11762.552290442613,11744.322906005014,11723.529990336578,11700.381361931743,11675.069777667602,11647.774010946097,11618.659852799507,11587.881041462198,11555.580125518478,11521.889265371401,11486.930977438526,11450.818825165801,11413.658060658618,11375.546220457625,11336.573678735023,11296.82416095296
S3,851518.8534236754,847730.5276839942,844198.8748994574,840892.3631355076,837788.3212697752,834868.2025002866,832115.9593815608,829517.2554540435,831571.3694995203,833868.1890208271,836402.4931695242,839169.9187140688,842166.9353894826,845390.821928021,848839.6424082129,852507.9893471285,856401.0565372652,860518.0901998177,864859.658885,869427.1888209849,874222.7668270062,879249.0296795729,884509.0731683754,890006.3545999447,895744.5761304892,901727.5398743749,907958.9647870716,914442.2506467471,921180.1634839794,928174.3913967415,935424.8571756728,936651.3147911973,934693.2957242082,932733.1287921873,930764.1454862257,928779.6104042432,926771.7426750273,924731.4737545013,922648.2947158682,920510.2096340087,918303.8532761633,916014.838179648,913628.3800364956,911130.2060958458,908507.6816814075,905751.0126990594,902854.3279230709,899816.4431130963,896641.1681568399,893337.1180205226
E3,0.0,71.47763812297734,96.89511904218459,101.85806088266875,98.06839883623286,90.86139193935713,82.64332380008727,74.47150736633021,66.78351831830498,60.13336231895726,54.3673005126836,49.36055133675751,45.01015257044912,41.23035408551699,37.94944736386857,35.10747121504612,32.65340576053017,30.546800969764295,28.754449235222854,27.250176495822924,26.0146535288227,25.03547191466224,24.30763383851335,23.834631890905882,23.630401640503788,23.722638598726355,24.158365578153006,25.01340894070077,26.409038575531568,28.542543347270826,31.74687882149339,36.61637908325343,41.8063676381078,46.75336383589518,51.906137916181024,57.37523247842008,63.17322441696973,69.26913775999365,75.59746077225763,82.05626627400389,88.50404030405183,94.75912782653168,100.60440643671012,105.79899509570254,110.09735244356932,113.27392310397497,115.14920530858811,115.61181762539962,114.63166761969423,112.26161287561719
I3,0.0,0.0,19.298962293203882,38.610394267582734,52.40714420459557,60.28346930437412,63.41816686924501,63.22131157293074,60.887940478664845,57.3070525071649,53.20167409479343,48.996680824986505,44.9324458325894,41.13622096861186,37.66693695434049,34.54324549668003,31.76098827704522,29.303707622824238,27.149866075256185,25.276604935721785,23.662112303087284,22.287099614759857,21.135774593613867,20.196601089614425,19.463080758538183,18.934784475099594,18.618913221973127,18.532808121272815,18.70812810650589,19.198037505825837,20.090097732530232,21.53068790011893,23.774699425379474,26.62348626036944,29.796772855804114,33.23493664597145,36.92936485468131,40.87789760939373,45.07077818127614,49.484024866096405,54.074648030766895,58.77670862894941,63.498626104417866,68.12270376634328,72.50798399304713,76.49724651336497,79.92817712001828,82.64761025843931,84.52667416371482,85.47411570410529
A3,0.0,0.0,2.14432914368932,4.622316886216993,6.753595335453657,8.344928233449911,9.401784344940642,10.000727189955132,10.234726972954011,10.191287127912357,9.957030571898603,9.596643472899391,9.158131318422239,8.676809631851265,8.17835832804652,7.6811700833532734,7.198160203134002,6.738130335323106,6.306908297351414,5.908160114937816,5.544033386824941,5.215666315324634,4.923597209699574,4.66810678291506,4.449524383059224,4.268531555662492,4.1265044024917845,4.025954489338018,3.971165859691437,3.9692038450190967,4.031639376433402,4.177717865791523,4.440665665130822,4.806723561247891,5.2479797640751675,5.755567948745565,6.325711333349054,6.9557657991883355,7.642686772150478,8.382073240888111,9.167346580930605,9.988998473866038,10.83397261388878,11.685310284212328,12.522218080240938,13.32069503749983,14.054773723119112,14.698295137752933,15.226990638964335,15.620542539762294
IH3,0.0,0.0,0.0,2.990457708370206,8.847327473290694,16.595333194106143,25.23741225587873,34.00116466633275,42.365226207736484,50.015372139452495,56.788369177067416,62.63989657775471,67.59333699185558,71.70833489489753,75.06174036700156,77.73629762421676,79.81415531092719,81.37335707713251,82.48610866987447,83.21823672952816,83.62925278818759,83.77278150964759,83.69719968550685,83.44639907485916,83.06063484887227,82.57745941776211,82.0327767407172,81.46209408781438,80.90211000967089,80.39288275964321,79.98102111484624,79.72473840188134,79.70247769349481,80.02887404859538,80.78295227363138,81.99697821783164,83.6926197046494,85.88929717838406,88.60527828401472,91.85654926499002,95.65470684948359,100.0041978050288,104.89906403133264,110.3194076193139,116.22793128011146,122.56706694030892,129.2573097137209,136.1973526977818,143.26642304217984,150.32886641130776
IN3,0.0,0.0,0.0,3.8597924586407766,11.543273387570917,21.90926949461432,33.746870660543,46.09303532778658,58.276367289094864,69.87119171193689,80.6338902962505,90.46788621224668,99.36254351512152,107.35540724648818,114.50909736774568,120.89739378493633,126.59706894642297,131.68329591236778,136.22720447780895,140.2949056480821,143.94727757874566,147.24022726357566,150.22524491389188,152.95014738347575,155.4599661275639,157.7979826179959,160.00695968683587,162.13067273436215,164.2159276312731,166.31539397626156,168.4918475376641,170.82494860879353,173.4228367027294,176.443548220778,180.00380999064413,184.1631264618985,188.96848252647382,194.46467067214533,200.69560348730263,207.70280308868485,215.52258003101727,224.18228383686048,233.69580272428175,244.0585699179225,255.24252497201195,267.19169652090125,279.81922885836525,293.00667199378523,306.6061273255352,320.4454008850228
D3,0.0,0.0,0.0,0.0,0.0029904577083702064,0.0118377851816609,0.028433118375767043,0.05367053063164577,0.08767169529797852,0.130036921505715,0.1800522936451675,0.23684066282223493,0.29948055939998963,0.36707389639184523,0.43878223128674276,0.5138439716537443,0.591580269277961,0.6713944245888882,0.7527677816660208,0.8352538903358953,0.9184721270654235,1.0021013798536111,1.0858741613632588,1.1695713610487657,1.2530177601236248,1.336078394972497,1.4186558543902592,1.5006886311309764,1.5821507252187907,1.6630528352284617,1.7434457179881049,1.823426739102951,1.9031514775048324,1.982853955198327,2.0628828292469223,2.1436657815205535,2.2256627597383853,2.309355379443035,2.395244676621419,2.4838499549054336,2.5757065041704235,2.671361211019907,2.771365408824936,2.8762644728562687,2.9865838804755827,3.102811811755694,3.225378878696003,3.354636188409724,3.4908335411075058,3.6340999641496854
R3,0.0,0.0,0.0,0.428865828737864,1.5149145557299968,3.3449270534928996,5.915515398043045,9.171270499415545,13.030699353203275,17.402747084470604,22.196679754475024,27.329938591225705,32.73011352557376,38.335250875856545,44.093288491331336,49.96108698807278,55.90332630661941,61.89141566934928,67.90248603055807,73.9185147844762,79.92558086791796,85.91324902731431,91.8740761207989,97.8032311445152,103.69822252554293,109.55873043435867,115.38654856906093,121.18565008499675,126.96240849876523,132.72603148180667,138.489313928504,144.26990953872584,150.09251181515083,155.99276702463345,162.00986450818937,168.18182854047765,174.54683216107944,181.14365402650782,188.01179059169502,195.19131980917288,202.72251211057008,210.6451622424298,218.99761966336794,227.8155164164787,237.1302287999507,246.9671599150779,257.34398537618154,268.2690489865085,279.74011183879566,291.7436353318578
G3,0.0,0.0,19.298962293203882,45.46064443459372,72.96232087291429,99.44078855869716,123.9733643823236,146.28706180834718,166.39436879725633,184.42591874319868,200.66192656931713,215.3410977077417,228.66844656866624,240.82118776268752,251.9533833657771,262.19973415402166,271.6787513820841,280.49517093742725,288.7428071992636,296.5065084927738,303.86405614664596,310.88801259942807,317.64759001638686,324.2106511527855,330.6460017633301,337.0262102062661,343.4313226279222,349.9540813340235,356.7077017480127,363.83814216340625,371.54462886716937,380.11628614897256,390.00270850145097,401.29042776374007,413.91383599943174,427.9284932368006,443.419806005974,460.4765765985558,479.1792437937541,499.59055820226365,521.7457500962447,545.6418409783387,571.2268054915022,598.3899952294139,626.9557239052535,656.6820090650173,687.2659683030905,718.3562537364093,749.5714444952672,780.5219947525846
H3,108375.95051517458,107902.88088990992,107459.35251721862,107042.86218004367,106651.23811575501,106282.46762466991,105934.68565759709,105606.16421917613,105295.30252873368,104975.64368499281,104645.29289261672,104302.64341402531,103946.35175221466,103575.31505367035,103188.65053944546,102785.67678587437,102365.89668811986,101928.98194984398,101474.75895079208,101003.19585102038,100514.39079592781,100008.56109024586,99486.0332118093,98947.23353745956,98392.67965409931,97822.97212813744,97238.7866069159,96640.86612698677,96030.01350731954,95407.08371190575,94772.97607720093,94128.62631687566,93484.69169437395,92846.01458296351,92212.5120102773,91584.10479460169,90960.71728924198,90342.27714504993,89728.71508981656,89119.96472332603,88515.96232695245,87916.64668676116,87321.9589291508,86731.84236814023,86146.24236346968,85565.1061887436,84988.3829088989,84416.02326633259,83847.97957507097,83284.20562240652
S4,425759.4267118377,432747.60505286616,439739.87146013783,446721.3979004898,453685.9503388245,460631.2468434783,467556.8071546785,474462.95053036365,483977.9158039516,493516.71518328093,503080.15762683674,512668.9147539058,522283.5178333725,531924.3530218165,541591.655501739,551281.861461145,560999.6580896076,570743.9286876223,580513.9103297519,590308.835323851,600127.7969449693,609969.6953037461,619833.2108347915,629716.7859149415,639618.606223957,649536.5758722689,659468.2781623382,669410.9070374635,679361.1391319501,689314.8825178083,699266.7576077603,707740.2394664988,715468.6523319039,723164.3136062748,730821.1735494323,738432.9505587694,745991.9124830234,753488.5226649202,760911.2030186637,768246.2147111157,775477.723329804,782588.1324446438,789558.7573103583,796370.8636045384,803007.0154680373,809452.5812014523,815697.169406477,821735.7503077167,827569.2719890281,833204.6907588411
E4,0.0,107.21645718446602,146.81567035446164,155.95155741201444,151.82694668117077,142.36658933151315,131.17265258886732,119.83863280080816,109.0312771096135,99.69209164943598,91.57710967443367,84.50038967850716,78.31696983525936,72.91196857118686,68.19340683114764,64.08738017102151,60.53263867547855,57.484085807971816,54.90681371693494,52.77625045432254,51.07842623623421,49.810815450821536,48.984064926374515,48.62500580435051,48.78160031651013,49.530958312031615,50.99246671449845,53.34985288953192,56.889677436049965,62.07185053765278,69.66703712359606,81.04618611298574,93.3979358211898,105.53963597861446,118.4866837429928,132.50370133223024,147.63673169071427,163.83153261643574,180.94899275466693,198.75502778212478,216.90702487726955,234.94647502503062,252.30496219196044,268.32918841743447,282.3273242870974,293.6332435229814,301.6786733942441,306.0588690931426,306.57765661041356,303.26293401892576
I4,0.0,0.0,28.94844343980583,58.313299184994,79.72166183571366,92.41738863842795,98.0524157973666,98.66490276458993,95.99979948996707,91.3627001171815,85.8499791559085,80.10297721854081,74.48518408555987,69.19192757402263,64.31818502234873,59.900386806857874,55.94207798425891,52.429007800904365,49.33980780494517,46.65126924904826,44.34178700519177,42.393652937371215,40.794762573875836,39.54018262123945,38.63397528805013,38.091710686956965,37.944251911034996,38.24374153430413,39.073420287247785,40.56435360461352,42.92526042757502,46.49885353696879,51.87635453741275,58.680060712069874,66.34702098486471,74.78826343248952,84.0178450996049,94.05726501703306,104.90574564704328,116.52522537651004,128.82794995928194,141.66480843675055,154.8158199961565,167.985614636992,180.80727476904164,192.85732784640743,203.6827606405501,212.83792529113032,219.92607747593536,224.63833200401882
A4,0.0,0.0,3.216493715533981,6.977665083061034,10.260678788809258,12.76335143148253,14.481678825131418,15.520522637771155,16.01157709424117,16.08019998868134,15.854922740428151,15.431251482575531,14.88001287641564,14.253519396190292,13.59017457408784,12.9179418642047,12.256974896494405,11.621559077459882,11.02176983620706,10.464620280473696,9.954983738008632,9.496339777493931,9.09139628551979,8.742638976207068,8.45286135509617,8.225737093572238,8.066518424218739,7.982988740809944,7.9868865793339126,8.096199586548629,8.339115185368486,8.76130326200267,9.440428192991707,10.35428062902906,11.44961358258168,12.714291378355128,14.14654414265101,15.746337264842236,17.51201579036686,19.438082414933497,21.51311676541054,23.71770415864652,26.022557577668135,28.38719492789332,30.759631594837685,33.07752500448307,35.2710173092759,37.26717404924804,38.99550531219271,40.393733948066576
IH4,0.0,0.0,0.0,4.48568656255531,13.332617751774709,25.124176031367455,38.38625358589601,51.96281644562929,65.06235207305721,77.19707922513865,88.10207269659506,97.69345566022164,105.99026323903257,113.06705298480217,119.02550848184951,123.97774687805406,128.03680724896944,131.31151603756538,133.90390698039815,135.90840434325648,137.41185832071614,138.49411259392906,139.22890334714342,139.68498486794752,139.9274506228463,140.01928136725317,140.02321734639818,140.0041381406951,140.03226989041823,140.18777885709062,140.56776332459833,141.29757305708182,142.55038208470174,144.5836815463106,147.58558867858252,151.64906426941886,156.84936639823283,163.26076097562998,170.95771670808386,180.01144470414962,190.48425837726177,202.42224818708422,215.84645756969107,230.74295649353908,247.05263289270533,264.66200942480066,283.3967702613664,303.019746551219,323.2347055016794,343.6964163577618
IN4,0.0,0.0,0.0,5.789688687961166,17.394451638080355,33.16483948884228,51.31666882163945,70.41398529289638,89.4428259928854,107.74835763094997,124.94341407807677,140.8639757684777,155.47593145450108,168.81820895706804,180.9684123823019,192.02236526294863,202.0822189716907,211.2498123788256,219.62311581521823,227.29484621805508,234.35215160568418,240.8769874906657,246.9469482032333,252.63643123597612,258.01810344786423,263.16471747099564,268.1514124336771,273.0587486915473,277.97690951149264,283.0118244738273,288.29457695001173,293.9966832660266,300.35648714076007,307.728193176835,316.38692338748064,326.4924583505788,338.1851864535709,351.6069036089562,366.90228757627324,384.2144138299192,403.677314766922,425.4061316111092,449.4850319823482,475.953345661756,504.7909351325368,535.9044807350198,569.1169014969511,604.1622846100915,640.6882468222167,678.2665798491817
D4,0.0,0.0,0.0,0.0,0.0044856865625553105,0.01781830431433002,0.042942480345697476,0.08132873393159348,0.13329155037722276,0.19835390245027998,0.27555098167541864,0.3636530543720137,0.4613465100322353,0.5673367732712679,0.68040382625607,0.7994293347379196,0.9234070816159736,1.051443888864943,1.1827554049025084,1.3166593118829066,1.4525677162261632,1.5899795745468794,1.7284736871408084,1.8677025904879518,2.0073875753558994,2.1473150259787457,2.287334307345999,2.427357524692397,2.567361662833092,2.70739393272351,2.8475817115806006,2.988149474905199,3.129447047962281,3.2719974300469827,3.416581111593293,3.5641667002718758,3.715815764541295,3.8726651309395277,4.0359258919151575,4.206883608623241,4.3868950533273905,4.577379311704652,4.7798015598917365,4.995648017461428,5.226390973954967,5.473443606847672,5.738105616272473,6.0215023865338395,6.3245221330850585,6.647756838586738
R4,0.0,0.0,0.0,0.6432987431067962,2.2812097843421046,5.055615595199324,8.973206778708636,13.961406190929686,19.906705705462414,26.67924417447282,34.14762288102146,42.191382251847756,50.70407417404623,59.59385760481103,68.78280957467746,78.20564576406262,87.80824377914281,97.54618238119565,107.38339146553628,117.29099201957145,127.24631817275774,137.2321220554481,147.23595496778822,157.2497182507556,167.2693819947061,177.29487873411512,187.33019344980636,197.38369325478203,207.46877582236482,217.60497652970193,227.8197845466672,238.1516306858951,248.65495011294732,259.40921636884127,270.5035929116143,282.0270816485009,294.0716783206832,306.7335236890974,320.11322385774673,334.3155633636936,349.44858671026304,365.62195739035246,382.94450291740117,401.5209005231031,421.4475514228988,442.8078274545459,465.667031804583,490.0675562590494,516.0247926301057,543.5243278607235
G4,0.0,0.0,28.94844343980583,68.58867443551048,110.69559493675439,151.6888705406705,190.12784966017907,225.54446585917324,257.90089671539147,287.3393415349871,314.2562062803348,338.9820258924319,361.79713110562886,382.9427129611489,402.6289444753694,421.0411643197793,438.34475696595507,454.6885694083343,470.2092725764867,485.0341122800591,499.2836999027262,513.0748749865095,526.5237951582313,539.7494926883525,552.8782442555271,566.0492763409848,579.4226350852333,593.1906010981479,607.5950613783215,622.955274286055,639.7146739312212,658.5247739545922,680.4072442050983,705.6246868768196,734.1203885910455,766.1117932016535,801.8877925613557,841.7497101178485,885.9842239242862,934.8404519680463,988.50430946922,1047.0692061860827,1110.504754442841,1178.6270942346703,1251.0759751073776,1327.304352664894,1406.585328416099,1488.0385702325448,1570.6744648876934,1653.450432172505
H4,54187.97525758729,55091.10817854708,55990.29885262966,56885.79345693981,57777.81730844018,58666.57762607147,59552.264856277056,60435.0539034237,58687.51744743717,56932.45859650811,55170.819830423585,53403.636978957824,51632.051405443024,49857.32249309928,48080.84039086363,46304.13893587003,44528.908619450565,42757.00940046885,40990.483091839866,39231.56495129878,37482.69399444494,35746.521416450065,34025.916360019,32323.968105459044,30643.983592330835,28989.479024906337,27364.16418632506,25771.918017864195,24216.75404755549,22702.774421063994,21234.111645009743,21283.573141863795,22067.978361171092,22847.017458624206,23620.73424681557,24389.171846901212,25152.37272018956,25910.37869759991,26663.231007141992,27410.97029955713,28153.636672251516,28891.269691642785,29623.908414032463,30351.59140510872,31074.356758176556,31792.24211120547,32505.284662778333,33213.521187019156,33916.988047571926,34615.72121069752
E_Om,0.0,0.0,0.0,0.0,0.0,0.0,0.0,0.0,0.0,0.0,0.0,0.0,0.0,0.0,0.0,20.21767461975778,27.680351745629675,31.094985602272608,33.46551192869688,35.84779170118601,38.65881172055781,42.13178962186139,46.4805034559776,51.97129983664021,58.97490008887541,68.02972363219321,79.94115859385661,95.95205941495463,118.0522200384768,149.5721666511406,196.39973050116828,269.6836553256,365.78267953520697,486.6881267836626,645.1949430331046,852.0573268147084,1120.2879405288093,1465.381702761498,1905.2017547855617,2459.4636387776513,3148.6540433023088,3992.253827014445,5006.248792333772,6200.114511484561,7573.718118049803,9114.795605672407,10797.71195002307,12584.01074520564,14424.844638360126,16264.90281114226
I_Om,0.0,0.0,0.0,0.0,0.0,0.0,0.0,0.0,0.0,0.0,0.0,0.0,0.0,0.0,50.0,32.25228366443491,26.262968178758108,24.41450896274669,24.144119484501502,24.609748029591216,25.553315246533103,26.920934602508915,28.74081558413895,31.088874672451176,34.08599505077209,37.910246651236875,42.82186595637988,49.20617217765274,57.64728450433137,69.05923085675032,84.93084306060013,107.81220008031701,142.35838012745594,190.58898063210916,254.34439156483444,338.26638392308126,448.2527456085685,591.6212380373652,777.27577956731,1015.7828523540952,1319.2815163818277,1701.1334256834741,2175.217289217807,2754.801674802836,3451.0038192008606,4270.958973951736,5215.958420472655,6279.913637685868,7448.514021821482,8699.339794563382
A_Om,0.0,0.0,0.0,0.0,0.0,0.0,0.0,0.0,0.0,0.0,0.0,0.0,0.0,0.0,0.0,0.0,0.6065302385927335,1.315634743243077,1.9853573626626397,2.592251247991018,3.1492347494283948,3.6791521511594496,4.207275409583402,4.760235431346049,5.367327340176046,6.063108874807098,6.891378808811475,7.911337804864878,9.20763202634054,10.907672222226738,13.21330277731561,16.462634136887534,21.260616969278033,27.98197396147863,36.98622297269278,48.94482666914736,64.71758113975913,85.38270312767159,112.2676135849822,146.97014351155264,191.36002397257164,247.54764047712655,317.8057271921346,404.43204552372083,509.54907176351344,634.8508009523048,781.3245089320161,948.9909656463051,1136.713094873213,1342.1158150493743
IH_Om,0.0,0.0,0.0,0.0,0.0,0.0,0.0,0.0,0.0,0.0,0.0,0.0,0.0,0.0,0.0,7.747716335565085,12.418962114674326,15.965353737872688,19.075921106785916,22.013552758953345,24.89958306927786,27.810244493111977,30.81020811853054,33.965791841102934,37.35228339465337,41.060530267350245,45.20514555596777,49.93623886355992,55.457303061584206,62.053770349821846,70.14068121452598,80.34629282121497,93.66754175198083,111.78069152796266,136.60433570980462,170.26142038033652,215.50472157390647,275.88493792153633,355.9371079068019,461.38492483345914,599.3482842665081,778.5281444852546,1009.3293678889374,1303.8690611690563,1675.809900230844,2139.9616625272365,2711.615877705931,3405.6199845608753,4235.2525067531415,5211.0150986186745
IN_Om,0.0,0.0,0.0,0.0,0.0,0.0,0.0,0.0,0.0,0.0,0.0,0.0,0.0,0.0,0.0,20.0,32.700913465773965,42.09420668833544,49.85679531025077,56.784751582142434,63.316657213491084,69.73420104033778,76.2466186292433,83.03211875716798,90.26302947144802,98.12540069143321,106.8385261907585,116.67863731458147,128.01189402644403,141.34472509898967,157.4059861931699,177.28926538771054,202.7152644151364,236.55247570157843,282.1458221050907,343.26843848183904,424.8184189679615,533.1207744333702,676.2674658890337,864.4954778997726,1110.5798931545544,1430.2000243621355,1842.2137029320663,2368.7516393016376,3035.02823613928,3868.7683682801353,4899.1820212057855,6155.484148625308,7665.046693589645,9451.360726369174
D_Om,0.0,0.0,0.0,0.0,0.0,0.0,0.0,0.0,0.0,0.0,0.0,0.0,0.0,0.0,0.0,0.0,0.007747716335565085,0.020166678450239412,0.036132032188112104,0.05520795329489802,0.07722150605385136,0.10212108912312923,0.1299313336162412,0.16074154173477173,0.1947073335758747,0.23205961697052802,0.2731201472378783,0.3183252927938461,0.36826153165740594,0.42371883471899013,0.4857726050688119,0.555913286283338,0.6362595791045529,0.7299271208565338,0.8417078123844964,0.9783121480943009,1.1485735684746374,1.364078290048544,1.6399632279700804,1.995900335876882,2.457285260710341,3.056633544976849,3.8351616894621046,4.844491057351042,6.148360118520098,7.824170018750942,9.964131681278179,12.67574755898411,16.081367543544985,20.316620050298127
R_Om,0.0,0.0,0.0,0.0,0.0,0.0,0.0,0.0,0.0,0.0,0.0,0.0,0.0,0.0,0.0,0.0,0.5186374046796197,1.4777025533226738,2.818372644512995,4.4985402756319655,6.4901811144282195,8.77723038881359,11.354144255307936,14.225185320800065,17.40445189233113,20.916720912366443,24.799277620659097,29.105073598973323,33.90783637603283,39.31025328736968,45.457296968359046,52.55866670132888,60.92845783370609,71.05996349834074,83.61904534672415,99.45582310379646,119.67974997836181,145.73443171905757,179.48839577392522,223.3430842071025,280.3572713019427,354.3842456386008,450.2140070523525,573.7075973736199,731.9052534906637,933.0857512905354,1186.7529905428596,1503.5293150071548,1894.9439969785767,2373.118713767868
G_Om,0.0,0.0,0.0,0.0,0.0,0.0,0.0,0.0,0.0,0.0,0.0,0.0,0.0,0.0,0.0,0.0,5.458772147334601,12.932467118654612,21.328113231268215,30.363801452016375,40.042705211336596,50.48058437588721,61.856167573789776,74.40590350690374,88.43815446279659,104.36137748679296,122.7294028674851,144.31351568782642,170.22057172986416,202.0946711402529,242.47915613606088,295.5070833713763,368.32167030928827,467.0829937837942,598.4887880153831,772.6914226343213,1002.7469008742926,1305.224644817071,1700.8777045626757,2215.2821783547774,2879.337360824744,3729.4739525163664,4807.382485810267,6159.069659740386,7833.100577841216,9878.004469714664,12338.999283246212,15254.381509752442,18652.064410957966,22546.772463315203
beta,1.0,1.0,0.9958419789096221,0.9931398874147516,0.9911900041858757,0.9896639900526908,0.9884029105037433,0.9873258785621488,0.9863886714114688,1.0103252430274965,1.0360825981507482,1.0638748020265034,1.0939527640967577,1.1266121839761534,1.1622036293186753,1.2011454751046826,1.2437782555640562,1.2909076845026926,1.3432422585112977,1.4016846745908167,1.467372524199909,1.5417480485263644,1.6266621654728255,1.7245272563298855,1.8385449724284957,1.9730546870641823,2.13408360337698,2.330248289394776,2.5742989313021307,2.8859083811485107,3.297045385056509,3.8631939084272315,4.090224973033812,4.061516728297838,4.027569931175379,3.9866571683484224,3.9372670611082525,3.8777663560420614,3.8064375358106317,3.721603424299406,3.6218252953576444,3.5061636250697377,3.3744678346956425,3.227631376317248,3.0677280634552155,2.897954349225411,2.7223505030481987,2.545347804384794,2.37125283349396,2.2037980597044013
