series,2021-11-15,2021-11-16,2021-11-17,2021-11-18,2021-11-19,2021-11-20,2021-11-21,2021-11-22,2021-11-23,2021-11-24,2021-11-25,2021-11-26,2021-11-27,2021-11-28,2021-11-29,2021-11-30,2021-12-01,2021-12-02,2021-12-03,2021-12-04,2021-12-05,2021-12-06,2021-12-07,2021-12-08,2021-12-09,2021-12-10,2021-12-11,2021-12-12,2021-12-13,2021-12-14,2021-12-15,2021-12-16,2021-12-17,2021-12-18,2021-12-19,2021-12-20,2021-12-21,2021-12-22,2021-12-23,2021-12-24,2021-12-25,2021-12-26,2021-12-27,2021-12-28,2021-12-29,2021-12-30,2021-12-31,2022-01-01,2022-01-02,2022-01-03,2022-01-04,2022-01-05,2022-01-06,2022-01-07,2022-01-08,2022-01-09,2022-01-10,2022-01-11,2022-01-12,2022-01-13,2022-01-14,2022-01-15,2022-01-16,2022-01-17,2022-01-18,2022-01-19,2022-01-20,2022-01-21,2022-01-22
S,25501.65408846447,24554.271477883405,23989.90410144819,23610.897238075373,23341.02196733668,31642.523771929937,39919.35888713441,48189.97487985981,56464.28596993948,64746.789304382226,73038.87932567393,81340.32861732162,89650.15695164062,97967.10339526949,106289.86020004423,114617.17323448948,122947.87297544537,131280.8725878422,139615.15248142564,147949.7407685372,156283.69364441605,164616.07700183938,172945.94936105414,181272.3457157621,189594.2617611132,197910.6379713338,206220.34303434446,214522.15618759024,222814.7480198449,231096.6593062036,239366.27743029015,247618.36331002825,255855.339633995,264073.7496621735,272270.6954738402,271942.54159161245,271598.48581902374,271235.9161316586,270853.4743652245,270450.22648467816,270025.38211719756,269578.19744854886,269107.93942965276,268613.8698968574,268095.2353769759,267551.25760635716,266981.12299029785,266383.97036761115,265758.87688930635,265104.8420381148,264420.76996859524,263705.4504917273,262957.5391822682,262175.53725709114,261357.77205784066,260502.37916762521,259607.287392197,258670.2080309056,257688.6300376713,256659.82280919258,255580.84841424978,254448.585068186,253259.76353182853,252011.01784540675,250698.95136992773,249320.21848356444,247871.62146532867,246350.22110898115,244753.45848831531
E,1837.3374049811175,2233.518794067847,2127.8305322827055,1868.4882359707142,1577.8170359181904,1303.5214833709651,1136.1812859766874,1025.2622702797787,943.9238619376576,878.7947317351183,823.6176537443637,775.634428794846,733.6671286588854,697.1719092538492,665.8148945244284,639.3087545433204,617.3677500459493,599.7091754568166,586.0678920578127,576.2106001504116,569.9459070479393,567.1301403317109,567.6701018389401,571.5240794008035,578.702173050929,589.2666737365064,603.3329714263868,621.0712895741929,642.709433268748,668.5366797509408,698.908914560584,734.255110950086,775.066993849573,821.9546006224256,875.6178881775788,936.8687699824787,994.7026596841357,1052.5066407030224,1111.3797105088338,1171.6187433723098,1233.226666437265,1296.0865470001056,1360.0212428580405,1424.8138380443884,1490.2147234749536,1555.9442565058903,1621.6941095631873,1687.1284049886533,1751.8850324631117,1815.5772982271951,1877.795966102321,1938.111717020984,1996.0780412264178,2051.23457334083,2103.110880798684,2151.230718866527,2195.116769391302,2234.295884206146,2268.304856103686,2296.696738395699,2319.047725929901,2334.964593512866,2344.092659648467,2346.124202593525,2340.807201322041,2327.9542071310975,2307.4510755966785,2279.265209279396,2243.45288752761
I,17350.914962403367,12601.417540767157,9394.770816524333,7129.030923125462,5478.253611648551,4248.062821389884,3315.727050272783,2620.0758580278725,2104.7878010105164,1723.321741353693,1439.5967329768498,1226.7504742040974,1065.297037895006,941.3234978316335,844.9762857681791,769.2906460195633,709.3298487930243,661.572501045713,623.4854769033241,593.229884938467,569.4597817510103,551.1844573957271,537.6739246547434,528.3937246417333,522.9597153326624,521.106616634259,522.6661672498627,527.5521304136098,535.7503010392288,547.3122759369726,562.3521578760414,581.0456428439857,603.6311326901647,630.4077206622146,661.7487873649244,698.1038202700335,740.005633140094,784.8547196330289,831.7519761650511,880.3668480508952,930.5488709016777,982.1938594842007,1035.1975543146832,1089.4393875416265,1144.7766744222051,1201.0424726227411,1258.0448067822413,1315.5664916380786,1373.3653150332404,1431.174521300563,1488.7035937984674,1545.6393519439043,1601.6473806603233,1656.3738085647278,1709.4474490365283,1760.4823168692874,1809.0805329364248,1854.8356301720733,1897.3362757978591,1936.170426398167,1970.929933102204,2001.21561238871,2026.6427922445916,2046.847331802299,2061.492093438147,2070.273818267591,2072.9303183545935,2069.247852179633,2059.0684958655575
A,1927.8794402670408,1597.423674363066,1344.9445033124882,1139.7905186184717,967.8870619738988,821.6441606566646,696.4209730264605,591.2222170004691,503.73564170876864,431.30622922514465,371.4088253321693,321.8355898780663,280.7375047662984,246.6000176728053,218.19517141585968,194.53058396842061,174.8037298110361,158.36401635020738,144.68248834387038,133.3280274368307,123.9487399539769,116.25736917461968,110.01979954964708,105.04594269488585,101.18247653793279,98.3070464218741,96.32363734959448,95.15889902246718,94.75925790519952,95.08868932222205,96.12705185030588,97.86890891706221,100.32278046215234,103.51023418520906,107.46682536684003,112.24199693879937,117.89966065051385,124.16080831093515,130.9038458698388,138.06446801113603,145.60013671007812,153.47690936118045,161.66412389894754,170.13193640489922,178.84996426525103,187.7864131164494,196.90745818833625,206.17678983756463,215.55528401971128,225.00077818966236,234.46794149854577,243.90823218190621,253.2699372561545,262.49829104171613,271.53567003359774,280.32186245083875,288.79441152666675,296.8890323030725,304.5401023686424,311.68122757802445,318.2458842142905,324.1681391493295,329.38344912484956,333.8295390893336,337.44735734927264,340.18210191907934,341.9843077491964,342.8109784672574,342.6267390521879
IH,0.0,1775.3955285004372,2877.5329701474175,3535.2992125155447,3891.8446073565187,4041.8678794263387,4050.189434113431,3962.2339198545415,3812.3752753782737,3625.5985662181456,3419.4911097750246,3206.093136405409,2993.426196648035,2786.671839567136,2589.0414329960477,2402.3993513483993,2227.7006535032388,2065.2945145015433,1915.1329579336154,1776.9138714081425,1650.178849901494,1534.3801219922198,1428.926325096442,1333.2137815381182,1246.647804615728,1168.6571310519134,1098.7036124913075,1036.2886496479448,980.957413496557,932.3015986983838,889.9612491352503,853.6260536291661,823.0364115899762,797.9845001030967,778.31502233085,763.9272681470414,754.7771435850046,750.8797249235332,751.9825091686524,757.767629491086,767.9169256247653,782.1304021768718,800.1290479404038,821.6526148004668,846.4559698088874,874.3052377117972,904.9741313363637,938.240589718174,973.8837527541505,1011.6812737070528,1051.4069646590603,1092.8287704036736,1135.7070683111979,1179.7932937964706,1224.828892726987,1270.5446034155448,1316.6600718622349,1362.8838047960028,1408.9134659470415,1454.436521936139,1499.1312451922727,1542.6680822939074,1584.7113968314832,1624.9215959246721,1662.9576483726714,1698.4799994236087,1731.15388160282,1760.653012229221,1786.663655581904
IN,3470.1829924806734,6505.377607271024,8210.21027096426,9060.012353816399,9350.143536811784,9273.75123516772,8960.8965711669,8500.791169783342,7959.229866591857,7382.495807984485,6801.762307848052,6237.078907517106,5700.60947255614,5199.095939259578,4735.652555138309,4311.032482285364,3924.501522584468,3574.430163893463,3258.688875249843,2974.908437798981,2720.648836625688,2493.506724665021,2291.1818730683112,2111.5163898523033,1952.5159836008456,1812.3595194619659,1689.4010863118222,1582.1674361722573,1489.3527457448995,1409.812036018137,1342.5541707715263,1286.7350735320565,1241.6516122386595,1206.7364729943736,1181.5532735023526,1165.7950082257735,1159.2830523493258,1161.9677344791726,1173.2857082757284,1192.564422298849,1219.1495186764569,1252.438570595137,1291.8838285590089,1336.9853517230517,1387.2817533922328,1442.3409448701,1501.7516114285586,1565.1156016798489,1632.0412355679439,1702.137487806489,1775.0089971012137,1850.2518574748176,1927.4501565570044,2006.1732336903979,2085.9736373710293,2166.385766937985,2246.9251878579767,2327.088613772311,2406.3545519904537,2484.184612516152,2560.025484001836,2633.311583053007,2703.4683856025526,2769.9164499281114,2832.0761393105995,2889.3730471258746,2941.2441169987464,2987.1444342359014,3026.5546410444686
D,462.0,462.0,463.77539552850044,466.65292849864784,470.18822771116334,474.0800723185198,478.12194019794623,482.17212963205964,486.1343635519142,489.94673882729245,493.57233739351057,496.99182850328555,500.197921639691,503.191347836339,505.9780196759062,508.56706110890224,510.9694604602506,513.1971611137539,515.2624556282555,517.1775885861891,518.9545024575972,520.6046813074987,522.139061429491,523.5679877545874,524.9012015361255,526.1478493407413,527.3165064717932,528.4152100842846,529.4514987339325,530.432456147429,531.3647577461275,532.2547189952627,533.1083450488918,533.9313814604818,534.7293659605848,535.5076809829156,536.2716082510627,537.0263853946478,537.7772651195713,538.5292476287399,539.287015258231,540.0549321838558,540.8370625860326,541.6371916339732,542.4588442487736,543.3053002185824,544.1796054562943,545.0845795876305,546.0228201773488,546.996703930103,548.00838520381,549.0597921684691,550.1526209388728,551.2883280071841,552.4681213009804,553.6929501937075,554.963494797123,556.2801548689854,557.6430386737812,559.0519521397283,560.5063886616645,562.0055199068565,563.5481879891506,565.132899385982,566.7578209819069,568.4207786302796,570.1192586297033,571.8504125113061,573.6110655235352
R,0.0,820.5642657437302,2141.000298388769,3739.7974779760557,5472.81283983988,7245.068827158124,8994.175472351018,10679.890532623262,12277.701559764148,13774.472582978016,15164.948772781707,16449.115445722655,17630.287577363903,18713.77320729925,19705.963957248594,20613.731765869576,21444.0393018112,22203.696485072323,22899.215340555143,23536.730152062784,24121.960431586747,24660.201559855806,25156.332972691776,25614.837160560466,26039.82502923904,26435.06469986686,26804.01185502419,27149.840430985925,27475.472926278922,27783.60991705622,28076.7585897254,28357.26025355529,28627.316902728002,28889.016973507343,29144.360388573892,29395.283254988153,29643.682562571466,29891.44108571138,30140.381146064767,30392.203748335556,30648.479519656743,30910.655312957886,31180.06433356009,31457.93584161256,31745.40326899254,32043.510523632707,32353.21655593235,32675.398349531803,33010.852515937295,33360.295668294755,33724.36374043569,34103.61040835471,34498.50476391022,34909.428384901206,35336.67194153483,35780.431476376194,36240.80449292309,36717.78598680846,37211.264553204965,37721.018704245645,38246.71353116029,38787.89784731972,39344.00195037276,39914.33614392954,40498.09016138539,41094.33363586818,41702.017760038885,42319.97827642962,42946.939931769106
G,128775.0,129271.0810993449,129874.13117374321,130448.64541745954,130953.13724117163,131379.14784086953,131731.09864137974,132037.86758859342,132314.68840156894,132569.54784429213,132806.82242186062,133029.1991883716,133238.62048414617,133436.71060888408,133624.9470243826,133804.7170459042,133977.3304096309,134144.01970214336,134305.9411795167,134464.17951037234,134619.7563724129,134773.64176731586,134926.76690520544,135080.03783270193,135234.34933414016,135390.5989208639,135549.70092277278,135712.60082505792,135880.29007324297,136053.82162022553,136234.32652375827,136423.03193068964,136621.2808106462,136830.54889898552,137052.4766411536,137288.89347096154,137541.8480388568,137810.41775697152,138094.59454996136,138394.6670717987,138711.00413250926,139043.9753324473,139393.91870013735,139761.124435709,140145.824171981,140548.18214731925,140968.28709657583,141406.1445061579,141861.66917550482,142334.67813426987,142824.8840047912,143331.88891563888,143855.17907923454,144394.12015036563,144947.95348516764,145515.79342298332,146096.62571707726,146689.30724481292,147292.5671335486,147905.00944469662,148525.11756406343,149151.26045006452,149781.700890313,150414.60590841807,151048.0594431183,151680.07738747523,152308.62502340064,152931.63681381173,153547.03842031717
H,255016.5408846447,255016.54088464472,255016.54088464472,255016.54088464475,255016.54088464472,246515.98952182327,238015.43815900176,229514.8867961803,221014.33543335882,212513.78407053734,204013.23270771583,195512.6813448943,187012.12998207283,178511.57861925135,170011.02725642986,161510.47589360835,153009.92453078687,144509.3731679654,136008.82180514387,127508.27044232238,119007.7190795009,110507.1677166794,102006.6163538579,93506.06499103643,85005.51362821493,76504.96226539343,68004.41090257195,59503.85953975045,51003.308176928964,42502.75681410747,34002.205451285976,25501.65408846449,17001.102725642995,8500.551362821509,1.8133050616597757e-11,1.8133050616597757e-11,1.8133050616597757e-11,1.8133050616597757e-11,1.8133050616597757e-11,1.8133050616597757e-11,1.8133050616597757e-11,1.8133050616597757e-11,1.8133050616597757e-11,1.8133050616597757e-11,1.8133050616597754e-11,1.8133050616597754e-11,1.8133050616597754e-11,1.8133050616597757e-11,1.8133050616597754e-11,1.8133050616597757e-11,1.8133050616597757e-11,1.8133050616597754e-11,1.8133050616597757e-11,1.8133050616597757e-11,1.8133050616597757e-11,1.8133050616597757e-11,1.8133050616597757e-11,1.8133050616597757e-11,1.8133050616597757e-11,1.8133050616597757e-11,1.8133050616597757e-11,1.8133050616597757e-11,1.8133050616597757e-11,1.8133050616597757e-11,1.8133050616597757e-11,1.8133050616597757e-11,1.8133050616597757e-11,1.8133050616597757e-11,1.8133050616597757e-11
S0,8925.578930962563,8384.491890340276,8046.440226867964,7811.736682180984,7637.615367829269,10428.693599431217,13185.135926847664,15917.354014348788,18631.028482456095,21328.82330737679,24011.66833607986,26679.582732684834,29332.15970564806,31968.83085083316,34588.99791461086,37192.090084507945,39777.58240589708,42344.99568797749,44893.88874081887,47423.84823748698,49934.478481323385,52425.39184367327,54896.19994752417,57346.5054024336,59775.89381988423,62183.9258392471,64570.12891790129,66933.9886619014,69274.93948839312,71592.35441680088,73885.53378406375,76152.3507997028,78393.65483757584,80607.97355657507,82794.03342981437,82324.53274064664,81849.13412933398,81366.60098963018,80876.37006655226,80378.1150243003,79871.59974229542,79356.62860842061,78833.02936245002,78300.64665744429,77759.33886763513,77208.97555661225,76649.43469936939,76080.59934315916,75502.35361500247,74914.57808399924,74317.14454850112,73709.91037043017,73092.7125309726,72465.36163603366,71827.63615596051,71179.27724050121,70519.98450415343,69849.41322540717,69167.1734413486,68472.83144110093,67765.91416111367,67045.91695514455,66312.31514445224,65564.57964232602,64802.19678639315,64024.69230003416,63231.65904328601,62422.787912697306,61597.90092507845
E0,1837.3374049811175,1808.3155751456368,1574.8007226211014,1308.8401925772991,1062.7146927084275,851.6973947098328,718.090549938607,628.3849382440019,563.8344881405725,514.3238324239387,474.50284772262125,441.53692575242934,413.8691310726395,390.57314055608106,371.0324049260507,354.7898272898195,341.4813455298357,330.80795102468846,322.52379873639336,316.43029581636233,312.37209544458574,310.23365661580806,309.93612193084067,311.43461062163146,314.71607208817693,319.797801574859,326.7266666481638,335.57905650384635,346.4615484690445,359.5122826646017,374.9030409904223,392.84203582591465,413.5674452768351,437.37690630356474,464.6109240033543,495.6636826481656,524.6605963031582,553.3882817565797,582.4204199130457,611.9059080115481,641.838136241643,672.1474285788413,702.7330304553961,733.4743962650169,764.2354141032906,794.8662734379,825.2046137920918,855.0765325204067,884.2976596462677,912.6743759590008,940.0052019492811,966.0823662237397,990.6935543014818,1013.6238357148063,1034.6577667650477,1053.5816670941558,1070.186069732343,1084.268345765603,1095.6355053946518,1104.1071759410625,1109.5187532078826,1111.724714429937,1110.6020679116411,1106.0538957533734,1098.012921798038,1086.4450078970028,1071.3524496385676,1052.7769107854335,1030.80180790778
I0,17350.914962403367,12601.417540767157,9279.965947415336,6899.616143670691,5167.091196509183,3891.8942899810536,2945.2439098523632,2248.7137475761483,1738.540072356313,1365.1749486050169,1091.3187659997625,889.5039063920071,739.801496725178,627.8872456011605,543.5173153565094,479.3783464916689,430.24455922667937,392.3717497847667,363.0669405172948,340.38492436440197,322.9149547907927,309.6308425703028,299.78544288401486,292.8361983860325,288.39246142055146,286.1781623927592,286.0053635778386,287.75559936748925,291.36684409973003,296.82459976745264,304.1560492753887,313.4265386272945,324.7378755775446,338.2253971559173,354.063886891357,372.4672236298343,393.6910555028174,416.3276041608957,439.8770813875244,464.1456902216614,489.0384252115074,514.4872185779124,540.4257684619026,566.7806138399335,593.4679553227091,620.3925777791612,647.4476029468046,674.5146269781787,701.4640885032991,728.1558156245599,754.4397364287591,780.1567497076551,805.1397559117233,829.2148485980683,852.2026659935699,873.9199016936482,894.1809733165596,912.7998481981904,929.592025797779,944.3766770629522,956.9789410774263,967.2323782469346,974.9815763275124,980.0848999940223,982.4173656873359,981.8736106750171,978.370908488843,971.8521625732658,962.2887871835773
A0,1927.8794402670408,1597.423674363066,1332.188406744822,1112.9947470744905,929.6610034369114,775.6102435307819,646.0391166659205,538.3740098308946,449.5507560120357,376.55563945384574,316.67422653579473,267.57446666031444,227.30568110082442,194.26061881283871,167.1256892669534,144.83152356134423,126.50891366776997,111.45157130011106,99.0854955708295,88.9441104187554,80.64819720949518,73.88972063093371,68.4187862032212,64.03311262050218,60.569528415050684,57.89710489468585,55.911617962994455,54.531094369840474,53.69224719098777,53.34764420686155,53.46348384542729,54.0178783060545,54.99956371962104,56.40667433400188,58.24664665630844,60.535645045147376,63.298426515562866,66.37855910154504,69.70449573393341,73.2362091845381,76.94614458797692,80.81205975763082,84.81407066346989,88.9332474444378,93.15082984350074,97.44772629789931,101.80416924145644,106.1994738069279,110.61187502115452,115.01842980631164,119.39497512381934,123.7161361575339,127.9553799127393,132.0851105592359,136.0768035188329,139.90117581801775,143.52839066723888,146.9282946257614,150.0706860735772,152.92561402070132,155.46370649479292,157.6565277920708,159.47696366655475,160.89963297059305,161.90132324907563,162.46144625320164,162.5625072394714,162.19057928073414,161.3357707481503
IH0,0.0,1775.3955285004372,2877.5329701474175,3523.5520480744854,3857.862200846759,3979.6310402306785,3958.073397961754,3841.925752441738,3666.7588571637034,3457.8668313699523,3232.805781752252,3003.463322958217,2777.66255061278,2560.362169187248,2354.5321163959284,2161.780870062341,1982.7989153301664,1817.66918537879,1666.0827475622807,1527.4877034713118,1401.1913319750188,1286.4296313053312,1182.4141870348299,1088.3632998484904,1003.5222111853969,927.1758052562823,858.6561513215848,797.3465443293975,742.6832100110518,694.1554966272319,651.3051345566422,613.7249757306698,581.0575060848139,552.9933408358482,529.2695784238914,509.66893355463253,494.01892575777737,482.191427147753,473.92777735265366,468.94546076721724,466.9719328040629,467.75367674208707,471.0569529308799,476.6658933199324,484.3798837442095,494.0108970317417,505.3809971855226,518.3200815207005,532.6638750443528,548.2521740573434,564.9273309981992,582.532971813374,600.9129377190777,619.9104440804707,639.3674499280362,659.1242322757255,679.0191599207777,698.8886618455504,718.567385762794,737.8885427823913,756.6844346272485,774.787160235937,792.0294988470914,808.2459665888307,823.2740429586446,836.9555620918906,849.1382610765329,859.6774734936678,868.4379506353152
IN0,3470.1829924806734,6505.377607271024,8210.21027096426,9037.051379994598,9284.17777138448,9153.821813269673,8784.766628493964,8272.642535029121,7685.407302887001,7069.747431049083,6456.587666091169,5865.516407168131,5308.173118667339,4790.752480352401,4315.8078089216715,3883.5235946013418,3492.598529817888,3140.8492702984763,2825.617313810677,2544.038806566981,2293.2198382155857,2070.3471015437794,1872.7547003144593,1697.9614801418747,1543.6887885451442,1407.8654732176692,1288.624787436304,1184.2963941401233,1093.3956403493883,1014.6115696049566,946.7946545933709,888.9448981421068,840.2007221957252,799.8289092921913,767.2152183828168,741.8573604064669,723.3587841410132,711.4237757936845,705.5121337058187,705.0514129996221,709.502165525519,718.3735620151831,731.2226852261394,747.6488773403862,767.2870109011809,789.800967399486,814.8777178461653,842.222095868129,871.5522535075812,902.5957602505514,935.0863004422372,968.7609267846327,1003.357832253084,1038.614607494459,1074.2669549505117,1110.0478344788587,1145.687018210352,1180.9110349360594,1215.4434866043102,1249.0057216258954,1281.3178516532862,1312.100100235842,1341.0744730579092,1367.9667400177768,1392.508718766207,1414.4408469722255,1433.5150259668371,1449.497711022736,1462.1732129963086
D0,462.0,462.0,463.77539552850044,466.65292849864784,470.1764805467223,474.03434274756904,478.0139737877997,481.9720471857615,485.8139729382032,489.4807317953669,492.93859862673685,496.1714044084891,499.1748677314473,501.9525302820601,504.51289245124735,506.8674245676433,509.0292054377056,511.0120043530358,512.8296735384146,514.4957562859769,516.0232439894482,517.4244353214233,518.7108649527286,519.8932791397634,520.981642439612,521.9851646507974,522.9123404560537,523.7709966073753,524.5683431517047,525.3110263617157,526.0051818583429,526.6564869928995,527.2702119686302,527.851269474715,528.4042628155509,528.9335323939747,529.4432013275293,529.9372202532871,530.4194116804349,530.8933394577875,531.3622849185548,531.8292568513589,532.2970105281009,532.7680674810318,533.2447333743518,533.7291132580959,534.2231241551277,534.7285051523132,535.246825233834,535.7794891088784,536.3277412829357,536.8926686139339,537.4752015857473,538.0761145234663,538.6960249675468,539.3353924174748,539.9945166497506,540.6735358096714,541.372424471517,542.0909918572797,542.8288804000621,543.5855648346893,544.3603519949253,545.1523814937724,545.9606274603613,546.78390150332,547.6208570654119,548.4699953264884,549.3296727999821
R0,0.0,820.5642657437302,2141.000298388769,3737.2462586625225,5460.79691102457,7213.588241801399,8931.952163212303,10575.888262892022,12121.960875071629,13558.356600597792,14881.154293592523,16091.600679327865,17194.173549803185,18195.236959726837,19102.12812373706,19922.551908322846,20664.190492313923,21334.461238337903,21940.37523376099,22488.463243273978,22984.746066945972,23434.73353038792,23843.44137735518,24215.418825187022,24554.78194650442,24865.249689724435,25150.180479854313,25412.60811178931,25655.27617275183,25880.670585527187,26091.050102765614,26288.474741392885,26474.83225039335,26651.86277243006,26821.181842243877,26984.302017584752,27142.653424164557,27297.60340984304,27450.437580966813,27602.332494170267,27754.355426156937,27907.47204613288,28062.55556084021,28220.3952583616,28381.703863480874,28547.123619131427,28717.231171554104,28892.541383740558,29073.510209512708,29260.536755869165,29453.96465322856,29654.082845012163,29861.125900574043,30075.27394899116,30296.6523256028,30525.33101830709,30761.323996354382,31004.58850062353,31255.024371058465,31512.47348403762,31776.71936991634,32047.487078786045,32324.443360566507,32607.197223769,32895.30093543838,33188.251522603765,33485.492832631426,33786.4182056632,34090.37380623239
G0,128775.0,129271.0810993449,129759.32630463422,130184.52249974191,130537.90935173779,130824.84231876906,131054.80061534072,131248.68506382414,131418.34899715002,131570.584308948,131709.45174370246,131837.56751258756,131956.7824825407,132068.52714793032,132173.98189588045,132274.16064521048,132369.95389857874,132462.1538618718,132551.47200864847,132638.5534343073,132723.98961417773,132808.33007994777,132892.09316723404,132975.77592015537,133059.86326502322,133144.83660448703,133231.18201091225,133319.39821090727,133410.0045561633,133503.54917424996,133600.6174905694,133701.84131163682,133807.9086613098,133919.57187153454,134037.6636362365,134163.10858571742,134296.93778003243,134438.59614103427,134588.01097710856,134745.26449048507,134910.4790856482,135083.77538243344,135265.25518814972,135454.99310637268,135653.03119336424,135859.37475517212,136073.98864900036,136296.79389472422,136527.66455850474,136766.42492660924,137012.84700811817,137266.64841264448,137527.4906515249,137794.9779111863,138068.6563468293,138348.01394385585,138632.4809939713,138921.43123279902,139214.18368615574,139510.0052726123,139808.1142101164,140107.6842734825,140407.84994637858,140707.71250471473,141006.34705656813,141302.8105454536,141596.15069758578,141885.41585898818,142169.66562490026
H0,89255.78930962564,89054.96378367899,88734.36591405775,88414.92219676715,88096.62847685878,84853.49792719734,81632.57618518843,78433.74537838883,75256.88819521083,72101.88788241161,68968.62824259352,65856.99363171517,62766.86895661313,59698.13967253435,56650.69178067926,53624.41182575538,50619.18689354147,47634.90460846223,44671.453131173424,41728.72115615738,38806.59790932887,35904.97314565133,33023.73714676337,30162.78071861544,27321.995189116747,24501.272405792333,21700.504733450205,18919.585051858565,16158.406753433035,13416.863740933897,10694.85042517323,7992.261722731957,5308.99305368675,2644.940339346742,5.437323125079274e-12,5.417748761828988e-12,5.398244866286404e-12,5.3788111847677724e-12,5.359447464502609e-12,5.3401534536303996e-12,5.32092890119733e-12,5.301773557153019e-12,5.2826871723472685e-12,5.263669498526818e-12,5.244720288332121e-12,5.225839295294126e-12,5.207026273831067e-12,5.188280979245275e-12,5.169603167719992e-12,5.1509925963161995e-12,5.132449022969461e-12,5.113972206486771e-12,5.095561906543419e-12,5.077217883679862e-12,5.058939899298615e-12,5.04072771566114e-12,5.02258109588476e-12,5.004499803939575e-12,4.986483604645393e-12,4.9685322636686694e-12,4.950645547519462e-12,4.932823223548392e-12,4.9150650599436185e-12,4.897370825727822e-12,4.8797402907552014e-12,4.8621732257084825e-12,4.844669402095932e-12,4.827228592248387e-12,4.809850569316293e-12
S1,2550.1654088464475,2248.3809961256425,2039.916605039988,1873.8248592273042,1734.9377699491183,2245.3665699444323,2693.2341588669165,3087.504955873146,3435.183227475381,3741.9564757235485,4012.6230072238727,4251.351663360977,4461.8345186391325,4647.377008990334,4810.953508052269,4955.244634680025,5082.6651664490755,5195.387102742539,5295.3600500838575,5384.329888434228,5463.85610172178,5535.327909565929,5599.97924787813,5658.902624387167,5713.061878165535,5763.303881152673,5810.36922742838,5854.9019607001155,5897.458392232475,5938.515060944582,5978.475885339976,6017.57251890581,6056.223131832496,6094.611114064722,6132.896425521509,5980.436559765813,5836.863745604492,5701.437116879732,5573.513871567201,5452.51187327793,5337.895339678709,5229.168243433743,5125.870387741064,5027.574477928772,4933.883618916421,4844.429037968116,4758.86795700543,4676.881582038877,4598.173193369495,4522.4663273092065,4449.503044389758,4379.042282431069,4310.858296095101,4244.739187852468,4180.485538645628,4117.909149868645,4056.831911466936,3997.084813807084,3938.5071232396417,3880.945742686193,3824.254778784919,3768.2953357493807,3712.9355527451253,3658.0508959113727,3603.524707884384,3549.2490067149874,3495.1255125653092,3441.0668650015878,3386.9979769465035
E1,0.0,149.1941119025299,187.29174659467134,183.45051858241658,163.5631307716024,138.9810592731194,123.5331271925461,112.15343865047558,102.55302722336542,93.84624796100607,85.77622071519409,78.3228213845779,71.52462811720214,65.41018825621,59.979988150485084,55.2087977055094,51.05402072559485,47.46405032477101,44.384671780349706,41.763300397049605,39.55145784060904,37.7060056186429,36.18958238002794,34.9705744285919,34.022841716356815,33.32534015965017,32.86172491409564,32.61998279582147,32.59211950384167,32.77391396014357,33.16474455576465,33.767488102796534,34.58770186543718,35.63568870691148,36.92485642493635,38.472301458596846,39.83927542373928,41.16058751249176,42.47965854987,43.808799411722006,45.14936932875325,46.49855430629354,47.85166500387839,49.20292948331735,50.545780409266506,51.87297446270461,53.17665901429024,54.4484257246816,55.67936500743983,56.86012637850848,57.980986551164655,59.03192596859159,60.002714024275065,60.88300306667936,61.66243126346147,62.330734446846584,62.87786713547628,63.2941329905964,63.570324971642094,63.69787535695097,63.66901553380603,63.4769449832969,63.116008143211516,62.581876798911416,61.87173433153367,60.98445659204336,59.920782469771254,58.68346554569696,57.277396780719045
I1,0.0,0.0,40.28241021368307,78.67288766692546,104.41991398378201,117.01343053481901,119.16247963256671,116.49088036363335,111.55445076412481,105.5183056753574,98.95619493183537,92.19905302770127,85.47233188153727,78.9437402393641,72.7379924393434,66.94223013638418,61.610437944102316,56.76877871960393,52.42157183056588,48.55719282587859,45.153333724203456,42.181341607037965,39.60957859567682,37.405884101107354,35.53928471812994,33.98111319754523,32.70568715280098,31.690675462340675,30.9172546538664,30.37013356010445,30.03750419239261,29.910960552746594,29.985414707937124,30.258817384677595,30.732520624946815,31.411087822887005,32.302318792749766,33.29319322278466,34.34125790886481,35.42861784440498,36.54611202916438,37.68771603513688,38.84846697815939,40.0236362455592,41.20836636913718,42.39749522390969,43.58546561723115,44.766280212999575,45.93348455539224,47.080169929898375,48.198991653755634,49.28220022240603,50.32168370346031,51.30902032350411,52.23554053797209,53.09239810921709,53.870649894304236,54.56134418702872,55.15561757529136,55.644800358281685,56.02053059922763,56.27487684070141,56.40046934619368,56.390639417338235,56.239565837888925,55.94242679134676,55.495554686407154,54.89659022863776,54.14463085915001
A1,0.0,0.0,4.475823357075897,9.199411083500857,12.863044424273182,15.197329462566618,16.327295348246878,16.767830094373885,16.778867235013376,16.499684604711664,16.015135122599514,15.385394719535434,14.658000417165685,13.872139177248611,13.060016989485188,12.247413236102703,11.454194520047444,10.6949762378058,9.979902499987771,9.315462153400707,8.705268734632053,8.150758722923914,7.651787146898418,7.207117188919573,6.814810983993415,6.472534038685437,6.177787435737854,5.928081696013153,5.721064840685166,5.554615457663383,5.426909784935013,5.33647016462095,5.282200774780656,5.2633916757876404,5.279784001837457,5.331572894218056,5.419427359132349,5.530720150018058,5.659393745389199,5.801904752807459,5.955787784597628,6.1191113075407,6.290245675221366,6.467746490293444,6.650285076734276,6.836601473665416,7.025470412813471,7.215676100679484,7.405993652284034,7.595175872050422,7.781944488995592,7.964985187731413,8.142945929242877,8.314438164122553,8.478040623298423,8.632305436542582,8.775766382639464,8.90694912017586,9.02438328585858,9.126616377836127,9.21222936297743,9.279853956396124,9.328191514615806,9.35603345598899,9.362283068758535,9.345978484952838,9.30631648572357,9.242676662671993,9.154645296508503
IH1,0.0,0.0,0.0,4.121812084582255,11.7370629631824,21.183536396196665,30.922162720899664,39.85341652412115,47.569200093781724,53.965982156261106,59.07037023436715,62.96487291601448,65.75715762134631,67.56660346754451,68.51715742448806,68.73245316782533,68.33199958147989,67.42822313340277,66.12436815509143,64.51323032153992,62.67662740007951,60.68546407461307,58.60023386925114,56.47181192953516,54.342416122406036,52.246641716773944,50.21250141828009,48.26242514423233,46.41419182960853,44.68177894410899,43.07612492158811,41.60580613861242,40.27763417521928,39.09718148667077,38.06922303573626,37.19816844776437,36.48842914273173,35.94474930575354,35.55980812285148,35.32271307493787,35.22188956102519,35.24604653561586,35.38446754122399,35.627058718744394,35.964307104608295,36.38720617072169,36.88717123025948,37.455954515695126,38.08556460245569,38.76819259503316,39.49614639203014,40.261793756722554,41.05751457976297,41.875662515278,42.70853604457745,43.548358943347694,44.387270082156405,45.21732246695761,46.03049142021746,46.81869180978731,47.57380424699553,48.28771019146472,48.95233590951504,49.559705224674005,50.10200095918984,50.571634879016315,50.961325805368354,51.26418532894216,51.47381024771259
IN1,0.0,0.0,0.0,8.056482042736615,22.781177370700597,40.80953341583355,59.09673345957895,75.52143784596856,89.35298123660294,100.46345099830637,108.9739913493684,115.10531101441602,119.11663971851382,121.2798030542173,121.86609495166002,121.13774544101041,119.34154227813599,116.70413522960946,113.42899602381745,109.69495502643689,105.6561012781653,101.44274712046004,97.16313962379311,92.90562948330289,88.74106049276791,84.72520147619507,80.90109717056218,77.30126016610173,73.94966136674618,70.86350222267015,68.05476974415666,65.53158676877173,63.2993767345963,61.361865663633566,59.721902665362435,58.38225012101298,57.346236825408596,56.61833427089058,56.179849384674455,56.00594163488523,56.07130525572719,56.3519743659507,56.82578232840854,57.47234852308908,58.27290132368284,59.21005063868098,60.267553804257105,61.43009274036418,62.683070025216175,64.01242713663578,65.40448604910492,66.84581434475518,68.32311346202333,69.82312943116091,71.33258531643321,72.83813454068164,74.32633427627869,75.78363812909278,77.19640740792356,78.5509403527856,79.83351878285542,81.03047170763568,82.12825550750385,83.11355031192228,83.97337216005846,84.6952003908365,85.26711944813668,85.6779738757642,85.91753469809223
D1,0.0,0.0,0.0,0.0,0.004121812084582255,0.015858875047764655,0.03704241144396132,0.06796457416486099,0.10781799068898214,0.15538719078276386,0.20935317293902497,0.2684235431733921,0.3313884160894066,0.39714557371075293,0.46471217717829744,0.5332293346027855,0.6019617877706108,0.6702937873520907,0.7377220104854935,0.803846378640585,0.8683596089621248,0.9310362363622043,0.9917217004368174,1.0503219343060686,1.1067937462356037,1.1611361623580096,1.2133828040747836,1.2635953054930638,1.311857730637296,1.3582719224669046,1.4029537014110136,1.4460298263326017,1.487635632471214,1.5279132666464335,1.5670104481331042,1.6050796711688404,1.642277839616605,1.6787662687593365,1.7147110180650902,1.7502708261879416,1.7855935392628794,1.8208154288239047,1.8560614753595206,1.8914459429007446,1.927073001619489,1.9630373087240973,1.999424514894819,2.0363116861250785,2.0737676406407735,2.111853205243229,2.150621397838262,2.1901175442302923,2.230379337987015,2.271436852566778,2.313312515082056,2.3560210511266333,2.399569410069981,2.4439566801521377,2.4891740026190954,2.535204494039313,2.5820231858491,2.6295969900960956,2.67788470028756,2.7268370361970753,2.7763967414217494,2.8264987423809393,2.8770703772599555,2.928031703065324,2.979295888394266
R1,0.0,0.0,0.0,0.8951646714151794,4.175592569862577,10.830163670902461,21.198456564565724,35.102578892803926,52.08682256999657,71.61323743179874,93.14487763441039,116.17973343923751,140.26411702079898,164.99759199852684,190.03410600532013,215.08100511669522,239.8965796327372,264.2865148541779,288.0995765394352,311.22285188759145,333.57683796656056,355.1106183033885,375.79730681432227,395.6298778272159,414.6174487294316,432.7820407163139,450.1558133743107,466.77874905581433,482.69675124719816,497.9601154128804,512.6223293634539,526.7391616235824,540.3679994805011,553.5674025877208,566.3968379011942,578.9165766476399,591.1877360826311,603.2724454511857,615.2313647432944,627.1208343548769,638.9922341418397,650.8920694371749,662.8622754037582,674.9405629827077,687.1607448725076,699.5530210553678,712.144218630425,724.9579866583047,738.0149491555836,751.3328203949435,764.9264870656325,778.808061956861,792.9869137908074,807.4696777239341,822.2602508932071,837.3597772286931,852.766625598214,868.4763652008985,884.4817419895745,900.7726597802472,917.3361696021574,934.1564707539103,951.2149269570774,968.4901009320362,985.9578106505127,1003.5912104287569,1021.3608998920075,1039.2350636367532,1057.1796441096863
G1,0.0,0.0,40.28241021368307,90.85118179424433,140.3828218114968,184.54486711982946,222.0697531235717,255.42369746555914,285.70512590118756,313.3944432514962,338.73293020096787,361.8925097940703,383.03967156790634,402.35132115955093,420.01207198872766,436.2066687893586,451.11304416984615,464.89762976575673,477.7129233534449,489.6967847341393,500.9728758413427,511.6517694583072,521.8323909753408,531.6035782179483,541.0456333136682,550.2318005770845,559.2296424201901,568.1023081469959,576.9097035018677,585.709575767905,594.5585325371437,603.5130135672002,612.6302353549553,621.9689148586233,631.5905508094894,641.5602620442222,651.9477834380434,662.704387802453,673.8177464308258,685.2872542392906,697.1156300804556,709.305959799219,721.8605694619182,734.7805190129653,748.065309973461,761.712670683963,775.7183737888932,790.0760717227516,804.7771466684156,819.8105752204244,835.1628093426217,850.8176757114362,866.7562957229559,882.9570285095101,899.3954393375135,916.0442957786481,932.8735940792967,949.8506182058753,966.9400341133363,984.1040218556797,1001.3024482020564,1018.493082396184,1035.6318575416742,1052.6731797403413,1069.5702864760474,1086.2756547455615,1102.7414580254133,1118.9200692922516,1134.7646049895898
H1,25501.654088464475,23880.932893806526,22495.74984244159,21208.354285272082,20011.765556232436,18269.518206860488,16674.50710239428,15213.871435237746,13875.841600672484,12649.648899298141,11525.442571895957,10494.213579927695,9547.724591298655,8678.445673792896,7879.495238013836,7144.585807994986,6467.974231124631,5844.415969876705,5269.123146263104,4737.726036109251,4246.237734379374,3791.0217350015637,3368.7621891139224,2976.43662450867,2611.290926417593,2270.8163957760125,1952.7287158311176,1654.9486715231515,1375.5844785559984,1112.9155905714883,865.3778634269953,631.5499653203395,410.14093047571936,199.97876236036322,4.1754901758395136e-13,4.072984510068117e-13,3.977096000489095e-13,3.887354529926184e-13,3.8033235518688107e-13,3.724597692600275e-13,3.650800524602378e-13,3.581582499002455e-13,3.5166190257026456e-13,3.4556086906426723e-13,3.3982716004008755e-13,3.3443478450379123e-13,3.293596070737221e-13,3.245792154399624e-13,3.2007279729096236e-13,3.1582102603111415e-13,3.118059546613443e-13,3.0801091723965266e-13,3.044204373801727e-13,3.0102014328800236e-13,2.97796688862964e-13,2.9473768043879874e-13,2.918316087552646e-13,2.8906778578935943e-13,2.864362860985877e-13,2.839278923539834e-13,2.8153404476362035e-13,2.792467941087175e-13,2.770587581342976e-13,2.749630810547877e-13,2.7295339595206587e-13,2.710237898593513e-13,2.69168771339091e-13,2.673832403767013e-13,2.656624604247454e-13
S2,2550.1654088464475,2639.707949585121,2729.321663431974,2814.577876750519,2894.1472572816356,4030.9551845818564,5220.736184263493,6456.958230098536,7733.4219117134035,9044.28966914143,10384.13005034511,11747.944862727227,13131.175108030144,14529.690006544366,15939.764984694295,17358.05367399764,18781.55753325512,20207.595373625023,21633.774064111527,23057.9610308426,24478.25876522101,25892.98133891472,27300.63281771304,28699.88742255672,30089.571273984293,31468.645558432014,32836.190962231354,34191.393227503555,35533.52969170434,36861.956678772614,38176.09761464968,39474.95985931907,40758.67092323773,42026.62507406569,43278.355034133914,43168.912855578346,43048.32155149812,42917.093343166845,42775.80420705803,42625.01770176386,42465.26151471188,42297.02129771574,42120.74008178104,41936.81932711028,41745.62026702964,41547.465089807476,41342.63780832161,41131.38477737195,40913.91486246587,40690.399286799686,40460.971200321634,40225.72503149486,39984.71570043362,39737.95779187587,39485.42480778701,39227.04864166786,38962.71943890145,38692.286028339026,38415.55712796187,38132.30353952913,37842.261550819734,37545.137756179385,37240.61548316158,36928.36297177373,36608.043390448474,36279.32668777586,35941.903171558115,35595.49857978711,35239.890267772935
E2,0.0,52.21793916588547,70.59943518064651,73.9325958584195,70.2306087565085,63.45819850418308,60.91216715777634,60.06159653802928,59.64359062566294,59.13165116332122,58.38205036335478,57.424118092790295,56.34732261898127,55.247125341951985,54.20351841148335,53.276002674870554,52.50571400335242,51.919850374955416,51.536162934494676,51.36667865923586,51.42050008381562,51.70580447770955,52.231241855807525,53.00692159202762,54.04513924519714,55.36095472958749,56.97269976662089,58.902468480625096,61.176628857452876,63.82638259395329,66.88839478542806,70.40551148610189,74.42591346664244,79.0082629240294,84.21916131058963,90.13521234827991,95.70741045305824,101.25751824956257,106.88793601558359,112.62444627307254,118.46499034372573,124.3963511134404,130.39985740232675,136.45333719581294,142.53180058682602,148.60770679211333,154.65111071676688,160.6297918759954,166.50940175374015,172.25364237594215,177.8244806218903,183.1823998222837,188.2866891393296,193.09577093746077,197.56756642453695,201.65990010206949,205.3309438965502,208.539702133689,211.24653861669327,213.41374680097653,215.00616322000903,215.99182270408076,216.34265136115187,216.03518963124407,215.051332960816,213.37907189983116,211.01320702348633,207.95600756417136,204.2177767654532
I2,0.0,0.0,14.098843574789077,28.898288129002033,40.123475418288464,46.95549527974323,49.89348847639158,51.25583065522284,51.97665156046907,52.36669021987596,52.500587615000576,52.39161254848709,52.05694142449407,51.532714259452746,50.86991969407738,50.12572921699459,49.356095296706506,48.61116137572604,47.93325484085618,47.35669935066788,46.908689020403344,46.61065424651335,46.47975438910799,46.5302966452106,46.77499234984394,47.226029711546175,47.89597834144436,48.7985573344574,49.9493036028341,51.366176251000866,53.07012939342415,55.08568181214232,57.44150813512077,60.170622802396736,63.31189802671452,66.91043645377474,71.01838817262126,75.38890559967827,79.93664473154075,84.62971108440689,89.45281388748845,94.39472927666348,99.44405799788888,104.5878058338233,109.81092057235523,115.09615335452642,120.42403403455663,125.77289356151819,131.11891440339684,136.43620551363165,141.69690284833712,146.8712973589336,151.92799222115417,156.83409066275263,161.55541539669196,166.05676043778456,170.3021759909621,174.25528712676294,177.87964705697368,181.13912591809805,183.99833596386037,186.42309383726814,188.38091999632087,189.8415742567316,190.77762465251817,191.1650442991054,190.98382763726588,190.21861340128655,188.85929708023633
A2,0.0,0.0,1.566538174976564,3.371213595400646,4.9149487520731014,6.0388772643537365,6.734847766608482,7.215243228020075,7.5740424785569385,7.848541701615439,8.052782896191987,8.193687827854232,8.277673805067094,8.312558722623113,8.30746073835705,8.272074143030139,8.215939394670228,8.147922935836755,8.075933859918067,8.006831975969293,7.94646594055251,7.899787754956477,7.871004338296467,7.863740726311399,7.8812002288099485,7.926314360403873,8.001880130210722,8.110685097167204,8.255622132152515,8.439796571445598,8.666628734975077,8.939954831542904,9.26412920981738,9.644080771853178,10.085512505203424,10.594984843480427,11.18004424523274,11.815257709777939,12.489931715309227,13.198583452714889,13.937600150364087,14.70402983060304,15.495114397885644,16.308087240378317,17.14006990817704,17.988009944146413,18.84863915908053,19.71844464876743,20.593649475293805,21.47020163284725,22.343770577556064,23.20975088070156,24.06327269922976,24.899218833563694,25.712248194974777,26.49682554871593,27.24725744203483,27.95773427052437,28.622378480430164,29.235298942844928,29.790651558305235,30.282706143244457,30.705919595717987,31.055015217408943,31.325067862864476,31.51159427911606,31.610647580287782,31.618914274934816,31.533811646872994
IH2,0.0,0.0,0.0,1.4426342296037895,4.247415345346474,7.904930339818197,11.875707891558108,15.72825579879673,19.31382025467628,22.59492144359113,25.56982878252644,28.2446317172485,30.62613505638807,32.72218334912023,34.54349162051321,36.10486193615417,37.42538493148838,38.52786270260567,39.43782291022077,40.18243151487015,40.78950099797354,41.28669264883387,41.70094275270288,42.0581020423955,42.382758365188344,42.6982066038666,43.02653153600339,43.38877450692627,43.80516111362811,44.2953732574749,44.878854341074494,45.5751408841256,46.40421744809284,47.38689461307172,48.545165908081486,49.90268241301603,51.485215429344116,53.321153945299336,55.410634209846684,57.745045455944606,60.313421679506256,63.104389018935485,66.10662491516298,69.30883475364854,72.69958571544736,76.26711077562086,79.99911918940292,83.88262444781287,87.90379267135876,92.04781215531631,96.29878434668774,100.63963660655998,105.05205727121371,109.51645365137169,114.01193368092623,118.5163119544678,123.00614089455365,127.45676778191527,131.84241837768286,136.1363078729819,140.31077991656335,144.33747448416165,148.18752534132548,151.83178777975178,155.2410971293484,158.38655820885847,161.23986531682033,163.77365152444858,165.9618648675946
IN2,0.0,0.0,0.0,2.8197687149578154,8.245967568860834,15.237028385092856,22.718161807409334,29.849131768984783,36.35870115086954,42.19645842926056,47.380458984062,51.94142314472981,55.90887419963366,59.31206996578408,62.18382878819381,64.56305295158519,66.49520262648284,68.03123003242774,69.2257292029483,70.13491627204888,70.81482539782957,71.3199056645493,71.70206702830275,72.01014439015505,72.289712622505,72.58317604216097,72.93006121504568,73.36745396356669,73.93053521123522,74.6531833257246,75.5686218330327,76.71010050407126,78.1116049983733,79.80859578944046,81.83869125882723,84.24256875632354,87.06482724404954,90.35490520995684,94.10667449743123,98.29770631526834,102.9020044305537,107.89377309104974,113.24820527622191,118.94132368146775,124.94955772034052,131.24928094336425,137.8163787111102,144.62586513157515,151.6515524908982,158.8657722058386,166.23914574824408,173.74040438764376,181.33625712768156,188.99130664255514,196.66801331638638,204.32670767690422,211.9256516338901,219.42114901902175,226.76770600461484,233.9182420689604,240.82435227379398,247.43662170371346,253.7049929449434,259.5791873856785,265.0091808148593,269.94573317663065,274.340971292556,278.1490217882324,281.32668927601645
D2,0.0,0.0,0.0,0.0,0.0014426342296037895,0.005690049574950264,0.01359497991476846,0.025470687806326567,0.0411989436051233,0.060512763859799576,0.0831076853033907,0.10867751408591714,0.13692214580316564,0.1675482808595537,0.20027046420867392,0.23481395582918713,0.2709188177653413,0.3083442026968297,0.3468720653994354,0.3863098883096562,0.42649231982452634,0.4672818208224999,0.5085685134713338,0.5502694562240367,0.5923275582664321,0.6347103166316205,0.6774085232354871,0.7204350547714904,0.7638238292784166,0.8076289903920447,0.8519243636495196,0.8968032179905941,0.9423783588747198,0.9887825763228126,1.0361694709358844,1.084714636843966,1.134617319256982,1.186102534686326,1.2394236886316254,1.294834322841472,1.3525793682974165,1.4128927899769228,1.4759971789958584,1.5421038039110213,1.6114126386646699,1.6841122243801172,1.7603793351557382,1.8403784543451411,1.924261078792954,2.0121648714643126,2.104212683619629,2.2005114679663165,2.3011511045728765,2.40620316184409,2.515719615495462,2.6297315491763884,2.748247861130856,2.8712540020254096,2.998710769807325,3.130553188185008,3.2666894960579897,3.407000275974553,3.5513377504587145,3.69952527580004,3.851357063579792,4.0065981607091405,4.164984718917999,4.3262245842348195,4.489998235759268
R2,0.0,0.0,0.0,0.3133076349953128,1.491741342686971,3.952152369855027,7.895832317810651,13.331351248195075,20.15934796025765,28.2497149779306,37.46956892204546,47.69091724173074,58.791638790587314,70.65530762982803,83.17154850490323,96.23704313010508,109.75683506904625,123.64556908787222,137.82843257030913,152.24170532813443,166.83292425118756,181.56072581724024,196.39445227434717,211.31360859267426,226.30724720596547,241.37334306952903,256.51820677707485,271.75597049611173,287.10817110805993,302.60344725838615,318.2773617664542,334.1723576183659,350.3378541637901,366.8304898009769,383.7145080615081,401.06230652100885,418.9551649184269,437.48415546545027,456.74442709695825,476.82823611321663,497.8230311101047,519.8111337222036,542.8698532973092,567.0716549709335,592.4842648879215,619.1706843769161,647.1891132272822,676.5927906275995,707.4297643146763,739.7425985814408,773.5680314688769,808.9365911580835,845.8721813827217,884.3916455962853,924.5043196251361,966.2115825899231,1009.5064159650212,1054.3729807563082,1100.7862229071557,1148.7115171906023,1198.1043600133846,1248.910121743606,1301.063869370426,1354.490270492167,1409.1035897737409,1464.807789060736,1521.496742209257,1579.0545752890137,1637.3561420249225
G2,0.0,0.0,14.098843574789077,33.16069107356363,53.1224919553369,72.08475631959419,89.21846991572363,105.66475504832324,121.88138611359115,137.98515558252015,153.9507013966169,169.71385499472268,185.21836687977606,200.432143986901,215.34886782922803,229.98381780032852,244.36833852254358,258.54488130344873,272.5632409046867,286.4780048970003,300.347008134994,314.2305431576242,328.19111036660576,342.2935456676738,356.6054144975213,371.1976020937245,386.14505987071317,401.5276888077008,417.4313552974696,433.9490450889819,451.1821683893493,469.24203498141486,488.25152308266235,508.3465197186558,529.6787507081438,552.417924262003,576.7544315960386,602.5954324183643,629.9349623457463,658.7947050699538,689.2033055636834,721.1888529564894,754.7758677571184,789.9838292557466,826.8262302986161,865.3098164570591,905.4338972909297,947.1896971844568,990.5597409909756,1035.5172794644855,1082.0257629059897,1130.0383726739,1179.4976206259166,1230.3350266935356,1282.47088484665,1335.8141277812751,1390.262300808834,1445.7016556609026,1502.0073752369985,1559.0439406635057,1616.6656522997694,1674.7173163691718,1733.0351084992737,1791.4476243667848,1849.7771255672208,1907.840985466641,1965.4533348795956,2022.426900775937,2078.5750228182633
H2,25501.654088464475,27019.60968896831,28403.728589847724,29672.428238238223,30834.06749387387,30833.193517674146,30675.54219779445,30376.3436291859,29949.520941657964,29407.798623645213,28762.802047523903,28025.148900617445,27204.533170330178,26309.8022805136,25349.02792885925,24329.57113151465,23258.141940943828,22140.854266036014,20983.276189358534,19790.476145026085,18567.065291709117,17317.236388635825,16044.799457876732,14753.214493574382,13445.621457940755,12124.867784652732,10793.533592601405,9453.954796676077,8108.244287278095,6758.311336462479,5405.879375902998,4052.5022801831324,2699.579278151763,1348.368605175303,2.9558577807620168e-12,2.9504939274851322e-12,2.9444617462774626e-12,2.937816458825272e-12,2.9306092714339676e-12,2.9228876626207213e-12,2.9146956501557147e-12,2.9060740390200682e-12,2.897060651643656e-12,2.8876905416886315e-12,2.877996192554072e-12,2.8680077016931962e-12,2.8577529517566433e-12,2.8472577695029014e-12,2.836546073349769e-12,2.8256400103782927e-12,2.8145600835426784e-12,2.8033252697858376e-12,2.791953129710267e-12,2.780459909407538e-12,2.7688606350065912e-12,2.7571692004610102e-12,2.745398449058293e-12,2.733560249099642e-12,2.7216655641667434e-12,2.7097245183622767e-12,2.6977464568832484e-12,2.685740002260611e-12,2.6737131065747975e-12,2.6616730999346904e-12,2.6496267354870003e-12,2.637580231203969e-12,2.62553930867959e-12,2.6135092291481013e-12,2.6014948269232454e-12
S3,7650.496226539341,7527.709064613324,7440.979030342132,7373.300623608119,7317.713319837806,9771.436267204963,12207.865972231035,14629.981637680967,17039.801766834164,19438.700462401688,21827.64229923306,24207.335572157375,26578.325497593894,28941.048162528226,31295.860671397517,33643.057735689996,35982.880986528275,38315.52460341331,40641.13917518885,42959.834735053206,45271.68338434746,47576.72165622444,49874.95265084786,52166.34792709382,54450.849122230684,56728.36927043429,58998.79379376993,61261.98114155397,63517.76305456421,65765.94442927896,68006.302754456,70237.84395911831,72461.24018638252,74675.9178513828,76881.44938080027,76723.32381707875,76563.53808606122,76401.68734401208,76237.49662700154,76070.73580146694,75901.19007987919,75728.64865094612,75552.89922920817,75373.72443100876,75190.89857262245,75004.18439834072,74813.32956372463,74618.0628167313,74418.08987087898,74213.08899598783,74002.7063792981,73786.55133855963,73564.19150095343,73335.14809794562,73098.89156612543,72854.8376868889,72602.34454199803,72340.71060531802,72069.17433027782,71786.91562368463,71493.05961431992,71186.68312320106,70866.82421483553,70532.49514844875,70182.69894897814,69816.44967535994,69432.79627719865,69030.84970375583,68609.81267055066
E3,0.0,89.51646714151791,118.142770761024,120.88852916798226,112.28251261777407,99.25416291500665,92.3218352566017,87.90592252610655,84.32192985625065,80.90966732697575,77.50306481397479,74.1392697692115,70.91402439538052,67.91884018233287,65.22009013090695,62.857267968739166,60.848435523712595,59.197152729673334,57.89857023592596,56.94403283960592,56.324262762530935,56.03143272912291,56.060463124599195,56.409821678236455,57.08203185061474,58.08403269516128,59.42748527525826,61.129087933946025,63.21094160130028,65.70099350171839,68.63358033413753,72.0500882329134,75.99808445811148,80.5364483639778,85.732862325462,91.66593541463479,97.28733680157166,102.92240749505225,108.6750729950541,114.5722568232641,120.61308862858016,126.78563149164424,133.07251860725464,139.45281385654226,145.90260307588093,152.39517668837158,158.9010996379493,165.38827058311833,171.82200564872159,178.1651591495197,184.37828587828446,190.41984693737496,196.2464603190644,201.81319736534203,207.07392647215408,211.98170579135328,216.48922712463366,220.54931358374586,224.11547376131165,227.14251492781653,229.58721692136484,231.40906669086223,232.57105066723253,233.0404981013553,232.7899631552679,231.79812695724883,230.05069333561403,227.54124408380912,224.27201219161225
I3,0.0,0.0,24.169446128209838,48.761017757295,66.6593494842077,76.82298161070362,80.3962608174929,81.01752750825273,80.2586746287676,78.76156231377189,76.79575041735401,74.50446574956811,71.99766419129402,69.37790983994572,66.74146742224328,64.17341934604761,61.7437889673992,59.50630667344803,57.49942010828503,55.74864398895794,54.26944244509062,53.070099446047614,52.15428116334041,51.52317390497215,51.17719161780279,51.117304437443494,51.34606274974222,51.86839438767443,52.69224594019654,53.8291288117539,55.29461999647491,57.1088581155292,59.29706768048214,61.88969041622251,64.92386224345219,68.44376628574214,72.50145254711262,76.85018580056808,81.40566659503757,86.13714101697744,91.03042211530502,96.07537698399986,101.26171315811006,106.57756078288953,112.0089857801278,117.539809838041,123.15153413283755,128.82330499320855,134.53190592753649,140.251774674439,145.9550476939095,151.61163502555354,157.18932808999313,162.65394255612898,167.96949806050736,173.09843639355606,178.0018797526564,182.63993077076606,186.97201620778344,190.9572763622705,194.55500231829112,197.72512295276147,200.42874303599672,202.62873259238114,204.2903657850682,205.38200481584505,205.87582062129525,205.74853753414942,204.98218373804934
A3,0.0,0.0,2.685494014245537,5.69267833422715,8.180798542421186,9.913114212470171,10.908116257426336,11.496148063639119,11.83409612669449,11.996934797043112,12.024837857443762,11.944962230374253,11.780147877375747,11.551539033762014,11.278796432479597,10.979639849910885,10.669429918990883,10.360997000904083,10.064712182613466,9.788726853168551,9.539302467723019,9.321169857054343,9.137878867517163,8.992116987751706,8.885988240548457,8.821251547957207,8.799522219220604,8.82244233363423,8.891826504925765,9.00978945197962,9.178861366635248,9.402096503332324,9.68317984965326,10.026486413465953,10.437282581692097,10.921811935117537,11.487427610533073,12.108562192473608,12.774521978830453,13.479869772915986,14.221063523030711,14.995243477281974,15.799763726574906,16.631986539477563,17.489173647278317,18.36841701009908,19.266588908730412,20.18030411612281,21.105891410391795,22.039373297775082,22.976453412705656,23.912511306513057,24.842604453331695,25.761477372237287,26.663577818750092,27.543080049164693,28.393915213072354,29.209808984196894,29.98432659486989,30.710925488735263,31.383015838822708,31.994029178699112,32.53749534368516,33.0071277949651,33.39691717901274,33.70123263786823,33.914929919012046,34.03346473527806,34.05300911073672
IH3,0.0,0.0,0.0,2.4730872507493524,7.201583674686458,13.262708096641926,19.72445285285435,25.870215034154157,31.43126733922031,36.32806950918797,40.55514848634752,44.135190672745395,47.103144796844376,49.50152405692173,51.378851841874116,52.788383182449756,53.786461431636276,54.43065161053146,54.77794439844256,54.88325294253409,54.79830866996358,54.57096850346744,54.24488886499275,53.85949625502691,53.4501796949295,53.048637586228,52.683323922848956,52.379952220008356,52.16202785813822,52.051389893604984,52.068751591437454,52.234235181148264,52.56790096033352,53.09027423043476,53.822830086540755,54.78857819871132,56.0126220289165,57.52274293129548,59.31854511305135,61.391048768881376,63.72907449050473,66.32117046886988,69.15605604963378,72.22258735254715,75.50958144091287,79.00560922413428,82.69879178658218,86.57661039548181,90.62573303662273,94.83185843197953,99.17957825564079,103.6522584362168,108.2319406396557,112.89926517459777,117.63341664857151,122.41209374599507,127.21150451955863,132.00638860348795,136.7700677834553,141.47452639966215,146.09052311440973,150.58773563033134,154.93493997515765,159.10022593480082,163.051250066771,166.75552739724188,170.18076232734012,173.29521837781493,176.06812512744696
IN3,0.0,0.0,0.0,4.833889225641968,13.980163453848302,25.55961607649652,37.720307602955316,49.07130899531511,59.12371262791011,67.76427416748473,75.02231651556573,80.97739891085178,85.72775318194007,89.38128894729203,92.0529021449602,93.86233942139717,94.93135363007241,95.38044054251543,95.32573783009923,94.87651480446303,94.13344678285604,93.18768223017629,92.1206009204405,91.00411488526039,89.90135922521497,88.86763782830326,87.95151625231182,87.1959824263787,86.63962129768025,86.31777049760828,86.26364035678077,86.50939368070641,87.08718938274893,88.0302001500877,89.37352880956007,91.15530522329536,93.41771628959512,96.20807076844042,99.51840020854029,103.32487511591643,107.60050224740405,112.31883457996119,117.45471365084089,122.98407612442297,128.88350103977342,135.12971644411064,141.69913186787855,148.56741414850887,155.70910955768795,163.09731170051455,170.70337445369697,178.49666978525303,186.4443909032234,194.511401640028,202.66013328998653,210.85053032215694,219.04004653533178,227.18369334562098,235.23414202689764,243.14188187364925,250.85543642041716,258.3216400074384,265.4859770801797,272.292986577692,278.6867335029097,284.611349158425,290.0116404435346,294.83376691496886,299.02598191014613
D3,0.0,0.0,0.0,0.0,0.0024730872507493524,0.009674670925435811,0.022937379022077736,0.04266183187493208,0.06853204690908624,0.09996331424830654,0.1362913837574945,0.176846532243842,0.2209817229165874,0.26808486771343176,0.31758639177035347,0.3689652436122276,0.42175362679467737,0.47554008822631366,0.5299707398368452,0.5847486842352877,0.6396319371778217,0.6944302458477853,0.7490012143512528,0.8032461032162456,0.8571055994712725,0.910555779166202,0.96360441675243,1.016287740675279,1.0686676928952874,1.1208297207534257,1.1728811106470307,1.2249498622384682,1.2771840974196165,1.32975199837995,1.3828422726103846,1.4366651026969253,1.4914536808956367,1.5474663029245532,1.6049890458558487,1.6643075909689,1.7256986397377814,1.7894277142282862,1.8557488846971562,1.92490494074679,1.997127528099337,2.07263710954025,2.1516427187643843,2.2343415105509665,2.3209181209464482,2.411543853983071,2.5063757124150503,2.605555290670691,2.7092075491069076,2.8174394897465636,2.9303387549211615,3.047972171569733,3.1703842653157284,3.297595769835287,3.429602158438775,3.56637222622223,3.7078467526218923,3.853937275736302,4.004525011366633,4.159459951341791,4.318560177276592,4.481611427343363,4.648366954740605,4.818547717067945,4.99184293544576
R3,0.0,0.0,0.0,0.5370988028491074,2.5399618787428726,6.68098923925181,13.2532578712405,22.224021924735947,33.37737734630237,46.43943497094315,61.12879461030335,77.17519461918093,94.32614787535695,112.34970021870699,131.03609478571423,150.1989790148962,169.67611887404215,189.32950119042403,209.04479766567422,228.73026672237023,248.31523154479981,267.7482923937767,286.995421464465,306.0380632962594,324.87133355799074,343.502380312044,361.9489477388145,380.23816377389704,398.40555996861576,416.4943233671417,434.554775371382,452.644070550644,470.82610839283524,489.1716524923153,507.75864421624397,526.6727221621748,546.0079573750755,565.8678025768978,586.3594298798001,607.5868324539717,629.6489907506289,652.639625130844,676.6473723328218,701.756007644771,728.0445981056259,755.5875588386567,784.4546120563003,814.7106561986052,846.4155544842283,879.623852273339,914.3844324485182,950.7401178961644,988.7272301862731,1028.3751136845647,1069.7056345541691,1112.7326643861095,1157.4615585200231,1203.888639469441,1252.0006962470268,1301.7745107963258,1353.1764231806476,1406.161947656653,1460.6754522624924,1516.6499150578672,1574.0067706284165,1632.6558608493115,1692.4955041072872,1753.4126970946147,1815.2834627772118
G3,0.0,0.0,24.169446128209838,56.06799423368632,88.70789710904154,119.02417551584054,145.82279950289234,170.7496950221748,194.48429410422355,217.25121516541122,239.0968253436947,260.0226528434679,280.040255681155,299.1870422679077,317.52512911713757,335.13455345248246,352.10601580404204,368.53509339544445,384.51832463245626,400.15093859615627,415.52582746284986,430.7333784087332,445.8618652455964,460.99819028923815,476.228842142362,491.64099074202795,507.3236795697215,523.3691005940412,539.8739543362067,556.9409085685578,574.6801768140218,593.211243504239,612.6647673271256,633.1842501308157,654.9290911890897,678.0769640169644,702.8267665789158,729.0943475153401,756.8833975390042,786.2256672476689,817.1601765899502,849.7257105196668,883.9578310224107,919.8874110463695,957.5396707876359,996.9333736181238,1038.0800713239842,1080.9833682262304,1125.6382012836723,1172.0301428088271,1220.1347357791974,1269.9168729663343,1321.3302316394256,1374.316775925573,1428.8063392142153,1484.7162993616969,1541.9513599253623,1600.4034512490134,1659.9517659166247,1720.4629438321788,1781.7914228626892,1843.7799714314576,1906.2604194379903,1969.0546031181432,2031.975537605509,2094.8288276574312,2157.4143219358884,2219.5280091365044,2280.9641450391327
H3,76504.96226539342,76171.01203328258,75857.91561977867,75563.9059490168,75287.44992608736,72526.22251736968,69796.17849671918,67094.73839128893,64419.5632020337,61768.534062168794,59139.733554312064,56531.42855347199,53942.05447355402,51370.200804742955,48814.597838045374,46274.10448150163,43747.697080157144,41234.45915886678,38733.57201344133,36244.30608157389,33766.0130304459,31298.11850294395,28840.115469053486,26391.55813326424,23952.056352754174,21521.270524739608,19098.906904713884,16684.713320367373,14278.475248808963,11880.012227312152,9489.17457020538,7105.840366732242,4729.91273673793,2361.3173229072727,5.002220859751105e-12,4.995724469024156e-12,4.989218359490444e-12,4.9826946558551365e-12,4.976146205851883e-12,4.969566526415426e-12,4.962949753726496e-12,4.9562905968520576e-12,4.9495842947237675e-12,4.942826576215875e-12,4.9360136231008456e-12,4.929142035676839e-12,4.92220880087588e-12,4.9152112626752075e-12,4.9081470946469966e-12,4.901014274493389e-12,4.8938110604247334e-12,4.886535969249083e-12,4.879187756050411e-12,4.87176539534178e-12,4.864268063587831e-12,4.856695122998487e-12,4.849046106502797e-12,4.841320703818348e-12,4.833518748537715e-12,4.825640206159028e-12,4.8176851629929684e-12,4.8096538158833036e-12,4.8015464626826165e-12,4.793363493429009e-12,4.785105382173466e-12,4.7767726794111514e-12,4.768366005073249e-12,4.759886042039062e-12,4.751333530130976e-12
S4,3825.2481132696703,3753.981577219042,3733.2465757661353,3737.4571963084463,3756.6082524388517,5166.072150767472,6612.386644925307,8098.1760418583735,9624.850581460445,11193.019389738762,12802.815632792028,14454.113786391215,16146.662121729389,17880.157366373394,19654.283121289296,21468.727105613892,23323.186883315808,25217.369820083844,27150.990451222555,29123.76687672019,31135.416911802415,33185.65425346102,35274.18469709094,37400.70233929078,39564.885666848466,41766.39342206774,44004.86013301352,46279.8911959312,48591.05739295076,50937.88872040656,53319.86739178075,55735.63617298226,58185.55055496641,60668.62206608523,63183.96120357019,63745.33561854289,64300.62830652595,64849.09733796978,65390.28959304542,65923.84608386912,66449.43544063233,66966.73064803265,67475.40036847246,67975.10500336533,68465.49405077226,68946.2035236286,69416.85296187675,69877.04184830983,70326.3453475895,70764.30934401882,71190.44479608457,71604.22146881156,72005.06115381344,72392.33054338349,72765.33398932207,73123.3064486986,73465.40699567716,73790.71335803429,74098.21801484334,74386.82646219172,74655.35830921152,74902.5518979116,75127.07313663405,75327.5291869469,75502.48753622362,75650.50081367946,75770.1374607206,75860.01804773932,75918.85664796675
E4,0.0,134.27470071227688,176.9958571252621,181.37639978459652,169.02609106387797,150.1306679688231,141.32360643115624,136.75637432116542,133.57082609180605,130.58333285987655,127.45347012921876,124.21129379583692,121.01202245468184,118.02261491727342,115.37889290550237,113.17685890438175,111.47823426345376,110.32017100272844,109.72468837064908,109.7062924381578,110.27759091639797,111.45324089042752,113.25269254766482,115.70215108031604,118.8360881505834,122.69854457724844,127.34439482224825,132.840693859954,139.26819483710855,146.72310703052395,155.31915389483154,165.1899873023596,176.4878487825468,189.39729432394225,204.13008411323662,220.93163811280166,237.2080407026083,253.77784568933612,270.9166230352804,288.7073328527031,307.1610818945629,326.2585815098861,345.96417138918457,366.230361243699,386.99912529968935,408.202125124801,429.76062640208914,451.58538428445127,473.57660040694236,495.623994364224,517.6070111017004,539.3951780689939,560.8486234422669,581.8187662565415,602.1491898734834,621.6767114321015,640.2326615022987,657.6443897325121,673.737013359387,688.3354253688924,701.2665770468385,712.3620447046893,721.4608815652298,728.4127423086406,733.0812490763855,735.3475437849713,735.1139431292395,732.3075813002854,726.8838938820459
I4,0.0,0.0,36.25416919231476,73.08258590154855,99.95967625308961,115.37662398356534,121.03091149396818,122.59787192461513,122.45795170084216,121.50023453967083,120.02543401289742,118.1514364863337,115.96860367250267,113.58188789171052,111.10959085600567,108.67092082846811,106.37496735813694,104.31450449216831,102.56428960632222,101.18242440856054,100.21336177052012,99.69151952582553,99.64486762260339,100.09817160441067,101.07578522633429,102.60400689496483,104.71307542803657,107.4389038616481,110.82465274260174,114.92223754666071,119.79385501836096,125.51360373627313,132.16926658908002,139.8631929030006,148.71661957845387,158.87130607779523,170.492418124793,182.99483084910221,196.19132554208366,210.0256878834444,224.4810976582125,239.5488186104882,255.21754771862214,271.469770839421,288.2804463778759,305.6164364271026,323.43617005081114,341.68938589217345,360.31692164361573,379.250555558034,398.41291517370587,417.71746962935606,437.06862073399253,456.36190642427385,475.484329047787,494.3148202350816,512.7248539819425,530.579219889325,547.7369691600318,564.0525466965645,579.3771231433984,593.5601405110444,606.4510835385679,617.9014855418259,627.7671714753358,635.9107316862769,642.2042069207823,646.5319484422934,648.7935970045447
A4,0.0,0.0,4.028241021368307,8.532468530852508,12.267266818219902,14.88459618649226,16.411596988258502,17.36898578354149,17.997879856468153,18.405428667928703,18.641842920139258,18.737078439987968,18.716001565865483,18.60316192633284,18.423207988584476,18.19993317803265,17.955252309557572,17.70854887554967,17.47644423052159,17.272896035536743,17.109505601574128,16.995932208751242,16.94034299371382,16.949855171401,17.030948669530282,17.189841580141728,17.432829601430836,17.766595525812114,18.19849723644831,18.736843634271906,19.391168118333244,20.17250911151154,21.09370690828002,22.16960099010042,23.4175996217986,24.85798222083598,26.514334920052832,28.327709157120513,30.275502696376492,32.347900848159604,34.53954066410877,36.846464988123905,39.26492943579571,41.7908686903121,44.41960578956065,47.1456583906392,49.96259046625539,52.86289116506698,55.83787446058712,58.87759758067797,61.9707978954691,65.10484864942629,68.26573426161085,71.43804611255668,74.60499987774159,77.74847559839777,80.84908182168127,83.88624530241398,86.83832793390654,89.68277274790684,92.39628095939224,94.95502207891894,97.33487900427583,99.51172965037756,101.46176598956127,103.16185026394058,104.5899065247016,105.72534351363846,106.54950224991933
IH4,0.0,0.0,0.0,3.7096308761240295,10.796344526544699,19.885664363003315,29.593712686365116,38.85628005573093,47.302130526892626,54.84276173915353,61.48998051953079,67.28511814118404,72.27720856067599,76.51935950630094,80.06981571324367,82.99278299962904,85.357892228468,87.23859167621366,88.71007490758002,89.8472531578868,90.72308085845867,91.40736545997427,91.9660725746653,92.46107146267016,92.95023924780729,93.4878398887625,94.12510429259018,94.91095344738034,95.89282268413042,97.11755997596313,98.63238372450803,100.48589569461,102.72915292151663,105.41680893707122,108.60822487660009,112.36890553291725,116.77195122623495,121.8996515934318,127.76574437024927,134.36336142410494,141.68060708966613,149.70511941136348,158.424946503503,167.82824065559433,177.90261180370948,188.63441450957868,200.0080519445966,212.00531883848376,224.60478739936048,237.78123646738035,251.50512466650247,265.74210979080027,280.4526181014878,295.5914683747526,311.1075564248756,326.9436064960086,343.0359964451886,359.3146640980916,375.70310260289205,392.11845307131637,408.47170328705545,424.66800175201286,440.6070967583937,456.18391039661486,471.28925725871767,485.8107168466014,499.63366707675846,512.6424835043478,524.7219047038344
IN4,0.0,0.0,0.0,7.2508338384629525,20.958457033893666,38.323244020624614,56.59473980299366,73.70675614395353,88.98716868947304,102.32419334034967,113.79787490788675,123.53836727897718,131.68308678871384,138.37029693988364,143.74192033182436,147.94574987002957,151.13489423188906,153.46508779043407,155.09109838230114,156.16324512905163,156.82462495125137,157.20928810605582,157.44136518131563,157.6350209517103,157.89506271521338,158.3180308976375,158.99362423759845,160.00634547608675,161.43728751984958,163.36601036717718,165.87248424418524,169.03909443640032,172.95271892721584,177.70690209902043,183.40393238578608,190.15752371867478,198.09548784925929,207.3626484362003,217.96865047926403,229.88448623315676,243.07354121725282,257.5004265429923,273.1324420773981,289.93872605368585,307.88878240725506,326.9509294444581,347.0908291991475,368.2701337912715,390.4452499865604,413.5662165129486,437.5756904079306,462.4080421725327,487.9885628109921,514.2327884821948,541.0459504977113,568.3225599193836,595.9461372021239,623.7890983425159,651.7128099467072,679.5678265948616,707.1943248714832,734.4227493983773,761.0746870120165,786.9639856350419,811.8981340665651,835.6799174277568,858.1093598476822,878.9859606342002,898.1112221639053
D4,0.0,0.0,0.0,0.0,0.0037096308761240294,0.014505975402668729,0.03439163976567204,0.06398535245203715,0.10284163250776808,0.1501437630346607,0.20498652477381424,0.26647650529334505,0.3337616234345291,0.4060388319952051,0.48255819150150603,0.5626280072147497,0.6456207902143788,0.7309786824428468,0.8182172741190604,0.9069273490266404,0.9967746021845272,1.0874976830429859,1.1789050485029602,1.2708711210776256,1.3633321925402957,1.456282431788103,1.5497702716768653,1.6438953759694555,1.7388063294168359,1.8346991521009663,1.9318167120769294,2.0304490958014374,2.1309349914960474,2.2336641444175642,2.3390809533546353,2.4476891782312356,2.5600580837641527,2.6768300349903877,2.7987296865838194,2.9264954309540685,3.0608587923781734,3.2025393994678395,3.352244518879203,3.5106694653827057,3.6784977060383,3.8564003178420094,4.0450347323515885,4.245042784296185,4.457048103134669,4.681652890534029,4.919434127001409,5.170939251667912,5.436681361458712,5.7171339795602,6.012725447934952,6.323833004359828,6.650776610855837,6.993812607301026,7.353127271399117,7.728830374002009,8.120948827073326,8.529420530360381,8.954088532112394,9.394695628870787,9.850879539267401,10.32216879652612,10.80797951337272,11.30761318044948,11.820255663953827
R4,0.0,0.0,0.0,0.8056482042736614,3.8086330240166655,10.01728007671586,19.87576238509986,33.34431766550476,50.11713681596375,69.81359499955192,92.05123802242426,116.46892109464169,142.7321238739765,170.5336477253504,199.5940842155959,229.66283028503216,260.51927592145483,291.9736616019484,323.86730001873144,356.0720848507078,388.4893708782287,421.0483929534871,453.70441478346413,486.43678565729493,519.247053241234,552.1572460445399,585.2084072796762,618.4594358707868,651.9862712032229,685.8814454906285,720.2540204584952,755.2299223698127,790.9526902975284,827.5846561962708,865.3085561510704,904.3296320725802,944.878280030771,987.2132723748125,1031.6083433779013,1078.335351243223,1127.6598374972352,1179.8404385347867,1235.1292716859903,1293.7723576525477,1356.009797645614,1422.0756402303396,1492.1974404642383,1566.5955323067353,1645.4820384701043,1729.0596411758704,1817.5201362241032,1911.0427923314396,2009.792537976379,2113.917998905263,2223.5494108595135,2338.796433864378,2459.7458964854477,2586.4595007582816,2718.971521002746,2857.2865324408476,3001.377208447764,3151.1822283795045,3306.604341216259,3467.5086336784634,3633.7210548943394,3805.027252925601,3981.1717811988965,4161.857734746037,4346.746876624894
G4,0.0,0.0,36.25416919231476,84.04305061613553,133.0146785579766,178.65172314522366,219.1870034968059,257.3443772332181,294.26859829993276,330.3327213447204,365.5902212168871,400.00265815177613,433.5397074766521,466.2129535394162,498.07905956708004,529.2313606515656,559.7891125557487,589.8882358068812,619.6746819776179,649.3003478376932,678.9210467959957,708.6959963434232,738.7883713838386,769.366598371708,800.6061791633933,832.6919229640508,865.8205299999079,900.2035166019149,936.0705039441025,973.6729165501218,1013.2881554483633,1055.2243269999678,1099.8256235716049,1147.4773427428925,1198.6146122103569,1253.7297349209307,1313.3812772113872,1377.4274482010915,1445.9474665372122,1519.094954756738,1597.0459346269677,1679.9794267384996,1768.069243746169,1861.4795700212487,1960.3617675570474,2064.8515313879634,2175.0661051716597,2291.101474300224,2413.029528057026,2540.8952101669,2674.713688645241,2814.4675816426998,2960.104279721328,3111.53340805074,3268.624474940006,3431.2047562058465,3599.057468292514,3771.9202868981347,3949.484272125913,4131.393265732947,4317.243830582548,4506.585806385195,4698.923558455461,4893.717996478073,5090.389436901405,5288.321374152029,5486.865210973971,5685.345975618866,5883.069022569943
H4,38252.48113269671,38890.022484908324,39524.78091851901,40156.930215350505,40786.629431592315,40033.55735272161,39236.63417690545,38396.18796207889,37512.52149378384,36585.914603013574,35616.626291390385,34604.896679162026,33550.94879027686,32454.99018766755,31317.214470832136,30137.802646841723,28916.924385019804,27654.739164723644,26351.397324907484,25007.041023455775,23621.80511363763,22195.817944446724,20729.202091050392,19222.075021073684,17674.549701985656,16086.735154432747,14458.736955975328,12790.657699325284,11082.597408852867,9334.653918827451,7546.923216577376,5719.499753496816,3852.476726590835,1945.9463330318276,4.320099833421409e-12,4.361785007252668e-12,4.403416044494536e-12,4.444992864156957e-12,4.486515319622416e-12,4.527983204671182e-12,4.569396259057977e-12,4.6107541736723645e-12,4.652056595312798e-12,4.693303131102163e-12,4.734493352570629e-12,4.775626799429803e-12,4.816702983060443e-12,4.857721389734409e-12,4.898681483590035e-12,4.93958270937876e-12,4.980424494999538e-12,5.02120625383641e-12,5.061927386913486e-12,5.102587284880573e-12,5.1431853298417544e-12,5.1837208970383196e-12,5.224193356396641e-12,5.264602073950831e-12,5.304946413149317e-12,5.3452257360537985e-12,5.385439404438457e-12,5.425586780796732e-12,5.465667229262426e-12,5.5056801164514475e-12,5.545624812230023e-12,5.5855006904148015e-12,5.625307129409894e-12,5.6650435127855044e-12,5.7047092298024965e-12
E_Om,0.0,0.0,0.0,0.0,0.0,0.0,0.0,0.0,0.0,0.0,0.0,0.0,0.0,0.0,0.0,0.0,0.0,0.0,0.0,0.0,0.0,0.0,0.0,0.0,0.0,0.0,0.0,0.0,0.0,0.0,0.0,3.4128536561817286,4.8445187742024824,6.0832215011562365,7.554087635050179,9.41874767121039,11.6349597736297,14.336075808769332,17.631149484665645,21.64131939056355,26.508207198086822,32.39797314186008,39.50488646224132,48.055028921220874,58.31020011484651,70.57198422836203,85.18589868235948,102.5455138358559,123.0963989329351,147.33971097334108,175.8352000431757,209.20335737626414,248.12638212421788,293.3475913259614,345.6688476797194,405.94553543977685,475.0785815548295,554.0030041590081,643.6724825754061,745.0394925349816,859.0306488922528,986.5170574241572,1128.2797076355978,1284.970246609878,1457.0678602565429,1644.8334438026343,1848.262746565324,2067.0406907856027,2300.4995392829446
I_Om,0.0,0.0,0.0,0.0,0.0,0.0,0.0,0.0,0.0,0.0,0.0,0.0,0.0,0.0,0.0,0.0,0.0,0.0,0.0,0.0,0.0,0.0,0.0,0.0,0.0,0.0,0.0,0.0,0.0,0.0,4.0,2.7907084940828923,2.868483961905668,3.3092957084423444,3.951289716057712,4.7963281047597075,5.889350266817159,7.250304092439017,8.9291117722311,10.990047377704943,13.51066087728581,16.583294961212175,20.317238275336436,24.84119170262702,30.305988980645306,36.88754924847591,44.790034995063436,54.24917542198544,65.53569739746301,78.95878456007901,94.8694596513705,113.6637557311909,135.78550863869071,161.72856625637885,192.03817055489066,227.31122731244238,268.1951377840498,315.3848292912238,369.6175916249075,431.66530842288245,502.32367368860747,582.3980109363382,672.6853745187775,773.9527181903325,886.9110727527429,1012.1858883260791,1150.283968862318,1301.5577522005005,1466.1680551634558
A_Om,0.0,0.0,0.0,0.0,0.0,0.0,0.0,0.0,0.0,0.0,0.0,0.0,0.0,0.0,0.0,0.0,0.0,0.0,0.0,0.0,0.0,0.0,0.0,0.0,0.0,0.0,0.0,0.0,0.0,0.0,0.0,0.0,0.10238560968545185,0.22724405097443595,0.3642918858142359,0.518056137702894,0.6970073402986269,0.9066546654477924,1.1554060066213139,1.4532592898370202,1.8118470135865228,2.2447238268118226,2.7677182557052604,3.3993211984314478,4.161107826381784,5.078192264550823,6.179713338491519,7.4993476312639995,9.075843520086877,10.953566784057553,13.183044756446275,15.82149180645229,18.933294166449755,22.59042679688634,26.872769177287914,31.868280772221915,37.672990680970834,44.39074999142155,52.13269011790749,61.016326571588166,71.16424603332,82.70231629342358,95.75736475746356,110.45428303503878,126.91253382632738,145.24206286875815,165.53865360908554,187.87880528422818,212.3142649509506
IH_Om,0.0,0.0,0.0,0.0,0.0,0.0,0.0,0.0,0.0,0.0,0.0,0.0,0.0,0.0,0.0,0.0,0.0,0.0,0.0,0.0,0.0,0.0,0.0,0.0,0.0,0.0,0.0,0.0,0.0,0.0,0.0,0.4092915059171076,0.6516711150324015,0.8764417593728066,1.1226078195499016,1.4084979688454233,1.7506980359663822,2.16864263769722,2.6817574749167603,3.312527329720793,4.087641906989776,5.0389107102101285,6.20423661840736,7.628707091351443,9.365822627073266,11.478874018155839,14.04247644259685,17.144264862964995,20.88675064408454,25.389333392315315,30.790454523390093,37.249869753269635,44.951006365415736,54.10335755668747,64.94485027627235,77.74410471025581,92.80248302515653,110.45580245480146,131.07556384531503,155.06952225414585,182.88140245220674,214.9895410391805,251.90422076809313,294.1634546123943,342.32698069116424,396.9682484161447,458.66421530801654,527.9828367297807,605.4682202857887
IN_Om,0.0,0.0,0.0,0.0,0.0,0.0,0.0,0.0,0.0,0.0,0.0,0.0,0.0,0.0,0.0,0.0,0.0,0.0,0.0,0.0,0.0,0.0,0.0,0.0,0.0,0.0,0.0,0.0,0.0,0.0,0.0,1.6,2.515722964418945,3.2108354200572977,3.842081340103304,4.49436364913061,5.234357933877371,6.126025955721026,7.226290554562664,8.594612659556374,10.297072734373023,12.409407158556505,15.019856488605958,18.232060186398765,22.168105081626685,26.971794843464004,32.812185325022064,39.887412425369774,48.42882150686702,58.70538875408205,71.02840402981379,85.75636087902092,103.2999716341395,124.12719353943834,148.768115094663,177.81951033881995,211.94882282592775,251.89729133261295,298.4818772554707,352.59560137991707,415.20584839935873,487.3501555711091,570.128972851244,664.6948727244726,772.2377069062469,893.9652631368276,1031.0790775397622,1184.745214682505,1356.0600443877495
D_Om,0.0,0.0,0.0,0.0,0.0,0.0,0.0,0.0,0.0,0.0,0.0,0.0,0.0,0.0,0.0,0.0,0.0,0.0,0.0,0.0,0.0,0.0,0.0,0.0,0.0,0.0,0.0,0.0,0.0,0.0,0.0,0.0,0.00040929150591710763,0.0010609626209495092,0.0019374043803223157,0.0030600121998722177,0.00446851016871764,0.006219208204684024,0.008387850842381243,0.011069608317298004,0.014382135647018797,0.01846977755400857,0.023508688264218702,0.029712924882626057,0.0373416319739775,0.04670745460105077,0.05818632861920661,0.07222880506180346,0.08937306992476844,0.110259820568853,0.1356491539611683,0.1664396084845584,0.20368947823782801,0.24864048460324376,0.3027438421599312,0.36768869243620356,0.44543279714645945,0.5382352801716159,0.6486910826264174,0.7797666464717323,0.9348361687258783,1.1177175711780851,1.3327071122172653,1.5846113329853586,1.8787747875977532,2.221101768288917,2.6180700167050617,3.076734232013078,3.6047170687428594
R_Om,0.0,0.0,0.0,0.0,0.0,0.0,0.0,0.0,0.0,0.0,0.0,0.0,0.0,0.0,0.0,0.0,0.0,0.0,0.0,0.0,0.0,0.0,0.0,0.0,0.0,0.0,0.0,0.0,0.0,0.0,0.0,0.0,0.2433248531227139,0.6472377444654811,1.1867397979986403,1.858498683856026,2.6726451348316136,3.651094747279698,4.826913182825425,6.244012650407184,7.958107688049301,10.038311185016743,12.56926412068947,15.653794402321635,19.41613027023802,24.005708563046895,29.601627649354185,36.41780095322626,44.70887005669431,54.7769362200401,66.97916544720894,81.73631439236668,99.54221176509284,120.97421164258247,146.70461035174898,177.51298641534584,214.29938255200614,258.0981990596067,310.0926084678985,371.6292318217999,444.23273755130975,529.619935501535,629.7128431803054,746.6501016674171,882.7960193932861,1040.7464292491786,1223.3304660911358,1433.6073171813005,1674.8569783952078
G_Om,0.0,0.0,0.0,0.0,0.0,0.0,0.0,0.0,0.0,0.0,0.0,0.0,0.0,0.0,0.0,0.0,0.0,0.0,0.0,0.0,0.0,0.0,0.0,0.0,0.0,0.0,0.0,0.0,0.0,0.0,0.0,0.0,0.9214704871690669,2.229490556203737,3.8719603615159204,5.911564022979468,8.454625894206275,11.596065033086292,15.466805501454012,20.227215862313734,26.070372097765894,33.227588041249334,41.97504078955156,52.64136013435672,65.61621794308635,81.3599719740949,100.41440771575267,123.41460035998972,151.1018890956708,184.33791680756332,224.11963877036538,271.59514278202283,328.0800492736142,395.074172447153,474.27802210516256,567.6086109786869,677.2139055474265,805.4851225672305,955.0659336901629,1128.8575039855223,1330.0181669699675,1561.9564421708756,1828.3160476753983,2132.9515687370094,2479.8935353216766,2873.301857590943,3317.406887417654,3816.4378289902916,4374.538815502405
beta,3.3295967199415273,3.3295967199415233,2.8476632999313325,2.621615206436234,2.488933607745675,2.4023580110947087,2.5298080451185165,2.6075722655380313,2.6609448531276003,2.7010453856719883,2.7331537058700266,2.7599648886709214,2.782961771972211,2.8030273741269403,2.8207305163814738,2.836464362183609,2.850516451800482,2.863105901504257,2.8744043864656166,2.8845488058112294,2.893649458504944,2.9017956354811516,2.9090596141788403,2.915499594727,2.921161893272333,2.9260825904333565,2.9302887669525517,2.9337994187497007,2.9366261177012687,2.938773466743675,2.9402393853485735,2.9410152524228583,2.940925984155944,2.9401641579473465,2.9386436434554897,2.9363138080126503,2.9225786110355356,2.908315141093076,2.8934340348069165,2.87790145846127,2.86170346131776,2.844834043047849,2.827291076265986,2.809074837152201,2.7901873826972508,2.7706321791568875,2.7504137812793754,2.7295374977225344,2.708009026387407,2.6858340620880115,2.66301788765591,2.639564964848991,2.615478545457473,2.590760326400873,2.5654101754571017,2.539425956409284,2.512803483574641,2.485536635558279,2.457617656261684,2.4290376672471217,2.399787409092564,2.3698582200058085,2.3392432474818436,2.3079388732151234,2.27594631321664,2.2432733350180243,2.209936013416983,2.175960427447735,2.1413841866314534
