series,2021-11-15,2021-11-16,2021-11-17,2021-11-18,2021-11-19,2021-11-20,2021-11-21,2021-11-22,2021-11-23,2021-11-24,2021-11-25,2021-11-26,2021-11-27,2021-11-28,2021-11-29,2021-11-30,2021-12-01,2021-12-02,2021-12-03,2021-12-04,2021-12-05,2021-12-06,2021-12-07,2021-12-08,2021-12-09,2021-12-10,2021-12-11,2021-12-12,2021-12-13,2021-12-14,2021-12-15,2021-12-16,2021-12-17,2021-12-18,2021-12-19,2021-12-20,2021-12-21,2021-12-22,2021-12-23,2021-12-24,2021-12-25,2021-12-26,2021-12-27,2021-12-28,2021-12-29,2021-12-30,2021-12-31,2022-01-01,2022-01-02,2022-01-03,2022-01-04,2022-01-05,2022-01-06,2022-01-07,2022-01-08,2022-01-09,2022-01-10,2022-01-11,2022-01-12,2022-01-13
S,2545759.1822600844,2545664.854882744,2545589.79397453,2545525.780175469,2545468.401943727,2545415.2793866317,2545365.1196889584,2545317.2126394203,2545271.1607105834,2545226.7344104564,2545183.7946657273,2545142.251133247,2545102.039797321,2545063.1109325555,2545025.422643504,2544988.937406628,2544953.620228745,2544919.437675168,2544886.357364779,2544854.3477147194,2544823.377817446,2544793.0764372414,2544763.8233765517,2544735.5422153967,2544708.1830282756,2614212.097479175,2683715.34579481,2753217.9153138003,2822719.7124013584,2892220.583607031,2961720.3252787385,3031218.6851492515,3100715.3577759676,3170209.9745277315,3239702.0878504664,3309191.148617548,3378676.474289692,3448157.2041338887,3517632.235527004,3587100.131807933,3656558.9861949533,3726006.215996751,3795438.24291033,3864849.980882462,3934233.9863366825,4003578.989494979,4072867.231426147,4142069.35107934,4205387.6841826355,4204698.0777588375,4203801.316233294,4202583.725950362,4200914.764460644,4198613.64822305,4195427.079598811,4191002.1369175743,4184854.6928400076,4176337.437009854,4164617.479342861,4148680.314554849
E,0.0,94.32737734023485,142.5112633938407,165.91884088471602,176.02124996390563,178.98947043472313,178.14908627542584,175.29550751318519,171.39988800389852,166.98863197139474,162.34773480588004,157.6329720896319,152.92940628111657,148.2835724007794,143.72091613969693,139.25526095260696,134.89396117470602,130.6407171494282,126.4971212990506,122.46351405293315,118.53946352594342,114.72403934993767,111.01595344577896,107.4137083856309,103.91562239312685,100.51987612069347,98.72588817029728,98.0837393101657,98.3510020356398,99.41204560927869,101.23168390003761,103.8298108821312,107.26907108789331,111.6510137919328,117.11836179846733,123.8625073762888,132.13649088050502,142.2748066608504,154.72269566643342,170.0794834507371,189.16357278418255,213.11191381729398,243.53609328535327,282.7745351929211,334.31404256028407,403.5227938422183,498.98577825925327,635.0778387653634,837.272975443132,1145.259423067688,1498.443540894703,1944.4781990708886,2515.937670145643,3246.851961360385,4176.119080219639,5347.086390728524,6804.483258356356,8587.999320741674,10721.62930535043,13199.03245801343
I,529.6887654060506,423.5333674737482,362.8419874712613,326.67010053718616,303.75009471032456,288.01417026082186,276.1930671531739,266.52553368435036,258.0637072623834,250.2987300527684,242.95871601338536,235.89960870632103,229.0461692752498,222.36005097358344,215.8225256046649,209.42514360142266,203.16469366986135,197.04049404056641,191.05294849449638,185.20278825139965,179.49068528635408,173.917066150656,168.48203332639721,163.18533844202852,158.02639890185426,153.00431759384003,148.1179106433421,143.75074245941022,140.09412964314254,137.23887873691106,135.2279453076783,134.08665302474964,133.84035203056453,134.52537659162437,136.19682049551164,138.93533598165652,142.85449235046678,148.10998806580238,154.912095680436,163.5431244607302,174.38249691248313,187.9434664084576,204.92798433976625,226.3105988202292,253.4702135396126,288.4035409056473,334.083746509815,395.0896764755448,478.7688121300645,597.5286740666807,771.4678346066682,1001.1182553439297,1299.1253926828713,1683.9537648040596,2179.0940570204084,2813.3041735032593,3620.6946225781808,4640.010197114572,5912.408825231756,7476.95314773193
A,58.85430726733896,47.727282411933764,41.39164067347699,37.626738481198984,35.24059069524224,33.593420602902725,32.34223983530427,31.30366257806057,30.380131262657805,29.520204022308082,28.697163630907298,27.897492998964957,27.11466915164071,26.345826064704326,25.58996550415356,24.84700299538394,24.117263911024587,23.401221658179587,22.69936557651919,22.01213786434255,21.339906817686707,20.682958796504455,20.041499512094603,19.41565908219535,18.805500357696662,18.21102638743866,17.632187804553723,17.11166802242346,16.671261004371495,16.321732766298982,16.06851918960047,15.915025874744105,15.86458140347484,15.921670006283119,16.092821600997752,16.387398205569205,16.818445255495657,17.403751775056534,18.167274448558558,19.141127100160784,20.36842888624107,21.907465863817734,23.837900008128948,26.270251853313866,29.360776380629304,33.33553759689775,38.53081707867193,45.463933872290404,54.96398974118607,68.42917544820918,88.124189553313,114.15905024604135,147.98076514494747,191.69091976827363,247.96340145421755,320.07490528778453,411.91774400193265,527.9228368365045,672.8142816335264,851.1067259014771
IH,0.0,21.1877213540973,32.49941930473613,38.3778198639859,41.247387960740944,42.43767768782266,42.68225438982995,42.388996868356735,41.786956124122355,41.00640738207016,40.122656059159205,39.180122698165405,38.20566258939865,37.215985745973974,36.22182829395227,35.230324537630594,34.246375145350406,33.27345017981386,32.31407040501489,31.370102946039193,30.442948064616754,29.533660839221817,28.643033066421907,27.771650254439702,26.9199324016129,26.088164604825863,25.27652032331687,24.48507957123506,23.729243802229735,23.02797488716915,22.39882864365184,21.85641438290719,21.412472542164043,21.076638029905475,20.857439052807734,20.76334156352272,20.803788148459574,20.990255220223997,21.337397791329792,21.864387871991237,22.59659575387554,23.567827630349633,24.8234373772958,26.42480620876303,28.455988021952447,31.03385940925931,34.324110912847146,38.56733514941067,44.1233523759716,51.55027690515688,61.75423174471829,76.20452402100838,96.00133102058305,122.45832509521561,157.27871039781883,202.65276899030266,261.3391301963129,336.7278613756408,432.8580618811658,554.3419354512145
IN,84.96767657820506,156.01825230436526,198.40280142336252,224.10952413892144,239.80331559780925,249.24996449164365,254.62511090812933,257.2236167044421,257.8457311899766,257.00858135297574,255.062966285441,252.25861328926172,248.7812379359025,244.77406779984574,240.35071957451927,235.6031961466918,230.60707558504168,225.42504168286015,220.10940171109195,214.70396015261707,209.24546392307874,203.76474884670853,198.28766848247176,192.83585819954217,187.42736980614336,182.07720489824897,176.7977640109005,171.59922665372758,166.55163279045297,161.74423954205716,157.26625067738289,153.19914954961376,149.61513530267942,146.57864780524167,144.14940053437144,142.38616395032375,141.3510198018019,141.1140990049718,141.7590212102109,143.38943970410966,146.1373154926656,150.1738586883179,155.72456767118373,163.09060621369983,172.68013742330814,185.05566092098087,201.007836666819,221.67474733134438,248.74256105630482,284.7998773043878,334.00159881088337,403.04610824099956,497.6199731027531,624.5068064729356,792.3410177529165,1012.1109157323555,1297.6180741955031,1665.8751534136527,2137.3233352498837,2735.657848117327
D,7403.0,7403.0,7403.150510872612,7403.381376470531,7403.65400036718,7403.947008768187,7404.248472611026,7404.551673849418,7404.852791879111,7405.1496332017305,7405.440929752908,7405.725948414143,7406.004271616427,7406.275672562235,7406.5400431566995,7406.797351570994,7407.047616656132,7407.290892075927,7407.527256144421,7407.756805082365,7407.97964837398,7408.195905450495,7408.405703238093,7408.609174287623,7408.806455309204,7408.997685996482,7409.18300806835,7409.3625644758995,7409.536498738608,7409.7050637830225,7409.868647234816,7410.027761430643,7410.183022487082,7410.3351299210635,7410.484851692866,7410.633016344451,7410.780512557227,7410.928296089751,7411.077404225391,7411.228978352082,7411.384296049664,7411.544815120505,7411.712233515476,7411.888571365047,7412.076284832419,7412.2784271731,7412.498881896954,7412.7427095270605,7413.01667968037,7413.330118023158,7413.696314889291,7414.134997423956,7414.676330265544,7415.358293363997,7416.228198582244,7417.345456806932,7418.785037995876,7420.641508537288,7423.033516785907,7426.10840358105
R,0.0,25.044125707450043,65.10141166683309,113.82843349034523,167.57442631314242,224.1819104575983,282.3330892040828,341.1913787174417,400.20309303032906,458.98641089610084,517.2681770607054,574.8471178921371,631.5717951648577,687.3269012328152,742.0243675577506,795.5973229025657,847.9957944482818,899.1835173809671,949.1354809260841,997.8359862662645,1045.277075897899,1091.4572429463892,1136.380358214246,1180.0547707878547,1222.4925494889305,1263.7088403934551,1303.721321036142,1342.549735595308,1380.2235860201663,1416.7919495867066,1452.3254623257103,1486.914938952963,1520.6689624912624,1553.7116071150601,1586.180841222484,1618.2278538454716,1650.017419529355,1681.7293896500323,1713.5614335943478,1745.7332361832634,1778.4924893525676,1812.1232123395257,1846.9572294401144,1883.3900896776295,1921.903439148844,1963.09705661302,2007.7358189753086,2056.820533674355,2111.698441177499,2174.2427662079067,2247.1594017694583,2334.4972778578767,2441.803242964287,2576.113648817665,2746.313004478633,2963.646058364425,3242.3432784069237,3600.3450115807345,4060.092559620723,4649.313018234789
G,344043.0,344043.0,344067.18931994465,344103.7349193575,344146.28315975366,344191.4220627157,344237.322136365,344283.0067018354,344327.9594953472,344371.9132958907,344414.7358735958,344456.3683392727,344496.7917508337,344536.0089796147,344574.0348303961,344610.8906332528,344646.60126314766,344681.19348099,344714.6949966054,344747.1339281802,344778.53848120075,344808.9367504006,344838.35659192933,344866.8255316219,344894.37071131245,344921.0188415604,344946.79616637144,344972.11344077374,344997.26604247256,345022.4871810454,345047.98041371454,345073.94027456763,345100.566399305,345128.0744881958,345156.70628281275,345186.7401245755,345218.5034355521,345252.3885274988,345288.87348992884,345328.55058997875,345372.16578587634,345420.6749071195,345475.32534279034,345537.7777573984,345610.29248108563,345696.02400003053,345799.50341650983,345927.4633681005,346090.3227782187,346305.0331248334,346598.7235399104,346982.98451749387,347481.62665733637,348126.81390816346,348959.4368763911,350030.36117649,351401.5684243108,353146.51063764613,355348.81784803624,358098.27329678956
H,1662983.177507929,1662983.1775079286,1662983.1775079288,1662983.177507929,1662983.1775079288,1662983.1775079288,1662983.177507929,1662983.177507929,1662983.1775079286,1662983.1775079288,1662983.1775079288,1662983.1775079288,1662983.1775079288,1662983.1775079288,1662983.1775079288,1662983.1775079288,1662983.177507929,1662983.1775079288,1662983.177507929,1662983.1775079288,1662983.177507929,1662983.1775079288,1662983.177507929,1662983.177507929,1662983.177507929,1613012.072412464,1563608.4640936726,1514795.8710135226,1466599.16444552,1419044.6467806345,1372160.1272303758,1325974.9928657957,1280520.2723456863,1235828.6889836849,1191934.6989695095,1148874.509585011,1106686.0711393345,1065409.0350995578,1025084.669543031,985755.7216623073,947466.2157088486,910261.1736147464,874186.2447941452,839287.231584796,805609.4978116972,773197.2504762124,742092.6890719181,712335.0239551526,686304.4128196983,686304.4128196983,686304.4128196982,686304.4128196983,686304.4128196983,686304.4128196983,686304.4128196982,686304.4128196983,686304.4128196982,686304.4128196982,686304.4128196982,686304.4128196982
S0,891015.7137910295,888959.0539479769,885717.4222809774,882493.4793995015,879284.7553504047,876089.8981404575,872908.1554417197,869739.0967894369,866582.4644966354,863438.0935735638,860305.8686925042,857185.7010642188,854077.5160271248,850981.2464039644,847896.8289643575,844824.2025592612,841763.3071541052,838714.0833434215,835676.4721218365,832650.4147899789,829635.8529298822,826632.589291248,823640.7339891655,820660.2100915395,817690.9517576933,837000.5128681534,855891.0285077635,874353.1882008006,892377.1118537632,909952.345452938,927067.8533129888,943712.0099931213,959872.594359352,975536.787934983,990691.1795290192,1005321.7780653548,1019414.0354549446,1032952.8811357084,1045922.7693697122,1058307.7392399313,1070091.4850208648,1081257.4302882913,1091788.7910464534,1101668.5978498433,1110879.6172193987,1119404.0527634632,1127222.7788822001,1134313.5692391985,1139768.158775502,1135347.4508018964,1130853.2298416547,1126238.6602417144,1121452.0364327494,1116423.7502596048,1111058.5364864992,1105226.6888521158,1098754.4227873066,1091415.0442638486,1082924.5938735479,1072947.6900337324
E0,0.0,51.991467825326296,78.70593678173309,91.76790286227057,97.48238779302275,99.24482674624599,98.88623481740997,97.39560179622694,95.3082744739067,92.91496033675283,90.37428923961724,87.77347440635954,85.16102119593927,82.56437255727072,79.9994335994903,77.47571712967283,74.99912787093052,72.57347362316972,70.20129030950285,67.88429736296413,65.62365395173889,63.420107798736545,61.27407469695356,59.185726087207726,57.15500930082201,55.18168151161473,54.08321917874197,53.609577890536336,53.62480006849637,54.06235366851511,54.899415264638826,56.14269702042225,57.821402885159635,59.98477394536798,62.70287777641461,66.07009712827272,70.21137585149697,75.29183559894742,81.53102859430304,89.22401713800495,98.77294444984652,110.73527049269435,125.8993204322087,145.40610948538819,170.95255289388066,205.14408579908806,252.13575176109288,318.86480901725713,417.58872218311427,567.3076562291317,738.4728934820802,954.0092021677108,1229.2330431271398,1579.9485878426785,2024.0592898484283,2581.3001809505045,3271.696282766664,4112.439455069411,5112.808781627585,6267.316423756191
I0,529.6887654060506,423.5333674737482,351.9853635591096,301.62701941290254,264.71064752678166,236.6581416158678,214.67962341761626,197.0138823132927,182.50629009338624,170.3709029902931,160.05383797818357,151.1528952747256,143.36884528058303,136.47486598532637,130.2966304518941,124.6988274675902,119.57570312552878,114.84421196128218,110.43892819852401,106.3081884114373,102.41112401899474,98.71535420612469,95.19517937190693,91.83015702135269,88.60398552242418,85.50361676134101,82.51855533807897,79.8500429715402,77.59486893996603,75.79555992406203,74.46905831198245,73.62305821164198,73.26543301566673,73.40996726606089,74.08031032050734,75.31334008227098,77.16274724083698,79.70350289742615,83.03789693743032,87.30402122830242,92.68795832232611,99.4416234399086,107.9094003234552,118.56881262886795,132.09428510078524,149.46023749510093,172.11394322457565,202.27814603850345,243.50911866802653,301.79372322875884,386.7913932350742,498.6482310682345,643.3598879387927,829.6481756537125,1068.5397828942055,1373.442692837334,1760.1386358759091,2246.3817298314484,2850.776655787475,3590.5790430568086
A0,58.85430726733896,47.727282411933764,40.18534912768236,34.83048203195381,30.860187861370107,27.80334427141468,25.374646839726967,23.39490268035407,21.746976828496106,20.351133733731327,19.150995916608274,18.105364546916416,17.18331486216003,16.361150830732175,15.62043834597531,14.94668165239688,14.328396620974049,13.756438563172543,13.223500186804422,12.723727976932754,12.252424079484287,11.805811847608936,11.38084995432912,10.975083914803303,10.586528175247187,10.213571070964337,9.854898720464869,9.532738281624257,9.257990033780361,9.035619558219016,8.867757920655094,8.75548297077064,8.69986003141739,8.702585133087325,8.766436697012033,8.89566431409456,9.096403425417511,9.377189570350764,9.749649422624447,10.229467287782049,10.83776949971079,11.603146641282502,12.564667842764347,13.776477823555162,15.314996011970422,17.290544727082796,19.86682624934406,23.294984300843044,27.976346916612854,34.58562298256782,44.21133878145382,56.8942815546524,73.32073054698876,94.48363386092727,121.6385259945734,156.31369868730354,200.31082108488445,255.66151764874505,324.5031664394389,408.83344385584314
IH0,0.0,21.1877213540973,32.49941930473613,37.94355140801711,39.9267773274686,39.9063750267288,38.769284526971276,37.05518166356306,35.08989642513833,33.06649726219791,31.095314550586682,29.235207366629048,27.513307265469486,25.93756741701853,24.504754806950316,23.205522329033403,22.02759399737494,20.957725478559666,19.982869735549055,19.09082939741515,18.270581493663354,17.512397202460853,16.80783749675767,16.149677684619057,15.531795035100743,14.949041612888067,14.397115407872326,13.872437674383065,13.380430306153844,12.92894615200115,12.52545256721261,12.176110462789522,11.885751505570312,11.6582384821287,11.496959187089788,11.405347228685095,11.387399001741493,11.448196666952706,11.594470876188465,11.835255513335097,12.182707795097167,12.65319801548074,13.268823420184631,14.059585273323371,15.066614326182776,16.347089716696583,17.98197466202941,20.08861110773118,22.84207262700918,26.51316618312827,31.540219242257596,38.63147206826511,48.31282308744972,61.21026263771341,78.13232492572581,100.11378025280456,128.45077454230346,164.72633007636347,210.8130159305117,268.8300355208491
IN0,84.96767657820506,156.01825230436526,198.40280142336252,222.3680069130619,234.32987159401176,238.41069171018802,237.3231840753021,232.8882158295487,226.34589223302942,218.54798355919328,210.08067248386124,201.34528043975263,192.61287816825086,184.0621373615778,175.8060799121796,167.91125164743204,160.41159331297706,153.31852235737665,146.62826476210412,140.32716967996606,134.39553481584568,128.81032921801634,123.54710001578154,118.58127705705257,113.88903541356304,109.44783755669394,105.2367443892886,101.23656291622018,97.46352511715918,93.94673031225707,90.71733328915117,87.80410364107425,85.23233292282546,83.02443308788114,81.20135635744096,79.78441673489067,78.79735274698619,78.26862727279124,78.23406733135272,78.74004010969978,79.84746957466064,81.63715038899758,84.21705348859214,87.73270773056117,92.38240522235743,98.44014409259387,106.291350754087,116.49047946819455,129.85772042431407,147.64938622924217,171.87637038601804,205.76967158222888,252.05451027619694,313.9715010318693,395.6295396056421,502.2333112774221,640.2857931300631,817.756377232797,1044.1570740914074,1330.4262820618858
D0,7403.0,7403.0,7403.150510872612,7403.381376470531,7403.650915461391,7403.934542662057,7404.21802493123,7404.493429669057,7404.75665796217,7405.005925490403,7405.240819430812,7405.461710712557,7405.669388381061,7405.8648342157385,7406.049086492806,7406.22316052217,7406.388005214847,7406.544482277136,7406.693359331776,7406.835311319483,7406.970926534705,7407.100714968193,7407.225117500227,7407.344515062903,7407.459237266395,7407.569570226929,7407.675763491427,7407.778036046692,7407.87658145725,7407.971631803044,7408.063474948174,7408.152451802469,7408.238947040921,7408.323379661157,7408.406196100817,7408.487866863365,7408.568886843529,7408.649779325165,7408.731103694188,7408.813467148941,7408.897541061615,7408.984083165429,7409.073967482993,7409.1682250087615,7409.268099856683,7409.375128320558,7409.491252876702,7409.61899113852,7409.7616942794975,7409.9239571404205,7410.112298289109,7410.336350033098,7410.6107757947975,7410.953974812744,7411.388793162883,7411.943820492497,7412.654997129876,7413.56747081409,7414.737634573921,7416.235183576732
R0,0.0,25.044125707450043,65.10141166683309,113.60037140557799,166.42015021704896,220.9614447787951,275.5879441084621,329.2830887533266,381.43424921308565,431.69403225446973,479.88941228462124,525.9612495554128,569.9235701263399,611.8359692352935,651.7848840223254,689.8709425723749,726.2005149150311,760.8801844992068,794.0132509130833,825.6976400309064,856.0247808389586,885.0791364477427,912.938167719644,939.672572936757,965.3466935735007,990.01900998855,1013.7426750669592,1036.5660510918601,1058.5376334644618,1079.7120392128545,1100.1516212123172,1119.9261692705643,1139.1119824745742,1157.7909533943914,1176.049965109005,1193.980733914369,1211.6801585684796,1229.251219490571,1246.804487125277,1264.4603388567473,1282.3520481796609,1300.6300055800007,1319.4674739335035,1339.0685018867655,1359.6789697990002,1381.6023214018426,1405.2225238063781,1431.0385614004852,1459.7180608717276,1492.184140502609,1529.7632866264685,1574.4305068661179,1628.8808895611855,1696.521643323182,1781.640378215015,1889.6441756060194,2027.34914423023,2203.3123492027976,2428.1896636474758,2715.083310857416
G0,344043.0,344043.0,344056.3326960325,344076.5160525514,344100.04902066285,344125.04741173214,344150.49776278296,344175.8561564918,344200.8322921533,344225.2731534348,344249.10027305374,344272.27586277993,344294.784499349,344316.6231982146,344337.79601230245,344358.3110732454,344378.1789521416,344397.4117342966,344416.0224814886,344434.02490580804,344451.433160277,344468.2616951747,344484.52515252633,344500.2382809833,344515.41587316117,344530.0727081692,344544.2235028462,344558.0926077576,344571.8402520604,344585.5917999397,344599.45555409807,344613.5339643969,344627.93120196543,344642.7589269958,344658.1414270683,344674.2209578975,344691.1639787179,344709.16898937454,344728.47683352197,344749.3846568039,344772.26527066337,344797.5946121816,344825.99157351593,344858.2772049902,344895.56515895884,344939.404244852,344992.0114100893,345056.66912178235,345138.43883808196,345245.52532231354,345391.0057415778,345580.37978752883,345825.02598115837,346140.25059786165,346545.41273599176,347064.4626569116,347726.4114750675,348565.4055229992,349619.9998150968,350931.12889471016
H0,582044.1121277751,580734.5128754876,578643.8686291358,576560.7507020709,574485.1319995434,572416.9855243451,570356.2843764574,568303.0017527022,566257.1109463924,564218.5853469854,562187.3984397362,560163.5238053532,558146.9351196539,556137.6061532232,554135.5107710715,552140.6229322957,550152.9166897394,548172.3661896564,546198.9456713736,544232.6294669567,542273.3920008757,540321.2077896725,538376.0514416298,536437.8976564399,534506.7212248767,510314.8824030709,486559.34127345495,463249.3446033918,440394.665686526,418005.6207591804,396093.08255388547,374668.48987303965,353743.85180856986,333331.7449329431,313445.30144094717,294098.18583100406,275304.557284438,257079.01444273186,239436.51881753045,222392.29263030825,205961.68651990627,190160.01235007474,175002.33639498893,160503.22860548354,146676.46461543077,133534.67880644376,121088.96927825922,109348.45910534928,99198.72559186562,98841.6101797349,98485.78038308785,98131.23157370873,97777.95914004339,97425.95848713923,97075.22503658553,96725.75422645382,96377.54151123858,96030.58236179812,95684.87226529565,95340.40672514058
S1,254575.91822600845,238382.7987875059,224545.21827566778,211686.37488470747,199735.68438959756,188627.93798620132,178302.75507453358,168704.15580587834,159780.20483766057,151482.70108818138,143766.9000607582,136591.26128551297,129917.21649018618,123708.95570354132,117933.22934196271,112559.16479733915,107558.09631690607,102903.40713691709,98570.38294937149,94536.07586882779,90779.17813707699,87279.89017430291,84019.85970714649,80982.02643783182,78150.55043231847,77574.52169890559,77017.70117876944,76482.1027146576,75969.13005199985,75479.64796288357,75014.04566290144,74572.29353342742,74153.99398861529,73758.42720763427,73384.59236775505,73031.24494871683,72696.9306224444,72380.01618435007,72078.71791072069,71791.12762277525,71515.2365716043,71248.95697547753,70990.1405407403,70736.59237983912,70486.07698834501,70236.30943594479,69984.91748658981,69729.34343357795,69413.08639279626,68539.00465528485,67706.2462438207,66908.8686788781,66140.9413815407,65395.763382483616,64665.41839530032,63940.282497185784,63208.49382725613,62455.47811417833,61663.73461131863,60813.19673983748
E1,0.0,14.85470509295037,21.75838448501322,24.555515878127437,25.20171741521569,24.730766729227927,23.69541378744278,22.394627650184205,20.991708670122176,19.576300147571914,18.19735362245751,16.88092118770526,15.639933876533764,14.479689005669192,13.401001141531307,12.402055330800483,11.479522728927849,10.629246194896083,9.846668379994444,9.127101479117751,8.465897190534355,7.858552424771493,7.300771758333684,6.788506280804372,6.317968434246991,5.8856371419617215,5.564057288877775,5.322736203611125,5.143603019028782,5.016029979738976,4.933989626478322,4.894464914574925,4.896600280206871,4.941303187002152,5.03113875563415,5.170442315652451,5.36562973979816,5.625729015256251,5.963201014771578,6.3951755188061306,6.945317655072175,7.646689450249314,8.546236338934916,9.71202006938424,11.245272343799,13.301283872289954,16.127326125626634,20.135448682493724,26.05213316210662,34.99336250206494,45.113769580675665,57.76186732348467,73.80352519921799,94.11591966757159,119.68323077500783,151.57997559445678,190.88155370028744,238.486742855756,294.83316660669004,359.51861847147416
I1,0.0,0.0,3.809341723561994,8.62562995209189,13.19397815174644,17.012491586135106,19.944962706845878,22.024228686117958,23.35321341817797,24.05609048288297,24.255135857063756,24.060673216656333,23.567596972024923,22.855099695270578,21.987861348794752,21.017808213518272,19.985994551317116,18.92439325367252,17.857503438801487,16.80374564793104,15.776646604086718,14.785830116811534,13.837836506781143,12.936793824437355,12.084964511050368,11.283186308367073,10.531226120382268,9.847500981974164,9.238917410624527,8.706363687920323,8.247824691728281,7.860143470219316,7.540022067927127,7.2846040747293355,7.091838246246958,6.9607422295606,6.891642298220835,6.886444623907167,6.948988498464939,7.085539245007271,7.305499309881066,7.622455473956158,8.055750007909705,8.632887471581066,9.393313971428947,10.39453005007899,11.722335276839388,13.508744367903281,15.964980878284875,19.44623586458668,24.522698977821875,31.177061564971947,39.74129657458947,50.70288959406854,64.67657198862398,82.40625946953186,104.76232817816718,132.71649694714824,167.27622421028218,209.35928697400908
A1,0.0,0.0,0.4232601915068882,0.9632074963892752,1.4807717141652526,1.918897422652632,2.260771905984956,2.5085107626117082,2.672348242541039,2.7652366761268707,2.800233856856817,2.7893236581966017,2.7429665876747578,2.6700139323701335,2.577794488843125,2.4722746774195548,2.358241189919948,2.239480893902096,2.1189462590032204,1.9989017053747478,1.8810499695245901,1.7666394220916786,1.6565541080676243,1.5513885434840573,1.4515094778844877,1.3571064027763824,1.2682326570653755,1.1869985415885234,1.114246544535872,1.0501449734614137,0.99452749534021,0.9470874816946859,0.9074903096955931,0.8754402426011177,0.8507233124776483,0.8332390931368787,0.8230296730432838,0.8203119930509339,0.8255192165930193,0.8393576649146465,0.862888206503923,0.8976454400961861,0.9458158800511945,1.0105102895471285,1.0961906159807313,1.2093596582407984,1.359715544098162,1.5621684589889426,1.840550330749466,2.2348873001677125,2.809436229206618,3.5637248688850685,4.5357938937380125,5.781163504130811,7.369850912297308,9.386678419789394,11.931048363647996,15.114211752994914,19.05199560748886,23.850797989677456
IH1,0.0,0.0,0.0,0.15237489683115396,0.45691545773800146,0.8632721791917619,1.3143979345801293,1.7629551999178632,2.175497966059356,2.5315841263649492,2.821170213966699,3.0417724823991823,3.1959801221732165,3.2894901589677863,3.329653594527918,3.3244554208807267,3.2818360118912873,3.209268094454175,3.1135177488699974,3.00053321803286,2.8754190693444492,2.74246461277963,2.605204404517694,2.466495451448663,2.3286007506908524,2.1932724985056864,2.0618308263633263,1.9352357706933072,1.8149289647098723,1.7022452492917957,1.5982003173166381,1.5034593771478637,1.4183846060516694,1.3431100281675978,1.2776197988577551,1.2218202331145378,1.17560324446878,1.138902517071728,1.1117456032897899,1.0943063074824828,1.086962867529686,1.0903691208975497,1.1055486500124707,1.1340267590574267,1.1780236560644886,1.2407474762574622,1.3268539639381327,1.443193799572214,1.6000780057488344,1.8135268814009171,2.109511740815219,2.5299108500165115,3.104782681229798,3.869477917917761,4.869453821053346,6.1626786902525925,7.821474980729675,9.933763729536157,12.602973608603506,15.94534999848382
IN1,0.0,0.0,0.0,0.6110586757401906,1.8946138264421677,3.700743113266319,5.823571189178963,8.06909449369654,10.280353298650455,12.34260684302885,14.179826840733561,15.748052257058216,17.028219645683972,18.0196100835766,18.73432572777964,19.19286183773509,19.420686219519084,19.44568077131655,19.2962893245129,19.000226730807626,18.583623195902497,18.070498813075456,17.482483116006634,16.838712011225272,16.155849262851834,15.448192148504596,14.727830536088348,14.00483666810528,13.290587312458323,12.595703681820467,11.929209799557448,11.298328371327184,10.708592666551468,10.164100617576821,9.667820746214677,9.22190631024646,8.828000299358731,8.487528930943872,8.201990588218273,7.973254092880775,7.8038871909826035,7.697545301816401,7.659464576262705,7.697126225601661,7.821198114047754,8.046928357968504,8.396291235561355,8.901424952394411,9.61038026045935,10.5972200312439,11.980852564578754,13.952174273560315,16.668037606217197,20.312855665419477,25.119033840697426,31.379520580868128,39.458613406244226,49.80055802801991,62.93270984228957,79.45765416479699
D1,0.0,0.0,0.0,0.0,0.0010824230837728436,0.00432820601175924,0.010460618592628668,0.01979768588678675,0.032321162153110344,0.047775211777654945,0.06575878488502042,0.0857994859870774,0.1074072758462055,0.1301105080154308,0.15347800591671465,0.1771308121639138,0.20074669222926675,0.22405981749007967,0.24685744321252512,0.26897488875769116,0.29028972792325863,0.31071579573958613,0.33019739713874713,0.3487039454222311,0.36622514916504406,0.3827667925581257,0.398347106840585,0.412993701048049,0.42674100401136156,0.43963368546785364,0.45172589744236163,0.4630790071207461,0.47375910711873254,0.4838348628448193,0.49337589177261154,0.5024516988204172,0.5111311233978748,0.5194822371025246,0.5275726404450874,0.5354701296595825,0.5432437356312394,0.5509651761275817,0.5587108135707389,0.5665642815887251,0.5746200490881449,0.5829883566313988,0.5918022343590548,0.6012277853469816,0.6114797777387849,0.6228462259220374,0.6357289474220633,0.6507142517683457,0.668685938449648,0.6907413328364624,0.718228880376164,0.7528199405237851,0.7965976612043516,0.8521589461952439,0.9227252625190554,1.0122528017780237
R1,0.0,0.0,0.0,0.08002178412886193,0.4016183342350901,1.1100589159124725,2.3022489944589934,4.023441793980212,6.275272365310391,9.026952441379539,12.226062366663879,15.807601010026113,19.700990102141464,23.835176164664848,28.142134676024487,32.55910995768658,37.02989628648176,41.505417783795075,45.943813863296356,50.31019077717755,54.576160634191446,58.71925747455387,62.722294915806074,66.57271053304987,70.2619274640643,73.78475281409716,77.138824433783,80.32411188570504,83.34288173938772,86.19979609358309,88.90163374367985,91.45688277269838,93.87532834669685,96.167692338986,98.34534658228685,100.42010458167496,102.40408931644065,104.30967288139958,106.14948484092831,107.93648920320366,109.68413456032091,111.4065884656528,113.11907642224891,114.83835966501725,116.5834073726209,118.37635378011494,120.24388971952368,122.21934278751705,124.34589514131142,126.68177147333282,129.30903774789599,132.34810102340572,135.9613765009559,140.35193597341328,145.7726953477129,152.53962986933433,161.04772512630916,171.78913209262967,185.3725360688271,202.5416449603471
G1,0.0,0.0,3.809341723561994,9.389063524663236,15.686081916669654,22.148812280853047,28.490772014677397,34.56722575998996,40.31010580760309,45.69322120340475,50.713369128152756,55.37989989929117,59.70884463499008,63.71955048857883,67.43272305769796,70.86927682746371,74.0496608562226,76.99347055316744,79.71923526992684,82.24431567127337,84.58487028087566,86.75586561154658,88.77111340348613,90.64332387816071,92.38416895413621,94.00434926832814,95.51366251247063,96.94050979420294,98.30547267815493,99.62449863439046,100.91080975055833,102.17608243218737,103.4312193936373,104.68690394841514,105.95405212007087,107.24423773189848,108.57014635943715,109.94610886512824,111.38877124914549,112.9179749788336,114.55795428376452,116.33901208069203,118.29992971505017,120.49152722315394,122.98207840130787,125.86581691136288,129.2767991768878,133.4124919365506,138.57602795486346,145.25683899898868,154.2305395869665,165.79951814934716,180.6119758756621,199.53815758900777,223.67325131168508,254.36482827327018,293.23600894467245,342.18568934687187,403.3432481400094,478.95028820018337
H1,166298.3177507929,155729.46573516662,146696.57671472078,138301.36773359132,130498.31731229083,123245.15540803985,116502.63116963893,110234.29728127712,104406.30971035277,98987.2417590203,93947.911397768,89261.22093231048,84902.00812284471,80846.9079376437,77074.22418139219,73563.81029292574,70296.95865741587,67256.29782482638,64425.69706990726,61790.17776933083,59335.8311090311,57049.74166958917,54919.9164698042,52935.21907857948,51085.30843310127,47296.78454150169,43783.239575805324,40521.707285543314,37491.32422530049,34673.15322507878,32050.021446947147,29606.37176244259,27328.126268705488,25202.56083491623,23218.189634803577,21364.65867647902,19632.647388475274,18013.777361812765,16500.52738384673,15086.153932891533,13764.616336397166,12530.505834095691,11378.977836666198,10305.686737075981,9306.722724051595,8378.550174018994,7517.947367847499,6721.947498171532,6041.307310217391,5966.900771618294,5896.523370292604,5829.891938936535,5766.743519820706,5706.833921309098,5649.936377483577,5595.840303509316,5544.350139902455,5495.284279349881,5448.474070184506,5403.762891040677
S2,254575.91822600845,269723.04838930053,283534.24941151263,296193.2144328268,307783.3158276436,318382.00828630367,328061.23211187887,336887.79460838175,344923.7290469521,352226.63113652193,358849.97342665936,364843.39844530524,370252.9916042443,375121.53502076026,379488.7434412611,383391.4834410223,386863.9770341277,389937.9907725323,392643.01135118754,395006.4086722433,397053.5872582641,398808.08118358115,400291.83012063184,401525.14040285646,402526.86120564135,414333.9917471371,425841.75656406215,437043.30458444875,447932.19456392946,458502.30500541825,468747.7531659489,478662.82322759315,488241.90377932606,497479.4348744282,506369.8650783426,514907.61908927106,523087.0766787492,530902.5638335835,538348.3570385751,545418.7015458237,552107.8441009952,558410.0797084214,564319.8101872557,569831.6086680342,574940.2770889726,579640.8694055461,583928.6227173024,587798.669016491,590789.9898465192,588648.0181469648,586448.3576675687,584182.9287214663,581841.3681936811,579407.4520070001,576856.6376470389,574152.9779905049,571245.4656830762,568064.2535877817,564517.8671079276,560493.3213980084
E2,0.0,5.19914678253263,8.127866016787626,9.788080040423589,10.742025058049538,11.300116350997712,11.6315484361334,11.827496077490572,11.936712646549505,11.985296951085118,11.987502747097016,11.95154646903925,11.882660011942313,11.784649446416939,11.660658644518636,11.513520160542512,11.345899246782418,11.160339674891834,10.959267184111148,10.744978102732574,10.519625875744184,10.28521069559184,10.043572020617233,9.79639177662844,9.545193600823387,9.291348578799171,9.177766824678407,9.16374780313084,9.227690925714638,9.359645848521037,9.557013298139953,9.822182100782303,10.161372427626429,10.58426336235096,11.10418201527915,11.738766978253636,12.511123003391612,13.451581784840966,14.60030047891723,16.011096722745158,17.75718597802559,19.93994218081351,22.70261462281445,26.252443454088684,30.897546992866623,37.110929844061005,45.64685829822904,57.76462908044813,75.68937346186975,102.87114874267937,133.95340162866478,173.09853424367654,223.09220298355123,286.8140369257044,367.5344478003779,468.87359203640426,594.5336080639572,747.7492764249714,930.3882270173908,1141.7284542204968
I2,0.0,0.0,1.333269603246698,3.15037844316362,5.029064292394071,6.77587076902218,8.315715175951974,9.631950461380677,10.734646687550086,11.644358084901265,12.384212372504631,12.976357456914432,13.440609586064715,13.794155283532401,14.051712735416743,14.225856657806121,14.327368037164224,14.365550710345909,14.34849624896304,14.283296642301963,14.17621143835539,14.032797933118976,13.858012609446643,13.656290327882102,13.431608467796188,13.187538020053339,12.927285911350314,12.6900642460688,12.496789347346322,12.35864642277247,12.28202737554516,12.271376543966717,12.330860163314538,12.465404611116318,12.681431070152888,12.98749145343919,13.394947019332026,13.918807090688087,14.578851220577247,15.401192828469323,16.420512919175177,17.683317425062036,19.252788323117045,21.216180093414287,23.696405147967987,26.87075679803919,31.002294181728985,36.49478062655445,43.993995041056266,54.586908042075315,70.0273824566461,90.34415295699193,116.62760219679211,150.46394221124768,193.85994317021053,249.2588612810315,319.54265079003176,407.96506758798296,517.9573068178872,652.7418498992287
A2,0.0,0.0,0.14814106702741087,0.351723508173075,0.5641215967265873,0.7635446776828213,0.9411666169546986,1.09465087101515,1.224700518155583,1.33327485881685,1.422706409369538,1.4952928366126437,1.5531315229839109,1.598072392919335,1.631724070884381,1.6554806334175958,1.6705533011859002,1.6780002428142777,1.6787520495921755,1.673632492170653,1.6633750287754645,1.6486358084966501,1.6300039207154284,1.6080094935945948,1.5831303526877083,1.555797399125138,1.5263991344641248,1.4993225967097956,1.4769657139913654,1.460657587990656,1.4511925212074686,1.4491405829264938,1.4550321304895344,1.4694744850775634,1.4932359368652643,1.5273192566128948,1.5730402131663161,1.6321241470556749,1.7068344563977162,1.8001508317117318,1.9160230660692634,2.0597403558673126,2.238480401601781,2.462145535162252,2.7446709130615243,3.1061364247284478,3.5763031275666695,4.200797005862229,5.052499544605413,6.253914644825938,8.002689220910353,10.306476857877506,13.290084897095065,17.134097201554454,22.06700661446162,28.367291967152717,36.36393309838917,46.429199049757166,58.95714719915215,74.32054925621512
IH2,0.0,0.0,0.0,0.05333121389090389,0.16517677096309918,0.3224519699748367,0.5078105180291527,0.7055118603886262,0.9033319656623162,1.0926976462452007,1.268135865509901,1.426552939431456,1.566563127807014,1.6879415507101452,1.7912105473709363,1.8773423988495224,1.947554034844512,2.0031702785268264,2.045536091787035,2.0759627331910524,2.0956967296495836,2.1059037782967502,2.107662133402085,2.1019618080280034,2.0897071554730466,2.0717213304679793,2.048751608714004,2.0214749859577297,1.9919570707374321,1.962551279990946,1.9354331179468944,1.9124557154541306,1.8951575843428152,1.8848350903930853,1.8826371997122084,1.889664436881108,1.907066986211527,1.9361438714160866,1.978449331360585,2.035915817786599,2.1110068573545804,2.2069186463078165,2.3278583743106758,2.479442641318473,2.669285872127778,2.90789580463423,3.21007996331625,3.5972338269431816,4.101218561199918,4.771260890256335,5.686986718021415,6.97701968866965,8.736956352211324,11.080608029939153,14.154994316538755,18.148341796060382,23.296594546423297,29.888283223509575,38.26542450729602,48.81640699850206
IN2,0.0,0.0,0.0,0.2138705365090667,0.6841940649594962,1.378843013153411,2.2399196282022134,3.2069653389704222,4.22675389503088,5.256392471475337,6.2633108987327955,7.223983699851106,8.122291461917971,8.947933752780244,9.695054177817386,10.361116530793533,10.946017135378858,11.451398680868342,11.880127229508197,12.235897376552982,12.522936198883892,12.745782505925,12.909123131427949,13.017672311362034,13.076083521894025,13.088886046595961,13.060440129296701,12.994906261848577,12.902053513141428,12.793406047399673,12.680394678266511,12.573603262277095,12.482595014412194,12.416035071257985,12.381959524708334,12.388118237571671,12.44236351750913,12.553083985983134,12.729701921977219,12.983269151594556,13.32721615895159,13.778336810165143,14.35813429867726,15.094724804764091,16.025615819278194,17.201887822972083,18.694694398353093,20.605732143579345,23.08480838299085,26.360782829691743,30.79939117999156,36.98780236058133,45.42162055098883,56.69018239508976,71.54074056390566,90.92006020391526,116.01175718707279,148.26787544956255,189.42456129839792,241.48399259607888
D2,0.0,0.0,0.0,0.0,0.00037884807932049526,0.001552211628774683,0.003842808459140707,0.007450133801624667,0.012461866963986601,0.018878851600414418,0.026641030151325407,0.035649466335595376,0.04578324731905789,0.0569116164073381,0.06890221943017431,0.0816264127500236,0.09496245950654378,0.10879726752315949,0.12302715574817187,0.13755799731385476,0.15230498011869387,0.16719214699417734,0.1821518215156225,0.19712398683571672,0.2120556588468851,0.22690027768141507,0.24161713090250708,0.2561708144836426,0.2705307335620105,0.28468096670467796,0.29862231040845144,0.3123710152642492,0.3259564959185509,0.3394190961193763,0.3528083685873162,0.36618202793486637,0.37960560655314257,0.39315280737890496,0.40690656120259655,0.4209608396360885,0.43542334181735276,0.4504192669987517,0.46609651920007283,0.4826328889861006,0.5002460654716456,0.5192078282374735,0.5398646005116501,0.5626679934937662,0.5882216050990062,0.6173553648885833,0.6512488935059566,0.6916474488370036,0.7412099904630175,0.8032745656274468,0.8819877012112909,0.9825403048063099,1.1114603861371797,1.276952027048922,1.4892689399280576,1.761094415504661
R2,0.0,0.0,0.0,0.028007624445101676,0.14332686751823834,0.4047617293496958,0.8583504137757995,1.5344933636665645,2.449175995169152,3.606637365269827,5.002244343834027,6.625054667750294,8.459907122343283,10.4890384198617,12.693289727502489,15.052982183867615,17.548536517114343,20.16090017271926,22.871832321496907,25.664085327534195,28.521511544571517,31.429116718226492,34.37307552643338,37.34072053322216,40.3205127101031,43.301999443595335,46.275764323407955,49.23337181610994,52.16807233769778,55.07570393947533,57.954852136167524,60.80668749714323,63.634701159677064,66.44444878493985,69.24335538965656,72.04060462756635,74.84712371090446,77.67567220799728,80.54104581217074,83.46041337299039,86.45381703503573,89.54488259215606,92.76181308619782,96.1387786513571,99.7178792758752,103.55196212833296,107.70875466994156,112.27709476094404,117.37663650185262,123.17358985146143,129.90754131436628,137.9359412255828,147.74712379167187,159.95891759466218,175.34925388093134,194.899677622565,219.84813297350274,251.74964548778712,292.54207218600686,344.61058659878876
G2,0.0,0.0,1.333269603246698,3.4175801935635906,5.9276361965767315,8.682321933730549,11.580124645235681,14.562919826300758,17.595963835678802,20.657015350478005,23.730525828092,26.80460196020598,29.86945746159236,32.91664771459005,35.9387041305799,38.92896433573597,41.881492336674945,44.791035617518,47.652993987385976,50.463389312158235,53.21883232831909,55.916486001952244,58.554026228647,61.12960061483215,63.64178808012086,66.08955826576725,68.47223241432205,70.82577964906064,73.1757318448287,75.54208161990037,77.94226992558781,80.39307115532873,82.91187229333923,85.51765542501376,88.2318847407143,91.07944203600546,94.08973234830891,97.29808569946724,100.74761037331749,104.49171255796982,108.59759944056333,113.1512535869014,118.2646539027942,124.08651415350208,130.8186927844041,138.74206212624995,148.2587918472764,159.96447572163933,174.77764167312367,194.18743046087943,220.56771580509752,254.91873648468624,299.3081380013,356.51791979830864,430.0685336225333,524.3190958579781,644.5570760834013,797.0193205430835,988.7722028538014,1227.3610317878863
H2,166298.3177507929,176197.02714072104,185222.9767510815,193496.26822176296,201071.41034295087,207999.01145641273,214326.05813488687,220096.17395492195,225349.8597850736,230124.7169098003,234455.65421508986,238375.08057427462,241913.08349117448,245097.59498219704,247954.54560890736,250508.00750747218,252780.32720092553,254792.24892406326,256563.02913864533,258110.54286817866,259451.3824366049,260600.94915348088,261573.53844948154,262382.41893006896,263039.90578175243,252537.9243657182,242007.9467890824,231481.73448127828,220988.83798935555,210556.81715413817,200211.44202970102,189976.8754074605,179875.83755696312,169929.75353345412,160158.8831258724,150582.43322789992,141218.65211129424,132084.90477066586,123197.72820285923,114572.86519978655,106225.2749976125,98169.11897558876,90417.71958584101,82983.49088651658,75877.83952353058,69111.03584777456,62692.056150536635,56628.39881663466,51381.11730840147,51200.95929117413,51017.63125949002,50831.45874713604,50642.74318626084,50451.763637840166,50258.77839843558,50064.026492083976,49867.72905552412,49670.09062437996,49471.30032737662,49271.53299515913
S3,763727.7546780253,760385.121971407,757252.4702374039,754311.3758036487,751546.1113514063,748942.2637373895,746486.5641955564,744166.7658181121,741971.5485455516,739890.4409751415,737913.7531313,736032.5169261636,734238.4324280377,732523.8188076387,730881.5692435743,729305.1092972913,727788.3583980493,726325.6941554601,724911.919264952,723542.2308031992,722212.1917331183,720917.6315978661,719654.855313065,718420.3621141146,717210.9277322894,735582.866158067,754509.6960660286,774006.7435483802,794090.470165456,814778.548570014,836089.9326531872,858044.920640859,880665.208823607,903973.9327909763,927995.6921235432,952756.5534428149,978284.025503419,1004606.9986113474,1031755.6390423077,1059761.2272799022,1088655.926720383,1118472.4668230023,1149243.721094891,1181002.1547573882,1213779.1069722392,1247603.8520786962,1282502.3381978585,1318495.3893061571,1352194.7264566328,1347860.352360878,1343503.077539772,1339102.481977961,1334634.052714543,1330062.6401976186,1325337.6372864107,1320386.670044848,1315107.9090263392,1309361.7905552436,1302964.2770900745,1295685.4770073239
E3,0.0,8.912823055770218,13.477686104365313,15.705588969630032,16.6773900915259,16.974887354906766,16.911691719930587,16.657099807150345,16.30265407453613,15.897954015865562,15.469945788082297,15.033323138807498,14.596140670943758,14.162845795132483,13.735917777399878,13.316754649363252,12.906153769850087,12.504572771616209,12.11227178427698,11.729391460122086,11.355996273239441,10.992099016575466,10.63767333119166,10.29266693795206,9.95700396358757,9.630589301425148,9.45703349904871,9.39585493391004,9.42577366290414,9.537249989211208,9.72827449125529,10.002134789491956,10.366412330036562,10.832792487372958,11.417483294111808,12.14218471674461,13.03566853600723,14.136148586390245,15.49477355515042,17.180801921532424,19.28938972029364,21.953561338864613,25.36308246616652,29.795102099116352,35.66562165403693,43.619436117516074,54.6948128015198,70.64236814882327,94.58633194401196,131.39235412241442,172.97530749550242,224.89876124055695,290.90723656225913,374.8610084864133,481.13505687045296,614.5754986125288,780.1585653811638,982.2790114748568,1223.5748305930665,1503.3198597037751
I3,0.0,0.0,2.285605034137195,5.283763758163531,8.252382401266171,10.875266289138914,13.048785898798059,14.770502611285266,16.081880971918338,17.039550734509344,17.701511731420403,18.121050071448682,18.344540812575666,18.411130469040064,18.353260661574208,18.197507139934693,17.965478095501222,17.674655677505022,17.339135777435963,16.97025602425626,16.577117931479222,16.167015503916947,15.745784228995394,15.318083339412283,14.887624900418892,14.457357582011511,14.029614719439802,13.643089522090486,13.318339548325664,13.066345367643132,12.893440563222791,12.804174102965767,12.803026369702692,12.895524015373333,13.089082689009604,13.393788251943457,13.82326999012752,14.395803969838376,15.135803093282659,16.07590422447887,17.259964094194068,18.74745188758096,20.620031301558836,22.99166326665913,26.024541811894196,29.955034951646567,35.13749125196511,42.1214973165412,51.79542482367128,65.67078381894544,86.20390891746385,113.28550788128969,148.2549139377312,193.14328865488685,250.56465592563578,323.73108095609626,416.4536346917952,533.0557131849315,678.1212479610122,855.9919880482969
A3,0.0,0.0,0.25395611490413283,0.5899673630456093,0.9259325541885386,1.2260698594174508,1.4779397464093273,1.6803903313835424,1.8373113327821473,1.9544654274835187,2.0379390531204824,2.0934357284373646,2.1259993360388254,2.1399496621087213,2.1389165134801447,2.125914086460105,2.1034265464826833,2.0734911208365587,2.037772917083858,1.9976296486778107,1.9541663467388841,1.90828096173182,1.8607020416698474,1.8120196438591014,1.762710779468128,1.7131601138116623,1.6636768772801183,1.6186037814484737,1.5803090459496674,1.5501068169296734,1.5287909695614752,1.5169480334435663,1.5151473238881072,1.5240665419052528,1.5445882173829868,1.577889849681176,1.6255446241051819,1.6896481029438566,1.772988500281171,1.8792842860830725,2.0135243200492106,2.1824655789970264,2.3953778716736167,2.665185510795603,3.010266233169264,3.457376542060675,4.046586706835044,4.83997499716698,5.937764046820828,7.510248095671322,9.83416409650366,12.903556681444817,16.872121086387793,21.97118877188379,28.49834769276834,36.81958147287678,47.36976275435116,60.64333640992458,77.16648855359246,97.44108954517647
IH3,0.0,0.0,0.0,0.09142493809869233,0.2784847410557976,0.5345867291689546,0.8275562544681299,1.1296225558136532,1.4202962742665064,1.6861908579900948,1.9197418940246918,2.117714915794124,2.279866345895236,2.4078723449583634,2.50452957544005,2.5731892760366035,2.6173752689249192,2.6405393988012884,2.645915614946918,2.6364424166511835,2.61473102561325,2.5830629012820188,2.5434050608012635,2.4974352880689343,2.4465719351138553,2.3920049685364813,2.334726117570475,2.275556933993913,2.2166484165366978,2.160402332658994,2.109021504341738,2.0643767887874604,2.0280238993417727,2.0012843987021127,1.9853497660093589,1.9813915217429299,1.990673340274194,2.0146683018531815,2.0551891242431877,2.1145433933116946,2.195731033127495,2.302709143592193,2.440762173188166,2.6170370178250852,2.841340051110669,3.1273598160480156,3.494602480092582,3.971565298695583,4.601157184613508,5.450420909632825,6.6290462508602515,8.31583157482306,10.637695145808774,13.741405633785497,17.81598103489323,23.10477731610442,29.914972159770095,38.6245673669992,49.684063404531194,63.60761734254181
IN3,0.0,0.0,0.0,0.36663520544411415,1.1541545216816007,2.288881584878469,3.658486727551338,5.152415811679164,6.677831500165463,8.163753902496921,9.559913140248522,10.833576969542303,11.965922110212203,12.948647450916669,13.781091057934432,14.467903396438858,15.01723624965386,15.43937237900135,15.745714624263673,15.94805925118473,16.058089056633595,16.08703325744597,16.045451840105933,15.943111214311049,15.788925511512481,15.590944246357928,15.356371478104307,15.091605583997884,14.808203732376445,14.519127759283679,14.236977843654675,13.97330631845475,13.738503029240132,13.541974739553885,13.392473985388499,13.2985092481032,13.268813259112392,13.312874672084032,13.44155964093176,13.667870608423192,14.007915607664728,14.482199373717474,15.117407597802066,15.948954764934005,17.024735257248906,18.410816334454253,20.200359837032774,22.52810961419428,25.594898931544115,29.711170201719316,35.3789797664554,43.41217274577552,54.473760589662255,69.3330013960226,88.95897404395885,114.58134624912186,147.74362411416598,190.34783448587763,244.67798417046333,313.3792869777815
D3,0.0,0.0,0.0,0.0,0.0006494538502637057,0.002627721389511466,0.006425256468877567,0.012303954414442,0.020328435846695747,0.030417771459281435,0.042395938114630716,0.056033177477494533,0.0710767545848554,0.08727220417684682,0.10437696790869204,0.12216835404135741,0.14044747697579396,0.15904048323140996,0.17779804014080902,0.19659378798966334,0.21532224123339763,0.23389646362067845,0.25224572566666437,0.27031327095430185,0.288054261512807,0.30543393489570364,0.3224259818029594,0.3390111378654174,0.355175974757965,0.37092234417028724,0.3862691591886301,0.4012509810500253,0.4159156609694774,0.43032210145765715,0.4445385929887393,0.45864188992795124,0.47271706875155295,0.48685818267894515,0.5011697492258139,0.5157691628816261,0.5307902104961566,0.5463879894311423,0.5627457070347245,0.5800841097060383,0.5986747131328013,0.6188586943799124,0.6410744695932338,0.6658990205640776,0.694111764575205,0.7267969302571328,0.7655149968911804,0.8126056452496172,0.8716786831616941,0.9472455056726283,1.0448601060485516,1.1714192016297393,1.3355482335928923,1.5480547362357653,1.822431449121134,2.175371324672227
R3,0.0,0.0,0.0,0.04801307047731715,0.24324783067917835,0.6793651027776961,1.4243160996170472,2.5169808669188676,3.970732020459206,5.779172810886792,7.921908145770327,10.36950359003442,13.087405259054142,16.038866757353272,19.1870321918723,22.49634673505964,25.933453786871436,29.467712888899,33.071445651308906,36.71999251160228,40.391642653895,44.06748301547263,47.731199564486616,51.36885434094579,54.968654494039306,58.52072422194266,62.01688663304386,65.45045973931764,68.81684305448583,72.11433307121885,75.34421890223514,78.51057323234332,81.61995563993469,84.6811374373241,87.70490058770773,90.70393563206565,93.6928523204051,96.68831498241536,99.70931925653193,102.7776364999181,105.91846754766236,109.16137060940224,112.54156322991538,116.10175302273781,119.89473994607988,123.98717920397077,128.4651458786521,133.44259440740802,139.07465540858686,145.57939918497507,153.27527784513805,162.6436631667032,174.34434129279526,189.20757439082172,208.27131446614038,232.8373849806333,264.54114647044497,305.4324298830678,358.0638379904344,425.5780605608712
G3,0.0,0.0,2.285605034137195,5.741823901706337,9.769366352449396,14.046117558093897,18.3991589849815,22.735994518345443,27.007542481894518,31.188196354343354,35.26506891242915,39.23218300746095,43.087329556524836,46.830364999698546,50.46228627138885,53.98472608917414,57.39967568196893,60.70933075344717,63.91600436266212,67.02207627632573,70.02996233003401,72.94209489312306,75.76090961555315,78.48883538779631,81.12828769385892,83.68166256080035,86.15133162651736,88.57649402884242,90.98596779518903,93.40311392271414,95.848847047984,98.34356651134038,100.90851473076917,103.56687831088469,106.3448404546382,109.2727407541179,112.38648354249833,115.72935139063236,119.35442642804685,123.32790735758688,127.73375353187458,132.6803261244489,138.31009909305547,144.81420992339187,152.45486821137212,161.60096298830416,172.78673456175375,186.81267658911312,204.9282109438306,229.18393722708097,262.87820268598114,307.2360039257573,364.9090596619923,439.5093339177658,535.6387199425006,659.0210311588162,816.6228195817083,1016.6867424603329,1268.5824481762393,1582.3560724194062
H3,498894.9532523786,496717.23718659446,494675.51053314336,492758.2500495467,490955.4583017738,489257.87008191325,487656.8998723784,486144.5930655239,484713.5806703936,483357.03725748643,482068.6419102193,480842.54196828994,479673.319363486,478555.9593627329,477485.82154640293,476458.6128621937,475470.3626062882,474517.399194104,473596.32859277294,472704.0142966266,471837.5587354425,470994.28601308295,470171.72588146775,469367.598861616,468579.8024297938,467806.39819266164,466914.41540255275,465904.5089264491,464777.70628636295,463535.3782338499,462179.212190879,460711.1883039276,459133.5578705313,457448.8239068121,455659.723630606,453769.21263756376,451780.45054686855,449696.7878888743,447521.7539989749,445259.04567044607,442912.5163041422,440486.16527538875,437984.1272192318,435410.66091604583,432770.1374427754,430067.02724412765,427305.88577718585,424491.33739750145,421628.05719081557,418726.17001551593,415846.3204950435,412988.2872440073,410151.854597297,407336.81227548927,404542.955073644,401770.08257182117,399017.9988657713,396286.5123163604,393575.4353163952,390884.58407360833
S4,381863.87733901263,388214.8317865537,394540.4337689679,400841.3356547842,407118.535024675,413373.1712362799,419606.41286527005,425819.3996176113,432013.2137837836,438188.8676370477,444347.29935450543,450489.37341204647,456615.8832477281,462727.554996651,468825.0516523484,474908.97731171426,480979.8813255569,487038.26226683677,493084.5716774313,499119.21758047043,505142.56775910454,511154.8841902433,517156.5442465428,523147.80316905444,529128.8919003331,549720.2050069115,570455.1634781862,591332.5762655134,612350.80576621,633507.7366157769,654800.7404837122,676226.6377542504,697781.6568250676,719461.3917197103,741260.7587518066,763173.9530713904,785194.4060301348,807314.7443688998,829526.7521656888,851821.3361195003,874188.4937811058,896617.2822015587,919095.7800409897,941611.0272273571,964148.9080677269,986693.9058113283,1009228.5741421955,1031732.3800839155,1053221.722711185,1064303.2517938134,1075290.4049404776,1086150.786330342,1096846.3657381292,1107324.042376343,1117508.849783562,1127295.5175329193,1136538.4015160296,1145040.8704888015,1152547.0066599927,1158740.6293759472
E4,0.0,13.36923458365533,20.441390005941457,24.10175313426437,25.917729606091775,26.738873253344725,27.024197514509126,27.020682182133136,26.860538138784037,26.614120520119304,26.31864340862598,25.993706887720343,25.649650525757462,25.292015596290078,24.92390497675681,24.54721368222788,24.163257558215143,23.773084884854377,23.37762364116518,22.977745647996603,22.574290234686558,22.168069414262316,21.75986163868283,21.350417303038302,20.9404470936469,20.530619586892694,20.44381137895042,20.591822478977345,20.92913435949587,21.436766123292365,22.11299121952522,22.968332056859765,24.02328316486382,25.30788080983876,26.862679957027623,28.741016237365386,31.012693749811028,33.76951167541553,37.13339202329115,41.26839214964839,46.39873498094463,52.836450354672195,61.024839425228706,71.60886008494367,85.55304867570085,104.34705820926314,130.38102927278496,167.6705838363411,223.3564146920295,308.69490147139766,407.9281687077797,534.7098340954597,698.9016622734749,911.1124084380172,1183.707054925372,1530.7571435346292,1967.2132484442839,2507.044834916678,3160.0242995056988,3927.1491018614925
I4,0.0,0.0,3.428407551205794,7.983308970864536,12.56402233813623,16.692400000657848,20.203979953961728,23.084969612273788,25.38767609135076,27.187827760181733,28.564018074212996,29.58863268657598,30.32457662400149,30.824799540414006,31.13306040698509,31.28514412257337,31.31014986035002,31.23168243776079,31.06888483077189,30.837301525473105,30.549585293438025,30.216068390683866,29.8452206092671,29.444013928944102,29.018215500164604,28.5726189220671,28.11122855409075,27.720044737736547,27.445214396880004,27.311963334513084,27.33559436519962,27.527900695955886,27.901010413953458,28.469876624344504,29.254158169594866,30.279973964442295,31.581885801949444,33.2054294839426,35.21055593068083,37.67646693447234,40.708562266906725,44.44861818194987,49.09001438372548,54.90105535970674,62.261667507536224,71.72298161078159,84.10768257470588,100.68650812604243,123.50529271902552,156.03102311231436,203.92245101966222,267.6633018724416,351.1416920349657,459.995468690144,601.4531030417324,784.4652789592653,1019.7973730422772,1319.8911895630617,1698.2773904551,2168.2809797535865
A4,0.0,0.0,0.3809341723561993,0.8913580816372182,1.409576968791753,1.8815643717351413,2.2877147262283173,2.6252079326961004,2.898794340682934,3.1160933261495134,3.285288394952186,3.4140762288019317,3.5092568427831874,3.5766392465739605,3.6210920849706003,3.6466519456898014,3.6566462524620036,3.6538108374541123,3.6403941640355146,3.618246041186582,3.5888913931634816,3.5535907565753697,3.513389487312585,3.469157486454294,3.4216215724091503,3.3713914007611407,3.3189804152792357,3.2740048210524084,3.2417496661142273,3.225203829698221,3.2262502828362205,3.24636680590872,3.287051607984215,3.35010360361186,3.43783743725982,3.5532856920436946,3.7004273197633646,3.884477961655306,4.1122828526622035,4.3928670296692856,4.738223793907881,5.164467847574711,5.693558012038007,6.355932694253722,7.1946526064473595,8.272120244785036,9.681385450827996,11.566009109429208,14.156828902397509,17.84450242497639,23.266561225238547,30.49101028318156,39.96203472073784,52.320836429777295,68.38967024011691,89.18765474066211,115.94217870065987,150.07457197508282,193.1354838338541,246.66084525456492
IH4,0.0,0.0,0.0,0.13713740714803854,0.420033663515445,0.8109917827583001,1.263205155781262,1.7357255886735348,2.197933492995851,2.629437489271999,3.0182935350712388,3.3588749939115976,3.6499457280536967,3.8931142743191445,4.091679769663042,4.249815112830339,4.372015832314745,4.4627469294719,4.526231213861882,4.566335180748948,4.58651974634612,4.589832344402562,4.578923970943196,4.556080022275043,4.523257525234403,4.482124194427646,4.434096362796741,4.380374206207046,4.3252790440918885,4.273829873226267,4.230721136833958,4.200012038728212,4.185154946857473,4.189170030513978,4.214873101138625,4.265118143099048,4.343045575763581,4.452343862930295,4.597542856247765,4.784366840075365,5.02018720076661,5.314632704071334,5.680444759599858,6.134714517238669,6.700724116466734,7.410766595623019,8.310599843470769,9.466731116468512,10.978825997400156,13.00190204073853,15.788467792763813,19.750289839234043,25.20907375388343,32.55657087585978,42.305956299607686,55.12319093508073,71.85531396708636,93.5549169792324,121.49258443022333,157.14252559083766
IN4,0.0,0.0,0.0,0.5499528081661714,1.7404815907142455,3.4708050701574074,5.579949287894715,7.906925230547326,10.31490026310041,12.697844576781307,14.979242921864895,17.107719923057463,19.0519265498375,20.795739150994436,22.334168698808206,23.670062734292273,24.811542667512807,25.770067494297262,26.559005770703035,27.192607114105655,27.685280655813063,28.051105052245752,28.303510379149714,28.455085605591215,28.517476096321985,28.50134490009652,28.416377478122552,28.27131522355565,28.08726311531761,27.889271741296252,27.70233506675307,27.549807956480485,27.453111669650145,27.43210428897185,27.505789920618973,27.69321341951176,28.014489978835442,28.491984143169507,29.151701727730924,30.025005741511368,31.150826960406054,32.57862681362128,34.37250770984955,36.61709268783889,39.426183010375865,42.955884312992154,47.425140441784784,53.149001152981775,60.59475305699644,70.4813180124907,83.96600491383957,102.92428727885351,129.00204407968786,164.1992659845345,211.09272969871245,272.99667742102815,354.118286357957,459.7025082173955,596.1310058473255,770.9106323167837
D4,0.0,0.0,0.0,0.0,0.000974180775395559,0.003957967099822695,0.009718996276304449,0.01869240625782938,0.031022451976300457,0.04663587648973886,0.06531456894443856,0.0867555717861578,0.11061595761431697,0.13654401789672194,0.16419947063811488,0.1932654698689285,0.22345481257274408,0.2545122305460061,0.2862141735428864,0.31836708882135367,0.35080488999908765,0.38338607594814994,0.4159907935463101,0.4485180215088125,0.4808829732835887,0.513014764418373,0.544854357378106,0.5763527758090814,0.6074695690274263,0.6381949836360535,0.6685549196038805,0.6986086247400304,0.7284441821539321,0.758174199485228,0.7879327387011877,0.8178738644031537,0.8481719149949417,0.8790235374265105,0.910651580328291,0.9433110709644155,0.9772977001049977,1.0129595225178596,1.050712992677944,1.0910650760050333,1.134644148043216,1.1822439732932637,1.2348877157887466,1.2939235891356518,1.3611722534592172,1.4391623616689682,1.5315237623624398,1.6436800450028066,1.78397985867146,1.963057147117286,2.194328731724602,2.494856867474702,2.8864345850659774,3.396872013718709,4.061456560417274,4.924501462362091
R4,0.0,0.0,0.0,0.07201960571597572,0.36608306366099647,1.026279930763315,2.160229587768879,3.8333739395494524,6.07366343630468,8.879616024094956,12.228549919815897,16.083709068913443,20.399922554978932,25.127850655641815,30.217026940025917,35.61794145357692,41.283392942783166,47.16930203634691,53.23513817689882,59.44407761904401,65.76298022628266,72.16224929039345,78.61562048787601,85.09991244387987,91.59476124722318,98.08235392527,104.54717057894793,110.97574106231541,117.35815542413324,123.69007726957493,129.97313633131054,136.21462618021351,142.42699487037976,148.62737515941873,154.83727355382817,161.0824750897957,167.3931956131253,173.80451008764925,180.35709655943967,187.09835825040406,194.08402202988782,201.38036509231415,209.06730276824845,217.24269645175184,226.02844275526752,235.579240098759,246.09550490081313,257.8429403180006,271.1831932540202,286.6238651955286,304.9042582355896,327.139065576067,354.86951181767904,390.07357753558557,435.27936256883345,493.72519028587243,569.5571296064368,668.0614549144518,795.9244497279788,961.499415257365
G4,0.0,0.0,3.428407551205794,8.670399186178745,14.851054625034656,21.49739921085465,28.354317937120083,35.284405238998225,42.21359106876984,49.10170954767232,55.926636673375484,62.675791625741915,69.34161983154222,75.91921819725609,82.40510463398189,88.79659275494848,95.09148213119595,101.28790976928929,107.38428149683263,113.37924111244169,119.2716559845382,125.06060871922423,130.74539015528543,136.32549075778803,141.80059342317324,147.17056329633672,152.4354369719538,157.67804954400856,162.958618094008,168.32568692875034,173.82293289228357,179.49359007182417,185.38359092188108,191.54412351571153,198.0340784290275,204.9227461559661,212.29309458398888,220.24599216909613,228.90584835638072,238.42833828038715,249.01120795678207,260.9097031458443,274.4590865635254,290.1083011081154,308.4716827297232,330.41091315261065,357.1696808346522,390.60460207085237,433.6020595649691,490.8795958329458,570.0413402545106,674.6504714053025,811.7715026390628,990.9978989967166,1224.643635522655,1528.1935642884453,1920.741044633535,2425.213362296649,3068.120133769409,3878.47700967195
H4,249447.4766261893,253604.93456995912,257744.24487984742,261866.54080095695,265972.85955136985,270064.15503721795,274141.30395456724,278205.1114535037,282256.3163957164,286295.5962346363,290323.5715451154,294340.81022770057,298347.83141076966,302345.10907213204,306333.0754001548,310312.1239130415,314282.61235355976,318244.8653752788,322199.1770352297,326145.8131068361,330085.0132259747,334016.99288210337,337941.94526554574,341860.04298122466,345771.4396384048,335056.0829095117,324343.52105277695,313638.57571686,302946.6302579747,292273.6774083872,281626.3690089632,271012.06751892535,260438.89884091646,249915.80577555933,239452.60113728032,229060.01921206428,218749.76380825834,208534.55063547308,198428.14113981964,188445.36422887482,178602.12155079053,168915.37117959856,159403.08375741728,150084.164439674,140978.33350590878,132105.95840384744,123487.83049808901,115144.88113749567,108055.20541839824,111568.77256165503,115058.15731178434,118523.5433159097,121965.11237627643,125383.04449792058,128777.51793354965,132148.70922583,135496.79324726184,138821.94323780993,142124.33084044626,145404.12613474956
E_Om,0.0,0.0,0.0,0.0,0.0,0.0,0.0,0.0,0.0,0.0,0.0,0.0,0.0,0.0,0.0,0.0,0.0,0.0,0.0,0.0,0.0,0.3458662513763816,0.5229304566877307,0.6274246334211774,0.7017272117996791,0.7645773847857826,0.8407707258560186,0.9325856519774591,1.043299813134003,1.1773120603809206,1.3404209559662759,1.5402674527653848,1.7869851223063296,2.0941400572752262,2.48009491238195,2.970011077785279,3.5988308926697052,4.415794435477965,5.491408221632858,6.928418126038472,8.87948084625138,11.576344368567021,15.379402105875194,20.864549952754096,28.981018143004334,41.35036161284967,60.86111859274251,92.92210544347704,148.2967726907157,247.7240200729148,391.5477037221525,618.8610967809128,975.0692897270444,1530.482146561957,2390.6390304609185,3710.8584362030288,5713.232492883686,8702.742094086645,13074.897751076685,19302.34021507518
I_Om,0.0,0.0,0.0,0.0,0.0,0.0,0.0,0.0,0.0,0.0,0.0,0.0,0.0,0.0,0.0,0.0,0.0,0.0,0.0,0.0,1.0,0.7995891080473919,0.7280367099757137,0.7162305503350184,0.7335869684462175,0.7665191302719089,0.8089686313963793,0.8624498164177961,0.9287578162060341,1.010168518667676,1.1096297406889795,1.2309855082963264,1.3792689093781012,1.561103000056546,1.7852623937272258,2.0634720962833493,2.4115596835683393,2.8511413289978615,3.4121282189190274,4.136517708414903,5.084238585288067,6.3423565508586295,8.039917863125993,10.372525819111123,13.644265472381266,18.34170059430045,25.26971395015046,35.812617999651344,52.46433119385084,79.9791436482916,127.47681900966066,202.33759945093487,320.4877282182554,506.30534085914564,797.3131959973321,1250.578605192028,1951.561856011943,3025.549386339356,4650.928191242443,7071.7593151101955
A_Om,0.0,0.0,0.0,0.0,0.0,0.0,0.0,0.0,0.0,0.0,0.0,0.0,0.0,0.0,0.0,0.0,0.0,0.0,0.0,0.0,0.0,0.0,0.009854885363076653,0.022891752101632037,0.036441250582363596,0.049546202855551204,0.06196433774740833,0.07420569674725401,0.08674881235828703,0.10007513669032567,0.1147004362430163,0.13120818685970104,0.15028926843104704,0.17279268206755988,0.19979345962148493,0.2326866002832283,0.27332029608974506,0.32418894298263834,0.3887183595473219,0.4716956436412862,0.5799304153454098,0.7232945640337618,0.9163968693387353,1.1813529804305078,1.5525065493943715,2.0847549418478764,2.8688201191851586,4.060576210752627,5.940542958823849,9.042891578671172,14.391723169181535,22.827319372106885,36.14499575936919,57.09438740868957,89.90864500683732,141.02776681043906,220.0997447552345,341.27666355644976,524.7249325773487,798.0677059457984
R_Om,0.0,0.0,0.0,0.0,0.0,0.0,0.0,0.0,0.0,0.0,0.0,0.0,0.0,0.0,0.0,0.0,0.0,0.0,0.0,0.0,0.0,0.20041089195260806,0.36065725829197615,0.506563744712451,0.6501041481487995,0.7971229668199156,0.9507417494164461,1.112867874396275,1.2857122113689288,1.4718453937227367,1.6742941675713703,1.89667605363999,2.143378957338391,2.4197994697093574,2.732661514380582,3.0904475430769036,3.5039898264123672,3.9872926535932476,4.5586924304206535,5.2425200902308795,6.071523293752069,7.090460083529517,8.36153741696856,9.972824527143349,12.051591678352864,14.786051091710968,18.4619276677424,23.526253579879317,30.70349229634747,41.21791570660416,57.24660722276404,82.79435022377132,123.34500900528272,187.57424047736833,289.04334543931895,448.83359421472886,699.4631679381116,1090.5774202021523,1696.9304713650886,2629.0271385795163
G_Om,0.0,0.0,0.0,0.0,0.0,0.0,0.0,0.0,0.0,0.0,0.0,0.0,0.0,0.0,0.0,0.0,0.0,0.0,0.0,0.0,0.0,0.0,0.08869396826768988,0.22279429504746948,0.383691116595017,0.5636420970918247,0.7597103808128259,0.9753176908140716,1.2144700275749634,1.482013912390413,1.78392390826035,2.1276615619363164,2.522647866716493,2.980902469765903,3.517923908107808,4.153919639360253,4.915549509980707,5.838433982591109,6.9708206493396805,8.379037798645783,10.155761879040135,12.432816634388146,15.401455280094556,19.34535034625447,24.695857150734128,32.127751686011415,42.73164161789286,58.338871579530675,82.16782349019832,120.19705935489576,183.72342623242474,284.13194967470616,442.8327372235382,692.879581336514,1085.356541436651,1698.4121994067568,2650.0250239500547,4115.126806541509,6346.858662607532,9699.786453689712
beta,1.0,1.0,0.9998518109651299,0.9997339210777159,0.999633403627674,0.9995433228317084,0.9994599376926632,0.9993812160485949,0.9993060413332208,0.9992337882937622,0.9991640956805682,0.9990967443012834,0.9990315915349613,0.9989685361464797,0.998907499383257,0.9988484148304434,0.9987912229804932,0.9987358683406059,0.9986822979053753,0.9986304603623336,0.9985803056892328,0.9985317849590924,0.9984843161622134,0.9984384938976365,0.9983941980237518,0.998351349948286,1.0293152316500374,1.0619581254692978,1.0964994467428977,1.133193290043493,1.1723358584377748,1.2142748169440352,1.2594211911883342,1.3082646656214656,1.3613934749412895,1.4195205827590647,1.483518591980168,1.554466978145952,1.633717026530454,1.722982712138148,1.8244704471474622,1.941068526703332,2.0766308886074856,2.2364147436001005,2.4277787167635214,2.6613414987946835,2.9529970728391968,3.3276234664156297,3.826398738093418,4.455178603394878,4.439689166740449,4.419707134061404,4.3928624122878634,4.356591589645189,4.3075535912300875,4.24144102157655,4.152931001819435,4.035924766906385,3.8842993235864185,3.6933676775862647
