series,2021-11-01,2021-11-02,2021-11-03,2021-11-04,2021-11-05,2021-11-06,2021-11-07,2021-11-08,2021-11-09,2021-11-10,2021-11-11,2021-11-12,2021-11-13,2021-11-14,2021-11-15,2021-11-16,2021-11-17,2021-11-18,2021-11-19,2021-11-20,2021-11-21,2021-11-22,2021-11-23,2021-11-24,2021-11-25,2021-11-26,2021-11-27,2021-11-28,2021-11-29,2021-11-30,2021-12-01,2021-12-02,2021-12-03,2021-12-04,2021-12-05,2021-12-06,2021-12-07,2021-12-08,2021-12-09,2021-12-10,2021-12-11,2021-12-12,2021-12-13,2021-12-14,2021-12-15,2021-12-16,2021-12-17,2021-12-18,2021-12-19,2021-12-20,2021-12-21,2021-12-22,2021-12-23,2021-12-24,2021-12-25,2021-12-26,2021-12-27,2021-12-28,2021-12-29,2021-12-30,2021-12-31,2022-01-01,2022-01-02,2022-01-03,2022-01-04,2022-01-05,2022-01-06,2022-01-07,2022-01-08,2022-01-09,2022-01-10,2022-01-11,2022-01-12
S,1193853.9763241955,1193853.9763241955,1193848.1635788118,1193839.8321944112,1193830.1987916643,1193819.7035097065,1193808.4948657542,1193796.6109597778,1193784.0473753666,1193770.7826772023,1193756.7879918418,1193742.0305954677,1193726.4752371768,1193710.0846025958,1193692.819448585,1193674.6386101714,1193655.4989562281,1193635.3553231515,1193614.160437819,1193591.864834239,1193568.416765672,1193543.7621129751,1193517.8442895256,1193490.6041429215,1193461.9798535865,1193431.9068304002,1193400.3176034552,1193367.1417140616,1193332.3056021235,1193295.7324910325,1193257.3422702488,1193215.9557931249,1193173.0207307334,1193128.0337446732,1193080.7859556966,1193031.1331708846,1192978.9402084984,1192924.06679837,1192866.3633551558,1192805.669001576,1192741.809986419,1192674.5980253452,1192603.8284223066,1192529.2779048716,1192450.7021202003,1192367.8327361885,1192280.3740856084,1204839.3243611683,1217388.647323443,1229927.0394275947,1242452.44443681,1254962.069356339,1267452.2312953337,1279918.0651626461,1292353.065544229,1304748.38946257,1317091.78630642,1329365.9234133612,1341545.7040421672,1353593.8625533297,1365453.546281665,1377035.5358298896,1388195.8924090434,1398697.013890599,1408142.989027809,1403239.8697070968,1397092.4337071734,1389212.879046043,1379521.860442026,1368020.0140515617,1354812.0911344087,1340081.0733459294,1324062.2125416705
E,56.255846453322015,45.0046768576135,41.81648662574559,41.784573474533126,43.06106129973253,44.944130764213064,47.16394832000398,49.615064376584826,52.25563564361593,55.0692063957717,58.050050178422474,61.19743620206763,64.51330692077326,68.00127976763831,71.66617745622227,75.51377998997556,79.55067752587892,83.78417466591777,88.22222461093398,92.87338279028256,97.74677429564458,102.85207160351813,108.19948017433296,113.79973015694628,119.6640728435096,125.80428081240163,132.2326509126981,138.9620094065491,146.0057187099799,153.3776852672648,161.09236816571152,169.16478815132763,177.61004993878697,186.44457936460034,195.68511854669427,205.3489452489883,215.4539175406295,226.01848046975707,237.06166411219928,248.60307819330936,260.66290344476874,273.2618789487735,286.4212845792507,300.1629175842296,314.5090622505925,329.48245144430393,345.10621862990547,361.40383874341995,382.3745838252131,407.9696868210797,438.70770762161186,475.5051413852765,519.6603179273092,572.9260213730133,637.6551186067475,717.0314681032414,815.4218380795871,938.9139145358438,1096.1508529281543,1299.6478028455576,1567.8993795097574,1928.7771542043101,2424.9446287869246,3122.0074907174017,4118.611087174531,5550.521306380177,6984.204493610792,8484.570978321059,9963.361990625042,11326.491730313239,12494.695301800068,13414.334969478132,14059.33094834696
I,0.0,9.200956793454289,12.881339765407063,14.568123413269996,15.57497408430255,16.387861208663402,17.183580001789487,18.02407482019633,18.929265412407247,19.90425992517102,20.949431821240466,22.06406858475295,23.24762318147708,24.500085090029664,25.822039648897483,27.214626842836655,28.679476014472957,30.218642626289125,31.83455466415313,33.52996970992935,35.30794160091599,37.17179509912552,39.12510704924125,41.17169271804587,43.31559624130219,45.561084312054966,47.91264241698931,50.374973066372235,52.952995573082035,55.6518470225212,58.47688414246213,61.43368583395038,64.5280561644091,67.76594803463824,71.15361972229825,74.69756446076178,78.40450406472006,82.28139240981281,86.33541861193773,90.57400861568959,95.00482526779545,99.63576694753246,104.47496467505005,109.53077750452614,114.81178592997732,120.3267829672459,126.08476251288212,132.09490451199468,138.3665563883947,145.55942979783094,154.06137563244215,164.1899177966271,176.2854685276828,190.76462424671362,208.16402041942024,229.19046281738764,254.78877270105977,286.2400521042158,325.30863721736716,374.4667659937036,437.244703658435,518.7855067194315,626.7335598612417,772.6533473307911,974.2137353878556,1258.150039939464,1662.7087180722801,2139.930803133637,2671.6573592019768,3232.5578110823308,3792.045556537153,4318.80441837013,4785.271939034361
A,0.0,2.0502128022542285,3.336917483576363,4.285596909357856,5.069556844456242,5.76487958153358,6.4089530846308955,7.022885538714779,7.620302935181144,8.210957130339047,8.802318998627573,9.400362706008615,10.01000581319441,10.635388863823772,11.280070389236608,11.94717117568107,12.63948462135327,13.359562705104066,14.109783645725626,14.892405496758524,15.70960881138128,16.563530764832027,17.45629258208591,18.39002171205009,19.366869876506716,20.389027878139707,21.4587378608028,22.57830356483175,23.75009900170742,24.976575878834158,26.26027003123146,27.603807058335143,29.009907317560558,30.481372647808318,32.02112046924913,33.632175383312145,35.31767021549082,37.08084850594528,38.92506681393564,40.85379655384698,42.87062531867146,44.97925766031995,47.18351527417053,49.48733651187999,51.89477512474635,54.40999811817004,57.03728257437032,59.781011274256635,62.645666919254296,65.7807106022922,69.30805838985239,73.34750611620959,78.03159744849204,83.51734185530685,89.99855892949608,97.72140184351349,107.00561983696522,118.274980419249,132.10205405453382,149.2756925415666,170.90485383327876,198.58133262663213,234.63825513033828,282.56135392919,347.6263687616806,437.7945534346215,564.6025189079824,721.7980234187805,906.5723592958163,1113.3845107967172,1334.2198529749971,1559.5567521637236,1779.5603482789068
IH,0.0,0.0,1.8401911410170722,4.395625341167613,7.259485265707306,10.292292539745198,13.453341746440874,16.737747348134384,20.153067987885787,23.710760683944052,27.423174374872183,31.302592885117882,35.36101846649584,39.610208082292445,44.06178348682003,48.727351928124904,53.61861724145863,58.74747662734277,64.12610368637431,69.76701979467187,75.68315608577876,81.8879080627354,88.39518452572617,95.2194521773909,102.37577699103014,109.87986319984267,117.748090582413,125.99755057334836,134.646081611083,143.71230404130324,153.21565481920183,163.17642219282416,173.61578049993346,184.55582516954897,196.01959206062122,208.03110789046033,220.61542600801863,233.79866048729252,247.60802053066715,262.0718451186307,277.2196375848943,293.082099814763,309.69116578241756,327.08003413017383,345.2831994575327,364.33648193715703,384.2770548119546,405.14346925263203,426.9756759674001,449.8150428530554,473.83441178149354,499.28223799051625,526.4676686425576,555.7644333761943,587.6253499802818,622.605436815393,661.3947898225161,704.8646563546142,754.1326404447777,810.6565605359098,876.3721781300663,953.8993922571218,1046.8570523326662,1160.3519142670993,1301.7458151749995,1481.8510190694246,1716.704443085904,2029.8107353188052,2434.8166473161364,2941.5826442189727,3554.7914429504954,4272.955426032202,5088.340583125512
IN,0.0,0.0,1.8401912719019229,4.074571669848041,6.231185314850699,8.188493831027165,9.944733226335183,11.533826280601508,12.995782162497306,14.3671607237846,15.678751024497874,16.95569654624476,18.21832688328509,19.483085206531563,20.763357621111716,22.070160307759807,23.412690758125493,24.7987635389053,26.235152448157375,27.727858383417328,29.28231885736724,30.903571919670316,32.5963845577758,34.36535347384867,36.214984406332675,38.149754803809806,40.17416359240176,42.29277094420382,44.51023030316636,46.8313144167234,49.260936725011604,51.80416915017511,54.466257086792595,57.2526322058675,60.16890761337747,63.22090521700757,66.41466392421448,69.7564450423013,73.25273737114343,76.91026198560331,80.73597644711289,84.73707824747673,88.92100733893801,93.29544761585022,97.86832719970172,102.64781735234806,107.64232980755119,112.86051227006635,118.31124178451923,124.00361562230286,130.07698320610302,136.7223745330775,144.15883309186182,152.63278892827287,162.4282073582345,173.88362313246358,187.41603609124627,203.5539363035791,222.98384655223674,246.61760840889937,275.6921008107131,311.9204571133497,357.72614046459825,416.61123790131575,493.7400836906536,596.8513083002513,737.59285213314,933.0978865795764,1187.7246340928264,1501.3898199963119,1868.9595263385,2280.136340874529,2720.2727629081837
D,3364.0,3364.0,3364.0,3364.0024315367773,3364.008239696831,3364.017832018528,3364.031431740468,3364.049208315144,3364.071324739541,3364.097953998262,3364.1292842146386,3364.1655198292765,3364.2068815140124,3364.25360579986,3364.305944752899,3364.3641657956146,3364.4285516877308,3364.4994006538354,3364.577026638883,3364.6617596734195,3364.753946333109,3364.853950280172,3364.9621528769776,3365.0789538642925,3365.2047720984606,3365.3400463432486,3365.485236113219,3365.640822566353,3365.8073094444017,3365.985224059939,3366.1751183295346,3366.377569852783,3366.5931830371533,3366.8225902688328,3367.0664531298034,3367.325463640485,3367.6003455689993,3367.8918557877164,3368.20078567484,3368.5279625614576,3368.8742512243703,3369.2405554246116,3369.6278194911597,3370.037029948948,3370.4692171899437,3370.925457185552,3371.406873238173,3371.9146377690727,3372.449974139112,3373.014158498022,3373.608521657013,3374.234622811921,3374.8943494549385,3375.589997569898,3376.3243569683323,3377.1008157926135,3377.923495558687,3378.7974296408506,3379.7288026361934,3380.7252758880218,3381.796437028211,3382.9544315073235,3384.214866579805,3385.598131267198,3387.131362403558,3388.851424387265,3390.8094684030057,3393.077836017781,3395.7599266680763,3398.9771719271157,3402.8640324948774,3407.561156579892,3413.207226727161
R,0.0,0.0,0.3534655493640865,1.2890538927422326,2.828876478496182,4.933170998589332,7.551316774971935,10.638404191590569,14.159416401220145,18.089194589308498,22.41116819469613,27.11589842763001,32.19977069281932,37.66391524272091,43.51334870855429,49.756304437352405,56.40371657169282,63.46882667989224,70.96688713557324,78.91494056123749,87.33165899253925,96.2372299437116,105.65327935685228,115.60282362460306,126.1102446050616,137.20128289917093,148.90304571508784,161.2440264653683,174.2541338818604,187.96472892968342,202.408668186697,217.62035265272823,233.63578118249848,250.49260791248952,268.23020012774043,286.88970130149403,306.5140982753681,327.14829050015555,348.8391610502235,371.63564932541306,395.5888253044951,420.75196515501796,447.18062795948765,474.93273327879825,504.0686392327379,534.6512207296918,566.745947420694,600.4209608849027,635.7471504726213,672.7982271362448,711.675773419252,752.5300087409946,795.5697816792681,841.0705792717054,889.3844789735871,940.9542594069788,996.3335833065862,1056.2156145320473,1121.4734764478233,1193.2177305142773,1272.8789280380506,1362.3279656786929,1464.0546528334482,1581.4374814130124,1719.157615762247,1883.8388758178075,2085.0235117199422,2336.5671644472823,2654.665764012344,3055.977184716497,3556.2871389218244,4169.092584309155,4904.320884889601
G,178108.0,178117.20095679344,178124.5617221783,178131.4010413061,178138.23514086034,178145.27801710303,178152.62887983734,178160.34280608787,178168.45762601172,178177.00432606303,178186.0112012706,178195.50561006938,178205.51479136987,178216.06630178177,178227.1882895659,178238.90969176497,178251.2603907732,178264.27134684176,178277.9747149302,178292.40395078826,178307.5939094537,178323.5809384239,178340.40296718362,178358.09959437742,178376.71217362554,178396.28389875952,178416.85988908162,178438.4872751124,178461.21528517868,178485.09533310513,178510.18110719253,178536.528660606,178564.19650323718,178593.2456154379,178623.73966409703,178655.7450543699,178689.3310172864,178724.56970466295,178761.5362851063,178800.30903969795,178840.96945679918,178883.6023254423,178928.29582665185,178975.14162189426,179024.2349376971,179075.6746453072,179129.5633340581,179186.00737689016,179245.11698620033,179307.65647758654,179374.38219052367,179446.1352778429,179523.90679025947,179608.90012755626,179702.60536711517,179806.89741079268,179924.17189821933,180057.53867827187,180211.10327475495,180390.38484765365,180602.94947932463,180859.38814938042,181174.8503880432,181571.46357871842,182082.08528014045,182755.70704661016,183663.52569908617,184805.83121635683,186193.53002286764,187823.09333002273,189675.60409294406,191719.18105191182,193913.17019701345
H,227723.68257623859,227723.68257623859,227723.6825762386,227723.68257623859,227723.6825762386,227723.68257623859,227723.68257623859,227723.68257623859,227723.68257623856,227723.68257623859,227723.68257623859,227723.68257623859,227723.68257623859,227723.68257623859,227723.68257623859,227723.68257623859,227723.68257623859,227723.68257623856,227723.68257623859,227723.68257623856,227723.68257623859,227723.68257623853,227723.68257623859,227723.68257623856,227723.68257623856,227723.68257623853,227723.68257623856,227723.68257623853,227723.68257623856,227723.68257623853,227723.68257623853,227723.68257623856,227723.68257623856,227723.68257623853,227723.68257623856,227723.68257623856,227723.68257623859,227723.68257623853,227723.68257623853,227723.68257623859,227723.68257623856,227723.68257623853,227723.68257623856,227723.68257623853,227723.68257623853,227723.68257623853,227723.68257623856,218510.72750637316,209435.59221506084,200506.57172619022,191732.6703965544,183123.6544075712,174690.10196843868,166443.44815720973,158396.02010557643,150561.0566746932,142952.70483853717,135585.98269359895,128476.69643360788,121641.29598707423,115096.65175042368,108859.73370257243,102947.17528096808,97374.70924114133,92156.54267483918,92156.54267483918,92156.54267483918,92156.54267483918,92156.54267483919,92156.54267483919,92156.54267483919,92156.54267483918,92156.54267483918
S0,417848.8917134684,416908.7317071131,415404.655829948,413904.59687286697,412409.21001943515,410918.7218889738,409433.1978757455,407952.6423536055,406477.03632258216,405006.3515803156,403540.55606176273,402079.615847512,400623.4959118067,399172.1603920128,397725.5726753313,396283.69541499764,394846.4905187105,393413.91912565735,391985.94157846074,390562.5173925374,389143.6052238848,387729.16283574176,386319.1470643448,384913.51378391415,383512.2178709677,382115.213168049,380722.4524469526,379333.88737153204,377949.4684601826,376569.1450480967,375192.86524940166,373820.14267928514,372451.53230887966,371086.81451750203,369725.88733414747,368368.67478169926,367015.10477680585,365665.1035922129,364318.5942463552,362975.4957933704,361635.7227808671,360299.1846914441,358965.78531465295,357635.422026274,356307.984957595,354983.35603713075,353661.4078853198,356084.63227547274,358422.45880974387,360671.11549514363,362826.23235395295,364882.84740083705,366835.3366516586,368677.287184952,370401.30704945157,371998.7466977309,373459.28337053856,374770.28305148333,375915.79054064164,376874.8827902356,377618.9104333677,378106.7736142834,378276.73367633455,378032.36552080384,377219.9246356261,373890.46665477846,370122.1414886862,365748.5557365852,360763.03860856214,355189.76128218544,349088.3010621551,342542.0770787013,335647.90716928535
E0,56.255846453322015,45.0046768576135,39.219761936021015,35.99463319529206,34.1452694778056,33.15219933061761,32.76083438306094,32.828508544491925,33.26453141705245,34.005654966541655,35.00525930043144,36.22802542439932,37.64693103652672,39.241324744881304,40.995567883199705,42.898018418346204,44.9402458881572,47.11641483882389,49.42279675433163,51.85738229895027,54.419572799491874,57.109934677797995,59.93000402455283,62.88213115537773,65.96935705655135,69.19531525861353,72.564153970854,76.08047434033814,79.74928152050015,83.57594588915028,87.56617227771928,91.72597548947095,96.06139653183124,100.57915453081759,105.28608267035501,110.18923246400226,115.29588500259064,120.61354320336699,126.14992071073586,131.91293004368117,137.91066991427076,144.15141119953958,150.6435810148099,157.39574433913708,164.41658262294231,171.7148687612892,179.2994377472064,187.1791522296691,197.3946243245653,209.8999617822855,224.93587691486385,242.93985603533486,264.53473809001827,290.5616703811195,322.14853480893635,360.8189715111194,408.6584657781767,468.5677734478543,544.6550306979665,642.8524348128379,771.899795776952,944.9227537619396,1181.9318748664903,1513.544236547316,1985.4812714482696,2659.973327124031,3330.7981956945678,4027.8359419607978,4708.695129449715,5328.976182012303,5852.027643081888,6253.8751764905355,6523.879647842347
I0,0.0,9.200956793454289,12.881339765407063,14.143414637543437,14.373171846779162,14.208552450831132,13.9473586580616,13.72663245834429,13.605265216969546,13.603758835730472,13.724069888365012,13.959747376283005,14.301144082018734,14.738052026895359,15.260968773277959,15.861635067362855,16.533191237278537,17.2701426306664,18.068238034980354,18.924316903005888,19.836154268267574,20.80231723447459,21.822038705249767,22.895109658922323,24.021789089684017,25.202729764289714,26.438917626957057,27.731622706966476,29.082359565139654,30.492855558721306,31.96502545729647,33.500951179611704,35.10286563153451,36.77309659704655,38.51413969707097,40.32860990950698,42.21922953547012,44.18882281865001,46.240311449228955,48.376710050887596,50.60112153445302,52.91673223595825,55.32680670510125,57.83468197342298,60.44376110995351,63.15750585575866,65.97942811140784,68.91308002964216,71.96204243779097,75.46221730146208,79.6076398782868,84.55410116764253,90.46662909574738,97.54610920002992,106.05064713248649,116.31957765515881,128.80570146121445,144.12179170809094,163.1099470726747,186.947335325706,217.31050105156407,256.63481562291906,308.52827344807076,378.4285107506506,474.6057028698343,609.4999500657855,800.7534326074139,1025.2226693596858,1273.9086217789359,1534.4785110658586,1792.270871736634,2032.4942743014697,2242.3527244615943
A0,0.0,2.0502128022542285,3.336917483576363,4.190960733058911,4.780225224815695,5.200498946604154,5.512123777010886,5.755760063404267,5.959858747774164,6.144660545995718,6.324611547867829,6.509968239002614,6.707931661600092,6.923476554405693,7.159967361293894,7.419618539042879,7.703838475135782,8.01348550149602,8.349057300068889,8.71082986660408,9.098958384876214,9.513549465997492,9.954711983790165,10.42259202372318,10.917396141435042,11.439406108520293,11.988987539917147,12.566594196131264,13.172769293622352,13.80814480599673,14.473439472289343,15.169456027203601,15.897078016644832,16.657256820515755,17.451024671494213,18.279484872441785,19.14380750049805,20.0452262617215,20.98503560552828,21.964587932107964,22.9852908493323,24.048604440414806,25.156038491390756,26.309149616152713,27.509538207492003,28.758845134161014,30.058748095291282,31.41095753380248,32.81721199913727,34.35331927245037,36.0803450284162,38.05759958076685,40.3501118323147,43.03439843833757,46.20443939410258,49.97911716132696,54.51234656252437,60.007511182350825,66.73864681745258,75.08226302968207,85.56615311097693,98.94563398602652,116.32415927815755,139.3442163052258,170.48094270396666,213.44904367720275,273.5907433408071,347.81159046669404,434.6395928136098,531.3116038163889,633.9227376472691,737.9055858767363,838.6064497834734
IH0,0.0,0.0,1.8401911410170722,4.395625341167613,7.174543520609641,9.967952030810476,12.69681150995561,15.342537863145694,17.914165787258966,20.432405965871943,22.92183498953483,25.407142523312856,27.911448512363393,30.455681709585104,33.05849233064374,35.736418958281575,38.50416108558991,41.37487985334019,44.36048847007957,47.471915028341556,50.719331790529885,54.11235086206169,57.66018894711905,61.37180498509182,65.25601468375113,69.32158574398613,73.57731715781006,78.03210548958707,82.69500058838737,87.57525275889988,92.6823530512835,98.02606801806704,103.61647002491877,109.46396398584939,115.57930257393645,121.97361585160647,128.6584308694704,135.64568863652218,142.94775982208324,150.57745938076383,158.5480601092511,166.87330512034598,175.56741920338882,184.64511901376198,194.1216220006689,204.01265394496824,214.33445493857894,225.10378359368426,236.33791922281563,248.0546616787387,260.3387896810289,273.31292918663075,287.1294760572867,301.9721064091716,318.0625939995746,335.6718229317248,355.13547747945864,376.8760016453411,401.4336114124705,429.5108265051175,462.0376467020899,500.2688518063045,545.9320900361297,601.4570490958797,670.33343646078,757.6654862781088,870.9876656310175,1021.277576899281,1214.7598455032153,1455.7888182035767,1746.202989208822,2084.8877457408803,2467.782808395159
IN0,0.0,0.0,1.8401912719019229,4.074571669848041,6.146243563711495,7.878972893064788,9.256856166019316,10.326505024591954,11.153279573642287,11.802174997129976,12.330211464093752,12.784206733857989,13.200990137906665,13.60861907690433,14.02789659736921,14.47386027961915,14.957102035156566,15.484873979737213,16.061981934821254,16.691488610277606,17.375255588529548,18.11435359705041,18.90936785460238,19.76062143342713,20.66833557814132,21.632742227364915,22.654160781401103,23.733048488300525,24.87003165026571,26.065923121542546,27.3217302083714,28.638656024397264,30.018096541623972,31.461634956860937,32.971025883021696,34.548197069271254,36.195241105596224,37.914406261823366,39.70808795251999,41.578820888406376,43.52927178335123,45.56223248705729,47.68061342123096,49.8874371929317,52.18583224812699,54.57902641547677,57.07034017652154,59.66317948368968,62.361027931174235,65.16743806485867,68.15248279636717,71.41202330560948,75.05526901098872,79.20414499780411,83.99810110816834,89.60230005502916,96.21908607293255,104.10377018268493,113.58678403249027,125.10558840782375,139.25180220266495,156.84243688518274,179.0297863704386,207.47365980088875,244.61301910771152,294.08772873155107,361.3494260013739,454.365329478707,574.9937395520982,722.9478970765908,895.5277639798933,1087.6026468062828,1292.0367931311769
D0,3364.0,3364.0,3364.0,3364.0024315367773,3364.008239696831,3364.0177197807434,3364.0308909353143,3364.047667868674,3364.067940732857,3364.0916116178955,3364.118609979886,3364.1488977492054,3364.1824694799225,3364.219350275648,3364.2595928942037,3364.303274736875,3364.3504950582064,3364.401372535918,3364.4560432382063,3364.514658974786,3364.577385995209,3364.644403990147,3364.7159053512282,3364.792094648574,3364.873188290202,3364.9594143327654,3365.05101241812,3365.1482338146716,3365.2513415463013,3365.36061059491,3365.47632816529,3365.598794003233,3365.728320759566,3365.865234394239,3366.0098746157346,3366.1625953405824,3366.3237651920203,3366.4937680245566,3366.673003470953,3366.8618875099564,3367.060853053356,3367.270350550951,3367.4908486120066,3367.722834641713,3367.9668154911155,3368.2233181188376,3368.4928902627653,3368.776101119632,3369.073542030165,3369.385827167113,3369.7135942230625,3370.0575929129714,3370.4187349836193,3370.7981335500754,3371.197144427867,3371.6174164733,3372.060956475423,3372.530214779738,3373.0281999281783,3373.55863427713,3374.126168457497,3374.7366819555004,3375.397712260798,3376.119079691221,3376.9138150327312,3377.7995601966663,3378.800701574746,3379.9515812276436,3381.301046472209,3382.9061695348114,3384.829776258418,3387.137121780531,3389.8919884449288
R0,0.0,0.0,0.3534655493640865,1.2890538927422326,2.8125607926276497,4.850342624032757,7.310437725614488,10.107542548071851,13.171837654639077,16.450642214302842,19.907047484881197,23.517474782867225,27.26905881204212,31.15724945385845,35.18377630226856,39.35500047681159,43.68062408290747,48.17270689443411,52.84493564068664,57.71209485468648,62.78969495127315,68.09372068393964,73.64047023691616,79.44646145904464,85.52838699762006,91.90310437293266,98.58765045258401,105.5992724687784,112.95546980132852,120.67404234151026,128.77314245806608,137.27132849045074,146.18761836394796,155.54154241097825,165.35319317578018,175.64327467860824,186.43315060925732,197.7448904347423,209.601313432396,222.02603079677522,235.0434859531806,248.67899317886346,262.9587746020333,277.9099956169876,293.5607987189099,309.94033572319233,327.07879829120145,345.007446636998,363.75863623726764,383.36584230900195,403.87644768109055,425.3622297373058,447.92422743536457,471.69650487233076,496.8508070573285,523.6032075516067,552.2236700353375,583.0496439602474,616.5053014255395,653.1288522363008,693.6117187053651,738.8555333151977,790.056488053714,848.8323751856988,917.4168301711114,998.9582424526336,1097.9727220949492,1220.9856010182725,1375.578712563086,1569.4876104085006,1809.9617365732202,2103.0940612470195,2453.2257407459747
G0,178108.0,178117.20095679344,178124.5617221783,178130.97633253035,178136.8634551266,178142.44810399372,178147.87033071113,178153.2285475131,178158.59783280085,178164.0384320562,178169.60024619297,178175.32555118212,178181.25084637644,178187.40821148088,178193.82634855033,178200.53140184874,178207.54761152074,178214.89783886194,178222.60399074704,178230.68736423118,178239.16892773143,178248.06955174854,178257.41019942475,178267.21208513842,178277.49680767514,178288.28646319074,178299.60374212515,178311.47201338108,178323.91539840438,178336.95883726169,178350.62814837473,178364.95008322224,178379.95237703744,178395.663753094,178412.114033616,178429.33415843282,178447.3562206881,178466.2135043884,178485.94052068423,178506.57304233548,178528.1481362386,178550.70419387947,178574.28095949197,178598.91955561156,178624.66250562368,178651.55375281337,178679.63867532142,178708.96409630094,178739.5782884406,178771.86327789814,178806.1935848985,178842.98309950493,178882.71726510217,178925.98339385117,178973.5063722358,179026.19555810222,179085.20950912128,179152.04787569042,179228.6847429692,179317.76610465394,179422.90819832394,179549.15670612504,179703.70408170723,179897.01561817972,180144.56420207684,180469.30071471588,180904.35415711527,181449.1247404133,182107.89972665146,182878.0330224959,183749.6167368166,184706.74842876924,185729.60452139404
H0,79703.2889016835,79523.95650165471,79237.67025824876,78952.41464531906,78668.18595259592,78384.98048316657,78102.79455342717,77821.62449303483,77541.4666448599,77262.31736493841,76984.17302242463,76707.0299995439,76430.88469154554,76155.73350665598,75881.57286603202,75608.3992037143,75336.20896658093,75064.99861430124,74794.76461928975,74525.5034666603,74257.21165418033,73989.88569222527,73723.52210373327,73458.11742415982,73193.66820143284,72930.17099590768,72667.62238032241,72406.01893975325,72145.35727157014,71885.63398539249,71626.84570304508,71368.98905851413,71112.06069790348,70856.05727939103,70600.97547318522,70346.81196148176,70093.56343842042,69841.2266100421,69589.79819424594,69339.27492074665,69089.65353103197,68840.93077832025,68593.1034275183,68346.16825517923,68100.12204946058,67854.96161008252,67610.68374828623,63624.65555154787,59725.130567209446,55915.30669006745,52198.63517741158,48578.83482008848,45059.90394796327,41646.12885515881,38342.086742530024,35152.64066997669,32082.923286481895,29138.305278298685,26324.34359851974,23646.703725771487,21111.04964419931,18722.895255884636,16487.411979697248,14409.189924033635,12491.979732362754,12447.008605326248,12402.199374347074,12357.551456599424,12313.064271355666,12268.737239978786,12224.569785914862,12180.561334685568,12136.7113138807
S1,119385.39763241955,111798.02923645917,105312.51477005934,99284.54510480195,93681.6376157672,88473.51322548371,83632.01414160251,79130.97892356158,74946.10932746324,71054.84058658662,67436.21879735262,64070.7862924228,60940.47492496735,58028.50687567437,55319.30250850722,52798.3947945506,50452.3498430763,48268.693106636645,46235.840856035975,44343.036549203236,42580.29174458667,40938.33123454891,39408.54209738211,37982.92638807324,36654.05720793262,35415.03791175826,34259.46422844374,33181.389086942996,32175.28995436744,31236.03850679277,30358.872466168283,29539.335213918235,28773.36935149899,28057.147751691173,27387.125363043742,26760.01207413173,26172.752857421132,25622.510570817813,25106.650274128508,24622.724729535592,24168.460948843574,23741.747699746007,23340.623898858255,22963.267826494186,22607.987103181258,22273.209372150177,21957.47363585868,21889.491837789865,21828.306841987855,21773.105005422465,21723.06854967746,21677.37565915023,21635.195897751677,21595.68231295395,21557.96000655626,21521.109825130723,21484.144516820485,21445.972670052215,21405.34223272881,21360.749089925554,21310.28468605887,21251.376014130597,21180.336264593,21091.596116695728,20976.46972079482,20726.85271451069,20458.47537539459,20161.95171909883,19836.774688320544,19484.127461239143,19107.115719552075,18710.119522890087,18298.2172053056
E1,0.0,0.0,0.8624064410855294,1.8608796597980655,2.7719195712775093,3.543220225917338,4.1778902132381575,4.694500141088357,5.113731588105069,5.454294193142319,5.732006499369247,5.959898763919944,6.148595849523993,6.306732074842767,6.4413227029704885,6.558075887426686,6.661647959279447,6.755850070985307,6.843814680374097,6.9281294195358925,7.010944666033863,7.094059977770069,7.178993563397014,7.267038144152474,7.359305900534016,7.4567646631964095,7.560267078339749,7.670574133568862,7.788374154178928,7.914298158602515,8.048932284486368,8.192827854826865,8.346488663928987,8.510431143662041,8.685145138167655,8.871107790769347,9.06878875805685,9.278653149642468,9.501163618586862,9.736781929707885,9.985970099714777,10.249191152433415,10.526909516565558,10.819591083080368,11.127702929613486,11.451712709657013,11.79208769484603,12.149293449171171,12.64869006058599,13.284848603841397,14.069832746869622,15.027261549035089,16.191312093766495,17.60840804157087,19.340956788032305,21.473361892396614,24.121196644368805,27.44519693758864,31.672892669186776,37.13258992221553,44.30749660285881,53.92242729415188,67.08078637118685,85.46781223599177,111.59414197034911,148.86426491927972,185.77046781898662,223.96701398078565,261.1131194906081,294.77911785849085,322.98034367198306,344.4404993944545,358.6194684571685
I1,0.0,0.0,0.0,0.14105137337874085,0.3889880542468148,0.686755719115401,0.9915668428232409,1.2782573359754554,1.5347660703754051,1.7572389560006125,1.9464236042778185,2.1053557928651854,2.237988159535509,2.3484300425180193,2.440559235759767,2.517849801081565,2.5833197759691364,2.639541551875947,2.6886818989553882,2.732553210283741,2.7726661433971937,2.8102787990863702,2.8464403655780477,2.8820286673180977,2.917781830756494,2.954324635098141,2.992190241976948,3.0318380034225445,3.073667994426145,3.11803283942879,3.1652473196835107,3.2155961700269624,3.2693404033151445,3.3267190256328676,3.3879599059454817,3.4532798823754516,3.5228870972496527,3.596983250920341,3.67576543487132,3.759427573482477,3.8481615455941887,3.9421580439212964,4.041607214222813,4.146699103859504,4.257623940315158,4.374572253233289,4.497734847737786,4.627302631785931,4.763466295740293,4.926843593932515,5.128917248703298,5.378549973870717,5.68492242663573,6.059132853838591,6.51543305200914,7.07258117642866,7.755636792770448,8.59853829605108,9.647937974424217,10.969040983376189,12.654666705509449,14.83953811592799,17.723036463344876,21.60525843040547,26.941892156895683,34.41697921007142,44.99776773383827,57.38245609318972,71.06052723582758,85.34282267611422,99.41846182251135,112.47631321890452,123.82095239911474
A1,0.0,0.0,0.0,0.03142991951471471,0.09382998202931528,0.17867434312823416,0.27700078980207476,0.3815055241075951,0.48682074983578416,0.5892578305918739,0.6864459291445604,0.7769994487916276,0.8602465561117374,0.9360184618382283,1.004490149609182,1.0660621024597094,1.121273788875119,1.170741368018647,1.2151136658661585,1.2550418086610666,1.2911589704694593,1.3240675327168434,1.3543316075465106,1.3824733819934618,1.4089721282918188,1.4342650228658855,1.4587491430805861,1.4827841826597248,1.5066955563411635,1.5307776615850135,1.5552971375698972,1.580496015185573,1.6065946908078825,1.633793924025942,1.662278683678005,1.6922199012703318,1.7237764281997032,1.7570968455666942,1.7923210691070903,1.8295817536105856,1.8690055123677636,1.9107139679306995,1.954824649241654,2.0014517485890138,2.0507067501523593,2.1026989401395233,2.157535806713188,2.215323336065075,2.2761662091280876,2.3447197375524773,2.4246387829982057,2.5193877467947194,2.632694535891149,2.76888991461951,2.9332498891154963,3.1324152618143692,3.3749579725290197,3.672184125379831,4.039308532843884,4.497215107569129,5.075152216627839,5.8149359235658125,6.777588483163991,8.053824603885765,9.780136955607103,12.160985043578581,15.489653377096259,19.5894707864983,24.374513674902367,29.68836348680122,35.31302106797628,40.99574124182721,46.480839244139574
IH1,0.0,0.0,0.0,0.0,0.02821027133879234,0.1056884946268895,0.24184308575199615,0.4374184406115208,0.6881177102526419,0.9872804664999391,1.327550868303971,1.701805874934875,2.1036102435605937,2.5273921144473004,2.96846457638464,3.4229693390227025,3.887786605349452,4.360435506092861,4.8389777370003575,5.321930292019863,5.808189433302416,6.296966050273179,6.787731586282773,7.280173306277239,7.77415758065406,8.26969991795077,8.766940606953522,9.266124980504166,9.767587464340618,10.271738713038705,10.779055256889887,11.290071187462516,11.805371496647899,12.325586756004352,12.85138819938011,13.383485035137689,13.922621810062784,14.469576270126705,15.025157696232,15.590205625420873,16.165588874914132,16.75220480151217,17.35097874126333,17.96286358330987,18.588839438270114,19.229913366079177,19.887119131318254,20.56151695597805,21.25419324049184,21.966260223841246,22.702941103339512,23.471696486850867,24.281675060639774,25.143758066713396,26.07092320583392,27.07885161263832,28.186798520760604,29.418813081135056,30.805459854038656,32.38628782418739,34.21343925794921,36.35702997516328,38.913326581757254,42.01738206073432,45.86273974242237,50.731889402520686,57.040930948342016,65.39470308036347,76.13083661216679,89.4810365223013,105.53655289530698,124.22542664244459,145.31428707697913
IN1,0.0,0.0,0.0,0.0,0.028210273345267142,0.10076671994432941,0.21939650163307506,0.3769483878194354,0.5625669507842133,0.765001357153797,0.9743202375082344,1.1825868846406529,1.3839463003351047,1.5744218085936792,1.7515974239794825,1.914281583507201,2.0621989159073713,2.195728818352553,2.3156946784321106,2.4232002613273216,2.5195067433059366,2.605943119356908,2.6838430918662004,2.754502413523059,2.8191516652044806,2.8789404245880448,2.934929646213435,2.9880898031798875,3.0393029356891286,3.089367225504449,3.1390030858227975,3.1888600411875148,3.2395238885427027,3.2915237927290075,3.3453384067556904,3.4014030289232515,3.460115451486182,3.5218411897075095,3.586918190176313,3.6556610309924995,3.728364629956029,3.805307488127968,3.886754502656119,3.972959384842323,4.064166718670775,4.160613692588529,4.262531533947446,4.370146671606622,4.483681648006597,4.603355797704522,4.733471255964981,4.879827412682456,5.048918737149271,5.247869228571021,5.484698974196279,5.768788375856432,6.1115266900858565,6.52719908688446,7.034224386419487,7.65692985049339,8.428164031931196,9.393236456969133,10.61598323064007,12.188256654953925,14.244863211421848,16.986701433753765,20.714153409977058,25.865243137593154,32.536254226200526,40.703478437019896,50.209780572389974,60.76504332696281,71.9708237375263
D1,0.0,0.0,0.0,0.0,0.0,3.7275645302066805e-05,0.000176927149922794,0.0004964865393020899,0.0010744694464851524,0.001983713862655519,0.0032882570214554305,0.005042416515104174,0.007291097905127326,0.010070703544188715,0.013410273407447297,0.01733265441939118,0.021855595352107585,0.026992722633540408,0.0327543845947335,0.03914836838818202,0.04618050159616234,0.053855153376816275,0.06217565019693612,0.07114462011492427,0.08076427795668335,0.09103666197662522,0.10196383092136958,0.11354802890814002,0.12579182422473906,0.13869822705245682,0.15227079019105477,0.16651369610365016,0.18143183297531604,0.19703086197022873,0.2133172774583663,0.23029846074462984,0.2479827302464725,0.26637938818832896,0.2854987644693632,0.3053522583321535,0.32595237834164625,0.34731278107452307,0.36944830882997787,0.39237502660009915,0.41611025847715405,0.44067262362268866,0.4660820718770112,0.4923599190453788,0.519528881857499,0.5476131125584177,0.576638233050288,0.6066367669076382,0.6376510957800622,0.6697356899348094,0.7029593975695163,0.7374082149682252,0.7731888586840476,0.8104334881752886,0.8493060402486263,0.8900108381960027,0.932804463364896,0.9780123952924915,1.0260527610626426,1.0774708896500995,1.1329905623043508,1.193591298776839,1.260625886716857,1.3359969274344363,1.4224062259265633,1.5230017157048696,1.641237493681239,1.780688230077335,1.944833511964578
R1,0.0,0.0,0.0,0.0,0.005418653983392735,0.027118611769503573,0.07770108146572688,0.16863711887473049,0.30881739690683985,0.5041473688424225,0.7577396648993235,1.0703794743632453,1.4410673197638184,1.867535749515683,2.3466936704830275,2.8749844246547793,3.4486604367382907,4.063984779196224,4.717372432151296,5.405483829504885,6.1252818995884555,6.874062008072726,7.649462395433523,8.449461059284294,9.272363633883133,10.116785674279422,10.981631840686191,11.866073767820655,12.769527859780347,13.691633841260527,14.632234592348127,15.591357573081206,16.569197986148993,17.566103716119695,18.582561878144173,19.619187117638706,20.67671151510221,21.755975888623784,22.857922358518735,23.98358804677312,25.134099786176673,26.310669718875083,27.514591671290184,28.747238200697943,30.010058217297882,31.304575093782265,32.63238518187945,33.99515666190321,35.39462865687303,36.83261054721217,38.31176618154967,39.83624104416635,41.41192996646824,43.04666857543667,44.750471514184404,46.53588285368444,48.418491155477874,50.417671372351705,52.5576421983403,54.868973088074874,57.390749202306836,60.17372257159735,63.28497366976888,66.81492618808724,70.88805910970815,75.6793643488409,81.43923317263565,88.52858907465412,97.36532513531486,108.37378558638976,121.94925974258652,138.42117141997494,158.0207498570669
G1,0.0,0.0,0.0,0.14105137337874085,0.4454085989308743,0.8987714726264424,1.4782848612554678,2.161602058725702,2.9294136852178734,3.765792948207323,4.657873120737152,5.595374686627842,6.570149300777317,7.575786373518258,8.607287506056883,9.66080168492367,10.733411496927381,11.822961097738936,12.927917978225448,14.047261960166578,15.180396086972433,16.32707510827204,17.487348101405207,18.661512455186816,19.850076990185165,21.05373243027904,22.27332779343752,23.509851552661324,24.764416644709414,26.03824858577382,27.332676098623313,28.64912377210108,29.989106366994903,31.354221042455123,32.74614942293864,34.16665324963809,35.61757230319229,37.100823179189334,38.61839854448308,40.17236673541046,41.764871612514455,43.39813260174229,45.074444859165006,46.79617950075269,48.56578384153649,50.385781589694496,52.25877294073626,54.187434515047975,56.174519078597726,58.24328273746138,60.41609366677427,62.71729312170543,65.17508538604072,67.8232645957819,70.70321773498915,73.86653886461448,77.37862671749367,81.32378268124589,85.81259739351097,90.99287527297915,97.06611702549367,104.31285469936886,113.1321678021117,124.10360376804907,138.0823401517763,156.33418317619413,180.68176224512027,211.06555620901594,247.6966078901251,290.40311187332634,338.61587726614675,391.4411101017545,447.7762708476479
H1,22772.36825762386,21325.102924965227,20088.167530873667,18938.554034455246,17870.02886757445,16876.803703605616,15953.503654516044,15095.137739585807,14297.071463504604,13555.00135317577,12864.93131331985,12223.150670963447,11626.213788178702,11070.921131055502,10554.301690889784,10073.596661001086,9626.244279491522,9209.865754664677,8822.252195771542,8461.352477274446,8125.261969949105,7812.212076907789,7520.5605170492445,7248.782302547737,6995.461360807018,6759.28275484596,6539.025459370802,6333.555652842048,6141.8204886793,5962.84231137986,5795.713285771569,5639.5904098902765,5493.690884080193,5357.287810872632,5229.706202016108,5110.319270718424,4998.544988728443,4893.84288934044,4795.711098755131,4703.683579486193,4617.3275706661525,4536.241211187428,4460.05133261885,4388.411409770855,4320.999657648726,4257.517264337589,4197.686750109772,3911.180804063388,3637.323622320385,3375.512459049782,3125.227530550586,2886.0267315389574,2657.540731889172,2439.4683360821464,2231.571964871654,2033.6730895403846,1845.6474135226117,1667.4195551523696,1498.9569418402473,1340.262586220563,1191.3663895251154,1052.3146235985753,923.1573046246638,803.9333188516481,694.6548087612395,690.0077351719425,685.5306993531211,681.2121385755477,677.0413139210522,673.0082514464289,669.1036875498933,665.3190182399087,661.6462520276403
S2,119385.39763241955,126491.67130101596,132970.9925398532,138909.73206796468,144347.08545075546,149319.41220292344,153860.4568042627,158001.54309365488,161771.75028482237,165198.07457076845,168305.5784397262,171117.52902563097,173655.5264560763,175939.6229842402,177988.43359175877,179819.23868313024,181448.07944101252,182889.84636838027,184158.36150486357,185266.45476935914,186226.03484855022,187048.15502093398,187743.0742781045,188320.31407919282,188788.71105037164,189156.46591905397,189431.18895173052,189619.9421451823,189729.27840297075,189765.27791254656,189733.58192294108,189639.2749440096,189487.4205257737,189282.46672224475,189028.5756286544,188729.61565440823,188389.17566381788,188010.58319427576,187596.92257528118,187151.0520200701,186675.6195346239,186173.0776692696,185645.6971764896,185095.57964302276,184524.66916086213,183934.76309657007,183327.52201293563,184642.67829635594,185899.3494105777,187096.6062545371,188233.27989550913,189307.9567100484,190318.95746106227,191264.30393290665,192141.67109623557,192948.31820082938,193680.98615191074,194335.73847096023,194907.70509322052,195390.65492700477,195776.26083603853,196052.8049595861,196202.86586129677,196199.21096254527,195997.85865207572,194648.14121056846,193158.7299098303,191474.58138388646,189585.0024261448,187488.08089059615,185194.12563853856,182722.97881702145,180101.13256171963
E2,0.0,0.0,0.34151345499150465,0.7906805461317219,1.2609192675315901,1.7236625666121874,2.172433094209832,2.60862849314883,3.0360304989144047,3.4587738619915416,3.8806640015976264,4.3050054792386225,4.734612917539734,5.171878204598842,5.618847304082366,6.077290794966756,6.548763908491649,7.034656008345297,7.536230779151595,8.054658648110077,8.591042860356385,9.146440422851219,9.72187891902971,10.318370007504114,10.936920259444499,11.578539859242817,12.244249587695373,12.93508642196216,13.65210801816723,14.396396287481844,15.169060232251798,15.971238173063668,16.804054061276897,17.668733304444498,18.566509156081707,19.498643129583222,20.46642883790391,21.471192123812486,22.51429026900702,23.597110798834265,24.721069923931903,25.887610572789548,27.098199954530415,28.354326584511675,29.65749669592675,31.009229947764112,32.41105432364624,33.864500097364534,35.739719555650495,38.028528582079375,40.77468864464445,44.05762584283217,47.99035660383106,52.72545954733324,58.4674820780879,65.49271513489985,74.17933004128383,85.05338604949594,98.86006199091781,116.67578450922207,140.08728761045802,171.479465031717,214.49252555851848,274.7064762382861,360.47990188485574,483.25738957998794,605.7725195008275,733.6161330546024,859.2507935064174,974.7012782972716,1073.2983025159933,1150.5711146896767,1204.3883649702261
I2,0.0,0.0,0.0,0.05585642634259171,0.16283406170446255,0.3039308065779242,0.46427310024938473,0.6338773992914875,0.8069821695803062,0.9807490143376393,1.1541511568574516,1.3271949285751639,1.5004246077789034,1.6746271086553968,1.8506657863537805,2.0293932827370718,2.211610770997494,2.398053321802165,2.589389215739744,2.786226103839132,2.989120006620567,3.1985849782969114,3.4151023307843533,3.639128918238621,3.871104315564943,4.11145689803819,4.3606089121172,4.618980660071892,4.886993926664201,5.1650747683109826,5.453655771470157,5.753177871536874,6.06409180843036,6.386851854617535,6.72193099581919,7.069814728959852,7.43100067974727,7.8059990012212594,8.195332634186723,8.599537334119917,9.019161491817407,9.454765770907343,9.906922568570627,10.376215293352963,10.863237445372448,11.368591477541681,11.892887410313769,12.43674116620659,13.000772583546958,13.645894032021737,14.407314377666639,15.313316372923879,16.393860250831548,17.68540661789183,19.234786921677724,21.103554898789277,23.373831714031347,26.156742093772394,29.60500079613174,33.932114826386396,39.44224396346252,46.577403262835745,55.99286441684299,68.67716686993568,86.13607553102968,110.64014246340244,145.42352489509355,186.33158689231814,231.7859599867083,279.606833315529,327.181928251384,371.85307886459543,411.29416922291534
A2,0.0,0.0,0.0,0.012446266507546426,0.03911638582454452,0.07832604800036418,0.127640215176153,0.1848075971847971,0.24801597232501912,0.3159033769811024,0.38749334461651536,0.46211644211759545,0.5393390824256148,0.6189050081094578,0.7006893126483174,0.7846631879449062,0.8708673203011267,0.9593920610556512,1.050362819166931,1.1439294368249264,1.2402585783418045,1.3395283815326802,1.441924794509735,1.5476391568293406,1.6568666896125277,1.769805640937481,1.886656895660888,2.0076239070059474,2.1329128440322798,2.2627328770472452,2.397296544139468,2.5368201578814613,2.6815242230791494,2.8316321903342736,2.987373645690586,3.1489835387988228,3.316702288123147,3.4907760079445587,3.6714567009749586,3.859002388940371,4.05367717708972,4.255751250788543,4.465500800997742,4.683207873777076,4.909160137334561,5.1436505584604255,5.386976978324212,5.639441575497331,5.901350201630159,6.186445970909636,6.505804359693543,6.870186246520925,7.291391927646792,7.7833060976063955,8.362980311879664,9.051980979627093,9.878225636298028,10.878600955539367,12.10280612369749,13.619129597527817,15.523316374533701,17.95243223254,21.106828332718738,25.28497979949403,30.937263585857956,38.74103365129558,49.67395676821457,63.18699194237638,79.02951030261562,96.71939482015995,115.56699500857704,134.75850075478135,153.45747229461915
IH2,0.0,0.0,0.0,0.0,0.011171283947081882,0.04361161841888087,0.10390403014291202,0.1955823053054424,0.3201435144128065,0.47791547242350796,0.6686546036996417,0.8919147348914633,1.1472560102208678,1.434352409315763,1.7530389856135633,2.103325330978871,2.485391457035862,2.899575572053582,3.3463590694428826,3.826351548693191,4.340277237996088,4.888963370393128,5.473330624361384,6.094385517426398,6.753214542796744,7.450979808081632,8.188915939307993,8.968328034151023,9.790590475262245,10.657146442368397,11.569507987726544,12.529256562402102,13.538043900367887,14.59759318371129,15.709698940254611,16.876229978475358,18.099131048789374,19.380424409541945,20.72221145497949,22.126674376877048,23.596077812735125,25.132770439446542,26.73918647642307,28.417847063848896,30.17136148089284,32.002428166170276,33.9138354988965,35.90846229414567,37.98927795940756,40.15934225212081,42.43386276163516,44.834916679231085,47.389987802396334,50.13224082082361,53.10175707557998,56.34753042124386,59.93031078167624,63.92658454059873,68.43419709524848,73.58042904887425,79.5338214124568,86.52183903377218,94.85777455205377,104.98242803384261,117.529316959299,133.425939481546,154.04340358132282,181.384125814967,216.59692559143642,260.50194247660716,313.4740688282086,375.3614970526539,445.4825051002239
IN2,0.0,0.0,0.0,0.0,0.011171284741647077,0.04166259289151501,0.09470829675838671,0.16996714561022133,0.26516458078141536,0.37729632498570165,0.5033485835050274,0.6406621364217441,0.7870730841130833,0.940928411517371,1.1010395985415875,1.2666116101627105,1.4371676485435398,1.6124797343067432,1.7925092582790376,1.9773584405611464,2.167232040075915,2.3624079778741844,2.563215351149652,2.770018376811617,2.9832049750736553,3.203178909788715,3.4303546049480502,3.665153938380843,3.9080044680747847,4.159338673363073,4.419593894923126,4.68921273760009,4.968643762169358,5.25834233969452,5.558770092759727,5.870397476656068,6.1937046406017515,6.529182052472885,6.877331087175867,7.2386645577932205,7.613707153429582,8.002995759840484,8.40707964799408,8.82652051974438,9.261892400581335,9.7137813683483,10.182785104605262,10.669512252293096,11.174581559641648,11.698620785879205,12.25432353279072,12.859066842506262,13.532655842799644,14.29720813140678,15.17802421900273,16.205070346868293,17.41505610278464,18.854295066373744,20.582721204380245,22.679676357509095,25.252462918339173,28.44927962013798,32.47919449757709,37.64348736090889,44.38517140278665,53.3661057723119,65.57929381094799,82.4800811033005,104.42249877691157,131.37912916494577,162.8916863515331,198.06457323621078,235.6369517142299
D2,0.0,0.0,0.0,0.0,0.0,1.4761177337825761e-05,7.23873943886285e-05,0.00020968099665669696,0.0004681136984329823,0.0008911353682954372,0.0015226290331554152,0.0024061558712269024,0.003584687509516504,0.005100614371547464,0.006995896093786587,0.009312274360541096,0.012091503530329614,0.015375575820051227,0.019206930338140516,0.02362864228227126,0.028684592344473223,0.03441961817578103,0.04087965049170461,0.04811183654636625,0.056164653555937215,0.06508801437451582,0.07493336740722446,0.08575379243242925,0.09760409371946065,0.11054089157832493,0.12462271326472753,0.13991008398479893,0.15646561859521813,0.1743541144715405,0.19364264591617225,0.21440065843106548,0.23670006686847062,0.2606153557768253,0.28622368181586616,0.31360497832286066,0.34284206207443113,0.37402074222622356,0.4072299313583684,0.44256175850709784,0.4801116840175187,0.5199786160060696,0.5622650281713666,0.6070770786372245,0.6545247294500902,0.7047218662833413,0.7577864178212013,0.8138564072978429,0.8730990296466956,0.9357177955201833,1.0019600377372981,1.0721260506016952,1.1465808664524533,1.2257697895475839,1.3102391894370908,1.400664723697954,1.4978902321470033,1.602982256285456,1.7173078983174932,1.8426482297124462,1.9813667731586433,2.1366641497402243,2.312966530333422,2.5165117995036805,2.756183735165169,3.042384107891189,3.386598379765439,3.800807376931937,4.296791334553328
R2,0.0,0.0,0.0,0.0,0.002145790146166596,0.011076839641461248,0.03275715965515757,0.07339769160963852,0.1387931819751684,0.2340183249224848,0.3633581224602519,0.5303668636570539,0.7379849086776327,0.9886714379371971,1.2845310796196805,1.6274244639709674,2.019059641693829,2.4610648942726168,2.9550451061581535,3.502624423619322,4.105477913739083,4.765354661500962,5.4840943706431124,6.2636391526098745,7.106041839310005,8.013471855887005,8.988219442298718,10.032698813630756,11.149450692452119,12.341144525198288,13.610580601902296,14.960692228724714,16.39454805070393,17.915354583891148,19.526458702976615,21.231350573987914,23.03366696282599,24.937194738557352,26.945874547570728,29.063804646534074,31.295244873162066,33.64462072593417,36.11652751873142,38.71573457268941,41.44718940437318,44.31602186604656,47.3275481899608,50.48727488396834,53.80090242017307,57.27432865156144,60.9159680317923,64.73865488294688,68.76052798557225,73.00571495663564,77.50517804937448,82.29792065077582,87.43272162877382,92.97060069467466,98.98830640270775,105.58326919185389,112.88070637942238,121.04396315649714,130.28982380073944,140.91158947913306,153.3144022581322,168.06969332362078,185.99791379243777,208.2862690108168,236.31771875935752,271.5092766275833,315.19794463796444,368.52043049535666,432.30522729082986
G2,0.0,0.0,0.0,0.05585642634259171,0.18517663039319152,0.39140699456020495,0.6733216008056637,1.028635124584569,1.455290833614769,1.9518505195009161,2.5175522353024733,3.152256431571921,3.8563640382884046,4.63073633262691,5.476625798373484,6.395619548059141,7.389594282261093,8.460681068281826,9.611238211587889,10.843830700299424,12.161214952419364,13.56632782783296,15.062279065796927,16.652346472558065,18.33997331675985,20.128767497362944,22.022502134607752,24.025117303115326,26.140722680892786,28.373600931492994,30.728211671062517,33.20919589925401,35.82138079438768,38.56977736328418,41.4595970349898,44.496252944027205,47.68536455245604,51.03276289993466,54.54449587508552,58.226833357507125,62.08627216429103,66.12954074166088,70.36360353482576,74.79566495921298,79.43317288522124,84.28382153607131,89.3555536836696,94.65656201014832,100.19528948243543,106.0407195341291,112.26049704103552,118.9294243106166,126.13529423097108,133.9843841558857,142.60792652161234,152.1706086309095,162.88230670734362,175.01474899924932,188.92570367358232,205.09481704265036,224.1777909874561,247.08984656705735,275.13626748493715,310.2177138519445,355.14748698846245,414.1059812829757,493.14541703890865,592.2228841820579,712.2098858676011,852.7451355212306,1012.1629545310142,1187.7068656182205,1375.8891752176364
H2,22772.36825762386,24127.866368196712,25363.851501310935,26496.76999754821,27534.086119086103,28482.730012971348,29349.13587259828,30139.277373247063,30858.70057639311,31512.55448359114,32105.619407822847,32642.333318204946,33126.816302818945,33562.89328408387,33954.11511149159,34303.77814760881,34614.94245497069,34890.44868380376,35132.93375337739,35344.845413154195,35528.45576375529,35685.873812040285,35819.05712929512,35929.82267659275,36019.856856815284,36090.72484857751,36143.879273345345,36180.66824337962,36202.342834732866,36210.064026367894,36204.90914353351,36187.87784080846,36159.89765769576,36121.82917730035,36074.47081644244,36018.56327353356,35954.79365866186,35883.79932858697,35806.17144772334,35722.45829468533,35633.16833256905,35538.77305984795,35439.70965755362,35336.383447293614,35229.170173618986,35118.41812328891,35004.4500930834,32949.365712349616,30935.316170886596,28964.697523499384,27039.951466812276,25163.57940832004,23338.15477132152,21566.332854799333,19850.857314007324,18194.56201549169,16600.36664841549,15071.264051707914,13610.29677160117,12220.519954461979,10904.947407858182,9666.477690290527,8507.79764703285,7431.262184832345,6438.764403131962,6411.730646577623,6384.6867866306475,6357.645089124553,6330.6168479618,6303.612455528044,6276.641468065551,6249.712666365953,6222.834112116828
S3,358156.1928972586,356592.8126901674,355126.50951734034,353749.3206451152,352454.18265003595,351234.48443417595,350084.0753138487,348997.24713960575,347968.7082081729,346993.5554848326,346067.2474757718,345185.5785362148,344344.65482478146,343540.87190449785,342770.8939174402,342031.63423750165,341320.23750210565,340634.0629267984,339970.6688119992,339327.7981570916,338703.365302875,338095.4435289516,337502.25353783695,336922.1527624414,336353.62543809006,335795.2733844522,335245.8074466517,334704.039548457,334168.8753138146,333639.3072161175,333114.4082175045,332593.0944017632,332074.90692951437,331559.0392424561,331044.807205481,330531.5961062245,330018.8448392944,329506.03917820187,328992.70740575553,328478.416672494,327962.7696737188,327445.40152919386,326925.9768204246,326404.1867575258,325879.74645163777,325352.39226944867,324821.87924597424,327726.3485397025,330759.00318971556,333926.2009540713,337234.8504755236,340692.4526930798,344307.11751991505,348087.5548926799,352043.0302319299,356183.26563841617,360518.25606698106,365057.9501781064,369811.71179377293,374787.417083418,379989.92992743145,385418.4863126436,391062.129060406,396891.6877997712,402846.0072351538,401012.8611465646,398940.89163090504,396531.26395457174,393757.83206929284,390608.8248057587,387094.4540615823,383243.00013692566,379096.1424815752
E3,0.0,0.0,0.5501491226797334,1.229839281276551,1.8982871231290455,2.516142302999439,3.0794889000670227,3.595644392019745,4.074489186450323,4.525537908181579,4.957103141827796,5.37619455354633,5.788653118163137,6.199340166101933,6.6123198683285604,7.031017340312414,7.458349954643436,7.896834430278278,8.348673464763426,8.815825576897725,9.300061345306242,9.803008688726605,10.326189342775205,10.87104827205164,11.438977414521961,12.031334877758917,12.649460482991415,13.294688373108187,13.968357256348705,14.671818741463431,15.406444127009479,16.17362993263175,16.97475725912559,17.811309370903228,18.684780495141652,19.596697932996218,20.548627380029558,21.54217435972994,22.578984581294286,23.66074375853831,24.789176947792072,25.96604737112542,27.19315467247546,28.472332543788713,29.805445645408987,31.194385728825132,32.64106685082935,34.147419546127956,36.089214132150644,38.46578279869222,41.3302254298668,44.7738146981624,48.92504925385386,53.95731241801195,60.10379310449319,67.68106846101752,77.12512747331056,89.04667971650873,104.3174139769088,124.20694763564106,150.60374471384267,186.37472319967003,235.94605993187264,306.1961592070226,407.6152285050497,554.9693147077866,701.9901089701629,855.4600402664291,1006.6739008414277,1146.315093333601,1266.5089617707154,1361.8928395670084,1429.8100426105984
I3,0.0,0.0,0.0,0.08997995100710275,0.2551350330132765,0.46355645263099726,0.6896629647940302,0.917465350970877,1.1385668937166697,1.3495455579403117,1.5499042923197104,1.7407044355246013,1.9237292607060357,2.101004055755848,2.274539091123908,2.446205246928283,2.617685248000081,2.790465881818101,2.9658508443116114,3.1449826165247066,3.3288670137718257,3.5183971132636445,3.7143750165262492,3.9175308728314953,4.128539103769234,4.34803202151722,4.57661113945544,4.8148565008508895,5.063334338177919,5.3226033441233565,5.593219797451642,5.875741748951168,6.170732437674042,6.478755693792104,6.800392411577219,7.136235516783017,7.4868905634858365,7.8529769623750525,8.23512895218724,8.633996241084093,9.050244361860951,9.484554776781053,9.937624748008073,10.41016697464557,10.902908986702988,11.416592277787531,11.95197115057308,12.509811241330445,13.090887681543546,13.757124876987891,14.545568249101963,15.487129833562275,16.61528500638397,17.971135663727747,19.60770075181955,21.594930984881945,24.02657474826222,27.030189501492316,30.78219467458309,35.53101148398008,41.63334565682859,49.6120894425961,60.2498786017794,74.7402204735483,94.92422080708576,123.62227493204581,164.9416892912074,213.7794084566691,268.18290301087535,325.55687005931134,382.8203464270482,436.8368102945482,484.84725449893364
A3,0.0,0.0,0.0,0.020049876511996124,0.06141399462617214,0.12000796702295352,0.1910174711287614,0.27031548085199597,0.3547531686128916,0.44208466423601056,0.5307980504425203,0.6199450185163689,0.7089962156187045,0.7977264226829449,0.8861264178464707,0.974336685569221,1.0625983165970765,1.1512171585985425,1.240538050194203,1.3309266544137006,1.4227569695199627,1.5164030426046269,1.6122337620101002,1.7106098769358684,1.8118826027852286,1.9163933323070155,2.0244740961339622,2.13644851041643,2.2526330205716163,2.373338303930596,2.4988707343332,2.629533841652476,2.7656297212752676,2.9074587194825052,3.055323458298399,3.2095288426742763,3.370382872264692,3.53819750714987,3.7132894365476354,3.8959807280352834,4.086599358243073,4.285479627923846,4.4929624625759566,4.709395597683054,4.935133645503806,5.170538038112047,5.415976838952765,5.671824412469328,5.938460938312482,6.229895790181836,6.557698727225496,6.933380027626137,7.369791929259554,7.882253949944488,8.489763314392398,9.21654048296021,10.09416768070544,11.164671594856117,12.485090298365542,14.134396463241712,16.224218025523836,18.915761795645437,22.446925052751673,27.175900091504175,33.64980489706661,42.703741682633705,55.56697773480626,71.5706267559205,90.40830316094001,111.50918714520844,134.0613325353297,157.1057887634057,179.6534931057415
IH3,0.0,0.0,0.0,0.0,0.01799598807269883,0.06881924975778553,0.1607514024960709,0.29686405622974,0.476996202801372,0.6993093135929416,0.9613012676753443,1.2603988612538868,1.5942702903837935,1.9609668048771711,2.358966774559745,2.787167850207605,3.244854338657709,3.7316551942863008,4.247500929667624,4.792583583222412,5.36732151541899,5.972329513359438,6.608394019346815,7.276452992381763,7.977579802339781,8.712970551402215,9.483934262679439,10.291885442034648,11.138338589854595,12.02490430681838,12.953286697955068,13.92528183126378,14.942777050973463,16.00775098182536,17.122272613878295,18.28850369227088,19.508700073404853,20.78521318514276,22.120491716132257,23.517083480291816,24.977637388463467,26.5049054687855,28.10174488515864,29.771119906947007,31.516103783787248,33.339880477965565,35.245746203720266,37.237110718211134,39.317498302779384,41.49054836542171,43.77224399081277,46.185796396940965,48.76033642587325,51.53136019362543,54.542182330515914,57.846230874759,61.51031912823202,65.61925365088092,70.28239236678306,75.64313900249783,81.8929579982004,89.29248729509415,98.20399249851967,109.14216501164854,122.8545706756737,140.44853298344546,163.5829180300667,194.71927249816858,235.270664073708,286.2436567713131,348.1143584244844,420.7372941211493,503.34133163194326
IN3,0.0,0.0,0.0,0.0,0.017995989352675764,0.06567953533905851,0.14618828139701984,0.25696068232150127,0.3927132564653494,0.5474647919379243,0.7156609136852399,0.8926797785952552,1.074970499234942,1.2599985588751175,1.4461053838637234,1.6323425994838092,1.8183122046854976,2.004026687616036,2.1897935737430867,2.376123992835792,2.5636626085344894,2.7531354760717015,2.94531237298385,3.1409804808488095,3.3409267613549862,3.5459268516185003,3.7567387462829718,3.974099915538898,4.198726824320411,4.431316072694023,4.672546578576567,4.9230823801009675,5.1835757545223,5.454670440913096,5.73700334468832,6.031209220044128,6.33792347592706,6.6577845800529944,6.991436261943699,7.339529500950083,7.70272427319803,8.08169104501248,8.477112009846477,8.889682069488838,9.320109560382031,9.769116723791349,10.23743991516016,10.725829543663036,11.235049727895323,11.765877647855064,12.331330972558606,12.949417914279591,13.640983363040522,14.429694530922195,15.343041899417234,16.41401230764447,17.68345414259111,19.203376283409224,21.041636418421554,23.28876890316588,26.068172039984223,29.551659216874462,33.98370121642292,39.71987596545134,47.28840035335862,57.48757547490499,71.53146584247067,91.2300372958988,117.03637275901033,148.9288714333651,186.3708851584547,228.3092765330133,273.2592652447392
D3,0.0,0.0,0.0,0.0,0.0,2.377900092494691e-05,0.00011471332456606712,0.00032712220887954333,0.0007193835639745532,0.0013496625518128118,0.002273694994353586,0.003543910535776567,0.005209338717129185,0.007315927950046268,0.009907051664876083,0.013024072685759816,0.01670689724756392,0.020994485903910932,0.025925308927245455,0.031537744772794016,0.03787042564577263,0.0449625365520506,0.0528540748465058,0.06158607704964436,0.07120081905420661,0.08174199505034221,0.09325487969795673,0.10578647733479432,0.11938566135608533,0.13410330634232165,0.14999241504138905,0.167108241920551,0.18550841468172957,0.20525305486936257,0.22640489848391881,0.24902941538612108,0.27319493185888155,0.29897275496123016,0.3264372988116755,0.35566621310375446,0.3867405140852203,0.4197447181424743,0.4547669780546172,0.4918992219146008,0.5312372946530448,0.5728811020393324,0.6169347569717826,0.6635067278017798,0.7127099883637269,0.7646621693015851,0.8194857101914941,0.8773241698603798,0.9383517772807466,1.0027812534666396,1.0708722222291136,1.1429415411710135,1.2193766650396693,1.3006533323465874,1.3873593407610851,1.4802269880581298,1.5801780585433933,1.6883873280827573,1.8063739665159104,1.9361358233821322,2.0803508357659166,2.242684736962634,2.428266422293232,2.6444167299856245,2.9017090632620244,3.2125839824952074,3.5908120715353036,4.050793019373401,4.606734291708667
R3,0.0,0.0,0.0,0.0,0.003456685378319092,0.01756814161058515,0.051148766465382176,0.11284870373459413,0.210161389058456,0.3490541633434618,0.5339775406610812,0.7680644105975287,1.053399750224186,1.3912942397649317,1.7825293576832912,2.2275616313879745,2.7266845872624974,3.280152215598698,3.8882698458536074,4.551458699150863,5.270299921212084,6.045563091741963,6.87822331878148,7.769470188995632,8.720711113097744,9.733570995437482,10.809889663874015,11.951718107137385,13.161314265743744,14.441138893128052,15.793851831528649,17.222308919940033,18.72955965892911,20.318845691043254,21.993599825760985,23.7574460658742,25.614200528952516,27.5678730436416,29.622669356458196,31.782993897307787,34.053453044928766,36.43885882811047,38.94423299613655,41.574811391049664,44.33604855384696,47.23362249588037,50.273439565112945,53.461639334175466,56.80459943314475,60.30894024441296,63.983878212587676,67.8432028302928,71.90626585314003,76.19879887935562,80.75392672885076,85.61359000261635,90.83056788840277,96.47134180311677,102.6201494933399,109.38476311234756,116.90482437484405,125.36406083504033,135.00852022788396,146.17430746411762,159.33049076243722,175.14607643267544,194.5934348726705,219.09901605740603,250.33483841822192,290.0184067212418,339.7748663786309,400.994437485709,474.7048967423205
G3,0.0,0.0,0.0,0.08997995100710275,0.29112701043865113,0.6016024348191794,1.0131315126953742,1.5167990619686562,2.104886714743566,2.7712920987783187,3.5114690116769305,4.322230820522857,5.201537362313643,6.148303797989029,7.162240386136505,8.243722103125188,9.393684122022554,10.613538768420531,11.905109991303839,13.270582003100587,14.712459342889069,16.2335361377363,17.836872769879434,19.525778509885274,21.303798960323213,23.17470738296416,25.142499165631445,27.211388831367486,29.38580910970967,31.670411683378855,34.07006929822977,36.589878983628445,39.23516617750154,42.01148220449763,44.92462098541541,47.98062083022485,51.18576984750047,54.54661222404032,58.06995473894491,61.7628733362135,65.63271966772218,69.68712752791107,73.93401909600344,78.38161089300486,83.03841935044463,87.91326587542949,93.01528128155121,98.35390943704311,103.93890995983458,109.84150179471452,116.13279466239591,122.89258306517931,130.21558965895164,138.2175537690437,147.04257252795574,156.8728824129206,167.9424978556702,180.55674171315783,195.12082179240758,212.18251545304474,232.4972530437523,257.12933371458996,287.6119570091312,326.2022483279233,376.2823343777013,442.9500736844216,533.7183939256994,648.5327833496688,788.448034212511,953.0951535910356,1140.581367209712,1347.7259569803787,1570.471110847508
H3,68317.10477287158,68018.89518854556,67739.30756635765,67476.76394974884,67229.89532156698,66997.43293340018,66778.20111149056,66571.11057690192,66375.15224320449,66189.39145756341,66012.96265355505,65845.06438629713,65684.95472258043,65531.9469606401,65385.405656016716,65244.74293163909,65109.41505182316,64978.91924133143,64852.79073198466,64730.60002056785,64611.950322934,64496.47521028758,64383.8364146309,64273.7217912863,64165.84342727073,64059.9358851008,63955.75457235088,63853.07422797826,63751.687517071055,63651.40372627086,63552.047552675365,63453.45797954037,63355.48723257764,63257.999811088244,63160.87158858275,63063.98897792125,62967.248156361595,62870.554346233126,62773.8211472596,62676.96991683867,62579.92919484936,62482.63416980382,62385.02618338698,62287.05227063915,62188.66473323256,62089.8207434749,61990.48197684224,61890.61427100049,61767.11350579394,61620.66513337525,61451.97741825783,61261.78179056774,61050.833363840626,60819.91159499102,60569.82105616132,60301.39227728864,60015.482603733755,59712.976994517114,59394.78866303551,59061.85943336261,58715.15965182819,58355.68745720412,57984.46717708802,57602.54658926744,57210.992774652506,56810.88645871054,56413.79253163293,56019.685769900636,55628.54130621247,55240.33461494596,54855.041498577695,54472.63807499509,54093.100765636394
S4,179078.0964486293,182062.7313894398,185033.49092161088,187991.63750366232,190938.0830556707,193873.5717581496,196798.75073029476,199714.19944935018,202620.44323232578,205517.9604546989,208407.18721722838,211288.52089368718,214162.32311954495,217028.92244617068,219888.61675554744,222741.67547999122,225588.34165132302,228428.83379567883,231263.34768645957,234092.05796604775,236915.11964577535,239732.66949279874,242544.8273118573,245351.6971292999,248153.3682862245,250949.91644708664,253741.40452967657,256527.88356194732,259309.39347078803,262085.96380747884,264857.6144142333,267624.10855414864,270385.7916150668,273142.5655107794,275894.3904243701,278641.234554421,281383.06207115937,284119.83026286174,286851.48885363556,289577.979786106,292299.2370483657,295015.1864356917,297725.7452118812,300430.82165155496,303130.314446924,305824.1119608889,308512.0913055201,314496.1734118472,320479.5290714182,326460.0117184202,332435.0131621467,338401.4368932235,344355.62376494607,350293.2368391535,356209.0971600558,362096.94910046266,367949.1162001694,373755.97904275917,379505.1543818032,385180.15866274585,390758.1603987686,396206.09492924577,401473.8275464132,406482.15349078283,411102.7287841585,412961.5479806748,414412.19530235743,415296.5262519008,415579.21264970576,415249.2196117824,414328.09465258074,412862.897790391,410918.8131237848
E4,0.0,0.0,0.8426556709678024,1.9085407920347202,2.984665859988791,4.00890633806649,4.973301729428038,5.8877828058359745,6.766852953093686,7.624945465914615,8.475017235196361,9.328311980963415,10.194513999019662,11.082004577213468,11.998119697641146,12.949377548923497,13.941669815307197,14.980419317485,16.070708932313234,17.217386846788603,18.425152624456217,19.698627836372243,21.0424143245782,22.461142577860336,23.9595122124578,25.542326153589954,27.21451979281757,28.981186137571747,30.847597760784893,32.81922619056674,34.901759244244595,37.10111670133442,39.42335342262423,41.87495101477298,44.46260108694825,47.19326393163722,50.07418756204853,53.11291763320518,56.31730493257526,59.69551166254775,63.25601655905924,67.00761865288551,70.95943942086939,75.12092303371179,79.50183435670098,84.11225429676844,88.96257201337744,94.06347342108717,100.50233575226069,108.29056505418123,117.59708388536711,128.70658325991204,142.01886188583947,158.07317098497782,177.59435182719767,201.56535110380793,231.33771814244722,268.8008783843963,316.64545359317447,378.78004596564097,461.00105480564594,572.0777849168318,725.4933820588561,942.0928064887852,1253.4405433660072,1703.457010049091,2159.873201626249,2643.6918490584435,3127.6290473368745,3581.7200588115716,3979.88005075949,4303.555339336457,4542.633424466621
I4,0.0,0.0,0.0,0.13782102499812515,0.3948450885588343,0.7250657795079469,1.0907184358612323,1.4678422756142206,1.8436850617653224,2.212967561161981,2.574882879420473,2.931066051504991,3.2843370714379017,3.6379718562050405,3.995306762382068,4.359543444726881,4.733668982227706,5.120439240126512,5.5223946701660385,5.941890876275875,6.38113416885883,6.842216974004,7.327150631102828,7.837894600735334,8.376381901527504,8.9445409931117,9.544314496482663,10.177675195060441,10.84663974867411,11.553280511936771,12.299735796560364,13.088218863823666,13.921025883455032,14.800524863549182,15.729196711885384,16.70962442313648,17.744496188767176,18.836610376646156,19.98888014146348,21.204337416115507,22.486136334069883,23.837556119964525,25.262003439147286,26.763014159245117,28.34425444763322,30.009521102924737,31.762740992849643,33.60796944302956,35.549387389772946,37.76734999342672,40.371935878683445,43.456820448627695,47.124771748084186,51.50283991122554,56.75545256142733,63.09981810212895,70.8270279847813,80.33279050480904,92.16355669955344,107.08726337425489,126.20394628107042,151.1216602751526,184.23950693120366,229.2021908062511,291.6058440230101,379.9706932681589,506.59230354472686,657.2146823317739,826.7193471896294,1007.5727739655175,1190.3539482995754,1365.1439416906126,1522.956838451802
A4,0.0,0.0,0.0,0.03071011376468758,0.09497125716051563,0.18737227677787455,0.30117083151302104,0.4304968731661243,0.570854296633285,0.7190507125343406,0.8729701265561491,1.0313335575804088,1.1934922974382594,1.3592624167874485,1.5287971478387434,1.7024906606643555,1.8809067204441665,2.064726615935207,2.254711810429443,2.4516777302547514,2.6564759081738387,2.869982341980386,3.093090434229399,3.326707272568238,3.571752314382099,3.8291577735090296,4.0998701860102145,4.384852768618383,4.685088287140009,5.001582230274575,5.335366142899553,5.687501016412028,6.059080665753424,6.451230993449845,6.865120010087924,7.301958228126931,7.763001126405235,8.249551883562662,8.762964001777675,9.304643751152776,9.876052421638601,10.478708373262059,11.114188869964426,11.784131675678136,12.490236384263627,13.23426544729703,14.018044855088874,14.843464416422423,15.712477571046303,16.66632983119788,17.739571491518944,18.966952514500964,20.38760722337984,22.048493454798905,24.008126020005964,26.34134795778486,29.145921984908377,32.55201256112287,36.73620228217432,41.94268834354587,48.516014105616435,56.95256868885438,67.98275398354632,82.70243312908022,102.7782206191823,130.73974937991085,170.28118768705818,219.6393434672913,278.12043934374856,344.1559615281588,415.3557667158452,488.79113552697305,561.362093850933
IH4,0.0,0.0,0.0,0.0,0.027564201739091923,0.10622114613116627,0.25003171809428326,0.46534468284198705,0.7536447731599998,1.1138494655557187,1.5438326456583935,2.0413308907247956,2.6044334099671897,3.2318150440671065,3.9228208196183454,4.677470449634156,5.496423754825699,6.380930501569827,7.332777480183873,8.354239342394854,9.44803610853138,10.617298266647964,11.86553934861614,13.196635376213685,14.614810381488418,16.124627178421914,17.730982615661993,19.439106627071467,21.25456449323814,23.183261820177886,25.23145182534683,27.405744593628725,29.713118027025445,32.16093026215859,34.756929733171766,37.509273332969975,40.42654220629123,43.51775798595892,46.79239984124017,50.260422255277085,53.932273399530466,57.81891398467284,61.93183647618368,66.28308456230609,70.88527275391357,75.75160598197382,80.89589903944061,86.33259569061298,92.07678724190573,98.14423033293285,104.58657424467715,111.47689924086254,118.9061932963615,126.98496788586033,135.8478933687774,145.66100097502698,156.6318839123886,169.02400343665838,183.176979716237,199.5358781552328,218.69431275937006,241.45918414678772,268.9498686642056,302.75289006499406,345.1657513368244,399.57917092380364,471.04952489515495,567.0350570260251,692.0583755356095,849.5671902451745,1041.4634735936731,1267.7434624750738,1526.4196509212065
IN4,0.0,0.0,0.0,0.0,0.027564203699614584,0.10141208978747478,0.22758398052738538,0.4034450402583957,0.6220578008240412,0.8752232525771994,1.1552098257056196,1.4555610127291176,1.7713468616952974,2.0991173506410616,2.4367186173577107,2.7830642349869366,3.137909953832518,3.5016543188927534,3.8751730028818896,4.259687078415461,4.65666187692135,5.067731749317113,5.494645887173718,5.939230769238056,6.4033654265582385,6.888966390449629,7.397979813556206,7.932378798803672,8.494164424816327,9.085369323619307,9.708062957317711,10.364357966889282,11.056417139934261,11.78646067566994,12.556769886152042,13.369698422112865,14.227679250603254,15.133230958244546,16.088963879327554,17.09758600746114,18.161908607178027,19.284851467438518,20.469447757210382,21.718848448842976,23.03632627194058,24.425279152143098,25.889233077316792,27.431844318813898,29.05690091780143,30.768323326005405,32.60537464842153,34.62203905799969,36.881006137883666,39.45387203956878,42.42434115744991,45.89345204706524,49.98691308285211,54.86529568422674,60.73848051052521,67.88664488990727,76.69149961779354,87.68384493418536,101.61747514951959,119.58595811911282,143.208629615375,174.92319688772966,218.41851306837037,279.1571955640769,358.7357687786057,457.43044388439034,573.9594102762288,705.3948009720596,847.3689290805116
D4,0.0,0.0,0.0,0.0,0.0,3.642196116164648e-05,0.0001767772849092649,0.0005071567245828093,0.0011220399751727431,0.0021178685835079713,0.003589653703875022,0.005629597149090293,0.008326909958066168,0.011768278346086264,0.0160386375290152,0.02122205727353143,0.027402633394105737,0.034665333559382054,0.04309677681695118,0.05278594318999672,0.06382481831302536,0.0763089819197201,0.09033815021451753,0.10601668200759976,0.12345405769097405,0.14276533908188346,0.1640716170723543,0.187500453005941,0.21318631879991362,0.2412710400556917,0.2719042457478881,0.3052438275407259,0.3414564113348551,0.3807178432825445,0.42321369221074023,0.46913976534074203,0.5187026480052346,0.5721202642334965,0.6296224587903828,0.6914516017421579,0.7578632165125395,0.8291266322178155,0.9055256609105908,0.9873593002140635,1.0749424616802867,1.1686067250467183,1.2687011183878798,1.3755929239565632,1.4896685092751905,1.611334182765663,1.7410170728874623,1.8792125548834804,2.0265125686115484,2.1836292809006372,2.3514208829295993,2.5309235125723073,2.7233926930875185,2.9303582510431423,3.15369813756796,3.3957390609396185,3.659395816659051,3.9483675721624323,4.267419693111206,4.622796633232249,5.022839199597775,5.478924005118956,6.0069079889159465,6.6293293332138195,7.378581171514081,8.293032586212677,9.415608291477351,10.791746172978426,12.466879144005633
R4,0.0,0.0,0.0,0.0,0.0052945563606537575,0.027064781535024444,0.07927204177118108,0.17597812929975404,0.3298067786406045,0.551332517897289,0.8490453817942805,1.2296128961449564,1.6982599021115672,2.2591643616446406,2.9158182984997323,3.6713334405271025,4.528687823090728,5.49091789639059,6.561264110723543,7.7432787542759485,9.04090430672648,10.458529498456304,12.001029035078016,13.673791764668637,15.482741021150648,17.434350000634375,19.535654315644894,21.794263308001113,24.218371262555692,26.816769328586275,29.598858702851885,32.574665440531525,35.754857122768506,39.15076151045716,42.77438654507853,46.63844286538495,50.756368659230034,55.14235639459051,59.811381355279835,64.77923193802285,70.06254164704704,75.67882270323479,81.64650117129625,87.98495349737364,94.71454433831,101.85666555079024,109.43377619253943,117.46944336785775,125.9883837251628,135.0165053840562,144.5877133122318,154.74968024628288,165.566830438723,177.12289198794662,189.52409562384892,202.90365834829552,217.42813259859417,233.3063567016569,250.80207692789583,270.2518728857001,292.0909293761124,316.8906858003605,345.41484708134203,378.7042830959756,418.20783346085796,465.9854992600367,525.020207787249,599.667689286133,695.0691691363636,816.5881053727817,969.4033315894224,1158.0624836610953,1386.0642702534085
G4,0.0,0.0,0.0,0.13782102499812515,0.44997349399754083,0.9381322073046319,1.5938111514684281,2.4072223294736736,3.3702019772990743,4.47695844039371,5.724060709889161,7.110196948538138,8.635894292083094,10.303263796745588,12.115787325022932,14.078146580114543,16.19608935124738,18.476327045398588,20.92645800205168,23.554911893490058,26.370911339964216,29.384447601499065,32.60626782178826,36.04787180140404,39.72151668313181,43.64022825814975,47.81781786278756,52.26890404413386,57.008938338989054,62.05423464280244,67.42200174989885,73.13037872878395,79.19847286085127,85.64638173367605,92.49526303767763,99.76736891319852,107.48608989515678,115.67600197137135,124.36291526353743,133.57392393333615,143.33745711607816,153.68333069152703,164.64279966990296,176.2486109297316,188.5350559962207,201.5380234926447,215.29505083071447,229.84537462699458,245.22997923885092,261.6676956220728,279.37922025496607,298.6128778404629,319.6635558813698,342.8915311843705,368.7452780948164,397.79182278203217,430.7589578175421,468.59552918779247,512.5594089262217,564.3485352310219,626.3001199439861,701.699408274366,795.2659140398121,913.9243945907945,1068.008916545677,1273.0160937506955,1551.6259687611705,1904.8852522028005,2337.2757682459132,2848.816906541235,3434.6271571205816,4085.5586904422407,4789.429118706608
H4,34158.55238643579,34727.86159287638,35294.685719447596,35859.17994916724,36421.486315415146,36981.73544309487,37540.04738420654,38096.53239346896,38651.29164827648,39204.41791696985,39755.996179116206,40306.104201229165,40854.81307111497,41402.18769380314,41948.28725180848,42493.16563227528,43036.871823372276,43579.45028213747,44120.94127581523,44661.381198581774,45200.80286541984,45739.23578477763,46276.70641153002,46813.23838165195,47348.85272991267,47883.56809180659,48417.4008908491,48950.36551228536,49482.47446418518,50013.73852682744,50544.166891213026,51073.76728748532,51602.54610398149,52130.50849758631,52657.658496012045,53183.99909258357,53709.53233406624,54234.259402035925,54758.180688254535,55281.2958644817,55803.60394712202,56325.1033570791,56845.7919751608,57365.66719335569,57884.725962277684,58402.96483505462,58920.38000791691,56134.911167411796,53370.70834885047,50630.389920198366,47916.87880352213,45233.43165705599,42583.66915342409,39971.60651617842,37401.68302800612,34878.78862239578,32408.28488638342,29996.016813922866,27648.31045861122,25371.95028725759,23174.128657012894,21062.358675594576,19044.341172525295,17127.77722415627,15320.150955930721,15796.909229052826,16270.333282875414,16740.44822063902,17207.278935388193,17670.850112939963,18131.18623473118,18588.31158055266,19042.25023117762
E_Om,0.0,0.0,0.0,0.0,0.0,0.0,0.0,0.0,0.0,0.0,0.0,0.0,0.0,0.0,0.0,0.0,0.0,0.0,0.0,0.0,0.0,0.0,0.0,0.0,0.0,0.0,0.0,0.0,0.0,0.0,0.0,1.0816557953431194,1.5120581968603723,1.8287045662004653,2.166403942047247,2.5651231676444777,3.043764351468859,3.618092867802867,4.305337625475978,5.1256469872470785,6.102852772339723,7.265141745661474,8.645789659096621,10.28400736164536,12.225924799370954,14.52573499437197,17.2470213777908,20.464294536973426,24.61622896965376,29.90083476083643,36.657122939900184,45.37291104185215,56.73726309447194,71.7318846769518,91.77619375047132,118.95797200221722,156.40686825984636,208.91298046283612,283.97663921405524,393.6361747723291,557.7333342272653,809.88762323829,1208.6149704717777,1858.0144496949124,2944.63423921351,4793.588614488864,7143.6475997551825,10276.698197095595,14170.461918450674,18754.919931215336,23882.79792741898,29356.857047909572,34957.647127317985
I_Om,0.0,0.0,0.0,0.0,0.0,0.0,0.0,0.0,0.0,0.0,0.0,0.0,0.0,0.0,0.0,0.0,0.0,0.0,0.0,0.0,0.0,0.0,0.0,0.0,0.0,0.0,0.0,0.0,0.0,0.0,1.0,0.6000000330903326,0.536910865263204,0.569452070759874,0.6407660712149811,0.7387870863181079,0.8628124471417447,1.0155120973519207,1.2010665179466435,1.4248018815939227,1.6932092689407878,2.0140811552662234,2.396703128276614,2.8520889753282637,3.3932601217911973,4.035574232744736,4.797109478133731,5.699112184576165,6.766516770013663,8.086031541693536,9.742067138310636,11.84071708658081,14.525422778965396,17.99494931258965,22.529119163711254,28.5279795350216,36.573027076384875,47.52503128156974,62.68390105381277,84.05630259313935,114.8151716021412,160.10949777808884,228.52733237811054,334.79211225911797,504.76388292657094,784.469665382022,1254.6999230061342,1921.203320023288,2833.5332432617947,4017.7779557397525,5478.138446351363,7193.047775811496,9117.306266638792
A_Om,0.0,0.0,0.0,0.0,0.0,0.0,0.0,0.0,0.0,0.0,0.0,0.0,0.0,0.0,0.0,0.0,0.0,0.0,0.0,0.0,0.0,0.0,0.0,0.0,0.0,0.0,0.0,0.0,0.0,0.0,0.0,0.0,0.039420339379036905,0.08773021620735526,0.13925126095077606,0.1941971194056755,0.2542011731170982,0.32130407834331254,0.3977692336146564,0.4860977156995111,0.5890937007112799,0.7099464499780382,0.8523226332422081,1.0204694866651427,1.2193310219557303,1.454680061869615,1.7332692038902526,2.063004131026549,2.4531430489689887,2.9273352549956946,3.512369171904882,4.242769849616914,5.164888306933222,6.342196999047253,7.863003165267241,9.852119387382842,12.488928052314542,16.03594354597241,20.884994074767505,27.63370031478278,37.21538075513469,51.12556709784133,71.8271989607042,103.49117475722741,153.3631443990887,234.23822026327727,368.55418964329215,565.3600882213301,842.4180726542744,1213.616099998554,1687.8959863611826,2267.2906104683643,2946.2941142632785
R_Om,0.0,0.0,0.0,0.0,0.0,0.0,0.0,0.0,0.0,0.0,0.0,0.0,0.0,0.0,0.0,0.0,0.0,0.0,0.0,0.0,0.0,0.0,0.0,0.0,0.0,0.0,0.0,0.0,0.0,0.0,0.0,0.39999996690966744,0.6399999602915998,0.8547642886303223,1.0825450980909135,1.3388515053737438,1.6343663154542762,1.9794912657602233,2.3856960710973585,2.8661226385323255,3.4360433440227265,4.113326995570183,4.918959391030057,5.877640563032999,7.0184760587877335,8.375779995220105,9.990009554779506,11.908853187295051,14.188497872540001,16.895104356639177,20.12951670574712,24.02634323870313,28.76262968152219,34.57279831245728,41.77077744203429,50.78242436202274,62.19361523203105,76.82282485237135,95.83283579238017,120.90639413967415,154.52891239547887,200.4549772370631,264.4987710502221,355.9096964394209,489.8265302646858,691.7320667325096,1005.5199069269561,1507.399834610972,2275.88109904703,3409.294302589191,5016.405351935483,7207.660549202605,10084.879421506861
G_Om,0.0,0.0,0.0,0.0,0.0,0.0,0.0,0.0,0.0,0.0,0.0,0.0,0.0,0.0,0.0,0.0,0.0,0.0,0.0,0.0,0.0,0.0,0.0,0.0,0.0,0.0,0.0,0.0,0.0,0.0,0.0,0.0,0.17691082555480375,0.42421635939019653,0.7233111693058947,1.0776385916918516,1.4971787625960213,1.995003363112144,2.5867625890440022,3.2909245201262483,4.129252612963515,5.127408150836407,6.315662519306672,7.729729538361264,9.41173618057893,11.411354227964843,13.787119032913237,16.607965371871217,19.955014642553664,23.98113589833271,28.871583844057753,34.86706032528394,42.28805246048758,51.56774762504693,63.29989660574553,78.31040389704432,97.76664230841592,123.34785613394111,157.51673684619294,203.9626967328135,268.3440839976201,359.56447501515197,492.0261034283327,689.701808698539,993.5904131912567,1475.2017321145315,2259.2198299330903,3427.60315463426,5108.414342308825,7426.072258328943,10493.543798286846,14399.7083250141,19201.18568814565
beta,1.0000000120901604,1.0000000120901604,1.0000000120901604,0.999944022973095,0.999863784930605,0.9997710234384437,0.9996699823694777,0.9995620961116504,0.9994477357027728,0.999326863110229,0.9991992769198327,0.9990647046768617,0.9989228375002587,0.9987733428923858,0.9986158692768747,0.9984500473769591,0.9982754903718094,0.9980917935682844,0.9978985338704376,0.9976952691562767,0.9974815376050699,0.9972568569934329,0.9970207239684269,0.996772613302322,0.996511977132169,0.9962382441867635,0.9959508190036361,0.9956490811385941,0.9953323843706521,0.9950000559053378,0.994651395579665,0.994285675072453,0.9938917121624848,0.9934833378840706,0.9930558067310365,0.9926071861587655,0.9921361666095405,0.9916415319309955,0.9911220261189758,0.9905763142236297,0.9900029648402926,0.9894004365621638,0.9887670639481846,0.9881010417057088,0.9874004065165679,0.9866630160768481,0.9858865249171139,0.9850683565276369,1.017234127257874,1.0523835364613399,1.090994416485938,1.1336447642670398,1.181042077655411,1.2340609867588335,1.2937929068649725,1.3616122918728493,1.4392652109615622,1.5289867977469451,1.6336529063358407,1.7569630603883934,1.9036224137708093,2.0794010221077275,2.2906948043943203,2.5425348827981424,2.832391203895949,3.1345431763198355,2.766713944682145,2.4118628526828276,2.071343587355529,1.7648841279103087,1.5012652769088506,1.2814625195332259,1.1015796421040274
