series,2021-12-01,2021-12-02,2021-12-03,2021-12-04,2021-12-05,2021-12-06,2021-12-07,2021-12-08,2021-12-09,2021-12-10,2021-12-11,2021-12-12,2021-12-13,2021-12-14,2021-12-15,2021-12-16,2021-12-17,2021-12-18,2021-12-19,2021-12-20,2021-12-21,2021-12-22,2021-12-23,2021-12-24,2021-12-25,2021-12-26,2021-12-27,2021-12-28,2021-12-29,2021-12-30,2021-12-31,2022-01-01,2022-01-02,2022-01-03,2022-01-04,2022-01-05,2022-01-06,2022-01-07,2022-01-08,2022-01-09,2022-01-10,2022-01-11,2022-01-12,2022-01-13,2022-01-14,2022-01-15,2022-01-16,2022-01-17
S,35870.27999481553,35870.25757014871,35867.8975216181,35866.4742680077,35865.26481879271,35864.07496504619,35862.85083342951,35861.576020906105,35860.24421713321,35858.851878763904,35857.39625338154,35855.87483776656,35854.285223764775,35852.62505069264,35850.89198831155,35849.08372955656,35847.19798712088,35845.232492078496,35843.18499387594,35841.053261372006,35838.835084727536,37264.18127773142,38689.21040771603,40113.88006068103,41538.09986197284,42961.736422426344,44384.602245816175,45806.43188655617,47226.84156264384,48645.26177763124,50060.82207091472,51472.14664918057,52876.97642318259,54271.435976160654,55648.53496384416,56994.92880914052,58283.555901039304,59456.647588380845,60391.40400933138,60283.70864813722,58956.263256467406,57416.8721929232,55644.78620639171,53762.35012601383,51837.75240027809,49933.44252474546,48095.35194191875,46355.11279352747
E,0.19946779985351568,0.1620521267188306,0.13996960191123964,0.12467758666784651,0.11271235348191938,0.1026212561033534,0.09376211760038301,0.08582505479373287,0.07864064145604703,0.07210203676471193,0.06613272383043607,0.06067266394341991,0.05567199909627664,0.05108792955500857,0.04688298612294702,0.0430239578075237,0.039481157407282995,0.036227881084091064,0.033239991289402276,0.03049558475500659,0.027974722516577143,0.025659206820522147,0.024058170603343264,0.02295610876282984,0.02224625712317466,0.021879673901715156,0.02184225884393292,0.02214599153919699,0.02282819629925304,0.02395673236273361,0.025641669447212048,0.028056601086669,0.031476654134369064,0.03634769162633322,0.04341660661607583,0.05398450153855792,0.0704013877834464,0.09693943527216678,0.1404891895907956,0.20605449466278128,0.26032440687640673,0.28508553864074737,0.29330797349447535,0.2867999160979311,0.2700226378169949,0.24687772407668337,0.22056530951298448,0.19346001176786265
I,0.09442194242624904,0.11050946207448195,0.11005974386935269,0.103827632282421,0.09595952193071998,0.08800804331986926,0.08051256033374446,0.07362330356116946,0.06734674291154702,0.061641015257067486,0.05645215570394312,0.05172712575937609,0.04741789187885362,0.04348217227600862,0.039883041952845914,0.03658822922922266,0.033569404130615085,0.030801553129306252,0.028262458073620496,0.02593227093557552,0.023793169016991068,0.021829075179524503,0.02002542974755274,0.01851096278471305,0.017304725961683698,0.01638932395840382,0.015741105303810093,0.015342072047204919,0.015184659906738335,0.015274407875723687,0.01563296134140169,0.01630302635470666,0.017357096792244026,0.01891295321747341,0.02116164696731506,0.024419469933390593,0.029227494847177668,0.036544868312714376,0.04810056397112904,0.06679241299263297,0.095710151704338,0.12771366868740586,0.15360128329397532,0.17135390908334056,0.18024830936468597,0.18105508518337418,0.1752900250486535,0.16472663826791717
A,0.01049134513412281,0.014377119444620428,0.016363266946682015,0.01728970816990811,0.017572099975013074,0.01743905586314899,0.0170298871797023,0.01643677766295397,0.015724177793637696,0.014938565161584986,0.014113916608978943,0.013275118099303762,0.012440277239241022,0.011622384371579362,0.010830547776525312,0.010070930000589243,0.009347464749647018,0.00866240837096531,0.008016764825962825,0.007410613156187712,0.006843359495806394,0.006313930582288392,0.005820921872149316,0.0053784837425410285,0.004991471332025907,0.004660565821179523,0.0043848438986903646,0.004163143907213304,0.003994895909114353,0.0038807636853867107,0.003823314041161976,0.003827902517227549,0.0039040213603627086,0.00406751818647389,0.004344447000248065,0.004778057832019641,0.005441983840039772,0.006465632002657959,0.008080693200275983,0.01067923682750392,0.014725033952079324,0.019589771559782428,0.024224396758518337,0.028178770348201893,0.03114702719325921,0.03301831353514324,0.033820994112490586,0.03367376490516275
IH,0.0,0.01888438848524981,0.031507771367456264,0.037705243993819255,0.03954564004923355,0.03888867686543955,0.03697116291283103,0.034516996780674186,0.03191678180095791,0.029366362478711713,0.026954911825568677,0.024716051886001213,0.02265592132740659,0.020767970969724873,0.01904048245993782,0.017460234156709286,0.016014186328986702,0.014690178192163757,0.013477150033976154,0.012365149636141147,0.011345250422358667,0.010409441730937666,0.00955051820812572,0.008761979098050392,0.008066332536666793,0.007478599642214439,0.007002783023704525,0.006636145994283351,0.006373725883121916,0.0062115380418122975,0.006148705607421015,0.006189120912165262,0.006343263847259713,0.006630852980462901,0.007085265788902223,0.007761337092556975,0.008749637230608115,0.010203491749248995,0.012391097892397698,0.015791833258261303,0.021224031021353913,0.029713231353183024,0.04034220990880339,0.05081378223826243,0.0595799563884658,0.06572506588331452,0.06894715855009176,0.06939899666808663
IN,0.01888438848524981,0.03474914804234299,0.05129462369852811,0.06510452083064355,0.07545978197154496,0.0825856064456152,0.08698171012501821,0.08917577668826607,0.08964115888644847,0.08877681396640118,0.08690953296431139,0.08430305978772702,0.08116835778240185,0.0776730503762925,0.0739495015189492,0.07010152505818489,0.06620988058790765,0.06233674818301169,0.0585293625687928,0.054822961969594255,0.05124318038370981,0.047807988372824496,0.044529267563668005,0.04141408776616197,0.03849413433465501,0.03579983644395188,0.033353278555286414,0.03116828351254182,0.029252864285592026,0.027612239707604534,0.0262519019147828,0.025180793923776194,0.02441496996585603,0.023982415963104464,0.023930198978814973,0.02433607028233692,0.02532860703075468,0.02712404133647513,0.030095858943786965,0.03490361965388976,0.04268098535860831,0.05499829176564298,0.07174675435452692,0.09099464720765803,0.11071531164931722,0.12906150602012775,0.1446354842988762,0.15656615888072659
D,824.0,824.0,824.0000703739413,824.0001877897663,824.000328300889,824.0004756703712,824.000620591636,824.0007583671562,824.0008869970616,824.0010059370915,824.0011153728125,824.0012158221008,824.0013079281272,824.0013923569386,824.0014697501766,824.0015407058124,824.0016057725471,824.0016654504874,824.0017201944227,824.0017704179268,824.001816497487,824.0018587763242,824.0018975678075,824.0019331584548,824.0019658105582,824.0019958702877,824.0020237397913,824.0020498361323,824.0020745661758,824.0020983182932,824.0021214660067,824.0021443795708,824.0021674437453,824.002191082344,824.0022157926625,824.0022421963811,824.0022711195247,824.0023037256353,824.0023417496321,824.0023879258903,824.002446775217,824.0025258679932,824.0026365963444,824.0027869342974,824.0029762952679,824.0031983239747,824.0034432528446,824.003700189059
R,0.0,0.005117897954981194,0.022957874193993706,0.05012963954761955,0.08278246577553057,0.11806446377038374,0.15413198127940894,0.18986530689745668,0.22460818673057806,0.25798754366640925,0.2898009587357797,0.3199494881670268,0.3483980886281293,0.3751521297796952,0.40024311969366744,0.4237197151581164,0.4456418184133126,0.46607653561689294,0.4850953083800975,0.5027718220675108,0.5191804543125106,0.534395115683521,0.5484883847204085,0.5615308692542557,0.5735938990062792,0.5847660547128595,0.5951484024640614,0.6048473490964867,0.6139699159914208,0.6226218194378936,0.6309077578390085,0.6389333843058834,0.6468087921995108,0.6546537614595083,0.6626055402409122,0.6708307421021473,0.6795443816117802,0.689041881383835,0.6997555073620745,0.7123571992565613,0.7279415990246337,0.748285066981648,0.7758003192729117,0.8122159088064023,0.8577170269471092,0.9113324235591649,0.9713171205241806,1.0355578804518513
G,84805.0,84805.05385629662,84805.09761036324,84805.1354021492,84805.16906509177,84805.19949742194,84805.22720515628,84805.25252092365,84805.27569368441,84805.29692665391,84805.31639420045,84805.33425003281,84805.35063164924,84805.36566308637,84805.37945682496,84805.39211522903,84805.40373169562,84805.41439160626,84805.42417313247,84805.43314792856,84805.44138173503,84805.4489349088,84805.45586289342,84805.46235859836,84805.46855674667,84805.47456323502,84805.48047074596,84805.48636815484,84805.4923475715,84805.49851118345,84805.50497950007,84805.51190274961,84805.5194780306,84805.52797672575,84805.53779060079,84805.54951308253,84805.56408889542,84805.58309726682,84805.6092709098,84805.64720298442,84805.70283768832,84805.77312526599,84805.85009834808,84805.92929148719,84806.00672745107,84806.07963355065,84806.14629052459,84806.20584314782
H,26533.009241459113,26533.009241459116,26533.009241459116,26533.009241459113,26533.009241459116,26533.009241459116,26533.009241459113,26533.009241459113,26533.009241459113,26533.009241459113,26533.009241459113,26533.009241459113,26533.009241459113,26533.009241459113,26533.009241459113,26533.009241459113,26533.009241459113,26533.009241459113,26533.009241459113,26533.009241459113,26533.009241459113,25509.69972179493,24501.726707329573,23509.96351026844,22535.348368014667,21578.888593164655,20641.66432482066,19724.831596426604,18829.624340154005,17957.35483136892,17109.411938601075,16287.256387734207,15492.412082542163,14726.45236480974,13990.979976550032,13287.59945159248,12617.880780884661,11983.31354988878,11385.251429818129,11057.384707054734,11057.384707054736,11057.384707054734,11057.384707054736,11057.384707054734,11057.384707054738,11057.384707054734,11057.384707054734,11057.384707054734
S0,12554.597998185434,12526.337820447057,12480.232828387985,12434.69428965505,12389.411706988982,12344.301527882462,12299.340347893747,12254.520804555277,12209.839858346884,12165.295663049035,12120.886723384367,12076.611664585855,12032.46916690703,11988.457945336511,11944.576742240833,11900.82432411709,11857.199479961122,11813.701020481316,11770.327777871884,11727.078606005894,11683.95238096041,12104.807891405519,12515.026264171274,12914.225167983488,13301.976923398268,13677.809919004449,14041.203932815055,14391.581022370356,14728.290884542621,15050.587132358942,15357.587175675528,15648.201076620437,15920.999235660498,16173.95403799549,16403.908968496544,16605.4288579644,16768.1921345167,16871.019002385317,16870.044199658336,16600.119838966093,16069.87871394282,15471.42452638076,14799.799184371805,14099.820631628943,13396.120616488113,12710.296216126468,12057.389935728293,11446.957393085471
E0,0.19946779985351568,0.15198751247616865,0.12107124576536593,0.09955132809362427,0.08381190983240758,0.0718593456904098,0.06250677459936485,0.055002162175426264,0.04884664154514559,0.043698539951573495,0.03931854677047687,0.035536207364388055,0.03222838059783959,0.02930489646046913,0.026698790146635464,0.02435955815671219,0.022248460021389655,0.020335226145380775,0.018595741217440197,0.017010408280588654,0.015562989354430628,0.014239780466677978,0.013317946421835777,0.012675392443875349,0.01225079175663557,0.012015099242381798,0.01195858361029262,0.012085733244426335,0.012414558179585138,0.012979060063332723,0.01383507502992565,0.015071044362852986,0.01682725203367593,0.019330803913916634,0.022961301858708042,0.028377924033507,0.03676610291231554,0.05026704570040737,0.07229145804753175,0.1051602116574304,0.13190892995301767,0.14361154632296852,0.1468817669210626,0.1427412115845332,0.1335243064765026,0.12125385829910477,0.10756747891024235,0.09366122677686446
I0,0.09442194242624904,0.11050946207448195,0.10734229849519211,0.09709460978360938,0.08513561979313625,0.0737105836054513,0.06362837013427783,0.05505384829500251,0.04788289018843896,0.041918325042607826,0.036949598765946785,0.0327857650461832,0.029266233351820145,0.026261401263150366,0.02366916142977461,0.02141016894706638,0.019423180929715896,0.017660991721638014,0.016087105139871768,0.01467311234173372,0.0133966768441472,0.01224001250331989,0.011188747561100405,0.010309093446833765,0.009607811434317328,0.009072400061138138,0.008687516269420341,0.008441326776372392,0.008327943475804902,0.008348696212557358,0.008513563336783247,0.008843607612208945,0.009375345839470337,0.01016856476470053,0.011320455010254273,0.012991823432652337,0.015457132219609109,0.01920112539621616,0.025092775222672743,0.03457435542079641,0.04913786547499412,0.06509812419459306,0.0778339852981681,0.0863584613686436,0.09035519726398145,0.09026467485367312,0.08689734097425514,0.08118161885258854
A0,0.01049134513412281,0.014377119444620428,0.016061328048044,0.01648120548155086,0.016171508890357348,0.015451568332438607,0.014517038402066772,0.01348883688702706,0.012441136950812068,0.011418311094648885,0.010445607120809068,0.00953604394117519,0.00869492303814634,0.007922791357810672,0.007217381352504886,0.006574870036792932,0.005990683914971934,0.005460001974585965,0.0049780593163940455,0.004540320560536635,0.004142569493498936,0.0037809460042967655,0.0034519508843323344,0.003161099723843079,0.0029091421460199986,0.002694838043258929,0.002516323974584224,0.0023718172480349767,0.002260026361774415,0.002180458416220656,0.00213373914272751,0.0021220442130207066,0.0021497674071274914,0.0022246322747864443,0.002359630842570191,0.002576544805168791,0.0029125748941694262,0.0034330447245795063,0.00425444950484277,0.005572306730940969,0.007612656659465622,0.010047399403881215,0.012346272638583268,0.01428347799744265,0.01570902543051879,0.01657295579208156,0.016895986061345406,0.016743818254113575
IH0,0.0,0.01888438848524981,0.031507771367456264,0.03716175491898714,0.03792833615913076,0.03591835462058025,0.03263222187329998,0.028979032145021597,0.025444558115074456,0.02224992638670633,0.01946584087353259,0.01708540674813495,0.015067000593325941,0.01335777263739043,0.011905479142350371,0.01066367723553538,0.009593365810831773,0.008662870738509704,0.007846974732863509,0.007125818408104487,0.0064838284930430245,0.0059087810033733555,0.005391030225301462,0.004922897499319773,0.004513800547854184,0.004169782376292178,0.0038913525739500236,0.0036756963439539387,0.0035190450442541864,0.003418343979808617,0.003372337646341454,0.003382396376120851,0.003453415252832871,0.0035951357650434133,0.003824367273064349,0.004168920256578813,0.004674807846280283,0.0054198405603192905,0.006539722830645436,0.008275840361259989,0.011036876556008223,0.015324787102285542,0.020652548328627354,0.02585335570529431,0.03014865328686447,0.03308738926049261,0.034533001480884375,0.0345795608561238
IN0,0.01888438848524981,0.03474914804234299,0.05129462369852811,0.06456103175581143,0.07365659273773878,0.07890596819505492,0.08103095705139594,0.08079971578392096,0.07889054581350041,0.07585246203767063,0.07210725727528296,0.06796716851543272,0.06365631653873072,0.059330866926163246,0.05509609377260069,0.051020016290276735,0.047143908383681356,0.043490195649672894,0.040068276682893575,0.03687874799854057,0.03391642896001392,0.031172500022063104,0.028635994663067904,0.026294825565417262,0.024152080469190183,0.022211705637099663,0.020474516028790007,0.018938127679626857,0.017598171166282612,0.01644979811850098,0.015489201393302402,0.014715178282966687,0.014130930946452033,0.013746452875047402,0.01358209694196258,0.01367439970405998,0.01408621686463757,0.014925245886955261,0.01637891212817718,0.018778465931945574,0.022690645189530918,0.02888996584382386,0.03729006187652212,0.04689414800892354,0.05666742824777979,0.06567730028417337,0.07322838204339288,0.07889857297183686
D0,824.0,824.0,824.0000703739413,824.0001877897663,824.0003262755405,824.0004676180312,824.0006014701906,824.0007230763559,824.0008310686644,824.0009258895182,824.0010088053624,824.001081346125,824.0011450160401,824.0012011642292,824.0012509428656,824.0012953094327,824.0013350483417,824.0013707986634,824.0014030814327,824.0014323237108,824.0014588785514,824.0014830409735,824.0015050604426,824.0015251504786,824.0015434959867,824.0015603169674,824.0015758559413,824.0015903573278,824.001604055057,824.0016171690146,824.0016299077029,824.0016424749455,824.0016550796726,824.0016679490564,824.0016813465711,824.0016955983325,824.0017111340936,824.0017285550789,824.0017487524785,824.0017731231947,824.0018039636693,824.0018450933306,824.0019022021785,824.0019791652861,824.0020755095516,824.0021878605318,824.0023111629089,824.002439852457
R0,0.0,0.005117897954981194,0.022957874193993706,0.05006925176789194,0.0822027087813709,0.11611052206727873,0.149712360907358,0.1818299414719734,0.2118848998592294,0.23966417797517284,0.2651615446424914,0.28847848769561185,0.3097655907187192,0.32918959804648973,0.3469160048355353,0.3631006584999008,0.3778863805083629,0.3914022471479214,0.4037641764346134,0.4150760730848794,0.425431136246647,0.43491313488851713,0.44359756575873305,0.45155266674766226,0.45884202061087426,0.46553454563672536,0.47170255370656056,0.47741836820182926,0.4827521724458708,0.48777131526320006,0.4925407498018343,0.49712432010304075,0.5015867957231908,0.5059967757158469,0.5104308549869948,0.5149798556526434,0.5197586534752824,0.5249225386203656,0.5306958518125628,0.5374238097521075,0.5456639573396551,0.5563132739996347,0.5705770374513887,0.5892980294816466,0.612533187542713,0.6397561125441731,0.6700565772873632,0.7023492710375903
G0,84805.0,84805.05385629662,84805.09489291787,84805.12758214856,84805.15446100249,84805.17709021422,84805.19649223419,84805.2133690604,84805.2282196416,84805.24140823254,84805.25320683628,84805.26382284207,84805.2734176164,84805.28211927765,84805.29003159831,84805.2972402704,84805.30381734997,84805.30982443313,84805.31531494325,84805.32033579251,84805.32492860194,84805.32913060834,84805.3329753484,84805.33657119331,84805.33999354868,84805.34330126188,84805.3465453381,84805.34977415513,84805.35303730254,84805.35638923266,84805.35989357828,84805.36362904789,84805.36769822917,84805.37224158643,84805.37746090259,84805.38366045301,84805.39132249117,84805.40124933723,84805.41482143721,84805.4343401275,84805.46273337973,84805.49834878463,84805.53712389541,84805.5767819656,84805.61532208604,84805.65137364254,84805.6841121786,84805.71315539286
H0,9286.55323451069,9265.658489733041,9232.302119170003,9199.065831540991,9165.949194547444,9132.951777447073,9100.073151048264,9067.31288770449,9034.670561308752,9002.145747288041,8969.738022597805,8937.446965716454,8905.272156639874,8873.21317687597,8841.269609439216,8809.441038845234,8777.727051105392,8746.127233721412,8714.641175680015,8683.268467447568,8652.008700964756,8157.001580045984,7672.772358822665,7199.687003387132,6738.1378670345775,6288.544712573164,5851.355434364806,5427.046336269753,5016.121779988631,4619.112968872807,4236.575575867553,3869.085863369468,3517.2348827208984,3181.6202912738113,2862.8353005502177,2561.4542921371317,2278.014738120331,2012.995275178613,1766.7901406726696,1631.2794399227907,1625.4068339390687,1619.5553693368881,1613.7249700072753,1607.915560115249,1602.1270640988341,1596.3594066680782,1590.612512804073,1584.8863077579783
S1,3587.0279994815533,3359.056252292475,3163.9623813254207,2982.7476558441945,2814.3415559317623,2657.8096015336937,2512.2989812359992,2377.0215628682777,2251.2464693534916,2134.2952787129943,2025.5380947905808,1924.390032723537,1830.3079900055627,1742.7876574020036,1661.3607460425787,1585.5924135039365,1515.0788741625984,1449.4451804818818,1388.3431629451275,1331.4495172583477,1278.4640282728628,1278.0845045665976,1276.6619079827535,1274.3643606908838,1271.3321777218646,1267.6808986883568,1263.5034282029537,1258.8715782511258,1253.837005441774,1248.4313316646221,1242.6649695070087,1236.523676290121,1229.9608182916072,1222.881009025177,1215.1053706394869,1206.2955054432844,1195.781162383902,1182.1687617508044,1162.582164399503,1126.0820248451332,1073.9653515532832,1019.482344861706,962.3105061064736,905.3296668299182,849.9930815927905,797.4996122754027,748.5968661779209,703.6756369469756
E1,0.0,0.0035314435939164746,0.006408588223479977,0.008238445769478747,0.00915535354332801,0.009405177426337372,0.009211491345288729,0.008745474608502609,0.00812848697581453,0.00744263408030761,0.006741370750458441,0.006058060542480594,0.005412337596021306,0.004814650363660177,0.004269434589164648,0.0037772958985487584,0.0033364926117820906,0.002943930586928143,0.002595820869848715,0.0022881060886029733,0.00201672944337566,0.0017777974886951054,0.0015981781076792067,0.0014607479511526019,0.0013558633114853097,0.0012778377293662232,0.001223321931811672,0.0011905963618979423,0.0011793324839616337,0.0011906493113050028,0.0012274401760215482,0.0012950581460020281,0.0014025915441974555,0.0015652152096019098,0.0018086147655482108,0.002177513512586032,0.0027520670221910025,0.003675796923462444,0.005173008188382543,0.007380790880976228,0.009121161096631424,0.009811589757257454,0.00992256737506073,0.009541728354514258,0.00883696910072191,0.007948972749556363,0.006987936906451658,0.0060317052856339185
I1,0.0,0.0,0.0009534896049686202,0.0023024122831860287,0.0036058273418380447,0.004635441433026824,0.005320662324452566,0.005679499626495818,0.005768977510614575,0.0056560776091555565,0.005403157418613968,0.0050620642380721495,0.0046729146055946484,0.004265079660805416,0.003859003169185982,0.003468149040634731,0.0031007591400861235,0.0027613083329741904,0.002451646120381403,0.002171859185517379,0.001920904048073885,0.001697059284105852,0.0014982408091512324,0.0013304524997163195,0.0011926733782294833,0.0010816870575392967,0.0009940283616072197,0.0009267138812613943,0.0008774892907098354,0.0008449132898636203,0.0008284232322085975,0.000828462729366017,0.000846743276388432,0.0008867456170785124,0.0009546554035355756,0.0010611191441161332,0.0012246000328879681,0.0014778179868362277,0.0018791557892872393,0.002524205442167068,0.003507336457497717,0.004567114943415891,0.005389397741000835,0.0059127313711612485,0.006123905031545862,0.006060324262258832,0.005782416827459632,0.005356192733950233
A1,0.0,0.0,0.00010594347320632219,0.0002770127254041943,0.00046876393924055184,0.0006496721864668472,0.0008018935124382179,0.0009178599817129148,0.0009966526332040307,0.0010411770965207715,0.001056221048188266,0.0010472182767843762,0.0010195167214203207,0.0009779837584940213,0.0009268267431905383,0.0008695446321786829,0.0008089547596022888,0.000747258742293942,0.0006861250493167077,0.0006267747871194431,0.0005700631195129891,0.000516552473361568,0.0004665759866100649,0.00042120620736623386,0.00038078747283907594,0.00034530594111524684,0.00031457994461842276,0.0002883636709411773,0.0002664088833693257,0.0002485071364462316,0.00023452524425806074,0.00022444345817205456,0.00021840657156943039,0.00021680306926932775,0.000220398985007567,0.00023057771567572917,0.00024978767989810484,0.0002823922834723378,0.00033618790663110087,0.000424140813224919,0.0005607367226753273,0.000722224638212428,0.0008721278627958777,0.0009953797761941734,0.0010825561184605033,0.0011311543816536608,0.0011433930600855038,0.0011243528825294466
IH1,0.0,0.0,0.0,0.00019069792099372406,0.0005554646988619302,0.0009978296412104992,0.0014240842485256032,0.0017734360290668897,0.0020192075649688606,0.002159516283128074,0.0022068208437111426,0.00217979811769381,0.0020981200841532367,0.0019796082103886565,0.0018390131867162427,0.001687770745335649,0.0015342695430433542,0.0013843361495660535,0.001241767618171796,0.0011088250738548124,0.000986652067537618,0.0008756094795344003,0.0007755327712287185,0.0006859231728330261,0.0006077330339052474,0.0005412325023110054,0.00048591285504973985,0.0004408276737042525,0.0004049088872248106,0.00037717364886333683,0.00035684416527410483,0.00034342050620319057,0.0003367423902299357,0.0003370722838808795,0.00034523706444820293,0.00036288571088607333,0.0003929688433029948,0.00044064873642883943,0.0005150405838042409,0.0006323610100526791,0.000819805542777264,0.0011097935503044541,0.0014661855949305936,0.001808152823327705,0.0020831455495137225,0.0022623478247737576,0.002338888196772921,0.0023214297062008307
IN1,0.0,0.0,0.0,0.00019069792099372406,0.0006206876264771527,0.0012426046434732374,0.0019709994468014333,0.002719967512718103,0.003420942442089278,0.0040277264925170485,0.004514905304289638,0.004873599793580787,0.00510672010903568,0.00522473437180023,0.005242311069942954,0.005175861941572608,0.005041867256636133,0.0048558204496297365,0.00463163251548218,0.004381359970045782,0.00411514881921976,0.0038413140183268706,0.0035664966698479377,0.0032958591417359896,0.0030349391104518863,0.002788184578016061,0.0025586890299132024,0.0023483582655998156,0.0021581966638300207,0.001988597137227837,0.001839601511354469,0.0017111323945273678,0.0016032134923806055,0.0015162070190087842,0.001451113418941588,0.0014100102952425164,0.0013967723422432298,0.0014183473263446583,0.0014871160439015668,0.0016251561486254444,0.0018701334600033262,0.0022725649050548613,0.00282260293511059,0.0034491460006803,0.004080171051483736,0.004652529420517102,0.005120651071510873,0.005458338206528729
D1,0.0,0.0,0.0,0.0,7.106486032611064e-07,2.7806250893711613e-06,6.499104227075601e-06,1.1806049771459215e-05,1.8414878176414844e-05,2.5939590707426682e-05,3.398717309494043e-05,4.221103910280547e-05,5.033420310825509e-05,5.815298843904348e-05,6.553013131708888e-05,7.238333740191905e-05,7.867292837673209e-05,8.439048681737025e-05,8.954930840287327e-05,9.417683878616309e-05,9.830894985423156e-05,0.00010198577501334469,0.00010524879251448349,0.00010813886744443012,0.00011069500619087329,0.0001129597641360562,0.00011497670338637706,0.00011678749025782428,0.00011843026417462581,0.00011993918432254809,0.00012134474724297681,0.00012267455097818514,0.00012395433054679695,0.0001252092236679631,0.00012646534615996373,0.00012775189525481283,0.00012910421321528546,0.00013056863798805262,0.00013221074508308609,0.00013413007839094797,0.0001364866141424075,0.00013954167452735817,0.00014367739468792564,0.000149141233725758,0.00015587943659490594,0.00016364241831718826,0.00017207320934725504,0.0001807892332113813
R1,0.0,0.0,0.0,2.118869464126444e-05,0.00020208902104161894,0.0006718208097941836,0.0014975639305172782,0.0026825807707836083,0.004184597324046416,0.005936901373815057,0.007865036882038262,0.009897648429839822,0.011972352334505788,0.014038100346696954,0.01605537014536957,0.01799517512534818,0.019837549964291764,0.02156990721428973,0.023185479939894508,0.024681950957280503,0.02606030163498649,0.027323876441855636,0.028477641689453766,0.029527610262013965,0.03048058653483918,0.031344803686783676,0.03212933795413625,0.03284347044649025,0.03349626634751548,0.034096369685289014,0.03465195597506588,0.03517079328896374,0.035660384310895965,0.03612818462236494,0.03658191618005808,0.03703002606664017,0.037482391770043665,0.03795147001717843,0.038454272996580045,0.039015893029340984,0.03967562498899887,0.040495232403569344,0.04155595751373575,0.042912168049690606,0.044563580573535336,0.0464703301838301,0.04856759795104137,0.050780298625732426
G1,0.0,0.0,0.0009534896049686202,0.002683808125173477,0.0049081880970999045,0.0073801331250239015,0.009919530589660374,0.012406632821484652,0.014767910556201736,0.01696260165898855,0.01897211251210918,0.02079228229901295,0.022427958361764307,0.023889289259212933,0.025189244631915665,0.026341991771038808,0.027361861486744094,0.02826271433566661,0.029057575456263498,0.029758446969552037,0.030376235506315494,0.030920752361577014,0.031400757600264735,0.03183226561449032,0.03222666749289001,0.032592750523491615,0.032937766650575254,0.03326806351487232,0.03358952447682532,0.033907944192263034,0.03422941945055346,0.03456082824059432,0.03491049387936314,0.035289193530608595,0.03571180156389706,0.03620012746589185,0.03678805601231014,0.03753111397941358,0.03852357897659908,0.03992029094519381,0.041913104137391285,0.044375817206308545,0.04702494598125984,0.04970403870782059,0.052280304916669705,0.05466628616000102,0.05681250843010535,0.058699251067579804
H1,2653.3009241459113,2484.6741743417097,2340.553818166055,2206.6076902117775,2082.109492190198,1966.3848027055546,1858.807371768253,1758.795679985723,1665.809743525336,1579.3481472942378,1498.9452900348865,1424.168826199461,1354.6172905475073,1289.9178924151604,1229.7244675365453,1173.7155761636302,1121.5927370346424,1073.078787487576,1027.9163607084317,985.8664717474204,946.7072045339874,861.2559089503659,782.7020089582304,710.4587697597467,643.9953653218909,582.8321975435746,526.5365909026925,474.7188217863116,427.02844212242906,383.15085678224796,342.80411360048265,305.7358639648184,271.7204511124839,240.5560831314253,212.0620490905897,186.07594097284925,162.45085275889235,141.05254291585265,121.75656930552289,110.65910804357799,108.62749202418732,106.71985005321173,104.92740295045226,103.24199834601758,101.65606590914551,100.16257577496235,98.75499994075584,97.42727641965365
S2,3587.0279994815533,3800.5400973423843,3995.0050157180985,4173.302544899096,4336.550096809217,4485.823011497192,4622.130371986291,4746.4120387073835,4859.541425367572,4962.329637781176,5055.529755996076,5139.84093347384,5215.9122377544345,5284.346226304093,5345.702269576493,5400.499637446362,5449.220365404649,5492.311916113953,5530.189650910831,5563.239124825518,5591.818217725794,5839.982198301143,6082.396443041227,6318.659984156332,6548.381338113444,6771.175527144603,6986.659468540776,7194.4461993983705,7394.137521206695,7585.313821078567,7767.5185215863,7940.232048690458,8102.824752751827,8254.465983407987,8393.937713151014,8519.230421028522,8626.623978064414,8708.573609694333,8749.481937917844,8675.776319403643,8486.057926305704,8268.072892628765,8019.232426152535,7754.937490993493,7483.898769173443,7214.191151257023,6951.872661842479,6701.226422258916
E2,0.0,0.0012360052578707658,0.002424091685145878,0.003355179549313304,0.0040079504465300635,0.004421559288415594,0.004647441760200322,0.004732594627609533,0.0047152198371193275,0.004624831340499843,0.004483685334584054,0.004308369021105645,0.00411117393485782,0.0039011794283900485,0.003685073362753825,0.0034677623167249025,0.0032528220575641087,0.0030428298409907136,0.0028396102984937174,0.002644418378212924,0.002458076395013011,0.002281077493603077,0.002162445480180718,0.002084036994303257,0.002037303450776891,0.0020187467567360715,0.0020278760660629685,0.0020664471459277186,0.00213842907377808,0.0022505092720221075,0.002413189275995375,0.002642760292480484,0.0029648041672570426,0.0034205431557804795,0.004078761852055398,0.005058914646470265,0.00657614457263401,0.00902036748328882,0.013017742293462963,0.019015680131083942,0.023974721014004486,0.026259276939235368,0.02705163761556099,0.026507591732888608,0.025024395099312022,0.02295028190809229,0.020572640574246008,0.018106662512626985
I2,0.0,0.0,0.000333721361739017,0.0008547374585048102,0.0014187407962836607,0.0019333909106281416,0.002353855347173295,0.0026671222659034634,0.002878073687354069,0.0029999533476057945,0.0030486762539027523,0.003039800582693984,0.0029871397835401774,0.002902300639996259,0.002794698646958326,0.0026717888235347257,0.0025393689572301295,0.002401883177540299,0.002262693821086193,0.0021243109402569633,0.001988579402425075,0.001856828152988958,0.0017299877082360316,0.0016218528033161567,0.0015358015728494379,0.0014715527800059696,0.0014279931977779366,0.0014043223615318244,0.0014005340495412324,0.00141769617949533,0.0014582551057446009,0.0015265140549481195,0.0016294535881696633,0.001778169139209913,0.001990447975391672,0.0022955342942684634,0.002743227294182854,0.0034214951031389567,0.00448839585991862,0.006207827325523556,0.008858929140141518,0.011788531035053056,0.014163122164819237,0.01580181418817807,0.016638137039351242,0.01673946772845232,0.01624025567742101,0.0152987653980163
A2,0.0,0.0,3.708021562221276e-05,0.00010238703658013362,0.00018256517287732352,0.00026629083940293266,0.0003456796572506143,0.0004159671962611019,0.00047475181747975016,0.0005212582699262454,0.000555751772751674,0.0005791121882242231,0.000592541022987285,0.0005973682289750215,0.0005949301487364613,0.0005864964924555864,0.0005732302258726458,0.0005561689947651278,0.0005362202335473027,0.0005141646287807099,0.0004906643782175482,0.0004662739095440289,0.0004414515592734893,0.00041803471309846923,0.00039694897791000855,0.0003786783812647673,0.0003635052022582802,0.0003516405387604523,0.00034330594216453977,0.0003387977260944651,0.0003385535644348013,0.0003432386428450946,0.00035387384681942935,0.0003720433413245413,0.0004002511279280522,0.0004425639489256008,0.0005058188354597841,0.000601939713528786,0.0007521632177744286,0.000992263452686048,0.0013642820566466358,0.001810668398550509,0.002236314256823614,0.0026006018008406582,0.002875710434094709,0.0030513013722277974,0.003129550629860304,0.0031208206845983527
IH2,0.0,0.0,0.0,6.67442723478034e-05,0.00020419127647961562,0.000385451131065223,0.0005786625126618585,0.0007589895390310064,0.0009114596612553918,0.001029591801679469,0.0011128066320136298,0.001163998603628938,0.0011877210113770964,0.0011890044364627715,0.0011726758522288602,0.0011430225619001142,0.0011036709762877609,0.0010575868845930257,0.0010071363040070802,0.0009541701605220909,0.0009001123682214013,0.0008460411193883231,0.0007927592258455518,0.0007408526529288092,0.0006933722035056286,0.0006525130391411742,0.0006193122718853321,0.0005940638179614544,0.0005767539773441071,0.0005673746820208852,0.0005661354970384692,0.0005736300727899307,0.0005910147381947067,0.000620261546267346,0.000664571817953506,0.0007290975109468182,0.0008222535362234657,0.00095819100679398,0.0011615518917162686,0.0014762214159718607,0.0019768373515443097,0.002756402981612499,0.0037306070456992893,0.004690753877760129,0.005496719305038533,0.006065416691318552,0.00636893789880465,0.006420272411238957
IN2,0.0,0.0,0.0,6.67442723478034e-05,0.00022701930114494347,0.0004744668913087122,0.0007852774353814909,0.0011304820104412472,0.0014831414796694347,0.0018216007000284849,0.0021303159505095858,0.0023994119650608704,0.0026237041759154494,0.002801599721780114,0.0029340817978763052,0.0030238594846969157,0.003074699682403818,0.003090926518290099,0.003077061514111208,0.0030375756639764856,0.0029767270569141095,0.002898461883561707,0.002806361124575398,0.0027036192621777743,0.002595678925341192,0.002487788089205889,0.002384299326094514,0.0022886465831082263,0.002203554623514328,0.0021313112743938938,0.002074052120972966,0.002034060537550053,0.0020141154303661315,0.0020179474685288893,0.002050909870911173,0.0021210573258411743,0.002241005410006917,0.0024313122988920194,0.002726842524763668,0.003188497380856227,0.003920219546766718,0.005065159111947381,0.006612942297510992,0.008388151931081582,0.010207242519173565,0.0119027236273804,0.013347362078675583,0.014461159267899874
D2,0.0,0.0,0.0,0.0,2.487270111413872e-07,1.0096595093678194e-06,2.446069022851342e-06,4.602493719249819e-06,7.430919183940264e-06,1.0827534793720836e-05,1.4664377754461245e-05,1.8811326366272322e-05,2.3149045296590424e-05,2.7575167371758616e-05,3.200607221665903e-05,3.6376127496348696e-05,4.0635677799138735e-05,4.4748581776652636e-05,4.868975029305211e-05,5.2442911334381654e-05,5.599869048663977e-05,5.935301964723737e-05,6.250584866950323e-05,6.546011913891248e-05,6.8220956280097e-05,7.080485433936093e-05,7.323648797993217e-05,7.554439673270907e-05,7.775821542712557e-05,7.990752783855121e-05,8.202188767636573e-05,8.413162960816247e-05,8.626930057957356e-05,8.847175667356852e-05,9.078320296105043e-05,9.325977445031641e-05,9.59768052658362e-05,9.90409882626867e-05,0.00010261175136847801,0.00010694035246261698,0.00011244159066121833,0.00011980840774778522,0.00013008032848347135,0.00014398268605783366,0.00016146309525212981,0.00018194698871194657,0.00020455017115578655,0.00022828444575331196
R2,0.0,0.0,0.0,7.416043124442553e-06,7.181767390229975e-05,0.0002463586497436262,0.0005675148466925718,0.0010505048908867102,0.0016925892195830527,0.0024787810816277226,0.0033872471508792873,0.004393433072212319,0.005472823405401702,0.006602582430389721,0.0077623919354760495,0.008934762972235118,0.010105029637742785,0.011261167617640308,0.01239352910385789,0.01349454951158021,0.014558457433649944,0.015581004163288368,0.016559220029899572,0.01749119958989364,0.018376207602958376,0.019216084130120645,0.020014698815102632,0.02077719042282285,0.0215094354567045,0.022217783596986132,0.022909005592568688,0.023590405613493143,0.024270081734849146,0.024957356637151505,0.02566344884074445,0.02640252853707415,0.027193433904308745,0.028062580046621377,0.02904910415668299,0.03021424216276303,0.03165798644382812,0.033542542498878634,0.03608782942222387,0.0394510823163105,0.04364939192718517,0.04859512644179794,0.054130410966399305,0.060063557387083646
G2,0.0,0.0,0.000333721361739017,0.000988226003200417,0.0018941243243811917,0.002976270757239137,0.004170091558035547,0.005424900615635034,0.006702700943447025,0.007975810078640379,0.009224514323979653,0.010435109154331986,0.011598368588255773,0.012708385358127926,0.013761703621088497,0.014756673256448227,0.015692968919557522,0.016571230722759744,0.017392794637321757,0.018159489284927006,0.018873482123197904,0.019537162634731816,0.020153053451174473,0.020736913629549013,0.021299603520408758,0.021849675356705064,0.02239473688647942,0.022942263329344483,0.02350020396196662,0.024077579711737213,0.024685217109784614,0.025336778101285973,0.026050323256486766,0.026850820242794882,0.02777436673466061,0.02887563224369407,0.030241538961315845,0.03201709768794509,0.034452596485980334,0.03796738629555272,0.0431016190403801,0.04957479259134825,0.05666479613513565,0.06396873702442218,0.07112578555086659,0.07788237105570817,0.08407894609605779,0.08963355808762148
H2,2653.3009241459113,2811.2355029641203,2955.2451403818127,3087.246066198652,3208.1079718542715,3318.6383168695916,3419.58677519535,3511.649363950281,3595.472277235567,3671.655446091715,3740.7558441592596,3803.290557207474,3859.739633397823,3910.5487299440993,3956.131570712514,3996.872228266166,4033.127242893733,4065.2275902665206,4093.4805085362696,4118.171194913821,4139.564381051568,3934.182710877216,3727.8668139870165,3521.5097586150496,3315.9529699226214,3111.9923869668464,2910.383985019222,2711.8486268027646,2517.076181303756,2326.72882014087,2141.4433694303684,1961.832560979929,1788.4849932497443,1621.9635847823595,1462.8022886341682,1311.50084731803,1168.5174193271537,1034.2590187772694,909.0698971778841,840.4084384531673,838.3077980937423,836.0870499276874,833.7564790990158,831.3256212252503,828.8033160925224,826.1977575135028,823.5165396222679,820.7666998606283
S3,10761.08399844466,10714.108896813877,10669.555751620248,10627.894574186199,10588.750149281192,10551.87980126561,10517.086456284325,10484.194906023407,10453.044801455448,10423.488133706425,10395.387956912635,10368.617486728084,10343.059340017626,10318.604849955049,10295.153436104187,10272.612021448069,10250.894491859424,10229.921194635115,10209.618473184313,10189.918235235315,10170.757552136809,10556.421767076185,10957.095825445589,11373.449602863495,11806.196982481366,12256.100608342966,12723.97259587519,13210.671547633194,13717.094521670017,14244.160904339591,14792.78244744134,15363.808520057613,15957.924636771828,16575.45767212132,17215.982667760687,17877.480498488352,18554.426801030768,19233.34801420799,19883.61409524912,20089.94416527409,19683.845406194385,19223.14047503651,18701.75472373402,18150.576543420488,17586.844263002196,17026.673557216953,16482.217846234198,15962.141039374323
E3,0.0,0.002118866156349884,0.003994442744541527,0.005326911434038016,0.006143524275534067,0.006555235819438382,0.006675265878365949,0.006596205340117519,0.006387471517762321,0.0060988599788674765,0.005765138612890892,0.005410093477416562,0.005049684685185447,0.004694379109169178,0.0043508280517336965,0.004023055713202354,0.0037132935735812896,0.0034225627363531712,0.0031510785544145493,0.0028985306396784394,0.0026642757993529755,0.0024474702822445296,0.002297543626741963,0.002195371260826787,0.002131758128771111,0.0021027857404805066,0.002107794770161843,0.002148704241918593,0.0022301034587420246,0.0023599543356124532,0.0025510154980535435,0.002823389502982658,0.003209059142249704,0.0037601898256009233,0.004564897633630875,0.00577826254890827,0.007684042269605054,0.010807613331526106,0.016025331214116693,0.024078092332553383,0.03096515422676843,0.03423693471058112,0.03548468227686316,0.03492925751689039,0.0331024831533306,0.030467624947313084,0.027406368797086342,0.024205102106560898
I3,0.0,0.0,0.0005720937629811719,0.0014217556117423528,0.0022913192047593314,0.0030335427895288544,0.0035900390379629615,0.003956344897312477,0.004154782071297767,0.004217486253428713,0.0041771836607222765,0.004062897351913978,0.0038984633966788326,0.0037024926665144434,0.0034889777395315166,0.003268110013923778,0.0030470908625063026,0.002830843608465284,0.002622597943604938,0.002424349828279778,0.002237213033933561,0.0020616821614088607,0.0018978261584284577,0.0017590323666760688,0.0016481695576125977,0.0015644763294986896,0.001506437849148751,0.00147296719871816,0.001463930363918206,0.001480486047768374,0.0015254791887521573,0.0016040615782535149,0.0017247519805290421,0.001901297006434315,0.002156029280671091,0.002526139715694196,0.003075814447007186,0.003920179721129336,0.005270162926034461,0.007488936432914534,0.010994445661883857,0.01495725758816032,0.018218325321327652,0.020511857745688183,0.021738012541124174,0.021980476425778328,0.021414543164344952,0.020248444190292147
A3,0.0,0.0,6.35660839237933e-05,0.00017068633654784336,0.00029635666173575973,0.00042139134537557234,0.0005337704578863237,0.0006272746552841445,0.0006997061933522896,0.0007513893993604756,0.0007840776044835751,0.0008002165119735154,0.0008024762672733355,0.0007934717908671587,0.0007756090258216297,0.0007510122659725442,0.000721501672586706,0.0006886003191822491,0.0006535572977259827,0.000617378342388336,0.0005808587288485067,0.0005446153818359739,0.0005091165285589967,0.0004762196392507919,0.0004468369520417133,0.00042142240533357315,0.0004002215949614731,0.000383411217788822,0.0003711902021193254,0.00036385536990061736,0.0003618830365130968,0.00036603701362432,0.00037753142821732007,0.00039829706713187746,0.0004314435245752772,0.0004821019624579427,0.0005590297170481669,0.0006777454015950255,0.0008664252273769932,0.0011739008688427454,0.0016614645927050741,0.0022581277511645823,0.002833611845674541,0.003331431606706989,0.0037130246467214417,0.003963495762272509,0.004084826785133978,0.004090053775547909
IH3,0.0,0.0,0.0,0.00011441875259623438,0.0003413404676833052,0.0006282776660300297,0.0009196391926409695,0.0011760589079905315,0.001377036834126091,0.001516826744936292,0.0015989937162461652,0.0016318586736154578,0.0016253706901620715,0.00158925238399045,0.001532068541543144,0.0014608836013021258,0.0013812544770033543,0.0012973892139529152,0.001212368407233814,0.001128372368664379,0.0010468862534145059,0.0009688725373564498,0.0008949095277226097,0.0008252990555702219,0.0007628689243337589,0.0007096013520651394,0.0006663313555730028,0.00063317187086021,0.0006099617651796794,0.0005965939791636142,0.0005932469296106413,0.0006005784695154962,0.0006199466185797448,0.000653731527989664,0.0007058680184017659,0.0007827824582972236,0.0008951138562930736,0.0010609984846407473,0.0013124948521314739,0.0017077560412059657,0.002348381237063887,0.0033685637378075297,0.00466925552947752,0.005969313699546475,0.007075549215528392,0.007871770605916862,0.008316842918546319,0.008425336534116788
IN3,0.0,0.0,0.0,0.00011441875259623438,0.00038047422425243867,0.0007778999303148437,0.0012602216628476639,0.0017767190115764821,0.0022838891901298185,0.0027496498834579304,0.0031534759032283955,0.0034846692986573932,0.0037400473416546016,0.003921703438849691,0.004035118433765755,0.004087695294254446,0.004087691527284382,0.00404348453237237,0.003963096820742615,0.0038539140359741346,0.0037225400433602163,0.00357474549910379,0.0034154772470018024,0.0032489049160884693,0.003081208876693986,0.002918155007247299,0.002764434937224895,0.0026236871341342428,0.002498750888029044,0.002391984681338926,0.0023056016138574085,0.00224202989663531,0.0022043398260975493,0.0021968145086492226,0.0022258015007027804,0.0023010999042283923,0.002438380119390029,0.002663644063845315,0.0030217611769804966,0.003592611716281165,0.004515937495964313,0.005992724585629338,0.008025934615517382,0.010386246270725496,0.012827848676158092,0.01512426784959832,0.017101980524615035,0.018650268697772816
D3,0.0,0.0,0.0,0.0,4.263891619566637e-07,1.6984173274006745e-06,4.0397362232636376e-06,7.466833405807042e-06,1.1849495869881617e-05,1.698111606642801e-05,2.2633672749065055e-05,2.8592430165780783e-05,3.467366105220724e-05,4.073071403278604e-05,4.665316972095983e-05,5.2362525981764306e-05,5.780660678444163e-05,6.29539443102812e-05,6.778875230387231e-05,7.230672455416735e-05,7.651167992846405e-05,8.041297182449241e-05,8.402354037092698e-05,8.735848079716297e-05,9.043401312629094e-05,9.327689538071747e-05,9.592127245147683e-05,9.840440097579157e-05,0.00010076395845447975,0.00010303702191636134,0.00010526026942633582,0.00010747104393147905,0.00010970913991221041,0.00011201941260052483,0.00011445558702158155,0.00011708605157384275,0.00012000314294928846,0.00012333884481965793,0.00012729272689264033,0.00013218382706087616,0.0001385478945822713,0.00014729929489826617,0.0001598524737834608,0.00017725276793979615,0.00019949781613384383,0.0002258653252347215,0.00025520000679357685,0.0002861932802011117
R3,0.0,0.0,0.0,1.271321678475866e-05,0.0001221491528860367,0.0004123132345623477,0.0009339840414093811,0.0017004095869109068,0.0026958717097397564,0.003887043552594462,0.005232670386075068,0.006690342261045687,0.008220573213775733,0.009788858981897887,0.011366396798520164,0.01293000842298862,0.014461643692218798,0.015947705292175273,0.017378336509753102,0.018746747997827894,0.020048618750106967,0.021281582677868546,0.02244479931198868,0.023538600943711345,0.02456450845653375,0.02552662222944801,0.026431042931757985,0.02728508654968891,0.02809674246704098,0.02887441358227643,0.02962688594488842,0.030363483630504003,0.031094399490023055,0.03183123670322823,0.03258785526234162,0.03338171237155178,0.03423605994578812,0.0351837073933273,0.03627376099939915,0.03758410838674493,0.03924414809061683,0.04146849828318673,0.044556571868240545,0.04873285424647311,0.05403380069648122,0.060352602569345604,0.06748537262290641,0.0751803801835354
G3,0.0,0.0,0.0005720937629811719,0.0016505931169348213,0.003088858954648741,0.0047476102213219965,0.0065175235855676455,0.008319845060102344,0.010100820193012627,0.01182543720366268,0.013472129112327728,0.01502871626780834,0.016489441253338788,0.01785285588184593,0.019120338021468782,0.02029506139167365,0.021381286245825686,0.02238387533678719,0.023307967115312956,0.02415875817742977,0.024941361314395467,0.02566071565544419,0.02632153251702733,0.026941869188646324,0.02753461932625328,0.028110193921184412,0.02867794597263395,0.029247050461862857,0.029827200506550168,0.030429328335967617,0.03106651589605875,0.03175528996106097,0.032517604994637905,0.03338405081275479,0.0343993018895653,0.035631824036856836,0.0371919546544475,0.039266645707372524,0.042184700800729384,0.046511539478023244,0.05301262328015838,0.06137321347118838,0.07061718423961984,0.08019804679251143,0.08962894468622269,0.09856661358732652,0.10679287089620447,0.11419258918788965
H3,7959.902772437734,7925.157165097728,7892.581278042914,7861.991257159007,7833.227592708856,7806.142457672642,7780.598869535723,7756.469911994298,7733.638012298516,7711.994270258357,7691.437835221582,7671.875327596631,7653.220301738176,7635.392747240332,7618.318625893617,7601.929441757748,7586.1618419843635,7570.957246192753,7556.261502358605,7542.024567321525,7528.200210152343,7514.745736746925,7498.958364070191,7480.846411202785,7460.428759664369,7437.734150594816,7412.800561089465,7385.674651473472,7356.411274935036,7325.073040278479,7291.72991756355,7256.458875029453,7219.343533939683,7180.473825838397,7139.945634251439,7097.860400259274,7054.324668915661,7009.4495516666875,6963.3500794358615,6916.144422787918,6868.51474829389,6821.256980130652,6774.3665892239405,6727.839206683968,6681.670613547617,6635.856731245345,6590.39361274108,6545.277434297074
S4,5380.54199922233,5470.214503252916,5559.141544566347,5647.835203423165,5736.211309781558,5824.261022867226,5911.994676029149,5999.4267087517555,6086.571662609816,6173.443165514273,6260.053722297879,6346.414720255245,6432.536489080119,6518.42837169498,6604.098794347459,6689.555333041105,6774.804775733089,6859.853180366234,6944.705928963781,7029.36777804693,7113.842905631659,7484.884916381972,7858.029967075181,8233.180944986829,8610.212440257897,8988.969469245969,9369.262820382206,9750.861538903126,10133.481629782738,10516.768588189518,10900.26895670454,11283.381327521938,11665.266979706832,12044.67727361068,12419.600243796427,12786.493526215956,13138.53182504352,13461.538200342406,13725.681612106577,13791.78629964825,13642.515858471214,13434.751954015457,13161.689366026887,12851.685793140987,12520.895670021548,12184.781987869612,11855.27463193586,11541.11230186179
E4,0.0,0.003178299234524827,0.006071233492706331,0.008205721821392172,0.009593615384119663,0.010379937878752264,0.010721144017163162,0.010748618042076948,0.010562821580205255,0.010237171413463501,0.00982398236202581,0.00935993353802906,0.008870422282372474,0.008372824193320035,0.007878859972659392,0.007396285722335499,0.006930089142965855,0.0064833317744382645,0.006057740349205093,0.005654121367923598,0.0052726515244048665,0.004913081089301455,0.004682056966905602,0.004540560112671847,0.004470540475505778,0.00446520443275056,0.004524682465603815,0.004654510545026401,0.004865773103186167,0.005176559380461323,0.005614949467215934,0.006224348782350842,0.0070729472469889315,0.008270939521433275,0.010003030506133305,0.012591886797086345,0.016623031006700796,0.023168611833482032,0.033981649847301655,0.05041971966073735,0.06435444058598472,0.07116619091070489,0.07396731930592786,0.07308012690910466,0.06953448398712782,0.06425698617261685,0.058030884324958135,0.05145531508617638
I4,0.0,0.0,0.0008581406444717582,0.002154117145378431,0.0035080147947026785,0.004695084581234144,0.005619633489877821,0.006266488476455192,0.0066620194538416395,0.006849173004269595,0.006873539604757338,0.006776598540512774,0.0065931407412198086,0.0063508980455421315,0.006071200967395482,0.005770012404063047,0.005459004241076634,0.005146526288688464,0.004838415048676192,0.004538638639787684,0.004249795688411347,0.003973493077700943,0.0037106275106366157,0.00349053166817074,0.0033202700186748518,0.003199207730221725,0.0031251296258558436,0.0030967418293211466,0.0031147627267641615,0.0031826161460390043,0.003307240477913084,0.003500380379930063,0.003780802107686552,0.0041781766900501425,0.004740059297462449,0.005544853346659466,0.0067267208534905545,0.0085242501053937,0.01137007417321598,0.015997088371231403,0.02321157496982077,0.03130264092618351,0.0379964527686595,0.042769044409669464,0.04539305748868325,0.046010141913211594,0.04495546840517278,0.04264161709306996
A4,0.0,0.0,9.534912588568997e-05,0.0002584165898250753,0.000452905310802092,0.0006501331594650362,0.0008315051500603736,0.000986838942668748,0.0011119301987895579,0.001206429301128611,0.001272259062746359,0.0013125271811464587,0.0013308201894137413,0.001330769235432488,0.001315800506271798,0.0012890065731894981,0.001253094176613442,0.001210378340138027,0.0011628029289787868,0.0011119748373625885,0.0010592037757284137,0.001005542813250056,0.0009518269133744308,0.0009019234589824546,0.0008577557832151096,0.0008203210502070073,0.000790213182267965,0.0007679112316878759,0.0007539645196867474,0.0007491450367247407,0.0007546130532285079,0.0007721391895653736,0.0008044421066290376,0.0008557424339616988,0.0009327225201669778,0.0010462693997915773,0.0012147727134642898,0.0014705098794823037,0.001871467343650692,0.0025166249618092363,0.0035258939205866646,0.004751351367973694,0.005936070154641034,0.0069678791670174205,0.007766710563463769,0.008299406226907715,0.008567237576065397,0.008594719308373465
IH4,0.0,0.0,0.0,0.00017162812889435163,0.0005163074470779383,0.0009587638065535507,0.0014165550857026207,0.0018294801595641653,0.002164519625533109,0.0024105012622615478,0.002570449760065148,0.0026549897429280567,0.0026777089483882464,0.002652333301492564,0.002591245737099202,0.0025048800126360182,0.002401625521820461,0.0022879952055420566,0.002168902971699954,0.002047963624995378,0.001927771240142116,0.0018101375912851375,0.0016962864580273782,0.0015870067173985622,0.0014885578270679746,0.001405470372404941,0.0013398739672464259,0.0012923862878034958,0.0012630562091191328,0.0012520517519558445,0.001260141369156345,0.0012890954875357935,0.0013421448474224542,0.0014246518572815984,0.0015452216150343998,0.0017176511558480462,0.0019644931485082984,0.002323812961066138,0.0028622877341002786,0.0036996544297708094,0.00504213033396023,0.007153683981173001,0.009823613410068634,0.012492206132333818,0.014775889031520675,0.01643814150081274,0.017389488055083502,0.017652397160406265
IN4,0.0,0.0,0.0,0.00017162812889435163,0.0005750080819316385,0.0011846667854634894,0.0019342545285916867,0.002748892369609267,0.003562639961059526,0.0043253748527270946,0.005003578531000827,0.005578210214995253,0.006041569617065389,0.006394145917699232,0.0066418964447635,0.006794092047384179,0.006861713737901964,0.006856321033046597,0.006789295035563219,0.006671364301057286,0.006512335504201806,0.006320966949769022,0.006104937859174963,0.0058708788807424715,0.005630226952977758,0.005394003132382961,0.005171339233263795,0.004969463850072681,0.004794190943936024,0.004650548496142894,0.004543445275295559,0.004478392812096775,0.004462370270559708,0.004504994091870168,0.004620277246296852,0.004829503052964858,0.005166232294476932,0.005685491760437876,0.0064812270699640545,0.007718888476181346,0.009684049666343031,0.012777877319187537,0.016995212629865836,0.021876954996247103,0.02693262115472205,0.03170468483845856,0.035837108580681835,0.039097819736688307
D4,0.0,0.0,0.0,0.0,6.395837429349957e-07,2.5636381018250426e-06,6.136535784369813e-06,1.1415423398095367e-05,1.823310401733488e-05,2.6299331696172448e-05,3.5282226455899163e-05,4.486118002930105e-05,5.47551775236234e-05,6.473383966212935e-05,7.46179377491276e-05,8.427438892688557e-05,9.360899243509598e-05,0.00010255881115228118,0.00011108517886837223,0.0001191677413809345,0.00012679961529989776,0.00013398358422874105,0.00014072918346891075,0.0001470505088186903,0.0001529645958795681,0.0001585118065422059,0.0001637493862277616,0.0001687425165063079,0.0001735586807597797,0.00017826554450624035,0.00018293139940440321,0.00018762740080408268,0.00019243130166946053,0.00019743289453541657,0.00020274195531193038,0.0002085003273840056,0.00021490126971432816,0.00022222208529967154,0.00023088193028600497,0.00024154843765939528,0.00025533544823279277,0.00027412528537741073,0.00030078396892729197,0.0003373923237140864,0.0003839453684108087,0.00043900871072452406,0.000500266548444451,0.0005650696429584047
R4,0.0,0.0,0.0,1.9069825177137994e-05,0.00018370114632971712,0.0006234490090048536,0.0014205575534317065,0.002601870176902059,0.004150228617979443,0.006020639683199165,0.008154459674295665,0.010489576708317136,0.012966748955726888,0.015532989974220894,0.01814295597876634,0.02075911013764364,0.023351214610696322,0.02589550834486625,0.02837378639197863,0.030772500515942814,0.03308194024712018,0.03529551751199132,0.03740915793033336,0.039420791710974415,0.041330575801073625,0.043143999029781784,0.044870769056504,0.04652323347565543,0.04811529927428901,0.04966193731014198,0.0511791605246512,0.05268438166988179,0.05419713094055192,0.05574020778091678,0.05734146497077318,0.05903661947423783,0.06087384251635728,0.06292158530634223,0.06528251739684952,0.06811914592560483,0.07169988216153474,0.07646551979637849,0.08302292301732282,0.09182177471228159,0.10293706620719434,0.1161582518200181,0.13107716169647032,0.14718437321790934
G4,0.0,0.0,0.0008581406444717582,0.002497373403167134,0.004712917910642754,0.007303193615055291,0.010105776356192626,0.013000484738721126,0.01590261110668965,0.018754572438654263,0.02151860824084984,0.024171083018508212,0.026698264635420355,0.0290932782362306,0.03135394037630081,0.03348123219992657,0.03547822899856538,0.03734935274260786,0.03909985201807097,0.04073544162865294,0.04226205413319167,0.04368566979784581,0.045012201461861856,0.04627635662365063,0.04750230764142304,0.048709353360439855,0.04991495834816266,0.051136622401970304,0.05239334003114178,0.05370709854112229,0.05510476933141197,0.05662080542459418,0.0583013793043227,0.06021107472976091,0.06244422801319327,0.06514504578137527,0.06854485462687014,0.07303307222016951,0.07928859633014927,0.0884636401974511,0.10207696214453302,0.11945265808882408,0.13866752630177348,0.15863869905024724,0.17837032989312882,0.19714463731313045,0.21449402057037628,0.23016235662034257
H4,3979.951386218867,4046.283909322515,4112.3268856983295,4178.098396348687,4243.614990158345,4308.891886764252,4373.943073911524,4438.781397824322,4503.418647090941,4567.865630526761,4632.132249445581,4696.227564739094,4760.159859135733,4823.936694983551,4887.564967877221,4951.050956426334,5014.400368440982,5077.618383790851,5140.709694175791,5203.678540028779,5266.528744756459,5042.513785174437,4819.427161491467,4597.461567303725,4376.8334060712095,4157.785145486253,3940.5877534444753,3725.543160094302,3512.9866618041515,3303.289145294517,3096.858962139122,2894.143224390538,2695.6282215193523,2501.838579783747,2313.3347040236195,2130.7079709051945,1954.5731017626238,1785.5571613503587,1624.284743226189,1558.8932978472808,1616.5278347038468,1673.765457606296,1730.6092657740514,1787.0623206842508,1843.1276474066171,1898.8082358528472,1954.1070419465584,2009.0269887194008
E_Om,0.0,0.0,2.497213736226139,3.23811127906394,3.526229435486666,3.7052575009148736,3.865137141848307,4.028667994815183,4.200999907937292,4.382770550803335,4.573572954140098,4.772848178217433,4.980095471642762,5.194905269944449,5.416949501198654,5.645964348490738,5.881734096979058,6.124077716821681,6.372838093899018,6.627873466540876,6.889050623035033,7.156239486200292,7.657687316218896,8.365473453178161,9.30839880651744,10.549798974933518,12.188314859991202,14.371319484830277,17.321026679776764,21.38005425648221,27.091773929121548,35.34687633888774,47.66213680069491,66.73641183864665,97.61915817798854,150.30374405041357,245.75856104966263,430.0283116200302,802.0585601088776,1523.395092968174,2422.730868074206,3265.4579051533674,4089.217986179832,4775.139443962251,5295.428228255503,5636.625018546969,5806.124402842683,5823.606639398619
I_Om,0.0,5.0,3.0,2.47424759182853,2.358838448793247,2.3673848517127154,2.420850262745555,2.496097004929609,2.5853983728824237,2.6855088021262254,2.7946531247334367,2.9116563582628006,3.0356625995486013,3.1660231038388655,3.302238041894249,3.4439189367670693,3.5907614717341256,3.7425248137643523,3.8990155849902672,4.060075337886451,4.225570728293339,4.39538578255913,4.569415795659913,4.809224694140996,5.144212257060754,5.599794596053995,6.20832198678353,7.015837633449873,8.089758167919122,9.530531293091977,11.490932423808882,14.209337146353498,18.06925724390422,23.710329050359448,32.24502550117009,45.704183436940745,68.00451391656979,107.15750832368929,180.4021289920169,324.7970510616327,606.1948343929092,1017.8541215515253,1492.3859543904591,1999.520237391639,2488.9995686696984,2923.16511482892,3275.7875599238087,3533.1258528023845
A_Om,0.0,0.0,0.0,0.07491652903931138,0.15707671325450231,0.231448418812834,0.29631663360680405,0.3530076021576593,0.4032663102460241,0.44864324218123525,0.4903979155282876,0.5295257352419208,0.5668062570678452,0.6028481030373998,0.6381258838223258,0.6730094457869362,0.7077867515028867,0.7426816995721501,0.7778679779725683,0.8134798236554692,0.84962037332517,0.8863681399875192,0.9237820317256675,0.9687566035011541,1.0259698781782158,1.1000283026802617,1.1965171054731314,1.322863700996111,1.4894312183967737,1.7111765863099455,2.0103438980389243,2.4210296050994358,2.997231629653748,3.8276516399145524,5.064216792571214,6.979952751214846,10.093081561690603,15.447233590503863,25.258656360608825,44.26871945472776,81.11689969830476,137.57555926512563,208.02433749856675,289.0962010954397,374.5313678303121,458.4881891137999,535.8895658286739,602.8956566676442
IH_Om,0.0,0.0,1.0,1.0980769676448143,1.0417763646508478,0.9906525024279818,0.9668981647416193,0.9657597584649529,0.9802420929555339,1.0053156837935833,1.037826347734926,1.0758480251683917,1.1181863936750944,1.164075408133102,1.213003770160608,1.2646168479621724,1.318660312218956,1.3749466240104065,1.4333342079134481,1.4937138728971653,1.555999543918902,1.6201216801505085,1.6860224501768128,1.7536521084971295,1.8352986633323842,1.9429624443673257,2.0877037617490326,2.281501556349336,2.539530903553376,2.882833485265986,3.3419792191846085,3.9627493601852297,4.815621614128187,6.012401659670637,7.736704596983289,10.30247946546315,14.272264418769005,20.7095889664394,31.7464709383125,51.89261177678229,90.80592492927585,166.46730661153822,286.48435559937957,441.1684499927095,619.6398912712593,806.428271810091,986.296371212002,1146.4090177571197
IN_Om,0.0,0.0,2.0,2.880198389212847,3.317406100009157,3.5557699708395196,3.698734455108477,3.7966821776059296,3.876436176106724,3.952864361640243,4.034237557991218,4.125028735955189,4.227489874735769,4.342575797635398,4.4704952752772815,4.6110418243204645,4.763791967552711,4.9282230338661535,5.103781896748961,5.289923757079668,5.486132667646833,5.691930994473971,5.906882256710011,6.130590093839652,6.378384441533791,6.670557295278121,7.030512487508023,7.485986736870572,8.071775810952175,8.833940648145282,9.83623947183677,11.170322412265156,12.972547583107056,15.452856055358112,18.946488444012537,24.010973928475586,31.61751924093548,43.55006262855994,63.28336404771113,97.97837439949626,162.73974173332115,286.3130790103213,490.9695629903373,778.8111032456156,1144.0678921088465,1569.5034313193507,2031.412542701638,2503.5414351400727
D_Om,0.0,0.0,0.0,0.0037265671254197584,0.00781862465422554,0.011700874206772694,0.01539260725503563,0.018995818169390444,0.022594786736339266,0.026247724694900013,0.029994101072794065,0.033861630622157496,0.037870850504697795,0.04203784715945909,0.04637585230691748,0.050896192279808225,0.05560887185167602,0.06052294802078693,0.06564677890903099,0.07098819504798082,0.07655462006150282,0.08235315680903915,0.08839064900146787,0.09467372483701644,0.1012088271339649,0.10804819079806618,0.11528877076917067,0.12306873897531978,0.13157090767180524,0.14103464005097477,0.15177771254522626,0.16423182243727563,0.17899927392922005,0.196945011124891,0.2193506294946388,0.24818197850484064,0.2865748597911477,0.33976141117943043,0.4169370846027193,0.5352424395495283,0.7286237406490554,1.0670181152838294,1.6873697075595586,2.7549728890832705,4.399016731598492,6.708146380008642,9.713355466745195,13.388855099624646
R_Om,0.0,0.0,0.0,0.8179980760169195,1.8405854877840648,2.9214660400729615,4.029865780947706,5.162264973889307,6.321097130271859,7.509948804717199,8.732588368297295,9.992787204038624,11.294271451501206,12.64068824747517,14.035577489200012,15.48235265159389,16.984291485688352,18.544534914714323,20.16609163486471,21.851846102177927,23.60456810767871,25.426922687076008,27.321479559627655,29.290721621161865,31.33842251710093,33.47786460876079,35.732474775093806,38.136049439820816,40.73427349920073,43.58802851549977,46.779035509404764,50.41888913647245,54.663466331555256,59.73635913007405,65.96817084132923,73.86497184416511,84.23299531665151,98.4176701044174,118.78825093120707,149.77502268755956,200.1483033148714,287.6330898489178,443.8633173605961,706.7001067094351,1108.8404319442197,1675.3864864301163,2419.8087014659586,3343.1804821030637
G_Om,0.0,0.0,0.0,0.6742475918285303,1.5485374855246592,2.500619267961427,3.5010386196793526,4.544625466961628,5.632365636886288,6.766635415283059,7.94998325874076,9.184847742163498,10.473516526754418,11.818142070864125,13.220766250455053,14.683342362085574,16.20775247175946,17.795820402483333,19.44932109921499,21.16998708610728,22.95951261166875,24.81955595725188,26.751740283376314,28.819315500121363,31.077992940697516,33.59126018251506,36.439705411666196,39.73054985304594,43.61080544089514,48.28748183323565,54.06009548118934,61.37487317325751,70.91852812934964,83.78730283336654,101.80613090432098,128.16329904055965,168.745302894965,235.10010286871238,351.20772686651577,567.7635005329383,979.0801042888679,1633.2173252046478,2514.8908066641916,3618.979471421555,4908.266897656271,6338.032271283371,7859.920762309828,9427.574079157928
beta,34.475958679393194,34.475958679393194,34.4758604938167,34.465530234070464,34.459303447472784,34.45401383100159,34.44881150122945,34.443460939599,34.437890623044964,34.43207320618426,34.42599347082625,34.41963968384072,34.413001229568415,34.4060679374094,34.3988298752796,34.3912772767503,34.38340051086852,34.375190068866104,34.36663655979953,34.35773071218407,34.348463380203164,34.33882555361364,36.12923308017972,38.08113238252938,40.226915659029935,42.60723477347224,45.27394016088592,48.29423120436595,51.756700525868766,55.7803529783924,60.52837964645561,66.22967947279042,73.21318172590036,81.96326080184762,93.2081483737191,108.0488383674958,128.07367018018974,155.02688940199647,187.86263961601176,211.478250201735,166.54051116877687,106.14937629403451,74.7257716015011,55.73305018233757,43.88453911104255,36.049073571743854,30.636645625872372,26.758773270448415
