series,2021-11-15,2021-11-16,2021-11-17,2021-11-18,2021-11-19,2021-11-20,2021-11-21,2021-11-22,2021-11-23,2021-11-24,2021-11-25,2021-11-26,2021-11-27,2021-11-28,2021-11-29,2021-11-30,2021-12-01,2021-12-02,2021-12-03,2021-12-04,2021-12-05,2021-12-06,2021-12-07,2021-12-08,2021-12-09,2021-12-10,2021-12-11,2021-12-12,2021-12-13,2021-12-14,2021-12-15,2021-12-16,2021-12-17,2021-12-18,2021-12-19,2021-12-20,2021-12-21,2021-12-22,2021-12-23,2021-12-24,2021-12-25,2021-12-26,2021-12-27,2021-12-28,2021-12-29,2021-12-30,2021-12-31,2022-01-01,2022-01-02,2022-01-03,2022-01-04,2022-01-05,2022-01-06,2022-01-07,2022-01-08,2022-01-09,2022-01-10,2022-01-11,2022-01-12,2022-01-13,2022-01-14,2022-01-15,2022-01-16,2022-01-17,2022-01-18,2022-01-19,2022-01-20,2022-01-21,2022-01-22
S,74676.79915377278,67957.67290274648,64449.55638798715,61994.55373978215,60110.45137497109,58596.32396751841,57347.01676222305,56299.27172103671,55411.13018338025,54652.71393200066,54001.620428069626,53440.414921657466,52955.16039107205,52534.498362037724,52169.04057013318,51850.946042559226,51573.61459863619,51331.45696906946,51119.71753233591,50934.334570355844,50771.82816101301,50629.20899488669,50503.90339974086,50393.69115693875,50296.65356920822,75103.39623086393,99858.65755706516,124568.69331776777,149239.47590395884,173874.28847393158,198473.11293424558,223030.74749333167,247543.29817742476,272001.931428534,296395.2650245848,320708.9519013825,344925.0102688294,369020.8912270879,392968.25258130394,416731.3866005734,440265.23205256474,463512.8894751491,486402.55766314367,508843.8262506502,530723.3059504814,551899.6713372949,572198.3515998044,591406.3515581635,609268.0243776188,625483.0214097899,639708.0269606935,651564.0825581996,660651.0903033402,666570.2481956135,668953.6615436897,642606.1805351913,613815.9115888294,582767.304169609,549985.2811374295,516111.5159549834,481813.9724081949,447728.1307484732,414416.57983156387,382344.8526462841,351871.548965443,323249.7212623645,296636.0065352353,272104.1924407481,249660.54592469073
E,0.0,6719.126251026306,8242.204106605095,8262.20357475098,7705.394295225073,6943.108819690961,6141.205955838012,5374.647949144244,4674.951491212053,4052.24182038826,3506.177186594145,3031.549014443832,2621.189775314411,2267.4709038182336,1963.0473399499708,1701.1966910202052,1475.9417758866157,1282.0603470434778,1115.0393233830866,971.0050247358815,846.6463804469565,739.1399003129704,646.080603678419,565.4205622973782,495.41534819271163,434.57798461556484,443.1952039229133,494.4921944067502,569.8876346052018,658.9789354355937,757.738007574521,866.4443082413704,988.0468330387889,1127.1915387397557,1289.7564199407282,1482.8168991651494,1714.8869856875447,1996.3497289572297,2340.0348086809186,2761.932681803097,3282.051027814312,3925.420651611708,4723.243820581456,5714.144717670248,6945.422693442761,8474.115814466531,10367.54787317509,12702.858205834547,15564.822745042502,19041.126018262818,23214.24688265903,28149.429303459714,33878.97097600867,40384.31019256444,47578.90815175978,55296.17993478375,61998.7336514139,67632.35837846421,71930.80220100113,74666.92011826839,75729.27524713418,75139.08260628337,73037.07520661612,69653.81925561935,65273.33342658701,60197.619543327135,54717.16655341904,49089.906831880144,43528.959114902114
I,4981.911363691487,4458.546834716173,4188.667163931443,3992.1356031564005,3816.8411107558954,3643.511947299246,3465.8712439171604,3283.20151989259,3097.075285621309,2909.8309556222935,2723.86041805061,2541.294189774492,2363.885093061452,2192.9900599484654,2029.5981012235418,1874.377333271367,1727.7270845069725,1589.8281482117088,1460.6880433808515,1340.1801686788167,1228.0767820670944,1124.0762471674404,1027.8252007223625,938.9363507291931,857.0025891927049,781.6080401946812,712.3365868993569,650.5968841616857,596.8585923485108,550.9930826470028,512.5779142791406,481.1160228465607,456.1708180711759,437.43869726806463,424.78520811079636,418.2636771110716,418.1308586375822,424.86806454008774,439.2127909755303,462.2040865481135,495.2442525127036,540.1793632447077,599.4010452922123,675.9714896828782,773.7722735870313,897.6745727843773,1053.7229133312278,1249.315779942337,1493.3533602897214,1796.30539544653,2170.1322225877575,2627.974391784652,3183.519508891089,3849.9714305378757,4638.598538631582,5556.928813148979,6606.7779614124565,7744.351612172735,8928.854563351417,10115.911360733862,11259.097753799964,12313.574305140008,13239.838850480211,14006.696735183028,14593.04203752079,14988.376869351358,15192.228248943658,15212.754828763504,15064.87829445495
A,44837.202273223396,35869.761818578714,30482.34424812545,26577.378260553563,23458.723088346127,20815.750065365002,18498.68911452548,16431.824034712477,14574.51342379977,12902.624069022855,11399.541579170924,10051.883574042959,8847.559251977731,7774.990212059633,6822.885389843243,5980.2589707279385,5236.534899733317,4581.663072355531,4006.21487223897,3501.447432355728,3059.3364941531736,2672.5822769568063,2334.5942241677903,2039.460435099068,1781.9068697309367,1557.2504736458718,1361.3494340907996,1206.9198173366835,1097.0153762506145,1029.1385634094972,998.5254176518221,1000.293749582657,1030.6121119969166,1087.199449564759,1169.4662220057198,1278.503685106287,1417.0661131790766,1589.6206982587155,1802.5019218426246,2064.1886265342628,2385.7155564437508,2781.230308006968,3268.7063481035793,3870.818757559352,4615.977306368249,5539.486138507013,6684.754304500643,8104.409630813123,9861.064799616812,12027.350856695008,14684.68689908448,17920.138339751615,21820.7050940942,26464.57466286097,31909.361711986327,38178.14834858585,45245.107333592154,52680.802877444294,60127.27231654523,67227.35234066178,73634.91718000884,79043.43649287886,83213.32682401277,85990.34062282438,87312.3846281325,87205.3013775406,85770.06355094163,83164.68680684936,79584.1647859074
IH,0.0,199.27645454765948,373.76741657993546,534.0912468674131,683.4556420865226,822.9218702183249,952.7598212281142,1072.9830948465678,1183.5763287681286,1284.5873579714437,1376.1566296304322,1458.5175523783776,1531.9842450257588,1596.9348690950335,1653.7945556201107,1703.019780635601,1745.0849236752354,1780.4711702774969,1809.657639057853,1833.1144906795005,1851.2977361477876,1864.6454646167008,1873.5752339455048,1878.4823983799138,1879.7391804752876,1877.6943254645278,1872.6732042279107,1864.9782553533018,1854.962419158124,1842.9906019908024,1829.4155134264024,1814.566149484171,1798.7452659345613,1782.232304342876,1765.289162107592,1748.1672975063811,1731.1154425800855,1714.3877929300718,1698.2528844370754,1683.003563515229,1668.968579421838,1656.5264205600874,1646.1221042213563,1638.287713036791,1633.6675350651678,1633.0486709284653,1637.3978579795123,1647.904932928899,1666.0326789150386,1693.5716190781036,1732.6964652950785,1786.0183177811025,1856.6234406330886,1948.085961772069,2064.4390952656922,2210.0888507439636,2389.657213246346,2607.749478705822,2867.1301733141186,3168.878592183464,3512.2781554542516,3894.7691607702313,4312.047793163591,4758.313320027757,5226.629318639003,5709.349172079537,6198.55411470549,6686.45948753256,7165.757412064103
IN,324.0880744276549,583.3585339697788,756.7284904899602,877.8679846156637,961.9946204004774,1017.8925036454735,1051.335235321326,1066.5333673129546,1066.8086668848064,1054.9208443023463,1033.2297885611836,1003.7790102592878,968.3419143009748,928.451250884358,885.4214926117534,840.3685556430073,794.2286358536085,747.7766674388577,701.644358892869,656.3375661438238,612.2527381428055,569.6922187572443,528.8782607422141,489.9656789763613,453.0531308719296,418.19305877909517,385.40036261904675,354.65989269738367,326.05116642475525,299.6683505261501,275.57841069670485,253.80743847002256,234.34397156318374,217.15043866050306,202.17703245649398,189.37516058512261,178.70941820092764,170.1681840588948,163.77347192291995,159.5908691111941,157.74043866425623,158.40945486022244,161.86782972177443,168.48707525023048,178.76360563324567,193.34706030048184,213.07403519271918,239.00702136677333,272.47730498904235,315.1288985341206,368.9580996158154,436.3400016460282,520.0295110159892,623.120972097651,748.9488103292925,900.9136076448598,1082.2255469623935,1295.570891749867,1540.2496993553923,1813.0481670595434,2108.508498094336,2419.2444201914004,2736.4299774639476,3050.4346725395953,3351.524802939148,3630.5404040237618,3879.4705853981145,4091.8758658849065,4263.135405024595
D,3374.0,3374.0,3374.2292938979012,3374.659362708843,3375.2739052753855,3376.0603113190514,3377.0071916904367,3378.1034677842126,3379.338076643337,3380.699937634405,3382.178025164477,3383.7614752436484,3385.4396924494954,3387.202442794801,3389.0399274171577,3390.9428366235993,3392.9023859571676,3394.9103367972516,3396.9590041908,3399.0412544740457,3401.150494965208,3403.2806576834305,3405.4261787273294,3407.5819746510256,3409.7434169159483,3411.9063052747715,3414.0668407576513,3416.2215987769428,3418.3675027405675,3420.501882160928,3422.6224864234077,3424.7274707523725,3426.8153689255864,3428.885063081344,3430.935756892391,3432.966955379042,3434.9784528975943,3436.9703300034325,3438.9429597375747,3440.8970241270595,3442.8335421574307,3444.7539110836983,3446.659963661805,3448.5540446989,3450.4391112335206,3452.318861642769,3454.197899967039,3456.081942605811,3457.9780750229575,3459.895065807675,3461.843743782676,3463.8374400641,3465.8924901839778,3468.0287808290705,3470.270311192681,3472.6457212139385,3475.1887205283597,3477.9383369761063,3480.9388973989594,3484.237909591451,3487.884123219783,3491.925463430322,3496.4069100935785,3501.3684909721374,3506.843559319076,3512.857487116395,3519.426847902728,3526.559103630271,3534.2527589722163
R,0.0,9032.258069530211,16326.50375749838,22581.1110926803,28081.866828054754,32978.43138005884,37360.115540371735,41287.435710385544,44806.60740880565,47956.38194817304,50771.2368098739,53282.80112731524,55520.440501913436,57511.46276447705,59281.17348831636,60852.89065463437,62247.96656086621,63485.83415392152,64584.08009163497,65558.54035769169,66423.41207817929,67191.37510473403,67873.71776339084,68480.46230804364,69020.48676052761,69501.64083086781,69930.85444471434,70314.23805838758,70660.44780799243,70978.7728979684,71278.02848836333,71566.09675021746,71849.89461411825,72135.57593098906,72428.83590494907,72735.24663028051,73060.59330391098,73411.20941707665,73794.32419488062,74218.44304180512,74693.78557045915,75232.80832951673,75850.84172038059,76566.87290790484,77404.50804549106,78393.14623256229,79569.39162985986,80978.71509674363,82677.34717997401,84734.33380435899,87233.6084470307,90275.82718690681,93979.58165788588,98481.47054747948,103934.4138678355,110503.59474834435,118359.57293029965,127668.46874295981,138511.13630625443,150896.74746090674,164762.41823998123,179974.93494022734,196338.2540159904,213606.57182256223,231501.20368408415,249728.97347056147,267999.9025982361,286042.4609269072,303615.2920747311
G,178485.0,178485.0,178683.5038659181,178927.00418392397,179171.09534835766,179398.73663665634,179603.85764357116,179785.28794835918,179944.07174791803,180082.18434013837,180201.9001539109,180305.48352176714,180395.04489873862,180472.48298879166,180539.47112436892,180597.4656420193,180647.72427792495,180691.32818376593,180729.20422980533,180762.14595586807,180790.8324612312,180815.84502585724,180837.68151503525,180856.76874345355,180873.4730236371,180888.10913228831,180900.94791619657,180914.04127953702,180928.65011535716,180945.48636673592,180964.95465194975,180987.34058700097,181012.9380439266,181042.12801725633,181075.42875751783,181113.53216946247,181157.3391878063,181208.00227755244,181266.9806512453,181336.1125500298,181417.7086228316,181514.67060759294,181630.6397300038,181770.179027679,181938.99261660353,182144.18198253823,182394.5336929488,182700.82326930575,183076.10516874646,183535.93839285776,184098.47241660533,184784.29339665914,185615.91499913612,186616.80506442342,187809.8830623898,189215.5118378339,190849.13279946984,192680.7680228666,194678.83802448766,196803.89741197941,199009.79022392156,201247.06830712955,203466.91026598617,205624.65239527667,207682.4426319292,209610.81970693308,211389.24442347852,213005.75953082254,214456.0279019812
H,746767.9915377278,746767.9915377276,746767.9915377279,746767.9915377276,746767.9915377278,746767.9915377278,746767.9915377279,746767.9915377278,746767.9915377278,746767.9915377276,746767.9915377278,746767.9915377278,746767.9915377278,746767.9915377279,746767.9915377278,746767.9915377278,746767.9915377279,746767.9915377276,746767.9915377278,746767.9915377278,746767.9915377278,746767.9915377276,746767.9915377278,746767.9915377276,746767.9915377276,721875.7251531369,696983.4587685459,672091.1923839549,647198.925999364,622306.659614773,597414.3932301821,572522.1268455911,547629.8604610002,522737.5940764093,497845.32769181835,472953.0613072275,448060.79492263653,423168.5285380456,398276.26215345465,373383.99576886377,348491.7293842728,323599.4629996819,298707.19661509094,273814.93023050006,248922.66384590912,224030.3974613182,199138.1310767273,174245.86469213635,149353.59830754544,124461.33192295453,99569.06553836359,74676.79915377266,49784.53276918173,24892.266384590795,4.547473508864641e-13,4.547473508864641e-13,4.547473508864641e-13,4.547473508864642e-13,4.547473508864644e-13,4.547473508864643e-13,4.547473508864644e-13,4.547473508864644e-13,4.547473508864645e-13,4.547473508864645e-13,4.547473508864645e-13,4.547473508864646e-13,4.547473508864647e-13,4.547473508864647e-13,4.547473508864647e-13
S0,26136.879703820472,22382.94908521676,20421.278386139697,19051.413002007856,18000.005695988948,17153.649220629824,16453.094572686565,15862.738493140621,15359.008211015735,14925.171239154586,14548.739979703543,14220.0531048641,13931.439608424009,13676.693082355694,13450.722007435197,13249.305807301682,13068.917849536701,12906.592850264517,12759.824966584358,12626.487862864116,12504.770989723138,12393.128127149454,12290.235397737593,12194.956717213498,12106.315167428482,19995.399083000437,27799.807235479188,35523.12970310677,43168.996904895175,50739.68949749993,58235.76625923079,65655.38011974058,72996.76535138798,80255.95237019779,87427.67760713046,94505.20622038531,101480.02630475929,108341.41557324433,115075.87121994239,121666.38435673031,128091.53389902705,134324.3727711635,140331.08434514626,146069.40324176976,151486.82824930467,156518.71449084458,161086.42631092246,165095.86821034783,168436.88526484222,170984.2123769563,172600.794729476,173144.30052381803,172477.3768597252,170481.56319064554,167073.79054032898,155068.8355664791,142440.46188011003,129376.99139556036,116196.93118778321,103238.2237116307,90809.83508516716,79163.40667894362,68478.86909186517,58861.82498653306,50349.955812302884,42925.1169961143,36527.881629995056,31071.944033093412,26456.688752207814
E0,0.0,3703.4554139515076,4497.22809845431,4469.639687311661,4135.54241365724,3698.1549161726944,3246.714556472258,2820.5780975186785,2435.529772212958,2095.9108314091427,1800.5802140480234,1545.9426003484268,1327.502233511399,1140.6493685903622,981.0396294117684,844.756409612463,728.3589878433363,628.8725037938905,543.7505759714044,470.82727828918524,408.2673217981354,354.51887606228826,308.2710101437557,268.41639438341946,234.01920219498567,204.2878104069386,211.01574140034455,240.23835281189267,282.0627607358936,330.8598969363625,384.3831837070536,442.6885127959574,507.2575981919452,580.4670433004466,665.324712325509,765.4339044497492,885.101987096915,1029.545489161304,1205.1666248881822,1419.892389231912,1683.5752268463905,2008.4539675237297,2409.664906880446,2905.773879665736,3519.267784137124,4276.8944892015425,5209.671001613685,6352.294191636304,7741.601202438682,9413.673015789696,11399.215579285103,13717.069236533222,16366.158388217627,19316.895410600377,22503.84603230602,25822.027395589685,28503.739773659912,30528.466039318067,31792.644185574838,32229.29500639951,31840.006572845472,30695.677269472086,28921.882435513013,26677.178613338372,24130.487072309646,21441.873830356668,18749.04761180413,16160.087909073427,13751.621284726802
I0,4981.911363691487,4458.546834716173,4099.574877653261,3801.7644981554977,3534.424932786882,3285.2999082397864,3049.424418971896,2824.9913968877086,2611.5463328020005,2409.148780346064,2217.980290904604,2038.1696328632077,1869.7258301904958,1712.524140236236,1566.3167387463911,1430.753489767828,1305.4053314443101,1189.7866265380405,1083.3748688234068,985.6272148788069,895.9938604040372,813.9285395295262,738.8965273389166,670.380544377436,607.8849389689091,550.9384818872596,499.0960609227833,452.8986036546411,412.4176526954932,377.42496836689645,347.5499880786106,322.39470705129617,301.6045833011713,284.9060949637979,272.12466670463095,263.192924498627,258.1570248147951,257.18552826528554,260.5834001426136,268.81270953361616,282.5211718606994,302.5795299515423,330.1286255818214,366.63662492450703,413.9659513950855,474.4477081605851,550.9583242568781,646.9883900889984,766.6868525636017,914.8550831020902,1096.8559991578013,1318.396276934065,1585.1396917019586,1902.1232458369332,2272.9806793771077,2699.030865536226,3178.352606193044,3686.546295585116,4201.169439043042,4699.0776489083855,5157.5791500727255,5556.412922095108,5879.540983241766,6116.32007489852,6261.909297159363,6316.966760115193,6286.8102849427205,6180.267383550323,6008.431215613345
A0,44837.202273223396,35869.761818578714,29680.51367162182,24940.169756369964,21140.559197722272,18012.03830720677,15392.925523965996,13177.60273963351,11292.039957057852,9681.210016054323,8302.245474822417,7120.548985520829,6107.486717622903,5238.956239089068,4494.449928593023,3856.4065717416393,3309.735818531918,2841.4505425700627,2440.3700631923193,2096.8727836790963,1802.6855329791217,1550.7017930108482,1334.8237362752116,1149.8245400160104,991.2283204006471,855.2055453381204,738.4821060829454,646.8922305470855,581.3902707455359,540.1093095385914,520.0591117265977,518.2501511793826,532.3056679358402,560.7182239416085,602.9137789919637,659.2328558098758,730.9059464541297,820.0627217227393,929.7939304967118,1064.2744435863951,1228.9518501826542,1430.80386807959,1678.6668290376656,1983.6343572768797,2359.5177841595087,2823.345170351396,3395.8509007683965,4101.869532093269,4970.494189835249,6034.793927368526,7330.817486144663,8895.568201188787,10763.658161108704,12962.49104787921,15506.122814069004,18388.40003659459,21576.48629877413,24839.990350568558,27989.14393478538,30844.596554568958,33245.05884776757,35061.921573637635,36211.14836664781,36658.899105548015,36420.259969438506,35552.21403384849,34142.907386683684,32299.47199049205,30136.350451413855
IH0,0.0,199.27645454765948,373.76741657993546,530.5275554162858,672.3459728747532,800.730242328686,916.668553166569,1020.9313983215376,1114.202098637312,1197.132589778812,1270.3645912466825,1334.5346837093648,1390.2722969883266,1438.1950584676933,1478.9036705053097,1512.9773142357074,1540.9699729883193,1563.4077621855204,1580.787204859827,1593.5743287515586,1602.2044421262794,1607.0824489771435,1608.5835781084922,1607.0544182312028,1602.814169235705,1596.156036577494,1587.3487105037452,1576.6378844773146,1564.2861411689028,1550.5538506834478,1535.6872220251364,1519.912883836662,1503.4371650917194,1486.4482258871185,1469.1196493514287,1451.6146811983226,1434.0907175439934,1416.7039591672724,1399.6143307746136,1382.9908652243898,1367.0178116684801,1351.9017673589246,1337.8801668790015,1325.2314901861437,1314.287562407834,1305.448293264305,1299.1991085601048,1296.131110666065,1296.9636028307027,1302.5679460265994,1313.9907174964546,1332.4727866332573,1359.459310737954,1396.5940712271345,1445.6905644119524,1508.6725913546788,1587.4795316151558,1683.9364393512283,1798.8571162906044,1932.1419380892307,2082.7674300841086,2248.822224710698,2427.6214497470764,2615.8905974277905,2809.9927077614957,3006.167467075521,3200.753552159943,3390.373105773043,3572.066646441704
IN0,324.0880744276549,583.3585339697788,756.7284904899602,872.0722677916576,944.9738433008667,985.9038739906421,1002.4415785975435,1000.3273438100923,984.035923852834,957.117554938128,922.416300175782,882.2192205083816,838.364341454471,792.322670464744,745.262898621276,698.1038570887528,651.5578334192076,606.1667459110329,562.332537063746,520.3427703010206,480.39218279108326,442.60079787205507,407.0290980033541,373.69068371458957,342.5627848704165,313.59494175451545,286.716131738426,261.8405808531638,238.9348588630341,217.97687563811127,198.93411140806836,181.75644416374743,166.37788490933028,152.72257844311704,140.7120471971839,130.27215247515522,121.3392004402587,113.86523863795085,107.82287047114566,103.21001755676781,100.05507614960169,98.42289905812895,98.42201292638391,100.21345420256495,104.02156059871594,110.14695843809068,118.98179393745386,131.02690428962893,146.910032482499,167.4032741783362,193.4366493239678,226.10304752471572,266.64801663648,316.43644028304715,376.88789727118944,449.37443618712484,535.079492504595,634.8248349804655,747.6806120731009,871.4429918692653,1002.8432979427814,1137.7904220426644,1271.6934382411912,1399.8362876320582,1517.7537476266514,1621.5587252921916,1708.1843582910506,1775.5230967547625,1822.4631565565765
D0,3374.0,3374.0,3374.2292938979012,3374.659362708843,3375.2698047773833,3376.0434276783353,3376.964773648925,3378.0195219688712,3379.194238471843,3380.47627524245,3381.8537345034447,3383.3154568606783,3384.8510153901925,3386.450707410226,3388.1055409009505,3389.80721502999,3391.548095389411,3393.3211850023167,3395.120092257136,3396.938996857669,3398.772614734222,3400.616162696793,3402.465323450937,3404.3162114525403,3406.1653399536067,3408.0095894878004,3409.846177960413,3411.6726324403767,3413.4867626994233,3415.286680645352,3417.0707977761786,3418.8378088859176,3420.5866695347895,3422.3165726917673,3424.026927828884,3425.717344148502,3427.3876186887533,3429.0377295928033,3430.6678347334573,3432.278275998032,3433.869589768486,3435.44252442978,3436.998066084316,3438.5374740343655,3440.0623280101945,3441.574589550734,3443.076680343901,3444.5715806241556,3446.062950767358,3447.5552788028203,3449.0540553758156,3450.5659753570526,3452.0991614014747,3453.663399008495,3455.2703650652943,3456.933823126235,3458.6697503330574,3460.4963553399994,3462.433946767311,3464.503769621686,3466.7269542788417,3469.123453471632,3471.7110206519146,3474.5043199712172,3477.514247827113,3480.7475158140364,3484.2065087885653,3487.8893987710353,3491.790471110598
R0,0.0,9032.258069530211,16326.50375749838,22420.744977379574,27592.835102611112,32022.16081577233,35836.30159153293,39132.034395329596,41986.17465107508,44461.63915265719,46611.06115734066,48479.08090915657,50103.88816386846,51518.324955392156,52750.718257384025,53825.53817451731,54763.93686076206,55584.20092559995,56302.137498428565,56931.40698474045,57483.811452880356,57969.545195637125,58397.412565509396,58775.017265334354,59108.926652350005,59404.81415408699,59667.58252838215,59901.4703899298,60111.870509405395,60304.36461397445,60484.16136127195,60655.86933250076,60823.49329794751,60990.55322789622,61160.25585357029,61335.680557309795,61519.962965060826,61716.47492290496,61929.00745935972,62161.96717984464,62420.598320240075,62711.243662029214,63041.65825548021,63421.3904376391,63862.24453873445,64378.83805334489,64989.26148134024,65715.83945086547,66585.97441143777,67633.0260587725,68897.13815436311,70425.86923230511,72274.41962297606,74505.18744809697,77186.35441632128,80389.23030076074,84184.20356247123,88635.36731223168,93760.9339327982,99540.99097507862,105919.31331367056,112806.74561499615,120087.55773879935,127628.2452921068,135287.53313554917,142926.20422354763,150415.59236772143,157643.98068451852,164520.59578430167
G0,178485.0,178485.0,178594.41157963988,178727.27367064793,178859.32071427308,178981.4974863874,179090.75247285413,179186.67050846087,179269.99914905542,179341.95226576744,179403.8719837651,179457.06671772763,179502.73866541722,179541.95720597173,179575.6555323408,179604.63849110383,179629.59522011923,179651.11320764638,179669.6920553282,179685.75613678654,179699.6658374572,179711.72732263803,179722.2009117343,179731.30819517828,179739.2380494436,179746.1517037789,179752.18700042472,179758.4210610559,179765.51844842345,179773.85145875035,179783.62608809432,179794.98196162743,179808.0603557377,179823.04632124802,179840.1951212301,179859.85088040968,179882.46417616593,179908.61283889477,179939.0288114635,179974.63317804007,180016.5812108527,180066.3192539564,180125.65522446463,180196.84421269206,180282.68980139628,180386.6599061767,180513.0126577864,180666.92252572847,180854.58903285742,181083.2999856908,181361.4091350519,181698.17738086,182103.42222532196,182586.92939409887,183157.6105025173,183822.44403422167,184585.30695305482,185427.39598767142,186329.3017270415,187268.55521667935,188220.70872824738,189161.3614499611,190068.20712859865,190922.64939662418,191710.77613940198,192423.66570143506,193057.1252747245,193611.03039485172,194088.44960140952
H0,261368.7970382047,260780.71724486875,259841.90666278722,258906.4757988012,257974.4124859255,257045.70460097617,256120.34006441265,255198.30684018077,254279.5929355561,253364.1864009881,252452.07532994455,251543.24785875675,250637.69216646522,249735.39647466593,248836.34904735713,247940.53819078664,247047.9522532998,246158.5796251879,245272.40873853723,244389.4280670785,243509.626126037,242632.9914719833,241759.51270268415,240889.17845695448,240021.97741450946,231185.9683526233,222410.46787115544,213695.1548230043,205039.70958913624,196443.81407174552,187907.15168744375,179429.4073604786,171010.2675159817,162649.42007324577,154346.55443903053,146101.3615008975,137913.53362057352,129782.76462734283,121708.74981146766,113691.18591763722,105729.7711384448,97824.2051078931,89974.1888949274,82179.42499699685,74439.61733364333,66754.47124011799,59123.69346102539,51546.99214399498,44024.076833379935,36554.658463983134,29138.449354810233,21775.16320284968,14464.515076879601,7206.221411301398,9.062205208465457e-13,9.029581269714981e-13,8.997074777144007e-13,8.964685307946289e-13,8.932412440837682e-13,8.900255756050666e-13,8.868214835328884e-13,8.8362892619217e-13,8.804478620578783e-13,8.772782497544699e-13,8.741200480553539e-13,8.709732158823546e-13,8.678377123051781e-13,8.647134965408795e-13,8.616005279533323e-13
S1,7467.679915377278,6002.200016250094,5177.159551490961,4569.919947250665,4088.827236942444,3693.2939054472045,3360.756883211107,3076.9111290194,2831.8891491589065,2618.4914359678405,2431.2600004122473,2265.944225071536,2119.168133645254,1988.2099938697172,1870.8491754301886,1765.2557671722254,1669.9087651736518,1583.5341330227463,1505.0571306975842,1433.5651473393357,1368.2784190564262,1308.5267576748809,1253.7309184362189,1203.387583725352,1157.0571889146008,1853.2049815922069,2501.576924135392,3107.306854212747,3675.0282997170643,4208.807109685493,4712.1690324744095,5188.099999250554,5639.291850673146,6067.995481141321,6476.129610752068,6865.297275954642,7236.7911126008585,7591.588692801739,7930.33816922357,8253.333697652775,8560.479620515787,8851.242255767802,9124.588456662901,9378.911095810072,9611.943610440589,9820.669164414938,10001.235305729817,10148.892516224905,10257.984466931313,10322.027604683679,10333.924510671803,10286.353750063938,10172.361993124869,9986.147253584428,9723.967021885546,8971.141624283568,8194.230547587338,7403.5096886847095,6616.4687439444915,5851.400276046417,5124.699490653392,4449.355153869731,3834.244470413982,3284.083460941819,2799.863566486648,2379.580805287243,2019.0760915756393,1712.8462316197345,1454.737092249658
E1,0.0,1058.1301182718591,1251.7808007716403,1211.8008822602671,1090.401558813907,946.4405153250829,804.8676892689502,675.9658610337074,563.2097286573241,466.86817370466827,385.7603800801712,318.1363888542526,262.11843534975173,215.91447619935457,177.91179834611245,146.70775554464518,121.10845801902248,100.11222570471602,82.88693180985933,68.74608389944419,57.12609088210928,47.56582497014056,39.68885261039256,33.18831958854567,27.814284514924953,23.363215394949194,22.678158566278956,24.21767917737782,26.92980339551838,30.22205256520943,33.84118144630146,37.749890709637754,42.03423154621959,46.84899300918677,52.390139166185484,58.88779974376632,66.61110828710815,75.87999657444254,87.08140103806907,100.68885195771796,117.28514071985822,137.58783231150449,162.47688318432827,193.02249903410487,230.50948300166706,276.45150382990295,332.5848672509034,400.82673822374187,483.178261950352,581.5507222247649,697.4962031069315,831.8375745058618,984.2194856197418,1152.6415012727382,1333.0773767323299,1519.31242177711,1666.9408129382095,1775.383951872922,1839.3314790604747,1855.627874271946,1825.0209048039173,1752.1161942802362,1644.4808844700558,1511.3817534261116,1362.5051298838675,1206.8942879907072,1052.2239958754656,904.4304350623106,767.644603459118
I1,0.0,0.0,31.260451325677767,64.95794258547622,93.93428167480232,116.28005740432653,132.02528676338093,141.93393204073786,146.9934843078388,148.19034915333273,146.41525093710237,142.43045581331313,136.86645239734398,130.23201960725487,122.9295451014292,115.27149996973884,107.49609076140233,99.78122850942876,92.25654142506909,85.01345628157848,78.1135140796967,71.5951405240236,65.47910143761635,59.77286011563242,54.47403038509767,49.57309270234497,45.05551461243736,40.99228276004448,37.40138765799787,34.26785128700372,31.560765452684706,29.244987306700228,27.28796392283363,25.66310437562821,24.35118414458483,23.340787689385945,22.628497453140135,22.219205944547134,22.126743478555607,22.374918759037993,22.999028870812474,24.047880303802966,25.586351380966292,27.698501413099134,30.491176233092876,34.09795427965363,38.683099658941174,44.44491591281055,51.61751321887651,60.46952783478662,71.29784024616913,84.41399615073044,100.12112258263353,118.68000401745829,140.26492967954232,164.91293141550523,192.4735495086013,221.50024448542894,250.68134653145236,278.68609610741385,304.2303100292082,326.18680372506424,343.6828711291453,356.1610434090734,363.3961848984681,365.47297534528934,362.73436505537916,355.71401288643494,345.06488850025227
A1,0.0,0.0,281.3440619311,557.9086970150659,768.5302259809815,904.7488303106285,975.4462051432389,994.3615946470393,975.2204616898987,929.9270569501082,868.076273341921,797.030060410194,722.2126847753706,647.4642847084561,575.3804880653822,507.6089961409814,445.09502321786783,388.2772998013443,337.2404756235335,291.83101797233314,251.74357060277586,216.58399643153692,185.9143774637136,159.28429015266377,136.2518068190338,116.39692891232465,99.32954088465516,85.49348209767905,74.83397506766323,67.02749062791436,61.6576725021391,58.32410080821335,56.69652219778023,56.53361396805912,57.683474502888075,60.07668699614126,63.718906727178684,68.68621728964047,75.12455156731058,83.25353760708208,93.37478384805291,105.88453425621091,121.29057589719595,140.2331082521456,163.50884571860766,192.096773504829,227.18254607638914,270.1763498003223,322.7160848563119,386.6441518098825,463.9426584685155,556.6099715475871,666.4635756234703,794.8629748563534,942.3638809400028,1108.3403332182206,1290.6391518412586,1475.7308189736655,1652.6378780122366,1811.1664029976544,1942.3222383160105,2039.108881799602,2097.153711598804,2114.970642146043,2093.83472972898,2037.3414975959506,1950.771862089185,1840.3911847481547,1712.790114018989
IH1,0.0,0.0,0.0,1.2504180530271107,3.8245720935009127,7.50803554162121,12.014149049473064,17.062993487948404,22.410617507584792,27.85728363168575,33.246570427464626,38.46070819741402,43.4146937268774,48.05038598766687,52.331118652722736,56.23702945856385,59.76113881296778,62.90613026258341,65.68175193727019,68.10274871791958,70.18723761938263,71.95544719487648,73.42875211978439,74.62894464819352,75.57769444229291,76.29615696267133,76.80469807016168,77.12270876798492,77.27204480433853,77.27485919723897,77.15227774865568,76.92378168791086,76.60707006601143,76.21819779218087,75.77184588605392,75.28164268355951,74.76049653868004,74.22092965605609,73.67541795574041,73.13674947987298,72.61841749664474,72.13506640741764,71.70300987789336,71.34084145379028,71.07015774288989,70.9164118433456,70.90990812329267,71.0869358993376,71.49101535804414,72.17419008865258,73.1982434160637,74.63563995475337,76.5699058070231,79.09507805909709,82.31380795961233,86.33373464546794,91.26189845843213,97.1972528540046,104.17897748592065,112.19302808939146,121.17240141599544,131.00002169203893,141.51598818793352,152.52858192789904,163.8274900499642,175.1974584495548,186.43077988294894,197.33747895052565,207.7525977803952
IN1,0.0,0.0,0.0,2.0335848505284098,5.852574239780758,10.792762342624206,16.198571651620355,21.547492854787237,26.471216509795696,30.739334278716758,34.23168809327427,36.91009575388647,38.79359916956975,39.93844701742445,40.42273581309917,40.335119276854265,39.766847553817335,38.80641680091024,37.5361975827616,36.03051904975338,34.35479210430017,32.56534889251604,30.709754837068484,28.827413154322166,26.950331926800825,25.10396239291141,23.308046268897993,21.57743154856432,19.92861451822073,18.375962543004572,16.929995150554483,15.597117293487575,14.380166787634153,13.279296221492167,12.292897847483179,11.418434855605458,10.653135183184256,9.9945588578923,9.441072174034392,8.992267869962195,8.649368962987893,8.415650046763831,8.296905802787533,8.301992503123957,8.443463472302698,8.738312007506897,9.208822419145815,9.883508021668625,10.798079698762514,11.996335717104056,13.530790273421434,15.462767679081807,17.86159435259987,20.802450739236136,24.362445996930994,28.61460548175779,33.61975850976569,39.41678068404737,45.94267081438663,53.06169994627473,60.57871507069403,68.25405386473015,75.82265977860294,83.01571546078843,89.5819020331115,95.3055186518144,100.0195133100417,103.61255433440758,106.0302924738586
D1,0.0,0.0,0.0,0.0,0.001438771228820694,0.005839446888739639,0.014478434062746463,0.02830230036833839,0.04793552947006406,0.0737219067636101,0.10577539327984974,0.14402996651813288,0.18828409437604837,0.23823843731845562,0.29352675687319996,0.35374062511291815,0.41844875995105874,0.4872118483577754,0.5595936650783067,0.6351692013696347,0.7135304144229332,0.794290107449358,0.8770843592840045,0.9615738431509347,1.0474443071426642,1.1344064331619814,1.222195245265048,1.3105692011225238,1.3993090703170454,1.4882207703580679,1.5771357087300806,1.6659096009447847,1.7544205782429114,1.8425671369625323,1.9302662467366434,2.0174517696516157,2.104073248995466,2.190095080823473,2.2754960696423243,2.3602693751535817,2.4444228713913927,2.527979958178268,2.61098088565593,2.6934846749945525,2.7755717416960333,2.8573473510137926,2.93894605535463,3.0205372763059963,3.1023321911101975,3.1845920527359333,3.2676379971795533,3.351862250318166,3.4377404181449633,3.5258442144728837,3.616853555210776,3.7115664700957263,3.8109048419177194,3.9159137175267,4.027752002801137,4.147623684989215,4.276716591556351,4.41614145387531,4.5668742921681575,4.7297071397346295,4.905211431854701,5.093716611065102,5.295304441606656,5.5098176930850995,5.736880543301218
R1,0.0,0.0,0.0,56.26881238622,168.2799936510553,323.22606083841964,506.47082917021737,705.0181276949436,908.5100452282003,1109.2556677390583,1301.8952196686614,1482.9610296499968,1650.4480394580241,1803.4383077391742,1941.79211388403,2065.9038157897025,2176.5146813828173,2274.573144629588,2361.133133599009,2437.28215758033,2504.092153121494,2562.587396957577,2613.724972466606,2658.384280971991,2697.3629157799223,2731.3768800980956,2761.063652147643,2786.9870055091706,2809.802803643273,2830.1596509738283,2848.6447221697035,2865.76440848688,2881.9466522440894,2897.5542343131965,2912.901993322485,2928.274332837922,2943.9415133813823,2960.1746067123763,2977.259640891162,2995.5117305489293,3015.29006688169,3037.014652601171,3061.1856602759644,3088.4062753059643,3119.409832157741,3155.0919113354735,3196.547751624839,3245.114730313307,3302.418624140707,3370.4207229882427,3451.460502335177,3548.285484901583,3664.0564485728496,3802.313051422967,3966.88359746153,4161.724820435358,4390.6848232471875,4657.195184026555,4961.991150820324,5303.600592161248,5678.485190361159,6081.267548301305,6505.120908248987,6942.288070782102,7384.657371625646,7824.318071795202,8254.03148479463,8667.577922157636,9059.96504880952
G1,0.0,0.0,31.260451325677767,68.24194548903174,104.04230864113492,136.25615858845083,164.2169520211993,187.99524430258242,207.9653760772788,224.6043413659665,238.3970777861703,249.79363797913223,259.19237536215616,266.9361683497294,273.3149528273536,278.57102012609533,282.9052230488823,286.4831431852212,289.4407693832721,291.8895068803283,293.92047979420715,295.60816201079786,297.0134042684072,298.1859362885953,299.16642236602894,299.98814275015087,300.67836472290594,301.3483479884565,302.06381347618094,302.8594035399347,303.75225687324667,304.75203051841356,305.86727957965905,307.10910138075184,308.49316619502304,310.04093368322646,311.78066225325597,313.74856135413347,315.9902922136444,318.5629473640037,321.5376088931579,325.00257635735437,329.0673484120463,333.8674203603117,339.56990470663294,346.37987103218217,354.54710739579616,364.37269772237516,376.2143649463812,390.4889520491404,407.66976727365255,428.2759722484053,452.85103873567203,481.9279403309584,515.9805515592828,555.3637991666404,600.2490086407162,649.4956194741227,701.945977566712,756.285544298697,811.1065571784623,865.0233450836615,916.786301323564,965.3693760865639,1010.0202889768024,1050.2729238448876,1085.928330957379,1117.0142970770244,1143.7339822126316
H1,74676.79915377278,69930.8218646964,65874.57374215675,62104.67791027444,58600.692800987665,55343.63691443788,52315.884528541545,49501.0688578776,46883.99212979671,44450.54208366494,42187.614434446725,40083.04087460262,38125.52221870825,36304.56632345694,34610.43044194738,33034.06769552162,31567.077369042618,30201.658756508597,28930.56830340866,27747.079810338208,26644.947479212675,25618.37159903693,24661.966682690578,23770.73187965663,22940.02350212619,21426.678529739573,20013.69611666115,18692.508932722278,17455.275529471415,16294.82027791352,15204.57818345772,14178.544187767686,13211.226598083405,12297.604313037938,11433.087540216651,10613.481724872601,9834.954431480463,9094.004940330515,8387.4363402699,7712.329916116518,7066.021645317576,6446.080633207038,5850.289329832702,5276.625383865619,4723.245000655954,4188.467682137765,3670.762236082088,3168.7339512189264,2681.1128430553094,2206.742882864367,1744.5721293612296,1293.6436890631292,853.0874372973469,422.1124373121504,3.2741809263825416e-15,6.302704735259924e-15,9.103160796981608e-15,1.1691881945540477e-14,1.4084034231719678e-14,1.6293700265298408e-14,1.8333956604241046e-14,2.021694561608508e-14,2.1953942206370816e-14,2.355541578075269e-14,2.503108778124359e-14,2.6389985112725464e-14,2.7640489753278693e-14,2.8790384820914574e-14,2.9846897349824985e-14
S2,7467.679915377278,7470.667283608918,7556.38418387247,7646.175482627601,7727.765283143216,7798.640746159976,7858.946627394617,7909.611091527831,7951.722843455777,7986.312027271659,8014.28128812655,8036.395641750236,8053.294606950063,8065.511240631635,8073.491625985102,8077.61229529352,8078.194828071409,8075.517633706255,8069.8252340507315,8061.335452541044,8050.244910882143,8036.733189492367,8020.965951202743,8003.097271793009,7983.271371076259,11906.667849245012,15833.88951486364,19760.326224022712,23681.875152746477,27594.668402102587,31494.967708050197,35378.85377057533,39243.0601495724,43084.07334219892,46898.42800331095,50682.63312258064,54433.076732230795,58145.90727033655,61816.88743386005,65441.214220951515,69013.29688390427,72526.48283219438,75972.72046525095,79342.14807964647,82622.60038885202,85799.0303254185,88852.85567561838,91761.25995893897,94496.50648721318,97025.36334523665,99308.78054414572,101301.99798527762,102955.27696068406,104215.41934631053,105028.15512136303,101638.30351790556,97893.62322571514,93793.37774521431,89377.59376563152,84706.15307219476,79851.1785426553,74891.26754601373,69906.21857269424,64972.344321521334,60158.64615258185,55524.0477293011,51115.754439799326,46968.67893150768,43105.77569818823
E2,0.0,370.3455413951507,481.4735041313497,507.72637865005504,496.28455785022686,467.52926424668067,431.42126821596685,393.0803961440477,355.1787088349754,319.0892324489862,285.4745909827956,254.60186856740762,226.51637461392977,201.13993146597136,178.32761313592357,157.90105245066627,139.66823775781393,123.4353499040223,109.01380788658427,96.22436887831435,84.89938149377083,74.8838622951884,66.03581466310132,58.22605925031192,51.33775341559153,45.26571917744114,45.873459892876085,50.574042388302466,57.59396488529316,65.94798755278282,75.2585728454381,85.55638261780274,97.12393226742223,110.40318594485709,125.9518727842214,144.44063686714352,166.67631735996508,193.64314387253395,226.55793637830448,266.9385037226591,316.6861302841718,378.18340179045214,454.40763634665996,549.0575867309942,666.6863052617273,812.825345423329,994.0740947262051,1218.1128615822777,1493.5807848323032,1829.7439570057222,2235.8736450624456,2720.2713104288873,3288.9289160971775,3943.9051362946666,4681.61853299739,5491.3725967066,6234.283782942102,6905.081497525868,7474.339445218486,7912.368578449219,8197.336940561994,8318.38820636159,8276.227038110528,8082.032221370206,7755.2764906727825,7320.9801601110985,6806.867401574831,6240.794064396109,5648.689046316319
I2,0.0,0.0,10.941157963987218,24.015980207811246,36.49284517132021,47.32095161811696,56.16201272870674,63.00755182012881,68.00123828889446,71.35058961462924,73.28188641052591,74.01721381350333,73.76321675481883,72.7061700850723,71.01047031979844,68.81896207020523,66.25421417796761,63.42024664449671,60.40442584229657,57.27936877919962,54.104768441483905,50.92909394778021,47.79114390011097,44.72144597123545,41.743504452286786,38.87490254441693,36.128268997108954,33.68813197953856,31.643208387134965,30.02050039013058,28.815066455112294,28.01133053926678,27.596258755614056,27.566532848189993,27.93224014783659,28.718885332942587,29.96910664984626,31.744899606791762,34.13082410114956,37.23850540558032,41.212683016736435,46.2390609667718,52.55422351494735,60.45786027151018,70.32745021561348,82.63532835469377,97.96762878271726,117.04387688434542,140.73490994705043,170.07530822800462,206.264715430561,250.6506511696041,304.68432510085074,369.84151421586046,447.5037803997963,538.8017415672625,644.4312327508542,760.9119380362323,884.9734492653738,1012.8195801440952,1140.1758382706573,1262.5717954853126,1375.6859257562728,1475.6715100603305,1559.4161946473366,1624.70987281753,1670.3137939360377,1695.9383999645218,1702.1475001312656
A2,0.0,0.0,98.47042167588499,206.7943466813242,300.433810019183,372.30313826188575,422.15291440903906,452.4320538074941,466.4609889443518,467.6065346139865,458.9272137810414,443.0460285620747,422.1323951059244,397.9338935586934,371.82780153943975,344.8774070677522,317.8859148749418,291.4448351588971,265.97584189802006,241.76613285632732,218.9978077347964,197.77196980880927,178.12829346807683,160.06076303243898,143.5302187242558,128.474265669526,114.81502240977599,104.04921874294705,96.68640411497185,92.66266530702708,91.66490833212424,93.34227531171831,97.42223256102535,103.76187057583975,112.36437470058995,123.38058667429677,137.1094960770625,154.00482339552477,174.69123982526165,199.99202010703914,230.96935113587168,268.9785110586236,315.73722325901224,373.41129949074354,444.71684299929933,533.0373381882414,642.5503460696489,778.3526131565897,946.5636382197904,1154.3760633058657,1410.0077445214365,1722.4980850399063,2101.285866070119,2555.515303414602,3093.049146412547,3719.2253332738446,4435.470141442607,5205.99713011249,6000.77575908765,6787.957498506154,7534.169564090991,8206.908873932949,8777.286396310832,9222.378267061398,9526.81769937785,9683.488829537127,9693.351566913156,9564.54536259979,9310.988312513797
IH2,0.0,0.0,0.0,0.4376463185594887,1.3898282448411023,2.822684361036916,4.660975553748834,6.817385192595634,9.205944927257958,11.748094475863041,14.375092391331842,17.028576842968505,19.660197216850634,22.2308030461703,24.709451420064457,27.07237324356474,29.30197253125277,31.385896084424356,33.316190223417834,35.0885496240953,36.70165684072825,38.15660760597637,39.45641524279449,40.60558678735702,41.60976328667496,42.47541694917539,43.20959823935047,43.81972652520022,44.32045892615637,44.7297179964407,45.06616003326886,45.347883149512,45.592012679935934,45.81482166585328,46.03213595048119,46.25987904427862,46.51468693148076,46.81457964464076,47.179708809109265,47.63321902670393,48.20227265304469,48.91929672556098,49.82351980773959,50.96287576234013,52.39635974016219,54.196926001301065,56.4550124039261,59.28275450652023,62.81890192300471,67.2343564964039,72.73810069292905,79.58306425206284,88.07118996536946,98.55663412699911,111.44574022899137,127.19226186721315,146.28640880752894,169.23675117445052,196.40281860910676,228.00637670746394,264.1130581116836,304.61624745200163,349.2325725175051,397.51127607307114,448.85644276615955,502.5591788410481,557.8358852683211,613.8685556270937,669.8434087133887
IN2,0.0,0.0,0.0,0.7117546976849433,2.131714327895821,4.079339013838135,6.341839124592757,8.72697639691085,11.08040878688638,13.288008778719101,15.271973985810352,16.984782722276666,18.40286493466177,19.520807444389177,20.346397438769532,20.896559147394722,21.194124418538518,21.265332196621195,21.137940446039714,20.8398389793381,20.398063597766495,19.838126147698887,19.183589165809302,18.455826645293804,17.673923696145913,16.854677430041928,16.01266937558209,15.160386293165736,14.319821694489551,13.514341685449473,12.764395721828482,12.086021906883689,11.491037455550192,10.98804824686404,10.583723121685718,10.284053363420757,10.095491153584682,10.025971981470036,10.085877229751212,10.28901287608309,10.653685256847183,11.203955173653615,11.971151864533502,12.995729225969827,14.32954607100154,16.03864557451883,18.20658906618779,20.938355366776772,24.36473478806688,28.647010121621005,33.98151010748063,40.60333811002529,48.788236958677594,58.851206398843466,71.14024988660059,86.02364487513421,103.86956336755087,125.01780909400651,149.5138201910209,177.18119744081736,207.6318683187799,240.2773064273374,274.3558760697717,308.9771406340345,343.1785103765561,375.9874456823634,406.48214087951,433.84456703648965,457.4014644009742
D2,0.0,0.0,0.0,0.0,0.0005035699300872429,0.0021027510094381394,0.0053506224208196155,0.010713690803218465,0.0185579934723532,0.029150649795077768,0.042668385151200784,0.059208828800600896,0.07880245700367533,0.10142411224934866,0.1270035892402457,0.15543507877054008,0.18658542214925297,0.22030121417864612,0.2564148356732382,0.29474951568791613,0.3351235294331423,0.377353636223951,0.4212578561606168,0.46665767656972296,0.5133797707186343,0.5612573026448384,0.6101308835170041,0.6598492369950075,0.710269623702174,0.7612661692148615,0.812733621376756,0.8645881945671596,0.9167669274361308,0.969226563594709,1.0219425709386558,1.074908627087942,1.1281367317658184,1.1816580265940573,1.2355243876234623,1.2898108780130992,1.3446191918452814,1.4000822770823174,1.456370393278728,1.5136989376358843,1.572338461599338,1.6326273983326034,1.6949881245172769,1.759947077543304,1.8281597215808196,1.9004411705683195,1.9778031836015737,2.0614979817234462,2.1530688150699913,2.254406358864577,2.367808791953297,2.496041845073349,2.6423933524433454,2.810715199405044,3.0054444484425313,3.2314318484084734,3.4937833187828695,3.797680298074722,4.148181549719529,4.550019779972854,5.007409039317892,5.523877698866869,6.102138453776632,6.744002364958008,7.450339268824533
R2,0.0,0.0,0.0,19.694084335177,61.20325832307958,121.74162170207299,197.06941615781915,282.8530746664646,375.2087787428193,470.8843656156949,567.2767822279963,662.3778703425016,754.6935071498268,843.1578603435714,927.0528194967058,1005.936724792109,1079.5835268868798,1147.9320639674936,1211.044499543889,1269.0727389657006,1322.2316268536235,1370.7778109857566,1414.9932820782146,1455.1727329960247,1491.6140101769538,1524.611047644699,1554.448777495342,1581.3995999729702,1606.037893471711,1629.0446113532917,1651.0929232784022,1672.7978090579636,1694.7076134599617,1717.3188491914254,1741.1014639779219,1766.5276639983438,1794.101311427325,1824.3876591314602,1858.044618665633,1895.8574783326972,1938.779363205372,1987.9799906468318,2044.905535133583,2111.3526945999324,2189.56029125235,2282.3218118771624,2393.1219746350926,2526.299365757948,2687.2349544774734,2882.56228945454,3120.3888102595993,3410.5085914453493,3764.5752055754665,4196.190617479836,4720.855071476079,5355.718347260558,6119.079714105359,7029.606240163542,8098.884908842597,9332.512217170623,10729.683706691187,12282.843940384357,13977.817221958678,15794.49257167923,17707.987957668294,19690.14464267063,21711.17332544505,23741.27808449107,25752.112416426746
G2,0.0,0.0,10.941157963987218,25.16538122405568,40.16519596562497,54.826983770796005,68.63925085963272,81.38477555743971,92.99759176836821,103.49067437486877,112.91756171818568,121.35136811121252,128.8730983619086,135.56509585901458,141.5073943804018,146.77574613997962,151.44063383117296,155.56686752661113,159.21353127893363,162.43413787203488,165.27690469978316,167.7850962132245,169.99739817111666,171.94830131089194,173.66848001070355,175.18515675405035,176.5224467400676,177.87769127508165,179.37180562181655,181.0733102901554,183.02161874421125,185.24499081599114,187.77259218395233,190.6419349091767,193.9035880469454,197.62459770403706,201.89182289710652,206.81595917864817,212.53677930185282,219.2300046626117,227.11619744597172,236.47208968485242,247.64480239730946,261.0694158288132,277.29028287400257,296.986267739425,320.9996539082089,350.36769127497234,386.35452990769664,430.47954687770033,484.53586841956076,550.5905227998671,630.9557892485553,728.1209681995005,844.6361797195966,982.9457370689084,1145.177945382634,1329.3580583780122,1533.3556200444186,1754.1708301817557,1987.9267818802077,2230.1015843980026,2475.852617416277,2720.358078528803,2959.126421387551,3188.2413847247562,3404.5258850895843,3605.6218972083916,3789.994344145499
H2,74676.79915377278,79121.84672244973,83174.97868037508,86890.1270586199,90291.76920627498,93402.63096341369,96243.81180297575,98834.90103355043,101194.08570157085,103338.25078582334,105283.07223482533,107043.1033582998,108631.85504745832,110061.87026489631,111344.79321341828,112491.43356387381,113511.82609493639,114415.28607254734,115210.46067333907,115905.37673461423,116507.48509327392,117023.70175734538,117460.44613635582,117823.67654063902,118118.9231446545,114406.27464228307,110623.91800560842,106781.6407404199,102888.36512845274,98952.2202247986,94980.60800372303,90980.26412124227,86957.3137257628,82917.32271394106,78865.34479745278,74805.96471736176,70743.33791605559,66681.22695209355,62623.03492062462,58571.83612113239,54530.40419500764,50501.237937710895,46486.58497394776,42488.46346922943,38508.68203732939,34548.85799038152,30610.434066608384,26694.693759843627,22802.77536504423,18935.68484481153,15094.307613490884,11279.419327642056,7491.6957645132425,3731.7218635617955,-4.547473508864641e-13,-4.490998218811694e-13,-4.4330320223482736e-13,-4.3737555738939026e-13,-4.3133357109102557e-13,-4.251926451805334e-13,-4.189669922427676e-13,-4.1266972162528883e-13,-4.063129193000293e-13,-3.999077220079072e-13,-3.9346438609490214e-13,-3.869923514189216e-13,-3.805003006796921e-13,-3.739962144987473e-13,-3.674874225532207e-13
S3,22403.03974613183,21671.252403756385,21214.44401886873,20857.547693060675,20558.934124994026,20300.518945082466,20072.494538116527,19868.744702891378,19685.050931961185,19518.280417841022,19365.980227905085,19226.157917857665,19097.15432253399,18977.56469034154,18866.186524996036,18761.982939730115,18664.05549522062,18571.62315272321,18484.005389835467,18400.608301992816,18320.912949303634,18244.46546067627,18170.86855737986,18099.77425056809,18030.877526332373,24966.243569324222,31874.104045211418,38755.66719344566,45611.914752348326,52443.42877795265,59250.372069888654,66032.05915143948,72788.40925799459,79518.49561920283,86221.10592420187,92894.69238521888,99537.29776139744,106146.45447606988,112719.05110160957,119251.1579387454,125737.80077076137,132172.66907486456,138547.74221574623,144852.8148879633,151074.90216743885,157197.5064004344,163199.7349285888,169055.27211735907,174731.23435144787,180186.97473113344,185372.95447005975,190229.85456489358,194688.1515625279,198668.40737336464,202082.50810692785,198160.55364784843,193697.20891617928,188649.5453773603,183025.6462129776,176861.8361019288,170217.3221551764,163170.30228880336,155813.47406871826,148248.86673109443,140582.3463194546,132918.24471880007,125354.5453757239,117978.97105711707,110866.18959401122
E3,0.0,634.8780709631154,812.8874565164487,843.0482060432607,809.9624689180895,749.8523481686086,680.067120173811,609.2150542230021,541.5213947216037,478.9229313830216,422.14102943310826,371.2534296936946,326.0064683514649,285.9878118683369,250.72227035449924,219.72441418351218,192.52664377930338,168.69322896491383,147.8263368935544,129.56753201218945,113.59677940861224,99.6301405894353,87.41685701630448,76.73622489034084,67.39449107240442,59.22189634822625,58.477341974636474,62.19783454982556,68.43520402114565,76.1381728448583,84.91437417728545,94.79969892530055,106.08768417925269,119.23256405088699,134.80559145614149,153.4943404390592,176.12895506802602,203.72679403379902,237.55170134436955,279.18749667866473,330.62714414852064,394.37957927631146,473.5953784716963,572.2100847631682,695.0994791566698,848.2335806269009,1038.804822428823,1275.2903303111425,1567.3895640440887,1925.760531862614,2361.4680832401564,2885.068227435197,3505.2959786934543,4227.407886177766,5051.345478241841,5970.002095463956,6841.369668507779,7661.10420908881,8396.651896845586,9012.475427811361,9478.878988544207,9775.917651770025,9894.935109743717,9838.478360097735,9619.009206314442,9256.801647410677,8777.413209431315,8209.087730944077,7580.381777725091
I3,0.0,0.0,18.75627079540666,40.80109017672849,61.42107830806848,78.89742020412595,92.76198094559892,103.10835610034339,110.27462376576128,114.68817278249158,116.78871231470762,116.99107014796598,115.6687918869989,113.14868704835025,109.71105122806033,105.59269555471165,100.99121234775994,96.0696219245576,90.96094601253319,85.77247879470224,80.58965358279478,75.47947384070636,70.49351569490659,65.67052886084379,61.03867200575768,56.61742157585492,52.4191927444074,48.64000382366244,45.36774479102646,42.62351752537562,40.39514908579213,38.660153599164204,37.39946772878332,36.60470279554044,36.281770862862544,36.45283950045262,37.15806058279575,38.45789294621781,40.43649998408544,43.20654135505909,46.915632441601076,51.754759545533254,57.96896704323573,65.87063449037204,75.85559321490534,88.42213701269804,104.19258535151526,123.93636802313584,148.59252457638345,179.28799785512913,217.3462127010657,264.27845429274475,321.74910014043166,391.50573943315146,475.26766673942234,574.5718322122766,690.5837720438686,820.151219810667,960.3247290929093,1107.5029605450336,1257.4130238008763,1405.35360167507,1546.528029141608,1676.3878108014726,1790.9375303788006,1886.9696622928843,1962.2125979382163,2015.3884166415369,2046.1878578228316
A3,0.0,0.0,168.80643715865997,351.18213983802434,505.102082241307,619.4409369092755,694.9294630708179,736.765231868174,751.3951354030099,745.100128985571,723.419945936067,690.9781752412798,651.4943584394074,607.8766826063525,562.3420628782437,516.5376840920566,471.65222422272814,428.51229655134034,387.66333629350936,349.4359126564075,313.99917730664316,281.4033581465487,251.61314167031364,224.53360339627548,200.03012125555338,177.94348096551616,158.10117416834518,142.02936068473477,130.1611440907052,122.32501227983778,118.10423352215176,117.06109681277594,118.85497630793881,123.29141931169508,130.33563905006918,140.11169537816238,152.90165384216465,169.15189219452043,189.4900160672984,214.75415087522077,246.03591553854622,284.7385103618769,332.65159134469883,392.0445836310213,465.7794408559211,557.4421374080619,671.488808983728,813.3967455684465,989.8017448496187,1208.5914145794582,1478.9096770609272,1811.013680425827,2215.9158589806893,2704.748695316918,3287.8158286579205,3973.3446234754856,4766.02739614836,5631.859763467991,6542.483204670474,7466.5552341549155,8369.552922071825,9215.96216519044,9972.068564837386,10608.59899403892,11102.812167228782,11439.828499499483,11613.134935229222,11624.316468464654,11482.150791152375
IH3,0.0,0.0,0.0,0.7502508318162664,2.367796241118258,4.778882972087951,7.842430411885538,11.401358858607598,15.305367914649002,19.420584781439615,23.632819234571198,27.847676081475356,31.98917737783073,35.99775523681601,39.82806526996069,43.44685116879418,46.83097173043926,49.9656366362183,52.842862195179414,55.46013986604367,57.819301351076994,59.925560288343746,61.786709703685105,63.41245507192695,64.81386430338088,66.00291777357572,66.99214340151177,67.79432361775748,68.42983457170796,68.9221742536191,69.2952306427544,69.57194317826328,69.77390857192589,69.92154365710051,70.03453517554978,70.13242591577328,70.2352677150788,70.36433099467646,70.54289348966743,70.79714964105362,71.15729408256128,71.65884256799897,72.34426398022029,73.26500828859032,74.48402640144319,76.07888598745349,78.14558751324303,80.80316906625328,84.19914557795265,88.51574291427323,93.97674323709002,100.85454123084614,109.47671910491793,120.23110381735515,133.56793134434747,149.99750887436556,170.08176018735625,194.4183716331662,223.4673889342972,257.56198981787765,296.8848599550757,341.44423909910967,391.0601550869405,445.3642470206926,503.8133325647048,565.7149094416379,630.2615565886313,696.570591580639,763.7252725334627
IN3,0.0,0.0,0.0,1.2201509103170458,3.6303523643875604,6.899904764933137,10.652434433797103,14.556388866860342,18.35261472944228,21.855782334322292,24.945430840343263,27.553795956697513,29.65365202556017,31.24751876748643,32.35867188491858,33.02396599765685,33.288290066120155,33.200409223650055,32.809940530899596,32.16523109333818,31.31193839940293,30.292146129547213,29.143880001706474,27.900915769856674,26.592794820819137,25.244982068669255,23.879116445118985,22.513316739292588,21.174829553669927,19.891169673309456,18.685721665913977,17.576401299822365,16.576078417129768,15.693808765055808,14.936291232980155,14.309269529624775,13.818780687964669,13.472266332614364,13.279612789450933,13.254204196932792,13.414076709954058,13.783262069815896,14.393409893573057,15.28578073657739,16.513704257458624,18.145594182169635,20.26859697721927,22.992913538479115,26.45675826715039,30.831789985226298,36.32864671663492,43.201931582151246,51.753640650771814,62.333643459209995,75.33552148425832,91.18598510599202,110.32638578337398,133.18562626140186,159.9017644784616,190.3933765689881,224.3610456606455,261.28727409484094,300.45222915177993,340.9680074035628,381.8283930243128,421.9684997031542,460.32775936210203,495.909942677863,527.834933670962
D3,0.0,0.0,0.0,0.0,0.0008632627372924164,0.0035877252473973265,0.00908646169757572,0.01811021436440058,0.03122898456730399,0.048839833154144516,0.07118578262501522,0.09837846453512207,0.13042089629508344,0.16722867264911437,0.20864884761498032,0.2544763004986678,0.30446764482801947,0.3583528671185604,0.4158449356694464,0.4766476324882458,0.5404618531742496,0.6069906009422885,0.6759428779868359,0.7470366534085437,0.8200010637395543,0.89457798060559,0.9705230606377797,1.0476063754937877,1.1256127047070095,1.20435027326369,1.2836543436934245,1.3633876648030547,1.4434393802559051,1.5237234835864861,1.6041774605944341,1.684761449277639,1.7654580741949903,1.846273032194308,1.9272364945541733,2.008405416663854,2.089866894078922,2.17174276527166,2.254195734282971,2.33743737121629,2.4217384461645803,2.507442162560615,2.594980975691542,2.684897802069053,2.7778725272568527,2.874754772243296,2.97660383295898,3.0847364962874284,3.200782975197075,3.3267504092824383,3.465092184309589,3.6187797420396746,3.791371700097829,3.9870732436834633,4.2107772751334185,4.467906040189228,4.764265149601203,5.105870418128594,5.498747141455718,5.94871353350768,6.461163960312956,7.040867784834317,7.69179755464138,8.416996772659875,9.218493299027688
R3,0.0,0.0,0.0,33.76128743173199,104.25538051643014,206.044899376412,331.399918343171,472.6588248825291,623.1303554473054,777.3580627090489,931.1021914817247,1081.204765800781,1225.4172591181798,1362.228227251314,1490.7072847999052,1610.3712604499428,1721.0731863840995,1822.91238760771,1916.1629960121782,2001.2180088498783,2078.546161045896,2148.6591826453823,2212.0873607618437,2269.3616665803806,2321.001017926256,2367.5035176346996,2409.3407363966026,2446.95429869797,2481.0949170525582,2512.6057443226064,2542.301560954686,2570.9189120991123,2599.110800756483,2627.465071222143,2656.5328594538573,2686.860041616075,2719.0188097534274,2753.639340845168,2791.442962311093,2833.278923008311,2880.167249758021,2933.3504491487547,2994.357119635682,3065.0808926197624,3147.878471685096,3245.690761133962,3362.1909525935957,3501.962638820458,3670.709074125881,3875.4909961509834,4124.984307594593,4429.739890201064,4802.415926421388,5257.939438206775,5813.540966237307,6488.598677847571,7304.230829581309,8282.592623860015,9439.135029265739,10783.673282610605,12319.743893930578,14043.922224016545,15945.577463229447,18007.188684867142,20205.19606161688,22511.280394181198,24893.92100359664,27320.067812222405,29756.77245363738
G3,0.0,0.0,18.75627079540666,42.77149191886181,67.67775529340486,91.60656319520817,113.75953136669678,133.85082707908785,151.8489326244735,167.84715714260273,181.99602855900386,194.46738616927342,205.43536597442716,215.06660995829677,223.5155784908703,230.92269335636604,237.41403523959747,243.10187048105945,248.0855925979969,252.4528418892858,256.2806693538988,259.63667116514705,262.5800550710442,265.16262063326917,267.4296471375506,269.4206897998921,271.17028862166234,272.89789099389105,274.73540827643745,276.7571968328012,279.00655502149914,281.5151894653941,284.31586711625164,287.4500269235121,290.97252732359135,294.95510333893657,299.4898030655626,304.69319963453916,310.71192211361495,317.72993744932404,325.97800354247624,335.7457566459251,347.3969547631692,361.3884337137539,378.29329748609877,398.8286957886904,423.8881512394991,454.577673281884,492.25371199242414,538.5592696257312,595.4522191143268,665.2173234228918,750.4512028273393,854.0085370642689,978.8993006647562,1128.1317407257727,1304.5041515444361,1506.619467827692,1732.952289371701,1981.0154749737605,2247.2720010568596,2527.307537449413,2816.118518858861,3108.445645766529,3399.1048648773785,3683.280283290318,3956.7549650269443,4216.067022835975,4458.588980211603
H3,224030.39746131832,223052.4869962094,222135.64301793682,221274.69097707752,220465.14149344258,219702.83399535765,218983.91312829414,218304.8068498795,217662.20609081563,217053.04586983944,216474.4877588506,215923.90360175094,215398.8603974304,214897.10626373108,214416.55740516304,213955.2860126607,213511.5090287918,213083.57771658682,212669.96797457416,212269.27134470674,211880.18666367483,211501.51231163554,211132.13901567366,210771.0431683568,210417.28062458045,203067.64824444204,195746.45256786558,188452.46269410622,181184.59716144012,173941.9105846659,166723.58139345679,159528.9005832388,152357.2613972623,145208.14986497402,138081.1361277356,130975.866488404,123892.05612633175,116829.48242398897,109787.97885569048,102767.42939285314,95767.7633838422,88788.95086981107,81830.99830102168,74893.94462097182,67977.85768827035,61082.83100860981,54208.98075140295,47356.44302769244,40525.37140782269,33715.93465909399,26928.31468521276,20162.704650818865,13419.307275721047,6698.333284714722,-9.094947017729282e-13,-9.073292381972784e-13,-9.051145876632673e-13,-9.028493851736308e-13,-9.005324921708671e-13,-8.981629782014793e-13,-8.957401039209971e-13,-8.932633053435931e-13,-8.907321792469832e-13,-8.881464696496872e-13,-8.855060552836531e-13,-8.828109379907524e-13,-8.800612319767689e-13,-8.772571538612446e-13,-8.743990134659574e-13
S4,11201.519873065916,10430.604113914316,10080.290247615285,9869.497614835354,9734.919033902446,9650.221150198946,9601.724140814234,9581.266304457484,9583.459047788647,9604.45881176556,9641.358931922203,9691.864032113934,9754.103719518733,9826.51935483914,9907.791236286648,9996.789233061678,10092.537660633805,10194.189199352737,10301.004811167779,10412.33780561853,10527.620892047664,10646.355459893723,10768.102574984447,10892.475333638804,11019.132315456505,16381.880747702056,21849.279837375536,27422.263342979873,33101.660794251795,38887.694686690935,44779.83786460151,50776.35445232574,56875.771567796655,63075.414615793125,69371.92387918943,75761.122897243,82237.81835784104,88795.52521463536,95426.1046566684,102119.29638649336,108862.1208783562,115638.12254115878,122426.42218033731,129200.54894546063,135927.03153444538,142563.75095618248,149058.09937894493,155345.05875529273,161345.41380718423,166964.44335177986,172091.5727063402,176601.5757341465,180357.92292727815,183218.7110317084,185045.24075318433,178767.34617867466,171590.3870192376,163543.87996278927,154768.64122709274,145453.90279318273,135810.93713454265,126053.79908084279,116383.77362787222,106977.7331461935,97980.73711461698,89502.73101286177,81618.7489981414,74371.75218741017,67777.15478803379
E4,0.0,952.3171064446731,1198.8342467313469,1229.9884204857353,1173.20329598561,1081.131775777894,978.1353217070251,875.8085402248084,779.5118867851912,691.4506514424415,612.220972050047,541.6147269800505,479.0462634878656,423.7793156942089,375.0460287016671,332.1070592289186,294.2794484871398,260.94703867593523,231.5616708216842,205.63976165674836,182.75680686432878,162.541196395918,144.66806924486505,128.85356418476027,114.84961699480506,102.43934328800962,105.1505020887772,117.26428547935168,134.865901567351,155.81082553638072,179.34069539844245,205.64982319267202,235.54338685394916,270.2397524343784,311.2841042086709,360.5602176654311,420.36861787553056,493.5543053151504,583.6771450319932,695.225440212143,833.8773858153706,1006.8158707097105,1223.0990156983253,1494.0806674762448,1833.8596418855718,2259.7108953848565,2792.413087155473,3456.3340840810797,4279.0729317770765,5290.397791380019,6520.193371964393,7995.182954556546,9734.368207380669,11743.46025821889,14009.020731482207,16493.465425246406,18752.3996133659,20762.322680658544,22427.835194301748,23657.153231336353,24388.03184037859,24596.98328439943,24299.549738778802,23544.748307386923,22406.05552740627,20971.069617457975,19331.614334733295,17575.506692404226,15780.622402674786
I4,0.0,0.0,28.134406193109985,60.59609203088701,90.56797281482237,115.71360983289021,135.4975445075776,150.16028304367134,160.259606456814,166.45306372577582,169.39427748367007,169.68581713650138,167.8608018317947,164.37904297155217,159.63029582786245,153.94068590888327,147.5802357755323,140.77042459518526,133.6912612775456,126.48764994452951,119.27498555908193,112.14399932540404,105.16491235081199,98.39097140404554,91.86144338065382,85.60414148480467,79.63754962261991,74.37786194379903,70.0285988168583,66.65624507759644,64.25694520694084,62.80484435013334,62.28254436277363,62.698262284908076,64.09534625088142,66.55824008966343,70.21816913700495,75.26053777724553,81.93532326912613,90.57141149481993,101.59573632285421,115.55813247705731,133.16287777124154,155.30786858338982,183.1321025283342,218.07144497674685,261.921275281176,316.90222903304686,385.721559983809,471.6174784265192,578.3674550521605,710.2350132375078,871.8252693652144,1067.820927034472,1302.5814824357135,1579.6114424177094,1900.936800916089,2255.2419142552917,2631.705599418638,3017.8250750289335,3399.6994316264954,3763.049182159453,4094.401041211418,4382.15629601363,4617.382830436822,4794.257598780461,4910.1572070713055,4965.446615720686,4963.046832387255
A4,0.0,0.0,253.20965573798998,521.323320649185,744.0977723823803,907.2188526764403,1013.2350079363911,1070.6624147562593,1089.3968807046585,1078.780332418869,1046.872671289474,1000.2803243085818,944.2330960341263,882.7591120970635,818.8851087671535,754.8283116855104,692.1659188858607,631.9780982738869,574.9651552315875,521.5415851915643,471.9104055298367,426.12115955906336,384.1146752904749,345.7572385016795,310.8664025314466,279.2302527603848,250.62159054507785,228.4555252642371,213.94358223173828,207.01408565612655,207.03949156880924,213.3161254705669,225.33271299433204,242.89432176755662,266.168954760209,295.70186024781094,332.43011007854113,377.7150436562907,433.40218388604205,501.9144743585254,586.3836557386255,690.8248842506663,820.3601285650066,981.495408908562,1182.4543926349118,1433.5647190544844,1747.681702602481,2140.6143901944956,2631.4891418558423,3242.945299631276,4001.009332888938,4934.448401549506,6073.381632311217,7446.956641393888,9080.010041906851,10988.838022023705,13176.484345385801,15527.224814321593,17942.23153998949,20317.0766504341,22543.81360776245,24519.534998318228,26155.669784617938,27385.493614029998,28168.660062358384,28492.428517059547,28369.897800026385,27835.96180054471,26941.885116808386
IH4,0.0,0.0,0.0,1.1253762477243994,3.527472632309158,7.082025014892867,11.573713046437788,16.769958985878635,22.452299781324797,28.428805303643276,34.53755633038202,40.64590754715478,46.647879715873714,52.460866356687134,58.02224977205321,63.28621252897062,68.22086761225634,72.80574510875053,77.02962984215861,80.88872371988325,84.38509821032042,87.52540055036039,90.31977877074861,92.78099364123356,94.92368920723383,96.7637972016112,98.31805401314126,99.60361196504466,100.6539396870185,101.50999986005584,102.21462297658688,102.80965763182269,103.33510952496869,103.82951534062279,104.33099574407824,104.87866866444699,105.5142738508526,106.28399346742597,107.24053340794478,108.44558014320846,109.97278352110722,111.91144750018528,114.3711436765013,117.48749734592668,121.42942877283878,126.40815383206021,132.68824137894583,140.60096279072295,150.56001322533467,163.07938355217456,178.79266045254127,198.47228571018306,223.04631501782407,253.60907454148312,291.42105132078876,337.8927540022379,394.54761417787296,462.9606636929724,544.2238719941898,638.9752594795004,747.3404058873882,868.8864278163833,1002.6176276241355,1147.0186175783033,1300.1393454966792,1459.7101582717755,1623.2723408056468,1788.3097556012585,1952.369486595152
IN4,0.0,0.0,0.0,1.8302263654755684,5.406136167546516,10.216623533436024,15.700811513772344,21.375165384303948,26.86850300584821,31.92016397245996,36.364395465973686,40.11111531804556,43.12745671671206,45.421807190313984,47.03078885369022,48.0090541323488,48.421540395924964,48.337763306643275,47.82774326942218,46.959206720373615,45.79576125025254,44.39579971542709,42.81193873427581,41.090839692299014,39.273295557747225,37.39449513295718,35.48439879102164,33.56817726319726,31.693041795340864,29.910000986275335,28.26418675033956,26.791453806081467,25.51880399353938,24.466706983973996,23.652073057161044,23.091250361316426,22.802810735935342,22.81014824896723,23.144039258537752,23.84536661144821,24.968231584865407,26.58368851186015,28.78434923449642,31.69011858199437,35.45533123376687,40.277550098195796,46.40823279271244,54.1653401502199,63.94769975256363,76.25048853183301,91.6805031943106,110.9689167500542,134.97802241745987,164.6972312173142,201.22269569031312,245.71493599485098,299.3303467971079,363.12584072994576,437.21083179842265,520.968901234198,613.0935711014354,711.6353637618272,814.1057742226018,917.6375214091515,1019.1822498785159,1115.7202146942384,1204.4568135554105,1282.985705081384,1349.4055579222238
D4,0.0,0.0,0.0,0.0,0.0012948941059386244,0.005353717570245068,0.013502523330485787,0.02681960980530843,0.04611566398412803,0.07195000224246001,0.10466109997621953,0.14440112311618478,0.19116961162814988,0.2448441623579708,0.30520732247892635,0.3719695892275401,0.44478874082830516,0.5232858652804677,0.6070584972428216,0.695691266831604,0.7887644339555521,0.8858606420215638,0.9865701829610972,1.0904950253561756,1.1972518207409175,1.3064740705590945,1.4178136078187185,1.530941522955017,1.6455486424179826,1.7613643027393837,1.8781649734292163,1.9957764061396166,2.1140725048623414,2.23297320543335,2.3524427852373506,2.4724893845226052,2.593166153884758,2.714574271017263,2.836868052296974,2.9602624591972955,3.0850434316289483,3.211581653386424,3.340350564271185,3.4719496806872527,3.6071345738661758,3.746855180128651,3.892304467574252,4.04497982573681,4.206759815651427,4.379999009307549,4.567643393120357,4.773367978718488,5.001736574090888,5.258380837955467,5.550191595913403,5.885510030494529,6.274300300843311,6.728279475491923,7.260976905271225,7.887178396178251,8.622403881000494,9.482317788611553,10.482086458320529,11.635730547704762,12.955527060477573,14.451509207592201,16.131098664137898,17.998888028532935,20.05657475046534
R4,0.0,0.0,0.0,50.641931147598,155.2930929530749,305.25798236960514,488.8737851675909,694.871287812011,913.5835783122455,1137.2446994520426,1359.9014591548669,1577.1765523653905,1785.9935323189452,1984.3134137508414,2170.903012751692,2345.1406790853093,2506.85830545035,2656.215632116782,2793.601964051325,2919.5604675553154,3034.730684277923,3139.805518508198,3235.4995825747847,3322.5263621608874,3401.5821642944597,3473.335231403329,3538.4187502926,3597.4267642776854,3651.6416844194873,3702.598277344219,3751.8279206885823,3800.7462880727435,3850.63624971021,3902.68454836607,3958.043734624513,4017.9040345183685,4083.5687042880127,4156.532887482682,4238.569513653025,4331.827730070542,4438.950570374,4563.219575090777,4708.735149855163,4880.642607740072,5085.414911661428,5331.203694870814,5628.269469666088,5989.498910986435,6431.010115792174,6972.833736992711,7639.636672478215,8461.423988053712,9474.114454340111,10719.839992272931,12246.779816339287,14108.322602040118,16361.374000894553,19063.707382678032,22250.191284527555,25935.970393885666,30115.192135327772,34760.155612529,39822.180683753926,45234.357203126936,50915.82915762416,56777.026138366804,62725.18441667836,68669.55642351757,74525.84637155579
G4,0.0,0.0,28.134406193109985,63.55169464408698,99.88937418442389,134.54944471448343,166.48943646950997,195.3865929591929,221.26069839248746,244.28990148750324,264.71750208243424,282.80441177987893,298.8053936229079,312.9579086528815,325.4776663294929,336.55769129302485,346.3691656860751,355.0630949266527,362.77228121692804,369.6133324398496,375.68856992613684,381.0877738300473,385.8897457904055,390.16369004254994,393.9704246792281,397.36343920536444,400.3898156872278,403.49628822369164,406.96063955928594,410.94499732270106,415.5481332164686,420.8464145737486,426.9219493090684,433.8806327948563,441.8643547222078,451.0606543266126,461.7127234244229,474.13171849036263,488.712846152697,505.9564825137739,526.4956020973078,551.1309309483929,580.8753999666677,617.0095450840629,661.1493301405143,715.3272418012426,782.0861226188974,864.5826812980653,966.693529042537,1093.1106386143815,1249.4054267459278,1442.0321973279672,1678.2347430025907,1965.8182247298032,2312.7565279288856,2726.6265266509104,3213.8947408472254,3767.898889515331,4381.282410463355,5043.870345845856,5742.776155558652,6463.274390237349,7189.945699788832,7907.82989827057,8603.414917285501,9265.35941363804,9884.909967680123,10456.025918849413,10975.260994001927
H4,112015.19873065916,113882.11870950348,115740.8894344719,117592.01979295471,119435.97555109703,121273.18506354238,123104.04201350368,124928.90795623946,126748.11467998846,128561.96639741192,130370.74177966057,132174.69584431767,133974.0617076656,135769.0522109775,137559.86142984193,139346.66607488494,141129.62679165712,142908.88936689706,144684.5858478686,146456.83558099007,148225.7461755293,149991.4143977266,151753.92700032354,153513.36149212084,155269.78685185715,151789.1553840488,148188.92420725524,144469.4251937022,140630.97859086344,136673.89445564945,132598.47396210078,128405.01059286378,124093.79122391001,119665.0971112105,115119.20478738281,110456.38687569158,105676.91282819521,100781.04959428977,95769.06222540204,90641.21442112449,85397.7690216606,80038.9884510598,74565.13511536144,68976.47175943635,63273.2617860101,57455.769540071116,51524.26056160847,45479.00180938639,39320.26185824328,33048.31107220149,26663.421755488478,20165.86828339893,13555.92721477049,6833.877387700732,9.094947017729282e-13,9.019155792581539e-13,8.943545022731765e-13,8.86811880709316e-13,8.792881358328691e-13,8.717836983981119e-13,8.642990069130996e-13,8.568345060470912e-13,8.493906451692279e-13,8.419678770088364e-13,8.345666564284223e-13,8.271874393010585e-13,8.198306814844689e-13,8.124968378846625e-13,8.051863616024855e-13
E_Om,0.0,0.0,0.0,0.0,0.0,0.0,0.0,0.0,0.0,0.0,0.0,0.0,0.0,0.0,0.0,0.0,0.0,0.0,0.0,0.0,0.0,0.0,0.0,0.0,0.0,0.0,0.0,0.0,0.0,0.0,0.0,2.0625401926256055,3.5795625050224844,5.086393782468315,6.900962236384403,9.274579119696321,12.484981698209168,16.902637686378323,23.055401304850896,31.710601660425496,43.99175376293033,61.5496284057901,86.81375119168433,123.35995746751752,176.4417888641173,253.74684326038758,366.4502388016777,530.639114188158,769.1624270581608,1113.9015365818525,1608.3388674765183,2310.110782479519,3292.976981610611,4647.3770110600635,6478.583074892191,8901.536491535344,11742.773441019091,15054.373212557162,18771.89091382308,22781.035966498435,26932.50265134032,31056.66743794215,34979.9617287398,38540.63258140314,41601.7671153956,44060.282475555294,45851.46134266155,46949.32230796393,47363.578298611916
I_Om,0.0,0.0,0.0,0.0,0.0,0.0,0.0,0.0,0.0,0.0,0.0,0.0,0.0,0.0,0.0,0.0,0.0,0.0,0.0,0.0,0.0,0.0,0.0,0.0,0.0,0.0,0.0,0.0,0.0,0.0,4.0,3.57978816500861,3.2646546722286667,3.027444437793367,2.859670318022126,2.763129355964162,2.7468543252200064,2.8271343015650037,3.0294919125048096,3.392363011742373,3.9728149387492118,4.8551120643119425,6.163435435965418,8.080696249669458,10.876231625401338,14.94628996442008,20.872608127900065,29.505957509870967,42.082997512473725,60.385502009506226,86.94993866342625,125.33091763091406,180.4123839871153,258.74430063815043,368.8604026991442,521.5079991531588,729.7010860474102,999.9618404416572,1339.6658494128437,1753.5099704420563,2242.3211434484842,2802.4284810237405,3425.535527230928,4099.089637723214,4807.078176096376,5531.125848895641,6251.742353789492,6949.572951685419,7606.528604559113
A_Om,0.0,0.0,0.0,0.0,0.0,0.0,0.0,0.0,0.0,0.0,0.0,0.0,0.0,0.0,0.0,0.0,0.0,0.0,0.0,0.0,0.0,0.0,0.0,0.0,0.0,0.0,0.0,0.0,0.0,0.0,0.0,0.0,0.5484046108026505,1.3904862721928741,2.464799900527284,3.806722713464758,5.511377122298036,7.728708051966555,10.677174348443897,14.671893172094933,20.16898182451016,27.83206326453199,38.63095594318193,53.987496235277376,75.98992481774252,107.70568771584064,153.6327814915827,220.3409327965867,317.36329949459616,458.40167068394254,662.8943472965889,957.9534234204923,1380.5933894195978,1980.0376539883878,2819.7117308102765,3978.3466427505628,5549.488721144096,7561.853089280683,10052.25910192528,13033.027121731546,16483.62494974219,20347.928233210136,24535.936634929814,28929.50008425772,33391.09036430384,37774.28141461663,41934.52389643665,45738.97078256603,49074.43630739316
IH_Om,0.0,0.0,0.0,0.0,0.0,0.0,0.0,0.0,0.0,0.0,0.0,0.0,0.0,0.0,0.0,0.0,0.0,0.0,0.0,0.0,0.0,0.0,0.0,0.0,0.0,0.0,0.0,0.0,0.0,0.0,0.0,0.16,0.3000996118108227,0.42488653352442185,0.5377736050557017,0.6417682292585486,0.7398915742503045,0.835467736627436,0.9324081396209951,1.035569525391409,1.1512522162915062,1.2879174778788411,1.4572336410917122,1.6756107944885792,1.9664583582443484,2.363506862755188,2.9156849499314363,3.6942452161831962,4.803094195202807,6.393596858341672,8.685464084443508,11.995619663127119,16.777047406826807,23.669335260050953,33.56170998714761,47.66756392342025,67.60673360282601,95.48831292286098,133.6415257470731,184.64560841138922,251.2178291824002,336.05602416133587,441.65905970720866,570.1456546799773,723.0914790521149,901.4012483568553,1105.2271832433817,1333.9389506846387,1586.1442089399252
IN_Om,0.0,0.0,0.0,0.0,0.0,0.0,0.0,0.0,0.0,0.0,0.0,0.0,0.0,0.0,0.0,0.0,0.0,0.0,0.0,0.0,0.0,0.0,0.0,0.0,0.0,0.0,0.0,0.0,0.0,0.0,0.0,0.5204236699827798,0.8820905596348992,1.127403170904061,1.2878749182906697,1.3878330170935467,1.446706072740703,1.4806073152750516,1.5036015001103822,1.5288766828520917,1.56997731210219,1.6422506484169141,1.7646927718627068,1.962447420753063,2.2703143646751314,2.7377730090049726,3.4362322159053487,4.4694865596702575,5.988688433962451,8.2135042785295,11.461432754162418,16.187368002371066,23.035139682825257,32.90161195513043,47.01162081411827,66.99837565984134,94.97915970028772,133.61109160806336,185.41995987160058,252.857750961053,338.07560754191843,442.66183112703163,567.4041861311866,712.1157833229565,875.5509464921358,1055.4215652603766,1248.5083879951771,1450.848875439462,1657.9755414275742
D_Om,0.0,0.0,0.0,0.0,0.0,0.0,0.0,0.0,0.0,0.0,0.0,0.0,0.0,0.0,0.0,0.0,0.0,0.0,0.0,0.0,0.0,0.0,0.0,0.0,0.0,0.0,0.0,0.0,0.0,0.0,0.0,0.0,0.00018410114605592627,0.0005294054114641203,0.0010182935224989692,0.0016370731288076052,0.0023755122944874875,0.003226855336841266,0.004188171385627902,0.005261030179978522,0.006452589782760709,0.007777257610377531,0.009259176883520986,0.010935916779747453,0.01286392845230388,0.015126598686204128,0.017846125699605857,0.021201006579733315,0.025451723942926753,0.030978318605123026,0.03833499678662472,0.04832877111145995,0.06213131690916436,0.08143552725311075,0.10867022567659404,0.14728740862803466,0.20213524080300838,0.2799257229116207,0.3897976469369058,0.5435698847537729,0.7560290605208388,1.04508837465935,1.4317652445787248,1.9399523636917242,2.5959802914754126,3.4279926039552198,4.465173871947344,5.736883816242779,7.271756876178291
R_Om,0.0,0.0,0.0,0.0,0.0,0.0,0.0,0.0,0.0,0.0,0.0,0.0,0.0,0.0,0.0,0.0,0.0,0.0,0.0,0.0,0.0,0.0,0.0,0.0,0.0,0.0,0.0,0.0,0.0,0.0,0.0,0.0,0.10699254764002172,0.39854554263767095,0.9098452491264779,1.670153621801798,2.7207281579945892,4.125791464591653,5.982838191060228,8.435938792706512,11.694913033662733,16.063627529120218,21.981896711796466,30.087509978950916,41.307950984715454,56.9957369114703,79.12738304082659,110.59417496030831,155.62339743557175,220.3810856639813,313.82031683257264,448.8493210362515,643.8954857365634,924.9260948529646,1327.9441106416741,1901.8987259552946,2711.834032091921,3841.9562819005505,5382.78450694773,7432.749098381487,10093.28179179091,13462.187494692598,17626.41293438519,22655.107737594746,28593.79264431989,35460.26225190572,43242.584765682426,51899.27743933482,61361.484157688115
G_Om,0.0,0.0,0.0,0.0,0.0,0.0,0.0,0.0,0.0,0.0,0.0,0.0,0.0,0.0,0.0,0.0,0.0,0.0,0.0,0.0,0.0,0.0,0.0,0.0,0.0,0.0,0.0,0.0,0.0,0.0,0.0,0.0,0.060933845644738915,0.16668524381704486,0.31695311968070977,0.5208289855743687,0.7948288690772829,1.1636740195359636,1.6630304536327025,2.344158641781571,3.2809883403187055,4.580641429754689,6.3990086888165045,8.963756631120042,12.608193056622333,17.820831707916398,25.317301854461974,36.14338047705314,51.8201086167561,74.54355651545227,107.45166882094503,154.96699610796958,223.21484618388115,320.4996175675155,457.7975739696895,649.1950470921718,912.1740923081325,1259.0921047931774,1703.8450637377032,2258.4250459811833,2931.4476295764,3727.117437733776,4644.627887551744,5678.044640475505,6816.654673464134,8045.700131594529,9347.377772121567,10701.972401612311,12089.00125509457
beta,4.14836744937318,4.148367449373184,3.050484722301936,2.680146546166765,2.4702753001705324,2.33023694138109,2.228702880375544,2.1513580667640375,2.090513967558972,2.041570281963442,2.0015540341890263,1.9684311617827768,1.9407484593715887,1.9174323556109736,1.8976685396821131,1.8808261651674065,1.8664080485812098,1.854016760719711,1.8433308343030883,1.8340876374233965,1.8260707721625709,1.8191006257347027,1.8130271680928205,1.8077243824695532,1.8030859039143108,1.7990215655353938,2.0921107449700416,2.3166268978482294,2.4933219907873605,2.6354764695703397,2.7518854898362037,2.848531022629326,2.9295064017459427,2.997837349026897,3.055637156814686,3.104438058769883,3.1453435793256443,3.1791269077720297,3.20629440949999,3.2271260102410086,3.2416999411664214,3.249906999265165,3.251458401679322,3.2458911454052157,3.2325753317017734,3.210729018375114,3.179447562479693,3.1377555852062096,3.0846896748873527,3.019417311650314,2.941390642480746,2.8505218090092024,2.74735101938168,2.6331647478599587,2.5100179838309535,2.380629225913421,2.2173715093819313,2.0627946183158494,1.9185574097791336,1.7866541760422583,1.668147500738014,1.56316731777396,1.471155729037586,1.391130702001357,1.3219008262479637,1.2622169770283522,1.2108679115311245,1.166733403167749,1.1288083748997149
