series,2021-12-01,2021-12-02,2021-12-03,2021-12-04,2021-12-05,2021-12-06,2021-12-07,2021-12-08,2021-12-09,2021-12-10,2021-12-11,2021-12-12,2021-12-13,2021-12-14,2021-12-15,2021-12-16,2021-12-17,2021-12-18,2021-12-19,2021-12-20,2021-12-21,2021-12-22,2021-12-23,2021-12-24,2021-12-25,2021-12-26,2021-12-27,2021-12-28,2021-12-29,2021-12-30,2021-12-31,2022-01-01,2022-01-02,2022-01-03,2022-01-04,2022-01-05,2022-01-06,2022-01-07,2022-01-08,2022-01-09,2022-01-10,2022-01-11,2022-01-12,2022-01-13
S,512129.63736200635,512001.7063531664,511922.78851384495,520865.42697851674,529820.7006238941,538783.7051018969,547751.7805169842,556723.4199376509,565697.7160802532,574674.0800121058,583652.0970346024,592631.4515748741,601611.886676829,610593.180696953,619575.1323069358,628557.5490543976,637540.236612102,646522.9864258089,655505.5590702682,664487.659014903,673468.8926229903,682448.6919860805,690816.6986062387,690795.0250204727,690772.887458109,690749.5053365541,690724.5941259927,690697.9791081483,690669.4976375595,690638.9706842785,690606.191324687,690570.9166124099,690532.8590927976,690491.6767245878,690446.9605703068,690398.2197145169,690344.8628311115,690286.1757447266,690221.294246501,690149.1713457509,690068.5380819072,689977.8570067037,689875.2675062318,689758.5223103586
E,0.0,127.93100884002462,168.2451276764084,170.58063542433342,159.61326142317512,144.21946698515364,128.37903762607195,113.72924749876347,100.81830000549867,89.71225528331374,80.28332905668866,72.3429432134082,65.70035259158175,60.18650010803794,55.66239349456466,52.021367707827956,49.189901884378806,47.12965754658214,45.8429591533194,45.38478259609448,45.88706048624183,47.60807958994367,51.03827408519571,56.83705770199098,61.236649259882654,65.37174889631669,69.55373282996429,73.8781727630587,78.38288933694174,83.08936677318411,88.01377805475421,93.17002440773437,98.57062483322481,104.22698212819996,110.14942671389284,116.34714300474295,122.82800244434364,129.59830311046508,136.66240627063195,144.02225456925046,151.6767518952131,159.6209809303977,167.84523123157572,176.33380927656242
I,1118.1154133322298,670.8692479993379,437.06290549055336,307.66390712496684,230.65509491101125,181.48861794791233,147.83240916045185,123.36176990448585,104.72394481391578,90.05529552043643,78.25547523195958,68.6297741345197,60.710450272576026,54.16535730249615,48.74956202638599,44.27857663014475,40.61290887669856,37.649012799692144,35.31440943505457,33.56623900795613,32.39362913746002,31.825678183877653,31.9495825585759,32.95007727626231,35.1160449719561,37.60351477021722,40.212473043675686,42.906983156748,45.69128747596132,48.57814298975403,51.581004628377364,54.712312053399245,57.983282391097134,61.4040260459986,64.98368801460428,68.73054450728,72.65204104101713,76.75477021481493,81.04438806829816,85.52546576693831,90.20127052376958,95.07346671674796,100.14172529735731,105.40322701800771
A,124.2350459258033,99.38803674064265,83.34835791373087,71.72603786772187,62.49824703151429,54.786993292023155,48.15617667714125,42.37631072040353,37.312924450903296,32.87488718651008,28.991276184730033,25.60151972504447,22.65150309024271,20.092212154299776,17.879363906205185,15.973362170998946,14.339330058867127,12.947160433057366,11.77161743036137,10.79258209394725,9.99560853434517,9.373098016520764,8.92672015191098,8.672523648319537,8.64312987489993,8.751602542924783,8.96243361006709,9.256557924780624,9.621590515592557,10.048758024049295,10.531686289742208,11.06576117361297,11.647708401007884,12.275284122066344,12.947035340653642,13.662109572358183,14.42010036195867,15.220918688478562,16.064682277383874,16.951616147013702,17.881958591345025,18.855867362241156,19.873321141716097,20.93401156221658
IH,0.0,223.62308266644595,258.45014374754487,231.0436665115431,189.93299091130476,151.68438120844962,120.59480308556334,96.58583887805896,78.34896902342332,64.4864457739707,53.8487571090738,45.5770038487314,39.05491939145806,33.846471339010115,29.64290977339758,26.223663372598853,23.429254265136723,21.14315576974225,19.279900154156557,17.777493787204204,16.592912372723614,15.7000711117579,15.090293309941979,14.776196263337933,14.801738911124183,15.249127521593433,15.995253232002483,16.931696796292655,17.991017974482446,19.136586000250542,20.350595088851012,21.625840839345308,22.96080741019896,24.356895812878296,25.816906726414803,27.344225599500966,28.94238910349941,30.614851811586057,32.36485208809133,34.195320829564835,36.10880108557801,38.107359573131376,40.19247772514222,42.36491302345126
IN,223.62308266644595,431.64375965563806,535.7013933179599,585.7375535173209,606.4028412050468,610.2245287018543,603.9462778549391,591.3748250784832,574.7863672586941,555.6277376799225,534.8720949505155,513.2046300729825,491.1237856269009,468.99967896446447,447.1101747120613,425.6647639641792,404.8214238497289,384.69921082824453,365.3881654779761,346.9575503633451,329.46322357555596,312.95497145485024,297.4849263708806,283.1190226481092,269.9555413103124,258.1436827431466,247.653443297355,238.41690998276252,230.36372083918604,223.42927160393867,217.5560169159108,212.693117397324,208.79576871684424,205.82453601130948,203.7447579082264,202.52602039295633,202.14168670909135,202.56846767670294,203.78601754499104,205.77654131442114,208.5243997934317,212.015698395073,216.2378448471862,221.1790596433062
D,824.0,824.0,824.841719819284,825.8145290914538,826.6841800724881,827.3990900043237,827.9700317354572,828.4239519419466,828.7875021348715,829.0824085428377,829.3251362560768,829.5278235885386,829.6993759479177,829.8463791074322,829.9737776094079,830.0853538579775,830.1840600243168,830.2722480030837,830.3518310811872,830.4244008440226,830.4913155322536,830.553771442606,830.6128666883264,830.6696667234854,830.7252844937985,830.7809984069278,830.8383962958607,830.8986026104294,830.9623337091946,831.0300521048878,831.1020824316226,831.1786823023347,831.2600822125145,831.3465069520067,831.43818658408,831.5353617137898,831.6382856890593,831.7472251698829,831.8624598193072,831.9842814896192,832.1129930650336,832.2489070018327,832.3923435354445,832.5436284774282
R,0.0,40.44941486241454,188.94830684757346,356.8406483910118,513.827155746021,652.3008553909405,772.6505884671778,877.5412842442578,969.8230318316328,1051.901441067638,1125.649140394179,1192.4861165293228,1253.489706672115,1309.489738954564,1361.1399916224625,1408.968770114369,1453.4139162561999,1494.8470693567645,1533.5908244510035,1569.9313634298458,1604.1283689658565,1636.4235797990284,1667.0491983159486,1696.237576103978,1724.2344326638438,1751.3182326711737,1777.7966749342952,1803.9140343095125,1829.8582760237894,1855.7802719310785,1881.8084960044825,1908.0582890111623,1934.6373482666909,1961.6489224666946,1989.1936772669803,2017.3708030534272,2046.2786889754077,2076.0153423076845,2106.6786493370882,2138.3665268386685,2171.1769860644085,2205.208114966192,2240.5579739876034,2277.324393298477
G,84805.0,84805.0,84839.54135669096,84884.96752052159,84931.02427115761,84974.11983215893,85013.05907055063,85047.72139495885,85078.42827783008,85105.64920646217,85129.87150438185,85151.5479933772,85171.08057916907,85188.81966630802,85205.07001395289,85220.0988533672,85234.14461626581,85247.42588373949,85260.15088549472,85272.52847884165,85284.78236457433,85297.17186527571,85310.02604092397,85323.80636866509,85339.15236727128,85355.68625505832,85373.33661923987,85392.1161185704,85412.06321615231,85433.22658665648,85455.66070549103,85479.4244147674,85504.58030992646,85531.19436653779,85559.3356389248,85589.0759706233,85620.48968495996,85653.65323055016,85688.64475648956,85725.54358941552,85764.42958047913,85805.38228488163,85848.47993014893,85893.79812198851
H,179302.16925518736,179302.16925518733,179302.1692551874,172972.06676680705,166728.7536660099,160577.24571419883,154522.82259161328,148571.0464970833,142727.778503581,136999.19161973288,131391.7792040462,125912.35701958946,120568.05680386994,115366.30877147664,110314.80998846298,105421.47509935648,100694.36551856545,96141.59302038443,91771.19381809294,87590.96989469638,83608.29574541109,79829.89102182249,76503.32284100643,76503.32284100643,76503.32284100643,76503.32284100643,76503.32284100645,76503.32284100643,76503.32284100643,76503.32284100643,76503.32284100643,76503.32284100643,76503.32284100645,76503.32284100643,76503.32284100645,76503.32284100643,76503.32284100643,76503.32284100645,76503.32284100645,76503.32284100643,76503.32284100643,76503.32284100645,76503.32284100645,76503.32284100645
S0,179245.3730767022,178771.71648739846,178084.6634722284,180533.12579815625,182920.597034592,185242.38591399265,187494.90371750682,189675.06123645708,191779.96230307643,193806.74912084008,195752.52614238282,197614.32583274422,199389.09836888916,201073.7168927292,202664.99481708568,204159.7141397353,205554.66485633256,206846.6958658353,208032.77734860935,209110.07327943735,210076.01988730725,210928.3998411919,211563.35466273958,210790.22883101736,210019.68539678206,209251.31176966702,208484.9611655692,207720.54847080263,206957.9985086192,206197.23159764448,205438.1583975644,204680.6768081974,203924.66897836965,203169.9978339978,202416.50286916984,201663.99501275364,200912.25038168134,200161.00271221736,199409.93423724902,198658.66475747127,197906.73864304586,197153.6095074827,196398.62232786824,195640.99286014683
E0,0.0,70.51315447875372,92.89504249269231,94.30007138376257,88.33444431049764,79.89620752937456,71.1866152083007,63.11440026240075,55.98639235886308,49.842461497624626,44.61479916377709,40.20147914596237,36.49888515316081,33.41490941503803,30.873585216069912,28.81632394626031,27.202324539013382,26.009606184256846,25.237850952519903,24.914672990159424,25.108365154266462,25.953826647364185,27.708090957239467,30.71535224462622,32.97471402068295,35.09018643068263,37.22462447601684,39.42602606933204,41.712054491217756,44.09201551084948,46.572613834819535,49.159482784512086,51.85759641358188,54.67137033740626,57.60465943476643,60.660704509383464,63.84203855141372,67.1503514341729,70.5863076595368,74.14930943474789,77.83719552528243,81.64586476318799,85.56881197983225,89.59656390091797
I0,1118.1154133322298,670.8692479993379,421.560091857607,278.017705190298,192.27163081811852,139.21326761695212,105.09992680063637,82.28033345273688,66.40908039898429,54.96176730731288,46.43451887357456,39.90670162457465,34.79841541183498,30.733743760406032,27.46226769862851,24.81322483963568,22.66833883379678,20.945627588358366,19.589967031645674,18.568196879735737,17.86787677840315,17.499981578148407,17.507518957402272,17.98569253339022,19.084556857616512,20.353902854486503,21.686687743761087,23.062656687691863,24.482616214155463,25.951819323469927,27.475930372361745,29.06015824482413,30.70914926733559,32.42703422965974,34.21748382126488,36.08374127262995,38.02862753864941,40.05451909929137,42.1632981081246,44.35627327271531,46.63406841363202,48.99647429015962,51.442258043025035,53.96892356193182
A0,124.2350459258033,99.38803674064265,81.6258230656257,68.08750846091542,57.29900762472563,48.48923822490062,41.188275716638834,35.0862180591283,29.962405594785103,25.649515483375005,22.014885552165207,18.9503518084466,16.366325273100635,14.188026275514401,12.352867847343175,10.808501413481048,9.511290456342103,8.425101730415937,7.520369215291711,6.773430556760961,6.166184295471181,5.6861980487221135,5.327572884590271,5.093300658666535,4.9961006755534925,4.986121511544638,5.041602323798953,5.150020085865297,5.302796313307831,5.493598116754781,5.717638357657135,5.971288466282051,6.251814586407987,6.557178854599543,6.885883448509526,7.236845756571068,7.609296913598126,8.002697817112026,8.416667881306262,8.850922572582848,9.305216330288816,9.779287868895542,10.272805124997463,10.785307292899837
IH0,0.0,223.62308266644595,258.45014374754487,227.94310378495385,182.2806437643784,139.75497291161219,105.51008353583897,79.65616021603095,60.72418194789664,47.028673549292876,37.12806895960141,29.920457181368718,24.60933549145638,20.636075429023464,17.615041512789954,15.281836882286626,13.455373146317648,12.011356970662979,10.864317157997121,9.955729129947697,9.246436379973186,8.712189999900243,8.3417088713636,8.137325161218788,8.119375671341999,8.329173286507617,8.699635414585195,9.17207301912039,9.709819286870513,10.292658308260867,10.910405893570339,11.558535152449036,12.235572087608283,12.941626805076165,13.677586653130525,14.444678904605631,15.244234250214184,16.07755639900477,16.945845170250415,17.8501437822394,18.791293734626695,19.769887446552485,20.786212300892508,21.84018143595432
IN0,223.62308266644595,431.64375965563806,535.7013933179599,582.6369907907317,597.5893674476492,594.3492869867158,580.7235975332533,561.2259178695826,538.524692107224,514.233102913792,489.3468995256405,464.49158170020996,440.06488075791,416.32079787825137,393.42042902994035,371.4635465608237,350.50880912508234,330.5871274341211,311.71085910960727,293.88047475527526,277.08978008358264,261.33052491776624,246.59722967423036,232.8933986210821,220.2413322535902,208.69178604951108,198.2019324111398,188.71052330896202,180.15653308206493,172.483355196383,165.63938321229546,159.5777441943279,154.25587735529672,149.63512068191605,145.6803358061085,142.35957013670293,139.64374909280204,137.5063908470162,135.92333653147804,134.8724892973582,134.3335557565383,134.28778317495772,134.71768536738546,135.60674960533248
D0,824.0,824.0,824.841719819284,825.8145290914538,826.6725095192215,827.3586159296102,827.884655232622,828.2817963836493,828.5816230740894,828.8101895836191,828.9872060442146,829.126956516851,829.239577457012,829.3322072748983,829.4098816968486,829.4761849128764,829.533705920214,829.5843520973351,829.6295629811945,829.6704563941903,829.7079298715441,829.7427335629429,829.7755263449083,829.8069246317041,829.8375536158969,829.8681150380064,829.8994661407187,829.9322116670825,829.9667354539476,830.0032833238632,830.0420250064655,830.0830918979847,830.1265983553848,830.1726531874872,830.2213656175535,830.2728482088345,830.3272181440497,830.3845976146536,830.4451137192763,830.5088980726813,830.5760862163175,830.6468168590483,830.721230939609,830.7994704784477
R0,0.0,40.44941486241454,188.94830684757346,356.4961414213908,511.17282812558324,644.6209268810867,757.3486210990717,852.5807087951054,933.8434631280786,1004.1581074891354,1065.882509025983,1120.7824728168725,1170.160425520443,1214.9777698640023,1255.9526009658618,1293.631865498374,1328.4425358812973,1360.727181195579,1390.768549830326,1418.8066894554283,1445.051168262988,1469.690253687934,1492.8984695190452,1514.8438081554214,1535.6961321736865,1555.638362218648,1574.8651880703328,1593.534409603876,1611.7711964684074,1629.6785932111072,1647.345523280022,1664.8518659680678,1682.2715104057256,1699.6741801537519,1717.1265422142226,1734.69290325908,1752.435664682523,1770.4156317070938,1788.6922283499025,1807.3236454381395,1826.3669347065386,1845.8780535649732,1865.9118597274878,1886.5220510578497
G0,84805.0,84805.0,84824.038543058,84849.12019313374,84874.58120083768,84898.43148996377,84920.00345619423,84939.22383356659,84956.26471389394,84971.38103296186,84984.83849145104,84996.88448175146,85007.73887618855,85017.59357070185,85026.61559214424,85034.9514563647,85042.7318602947,85050.07648458278,85057.09907506141,85063.91329172216,85070.64025037271,85077.41950588382,85084.42703589433,85091.90821705328,85100.20135839086,85109.10452713077,85118.57887316184,85128.62951720327,85139.27453940481,85150.53678899979,85162.44162777807,85175.01622779948,85188.28928211992,85202.29082678918,85217.05209007264,85232.6053410525,85248.98372382758,85266.22106640368,85284.35165305223,85303.40994746007,85323.43025191007,85344.44628515205,85366.49065862098,85389.5942273571
H0,62755.75923931557,62614.55878102711,62389.146369415415,59045.75301456453,55773.510736463,52574.3890546764,49450.492276253615,46404.062285308144,43437.47982513003,40553.26369163514,37754.067116816186,35042.670460318106,32421.969149837918,29894.955624882212,27464.693858509505,25134.28488268176,22906.821662053117,20785.331701075163,18772.705999304973,16871.613472980724,15084.400826016024,13412.979156826786,11960.733705530236,11917.675064190327,11874.771433959242,11832.022256796989,11789.42697667252,11746.985039556499,11704.695893414095,11662.558988197805,11620.573775840292,11578.739710247268,11537.056247290378,11495.522844800133,11454.138962558853,11412.90406229364,11371.817607669384,11330.879064281773,11290.087899650358,11249.443583211616,11208.945586312055,11168.593382201332,11128.386446025408,11088.324254819716
S1,51212.96373620064,47939.33076112919,45147.64938002416,43305.02586015838,41551.69348193478,39883.90843995165,38298.25358699824,36791.459877388595,35360.32970427518,34001.707898289606,32712.474582237035,31489.547690855186,30329.88946843005,29230.51435192374,28188.497110602762,27200.980794841915,26265.184349451752,25378.40985661929,24538.049368804186,23741.59119042443,22986.625233624938,22270.846578363395,21581.646759800085,20800.594051131065,20072.56406604408,19393.74011824229,18760.60375035406,18169.89351497669,17618.581757820062,17103.856624672335,16623.106215866614,16173.904061762161,15753.995651522004,15361.28589034089,14993.827398990616,14649.809581819063,14327.54839467952,14025.476747649103,13742.135480178455,13476.164849003697,13226.29647211529,12991.345675759592,12770.204196454251,12561.833197156679
E1,0.0,20.146615565358214,25.777177822994183,25.465391495076638,23.1807942958215,20.32948803196437,17.516063590070114,14.974626281447703,12.772320859670844,10.904634952032133,9.33942475136562,8.036773772042118,6.957552738375978,6.066769285360829,5.334579913444794,4.7363174084618445,4.252175752431681,3.866871465366254,3.569472257378851,3.353573498621903,3.2181088115415832,3.169398096096759,3.2259018689610732,3.4128564834111756,3.521240588502872,3.612518374052607,3.702250052201993,3.7945709767336098,3.8907762015362035,3.9914514286291967,4.096995961809339,4.207746890688865,4.324005657416976,4.446041254847117,4.574087760976657,4.708339969789448,4.848947532462709,4.996007265547551,5.14955312264769,5.309543280582797,5.475843754558146,5.648207918942111,5.826251287029131,6.009420923356999
I1,0.0,0.0,5.439583730858368,10.223585088121393,13.009803632194537,14.064693795136776,13.927775551487471,13.086000351165497,11.894747469453215,10.585373546746956,9.29547422720714,8.09892807333894,7.0292847764229265,6.096109251593095,5.295692513671331,4.617751430333261,4.049455977385851,3.5777605178886036,3.190711131955574,2.8781837507270676,2.6323746836142075,2.448313794454968,2.32472537376564,2.26582833309296,2.2809678316534168,2.3193152258668026,2.366968653294391,2.419788251842098,2.476406649267404,2.536353086615869,2.5995032479882116,2.6658903558209963,2.7356253577301075,2.8088562116283753,2.885744320300926,2.9664497264494063,3.051121050046544,3.139887868875465,3.232854070062965,3.330091153353961,3.4316307263418437,3.5374555777045122,3.6474887917584233,3.761580407730124
A1,0.0,0.0,0.6043981923175965,1.256833537143674,1.7694282274173505,2.1109660948027753,2.2986572396650433,2.3644074606512584,2.3407645528269976,2.255781093936601,2.1317637750558327,1.9855936352685166,1.829578011816987,1.6723888967579605,1.5199141132636433,1.3759686152920771,1.2428643499209833,1.1218566945431303,1.0134914468814389,0.917877276566676,0.8349089804953371,0.7644704048725413,0.7066582235749951,0.6621035909526156,0.6320685207396082,0.6112919862444368,0.5974090909704727,0.5889947238725408,0.5850328566716043,0.5847495183434419,0.5875431031212747,0.5929443055001385,0.6005877937598342,0.6101903457845685,0.6215334536636439,0.6344493334052318,0.6488096016327298,0.6645160411781326,0.6814929828022489,0.6996809097213749,0.7190309538137074,0.7395000010397887,0.7610461614024662,0.7836243883080918
IH1,0.0,0.0,0.0,1.0879167461716737,2.64931588077957,4.074291559928831,5.077185590381358,5.607150279941662,5.7333178216356,5.565183596147822,5.209869895489946,4.754427992104053,4.262011473489345,3.774427253236267,3.316822088939169,2.9024292428738017,2.5365463418818126,2.219551484317374,1.9490456671754308,1.721304884525307,1.5322347435027355,1.3779990880595179,1.2554719855635124,1.1626610882864248,1.0993029511915984,1.0671201991750836,1.0569044350974142,1.0607578117545162,1.0734632070451546,1.091847783033271,1.1140541149423673,1.1390250943291345,1.166179888224264,1.1952178940308902,1.226001646441457,1.2584870310416245,1.2926815402266656,1.328619061814948,1.3663443441796077,1.4059030332073283,1.4473347960926048,1.4906679990011722,1.535914963881833,1.5830671553978266
IN1,0.0,0.0,0.0,1.0879167461716737,3.056728726558956,5.4454184388055324,7.878424918250774,10.114294458496074,12.025810109218508,13.565706828751697,14.736288632641129,15.567217911800116,16.10086319502276,16.38334685481702,16.459486242752735,16.37022996201262,16.151612964399384,15.834590002323154,15.445346956834161,15.005851909948278,14.534515394900714,14.046902685529409,13.556499023748428,13.075593630787044,12.61646207895276,12.192392493464155,11.805580145064308,11.455286765777693,11.139997624903488,10.858030201565228,10.607725214256442,10.387514288017654,10.195945119463023,10.031688923386671,9.893539216835372,9.780405974932764,9.691307233466402,9.625359264841595,9.58176591557661,9.559807358038142,9.558828287634308,9.57822544254734,9.617434208874203,9.675913983250704
D1,0.0,0.0,0.0,0.0,0.004094930970742242,0.01406698599210284,0.029402665630546016,0.04851324977351505,0.0696186270183616,0.09119890032102046,0.11214631449211943,0.13175632386430064,0.1496520447469338,0.16569430426896553,0.17990129125623247,0.19238584721534785,0.2033106238022103,0.21285821300023125,0.22121262995931526,0.22854885995484858,0.23502787106166015,0.24079522001340295,0.2459820242088584,0.2507076350009291,0.2550839045230729,0.25922169329864203,0.26323834583063377,0.2672165461107794,0.2712092505443638,0.27524977822991503,0.2793595056679865,0.2835528179912077,0.2878401213640385,0.29222963568905536,0.29672844939725074,0.3013431334986405,0.3060800929560847,0.310945760933904,0.31594669815055204,0.32108963375786614,0.3263814687193189,0.33182925330615276,0.33744014456017984,0.3432213459031673
R1,0.0,0.0,0.0,0.1208796384635193,0.9273743351748909,2.661543987118977,5.258378534598032,8.504275389177456,12.152768452112689,15.985477583111305,19.834567703194754,23.5840127639435,27.161578234842214,30.528266048711572,33.668446318074515,36.58187071704214,39.27774013425223,41.77056562563341,44.07743561736933,46.21631795906832,48.2050945596358,50.06110724504333,51.80107080388136,53.44128327754902,54.99814874838369,56.48906413392253,57.93206008146367,59.34079116332489,60.72509644998622,62.0922080006921,63.44768806696875,64.7960446213171,66.14111669603219,67.48631307382091,68.83476076806171,70.18939836011586,71.55303539020055,72.92839050960441,74.3181159950739,75.72481315256296,77.15104126840592,78.59932160729696,80.07213721612517,81.57192879787355
G1,0.0,0.0,5.439583730858368,12.39941858046474,19.275071159786442,25.533882775606497,31.022842050011903,35.752177070284915,39.795324329038834,43.24384939411386,46.18809949327282,48.70974303028748,50.87967096270704,52.75820934844638,54.39623631116185,55.836572233292316,57.11537735247821,58.263464283935306,59.307519105157716,60.27127617671144,61.17674060988941,62.04562959417585,62.90136669126851,63.77235980010208,64.69383063189971,65.64456515877447,66.61994467654878,67.61955173641425,68.6440854345764,69.69459453163182,70.77228592765051,71.87847433467859,73.0145654789161,74.1820464759064,75.3824770692303,76.61748020349916,77.88873141767606,79.1979466565236,80.54686800526129,81.93724671657748,83.37082275090694,84.84929989280634,86.37431533794206,87.94740247061713
H1,17930.216925518736,16790.687603413,15816.765186209484,14163.483016889939,12669.343201928488,11319.612997840999,10100.901174632962,9001.042016743548,8008.988998089713,7114.717276979598,6309.13421794929,5583.997202758797,4931.8380428408955,4345.893351687681,3820.0402796394355,3348.737057488116,2926.967842030488,2550.191409669957,2214.293307371793,1915.541147858007,1650.542831339898,1416.207590752979,1220.1183434261852,1176.0256745213667,1134.9274708580685,1096.6104001018884,1060.8763659333656,1027.541419768432,996.4347502130903,967.3977446998746,940.2831181502528,914.9541038754026,891.2837022697639,869.1539831693119,848.4554380413558,829.0863784464708,810.9523774674086,793.9657510359178,778.0450763076238,763.1147444386777,749.1045453069054,735.9492818957069,723.5884122219384,711.9657168403485
S2,51212.96373620064,54252.948019598705,57025.89313843648,60614.74051225334,64054.26322179504,67346.70583880157,70494.41023354394,73499.74698585887,76365.06758389181,79092.67064490364,81684.77804180224,84143.51863801945,86470.91851223676,88668.89730037007,90739.27075023556,92683.75986954641,94504.00719450846,96201.60071694298,97778.10584733436,99235.10537921815,100574.24659928771,101797.29311410939,102856.60216156328,103171.60647050609,103427.01770665635,103627.2574513118,103776.46907498172,103878.50525999226,103936.94048267617,103955.08820085558,103936.01811743084,103882.57238752926,103797.38051557599,103682.87290701487,103541.29308598493,103374.70859169369,103185.0205556897,102973.97194868702,102743.15447192384,102494.01405590904,102227.85492068823,101945.84214908058,101649.00273150355,101338.225063368
E2,0.0,7.051315447875374,9.560150982562448,9.972974562142003,9.60450961252063,8.936871179773402,8.197490259878027,7.486296010402498,6.841652544741919,6.273690748566081,5.78066704997987,5.356699598878179,4.9952501919889425,4.690590373407118,4.438377116093885,4.235898856879676,4.08228155203064,3.9788349346022818,3.9297130841229375,3.9431572295676514,4.0338475906279205,4.227531976478499,4.570794812324563,5.125724740283921,5.5535902458811774,5.957218976325183,6.364670636541392,6.784348689088001,7.2193989644960315,7.671489688171244,8.141814553857031,8.631365012609553,9.141006538634574,9.67149892634838,10.223497331690444,10.797543521322753,11.394049432253052,12.013272981911406,12.655285261364998,13.319927789386892,14.006758151055468,14.714982048950464,15.443369588007975,16.190153571339017
I2,0.0,0.0,1.9038543058004287,3.7235521758371535,4.926833213696341,5.549316345221049,5.742543929206684,5.658847721940963,5.416607637479563,5.097209930165676,4.752221690493103,4.412112408560362,4.093575679619828,3.8048623467416443,3.549376233376355,3.3279870168266545,3.1404843817510564,2.986506147243766,2.8661886325256005,2.7807352300920383,2.7330931062525115,2.7289942183082676,2.778829645958239,2.9014118261117403,3.1247921466685127,3.3743439730190143,3.6330547765279864,3.8982931569015005,4.170749207822891,4.451686359359574,4.742313090206878,5.043676784746263,5.3566735652701265,5.68207478308328,6.020548393367786,6.372672061256161,6.738938662760178,7.119755146428457,7.515435319064641,7.926186659330331,8.352090864510663,8.793077501002157,9.24888984843671,9.719041803077099
A2,0.0,0.0,0.21153936731115874,0.4560358929996932,0.6640178153102045,0.8193494096929687,0.9235855413181588,0.9847930291008551,1.0124232015379047,1.0151880443056502,1.0003610723771532,0.9737087905977782,0.939667947420846,0.901591795599982,0.8619910837390266,0.8227441199690926,0.7852722039369477,0.7506861540599061,0.7199139170456295,0.6938224725894678,0.6733526412046064,0.659697485692214,0.6545838902174688,0.6607908942336191,0.6824043877203918,0.7125311418449698,0.7487414015555955,0.7899331535761107,0.8354768910477764,0.8849633833566477,0.9381152927509996,0.9947465598254814,1.0547380805739817,1.1180205360059858,1.184561264751213,1.2543537923826913,1.3274091923513178,1.4037486815224265,1.4833969709076709,1.5663759620474198,1.6526984217393206,1.7423612909798742,1.835338293654501,1.9315715120363868
IH2,0.0,0.0,0.0,0.38077086116008574,0.9563200372717826,1.5168319496037577,1.952827471548857,2.233773143974996,2.3731666532630915,2.4021851865855925,2.3544324051152103,2.25889662593941,2.1377817146995364,2.006765966954699,1.8762126074462508,1.7525616594833942,1.6395660371434948,1.5392693218643079,1.4527347774328752,1.3805805659207675,1.3233909032227795,1.2820798947478833,1.2583019369052493,1.255054659911273,1.2777664541935887,1.3350643710814771,1.4168174812431218,1.5139931161855453,1.6210451805733515,1.7350295060672831,1.8545625865391764,1.9791172480189032,2.1086099957154416,2.2431736526912918,2.383036304297469,2.528458297725589,2.6796998513529697,2.837004154145521,3.0005877456512593,3.1706337269214444,3.3472853502684154,3.5306385661906585,3.7207326114984456,3.917537947583479
IN2,0.0,0.0,0.0,0.38077086116008574,1.0989145332945678,2.0076088122123146,2.9773992106213933,3.9181718817766553,4.7765666632211055,5.526622367102625,6.160466394426203,6.68108884338516,7.097365088057136,7.420889977862283,7.664099546617846,7.839242918339265,7.95788851889403,8.030755570462043,8.067742968211633,8.078086215359244,8.070617123342993,8.05414073256376,8.037994138425534,8.032941193806344,8.052757234207313,8.115866753802344,8.224483424495318,8.377263962364852,8.572432525690708,8.808475193738616,9.084236359548475,9.398882739750276,9.751848666862728,10.142787165047787,10.571529737578913,11.038053234950766,11.5424516558486,12.084911015777935,12.665685741466532,13.285075269396138,13.94339963979862,14.640972902836461,15.378073110358157,16.154907570183585
D2,0.0,0.0,0.0,0.0,0.0014332258397597843,0.005032825305753886,0.010742197966576605,0.018092662716661257,0.026500610163985555,0.03543323636114334,0.04447508864682856,0.053337198921491094,0.06183971143985689,0.06988634605874178,0.07743983591725487,0.08450192144996192,0.09109858341220135,0.09726992857046088,0.10306375575493637,0.10853186593277665,0.11372838684017861,0.11870964520859273,0.12353540847259584,0.12827167123361152,0.13299571120719425,0.13780523863203192,0.14283043606585594,0.14816335313349702,0.15386204039313814,0.15996367283722113,0.16649434357516874,0.17347493818364693,0.1809243579505193,0.18886118988830922,0.1973045209570536,0.20627429663263727,0.21579144234072703,0.22587786297191298,0.23655637878281094,0.24785062508735128,0.2597849263938979,0.2723841464141429,0.28567351001854285,0.2996783897653533
R2,0.0,0.0,0.0,0.04230787346223175,0.3278098483110933,0.958540906135955,1.9306420331479677,3.1833079047627875,4.637609361179474,6.218730193077702,7.865518675866222,9.532530786481075,11.188453662074307,12.813261746727212,14.395315345438238,15.928909546245318,17.412406536792695,18.84691304883342,20.235406058040276,21.582207148646297,22.892727969007844,24.173441880635487,25.432077853814093,26.67809044909303,27.923561483727585,29.184742256031313,30.48159109531947,31.829272196362187,33.23865677486471,34.7179232102175,36.27376551361296,37.9121321719559,39.63864410324364,41.45882215836779,43.378207623596246,45.402423967418045,47.53720643016374,49.788413650385,52.16202861225564,54.6641523785587,57.30099193964431,60.07884227081611,63.00406191297907,66.08304083542738
G2,0.0,0.0,1.9038543058004287,4.4850938981573245,7.177795806351374,9.771012223354619,12.183966345428674,14.397287709845626,16.41858671416061,18.265832061838548,19.959727794232247,21.520507188496747,22.96681542298036,24.31553236195011,25.581991187281478,26.78035246408232,27.924044635737385,29.026260153930515,30.100545098109855,31.161567148686533,32.22621911688382,33.31535747144058,34.45679058641386,35.690904624950655,37.07484967595212,38.57431836097003,40.18276675368661,41.901227044671316,43.73300035835331,45.68223719301915,47.753538467610284,49.95182739823242,52.28229489265479,54.75036553657599,57.36166906009381,60.1220120853293,63.03734751133579,66.11373946010814,69.3573216913157,72.77424715920725,76.37062602811972,80.15244901041548,84.1254923582509,88.29520025226597
H2,17930.216925518736,18997.4917425139,19970.665955346805,19816.008718508678,19520.885465783016,19103.942104863425,18582.295615425635,17971.674500157867,17286.546691926138,16540.23559161348,15745.0247545924,14912.251582840836,14052.390215511256,13175.123646897197,12289.404944466487,11403.507303352048,10525.062576615484,9661.08789022261,8818.000024497904,8001.617464278719,7217.150436050533,6469.179904197952,5811.200980114033,5829.1713263097845,5843.778263462385,5855.275722530077,5863.899373459616,5869.867930866051,5873.384366434439,5874.637034706392,5873.80071843845,5871.037599277296,5866.498159086524,5860.322016878572,5852.6387059516355,5843.568395502784,5833.222560683452,5821.7046047801305,5809.1104369400755,5795.529008617524,5781.042811689125,5765.728340976653,5749.656523719482,5732.893118357722
S3,153638.8912086019,152956.17407442065,152319.91579480915,154389.90772232096,156573.3579848354,158872.0928330664,161288.4274550462,163825.07772195197,166485.1209275013,169271.9788652069,172189.40902269943,175241.49575051726,178432.63610301723,181767.51623648824,185251.07460352607,188888.44814567216,192684.89752357083,196645.7073262065,200776.05733163518,205080.8613920359,209564.57145146563,214230.94538332135,218715.07272047483,218114.45063542892,217522.52010106202,216938.40471578043,216361.34502141902,215790.64793101762,215225.67132268686,214665.81663076332,214110.52346747034,213559.26472017134,213011.54166027755,212466.87887189904,211924.8188684313,211384.91626908528,210846.73139545773,210309.82313168625,209773.74087441046,209238.01538332598,208702.14833287382,208165.6003653525,207627.7774624708,207088.015495978
E3,0.0,12.087969339214922,15.911386361609512,16.14563738297782,15.120260584590492,13.676281548115638,12.190802527459862,10.818976745766044,9.612740028304422,8.578326355150114,7.703616410536773,6.970781143578053,6.361870578399449,5.861105272822749,5.455703686616382,5.136141174192665,4.8962952975774225,4.733749518203914,4.650499619880486,4.654418143272115,4.762161134197262,5.005027587518863,5.441476940867475,6.14950201033418,6.679180901299674,7.16279892769433,7.639285002233644,8.122269563640094,8.618022563236993,9.130326636247812,9.66189739947685,10.214860168066563,10.790947101206893,11.391596167175857,12.018005138014713,12.671158444382652,13.351833997618218,14.060593143292085,14.79775498374924,15.563355081094976,16.357087642425235,17.178229584499032,18.025544367737115,18.897163236661584
I3,0.0,0.0,3.263750238515019,6.25432250857552,8.111913617641004,8.9496166733192,9.0623643440397,8.728933793148368,8.158482669865549,7.490528230174409,6.810464001520279,6.166253886600366,5.581862385481125,5.066821706918598,4.62259072871427,4.246593763254676,3.934713744831643,3.6828273765183988,3.4878082150423477,3.3483192558233217,3.265683881126882,3.24519325063982,3.298472784947129,3.448281777387667,3.7293338547404007,4.040978336726419,4.35854183370949,4.677731113564868,4.9996504538004585,5.326655307009038,5.661180255792519,6.005419265916028,6.361262551666352,6.730311924384326,7.113916722133094,7.513209946054728,7.929137192991669,8.362475857015351,8.813843937803842,9.283698392757978,9.772322998082329,10.279805455453058,10.806003153489513,11.350496659828615
A3,0.0,0.0,0.3626389153905577,0.7674525062531692,1.0983309063909457,1.3322723365277118,1.4761061292275228,1.5466088130180793,1.5618562053007443,1.5378670340467153,1.4876433009502206,1.4212230280588651,1.3461017617271929,1.2677374400073014,1.1900230302906312,1.1156894604576288,1.0466357335748628,0.9841973790398251,0.9293703242464498,0.883011184596928,0.8460414285256411,0.8196979119275897,0.805909088937987,0.8079715051969883,0.8308621806362352,0.8650650804958968,0.9069359345826772,0.9547271935927166,1.0074497310587887,1.0645003442613379,1.1255099500298587,1.1902647502950554,1.2586574660267926,1.330654238753047,1.4062711207249374,1.485556886888269,1.568580090106041,1.6554189099982048,1.7461527306201894,1.8408546322823374,1.939584146095597,2.042379723165773,2.149250431890138,2.260166430815989
IH3,0.0,0.0,0.0,0.6527500477030039,1.6136238196082786,2.519138040815609,3.1899091340992904,3.5852330021837835,3.738244182320341,3.7091883924090387,3.5594500395013906,3.3402216000614997,3.089545561999537,2.833356557931978,2.587973942593906,2.3627588099056647,2.162398356771389,1.9886740329027792,1.8417512017946818,1.7210964739028196,1.6261460224006075,1.5568511826150375,1.514243141577615,1.5012200552963106,1.5239444036871042,1.5927836487545532,1.6933692678786636,1.812781420230855,1.942981386917771,2.0797225857245945,2.2211161115282945,2.36659914069771,2.5162976827755816,2.6706598091637823,2.8302548933357365,2.995669226523761,3.1674552344514515,3.346109041564329,3.5320618428808848,3.725676870660526,3.927247379082813,4.136993096469277,4.355053674974709,4.5814782026128436
IN3,0.0,0.0,0.0,0.6527500477030039,1.8580715270759103,3.350814745607059,4.906948391000462,6.377058572912015,7.677911589927043,8.77391256889873,9.65985357770381,10.347968752330399,10.859231421427191,11.217944483582743,11.448621641645415,11.574358028508856,11.616122269070631,11.592596573198652,11.520335014946157,11.41411138544245,11.287401292747887,11.153004814751483,11.023887187069452,10.91443413200538,10.842579524327025,10.831948699815474,10.88438849493799,10.996682212610931,11.164978941491837,11.385917307667807,11.656841554157413,11.975768135314928,12.341290692607142,12.752479033396764,13.2087882277834,13.709981233782335,14.256064148293135,14.847231762197087,15.483820754435556,16.166267913459738,16.895070944034796,17.67074958080858,18.493804836359036,19.364674244840362
D3,0.0,0.0,0.0,0.0,0.002456958582445344,0.008530656939689529,0.018012721095068338,0.0300195752528363,0.043514432933474345,0.057585226431458594,0.07154665360669263,0.08494446392338748,0.09751709590774306,0.10914618044189614,0.11981096665927865,0.1295521299296245,0.13844558088634873,0.1465848728251714,0.15407026443873098,0.16100263684973593,0.16748086349660085,0.17360169556717067,0.17946170107490922,0.18516132943296165,0.1908119387465554,0.19654808276521074,0.20254333848301143,0.20891719961194494,0.215740529436595,0.223053933412463,0.2308820328114329,0.23924233904508338,0.24815024505046238,0.2576216180659658,0.2676740118758278,0.2783271233924938,0.28960285633525695,0.30152519376009895,0.31411998614104114,0.32741470697504466,0.34143819696941446,0.35622040064351324,0.3717920895765979,0.38818456100021964
R3,0.0,0.0,0.0,0.07252778307811154,0.5590950778983272,1.6191955681371952,3.2291099019379543,5.271835961245525,7.605372186276265,10.100120512724265,12.653741128530704,15.193170843825467,17.6707577410582,20.058569904973943,22.34288674680086,24.51966522689915,26.59114338590832,28.563466758357716,30.445136182520073,32.24607951837087,33.977191775169494,35.65024409903678,37.278126644889944,38.87547408964372,40.45986075161215,42.053822165061,43.68420584588632,45.37093003513258,47.1276478938846,48.96400505265788,50.88742137262149,52.90422554838389,55.02031719943385,57.24153187311242,59.57383081824831,62.02339128054291,64.5966419809612,67.3002691177374,70.14120665660721,73.12661787021496,76.2638711247829,79.5605105954006,83.024221199226,86.66278613945676
G3,0.0,0.0,3.263750238515019,7.5598226039815275,11.91914271647722,16.001611219211817,19.69420555926,22.985720745984548,25.906843139961076,28.502281768216154,30.81842883163179,32.89840431731999,34.78051437084089,36.49821864647081,38.08071635103392,39.55375567706004,40.940513163938874,42.26251229355829,43.5406240826896,44.79625840948751,46.0529507371204,47.33873365908409,48.690090493647325,50.159288600066716,51.81965338837452,53.6230314122567,55.55698624393034,57.61959225726952,59.812604042931056,62.13946907765982,64.60465614924692,67.21336726168744,69.97137825380418,72.88493264718869,75.96066221469118,79.20552212746605,82.62673335282489,86.23172689404524,90.02808531763986,94.02347734771554,98.22558131014308,102.64199296674674,107.28011284696441,112.14700761469932
H3,53790.650776556206,53555.85031681727,53335.71218015943,53128.99393526938,52922.15718483867,52713.53070193862,52501.679161623215,52285.38297355523,52063.61995472987,51835.548677630046,51600.49333854995,51357.929998283376,51107.47405285531,50848.86879545665,50581.97493224328,50306.76091428966,50023.2939459962,49731.731527120224,49432.31338213497,49125.35362805168,48811.23303191647,48490.39121422252,48163.318667249216,47831.13864240445,47501.94071712619,47175.660000000884,46852.235163364334,46531.608196210815,46213.72417470508,45898.53104904009,45585.97944547317,45276.02248245659,44968.615599856086,44663.7164003226,44361.28450194942,44061.281401408785,43763.6703468197,43468.41621965196,43175.48542502129,42884.845789776344,42596.46646782128,42310.31785215717,42026.371493162726,41744.60002266875
S4,76819.44560430096,78081.53701061933,79344.66672834675,82022.62708562776,84720.78890073692,87438.61207608457,90175.7855238889,92932.07411599436,95707.23556150845,98500.97348286545,101312.90924548096,104142.56366273802,106989.34422425574,109852.53591544172,112731.29502548579,115624.64610460182,118531.48268823842,121450.57266020484,124380.56917388516,127320.02777378728,130267.42945130469,133221.20706909447,136100.0223016609,137918.14503238932,139731.1001875644,141538.79128155267,143341.21511366867,145138.383931359,146930.30556575718,148716.97763034285,150498.38512635475,152274.4986347497,154045.27228705242,155810.64122133516,157570.5183477301,159324.7902591652,161073.3121036032,162815.90120448687,164552.3291827393,166282.31230004097,168005.49971318396,169721.45930902837,171429.66078793487,173129.45569370908
E4,0.0,18.131954008822387,24.101370016549932,24.696560600374408,23.37325261974486,21.380618695925648,19.288066040363237,17.334948198746467,15.60519421391841,14.113141729940795,12.844821681029298,11.777209552947497,10.88679392965657,10.153125761409214,9.560147562339692,9.096686322033456,8.756824743325675,8.540595444152839,8.455423239417218,8.51896073447339,8.7645777956086,9.252295282485367,10.092009505803134,11.433622223335483,12.507923503515984,13.549026187561942,14.622902662970427,15.750957464264957,16.942637116454765,18.204083509286384,19.540456304791444,20.956569551857296,22.457069122384482,24.04647544242235,25.72917704844459,27.509396559864626,29.39113293059595,31.37807828554114,33.473505243333214,35.680118983437886,37.99986682189184,40.43369661481812,42.98125400896926,45.64050764428685
I4,0.0,0.0,4.89562535777253,9.444742162134808,12.33491362936085,13.711723517283158,13.99979853508162,13.607654585494142,12.845026638133163,11.920416506036524,10.96279643916451,10.045778141445389,9.207312019217166,8.46382023683678,7.819634851995513,7.273019580094479,6.819915938933237,6.456291169683009,6.17973442388538,5.990803891577963,5.894600688063264,5.903195342326193,6.040035796502617,6.348862806279727,6.896394281277257,7.514974380118482,8.167220036382734,8.848513946747666,9.5618649509151,10.311628913299625,11.102077662028016,11.937167402091832,12.820571649094962,13.755748897242881,14.745994757537588,15.79447150088975,16.90421659656932,18.078132243204273,19.318956633242113,20.629216288780732,22.01115752120272,23.466653892428607,24.997085460647646,26.603184585440047
A4,0.0,0.0,0.5439583730858366,1.158207470409924,1.6674624576701573,2.035167226099087,2.2695520502916837,2.3942833585050325,2.4354748964525457,2.4165355308461063,2.3566224841816177,2.2706424626727033,2.1698300961770443,2.062467746420133,1.9545678315687114,1.8504585617990994,1.7532673150922293,1.6653184749985686,1.5884725268961408,1.5244406034332165,1.475121188648405,1.4430341653063057,1.4319960645902559,1.4483569992697776,1.5016941102502022,1.5765928227948427,1.6677448591593902,1.7728827678739594,1.8908347235065563,2.0209466613330855,2.1628795861829397,2.316517091710243,2.48191047423929,2.659240146923199,2.8487860530043214,3.0509038031109235,3.2660045642704576,3.494537238667775,3.736971711747503,3.993782070379721,4.265428739407586,4.552338478160177,4.854881129771528,5.173341938156274
IH4,0.0,0.0,0.0,0.979125071554506,2.4330874092667236,3.819146746489224,4.864797353694855,5.503522235927564,5.7800584183076404,5.781215049535369,5.596935809365849,5.303000449257722,4.956245149813254,4.595846131863706,4.2468596216283,3.9240767780493693,3.635370383022379,3.384303959994808,3.1720513497564475,2.9987827329076113,2.864704323624304,2.7709509464352164,2.7205673745320014,2.719935298625134,2.7813494307098927,2.924986016074701,3.1285266331980885,3.3720914290013475,3.643708913075657,3.937327817164525,4.250456382270836,4.582564203850523,4.934147755875391,5.306217651916164,5.7000272292096135,6.116932139604357,6.558318227254135,7.025563155056489,7.520012985129165,8.042963416536141,8.595639825507481,9.17917246491778,9.794564173894724,10.44264828190279
IN4,0.0,0.0,0.0,0.979125071554506,2.7997589704681713,5.071399718513606,7.459907801813347,9.739382295715902,11.781386789103443,13.528393001377514,14.968586820103924,16.116772865256813,17.00144516448379,17.65669976995103,18.117538251104968,18.417386494494735,18.58699097228256,18.654141248139574,18.643881428376883,18.5790260973199,18.480909680981796,18.37039830423928,18.269316347406782,18.202655070428314,18.202410219235098,18.311688746553525,18.5370588217176,18.877153733047027,19.3297786650351,19.89349370458404,20.567830575653,21.353208039913255,22.25080688261461,23.262460207562228,24.390564919920237,25.638009812587505,27.00811457868116,28.504574786870123,30.131408602034316,31.89290147616893,33.7935451654257,35.83796729392291,38.03084732420936,40.37681423969908
D4,0.0,0.0,0.0,0.0,0.003685437873668016,0.012843606475989627,0.027218918143028098,0.045530070554396916,0.06624539066632035,0.08800159610494165,0.10976215511662159,0.13082908497837764,0.15078963881114194,0.16944500176421728,0.18674381872641604,0.2027290465062044,0.21749931600205527,0.2311828913527819,0.24392144983986808,0.255861087094843,0.26714853931094545,0.2779313188739114,0.288361209661873,0.29860145611378675,0.30883932342481857,0.3193083542255201,0.33031803476252897,0.34209384449076086,0.35478643487268435,0.36850139654509945,0.38332154310246086,0.39932030913009886,0.4165691327646246,0.43514132087630947,0.4551139842963667,0.47656895143158284,0.4995931533776772,0.5242787375634808,0.550723036956595,0.5790284511176984,0.609302256633441,0.6416563424204996,0.6762068516801896,0.7130737023116761
R4,0.0,0.0,0.0,0.10879167461716732,0.840048359053525,2.4406480484616395,4.883836898422311,8.001156193966663,11.583818703985786,15.43900528958914,19.412803860604402,23.393929318200016,27.308491513697437,31.111871390148945,34.78074224628695,38.306459125808274,41.6900903179492,44.93894272836077,48.06429676274765,51.080069348331875,54.00218639905501,56.848532886378635,59.639453494318126,62.398920132270646,65.15672950643392,67.95224189751093,70.83362984129282,73.83863131081688,76.99567843664643,80.32754245640356,83.8540977712574,87.59402070143761,91.56575986225565,95.78807520764141,100.28033584285168,105.06268618627035,110.15614049155892,115.58263732286362,121.3650697232489,127.52729799919254,134.09414702503693,141.09138692770497,148.54569393178537,156.48458646786946
G4,0.0,0.0,4.89562535777253,11.40299230524382,18.071060637323786,24.381835976990434,30.15460040170216,35.36237586614733,40.04280975298401,44.25621027614064,48.066756811683234,51.53485708962992,54.71470222397985,57.65413524928633,60.39547795917977,62.97671662807694,65.43282081895349,67.79716242527655,70.10312214735212,72.38608538459886,74.68620373771535,77.05263866720358,79.55075725831048,82.27559858668864,85.36267518419807,88.7398129955502,92.39804840386184,96.34623032877987,100.59898691164636,105.17349685439693,110.08859716844518,115.3645179733202,121.02278918116006,127.08619508894597,133.57874050813783,140.52561515450503,147.95314885054052,155.8887511358032,164.36082842312277,173.39867073195825,183.03229847989252,193.2922578595995,204.20935098478998,215.81428429384144
H4,26895.325388278103,27343.58081141607,27789.879564056217,26817.828081574527,25842.857076996737,24865.770854879367,23887.454363677858,22908.884721318514,21931.143033705266,20955.426381874622,19983.059776138365,19015.507775388338,18054.385342824567,17101.46735255291,16158.69597360428,15228.184941544896,14312.219491870153,13413.250492296478,12533.881104783297,11676.844181527245,10844.968620088164,10041.133155822252,9347.951144686765,9749.312133580508,10147.904955600545,10543.754461576596,10936.884961576603,11327.32025460464,11715.083656239729,12100.198024362271,12482.685783104273,12862.568945149882,13239.869132503687,13614.607595835821,13986.805232505176,14356.482603354754,14723.659948366494,15088.357201256658,15450.594003087092,15810.389714962268,16167.763429877072,16522.733983775583,16875.319965876894,17225.539728319916
E_Om,0.0,0.0,0.24018794706309374,0.3113445488155872,0.3256767196936273,0.32034554657853853,0.3098517835169372,0.29964392062454304,0.2916534297559416,0.28651562314802537,0.28444960872530384,0.2856071574724349,0.2902199310404908,0.29867964483327547,0.31160951233277584,0.32995915451625346,0.35515255937618445,0.3893324550637525,0.43577973296517036,0.49966439594205214,0.5894619646876713,0.719805018036278,0.9177205692430728,1.2289306278227488,1.5731143416791047,2.0074754778039963,2.557861925190727,3.254787630343274,4.136407057651674,5.250466387473597,6.656635324048638,8.429371407876873,10.661432559984451,13.468171341232246,16.992766267787353,21.41256854967902,26.946765261431914,33.865579715399,42.50124266753441,53.26096771759761,66.64214155881018,83.24988108005715,103.81699575603977,129.22619958138344
I_Om,0.0,1.0,0.6,0.424850716238375,0.33897341972436956,0.29131672619462295,0.26128329398978273,0.24042991992772603,0.22516177376194832,0.21384345450831266,0.2056652558023514,0.2002005129381192,0.19723420523928553,0.19669986891741925,0.19866338881042905,0.20333256338473452,0.21108846926753908,0.22254422901842422,0.23864625251106714,0.260848225941419,0.2914182611653786,0.33400561484380753,0.3947506354631989,0.4846348223784084,0.6225920121616833,0.798295886544963,1.0209956646368819,1.303219804759535,1.6607241437184967,2.1132638843012503,2.685583611018878,3.4086408874018437,4.3211137783682485,5.471253750165544,6.919156859822034,8.739538923353239,11.025114235317153,13.890691855678163,17.47811748159651,21.96220079471455,27.557775225991733,34.52803518014916,43.19427878577666,53.94714338828908
A_Om,0.0,0.0,0.0,0.007205635137597229,0.015104840330227175,0.021854169415292987,0.027093697562568717,0.030970507331594576,0.03376571939919929,0.03576217443615318,0.03720520433751852,0.03829764785409352,0.03920632911398749,0.04007165726606199,0.041017711086180415,0.04216244999099735,0.043628730130208807,0.04555755604393379,0.04812601317959288,0.05157419659198305,0.056249282340311686,0.06268327677720271,0.0717407621503082,0.08492421428696757,0.10480727351120053,0.13103922761428854,0.16505561905919794,0.20878031813373676,0.26466783904729785,0.3358264265789663,0.4261750613118539,0.5406390180262071,0.6853922417462037,0.8681566248574735,1.0985702565218354,1.3886389616019148,1.7532879338709995,2.2110329375954523,2.784793279875207,3.5028713245397936,4.40012536509439,5.519363630359303,6.912986201808239,8.644897418871377
IH_Om,0.0,0.0,0.2,0.2311480019556359,0.21342833611470674,0.18640534954420157,0.1618562560173241,0.14220665609968375,0.12711591243690565,0.11567575317303783,0.10705433510114484,0.10062742839637702,0.09596279062857943,0.09277720325012523,0.0908999776249006,0.09024943221618435,0.09082173301924434,0.09269096464969385,0.09602092340445459,0.10109191941391485,0.10835046947186776,0.11849834319684185,0.13265539337567245,0.1526720367043642,0.1817729236466196,0.22553688879711728,0.2849990500944427,0.3625845078136338,0.46214667886967226,0.5889782285776841,0.7499715433691471,0.9539059150491018,1.2118518600372195,1.5376973202204387,1.9488106738082958,2.466863434882449,3.118842494093653,3.938288405227639,4.966802807966132,6.255874537384688,7.8690799355201415,9.884717605509586,12.398940094770271,15.529442846662024
IN_Om,0.0,0.0,0.4,0.6120916007574652,0.7304812670490022,0.7983016429529344,0.8369885289409298,0.8579186991887616,0.8675690629998347,0.869888239622193,0.8674405625315746,0.8619909143951061,0.8548235955626784,0.8469285534721345,0.8391187569733404,0.8321114334494697,0.8265917392232232,0.8232712513456083,0.8229518857255476,0.8266074756276933,0.8355010906430096,0.8513694262132703,0.8767344922872067,0.915468832836622,0.9739044329088041,1.062635143332706,1.1889557005114495,1.361967816712362,1.5932597056839546,1.8975295174078393,2.2933597911688213,2.804185103105257,3.4594966013019572,4.296336925185531,5.361150715935445,6.712069562997083,8.42172603068774,10.58070951364346,13.30179706920093,16.725114802793758,21.024409168333612,26.414631393520253,33.16105991645186,41.590201623718706
D_Om,0.0,0.0,0.0,0.0007528022682162226,0.0016228459690454753,0.0024261926466893034,0.003127824496411867,0.0037370532796860033,0.004272320746022434,0.00475078648206682,0.005186191328898234,0.00558914506033084,0.005967907842038631,0.006329112874286396,0.006678327319513655,0.007020475866197801,0.00736017575258565,0.007702029785686726,0.008050919627843923,0.008412343472519372,0.008792854603685004,0.009200686999588578,0.009646716107280812,0.01014603251240242,0.010720691790023596,0.011404887136130946,0.012253810543395444,0.01332655020014827,0.0146913223996591,0.016430847740167516,0.018647768472183784,0.02147066986691336,0.025061182549482537,0.029622606694372867,0.035410516846832635,0.04274586232466698,0.05203116427046284,0.06377052278927704,0.07859428501100212,0.09728938710910015,0.12083656981619667,0.15045587593736834,0.18766206510789055,0.23433181624199115
R_Om,0.0,0.0,0.0,0.11600759501868277,0.26197472935133104,0.4099764283551024,0.5521563715729955,0.6872696660855957,0.8159630716703918,0.9392414232821229,1.0580415330154829,1.1731617718625424,1.2852892454630156,1.3950436301471325,1.5030169970643334,1.6098077671094662,1.7160520143426292,1.8224564992306855,1.9298384645648756,2.039178672309436,2.1516973242437016,2.268968871837058,2.393104465498857,2.527057425888876,2.675166861204329,2.8441488421865344,3.0438458948869886,3.285352580179164,3.581851515462999,3.949522156875816,4.408522511894161,4.984126974932413,5.708097291865912,6.620364142379012,7.771104669114605,9.223314822280711,11.055993830884214,13.368081226008249,16.283314683142876,19.95620966204666,24.57939945828898,30.392616612666245,37.69364289327363,46.85160363639965
G_Om,0.0,0.0,0.0,0.06485071623837506,0.1489137062197196,0.23684638057972085,0.32333963885272976,0.4069995823865862,0.4879034041918989,0.5666497944430426,0.6440089775404065,0.7208103369971148,0.7979242344735289,0.8762835802473767,0.9569270477073544,1.0410615778058314,1.13015050904253,1.2260416565004304,1.3311613716004431,1.4488218460352218,1.583731171635749,1.7428858297803291,1.9372330963372435,2.1850175374377327,2.516828656172371,2.941569335420324,3.483587468130228,4.174209874107634,5.053002134970409,6.169831533040561,7.58745681347869,9.384747534269206,11.660676780196347,14.539262263340943,18.17566687306365,22.76371168052367,28.545102561828877,35.82072587631675,44.964428244506365,56.439758550263015,70.820213299426,88.81358334398013,111.2910410216673,139.32161713849038
beta,1.1633419944826546,1.1633419944826546,1.161559583608457,1.1604627746404967,1.1974739035614117,1.2374844487043322,1.2808654908985388,1.3280979652651215,1.3797828688048963,1.436664402079254,1.4996662658786273,1.5699440599207843,1.6489596781729217,1.7385876461415561,1.8412697197299752,1.9602448604973404,2.099900932622455,2.266330347358459,2.4682422499414263,2.7185300055545207,3.0371177498252453,3.456494984480536,4.0334525275658635,4.808965074792547,4.8046649219050765,4.800280645446719,4.795658568214479,4.790744010347011,4.7855044378957885,4.7799101055701625,4.773928503728497,4.767522200386969,4.760647391661724,4.753252432595515,4.745276121490544,4.736645635953368,4.727274047153951,4.717057343658474,4.7058708981135355,4.693565316528587,4.679961626009952,4.6648457882330945,4.647962580080888,4.629008969206449
