series,2021-12-01,2021-12-02,2021-12-03,2021-12-04,2021-12-05,2021-12-06,2021-12-07,2021-12-08,2021-12-09,2021-12-10,2021-12-11,2021-12-12,2021-12-13,2021-12-14,2021-12-15,2021-12-16,2021-12-17,2021-12-18,2021-12-19,2021-12-20,2021-12-21,2021-12-22,2021-12-23,2021-12-24,2021-12-25,2021-12-26,2021-12-27,2021-12-28,2021-12-29,2021-12-30,2021-12-31,2022-01-01,2022-01-02,2022-01-03,2022-01-04,2022-01-05,2022-01-06,2022-01-07,2022-01-08,2022-01-09,2022-01-10,2022-01-11,2022-01-12,2022-01-13
S,17763.70683852061,17763.70683852061,17763.541271791437,17763.388130055308,17763.254206056612,17763.14087321555,17763.046879135258,17762.969895919057,17762.907330685688,17762.85671576129,17762.815870408067,17762.782944668612,17762.756406799723,17762.7350072051,17762.71773567225,17762.70377990733,17762.692488699853,17762.683340689182,17762.67591858925,18341.67843441893,18920.681661495706,19499.685505703907,20078.689876363107,20657.69469045451,21236.699873771202,21815.705360452943,22394.71109168181,22973.717013898287,23552.723076619215,24131.729229703004,24710.735419607085,25289.741583637737,25868.74763996672,26447.753468001483,27026.758864066982,27605.763421918466,28184.76611136127,28763.762791621994,28771.524839787566,28771.011935298106,28766.90066837792,28757.8840318118,28722.917611365472,28678.50889352313
E,6.164746413742623,4.315322489619836,3.0964041096743493,2.2668118608937964,1.6858890915334723,1.2692192297666578,0.9644981343558476,0.738216952471407,0.5681888295951901,0.43926715281631745,0.3408301474806513,0.2652598137882358,0.20699256550826303,0.16190701066486668,0.12691640992167624,0.09968937704265479,0.07845356925889527,0.06185478322459133,0.04885410465329751,0.03865184194307236,0.030931379200783413,0.02502947425850556,0.02047545508600338,0.016931578649522043,0.01415298071999217,0.011960502242525095,0.010222072114837234,0.008839854630912634,0.007741356894787341,0.006873347032404491,0.006197903305495358,0.0056903228871503005,0.005339142910817601,0.005149583969063832,0.005154725354879285,0.005449818213294038,0.006321714937322311,0.0090543323600637,0.10296452825541703,0.22238206110834086,0.9401543944740706,2.133829665857469,5.091036473275675,7.346742107769586
I,0.0,1.6644815317105084,2.163825991223661,2.1343247043462705,1.8926340250490876,1.59077046974349,1.2971514738830916,1.0387053806059339,0.8225418055308402,0.6469360673092055,0.506763771645929,0.39608240280733326,0.30926959140722365,0.24144974753156517,0.18858474139845313,0.14741827551792444,0.11536709711227147,0.09040272196726462,0.07094242465099841,0.05575606304698938,0.04388963515282317,0.03468525347590542,0.027569110135339754,0.02206983895442477,0.01781342960802581,0.014509362559213375,0.0119349531410098,0.009920931355611933,0.008339319563713572,0.007093758099820725,0.006112058558641647,0.005340669027668735,0.004740788596131822,0.004286041743599846,0.003962012717807142,0.003768983476501692,0.0037328410034904056,0.003946567635171268,0.00481261031831996,0.03068798881995457,0.07845594979122478,0.300915256382734,0.7566831636111571,1.8285897459511264
A,0.0,0.1849423924122787,0.277413588618418,0.3148229941849649,0.3198627511747858,0.3064668736858328,0.283250075841666,0.2555350047040082,0.22657451233734877,0.1983052747577347,0.1718222343906773,0.14768269193696137,0.12610394796321617,0.10709293533582084,0.09053155858860266,0.0762327391685324,0.06397687264610558,0.053535105194651315,0.044683727652458795,0.03721260526156596,0.030929639467544935,0.025671652950059454,0.02128820658780273,0.017644828922822285,0.014623810497743486,0.012123637819794555,0.010057725323111395,0.008352842421934235,0.006947469576474767,0.005790216368023433,0.004838373505390881,0.004056635903477566,0.003416018409396561,0.0028929890148417766,0.0024688787309453362,0.002129744745402648,0.0018672903427209395,0.001683483722296421,0.0016184169486390476,0.004383669406573748,0.010178397358509223,0.036347349721029494,0.09309276975254765,0.22720531000030836
IH,0.0,0.0,0.3328963063421017,0.5988804551094411,0.7257062879688653,0.7406542427062813,0.6877405610591324,0.6026128347451254,0.5084448806590044,0.4182223565550112,0.33808016938279173,0.27005475885119884,0.2139738052282149,0.168626847090324,0.1324347462043847,0.10380188663567859,0.08128079653478851,0.06363253689331377,0.04983318030321649,0.03905524190150472,0.030639778318248732,0.024067176411370753,0.018946571724455092,0.01496816131757104,0.011883080288352905,0.00949234298549326,0.007638551661603813,0.006198627907342262,0.005077301596886175,0.004201437409588916,0.003515268887349015,0.0029765308865154876,0.0025534227179049756,0.002222315655460947,0.001966143860794982,0.0017735083300981242,0.0016387773520193025,0.0015643180993557132,0.0015699082586127541,0.0017459062847117565,0.0070088050000620804,0.019188583653275932,0.06975815451953148,0.18614595182747762
IN,0.0,0.0,0.3328963063421017,0.7204825550047367,1.0495673631203133,1.2856523624445557,1.4293244265346938,1.4947742686219099,1.4996523810150288,1.46063574643403,1.3917930982580036,1.304258955926069,1.2064682168543202,1.1045865643191575,1.002967789253582,0.9045671828476732,0.8112877000944588,0.7242573863097428,0.6440454975425725,0.5708274882951206,0.5045089728767828,0.444817574729878,0.391386305323304,0.34378322031820596,0.30154072337209264,0.26417987581304425,0.2312286341191173,0.20223448111856038,0.176772458909293,0.15444968713033458,0.1349073331600755,0.11782082558679763,0.1028989317546057,0.08988218340180261,0.07854105084112907,0.06867427180629898,0.06010795468713244,0.05269698493214579,0.04633453864682779,0.04100877890755841,0.04158087918962777,0.05162892920099408,0.10480517161570767,0.24191819333907388
D,51.0,51.0,51.0,51.00033289630634,51.00093177676145,51.001657483049414,51.00239813729212,51.00308587785319,51.00368849068793,51.00419693556858,51.004615157925144,51.00495323809452,51.00522329285337,51.0054372666586,51.005605893505695,51.005738328251894,51.00584213013853,51.00592341093507,51.005987043471954,51.00603687665226,51.00607593189416,51.00610657167248,51.00613063884889,51.006149585420616,51.00616455358193,51.00617643666222,51.006185929005206,51.00619356755686,51.00619976618477,51.006204843486366,51.006209044923786,51.00621256019267,51.00621553672355,51.00621809014627,51.00622031246193,51.00622227860579,51.00622405211411,51.006225690891476,51.00622725520957,51.00622882511783,51.00623057102412,51.00623757982912,51.006256768412776,51.006326526567285
R,0.0,0.0,0.03698847848245574,0.3040982989592874,0.7642832581046783,1.3335507580096433,1.9396532839585099,2.5341540323458123,3.089430414387244,3.5924927528713835,4.039494847738302,4.431786275968955,4.773357413415162,5.06930067643852,5.324941411622734,5.5453826511282465,5.735293280136593,5.898832786140377,6.039648508786588,6.1609083386463395,6.265348208677141,6.355323350907243,6.4328595898046945,6.499707424016649,6.557376935196998,6.607166770921376,6.6501907841838515,6.687402748708035,6.719618839626483,6.747537620031921,6.771757487600543,6.792791716030302,6.811081336291981,6.827006157404842,6.840894253944934,6.853030283199912,6.863663100128509,6.873013484828747,6.881284100435237,6.888681019757204,6.895996204262795,6.907179426181407,6.931049996814084,6.998771239023225
G,10394.0,10395.66448153171,10396.829618603908,10397.66564771352,10398.27768691596,10398.732876970675,10399.07556616271,10399.335980658989,10399.535299236157,10399.688710220145,10399.807312351406,10399.899336491226,10399.97095664095,10400.026844633636,10400.070559526515,10400.104826957197,10400.131743088996,10400.152925552697,10400.169626344168,10400.182816952423,10400.193252949746,10400.201604422131,10400.208362380185,10400.213890753055,10400.218462279292,10400.222283584086,10400.225512919691,10400.228272879162,10400.230659639912,10400.232749806273,10400.234605609969,10400.236279043864,10400.237815431045,10400.239256999628,10400.240647387302,10400.242039163144,10400.243510614062,10400.245217477097,10400.247662146836,10400.275462569463,10400.335505725961,10400.58934741247,10401.165481422253,10402.540061270036
H,11009.203378517483,11009.203378517483,11009.203378517483,11009.203378517484,11009.203378517483,11009.203378517484,11009.203378517484,11009.203378517483,11009.203378517483,11009.203378517483,11009.203378517483,11009.203378517483,11009.203378517484,11009.203378517484,11009.203378517484,11009.203378517483,11009.203378517483,11009.203378517483,11009.203378517484,10594.778375829295,10186.419271566341,9784.46314110632,9389.271122185306,9001.229933274057,8620.753249359972,8248.282837625862,7884.289323831814,7529.272421597559,7183.760411115902,6848.308601951991,6523.496459020626,6209.923016720311,5908.200162453242,5618.943351302398,5342.759338330047,5080.2306094810265,4831.89638561911,4598.230393630433,4595.194379337627,4595.194379337627,4595.194379337627,4595.194379337627,4595.194379337627,4595.194379337627
S0,6217.297393482214,6203.308474346879,6180.896494838901,6158.567473648233,6136.3269823331575,6114.1765494643705,6092.115729723095,6070.1432215278755,6048.257445255879,6026.456824336365,6004.7399076903575,5983.105410737422,5961.552216990891,5940.07936247519,5918.686014300464,5897.371448855605,5876.135031996081,5854.97620203969,5833.894455633794,6002.3773285463185,6166.638899068546,6326.537662048521,6481.922201808174,6632.63083210177,6778.491342816911,6919.320904026332,7054.926191642657,7185.103815233464,7309.641147230134,7428.317673009811,7540.907001505748,7647.179693202307,7746.907071891657,7839.866181234639,7925.846016167421,8004.6550836320175,8076.130168123205,8140.145382984355,8111.917024866059,8082.506888445183,8051.815455838181,8019.380000539437,7977.489886474872,7932.4117908128355
E0,6.164746413742623,4.315322489619836,3.0625963525921724,2.198884274737904,1.5942621337405534,1.165526514472044,0.8581974071028788,0.6358699790611828,0.47377509403965345,0.35479521760528776,0.26694253171034715,0.20172714367615685,0.1530794960829711,0.1166256225341043,0.08919186538536827,0.0684617472277231,0.05273549393620368,0.040759858701794875,0.031606710231877846,0.024585811418350915,0.01934765072549969,0.015402757948821769,0.012404958245114506,0.010107312938124783,0.00833223397358124,0.006951049600954075,0.005869927656151699,0.005020120586592978,0.0043511900355408945,0.0038263335305197266,0.00341926477320796,0.0031123692362570376,0.002896166749121459,0.002770682078826223,0.0027508757263606286,0.002883964438630685,0.0033153374531861074,0.004699447204111326,0.052603738960589,0.11326567842650725,0.4768785409132647,1.0791080926239358,2.565674005673318,3.6925236553997087
I0,0.0,1.6644815317105084,2.163825991223661,2.125196609934083,1.868816720139684,1.5517408081937596,1.2457366438237076,0.9791552862120019,0.7591780660737205,0.5834261150349387,0.4458503777743909,0.3395847102264283,0.25821715492841935,0.1962617568994538,0.14924597222388045,0.1136293869883777,0.08666230394451185,0.06623596572948211,0.05074674128717388,0.03898185653491135,0.030027283003901555,0.023240235498225847,0.018102885945117386,0.01421107029325135,0.011255616669244501,0.009003073174413637,0.007278627296905782,0.005952056845304428,0.004926666665562761,0.004130821308933698,0.003511602838600545,0.0030301631919264762,0.0026584376089452857,0.0023770275876299654,0.0021743007138610593,0.0020473168744340052,0.002007060523090688,0.002099377426214662,0.0025284772008388554,0.015720095839862343,0.04001379067907437,0.1527654804540261,0.38301847328087835,0.9225430655003228
A0,0.0,0.1849423924122787,0.277413588618418,0.3138087614724996,0.31701353742013677,0.301438693948326,0.27611675059282215,0.24663932268734406,0.21638755752171074,0.1873232988385582,0.16050249559900517,0.13641027243051457,0.11518003225469636,0.09673641068624622,0.0808878972250201,0.06738607374157712,0.05596271141009339,0.04635223394616082,0.0383045829179825,0.031591867641342336,0.026011068455624398,0.021389284286264507,0.01757351016747626,0.014430956881334443,0.011847984893211297,0.009728354933776474,0.007991215435049801,0.006569070177724392,0.0054058597597773025,0.004455223508888069,0.003678968813026047,0.0030457529936170763,0.002529973471981372,0.0021108637800587413,0.0017718114864117797,0.0014999754609202427,0.0012864993018951148,0.001128659565111675,0.0010439110682126799,0.002413241023387814,0.005328563171505469,0.018569206764602317,0.04722860819039992,0.11475310672251947
IH0,0.0,0.0,0.3328963063421017,0.5988804551094411,0.7238806690864278,0.7349797979020642,0.6771030807918821,0.5870217660798907,0.48875491851626585,0.39572431755436077,0.3141516574666138,0.24593175263071845,0.19063688660801417,0.14677123740308295,0.11249119884402915,0.08598230266794664,0.06563104642898092,0.05008235295696385,0.03823828727142139,0.02923025360587405,0.02238226785631342,0.01717420826108071,0.013217977021924444,0.010216347722963775,0.007940171572409194,0.006213268948481088,0.004901035840174791,0.003901342343628377,0.003137181198531446,0.0025507867511797436,0.0020990068506254317,0.0017497249861821993,0.0014791454064902129,0.0012697810796276734,0.0011090262762602021,0.0009882642546260526,0.0009026072379452013,0.0008518131163527932,0.0008449302303029762,0.0009273156250889562,0.003606749664891858,0.009802526218595911,0.03544455667388458,0.09429052843644409
IN0,0.0,0.0,0.3328963063421017,0.7204825550047367,1.0477417442378758,1.279311046048544,1.4160377881998383,1.4730078574978414,1.4689299747487634,1.4214100769395857,1.345188941485675,1.2517969933474418,1.1498265795644347,1.0454215471799289,0.9427947413800372,0.84469275320249,0.7527813378989345,0.6679502436607969,0.5905467152252741,0.5205501448745952,0.4577001668463748,0.4015889451671035,0.3517354361942487,0.3076203154037143,0.26871390547561785,0.23449657975730015,0.20447254223415612,0.1781783212371567,0.1551873006154291,0.13511142330512538,0.11760097023239995,0.10234310078384723,0.08905966182912534,0.07750463677729455,0.0674615174249719,0.058740852449533705,0.05117831385062972,0.044634072257371656,0.03899644436470929,0.034209745866376214,0.032710996838161276,0.03627438917514775,0.06190451445359071,0.13010685143735992
D0,51.0,51.0,51.0,51.00033289630634,51.00093177676145,51.00165565743053,51.00239063722844,51.00306774030923,51.00365476207531,51.00414351699382,51.00453924131138,51.00485339296885,51.00509932472148,51.005289961608085,51.00543673284549,51.00554922404433,51.005635206346994,51.00570083739343,51.00575091974638,51.00578915803366,51.00581838828726,51.00584077055512,51.00585794476338,51.0058711627404,51.00588137908812,51.005889319259694,51.00589553252864,51.00590043356448,51.00590433490682,51.00590747208802,51.00591002287477,51.00591212188162,51.00591387160661,51.00591535075201,51.00591662053309,51.00591772955937,51.005918717823626,51.005919620430866,51.005920472243986,51.00592131717421,51.00592224448984,51.0059258512395,51.005935653765725,51.0059710983224
R0,0.0,0.0,0.03698847848245574,0.3040982989592874,0.7640804115621853,1.331617495806695,1.93301655303485,2.518968703016094,3.0617163905849862,3.5487268723713834,3.9769600493771735,4.348698400923393,4.668833687553148,4.943236600678284,5.177848658696857,5.378223020186199,5.549328678969719,5.6955002994932675,5.820462644342401,5.927388623169822,6.01896847283623,6.097478498735563,6.164845015795856,6.222704404319871,6.2724473935443665,6.31525552536138,6.3521324829804025,6.383931190443881,6.4113771076420285,6.435088080836666,6.455591136248545,6.473336623452735,6.488710108137657,6.502042388108919,6.513617976274593,6.523682376828216,6.532448506021503,6.540102763198731,6.546811905047835,6.552735546315129,6.558324620528539,6.565633073794114,6.579171149068695,6.614740506716124
G0,10394.0,10395.66448153171,10396.829618603908,10397.656519619108,10398.250218373287,10398.680669149397,10398.995361308303,10399.227074608221,10399.398759502568,10399.526678777958,10399.622473486712,10399.694547970274,10399.749014299066,10399.79034576301,10399.821834681094,10399.845916484748,10399.8644011565,10399.878639739862,10399.889644901712,10399.898178713474,10399.904816882557,10399.910040748253,10399.9141994929,10399.917548831625,10399.920277806119,10399.922527509292,10399.924404292684,10399.92598917315,10399.927344605709,10399.928519427018,10399.92955253707,10399.93047573856,10399.931316078253,10399.932098043275,10399.932846127436,10399.933588863882,10399.93436753428,10399.935262675393,10399.936531526138,10399.950734535658,10399.981316268833,10400.11007347488,10400.401432659888,10401.09416464142
H0,3853.221182481119,3844.551434820536,3830.7110496551823,3816.9204898764237,3803.1795761128687,3789.4881296388626,3775.8459723721626,3762.252926871623,3748.7088163348853,3735.2134645960796,3721.7666961235336,3708.368336017489,3695.0182100078264,3681.7161444517983,3668.4619663317717,3655.255503252977,3642.0965834412664,3628.9850357408777,3615.9206896122105,3413.41538281582,3215.2542375933554,3021.578266282884,2832.5383958367006,2648.295829904234,2469.022302639252,2294.900174358453,2126.1223051944353,1962.8916263743224,1805.4203099441945,1653.9284174044894,1508.641887414897,1369.7897052971239,1237.6000870337562,1112.2955144757052,994.0864854891067,883.1639036911179,779.6901386287226,683.7889475455452,680.135858997662,677.6873699052704,675.2476953736115,672.8168036702665,670.3946631770535,667.9812423896161
S1,1776.3706838520611,1663.4759827122489,1566.9678812444406,1477.2741707582547,1393.9096089141617,1316.4225697123036,1244.393252681729,1177.431705196252,1115.1758235440755,1057.2894160408014,1003.4603663831633,953.3989116269398,906.8360370790479,863.5219845715976,823.2248680303833,785.7293893474806,750.8356474688586,718.3580338769045,688.1242080657731,681.4879191141857,674.7567732862722,667.9866236590341,661.2229963309761,654.5021664176099,647.8521358260374,641.2935253429575,634.8403934243123,628.5009941382641,622.2784869435058,616.1716113124136,610.1753395171035,604.2815209997217,598.4795313620031,592.7569377165588,587.1001893269647,581.4953370130986,575.9287729130264,570.3879289397745,559.0246202430791,548.2831335591108,538.1105215914688,528.4333264429879,518.7112496917815,509.3290128545862
E1,0.0,0.0,0.011228001020553638,0.02182002712664142,0.02847738348064023,0.031188212267777533,0.030945428745945823,0.02883792241837313,0.025746939247421954,0.02229173619519631,0.018864946166726015,0.015689969266339577,0.012874524217701813,0.010452683539006243,0.00841500930879455,0.006728858083853058,0.005351357942105923,0.004237255263919472,0.003343332796901092,0.002630628284781526,0.0020841331071274408,0.0016623499383648598,0.0013350121151036504,0.00107975508402645,0.0008798795511578879,0.0007228146092395339,0.0005990404044017826,0.0005013203953577581,0.00042414823161509804,0.0003633487029869373,0.00031579531658904416,0.0002792254836225787,0.00025215547275180846,0.00023393677537275658,0.0002251039779700631,0.00022856183798125574,0.0002541815995813436,0.000347558870467528,0.003698780125836777,0.007857142925441462,0.03247100062759171,0.07253835148260387,0.17006561574796714,0.24236326454067275
I1,0.0,0.0,0.0,0.0030315602755494825,0.0077103434895228725,0.012315099633486586,0.015809877092391886,0.017841192016840503,0.018490954263065046,0.018046246154642957,0.01684651646548878,0.01520144534430929,0.013357158908497261,0.011490416883877846,0.009716474685858394,0.008101937324889565,0.006677954077574065,0.005451639090913039,0.004415042375806081,0.0035517252806469436,0.002841304805279178,0.002267498822091916,0.0018093337766136618,0.0014460535370461828,0.0011591659949148512,0.0009330670757615404,0.0007550001899515983,0.0006147410231594403,0.0005042011206422589,0.0004170406949214318,0.00034832856675933214,0.0002942618755346412,0.000251948005898881,0.00021925078118231688,0.0001947133980600344,0.00017760611288793768,0.00016827536398770164,0.00016959425027958375,0.0001955974451939828,0.0011160291010923196,0.002791046050524587,0.010441797799764512,0.02585043358016175,0.06142797640004818
A1,0.0,0.0,0.0,0.0003368400306166091,0.0009240728382925298,0.0015935797750532307,0.0022105101880759105,0.0026967710128391028,0.003022554482822476,0.003190451763680639,0.0032211134968004006,0.003142839182442101,0.0029849704239438683,0.002774212065686149,0.0025329501587191064,0.0022788104062391214,0.002024914067506889,0.001780471992268689,0.0015514952517325352,0.0013414961852930608,0.0011521157967778945,0.0009842166306361388,0.0008372438026598569,0.000709845405580995,0.0006002689769855895,0.0005066115681232082,0.0004269736927757526,0.00035955016635265554,0.00030267974494285716,0.00025486824290273867,0.00021479505541179906,0.00018130990382711056,0.0001534246875703658,0.0001303044142388469,0.00011126163465226022,9.576242706091007e-05,8.346679678816572e-05,7.439888541797288e-05,6.994587444840414e-05,0.0001669201033338266,0.00036925037043030514,0.0012695303151719953,0.0031917747966157123,0.007655388309731584
IH1,0.0,0.0,0.0,0.0,0.0006063120551098966,0.001844618413404413,0.0033834845149861197,0.004850334191456451,0.00598855516490487,0.00668647987990054,0.00694580269099896,0.006835258835906237,0.00645108322797907,0.005890522312461009,0.0052374540106936126,0.004556784488507791,0.0038942229247433007,0.0032788080549617203,0.002726453037608506,0.0022435085409278606,0.0018298558180523913,0.001481359014263979,0.0011926979125361087,0.0009570230136782506,0.0007667651912346837,0.0006144490294090774,0.0004932234808274378,0.00039711855492321113,0.00032111036353857044,0.00026107429553419843,0.00021368421245585137,0.00017629413536733628,0.00014682314865522905,0.0001236543523587355,0.00010555367806347239,9.16139649656796e-05,8.123659109546166e-05,7.41921317541757e-05,7.094072380125043e-05,7.451891021562052e-05,0.0002603907564160586,0.0006881441975565306,0.0024317435145336116,0.006383526729784622
IN1,0.0,0.0,0.0,0.0,0.0006063120551098966,0.002066095244743683,0.0042487155060924745,0.006834077426669298,0.009474830503173043,0.011887146801317815,0.013883134497707702,0.015368291221546617,0.016322876000413385,0.016779052227130324,0.016799970191845495,0.01646326083993945,0.015849340452068497,0.01503394148622587,0.014083941215792203,0.01305555068176284,0.011994064525647621,0.010934553636535222,0.009904072839931428,0.00892181051070718,0.008000199651264785,0.007146287500103292,0.006363044066394837,0.005650484967237837,0.005006578837394489,0.004427952306968465,0.003910421864727169,0.003449385527904633,0.0030401052986976213,0.002677907672571308,0.0023583261733051723,0.002077209130859459,0.001830822369459206,0.0016160077838443417,0.001430610490105164,0.0012755749886176919,0.001325666427567773,0.001703963107696419,0.0035610696862682124,0.008247866606802165
D1,0.0,0.0,0.0,0.0,0.0,6.063120551098966e-07,2.4509304685143096e-06,5.834414983500429e-06,1.068474917495688e-05,1.667330433986175e-05,2.335978421976229e-05,3.030558691076125e-05,3.714084574666749e-05,4.359192897464656e-05,4.948245128710757e-05,5.471990529780118e-05,5.927668978630898e-05,6.317091271105228e-05,6.6449720766014e-05,6.91761738036225e-05,7.141968234455036e-05,7.324953816260275e-05,7.473089717686673e-05,7.592359508940284e-05,7.68806181030811e-05,7.764738329431579e-05,7.826183232372486e-05,7.87550558045523e-05,7.915217435947551e-05,7.947328472301408e-05,7.973435901854827e-05,7.994804323100412e-05,8.012433736637146e-05,8.027116051502669e-05,8.039481486738543e-05,8.05003685454489e-05,8.059198251041458e-05,8.067321910151004e-05,8.074741123326422e-05,8.081835195706547e-05,8.089287086728109e-05,8.115326162369715e-05,8.184140582125368e-05,8.427314933578729e-05
R1,0.0,0.0,0.0,0.0,6.736800612332183e-05,0.0006376241096075641,0.0021590489366689427,0.0048695067296787384,0.008761513354839141,0.013646176388324308,0.01924076821554941,0.02524203882966781,0.031373940374104445,0.03741173162786526,0.0431890006092934,0.04859432193546175,0.05356278411381234,0.058065868171042805,0.06210169468559368,0.06568661926393501,0.06884850398370217,0.07162162690225218,0.07404313029653357,0.07615105709788059,0.07798235925268754,0.07957154099384646,0.0809499446710364,0.0821455102871526,0.08318283393235996,0.0840833918176723,0.08486584119524553,0.08554634436273022,0.08613888601549324,0.08665556975464102,0.08710688946917075,0.08750197835719066,0.08784884580906352,0.08815462712238128,0.08842591910913707,0.08866953363645363,0.0889132914934966,0.08929724947576696,0.09012648061896074,0.09246399713104908
G1,0.0,0.0,0.0,0.0030315602755494825,0.008922967599742666,0.01661186113951553,0.025032678451815463,0.03338794421322083,0.04117418326618158,0.04812585686298551,0.05414462563568852,0.05923816110070454,0.06347445280261622,0.06695057434139572,0.0697727988969274,0.07204485141030194,0.07386164309294227,0.07530650973731087,0.07645056865856913,0.07735326851373242,0.07806353815062343,0.07862625408954785,0.07907508857290636,0.07943554184398435,0.0797270757166715,0.07996464319548413,0.08015980313997881,0.08032154404916729,0.08045690055591388,0.08057142057844996,0.08066952472825643,0.08075478946373547,0.08083018034431357,0.08089826232195656,0.0809614252513072,0.08102220332535912,0.08108391502161405,0.08115254405350102,0.08124638494852725,0.08224505558250318,0.08436648417237237,0.09313365434182214,0.11271900924212519,0.1586367254940763
H1,1100.9203378517484,1030.9529185229203,971.1538095080657,915.5762400362482,863.9188509400714,815.9018080612154,771.2652647521143,729.7679341989316,691.18576372146,655.3107037658756,621.9495648265731,590.922956016434,562.0642994534945,535.2189150485589,510.24317066511685,487.0036929821172,465.3766347236767,445.24699422951693,426.5079836275043,387.5466700909445,351.8147584385401,319.0329327087694,288.94816491244075,261.33149904828707,235.97601461304458,212.694951359767,191.31997756358768,171.69958434648572,153.69758872429315,137.1917280342418,122.07232839223424,108.24102999730677,95.60955271929907,84.09848685614323,73.6360967204669,64.15712937647906,55.60162793874091,47.91375869498536,46.87088010446535,45.97144918939512,45.127448778954445,44.3349512838027,43.59030954245832,42.89013679114869
S2,1776.3706838520611,1882.1070340813505,1978.5069901003174,2066.867190787297,2147.7703008527205,2221.757199430088,2289.3299542566347,2350.954613457618,2407.063803260961,2458.059136793944,2504.3134454773285,2546.172846177019,2583.9586569844228,2617.969173542247,2648.481316746117,2675.7521616314466,2700.020356353726,2721.507439388193,2740.419062394409,2846.8136673668523,2950.5312739937904,3051.431012318418,3149.3786048159327,3244.244886053826,3335.904506162356,3424.2348329994848,3509.115076135957,3590.4256652800154,3668.0479263806933,3741.864109991076,3811.757837694299,3877.6150419937253,3939.325480624841,3996.784904131947,4049.8979405604155,4098.581725311998,4142.770228400369,4182.418970526496,4173.951210453001,4164.131875865843,4153.230132501942,4141.139497508833,4125.3235504945915,4107.839389032316
E2,0.0,0.0,0.004446294970096499,0.009281824850822181,0.01296280728558465,0.015143142995517951,0.015983680097860796,0.015809285070622438,0.01495231431704851,0.013691593279383381,0.012237385233556178,0.01073635448465919,0.009283512704711607,0.007935082828950267,0.006719792277541767,0.005647856036106201,0.0047176965476604,0.003920747203974742,0.00324475403975797,0.0026759579708066647,0.0022280058043225603,0.0018709858059797896,0.0015836779928774828,0.0013507059058690382,0.0011607082867190058,0.0010051502711105394,0.0008775395059842197,0.0007729032175634321,0.000687439034875481,0.0006182892442030128,0.0005634150219508341,0.0005215733545425225,0.0004924394465237277,0.00047700884185024805,0.00047868474804683254,0.000506471616193505,0.0005868853469868803,0.0008378879672317823,0.009454706863347966,0.020384999065479373,0.0859638096891544,0.19472579285249275,0.4634959780472865,0.6677082285290914
I2,0.0,0.0,0.0,0.0012004996419260547,0.003226392494877622,0.0054357934640344285,0.007350124687210503,0.008725668438748717,0.009503908032317288,0.00973946968499347,0.009540411996429595,0.009028341210917926,0.008315820437408736,0.0074960406927173755,0.006640096779446997,0.005798401982604475,0.005003962319311359,0.0042761554594551235,0.003624295020746254,0.0030506606031824044,0.002552905014027242,0.0021333045755834363,0.001785148912964605,0.0014986824058556834,0.0012639000380980504,0.0010717312602729618,0.0009144293293636228,0.000785593264233913,0.0006800398272824744,0.0005936324357858645,0.0005231175574063322,0.00046599259037052453,0.00042042035994879583,0.000385210866530684,0.00035991890721797737,0.0003451962263034312,0.00034386507215430505,0.00036477808697904073,0.0004450966033400057,0.0028198288151079546,0.007195847036744203,0.02752773683811821,0.06909260617304397,0.16659947777659376
A2,0.0,0.0,0.0,0.00013338884910289495,0.00038516582480698137,0.0006970168784131245,0.001011907792596038,0.0012890366370126543,0.0015055078617287965,0.0016529757188944924,0.0017331283734970952,0.0017536242558043615,0.0017249900391832647,0.00165849741248796,0.001564850414858876,0.0014534741002133538,0.001332214961253869,0.0012073028654329071,0.001083464708465568,0.0009641143879651935,0.0008515702494963547,0.0007480963737267605,0.0006546066731608021,0.0005711956783149662,0.000497477719828044,0.0004328034244640054,0.0003763972477045205,0.000327443983343143,0.00028514228320141734,0.0002487369976073983,0.00021753827541200904,0.00019093307098813224,0.00016839365742678147,0.000149488109337137,0.00013390075272521704,0.0001214811446215786,0.00011237906418306803,0.00010750981175606082,0.00011114448842180213,0.0003725567966378806,0.0009095954092746856,0.0033065906180943802,0.008487046280050287,0.020694516365458823
IH2,0.0,0.0,0.0,0.0,0.00024009992838521096,0.0007650883632397447,0.0014689377860635186,0.0022030248926877966,0.002844443109200954,0.003320158717954734,0.003604653137258106,0.003706804314777714,0.0036553635952576644,0.0034871905215153216,0.0032393162087796207,0.0029444381440704302,0.0026289550304120397,0.0023126410240378796,0.002009238962885927,0.0017274692466293282,0.0014721392747045156,0.0012451785008830017,0.0010480049870573052,0.0008799842711345163,0.0007388486324672603,0.000621465475220773,0.0005244575241897581,0.00044459017044341386,0.00037896914789804613,0.0003251135702576199,0.00028095815871572523,0.00024482163268041337,0.00021536451278163118,0.0001915509638677931,0.00017262610427616555,0.00015812420747740209,0.0001479432247919099,0.00014259668360202404,0.00014411136251321816,0.000160930890562097,0.0006442702774120773,0.0017606602757774675,0.006384116845236599,0.017004195540381857
IN2,0.0,0.0,0.0,0.0,0.00024009992838521096,0.0008527933179662408,0.0018242153516924084,0.0030466673006967707,0.004378323200470843,0.005684901629068696,0.006861270381840994,0.007838176968284536,0.008580088733393335,0.009078807950472887,0.009345887648881479,0.009405531901639369,0.009288742588279225,0.009028915378441403,0.008658789189724967,0.008208522508212268,0.0077046367876266696,0.007169584689838794,0.006623226983072871,0.006081386960749632,0.005555789337412614,0.0050545666072975125,0.004582933455075472,0.004143847507021899,0.003738584799580322,0.003367211544666476,0.0030289576517157106,0.0027225068363687832,0.002446220933156402,0.002198316664932587,0.001977014771698047,0.0017806884247564445,0.0016080619289715655,0.0014585971695677213,0.0013335995903402853,0.0012416297335772443,0.001637087988211907,0.0028540803564293025,0.00797228683119887,0.02070885089794828
D2,0.0,0.0,0.0,0.0,0.0,2.40099928385211e-07,1.0051882916249558e-06,2.4741260776884745e-06,4.677150970376271e-06,7.521594079577225e-06,1.084175279753196e-05,1.4446405934790065e-05,1.815321024956778e-05,2.1808573844825443e-05,2.5295764366340765e-05,2.8535080575120385e-05,3.147951871919081e-05,3.4108473749602854e-05,3.6421114773640735e-05,3.843035373652666e-05,4.015782298315599e-05,4.162996225786051e-05,4.2875140758743506e-05,4.392314574580081e-05,4.4803130016935326e-05,4.554197864940259e-05,4.616344412462336e-05,4.6687901648813116e-05,4.713249181925653e-05,4.751146096715458e-05,4.7836574537412194e-05,4.811753269612792e-05,4.836235432880833e-05,4.857771884158996e-05,4.8769269805457754e-05,4.894189590973392e-05,4.910002011721132e-05,4.9247963342003226e-05,4.939056002560525e-05,4.9534671388118465e-05,4.969560227868056e-05,5.033987255609264e-05,5.210053283187011e-05,5.8484649677106706e-05
R2,0.0,0.0,0.0,0.0,2.667776982057899e-05,0.0002563460083690754,0.0008940302247522911,0.0020784536647409967,0.0038512512264630974,0.006168777531274938,0.008930977218257601,0.01201110527442845,0.015278988760052965,0.018616113435920643,0.02192353661931078,0.025124539909803872,0.028163923511762796,0.03100546369291968,0.03362860205863266,0.03602504016743069,0.03819561550956047,0.040147632297405325,0.04189285944447479,0.04344665307755176,0.04482621845329016,0.04604914105122411,0.04713241387800393,0.04809189390356601,0.048942059145744704,0.04969595339670435,0.050365237961462576,0.05096029902273103,0.051490380874555354,0.0519637302026451,0.052387747372987105,0.052769150704055426,0.053114174777764006,0.05342885997683128,0.053719613477606745,0.05399488723397876,0.05431837154697431,0.05504460280666673,0.056973591961028414,0.06294501680751616
G2,0.0,0.0,0.0,0.0012004996419260547,0.003706592351648044,0.007206550318755899,0.011295198927545746,0.015610792553968161,0.01987929952303622,0.02391642438863932,0.027613154574072835,0.030917248587133003,0.033816064297990986,0.03632261272826312,0.038465085092079694,0.04027942900701597,0.041804350136764645,0.04307812820463296,0.04413672994970614,0.04501281354044079,0.04573532219255859,0.04633688375972568,0.04684204992734022,0.047269642985417144,0.047634333580001784,0.04794772481741592,0.04821911539061576,0.048456051057231504,0.04866473492597363,0.04885034346539001,0.04901728156132482,0.04916940361725155,0.04931022842297803,0.04944318707353944,0.04957197946083901,0.049701224342811656,0.049837971679183905,0.04999643072287036,0.05022266047402294,0.05277543132712689,0.058279381074806326,0.08148960969087801,0.13406557376105105,0.2592094878338184
H2,1100.9203378517484,1166.451310342924,1226.2044794000026,1280.9749362767693,1331.123537514159,1376.9853180870907,1418.8713363047123,1457.0703869262356,1491.8505919056088,1523.4608775058844,1552.1323458998054,1578.0795487933724,1601.5016700708156,1622.583623959508,1641.497074749173,1658.4013836687147,1673.4444881237623,1686.7637181263613,1698.4865544031557,1618.86379057446,1538.342410183019,1457.329737909094,1376.2073721686584,1295.3340338711716,1215.048133297538,1135.6700473439314,1057.5040905717524,980.8401535050514,905.9549705375925,833.1129680433174,762.5666316569794,694.5563216854313,629.3094595923498,567.0390099486235,507.9411958467479,452.1924172401316,399.9453969367338,351.324662635607,349.9515993283698,349.1334288676368,348.2607534660741,347.3381813137843,346.369985199368,345.36012653336064
S3,5329.112051556183,5305.8500545057395,5284.013836715667,5263.51286996364,5244.2388220658895,5226.091775183261,5208.979355586935,5192.816086315704,5177.522849381413,5163.026410395898,5149.258985945113,5136.1578451027235,5123.664940784843,5111.726568265346,5100.293048769818,5089.318436308176,5078.760246039142,5068.579202567601,5058.73900668158,5213.7896626080865,5374.88081489179,5542.267320983681,5716.224300138735,5897.048562009396,6085.059862678987,6280.601894463871,6484.042884981126,6695.775643619697,6916.216849580419,7145.805325964946,7384.998991554182,7634.270131048949,7894.098584440582,8164.962440366237,8447.325845435484,8741.623632795488,9048.242633505375,9367.499539385715,9344.175642554364,9315.889079410743,9286.908225390323,9256.913222763678,9220.874917923771,9182.658970292186
E3,0.0,0.0,0.0071626029405920475,0.014429086686584932,0.0195090514038414,0.0221244451323868,0.022723227109651727,0.021914049972661106,0.020244425364991527,0.018134995942267203,0.01587910094687964,0.013665221192965604,0.01160368473599619,0.009750376189091267,0.008125367938164863,0.006726559672443479,0.005539171262139521,0.004542071011887894,0.003711814422514191,0.003025090799548583,0.002488913314771143,0.0020663726665830144,0.0017308266210738466,0.0014627078812487937,0.0012474348001724103,0.0010740175742322935,0.0009341115807642896,0.0008213659909663716,0.0007309754134024638,0.0006593811685358514,0.0006040980476664218,0.0005636728320827541,0.000537830387339373,0.0005279791357113658,0.0005385943105898807,0.0005812972206722593,0.0006900947733993364,0.0010160729600503804,0.012061172482161398,0.026053883273996013,0.1098906743588435,0.24884665604747105,0.5921245853250194,0.8529175342090782
I3,0.0,0.0,0.0,0.0019339027939598529,0.005056195081753844,0.008301160928089484,0.010954296742598126,0.012707849365164843,0.013541503111717404,0.013590896715578154,0.013050986933759038,0.012117949415912925,0.010960379371648468,0.009709222501708054,0.008458135072079475,0.0072687303865521975,0.006177409343491058,0.005202021846872305,0.004347572281333114,0.0036107332628787002,0.0029832144736053378,0.0024619352791514114,0.002035081787468261,0.0016883722601708953,0.0014079544840397114,0.0011815800864703777,0.0009989327969249459,0.0008515698049613257,0.0007327107005377158,0.0006369897819412946,0.0005602267846694566,0.0004992425436716078,0.0004517371908653083,0.00041625651910081566,0.00039230827810255814,0.0003808054307208027,0.0003854335080139916,0.00041758569362621576,0.0005248911153893322,0.003571451239417177,0.00917741922762923,0.035176933613465286,0.08829475730089636,0.21285049241829307
A3,0.0,0.0,0.0,0.0002148780882177614,0.0006047750711717571,0.0010690915990526476,0.0015190066332137222,0.0018969021198605295,0.0021749431950682566,0.002347287317004351,0.002421879731871497,0.0024138768139035866,0.002341058086911837,0.0022209570116093554,0.0020692768949602224,0.0018991825541131238,0.0017211428334638033,0.0015430894046352282,0.0013707336540648193,0.0012079413559272813,0.0010571058087282825,0.0009203520464257603,0.0007982728171380987,0.0006905430523426944,0.0005963156783116193,0.0005144755866544678,0.000443800996550543,0.00038306414466336307,0.0003310922954596816,0.00028680309876981917,0.00024922391407193085,0.00021750207268753734,0.0001909118431125125,0.0001688643861101912,0.00015093088295949392,0.00013690253568529156,0.00012696094516840103,0.00012227159933670092,0.00012829946827087215,0.0004644747490815396,0.001153196297485112,0.004219277268753395,0.010840821496426848,0.026436394756892058
IH3,0.0,0.0,0.0,0.0,0.0003867805587919706,0.001204242515187962,0.00226114920069669,0.003319172799667274,0.0041978371000669385,0.004803021335276884,0.005114886989418796,0.005162525994471787,0.004999690354424007,0.004686921361187273,0.00428061825957406,0.003827655525943351,0.003363746184756172,0.0029139912148915415,0.0024944859856053402,0.002114262963083688,0.0017771638711545003,0.0014834476664271632,0.0012326274413774368,0.0010220974507409932,0.0008477010799539347,0.0007045937357049557,0.0005879082914108484,0.0004931527967990025,0.0004163972065949674,0.0003543243461984319,0.00030420580514127645,0.00026384405369938826,0.00023150669153031633,0.0002058692772466895,0.0001859800731662612,0.000171265712130476,0.00016162267649726805,0.0001577364171749351,0.00016222761089553577,0.0001859298009147388,0.00080706921853989,0.002238211385577251,0.008152254204096106,0.02172692630802323
IN3,0.0,0.0,0.0,0.0,0.0003867805587919706,0.0013455277359961666,0.0028231519184978805,0.004630867820369159,0.006543960477548578,0.008364148931478332,0.009947189627293747,0.01120740634410915,0.012109985520593647,0.012658557352218276,0.012882448503416263,0.012825736829953483,0.01253884083177559,0.012072616652781656,0.011474588487192815,0.010786831670507997,0.010045045816450165,0.00927842750987426,0.00851159480061958,0.00776346192685305,0.007047519837358585,0.006372658117105497,0.005744110228457701,0.005164336121468668,0.00463377333251867,0.004151443935825232,0.003715429584247517,0.0033232362258078284,0.0029720724552383393,0.002659065728611613,0.002381442507242629,0.002136707212588746,0.0019228855455747898,0.0017390082549055,0.0015865162677424932,0.0014761807816984086,0.0019901314768747715,0.003555525063234234,0.010108374477734194,0.026395470101167724
D3,0.0,0.0,0.0,0.0,0.0,3.867805587919706e-07,1.5910230739799327e-06,3.852172274676622e-06,7.1713450743438955e-06,1.1369182174410833e-05,1.6172203509687716e-05,2.128709049910651e-05,2.6449616493578298e-05,3.1449306848002306e-05,3.613622820918958e-05,4.041684646876364e-05,4.424450199470699e-05,4.760824817946316e-05,5.0522239394354704e-05,5.3016725379960046e-05,5.5130988343043734e-05,5.6908152214198234e-05,5.8391599880625395e-05,5.962422732200283e-05,6.064632477274382e-05,6.149402585269775e-05,6.219861958840271e-05,6.278652787981356e-05,6.327968067661256e-05,6.369607788320753e-05,6.405040222940596e-05,6.435460803454725e-05,6.461845208824664e-05,6.484995877977696e-05,6.505582805702365e-05,6.52418081301899e-05,6.541307384232038e-05,6.557469651881764e-05,6.573243293599258e-05,6.589466054688812e-05,6.608059034780286e-05,6.688765956634274e-05,6.912587095192e-05,7.72781251560161e-05
R3,0.0,0.0,0.0,0.0,4.2975617643552285e-05,0.00040981275042046184,0.0014083603309411551,0.0032258797045805914,0.005893323744239885,0.009315343101700731,0.01332144988004026,0.017713249991060363,0.022298299057775063,0.0269098598950745,0.03141546532713363,0.035717968523791374,0.039752274873074006,0.043480082579837,0.04688412860317312,0.049962789599740196,0.052725441859101066,0.055188706157720945,0.05737372016530464,0.05930483768068116,0.061007611558048847,0.06250717785074916,0.0638272337418744,0.06498950875326397,0.0660135747305384,0.0669168633297288,0.06771479843054796,0.06842098483130657,0.06904741955199759,0.06960470943118503,0.07010229147221957,0.07054866463566899,0.0709516607520294,0.0713188282715838,0.07165815992592686,0.07198024733415076,0.07236644673713151,0.07327071086506486,0.07571620931979725,0.08333235655787642
G3,0.0,0.0,0.0,0.0019339027939598529,0.005829756199337785,0.011097200078374964,0.0170708002641194,0.02320607158372537,0.029122865076343867,0.03458885992489158,0.03948530882930373,0.04377266608496123,0.04746227580706194,0.050595270685780916,0.053227872256835555,0.05542172160014007,0.05723789271169981,0.05873346895247748,0.05995982812568722,0.06096201801976605,0.06177879253564417,0.062450799130632374,0.06300871975060979,0.06347604293829973,0.0638709740662369,0.06420778146228345,0.06449776620732617,0.06474997633413253,0.06497174515169345,0.06516910851331212,0.0653471414288168,0.06551024790168673,0.06566243956634908,0.06580765377093072,0.06595020813757278,0.06609562860143205,0.06625257885101356,0.06643890443983137,0.06671324413904497,0.06996976070922856,0.07700430919320748,0.10667479127009523,0.17386338840291243,0.3337370264406677
H3,3302.7610135552445,3288.344199607186,3274.8276564002563,3262.135098304064,3250.2003407738725,3238.9620467140207,3228.363378682917,3218.3516759594245,3208.878154694599,3199.8976294995914,3191.3682549383557,3183.2512855031528,3175.5108527524526,3168.1137583851205,3161.0292821123817,3154.229003270364,3147.6866351915482,3141.377871423568,3135.2802429489234,3129.3729856196246,3122.567065389157,3114.8592732988072,3106.251276234521,3096.7492700298126,3086.3636693732683,3075.1088308582234,3063.002805450404,3050.0671164832193,3036.3265590066335,3021.809015902264,3006.5452856274037,2990.5689157669012,2973.9160357746223,2956.6251814240286,2938.7371026496453,2920.294545792407,2901.3420009731863,2881.9254056905133,2862.0917971030403,2842.4071225953767,2822.876746917411,2803.4987353772194,2784.2712242647162,2765.1924162672644
S4,2664.5560257780917,2708.965292874393,2753.156068892109,2797.166424897882,2841.0084918906846,2884.6927794255294,2928.228586886867,2971.624269421608,3014.8874092433566,3058.0249281942824,3101.043164912105,3143.9479310245083,3186.74455496052,3229.437918350722,3272.0324878254687,3314.532343764621,3356.9412068420447,3399.262462816796,3441.4991858136977,3597.2098567834887,3753.8739002553098,3911.4628866942526,4069.94177326929,4229.268243871909,4389.3920262869115,4550.254203620296,4711.786545497759,4873.910895626847,5036.538666484462,5199.570509424756,5362.896249335754,5526.395196393033,5689.936971647635,5853.383004552099,6016.588872576697,6179.407643165866,6341.6943084192935,6503.310969785651,6582.4563416710635,6660.200958017227,6736.836333056005,6812.017984556861,6880.518006780459,6946.269730531207
E4,0.0,0.0,0.010970858150934733,0.022396647491844064,0.0306777156228527,0.03523691489893161,0.03664839129951046,0.035785715948567456,0.03347005662607474,0.0303536097941828,0.026906183423142348,0.023441125168114623,0.020151347766882318,0.017143245573714563,0.014464375011806781,0.012124356022528947,0.01010984957078576,0.008394851043014347,0.006947493162246411,0.005734353469584671,0.004782676249062578,0.0040270078987561285,0.003420980111833895,0.0029310968402529794,0.0025327241083616275,0.002207470186988653,0.0019414529675352427,0.0017241444404320952,0.0015476041793534051,0.0014059943861589625,0.001295330146081098,0.001213481980645407,0.001160550855081233,0.0011399771373032386,0.0011614665919118792,0.001249523099816334,0.001475215764168644,0.0021533653582026823,0.02514612982348188,0.054820357416916723,0.23495036888521625,0.5386107728509657,1.2996762884820847,1.8912294250910349
I4,0.0,0.0,0.0,0.0029621317007523782,0.007824373843249325,0.012977607524119824,0.01730053153718343,0.02027538457317788,0.021827374050019943,0.022133339719052146,0.021475478475860642,0.02014995660976482,0.01841907776124984,0.01649231055380813,0.01452406263718781,0.012619818835500517,0.010845467427383126,0.009236939840542031,0.007808773685939093,0.006561087365369986,0.005484927856009853,0.004582279300852808,0.0038366597131758396,0.0032256604581006555,0.0027267924217286976,0.002319910962294858,0.0019879635278638513,0.0017169704179528264,0.0014957012496883615,0.0013152738782384362,0.0011687828112059814,0.0010510088261654854,0.0009582454304735512,0.0008882959891560636,0.0008407714205655126,0.0008180588321555149,0.0008282065362437191,0.0008952321780717654,0.0011185479535577834,0.007460583824474777,0.019277846797252383,0.07500330767735983,0.19042689327617662,0.4651687338558688
A4,0.0,0.0,0.0,0.00032912574452804196,0.0009352000203777555,0.0016684914849877854,0.002391900634958177,0.0030129722469518553,0.003483949276018508,0.0037912611195970486,0.003943617189503123,0.003962079254296769,0.0038728971584808536,0.0037028581597911524,0.0034765838950443586,0.00321519836638969,0.0029358893737876203,0.002652006986153669,0.0023734511202133657,0.002107185691038085,0.001857779156918008,0.0016297036130062837,0.0014245731273677107,0.0012422879052491854,0.0010817632294069378,0.0009413923067763991,0.0008193379510307788,0.0007137139498506804,0.0006226954930935071,0.0005445845198554078,0.00047784744746909514,0.00042113786235770904,0.00037331474930552943,0.0003334683250968605,0.00030097397419658555,0.0002756231771146248,0.00025798423468618986,0.0002506438606740112,0.0002651160492852894,0.0009664767341326879,0.002417792109813652,0.008982744754407409,0.023344518989054895,0.057665903845706454
IH4,0.0,0.0,0.0,0.0,0.0005924263401504757,0.0018604955123849524,0.0035239087655040565,0.00521853678142321,0.0066591267685657575,0.007688379067518302,0.008263169098502061,0.008418417075324657,0.008230781442539968,0.007790975492077412,0.007186158881308255,0.006490705809210381,0.0057628259658960845,0.005044743642458771,0.004364715045695333,0.00373974754498979,0.0031783514980239028,0.002682982968715898,0.0022552643615597946,0.0018927088590535053,0.0015895938122878304,0.0013385657966773668,0.0011319265250009777,0.0009624240415482582,0.0008236436803231461,0.0007101384464189223,0.0006174138604107295,0.0005418460785861503,0.00048058295844758607,0.0004314599823600557,0.00039295772902888054,0.0003642401908985139,0.00034536762168946143,0.00033797975047178506,0.0003476983310997738,0.00039721105793034386,0.001690325082802197,0.004699041575768773,0.017345483281780583,0.04674077481284383
IN4,0.0,0.0,0.0,0.0,0.0005924263401504757,0.00207690009730561,0.004390555558573069,0.007254798576333229,0.01032529208507303,0.013289472132579545,0.015912562265486027,0.018048088044686834,0.019628687035484833,0.02064859960940734,0.02114474152940167,0.02117990007365084,0.020829438323400857,0.020171669131496928,0.019281463424588374,0.018226438560042416,0.01706505890068345,0.015846063726526246,0.014611974505431401,0.013396245516181772,0.012223309070438776,0.011109783831237766,0.010066004135033179,0.009097491285675283,0.008206221324370403,0.0073916560377490104,0.006651553826985184,0.005982596212869165,0.005380871238388003,0.004842256558392547,0.004362749963911307,0.003938814588560629,0.0035678709924971495,0.003249299466456581,0.0029873679339305547,0.0028056475372888598,0.00391699645881205,0.007240971498486375,0.021258926166915684,0.05645915429579583
D4,0.0,0.0,0.0,0.0,0.0,5.924263401504757e-07,2.452921852535428e-06,5.9768306180394844e-06,1.1195367399462694e-05,1.7854494168028453e-05,2.5542873235546756e-05,3.380604233404882e-05,4.222445940937347e-05,5.045524085191344e-05,5.8246216343990856e-05,6.543237522529911e-05,7.192308103450949e-05,7.768590700040558e-05,8.273065064286435e-05,8.709536568855968e-05,9.083511323354947e-05,9.401346473157337e-05,9.669644770028927e-05,9.895171206184907e-05,0.00010084442092090257,0.0001024340147331904,0.00010377258052986777,0.00010490450705486875,0.00010586693109641701,0.00010669057477674016,0.00010740071322315908,0.0001080181270835698,0.00010855997316215595,0.00010904055612060353,0.00010947201610296359,0.00010986497383199247,0.00011022921402289098,0.00011057458164458044,0.00011091256139505223,0.000111260259726152,0.00011165747078408235,0.00011334779586688455,0.00011804683744265332,0.0001353923207244339
R4,0.0,0.0,0.0,0.0,6.58251489056084e-05,0.000629479334551128,0.002175291431297668,0.005011489230717858,0.009207935476715608,0.014635583478699664,0.02104160304728217,0.028121480950405148,0.0355724976700818,0.04312637080137541,0.05056475037013964,0.057722800572991034,0.06448561866822425,0.07078107220331037,0.07657143909678746,0.08184526644541157,0.08661017448854705,0.09088688681430178,0.09470486410252639,0.09810047184066463,0.10111335238860435,0.1037833856641764,0.10614870891253392,0.10824464532017122,0.11010326417581093,0.11175333065115027,0.11322047376474233,0.11452746436079872,0.1156945417122776,0.11673975990745267,0.11767934935596452,0.11852811267478207,0.11929991276814883,0.12000840625922012,0.12066850287473119,0.12130080523749139,0.12207347395665485,0.12393378923979484,0.12906256584560336,0.14528936181065982
G4,0.0,0.0,0.0,0.0029621317007523782,0.009009226523550276,0.017292209741720507,0.026806176764432043,0.036701242415299866,0.04636338572141308,0.05540030101045326,0.06359577565488261,0.07086044517913105,0.077189548974522,0.08263041287158022,0.08725908917648316,0.09116447042967099,0.0944380465557538,0.09716770593986596,0.09943431572147983,0.10131013887528637,0.10285841431207422,0.10414973689932112,0.10523702903198529,0.10616069366218044,0.10695208980904874,0.10763592531830639,0.10823194226879332,0.10875613457002783,0.1092216535689445,0.10963950669736992,0.11001912518163284,0.11036886432107473,0.110696504455849,0.11100985318672094,0.1113176470137928,0.11163124299360902,0.11196861423055943,0.11236692248688496,0.11294833113359969,0.11973778618593979,0.13453928268850732,0.19797588228751573,0.3434007909572765,0.6943133888474393
H4,1651.3805067776223,1678.903515223916,1706.3063835539758,1733.596614023978,1760.7810731765119,1787.866076016294,1814.8574264055776,1841.7604545612685,1868.5800518609303,1895.320703150052,1921.9865167292153,1948.5812521870348,1975.1083462328945,2001.5709366724982,2027.9718846590408,2054.3137953433106,2080.59903703723,2106.82975899716,2133.00790792569,2045.5795467284463,1958.4407999622686,1871.6629309067655,1785.325913032984,1699.5193004205512,1614.343129436869,1529.9088337054866,1446.3401450516335,1363.7739408884802,1282.3609829031884,1202.266472567678,1123.6703259291126,1046.7670439735484,971.7650273332148,898.885158597897,828.3584576240798,760.4226133808918,695.3172211417266,633.2776190637821,656.1442438040891,679.9950087799477,703.6817348015759,727.2057076925543,750.568197154031,773.770457356237
E_Om,0.0,0.0,0.0961941077000021,0.12475152086243138,0.12434958312066227,0.11275129738586387,0.09790917084957845,0.08321046198030486,0.06994910847439306,0.0584851707882741,0.04878388110754115,0.040662246225925736,0.03389853227046908,0.028278089297356132,0.02361014377544642,0.019731783176191543,0.01650665050040978,0.013821763313538314,0.011583951479236063,0.009716520206512543,0.008270308512283825,0.007133160819221435,0.006229326737144467,0.005506176009790777,0.004926311145283955,0.004462810009476835,0.004096330485274805,0.0038133813434368313,0.003605404119917032,0.003468541992481691,0.0034041874111396925,0.0034207188210506516,0.0035375106993882632,0.003794067458728261,0.004272627348380562,0.005163554377973478,0.007011235880882177,0.012261858818301854,0.19431792644776408,0.5041422629481489,3.718568535679492,10.205534289946176,38.65967621669866,67.73864516303732
I_Om,0.0,1.0,0.6,0.3859724090790005,0.26526635608025684,0.19273420109073286,0.14608337094862298,0.11408549869855994,0.09091812395381829,0.0734371336603771,0.05985327630906027,0.04908361368447227,0.040428974691683314,0.03340998852803664,0.027681077227108136,0.022983385155635416,0.019117612550952966,0.01592736316568242,0.013288293994064795,0.011100643295832614,0.009283846433257954,0.007803291158271407,0.006607928116152631,0.005646675088720585,0.004874672575875861,0.004254907554752184,0.003757903235410056,0.003360751172270231,0.003046063666090083,0.002801097312031648,0.0026171647251890455,0.0024894294361211444,0.0024172517433563626,0.0024054789348486485,0.00246768557476582,0.0026342207289222434,0.002974692119406185,0.003677848959481899,0.0055174112566306385,0.05577628689487468,0.169584183132925,1.1057640145132182,3.4189526669933987,12.489484178704679
A_Om,0.0,0.0,0.0,0.002885823231000063,0.006051204210672991,0.008571450862158261,0.010239699611302527,0.011129034814529374,0.011399541711032645,0.011218106623057908,0.010729040422094549,0.010046748770901873,0.009257266403499272,0.008422769090913489,0.007586557951651476,0.0067775506745845725,0.006013994034953404,0.0053063947429750164,0.004659768693786163,0.004075333499406012,0.0035517624057201857,0.003089519179944663,0.0026856101685323736,0.002335367936940233,0.0020334796298459097,0.0017745730382352463,0.0015535427308725023,0.001365724099256246,0.0012069807197081016,0.0010737466993639923,0.0009630536192656446,0.0008725685177467064,0.0008006763788288847,0.0007466664240447556,0.0007111551629976523,0.0006971029508495387,0.0007125889920188354,0.0007804082700415335,0.0009921823805822824,0.006623283697898748,0.020422894846763465,0.12789537194779554,0.40848232625662173,1.4865761475062573
IH_Om,0.0,0.0,0.2,0.2198,0.18687468181580008,0.14630373744213562,0.11155240520177223,0.08488132438540893,0.06517288060803106,0.050704892214171154,0.03998916794694683,0.03192525006733851,0.025747422520496374,0.020933758776064352,0.017127943334863442,0.014083059169518485,0.011624123556716808,0.009623960164992281,0.007987828755467632,0.006643585347791308,0.005535277747714385,0.0046188728827610695,0.003865475800152055,0.003250458047506401,0.002751313583449812,0.002347839993316628,0.0020225536676154346,0.0017608349272221129,0.0015508068631378805,0.001383065357923819,0.0012503690760103155,0.0011473671139669564,0.0010704220770937402,0.0010175909651410488,0.0009888736785751131,0.0009869850805621454,0.0010193497009849594,0.001103593924672732,0.0012862631603080732,0.0017453275683198563,0.012026175835566547,0.03991789836853271,0.24107183418854147,0.8040853786587618
IN_Om,0.0,0.0,0.4,0.5857140872741688,0.6570712064479991,0.667272692941605,0.6451664000106886,0.6066722954611647,0.5607079914541572,0.512316142475786,0.4643476314594682,0.4183870944105297,0.37527364554306664,0.3354009295738978,0.2988942138487606,0.26571734634344596,0.23573872174097146,0.20877268544574712,0.18460585434944016,0.16301395606971827,0.14377257971099633,0.12666394470896325,0.111488871329019,0.09806076709178564,0.08620437501929193,0.07575613046088692,0.06656478033965081,0.05849177093352764,0.051411290675060686,0.045210009216272884,0.03978660700879543,0.03505120295105151,0.030924794338042925,0.027338847656308923,0.024235255914377148,0.021567096327551,0.019301267756143145,0.01742631657807991,0.01597890947797736,0.015181630966379346,0.026889764662301145,0.06507813487355868,0.32895418642490826,1.1273984490285462
D_Om,0.0,0.0,0.0,0.0002,0.0004198,0.0006066746818158003,0.0007529784192579356,0.0008645308244597078,0.0009494121488451169,0.001014585029453148,0.0010652899216673194,0.001105279089614266,0.0011372043396816044,0.0011629517622021009,0.0011838855209781653,0.0012010134643130287,0.0012150965234825472,0.0012267206470392637,0.0012363446072042557,0.0012443324359597235,0.001250976021307515,0.0012565112990552295,0.0012611301719379902,0.0012649956477381425,0.0012682461057856491,0.0012709974193690985,0.0012733452593624154,0.0012753678130300308,0.0012771286479572527,0.001278679454820391,0.001280062520178315,0.0012813128892543253,0.0012824602563682919,0.001283530678445386,0.0012845482694105268,0.001285537143089102,0.001286524128169664,0.0012875434778706488,0.0012886470717953216,0.0012899333349556297,0.0012916786625239496,0.001303704838359516,0.0013436227367280484,0.0015846945709165905
R_Om,0.0,0.0,0.0,0.15428591272583117,0.34425313693216963,0.5280749941019359,0.6934999209288312,0.8388826806635252,0.9658835480305965,1.0768462593987098,1.1739712003265945,1.2591304298741246,1.3338837178939342,1.3995390633605207,1.4572093605442638,1.5078550068201504,1.5523138182231757,1.5913219079948484,1.6255287064800525,1.6555083178412717,1.6817685806957818,1.70475863633718,1.7248761462345001,1.742476694015454,1.7578772922370276,1.7713588529019266,1.783168914222848,1.7935247242431611,1.8026164844568155,1.8106105561290977,1.817652504684554,1.823869930635753,1.829375094257126,1.8342673922876869,1.8386358067998043,1.8425615571403315,1.8461214440432498,1.8493931040344158,1.8524659914029866,1.8554761336726955,1.859733825930627,1.8734808313619524,1.9278509198110427,2.1747272477942863
G_Om,0.0,0.0,0.0,0.02597240907900057,0.059655319711857044,0.09322970715443586,0.1236725574486191,0.15010803357800528,0.17257485831268762,0.19146111760077372,0.20725211371360774,0.22042376161264385,0.2314025680936438,0.24055517180667044,0.2481902559169566,0.25456499473632715,0.2598925761938988,0.2643493718290095,0.26808124792366483,0.2712089148230586,0.273832375278817,0.2760653585771336,0.2779913119983234,0.2796732302173524,0.28115989773999595,0.2824900017492226,0.28369496045178133,0.28480096968280555,0.2858305826455335,0.2868040417579111,0.2877405480958812,0.28865967869688886,0.28958327277857254,0.2905384006674074,0.291562798881264,0.2927164082653268,0.2941105679473796,0.2960036016352178,0.2993143035161593,0.35178014365705557,0.48789855465305576,1.491912059286519,4.247406317571986,14.685518896080625
beta,1.0,1.0,1.0,0.9999510697398556,0.9999058157248898,0.999866243987786,0.9998327589532835,0.9998049894014558,0.9997822466776278,0.9997637641404866,0.9997488123711831,0.9997367468825523,0.9997270210154813,0.999719182186203,0.9997128612041513,0.9997077596214481,0.999703637472437,0.9997003023852675,0.9996976003510663,0.9996954081072679,1.0495752768961824,1.104236117762655,1.1646177900374548,1.2319100191188053,1.3076417619598737,1.393811693922569,1.4930837078181747,1.6090886101030686,1.7469059791586592,1.9138655266355433,2.12094576472889,2.3853629921615656,2.735727698032543,3.2233268509687663,3.9501189798159215,5.151794707820299,7.523899012491376,14.410887176466838,294.833877844953,401.4992905064974,384.3142028477885,286.1421320766081,183.39679065901672,76.65572474816591
