series,2021-12-01,2021-12-02,2021-12-03,2021-12-04,2021-12-05,2021-12-06,2021-12-07,2021-12-08,2021-12-09,2021-12-10,2021-12-11,2021-12-12,2021-12-13,2021-12-14,2021-12-15,2021-12-16,2021-12-17,2021-12-18,2021-12-19,2021-12-20,2021-12-21,2021-12-22,2021-12-23,2021-12-24,2021-12-25,2021-12-26,2021-12-27,2021-12-28,2021-12-29,2021-12-30,2021-12-31,2022-01-01,2022-01-02,2022-01-03,2022-01-04,2022-01-05,2022-01-06,2022-01-07,2022-01-08,2022-01-09,2022-01-10,2022-01-11,2022-01-12,2022-01-13,2022-01-14,2022-01-15,2022-01-16,2022-01-17,2022-01-18,2022-01-19
S,2735517.4460444455,2734688.336222452,2734060.1269809077,2733577.2865286237,2733201.0430304343,2732904.0373479426,2732666.7566349283,2732475.12439406,2732318.861480022,2732190.3645663867,2732083.186084641,2731993.923219077,2788194.45855548,2844403.2020474575,2900618.9917440447,2956840.8409887166,3013067.9073767764,3069299.4674463053,3125534.8958500293,3181773.6480077556,3238015.245422624,3294259.262968958,3350505.317528208,3406753.057357446,3463002.1515045734,3519252.2783958456,3575503.11233056,3631754.3058473878,3688005.464386979,3744256.10645456,3800505.595277007,3856753.010291789,3912996.878121998,3969234.525068607,4025460.169076744,4081657.0157456687,4111790.930596307,4110017.1122462675,4108709.376458454,4105643.2200343637,4102048.8859614674,4097367.372565289,4091875.4250731193,4085626.565020967,4078732.6106345467,4071296.8833513698,4063417.5287523177,4055184.6977461856,4046679.716132884,4037975.0253919614
E,0.0,829.1098219932015,1275.331750158458,1478.2404096669538,1530.0142253751073,1491.1860159962725,1401.155521736253,1285.2379998787535,1159.3947267196304,1033.4077036495546,913.008188127141,801.3007855412201,699.7139153320536,612.2832775727973,537.0453386509865,472.2975369568079,416.5704174323845,368.60063480777524,327.3057415486723,291.76126495377486,261.18031315378823,234.89579329940068,212.3452521862555,193.05834797397804,176.64703402018247,162.79870563375604,151.27288868419942,141.9026737283285,134.60333517353368,129.39317461534046,126.43753538590535,126.1417052774855,129.36011275408077,137.92763416537494,156.29951787496069,198.65737721085367,357.3375507929205,1998.0452738679642,2815.2319752230014,5075.284960303359,7299.459890610939,9934.634342674099,12617.596954945126,15235.123077713362,17664.562695981578,19821.469352414617,21652.2279670845,23129.59913589166,24247.39081866955,25015.345807721307
I,21297.199581179717,16185.871681696584,12465.051060130721,9725.377419197572,7683.309552822951,6141.565762828898,4962.170066297138,4048.0440368386453,3330.409036475494,2760.146410756043,2301.8583923286255,1929.77487365432,1624.9238800720982,1373.168891545289,1164.5633953523718,991.1601506462305,846.5829175739718,725.6954666575483,624.3446927794828,539.1604012338311,467.3986167625437,406.8184696389552,355.5851163385221,312.19296455177175,275.4048492634152,244.20386741330856,217.75541839695018,195.3777006888742,176.51957258459032,160.74542905871118,147.72782572659364,137.25056801970885,129.22941166075046,123.7691212157282,121.31179301148107,123.07354348346055,132.78016354369691,171.50406819473454,525.0519634156677,955.1815630142823,1728.5479016237646,2755.6865414460053,4056.884062913853,5575.806766557498,7247.2737929964105,8997.518483861186,10753.795991294983,12450.228705311434,14031.368565828045,15453.85182505651
A,2366.3555090199684,1893.0952553646994,1532.6836141983952,1254.1470969599961,1035.7703952371587,862.2044536875234,722.4986363051032,608.7571974870126,515.219167451786,437.6260895653649,372.7858912240737,318.2706992279486,272.20634911669157,233.12485414202598,199.94040067630417,171.74123381982005,147.7605747164611,127.35274263396612,109.97345994716311,95.16354263669405,82.53534946185236,71.76149359404863,62.565421565976386,54.71354364366556,48.00866309574491,42.28450411660033,37.40118371294533,33.24151650820961,29.70809004779455,26.721114218120114,24.21715827749953,22.149106582218284,20.48816235628629,19.2300425154268,18.411595601102412,18.160092085081658,18.888631419460776,22.95445216074456,62.22020824684162,111.57001525955125,200.65762520701333,320.74814629165917,474.6624642717637,656.6849117303916,859.7576787777837,1075.5423512312423,1295.5145831301334,1511.678022448091,1717.0376535180326,1905.8615181693358
IH,0.0,851.8879832471887,1448.297349169497,1860.150781672843,2137.7484995367854,2317.036243053221,2423.9154439810036,2477.2170777132374,2490.761064387944,2474.788407405902,2436.9619590080893,2383.0696791792584,2317.5220423888813,2243.706470102509,2164.2420267326675,2081.1930421839365,1996.182309639136,1910.4803723069174,1825.0762225397395,1740.7334908489538,1658.0352608106853,1577.4199320564921,1499.210010623214,1423.6352916751832,1350.8515826523485,1280.9558720018847,1213.9986627353207,1149.9940488630896,1088.9280081462123,1030.7653125670327,975.4554199580798,922.9377176987331,873.1465758974067,826.0169259224825,781.4917871382758,739.5352757290906,700.162301868161,663.5359142911357,630.6522922099988,613.8802149684457,615.3179181679847,647.6041608593689,719.042101322932,838.249027108271,1011.0727284495357,1240.4034963418126,1526.0078357982757,1864.7564435579557,2251.0723477159427,2677.494697632952
IN,4259.439916235943,8101.254253840703,10544.124394808634,12003.314166087142,12771.499936094538,13055.953773370242,13004.16898902133,12721.582411438156,12283.877412258265,11745.561103130984,11145.97260254381,10513.514390440698,9868.650145485251,9226.042747794578,8596.09012113125,7986.181400815571,7401.391790973774,6845.02363889708,6319.028260524456,5824.335029972356,5361.108160012456,4928.946967784661,4527.041882261624,4154.295739773528,3809.4178318653567,3490.996567253703,3197.5553764242186,2927.5955430475265,2679.628935225215,2452.203099681656,2243.9208709156055,2053.456582524395,1879.5713068904486,1721.1307407563045,1577.1327488819315,1446.7618717108135,1329.5258263889596,1225.7257551333405,1139.8477570511768,1133.0994235986404,1213.0386643486281,1439.8133649560802,1849.7811999141343,2479.7923965598,3351.817385733155,4472.636290156597,5833.611129751263,7412.401883453681,9175.68338168101,11082.308277873195
D,14442.0,14442.0,14442.851887983246,14444.300185332417,14446.16033611409,14448.298084613625,14450.61512085668,14453.039036300663,14455.516253378377,14458.007014442761,14460.481802850167,14462.918764809176,14465.301834488357,14467.619356530744,14469.863063000848,14472.027305027581,14474.108498069765,14476.104680379405,14478.01516075171,14479.840236974249,14481.580970465098,14483.239005725909,14484.816425657964,14486.315635668587,14487.739270960265,14489.090122542919,14490.371078414917,14491.585077077654,14492.735071126515,14493.823999134662,14494.854764447233,14495.830219867186,14496.753157584886,14497.626304160785,14498.452321086708,14499.233812873847,14499.973348149573,14500.673510451441,14501.337046365734,14501.967698657942,14502.581578872912,14503.196896791082,14503.84450095194,14504.563543053264,14505.40179208037,14506.41286480882,14507.653268305163,14509.179276140962,14511.044032584521,14513.295104932236
R,0.0,890.8858322864514,2113.9740135243737,3539.6244633407036,5076.895075266034,6662.159369388552,8251.160637755447,9813.438897164346,11328.40191018811,12782.539755544103,14167.43826639487,15478.353279798863,16713.180742331002,17871.70794342324,18955.06574306489,19965.34158433012,20905.286629275524,21778.09187415297,22587.21779861839,23336.265598740883,24028.880733810813,24668.681579078293,25259.20756855652,25803.88244539608,26305.98919643176,26768.653996466157,27194.837075846706,27587.328890131474,27948.75034369877,28281.556126051608,28588.040485433423,28870.345019474516,29130.468355294506,29370.278022173065,29591.52564534377,29795.868607175125,29984.90767668342,30160.2788521569,30324.12869797407,30485.474684007262,30655.040926544607,30850.346766878436,31093.80631608677,31412.451643499917,31836.29229981934,32396.42485943907,33123.113252626106,34044.05589880186,35182.977303710155,36558.60710029259
G,2072909.0,2072909.0,2073072.7885820414,2073324.7271955395,2073616.7499097725,2073919.000412456,2074213.580499003,2074490.375285456,2074744.2708539336,2074973.3063969684,2075177.453517123,2075357.816012607,2075516.110988702,2075654.3377313926,2075775.2927691704,2075881.3847393487,2075974.685942432,2076056.9783917328,2076129.7945298527,2076194.452964574,2076252.0896763988,2076303.6851972984,2076350.0882767113,2076392.0365528457,2076430.1747490498,2076465.0709310228,2076497.2314101856,2076527.1149928928,2076555.1475129542,2076581.7380668484,2076607.2993664904,2076632.2767869579,2076657.195766924,2076682.7505352774,2076709.997796165,2076740.8743769596,2076780.1186474562,2076850.7097913579,2077245.4186629453,2077801.5607337637,2078804.1706474968,2080246.1607837086,2082208.7230751235,2084701.2979538664,2087710.958604279,2091200.549005463,2095116.2309490233,2099393.5747009506,2103962.769450742,2108752.7811657693
H,1380948.1922576486,1380948.1922576483,1380948.1922576486,1380948.1922576488,1380948.1922576486,1380948.1922576488,1380948.1922576486,1380948.1922576488,1380948.1922576486,1380948.1922576488,1380948.1922576488,1380948.1922576488,1340905.0403597031,1301303.5941632327,1262162.6851656102,1223502.0094601715,1185342.185803335,1147704.810669812,1110612.5089268466,1074088.9783897125,1038159.0260855835,1002848.5935457211,968184.767863496,934195.7745994227,900910.9478924407,868360.6723678838,836576.2906504747,805589.9695488377,775434.5173559163,746143.1443185946,717749.1583176577,690285.5883520982,663784.7297599326,638277.6074716154,613793.3572151258,590358.5296546328,578301.6426255587,578301.6426255585,578301.6426255587,578301.6426255587,578301.6426255587,578301.6426255587,578301.6426255587,578301.6426255587,578301.6426255587,578301.6426255587,578301.6426255585,578301.6426255585,578301.6426255587,578301.6426255587
S0,957431.1061155559,954820.9246878781,951037.2790997047,947346.8658175708,943728.2763572749,940166.3352112923,936650.169127724,933171.896544192,929725.7326079069,926307.3744921641,922913.2626335426,919541.3055711616,935077.2186064132,950265.9573499041,965099.6535106859,979570.132509761,993668.8881380232,1007387.0625467261,1020715.431736925,1033644.3970060124,1046163.9830930467,1058263.8440445967,1069933.2780990568,1081161.2531529006,1091936.444609972,1102247.287590748,1112082.045529033,1121428.8969885905,1130276.0418524186,1138611.8263558743,1146424.8825134812,1153704.2679727816,1160439.5666968683,1166620.8295427547,1172237.905268116,1177276.7556662245,1177650.5182254468,1172512.32411275,1167632.7800888242,1161900.3340504093,1155936.9424108888,1149481.1290748129,1142677.3409973802,1135563.9044990547,1128204.278340293,1120656.3733878464,1112973.6420651344,1105203.8133175222,1097388.6249870607,1089563.974626176
E0,0.0,456.98966566554407,704.2231060284888,817.2906721842354,846.7903867861421,826.0359989575081,776.7660115118938,712.9841726213111,643.544637579146,573.8916191322874,507.2286623227335,445.3027489421971,388.9287790418558,340.37117886740606,298.5475619513536,262.52033284781237,231.48062332426943,204.73300843169164,181.68139793146045,161.81630666365723,144.70358538539855,129.97462325412855,117.31800292572204,106.47259384080935,97.22211053426123,89.39125317090996,82.84371857120783,77.4826929792722,73.25507450914853,70.16201038452401,68.28137082612035,67.81537071138638,69.1979664880481,73.36775109400234,82.61030470579708,104.20778851293947,185.57865559055273,1026.6463219991736,1443.1437005836317,2592.2230449266735,3717.148086991858,5043.259674321802,6385.153004772039,7685.10176509894,8881.520841965663,9932.808467741965,10813.398080587947,11511.293423733627,12025.200162393081,12361.807875295093
I0,21297.199581179717,16185.871681696584,12391.53964929328,9556.687655554055,7424.536356630357,5809.928964656005,4578.727369088588,3633.280993049021,2902.141803711349,2332.7584124719147,1886.2672546718109,1533.764873521086,1253.6297537648525,1029.5905252865743,849.7282785673503,704.7708196197508,587.4860613662613,492.217827721559,414.53004539272683,350.933542533918,298.6759010168338,255.5795179614439,219.91659702429052,190.31249326299587,165.67089082918972,145.1158630227147,127.94707550525888,113.60534782578482,101.64657752495671,91.72275658825653,83.56962555583503,77.00173030652527,71.9180727540556,68.32762136917911,66.42260888880045,66.80064286903003,71.35447787336958,90.89000477118232,271.8878296612342,491.7241972363574,885.7976015101196,1407.5195313694012,2065.998242024995,2831.529750165311,3670.1353389479273,4543.825197691451,5415.508744611357,6251.9465268839795,7025.506729691882,7714.933481157893
A0,2366.3555090199684,1893.0952553646994,1524.5156796609015,1235.077035062507,1006.0065943153663,823.3967021623528,676.8523982222836,558.5348206622145,462.48022248011904,384.1119249950582,319.88806324571703,267.0454459538432,223.41185319673605,187.26738590886492,157.28582048318768,132.38241387055328,111.66878669803816,94.41647696063568,80.0274473294908,68.01018118400607,57.960279916046446,49.54469332937229,42.48888883411018,36.566403575219624,31.59033448691467,27.406410853586564,23.887367612610547,20.928400313359823,18.443539879703103,16.3628450849113,14.63038780821037,13.203134526401422,12.051096784291712,11.15980890428565,10.538300133450502,10.243961763728983,10.482548516315504,12.459487044868396,32.502249647057134,57.678553906805966,103.04168661065981,164.02419435667048,241.91826277977302,333.6880621704074,435.6378382297308,543.4591943671037,652.7922462626173,759.5878875101591,860.3434999033597,952.2285625293156
IH0,0.0,851.8879832471887,1448.297349169497,1857.2103252393454,2128.236576961993,2297.743127886631,2392.512455855029,2432.357325255336,2431.997753023827,2402.4141505027537,2351.8271802198196,2286.4105694132013,2210.8121195496033,2128.5363823021466,2042.2271425442539,1953.8930740890214,1865.0516495329175,1776.8401659923154,1690.1015528991018,1605.4508078421027,1523.326525049691,1444.0309315636973,1367.7610478294,1294.6329815124038,1224.7008999842947,1157.9718735217782,1094.4175118454652,1033.983111793893,976.5948795406875,922.1656771870458,870.5996658089136,821.7961765641434,775.653152203457,732.0706084732101,690.9549086115335,652.2257137235122,615.8314012721345,581.7991509360173,550.5867500484006,528.48379011641,516.4981850174057,520.9934174110438,546.0882762394921,596.019177712537,673.5806302508219,780.0406110392873,915.0715568555687,1076.8819012474894,1262.457809035918,1467.8606920173402
IN0,4259.439916235943,8101.254253840703,10544.124394808634,11988.611883919653,12724.501216800902,12961.808501282763,12852.927024829305,12508.480738366921,12008.717123835237,11411.726026600563,10759.391475514467,10081.71818043384,9399.988286146,8729.072982572468,8079.131109099518,7456.941678832831,6866.764603747883,6310.995706541994,5790.664671313768,5305.813010000374,4855.780330046245,4439.4205048214035,4055.2642614710576,3701.640825761544,3376.768308979161,3078.8202681975195,2805.974152516936,2556.446039935009,2328.5150806741035,2120.540328733226,1930.972126446275,1758.3599036397495,1601.358223462743,1458.7333655803006,1329.3743660084197,1212.3176340674656,1106.8135778261885,1012.5646515541944,931.463661180272,894.5139497886748,905.1543226345523,993.5661190163801,1177.6537843002397,1475.3879365913253,1897.0364309866713,2445.064646167637,3114.0982755376226,3891.8718311266634,4760.6745294856555,5699.00571452266
D0,14442.0,14442.0,14442.851887983246,14444.300185332417,14446.157395657656,14448.285632234618,14450.583375362505,14452.97588781836,14455.408245143615,14457.840242896638,14460.242657047142,14462.594484227362,14464.880894796775,14467.091706916324,14469.220243298627,14471.262470441172,14473.216363515261,14475.081415164794,14476.858255330786,14478.548356883684,14480.153807691526,14481.677134216576,14483.121165148139,14484.488926195969,14485.783559177482,14487.008260077466,14488.166231950987,14489.260649462833,14490.294632574627,14491.271227454168,14492.193393131356,14493.063992797164,14493.885788973728,14494.661442125931,14495.393512734405,14496.084467643017,14496.736693356741,14497.352524758013,14497.934323908948,14498.484910658997,14499.013394449114,14499.529892634131,14500.050886051542,14500.596974327782,14501.192993505494,14501.866574135745,14502.646614746785,14503.561686303641,14504.63856820489,14505.901026013926
R0,0.0,890.8858322864514,2113.9740135243737,3537.9909138776925,5069.832901296368,6643.97626190353,8214.849184490438,9751.32003440929,11232.702705804877,12645.853365033527,13983.055115349449,15240.473481355195,16417.026849549256,17513.559565600495,18532.236487204555,19476.108988687014,20348.794467852484,21154.23969709066,21896.547646455354,22579.85228476097,23208.229571363663,23785.63567006779,24315.86556206839,24802.526869316738,25249.02494611151,25658.55624833163,26034.10771747121,26378.460474729134,26694.19655072967,26983.70771217535,27249.20571574877,27492.73354875881,27716.17743877129,27921.27968880343,28109.652857377758,28282.796867147103,28442.123909805672,28589.01079134995,28725.04782489624,28855.303289516927,28985.669291680642,29125.445054027878,29286.350310957518,29482.361290526547,29728.858547153588,30041.654822440818,30436.017601567928,30925.79618537589,31522.721959081737,32235.9118042646
G0,2072909.0,2072909.0,2072999.2771712039,2073138.394693295,2073299.8484317043,2073467.1297653213,2073630.3111212712,2073783.759313813,2073924.607562807,2074051.7382044583,2074165.1090656514,2074265.310825622,2074353.2792755107,2074430.111187936,2074497.3506672855,2074556.3279951941,2074608.1882336494,2074653.9166547325,2074694.3611510568,2074730.2518590924,2074762.2182677835,2074790.8041009721,2074816.4802643456,2074839.6561438702,2074860.6895398195,2074879.895525812,2074897.55454542,2074913.9201158618,2074929.2266290393,2074943.6979867085,2074957.5583172573,2074971.0471321414,2074984.4438898626,2074998.1137759387,2075012.607392587,2075028.9268527005,2075049.5128419935,2075086.173443581,2075288.984869616,2075574.07431631,2076086.1615279205,2076820.4748821422,2077816.7582803264,2079078.1293665527,2080596.302095375,2082350.824435466,2084313.0260298317,2086449.1859108112,2088723.2132800713,2091098.7616466633
H0,483331.867290177,482244.3705887741,480508.2908546545,478778.4610075778,477054.8585479505,475337.4610571779,473626.2461973721,471921.1917110616,470222.2754209018,468529.47522938653,466842.7691185607,465162.1351497339,444599.88450889755,424407.47225936205,404592.0464078474,385161.15853255324,366122.7724254925,347485.27040487475,329257.45649387984,311448.55549512734,294068.20679808076,277126.4515392184,260633.71149351855,244600.7578148293,229038.66747014684,213958.76494229882,199372.5465279575,185291.5843636344,171727.40721320588,158691.3551017694,146194.40515148258,134246.96654768105,122858.64352875797,112037.96674120132,101792.0953060166,92126.49453993942,87077.02637908087,86763.54908411618,86451.20030741337,86139.97598630669,85829.87207275598,85520.88453329407,85213.00934897421,84906.2425153179,84600.58004226277,84296.01795411062,83992.55228947582,83690.1791012337,83388.89445646926,83088.69443642597
S1,273551.74460444454,256044.28388137088,241104.97101184403,227242.95245758633,214374.4810870941,202424.0178449333,191322.88392011856,181008.27893030999,171422.54094100944,162512.569424897,154229.30799651393,146527.53373761932,142238.41181281288,138142.18553128722,134234.86783686138,130511.8812194341,126968.1549066333,123598.21195378965,120396.24704663573,117356.19583087135,114471.79656762503,111736.64488940783,109144.24240104728,106688.03983639133,104361.47544490076,102158.0092415516,100071.15370534899,98094.50144873152,96221.75028646081,94446.7259732582,92763.40256932488,91165.91969902057,89648.59415579416,88205.9176024369,86832.50907414767,85522.85346980843,83981.16471166121,82159.08251528564,80466.24114517534,78818.41176618953,77252.3705267683,75744.52597078396,74299.00883335955,72912.96238322706,71585.33867128135,70314.8855128046,69100.2435045874,67939.88748155958,66832.12796059725,65775.13366184884
E1,0.0,130.5684759044412,195.10558026636983,220.13263163404255,221.92186394552027,210.71737444154505,192.89514328923914,172.3533440243691,151.40908899173138,131.37739755358172,112.94490985160046,96.41068331017632,81.84085378598029,69.47651322912091,59.00745164039737,50.15904447598663,42.69099820439023,36.39498236893892,31.091707030194538,26.62780858730863,22.87277243516842,19.71602985587759,17.0643063150996,14.839260129313498,12.97542844223172,11.418488263959372,10.123843279954762,9.055565268364957,8.1857624596109,7.494542848086773,6.970959471714,6.615871626814707,6.449197083449173,6.529141270427852,7.01241752383104,8.416192752277052,14.141643914185455,73.92104528344557,102.67017402132043,181.15161899916362,256.29709675598235,343.19352315519006,429.2309686821307,510.6707108905093,583.711108559,645.9882262619911,696.2444383855991,734.1124891947519,759.8910227190099,774.3450413765872
I1,0.0,0.0,25.79347748682168,58.145664738745104,87.67735876645395,110.47490461802472,125.58762044680532,133.55254706431595,135.54790996844557,132.92690031502033,126.97772218497099,118.8150547310454,109.34513215929618,99.26975744022538,89.1699279461855,79.42592046680001,70.27249396697147,61.84059587086426,54.188591057572175,47.32541855384506,41.227575422320456,35.85141659515689,31.141929245731838,27.038877473673715,23.481005790078903,20.408827999029594,17.76640322016079,15.502406493438201,13.570733318418423,11.930834325094597,10.547962376056626,9.393547101756438,8.446044773187516,7.693016862213661,7.136508425064887,6.809032034027393,6.837462279832919,7.990117895524444,20.67540813903902,35.99554756221022,63.142667673039305,98.61928108374528,142.74768006366563,193.281746542502,247.77585547161482,303.62032705139524,358.36481507361725,409.89861560968905,456.54504321735703,497.08881334535323
A1,0.0,0.0,2.8659419429801862,6.575280231551901,10.09210472459172,12.944853595800284,14.981130324211989,16.218967996082764,16.758356994323993,16.73015005892351,16.267894293132606,15.493499553024927,14.511058510107901,13.405297442549262,12.249289662937432,11.094685132627983,9.976776124684461,8.918522242775538,7.933718479171472,7.029465526333526,6.2080776821501225,5.468541636047501,4.807619782136527,4.220674670626039,3.702276742132273,3.2466454326627767,2.8479638899160955,2.50059972861172,2.1992584001692834,1.9390920248225623,1.7157856525115438,1.5256470206163626,1.3657411634312537,1.2341572844821782,1.1306443308983574,1.0584412736268587,1.0314909749176429,1.1356026822767542,2.5310338560672125,4.278420618668704,7.39898405592304,11.544871569908729,16.768953119179557,22.836740446841226,29.478577948494788,36.395294930804496,43.29566573865827,49.91910397841044,56.0490781786951,61.518917323639975
IH1,0.0,0.0,0.0,1.0317390994728672,3.295767652375007,6.6054555363520855,10.628805008140937,15.015676706506909,19.45838518635565,23.714803445626675,27.61143480010243,31.036702652938253,33.93030067247391,36.271784061289374,38.0700047220193,39.356524250125176,40.17622486899962,40.580690851845276,40.62365462762892,40.35796481127651,39.83366210735459,39.09684981680324,38.18912399022851,37.147388688148844,36.003928093992634,34.78664244715501,33.51938139964224,32.22232844656891,30.91240515462761,29.60367536007224,28.307738543304215,27.034109525602812,25.790590404585892,24.58365420677399,23.418888702944855,22.301628775636853,21.238190267028223,20.239585703173567,19.346900742605136,19.015096508084127,19.315971915798972,20.68471060537229,23.390530543406427,27.69941604921958,33.771575066905754,41.65979456962721,51.30931255928675,62.570633266724826,75.21878710789964,88.97521207549049
IN1,0.0,0.0,0.0,5.158695497364336,16.282033496848726,32.2210996676838,51.156896365785975,71.25863695640561,90.98244622168541,109.17146647584204,125.05290476396634,138.1873790277456,148.4015231602663,155.72021593362817,160.3062574234678,162.4226851104357,162.38280178037283,160.5161435937647,157.14612614286898,152.57612804644685,147.08157034571974,140.90616926994477,134.26101637405094,127.325503740419,120.24938740434953,113.15548916376521,106.14269126070747,99.28899264761786,92.65447971663887,86.28412666548047,80.21038822980411,74.45558762624049,69.03414527165805,63.95475895758645,59.22278597700419,54.84346736728755,50.82803281194229,47.211985875121655,44.18101284735606,43.98427587512736,46.870856270066035,54.90383995406743,69.24453585377796,91.00484841890423,120.73843951820476,158.45556108995683,203.64352394006627,255.34983730308647,312.2932585510169,372.9828300455217
D1,0.0,0.0,0.0,0.0,0.0010317390994728673,0.004327506751847874,0.01093296228819996,0.0215617672963409,0.036577444002847806,0.056035829189203454,0.07975063263483012,0.10736206743493255,0.1383987700878708,0.1723290707603447,0.2086008548216341,0.2466708595436534,0.28602738379377857,0.3262036086627782,0.3667842995146235,0.4074079541422524,0.4477659189535289,0.4875995810608835,0.5266964308776868,0.5648855548679154,0.6020329435560642,0.6380368716500568,0.6728235140972119,0.7063428954968541,0.738565223943423,0.7694776290980506,0.7990813044581229,0.8273890430014271,0.8544231525270299,0.8802137429316158,0.9047973971383898,0.9282162858413346,0.9505179146169715,0.9717561048839998,0.9919956905871733,1.0113425913297784,1.0303576878378626,1.0496736597536616,1.0703583703590338,1.0937489009024401,1.1214483169516598,1.1552198920185655,1.1968796865881928,1.2481889991474795,1.3107596324142043,1.3859784195221039
R1,0.0,0.0,0.0,0.5731752501794657,2.454762399064431,6.263653359953585,12.400790218563387,21.038735418237014,32.15353253799273,45.571728604872995,61.01835354972926,78.15915760397783,96.63462076804775,116.08549120200547,136.17069708726436,156.58026435238463,177.04219761620996,197.32492163530395,217.2368011916996,236.62383462873402,255.3662984013889,273.3748832835333,290.5866883966462,306.96131214406677,322.4771878644561,337.12824758938024,350.9209528201172,363.871701499703,376.00460143475607,387.34958946964866,397.9408708002872,407.8156529180414,417.0131539985943,425.57387863731964,433.53918331357073,440.95122866684375,447.8536511926725,454.2943489165317,460.34251094456914,466.31999837207087,472.608123397892,479.82108818574915,488.73143648600706,500.2520048492663,515.373417884701,535.0960909985904,560.3647209947948,592.0122678956643,630.7173818697768,676.9765356811454
G1,0.0,0.0,25.79347748682168,64.3360993355823,107.82275290058999,151.6628648561097,193.28955779321623,231.39551331796014,265.44348751752557,295.3539762565273,321.30725420208285,343.61924007255027,362.66493063625194,378.8323876354122,392.5572999270264,404.21407515472544,414.1228695669289,422.55637002289484,429.7461082186102,435.8881975687004,441.1484548900986,445.66691416429194,449.56176679770454,452.93277804462207,455.86423695470893,458.42750055327855,460.68319449417686,462.6831345402929,464.4720389236983,466.0891159267949,467.5696442157796,468.946739911733,470.2536888875856,471.5277117221768,472.8175273319593,474.2028129629374,475.8654108969095,478.65905745976096,493.2619759982014,513.544213374742,549.3302649005014,599.9611185527368,667.758144992756,752.5516546868721,853.4333827861853,968.7440596791533,1096.3574261937101,1233.89878234745,1378.9208777014433,1529.0354582016053
H1,138094.81922576486,129318.40026818456,121817.45141171954,114846.03472938776,108366.34899405876,102343.29298525576,96744.27263182904,91539.0219301518,86699.4366538722,82199.41994153943,78014.73891368383,74122.89153153324,67629.90286401562,61697.01789299119,56274.35434241543,51316.49659830694,46782.11569175042,42633.62087830023,38836.840162715496,35360.727321502214,32177.09316093157,29260.358916499506,26587.32985263738,24136.987260372593,21890.29717719181,19830.034269407806,17940.619425012752,16207.969706866956,14619.359415182595,13163.291108252859,11829.37553546208,10608.219551469783,9491.321209937802,8470.971383729098,7540.16142935982,6692.496607365397,6209.677643553084,6079.6065354068405,5957.697702437741,5843.372187656019,5736.092373517008,5635.359029156286,5540.70856853641,5451.710504440117,5367.965084320967,5289.101095021616,5214.7738242977275,5144.663167947145,5078.471872143933,5015.9239013197985
S2,273551.74460444454,289780.10529422754,304576.08558320935,318137.473985505,330553.9231491193,341908.5405663176,352278.4217138386,361735.1137315203,370345.02893358405,378169.8197794768,385266.63269028097,391688.71214950515,405671.7115346133,419189.89124013635,432244.42034943047,444836.9820553837,456969.6439913145,468644.7439482636,479864.79006754555,490632.3747876664,500950.10202316655,510820.527258068,520246.1104461526,529229.1818204517,537771.9209183962,545876.3493156316,553544.3377112218,560777.6280867589,567577.8716123425,573946.6826772228,579885.7086250994,585396.7128135022,590481.6634826964,595142.8051431697,599382.6268280717,603203.2740299077,604531.3765880301,603165.2088071727,601729.1511844342,600020.9031735365,598164.4475224111,596111.6752242162,593895.3302046912,591525.4939084051,589018.0985107765,586388.077104693,583649.8153809567,580816.8748203089,577901.9033464924,574916.6119536622
E2,0.0,45.698966566554404,72.58473093207289,86.65260216422361,92.18518111725051,92.19247373382821,88.76337479079707,83.32781143358625,76.84917653873552,69.9637965633041,63.08094056432143,56.453863114282875,50.229912183955705,44.79411373640079,40.039510151016614,35.875753647605414,32.22619341486519,29.02557304939691,26.21819855081296,23.756474901398526,21.599737215282868,19.71332390285514,18.067856887666796,16.638710021298177,15.40566417065321,14.352769912490672,13.468473210588872,12.746119484190265,12.18506671469733,11.792878512747464,11.589612999259815,11.616585294338734,11.955825502768956,12.77921690402264,14.499840944090135,18.42729321930738,33.07667296218557,184.2478783569041,259.36823038619696,466.83124917144835,670.528469767228,911.3004974858325,1155.7609497782978,1393.4968945118153,1613.3020609781393,1807.5138739823053,1971.3237541873584,2102.3557751331173,2200.1686264230443,2265.7799616573825
I2,0.0,0.0,9.027717120387585,21.199997975326067,33.23000437818287,43.4657564483438,51.24636865992288,56.482223978061775,59.38769200538146,60.31600950516879,59.661341125574275,57.80410208291592,55.08343775215149,51.786206843189,48.206482896399194,44.546632590684965,40.94260662287074,37.48258534552088,34.2206945864876,31.187067763760144,28.39520399770404,25.847329372790536,23.538288402447762,21.458359350987934,19.595288864951794,17.935770156283798,16.4665392971916,15.175233231450388,14.051141440461011,13.085997100911875,12.275011599545053,11.618508022156167,11.124893613111151,10.81676272119112,10.745242165586783,11.030791540558564,12.023667488787172,15.672201721717128,48.308583165144434,87.95207166367933,159.0649259984462,253.35057430785167,372.5715819220401,511.4721017035465,664.0006409983166,823.3442944983851,982.8115315087471,1136.3668658196443,1278.9539695520984,1406.6428537474792
A2,0.0,0.0,1.003079680043065,2.395683116239308,3.8185581330247573,5.078303247599323,6.086265185260615,6.817371582588295,7.2829509393631975,7.5132123145985386,7.54629028377672,7.421676024741009,7.176521528646074,6.843782805948115,6.45827602951998,6.045506607071032,5.623895872900375,5.206498514783146,4.802325982775672,4.417365010325739,4.0553603141582455,3.718415101819391,3.407451136680146,3.1225609930081566,2.8632781934934264,2.62878574976875,2.418079981965006,2.2301043336854076,2.0638674887613373,1.9185622975826897,1.7937090559232403,1.6893642684108485,1.6064799944692012,1.5476184241199107,1.5186021115836366,1.5331561504489009,1.631005939733822,2.030836054434599,5.668868137636375,10.22818143785403,18.429408876733707,29.46152609328165,43.572149874585456,60.22655292009671,78.76838995694703,98.42660721450844,118.41616673474317,138.00348756551048,156.54955065328218,173.53345118458458
IH2,0.0,0.0,0.0,0.3611086848155034,1.1874792910018637,2.445553065296673,4.037702126549766,5.845710785969499,7.7548594338761205,9.665874600686575,11.499558466489498,13.197223506033469,14.71891400713348,16.040633298339024,17.15129638429095,18.05224516878013,18.752835846794454,19.267302233548097,19.612552796082433,19.806648268761244,19.867772939565292,19.81356187770118,19.6606829087011,19.424599286537802,19.119459193835716,18.758073245937418,18.35195246973515,17.911387859480133,17.445559487892837,16.962669148491653,16.470096699355658,15.974588422961743,15.482499443399922,15.000140521914803,14.534348198281819,14.093594597087435,13.690662772172223,13.351580377006085,13.178749356170778,14.321725645994558,16.981980669455087,22.327408674801635,31.12408771953001,44.162712726776064,61.9763845111691,84.8242130624504,112.67727225708124,145.24070733061745,181.99590497456376,222.25306212640106
IN2,0.0,0.0,0.0,1.8055434240775172,5.86851478725011,11.939125017184892,19.4616801506205,27.8027932807717,36.37325582055118,44.684503275520775,52.366520818218206,59.16440541832906,64.92432958256308,69.57537722672134,73.11095712244197,75.5839390000271,77.08248220372192,77.7132924522575,77.59024935243018,76.8268921154959,75.531654449981,73.80503828171109,71.7381368346392,69.41208081223319,66.89810194353736,64.25799722499839,61.54484328137812,58.803859944648,56.073360763769216,53.38576065299101,50.7686429747241,48.24592890102438,45.83925882041619,43.5698327937356,41.4612911478505,39.54518170882243,37.874051049839956,36.56534503539646,36.1146606500663,42.2354408342531,55.6847941908935,82.0380488034024,124.6645738327277,186.95589475164016,270.9198384898855,377.1570719106528,504.8467871930816,651.9103481743617,815.2658256228924,991.1221988442965
D2,0.0,0.0,0.0,0.0,0.0003611086848155034,0.0015485879758173672,0.003994141041114041,0.008031843167663807,0.013877553953633305,0.021632413387509427,0.031298287988196005,0.042797846454685505,0.05599506996071897,0.07071398396785245,0.08675461726619146,0.10390591365048242,0.12195815881926256,0.14071099466605702,0.15997829689960513,0.17959084969568756,0.1993974979644488,0.2192652709040141,0.23907883278171527,0.25873951569041637,0.27816411497695415,0.2972835741707899,0.3160416474167273,0.33439359988646244,0.3523049877459426,0.36975054723383544,0.3867132163823271,0.40318331308168276,0.4191579015046445,0.4346404009480444,0.4496405414699592,0.464174889668241,0.4782684842653284,0.49195914703750065,0.5053107274145068,0.5184894767706776,0.5328112024166721,0.5497931830861272,0.5721205917609289,0.6032446794804589,0.647407392207235,0.7093837767184041,0.7942079897808545,0.9068852620379357,1.0521259693685532,1.234121874343117
R2,0.0,0.0,0.0,0.20061133756281296,0.8780334142490798,2.2870571025761204,4.617326271339078,7.9805203936421165,12.414240313358244,17.89382571387596,24.34690873190903,31.667804866014528,39.73027865862871,48.398089275978066,57.53322049042018,67.00332002614873,76.68639932786698,86.4733488390193,96.26897039166586,105.99202948500216,115.57468484616376,124.96154673453889,134.108538612134,142.98168139684603,151.5558798869538,159.81376293427925,167.74460951710282,175.34337985406654,182.60986263742961,189.54794551013947,196.1650159368113,202.47150456233123,208.4805960684788,214.20816161861114,219.6730350907274,224.89793536303966,229.91191842367414,234.75789007870185,239.5355402185717,244.98641259441857,252.01656908619165,262.16228401619395,277.41306052472083,300.1834003980429,333.15996105730324,379.12639343162965,440.7862956442158,520.6040803676963,620.676277224517,742.638896095045
G2,0.0,0.0,9.027717120387585,23.36665008421909,40.48465600115415,58.69560912207896,76.90800288126056,94.44298667778095,110.90418845983547,126.08555204091435,139.90672594256034,152.36820877003981,163.52052893917522,173.44332309072908,182.29228878630462,190.2019943757262,197.28916022967638,203.65536454181552,209.38929426570726,214.56863414373683,219.26166664098315,223.5286409755186,227.42295905464556,230.9922192197732,234.27915497797417,237.32250559689462,240.15785957531054,242.81852294089532,245.33648712545403,247.74361673161553,250.07327053446755,252.36276974096947,254.65759725724195,257.0194408324686,259.54394332995014,262.40835082466276,266.0486167426254,272.5828311728643,308.98054102950374,360.2180894876733,452.4394410217232,584.9006715707558,764.9258170188286,993.2435164616247,1268.5253601652462,1587.2291675049107,1944.2990351948852,2333.7291370678818,2749.0442885970506,3183.682125484935
H2,138094.81922576486,146314.7489415842,153809.93528286423,160680.1111541434,166970.5408829789,172723.24984823336,177977.255896606,182768.7842286818,187131.46693525594,191096.52828035093,194692.95674902815,197947.66480537428,192699.30947181524,187042.28880106308,181039.53829712374,174748.87806813422,168223.47278696517,161512.25230461973,154660.29561942964,147709.1805632688,140697.30123194418,133660.15485879048,126630.59950758661,119639.0836440978,112713.84833789348,105881.10255366424,99165.17172408888,92588.61956944493,86172.34296380871,79935.63957207098,73896.2480317255,68070.36067084405,62472.60918560592,57116.02439351127,52011.97216964956,47170.068980134565,44666.533734160235,44578.33768805498,44481.900801440526,44377.904199216544,44266.97954358225,44149.71257569559,44026.64640425799,43898.28455910276,43765.093826573444,43627.506882280024,43485.92473570681,43340.71900011252,43192.23400020264,43040.78872916289
S3,820655.2338133337,816994.7763078912,813576.8308799351,810377.1625449336,807375.6378220366,804554.4161878641,801897.5247720983,799390.5485174005,797020.3991686023,794775.1387851747,792643.6795069291,790616.1980164371,804915.5902302151,819704.7819671308,834992.8730723594,850789.7845380768,867106.3123514212,883954.177031982,901346.0675463835,919295.6779546638,937817.7347387504,956928.0122842203,976643.3334311089,996981.5513795576,1017961.5085386421,1039602.9671565049,1061926.50579089,1084953.374903857,1108705.304125512,1133204.253030903,1158472.0964839587,1184530.2341401363,1211399.1093444338,1239097.6064250018,1267642.222801173,1297045.461204865,1311678.1243324184,1307734.192665708,1303860.8793323827,1299785.1271286616,1295654.881378907,1291390.1098255296,1287021.856889519,1282549.0520001787,1277980.411749323,1273324.129542707,1268588.8124827,1263783.0946743374,1258915.4901620978,1253994.307264989
E3,0.0,78.3410855426647,120.62035904513216,139.93616947788595,144.95867455651467,141.39217403406334,132.95627769134012,122.04539562525274,110.17229670999558,98.26635990787098,86.87389011624383,76.29235584665683,66.6601165840664,58.365828848669466,51.22837864716594,45.089044329536534,39.80973203217196,35.27101047958024,31.370118808608474,28.019056938021045,25.142825175436016,22.677852546025207,20.570638012179174,18.776623322864715,17.25932051387663,15.989733425772744,14.94614773632276,14.114433540847498,13.489144280359682,13.075991768146714,12.896951511193908,13.000940719554123,13.487779315360072,14.568980677072826,16.755377272644168,21.67036225579126,39.8836445027754,227.56107831012292,320.78505688893927,577.7468357271007,829.919055654772,1127.9381997555415,1430.5989399512112,1725.1315755805297,1997.7666502339334,2239.0876003748276,2443.1721155311966,2607.0722186404246,2730.2035577145293,2813.764422457153
I3,0.0,0.0,15.476086492093005,35.59007749178836,54.69250093390325,70.2025261293648,81.28559197517264,88.04223168875552,91.02186027135895,90.9408768504034,88.52734126391157,84.44250016174006,79.2476651619655,73.39676566626275,67.3115661482727,61.27682898929991,55.47761853216359,50.02730357830586,44.988451065561755,40.38831171389709,36.23021187343169,32.50186356766817,29.181369646591662,26.241519279351948,23.65282986289733,21.385686512382442,19.41185379618582,17.705583175956058,16.24451443503989,15.010577854607018,13.991168802847124,13.18104896630184,12.585900699855113,12.22976177042772,12.172684822429709,12.56122354841694,13.827456032329792,18.387781303063917,58.92883851002573,108.15620696165914,196.33116692836606,313.16013100288876,460.82308397670977,632.8368042716327,821.7514209008245,1019.1849100667663,1216.9067149904165,1407.4916748240103,1584.7143017907579,1743.7277878992709
A3,0.0,0.0,1.7195651657881117,4.023243544324618,6.290173506008545,8.213970465422273,9.674733151963864,10.658184405674959,11.205459072693216,11.382670077001464,11.263107672111838,10.917395638260498,10.408562674975094,9.790068983259353,9.113213872147323,8.415061621965467,7.721779930559507,7.051271954045044,6.415238815915043,5.820785896073573,5.271665953566814,4.76923499032575,4.313182448791886,3.9020855485126167,3.533828017313868,3.2059159270295745,2.9157176660117914,2.660651309509204,2.4383411583836847,2.2467670919699896,2.0844383771973307,1.9506447770770103,1.8458918179968118,1.7727749430743467,1.7380131788743165,1.758194408873393,1.8822220467414175,2.381221234836971,6.899890650800673,12.561087451336991,22.730310838264828,36.40084666683852,53.87877580848729,74.50451880578251,97.47011767045258,121.82696654709991,146.60948543680578,170.91521283660092,193.95746812554316,215.09407683591851
IH3,0.0,0.0,0.0,0.6190434596837202,2.005567737366656,4.073140362088641,6.637272677672547,9.491143893673144,12.444342485170534,15.339838598984905,18.05866395803176,20.518098517005402,22.666826775925536,24.479059342038155,25.948708704909368,27.086922556426213,27.91557137086124,28.462618221254274,28.758886029606312,28.83585419607343,28.72420662920553,28.452922418682245,28.048753375717713,27.535973073331352,26.936312738051058,26.269022657853892,25.55101549157408,24.79706146391366,24.020016166467038,23.23107077129357,22.44002334450255,21.655580892546798,20.8857193661145,20.138164274881554,19.421139904648584,18.74478003726642,18.12447361955138,17.591970970529456,17.273776622760657,18.59628343772274,21.808670851575275,28.355644420313546,39.18363273123647,55.269575567078846,77.2725681233398,105.51423295679668,139.96164745857226,180.254638712849,225.75760063300618,275.6239784943606
IN3,0.0,0.0,0.0,3.0952172984186013,9.909755827817495,19.876633549421257,31.968293210957064,45.09101431136435,58.27841907717763,70.7687632387107,82.01826914102313,91.68208689938619,99.58142747780623,105.66729390398295,109.98627909523643,112.66476056486233,113.87367735826642,113.80422131787078,112.65151224755058,110.60405241482414,107.83731213729062,104.51022265309038,100.76367486376584,96.7203663015974,92.48552219987911,88.14815424609772,83.78262381613938,79.45035428497557,75.2015969383225,71.07720402753239,67.11040841688319,63.32866365951563,59.75568390559335,56.413994673454866,53.32872047388171,50.534532962017565,48.092015077521864,46.14222539747207,45.29567192537175,52.6403319772335,69.11034336429346,101.60051048198225,154.2709049155465,231.30971240301926,335.19783505114304,466.68295560133015,624.7630439377918,806.8882046999555,1009.273520111642,1227.2600749172477
D3,0.0,0.0,0.0,0.0,0.0006190434596837202,0.002624611197050376,0.006697751559139017,0.013335024236811564,0.022826168130484707,0.03527051061565524,0.050610349214640145,0.0686690131726719,0.0891871116896773,0.11185393846560283,0.136332997807641,0.16228170651255036,0.18936862906897658,0.21728420043983782,0.2457468186610921,0.2745057046906984,0.30334155888677183,0.3320657655159774,0.36051868793465963,0.38856744131037735,0.4161034143837087,0.44303972712175976,0.4693087497796137,0.49485976527118775,0.5196568267351014,0.5436768429015684,0.566907913672862,0.5893479370173645,0.6110035179099114,0.6318892372760259,0.6520274015509074,0.671448541455556,0.6901933214928224,0.7083177951123738,0.7259097660829033,0.7431835427056639,0.7617798261433866,0.7835884969949618,0.8119441414152754,0.8511277741465119,0.9063973497135906,0.9836699178369305,1.0891841507937272,1.2291457982522995,1.4094004369651485,1.6351580375981547
R3,0.0,0.0,0.0,0.3439051501076794,1.4884721625941233,3.836222337653878,7.6677199287730815,13.127934691976126,20.23956381659982,28.92756610893739,39.04618728658834,50.404008109280085,62.78505029097516,75.96538892951612,89.72546799172149,103.86020083393142,118.18496100796222,132.53840366125675,146.78315722926587,160.80513661885746,174.51201391522375,187.83122327661164,200.70775957705223,213.1019451201306,224.9872774323646,236.34842772393816,247.1794295489275,257.48207716994233,267.26454077941236,276.5401995871413,285.32669335739365,293.645199175747,301.5199566401423,308.9781013135395,316.0499514056073,322.77011667048527,329.18052066591446,335.3397137497517,341.37617044205496,348.21459753981594,356.9832520323922,369.58974070238446,388.50143621413423,416.71055057624,457.54556102951926,514.4554207930958,590.7916169526279,689.6123398678886,813.5240688910978,964.567415513833
G3,0.0,0.0,15.476086492093005,39.30433824989068,66.94838029003478,95.58460570963311,123.5162778264885,149.7814596141128,173.89122380201758,195.65548684618818,215.06776170379317,232.22948250496043,247.3008475440035,260.46938768717246,271.99941192908545,282.1194506456981,291.0266791459938,298.8909926398553,305.8586929859046,312.05578188997475,317.5908768608447,322.5577794047048,327.0377327398686,331.1014110878109,334.81068629840075,338.2202221149812,341.3789541617564,344.3315284526112,347.1197996739245,349.7845465579012,352.36767619124697,354.915436867385,357.4837403528507,360.1482175913885,363.0262834682932,366.3362665516635,370.61719268719645,378.4961074056897,423.45023212538683,486.8205218194264,600.9529714569316,764.9014155942622,987.7228000087764,1270.3340604581097,1611.1295101124933,2005.783340294633,2448.109523634307,2930.7520950656008,3445.772723990111,3985.117642528406
H3,414284.45767729456,412476.0731398143,410780.61477962043,409188.51364791964,407691.46783364104,406281.78346934856,404952.33110529726,403696.50520199846,402508.1865185137,401381.7071896125,400311.81829970324,399293.6597751703,398322.73242948885,397297.4157243838,396213.29784097895,395066.7529577461,393854.87380295695,392575.41024491994,391226.71340126725,389807.6847850594,388317.73003760376,386756.7168257659,385124.9365052987,383423.06917141634,381652.1517336081,379813.5486636601,377908.9250742447,375940.2217905794,373909.632080056,371819.57970514847,369672.69796441594,367471.8093865188,365219.90574485547,362920.1280682389,360575.74633902154,358190.1385977398,355766.76921633165,353333.7905887451,350920.03683012526,348525.24962798663,346149.1809310774,343791.5922750277,341452.2541557798,339130.9454473895,336827.4528610315,334541.5704422678,332273.09910384746,330021.84619150235,327787.6250803841,325570.25479995477
S4,410327.61690666684,417048.2460510844,423764.96040621464,430472.83172302775,437168.7246149096,443850.72753753536,450517.75710114866,457169.28667063755,463805.15982891875,470425.4620846737,477030.30325737456,483620.1737443536,500291.5263714254,517100.3859589988,534047.1769747079,551132.0606660609,568354.9079893841,585715.2719655441,603212.3594525396,620845.0024285414,638611.6290000349,656510.2344926652,674538.3531508425,692693.0311681448,710970.8019926624,729367.6650914096,747879.0695940661,766499.9044194501,785224.4965102451,804046.6184173016,822959.5050851428,841955.8756663486,861027.9444422051,880167.3663552441,899364.9051052355,918608.6713748628,933949.7467387505,944446.3041453512,955020.3247076373,965118.4439155667,975040.2441224919,984639.9324699462,993981.8881481694,1003075.1522301012,1011944.4833628726,1020613.4178033188,1029105.0153189393,1037441.0274524578,1045641.5696766359,1053724.9978852852
E4,0.0,117.51162831399708,182.79797388639406,214.2283342065665,224.15811896967995,220.84799482932786,209.77471445298275,194.5272761742343,177.41952690002208,159.90853049251052,142.87978527224192,126.84113432790693,112.05425373619539,99.27564289120008,88.22243626105303,78.65336165586692,70.36287045668772,63.17606047816751,56.94431922759587,51.54161786338942,46.86139294250238,42.81396374051418,39.324448045587886,36.331160659692294,33.784510359159675,31.646460860623275,29.890705886125197,28.503862455653568,27.48828720971724,26.867751101835495,26.69864057761728,27.092936925391562,28.26934436445447,30.682544219849262,35.421577428598255,45.93574047053853,84.65693382322135,485.66894991831794,689.2648133429128,1257.332211478973,1825.567181441099,2508.9424479557333,3216.8530917614466,3920.722131631568,4588.2620342448445,5196.07118405353,5728.089578392398,6174.765229189743,6531.927449419887,6799.648506935087
I4,0.0,0.0,23.214129738139512,53.754023437657274,83.17333211405548,107.4936109771593,125.32311612664977,136.68604105849025,142.309770518959,143.20421161353565,140.4247330823576,134.94834315753252,127.61789123383274,119.12563630903742,110.14713979416408,101.13994897969468,92.40413708570475,84.12715414129833,76.41691067713444,69.32606066841078,62.869724452253735,57.0383421418957,51.80693201946028,47.14171518476226,43.004833916297436,39.357719722898004,36.16354657815309,33.389129962244716,31.006605865714292,28.99526318984116,27.3440573923098,26.055733622969136,25.15449982054107,24.70195849271658,24.83474870959923,25.871853491427625,28.737099869377467,38.563962503246735,125.25130394022432,231.35353959037627,424.2115395137936,683.0370236821184,1014.743474926443,1406.6863638745062,1843.6105366777274,2307.5437545531877,2780.2041851108456,3244.5250221741107,3685.648521575949,4091.4588889065158
A4,0.0,0.0,2.579347748682168,6.075855005373009,9.562964558167376,12.570624216348685,14.904109421383122,16.527852840452017,17.49217796528658,17.888132119783165,17.82053572933549,17.39268205807894,16.69835320622647,15.818319001404348,14.833800628511732,13.80356658760232,12.769336090278596,11.759972961726705,10.794729339810115,9.885745019955136,9.039965595930742,8.26060853648369,7.5482793642576524,6.901818856299126,6.31894565589067,5.796746153552667,5.33205456244189,4.921760823043451,4.563083120777138,4.253847718833574,3.9928373836570454,3.7803159897126415,3.61895259609731,3.515682959464712,3.486035846295601,3.566338488403522,3.8613639417523897,4.947305144327838,14.618165955280237,26.823771844885574,49.057234825431905,79.31670760495977,118.5243226897384,165.42903738726375,218.40275497215853,275.4342881717258,334.40101895730874,393.25233055741006,450.1380566571525,503.4865102958771
IH4,0.0,0.0,0.0,0.9285651895255805,3.0231078940489735,6.168966202852562,10.099208313611102,14.507221071751605,19.105724258714346,23.65374025785023,27.965121563646004,31.907085090079896,35.393881383745054,38.378611098695686,40.84487437719423,42.80427611958384,44.286028019563176,45.32959500795447,45.97957618732007,46.28221573073997,46.28309408486864,46.02566637960799,45.55040251916641,44.894349114761425,44.090982642174296,43.170260129160376,42.15880152890388,41.080159299233756,39.95514779653718,38.80222010012933,37.63789556200369,36.47726229347832,35.33461447984939,34.22435844570214,33.16250172086698,32.169558595587816,31.277573937274553,30.553626304409224,30.266115440061572,33.46331926023429,40.71310971374968,55.24297974783765,79.25557408926701,115.09814505265946,164.4715704972992,228.36464471365085,306.9880466677667,399.80856300027517,505.64224596455506,622.78175291936
IN4,0.0,0.0,0.0,4.642825947627903,14.938415181721194,30.10841385318806,48.65509446466059,68.9492285226929,89.52616730361348,109.21034354034624,127.14343230613693,142.7623386613978,155.7545791186165,166.0068781577753,173.55551839058796,178.56833730741425,181.28822588352932,181.9942749911937,180.97570146783767,178.51494739521593,174.87729303321947,170.3050327585103,165.01479271810953,159.19696315773353,153.0165113384299,146.6146584213218,140.1110655490575,133.60629623527592,127.18441713238117,120.9156796024262,114.85930484791922,109.06649869786513,103.58399543003823,98.45878875122715,93.74558527477542,89.5210556052204,85.91814962346706,83.2415472711562,82.79275044811055,99.72542512335158,136.2183478888229,207.704846700248,323.94740101184243,495.134004394911,727.9248416872499,1025.2760553870205,1386.2594991427015,1806.3816621496144,2278.1762479098043,2791.9374595434683
D4,0.0,0.0,0.0,0.0,0.0009285651895255806,0.003951673083574554,0.010120639286427115,0.02021984760003822,0.034727068671789825,0.05383279293050417,0.0774865331883544,0.1054516547520004,0.1373587398420803,0.17275262122582535,0.21113123232452102,0.2519761067017153,0.2947803828212991,0.33906641084086225,0.3843960058488167,0.4303755820361368,0.4766577977668768,0.5229408918517454,0.5689665582313534,0.6145169607505199,0.6594113098652813,0.7035022925074556,0.7466725526366159,0.7888313541655197,0.8299115134647534,0.8698666612612906,0.90866888136142,0.9463067769234237,0.982784039216902,1.0181186536967515,1.0523430121424535,1.0855055138633205,1.1176750724589084,1.148952646396183,1.1795062727005923,1.209772388140654,1.2432357074008882,1.2839488171146378,1.3391917968624756,1.4184473709517427,1.533545516004402,1.6980170865017012,1.9263817312153522,2.233369777883119,2.633178340883394,3.138820586847949
R4,0.0,0.0,0.0,0.5158577251615192,2.2409059937582416,5.7961746848387605,11.625616846334047,19.971672251200935,30.89186771528302,44.29327008288998,59.97170147719419,77.64882786439603,97.00394306409436,117.6994084152459,139.39987029093044,161.78881043063836,184.57860347100114,207.5155029267317,230.38122335040322,252.99231324731704,275.1981652843706,296.87825571581936,317.93901990229864,338.31063741829746,357.943905136478,376.8073098869308,394.88436648934544,412.1712568786288,428.67478811750465,444.4106793093302,459.40218959016005,473.6791140595889,487.2772098159997,500.23819180016346,512.6106181561074,524.4524593276535,535.8376765954841,546.8761080619671,557.8266514726336,570.6503859840288,587.7636903474934,613.3285999462308,652.8100719043927,712.9443971498199,801.3548126942312,926.092131774934,1095.1530174665415,1316.0310252947172,1595.3376166430276,1938.5124487379635
G4,0.0,0.0,23.214129738139512,59.32541457481076,101.64568887624672,145.92756744672386,189.55553923073256,230.996012032969,269.4243913474754,304.4731773666022,336.0627096226727,364.2882556376134,389.3454060717214,411.48144504304594,431.09310124234156,448.52122397847154,464.0589998396083,477.959009795771,490.4392833255187,501.6884918793073,511.87041022356885,521.1277617817517,529.5855537733712,537.3540006233436,544.5311309992218,551.2051769457337,557.4568565344842,563.3616910973326,568.992558191741,574.4228009236392,579.7304582916697,585.0047082964834,590.356850563568,595.9413891926733,602.0026494478079,609.0000939199401,618.0745851358326,634.7983517383525,730.7410441761093,866.9035927719151,1115.2864421970228,1475.9226958486581,1971.558032776691,2607.0393557071006,3381.568255840203,4287.968002518318,5314.438934168741,6446.008775658609,7665.818280382234,8956.184292891028
H4,207142.22883864728,210594.5993192914,214031.89992878985,217455.07171862002,220864.97599901934,224262.404897633,227648.08642654424,231022.68918575504,234386.82672910503,237741.0616167593,241085.90917667275,244421.84099583694,237653.21108548596,230859.39948543272,224043.44827724475,217208.72330343095,210358.95109616994,203498.25683709714,196631.20324955435,189762.83022475473,182898.69485702325,176044.9114054468,169208.19050445475,162395.87670870655,155615.98317360037,148877.22193885292,142189.0278991709,135561.57411831207,129005.77568366315,122533.27883135296,116156.4316345715,109888.2321955846,103742.25009077544,97732.51688493487,91873.38197107828,86179.33092945357,84581.63565243276,87546.35872923552,90490.80698414173,93415.14062439278,96319.51770462599,99204.09421238497,102069.0241480102,104914.45959930836,107740.55081136995,110547.44625187854,113335.29267223077,116104.23516476284,118854.41721635869,121585.98075869522
E_Om,0.0,0.0,0.0,0.0,0.0,0.0,0.0,0.0,0.0,0.0,0.7820780858186344,1.2022089823040663,1.399510656676799,1.483416128499302,1.4981144789404883,1.4724737654878521,1.4251481605958467,1.3680369380753132,1.3086173630477373,1.2515122765620086,1.1995410792984997,1.1544254003562162,1.1172677960102082,1.0888863275695961,1.0700651781015134,1.061768939072024,1.0653652294140064,1.0829091865153075,1.117571894174631,1.1743637253199362,1.2614683784382863,1.392925047799978,1.5946030513783636,1.9194634939688098,2.495250533862001,3.734016643606756,8.374085011839629,61.89203689990341,100.76274165015442,267.8893022342207,465.8593820876376,807.3652690042027,1255.974393226335,1835.8823335828208,2541.7548266316517,3366.4588021642967,4297.227656290978,5317.4802619212915,6408.097413490777,7548.590090875774
I_Om,0.0,0.0,0.0,0.0,0.0,0.0,0.0,0.0,0.0,10.0,7.6,5.9304975796015515,4.744671553176506,3.8824202278678217,3.243684537787562,2.7611490358784243,2.3893567952934864,2.0974456369753476,1.8643109767696036,1.6753904458359978,1.520529874600904,1.392569059776514,1.2864063504082155,1.1983822990188577,1.1258773315016233,1.0670554849487537,1.020711980194025,0.9862013547878884,0.9634390445453143,0.9529872203986662,0.9562629189598225,0.9759597573242659,1.0168982923752174,1.0878525667320893,1.2059531872408233,1.4094549556750562,1.8088314619155312,3.028991565692328,14.52865145716356,30.947203965829893,76.44074001053872,150.12432401820664,273.58748596490506,456.0411051416454,709.2652261949595,1041.1589125879025,1456.316332283808,1955.7070421069036,2536.7923448501006,3193.865879156132
A_Om,0.0,0.0,0.0,0.0,0.0,0.0,0.0,0.0,0.0,0.0,0.0,0.017166397733505617,0.04012135162534183,0.0628161371689881,0.0828137715502732,0.09913459545899175,0.1116285228355253,0.12058493807149796,0.12649653577675501,0.12992159779974521,0.1314082222613487,0.13145677523628066,0.13050534116083543,0.12892859039774365,0.12704421717433692,0.12512359093038622,0.12340498097771832,0.12210902271551946,0.12145733517200648,0.12169681899828125,0.12313497214746318,0.12619742431065878,0.131532837624274,0.14022796914757601,0.15431471111616085,0.1782225355856673,0.2245394783437326,0.3634414625526694,1.6492679325365507,3.53113622441204,8.705021278137776,17.18954155253423,31.47315645685698,52.746960094112055,82.49491947211013,121.78712939250065,171.3231016835362,231.38222558928743,301.8240626309889,382.1166001062704
IH_Om,0.0,0.0,0.0,0.0,0.0,0.0,0.0,0.0,0.0,0.0,0.4,0.6800412155828008,0.8765287165694666,1.0138141723070964,1.108386593438292,1.1717449863420395,1.212006983977919,1.2349857206864914,1.2449116545648873,1.2449176687602244,1.2373665014861928,1.2240732033347996,1.206457700751938,1.1856508048663026,1.1625692167573805,1.1379699469315399,1.112491224750029,1.0866848604082602,1.0610437938498862,1.0360280568465572,1.0120926135021127,0.9897218584176634,0.9694789171135875,0.9520860078782356,0.938573052024053,0.9305935059805934,0.931231981233009,0.9478072740077227,1.0121961612679051,1.5327147455151113,2.6787979487461597,5.575975692789596,11.246964654670137,21.516805089493587,38.469658058944226,64.53605149664855,102.316894637801,154.44107687699238,223.41880739612864,311.50839358725364
IN_Om,0.0,0.0,0.0,0.0,0.0,0.0,0.0,0.0,0.0,0.0,4.0,6.647811743474257,8.346336580813219,9.37556298248641,9.93177720995656,10.154868870978877,10.145038582902492,9.974398759777127,9.69506335253443,9.344818069627992,8.95111824747745,8.533926542791725,8.10774230241254,7.683065106161113,7.2674603835727085,6.866344162779297,6.4835694702567555,6.12187369315496,5.7832311499828855,5.469146400447765,5.180921052252479,4.91993155097574,4.687973253242925,4.487773065323508,4.323897810890861,4.204658859185806,4.146986795572903,4.193470862599757,4.537155200471534,7.692367261279157,14.599743220546976,32.08115893476406,66.06665662937324,127.23518255086302,227.48389811481667,380.43812049957717,600.3179237476933,901.0594173904728,1295.4450728645616,1794.3502178510184
D_Om,0.0,0.0,0.0,0.0,0.0,0.0,0.0,0.0,0.0,0.0,0.0,0.0004,0.0010800412155828009,0.0019565699321522677,0.0029703841044593643,0.004078770697897656,0.005250515684239696,0.006462522668217615,0.007697508388904107,0.008942420043468995,0.01018733771222922,0.011424704213715412,0.01264877741705021,0.013855235117802147,0.015040885922668452,0.01620345513942583,0.01734142508635737,0.0184539163111074,0.019540601171515664,0.020601644965365547,0.021637673022212107,0.022649765635714223,0.02363948749413189,0.024608966411245475,0.02556105241912371,0.02649962547114776,0.02743021897712835,0.02836145095836136,0.029309258232369087,0.03032145439363699,0.0318541691391521,0.034532967087898256,0.040108942780687856,0.051355907435358,0.07287271252485157,0.11134237058379581,0.1758784220804444,0.2781953167182454,0.43263639359523776,0.6560552009913664
R_Om,0.0,0.0,0.0,0.0,0.0,0.0,0.0,0.0,0.0,0.0,0.0,0.4157470409429419,1.1110310271211983,1.9890137891912514,2.9805337274786705,4.036158301201331,5.120652064079775,6.209052033578086,7.283865889143845,8.3330586279028,9.348596195867716,10.325385229394083,11.260496616605074,12.152594108245022,13.001512441728266,13.8079456509208,14.573217653608413,15.299115388050765,15.987770811292908,16.64158281196768,17.26317426984172,17.855383977679608,18.421299338050837,18.96434667880649,19.488479575843762,19.998566397081067,20.50127367345373,21.007627153778394,21.547294254846346,22.381610305362237,23.93230762920544,27.262506996441054,34.174207975101716,47.60874874182305,71.90020948576883,112.96868949582726,178.42737517176823,277.57677423372604,421.2944991910556,621.8312029902783
G_Om,0.0,0.0,0.0,0.0,0.0,0.0,0.0,0.0,0.0,0.0,0.0,0.15449757960155056,0.39199097228087787,0.6684608197345556,0.9615059843425731,1.2574547715024507,1.5483382995283343,1.8298727720806327,2.100125064748972,2.358639168240071,2.605872304005617,2.8428386590854435,3.0708925240635088,3.2916059967721223,3.506712781019414,3.718101494026934,3.927851305659906,4.138311555500335,4.352237570406855,4.573011116951083,4.805003748407918,5.054203687322719,5.329372564131495,5.644382428658419,6.0235676651828545,6.516498198554884,7.254143894157373,8.908423548793898,21.135041416031285,41.040470274416876,93.96133527092489,185.99069688112212,345.48369659219014,593.5983124005077,956.2722986878167,1458.3896393675502,2123.425198084552,2972.331827655761,4022.7868205046143,5288.6905175746715
beta,1.0,0.9999999999999984,0.9981416173145554,0.9967381300249494,0.9956620919975492,0.9948252206676516,0.9941655894524597,0.9936392319435068,0.99321454265722,0.9928685063644253,0.9925841370777454,0.9923470709806594,0.9921497185148502,1.0287655168568595,1.068154688016172,1.1107144134679665,1.1569193416051693,1.207341366583584,1.2626758026034972,1.3237764928984557,1.3917036160259688,1.4677898802945726,1.5537339126786198,1.6517348234351257,1.7646907943314074,1.89650027542278,2.052533454876739,2.240397964724811,2.471237895409974,2.7620563374573393,3.1401444668936405,3.6522429773393066,4.385612266314216,5.524062597320672,7.5324655626884125,12.025889673139877,31.0825249163044,244.75941010476603,139.5615670658286,105.97992603081802,67.75471459853365,47.62018475714576,34.331928323797534,25.864946687484778,20.197346979418747,16.265310436271143,13.442625712537543,11.35458697948465,9.769084689486226,8.537534334749967
