series,2021-12-01,2021-12-02,2021-12-03,2021-12-04,2021-12-05,2021-12-06,2021-12-07,2021-12-08,2021-12-09,2021-12-10,2021-12-11,2021-12-12,2021-12-13,2021-12-14,2021-12-15,2021-12-16,2021-12-17,2021-12-18,2021-12-19,2021-12-20,2021-12-21,2021-12-22,2021-12-23,2021-12-24,2021-12-25,2021-12-26,2021-12-27,2021-12-28,2021-12-29,2021-12-30,2021-12-31,2022-01-01,2022-01-02,2022-01-03,2022-01-04,2022-01-05,2022-01-06,2022-01-07,2022-01-08,2022-01-09,2022-01-10,2022-01-11,2022-01-12,2022-01-13,2022-01-14,2022-01-15,2022-01-16,2022-01-17
S,531167.0480603876,531167.0480603876,531163.2733960671,531161.0134833086,531159.0528651766,531157.0100472139,540926.805264691,550696.2061614856,560465.1258827719,570233.450504276,580001.0335116567,589767.6862690065,599533.1643212194,609297.1482804306,619059.2171170535,628818.8105015901,638575.175108095,648327.2870929567,658073.7386714529,667812.5697629262,677541.0142121718,687255.1108385784,696949.0965856292,706614.4414169188,716238.2818402349,725800.8230232259,725498.8747048827,725090.7868894623,724530.4385547679,723763.4747019446,722718.8822919409,721305.0815848458,719406.7790354989,716883.4435441433,713570.9739804973,709288.3535668747,703850.6131980803,697087.9071972927,688868.1115030997,679118.1052021622,667838.2536812895,655106.3214405829,641070.3189201865,625932.8778779693,609931.3183734606,593317.4486744872,576339.9893425377,559231.1161527107
E,0.0,0.0,0.0,0.0,0.0,0.0,0.0,0.0,0.0,0.0,0.0,0.0,0.0,0.0,0.0,0.0,0.0,0.0,0.0,0.0,0.0,0.0,0.0,0.0,0.0,0.0,0.0,0.0,0.0,0.0,0.0,0.0,0.0,0.0,0.0,0.0,0.0,0.0,0.0,0.0,0.0,0.0,0.0,0.0,0.0,0.0,0.0,0.0
I,0.0,0.0,0.0,0.0,0.0,0.0,0.0,0.0,0.0,0.0,0.0,0.0,0.0,0.0,0.0,0.0,0.0,0.0,0.0,0.0,0.0,0.0,0.0,0.0,0.0,0.0,0.0,0.0,0.0,0.0,0.0,0.0,0.0,0.0,0.0,0.0,0.0,0.0,0.0,0.0,0.0,0.0,0.0,0.0,0.0,0.0,0.0,0.0
A,0.0,0.0,0.0,0.0,0.0,0.0,0.0,0.0,0.0,0.0,0.0,0.0,0.0,0.0,0.0,0.0,0.0,0.0,0.0,0.0,0.0,0.0,0.0,0.0,0.0,0.0,0.0,0.0,0.0,0.0,0.0,0.0,0.0,0.0,0.0,0.0,0.0,0.0,0.0,0.0,0.0,0.0,0.0,0.0,0.0,0.0,0.0,0.0
IH,0.0,0.0,0.0,0.0,0.0,0.0,0.0,0.0,0.0,0.0,0.0,0.0,0.0,0.0,0.0,0.0,0.0,0.0,0.0,0.0,0.0,0.0,0.0,0.0,0.0,0.0,0.0,0.0,0.0,0.0,0.0,0.0,0.0,0.0,0.0,0.0,0.0,0.0,0.0,0.0,0.0,0.0,0.0,0.0,0.0,0.0,0.0,0.0
IN,0.0,0.0,0.0,0.0,0.0,0.0,0.0,0.0,0.0,0.0,0.0,0.0,0.0,0.0,0.0,0.0,0.0,0.0,0.0,0.0,0.0,0.0,0.0,0.0,0.0,0.0,0.0,0.0,0.0,0.0,0.0,0.0,0.0,0.0,0.0,0.0,0.0,0.0,0.0,0.0,0.0,0.0,0.0,0.0,0.0,0.0,0.0,0.0
D,10054.0,10054.0,10054.0,10054.0,10054.0,10054.0,10054.0,10054.0,10054.0,10054.0,10054.0,10054.0,10054.0,10054.0,10054.0,10054.0,10054.0,10054.0,10054.0,10054.0,10054.0,10054.0,10054.0,10054.0,10054.0,10054.0,10054.0,10054.0,10054.0,10054.0,10054.0,10054.0,10054.0,10054.0,10054.0,10054.0,10054.0,10054.0,10054.0,10054.0,10054.0,10054.0,10054.0,10054.0,10054.0,10054.0,10054.0,10054.0
R,0.0,0.0,0.0,0.0,0.0,0.0,0.0,0.0,0.0,0.0,0.0,0.0,0.0,0.0,0.0,0.0,0.0,0.0,0.0,0.0,0.0,0.0,0.0,0.0,0.0,0.0,0.0,0.0,0.0,0.0,0.0,0.0,0.0,0.0,0.0,0.0,0.0,0.0,0.0,0.0,0.0,0.0,0.0,0.0,0.0,0.0,0.0,0.0
G,771709.0,771709.0,771709.0,771709.0,771709.0,771709.0,771709.0,771709.0,771709.0,771709.0,771709.0,771709.0,771709.0,771709.0,771709.0,771709.0,771709.0,771709.0,771709.0,771709.0,771709.0,771709.0,771709.0,771709.0,771709.0,771709.0,771709.0,771709.0,771709.0,771709.0,771709.0,771709.0,771709.0,771709.0,771709.0,771709.0,771709.0,771709.0,771709.0,771709.0,771709.0,771709.0,771709.0,771709.0,771709.0,771709.0,771709.0,771709.0
H,195441.17546615677,195441.17546615677,195441.17546615677,195441.17546615677,195441.17546615677,195441.17546615674,188534.69702535908,181723.20235825973,175011.9975946921,168406.68723459615,161913.19417009866,155537.77748208254,149287.04689092896,143167.97241292155,137187.8873832587,131354.48255433136,125675.78847297217,120160.14280549242,114816.13875766736,109652.55030027419,104678.2296686056,99901.97271029073,95332.34830913124,90977.4895476681,86844.84672541067,82940.90600367618,82940.90600367618,82940.9060036762,82940.9060036762,82940.90600367621,82940.90600367621,82940.9060036762,82940.9060036762,82940.9060036762,82940.9060036762,82940.9060036762,82940.9060036762,82940.9060036762,82940.9060036762,82940.9060036762,82940.9060036762,82940.90600367621,82940.90600367621,82940.90600367621,82940.90600367621,82940.90600367621,82940.9060036762,82940.9060036762
S0,185908.46682113566,185490.1727707881,184820.79776156181,184154.48012367432,183490.69004977494,182829.2561397903,185521.6517181223,188141.36677715534,190686.22529805911,193153.89664105957,195541.89001300774,197847.54888552867,200068.0459611708,202200.37899274816,204241.3675767779,206187.65079543414,208035.6851436136,209781.74138580394,211421.89758687353,212952.02312852858,214367.74433967724,215664.37518965968,216836.78412280293,217879.1465961921,218784.4949438344,219543.90919706228,218637.4907105202,217694.06665194037,216696.44708803765,215624.56518534577,214452.35009979454,213146.38359937223,211664.89216876362,209957.4003294188,207965.62671840735,205626.26901012106,202876.11675642073,199659.33282687864,195935.83601481878,191688.90041721193,186929.91297642156,181698.95660771136,176061.18037712004,170100.09490024246,163909.48749520245,157585.54395497986,151220.26593230426,144896.69702203944
E0,0.0,0.0,0.0,0.0,0.0,0.0,0.0,0.0,0.0,0.0,0.0,0.0,0.0,0.0,0.0,0.0,0.0,0.0,0.0,0.0,0.0,0.0,0.0,0.0,0.0,0.0,0.0,0.0,0.0,0.0,0.0,0.0,0.0,0.0,0.0,0.0,0.0,0.0,0.0,0.0,0.0,0.0,0.0,0.0,0.0,0.0,0.0,0.0
I0,0.0,0.0,0.0,0.0,0.0,0.0,0.0,0.0,0.0,0.0,0.0,0.0,0.0,0.0,0.0,0.0,0.0,0.0,0.0,0.0,0.0,0.0,0.0,0.0,0.0,0.0,0.0,0.0,0.0,0.0,0.0,0.0,0.0,0.0,0.0,0.0,0.0,0.0,0.0,0.0,0.0,0.0,0.0,0.0,0.0,0.0,0.0,0.0
A0,0.0,0.0,0.0,0.0,0.0,0.0,0.0,0.0,0.0,0.0,0.0,0.0,0.0,0.0,0.0,0.0,0.0,0.0,0.0,0.0,0.0,0.0,0.0,0.0,0.0,0.0,0.0,0.0,0.0,0.0,0.0,0.0,0.0,0.0,0.0,0.0,0.0,0.0,0.0,0.0,0.0,0.0,0.0,0.0,0.0,0.0,0.0,0.0
IH0,0.0,0.0,0.0,0.0,0.0,0.0,0.0,0.0,0.0,0.0,0.0,0.0,0.0,0.0,0.0,0.0,0.0,0.0,0.0,0.0,0.0,0.0,0.0,0.0,0.0,0.0,0.0,0.0,0.0,0.0,0.0,0.0,0.0,0.0,0.0,0.0,0.0,0.0,0.0,0.0,0.0,0.0,0.0,0.0,0.0,0.0,0.0,0.0
IN0,0.0,0.0,0.0,0.0,0.0,0.0,0.0,0.0,0.0,0.0,0.0,0.0,0.0,0.0,0.0,0.0,0.0,0.0,0.0,0.0,0.0,0.0,0.0,0.0,0.0,0.0,0.0,0.0,0.0,0.0,0.0,0.0,0.0,0.0,0.0,0.0,0.0,0.0,0.0,0.0,0.0,0.0,0.0,0.0,0.0,0.0,0.0,0.0
D0,10054.0,10054.0,10054.0,10054.0,10054.0,10054.0,10054.0,10054.0,10054.0,10054.0,10054.0,10054.0,10054.0,10054.0,10054.0,10054.0,10054.0,10054.0,10054.0,10054.0,10054.0,10054.0,10054.0,10054.0,10054.0,10054.0,10054.0,10054.0,10054.0,10054.0,10054.0,10054.0,10054.0,10054.0,10054.0,10054.0,10054.0,10054.0,10054.0,10054.0,10054.0,10054.0,10054.0,10054.0,10054.0,10054.0,10054.0,10054.0
R0,0.0,0.0,0.0,0.0,0.0,0.0,0.0,0.0,0.0,0.0,0.0,0.0,0.0,0.0,0.0,0.0,0.0,0.0,0.0,0.0,0.0,0.0,0.0,0.0,0.0,0.0,0.0,0.0,0.0,0.0,0.0,0.0,0.0,0.0,0.0,0.0,0.0,0.0,0.0,0.0,0.0,0.0,0.0,0.0,0.0,0.0,0.0,0.0
G0,771709.0,771709.0,771709.0,771709.0,771709.0,771709.0,771709.0,771709.0,771709.0,771709.0,771709.0,771709.0,771709.0,771709.0,771709.0,771709.0,771709.0,771709.0,771709.0,771709.0,771709.0,771709.0,771709.0,771709.0,771709.0,771709.0,771709.0,771709.0,771709.0,771709.0,771709.0,771709.0,771709.0,771709.0,771709.0,771709.0,771709.0,771709.0,771709.0,771709.0,771709.0,771709.0,771709.0,771709.0,771709.0,771709.0,771709.0,771709.0
H0,68404.41141315487,68250.50148747527,68004.79968212036,67759.98240326472,67516.04646661296,67272.98869933315,63679.26564301476,60161.30294611507,56721.22992525834,53361.31971435078,50083.9927103549,46891.81846615653,43787.51541844715,40773.94768788054,37854.1180151074,35031.15570283756,32308.298228806438,29688.86499260967,27176.22148623202,24773.732072765568,22484.699576094074,20312.29010047074,18259.442003786655,16328.758840999579,14522.387463519328,12841.884353345953,12795.653569673908,12749.589216823082,12703.69069564252,12657.957409138206,12612.388762465309,12566.984162920433,12521.74301993392,12476.664745062157,12431.748751979932,12386.994456472805,12342.401276429502,12297.968631834356,12253.695944759753,12209.582639358618,12165.628141856927,12121.831880546242,12078.193285776275,12034.71178994748,11991.38682750367,11948.217834924657,11905.204250718929,11862.34551541634
S1,53116.70480603876,49740.948513097836,46855.37997929055,44173.69105399483,41681.194099181244,39364.345670917275,37895.19140255967,36493.96764095152,35158.666816021716,33887.170610920264,32677.2748881944,31526.71143600531,30433.166957506513,29394.299620298432,28407.753420859615,27471.170563951146,26582.201991769496,25738.51610749174,24937.805603294022,24177.7920929479,23456.227911957933,22770.893895197216,22119.591017685576,21500.12221006419,20910.257927110026,20347.67420811943,19674.18323729523,19042.304861158125,18447.627524242405,17885.84463094993,17352.492943654433,16842.86574192984,16351.958826326567,15874.468108663123,15404.873949206265,14937.647574757531,14467.596552376757,13990.324249327878,13502.721487958366,13003.365470619116,12492.70472286537,11972.968489456085,11447.825844374856,10921.888034399964,10400.16989745993,9887.606714063251,9388.68343670906,8907.194468120022
E1,0.0,0.0,0.0,0.0,0.0,0.0,0.0,0.0,0.0,0.0,0.0,0.0,0.0,0.0,0.0,0.0,0.0,0.0,0.0,0.0,0.0,0.0,0.0,0.0,0.0,0.0,0.0,0.0,0.0,0.0,0.0,0.0,0.0,0.0,0.0,0.0,0.0,0.0,0.0,0.0,0.0,0.0,0.0,0.0,0.0,0.0,0.0,0.0
I1,0.0,0.0,0.0,0.0,0.0,0.0,0.0,0.0,0.0,0.0,0.0,0.0,0.0,0.0,0.0,0.0,0.0,0.0,0.0,0.0,0.0,0.0,0.0,0.0,0.0,0.0,0.0,0.0,0.0,0.0,0.0,0.0,0.0,0.0,0.0,0.0,0.0,0.0,0.0,0.0,0.0,0.0,0.0,0.0,0.0,0.0,0.0,0.0
A1,0.0,0.0,0.0,0.0,0.0,0.0,0.0,0.0,0.0,0.0,0.0,0.0,0.0,0.0,0.0,0.0,0.0,0.0,0.0,0.0,0.0,0.0,0.0,0.0,0.0,0.0,0.0,0.0,0.0,0.0,0.0,0.0,0.0,0.0,0.0,0.0,0.0,0.0,0.0,0.0,0.0,0.0,0.0,0.0,0.0,0.0,0.0,0.0
IH1,0.0,0.0,0.0,0.0,0.0,0.0,0.0,0.0,0.0,0.0,0.0,0.0,0.0,0.0,0.0,0.0,0.0,0.0,0.0,0.0,0.0,0.0,0.0,0.0,0.0,0.0,0.0,0.0,0.0,0.0,0.0,0.0,0.0,0.0,0.0,0.0,0.0,0.0,0.0,0.0,0.0,0.0,0.0,0.0,0.0,0.0,0.0,0.0
IN1,0.0,0.0,0.0,0.0,0.0,0.0,0.0,0.0,0.0,0.0,0.0,0.0,0.0,0.0,0.0,0.0,0.0,0.0,0.0,0.0,0.0,0.0,0.0,0.0,0.0,0.0,0.0,0.0,0.0,0.0,0.0,0.0,0.0,0.0,0.0,0.0,0.0,0.0,0.0,0.0,0.0,0.0,0.0,0.0,0.0,0.0,0.0,0.0
D1,0.0,0.0,0.0,0.0,0.0,0.0,0.0,0.0,0.0,0.0,0.0,0.0,0.0,0.0,0.0,0.0,0.0,0.0,0.0,0.0,0.0,0.0,0.0,0.0,0.0,0.0,0.0,0.0,0.0,0.0,0.0,0.0,0.0,0.0,0.0,0.0,0.0,0.0,0.0,0.0,0.0,0.0,0.0,0.0,0.0,0.0,0.0,0.0
R1,0.0,0.0,0.0,0.0,0.0,0.0,0.0,0.0,0.0,0.0,0.0,0.0,0.0,0.0,0.0,0.0,0.0,0.0,0.0,0.0,0.0,0.0,0.0,0.0,0.0,0.0,0.0,0.0,0.0,0.0,0.0,0.0,0.0,0.0,0.0,0.0,0.0,0.0,0.0,0.0,0.0,0.0,0.0,0.0,0.0,0.0,0.0,0.0
G1,0.0,0.0,0.0,0.0,0.0,0.0,0.0,0.0,0.0,0.0,0.0,0.0,0.0,0.0,0.0,0.0,0.0,0.0,0.0,0.0,0.0,0.0,0.0,0.0,0.0,0.0,0.0,0.0,0.0,0.0,0.0,0.0,0.0,0.0,0.0,0.0,0.0,0.0,0.0,0.0,0.0,0.0,0.0,0.0,0.0,0.0,0.0,0.0
H1,19544.11754661568,18302.019076108445,17240.433804598466,16253.79152598278,15336.742353635764,14484.318524227301,13007.311748080803,11669.547641553503,10458.242703267866,9361.779268395447,8369.605086591535,7472.141241170536,6660.697669045172,5927.395591493525,5265.0962108988415,4667.335069061716,4128.261499634483,3642.5826422143623,3205.511520760248,2812.7187270731224,2460.287294683023,2144.6704039066553,1862.651629744568,1611.3075349556775,1387.972523635985,1190.2060047846064,1151.42207382918,1115.2419928350646,1081.480371670266,1049.9650601981316,1020.5362025711626,993.0453590752404,967.3546906992368,943.3362019496249,920.8710377497325,899.8488305604508,880.1670941351493,861.7306605777849,844.4511576111182,828.2465231828877,813.0405547429439,798.7624907148471,785.3466218623246,772.7319304152388,760.861754972247,749.6834793389569,739.148243591903,729.2106757807837
S2,53116.70480603876,56278.413425445826,59160.99919533093,61803.29065623452,64222.59916019992,66435.05520894405,69715.08006201511,72865.31511288809,75887.05438723919,78781.63441091705,81550.40177049358,84194.68469541814,86715.76854441846,89114.87507851672,91393.14541510437,93551.62654058955,95591.2611726421,97512.88054943689,99317.19928971131,101004.8106591381,102576.1791335801,104031.62461839184,105371.28827774717,106595.0622405242,107702.45190117788,108692.3153063865,108812.53149121493,108869.35553701027,108860.50375596755,108782.33750987322,108628.79815559633,108390.92509614132,108056.4748901482,107609.7531257568,107031.86050774658,106301.5819015279,105397.08395772697,104298.39072185165,102990.30101786299,101465.12772384833,99724.56244544112,97780.190729222,95652.59939842405,93369.40614081717,90962.73598329272,88466.65194835691,85914.90302042491,83339.17926306679
E2,0.0,0.0,0.0,0.0,0.0,0.0,0.0,0.0,0.0,0.0,0.0,0.0,0.0,0.0,0.0,0.0,0.0,0.0,0.0,0.0,0.0,0.0,0.0,0.0,0.0,0.0,0.0,0.0,0.0,0.0,0.0,0.0,0.0,0.0,0.0,0.0,0.0,0.0,0.0,0.0,0.0,0.0,0.0,0.0,0.0,0.0,0.0,0.0
I2,0.0,0.0,0.0,0.0,0.0,0.0,0.0,0.0,0.0,0.0,0.0,0.0,0.0,0.0,0.0,0.0,0.0,0.0,0.0,0.0,0.0,0.0,0.0,0.0,0.0,0.0,0.0,0.0,0.0,0.0,0.0,0.0,0.0,0.0,0.0,0.0,0.0,0.0,0.0,0.0,0.0,0.0,0.0,0.0,0.0,0.0,0.0,0.0
A2,0.0,0.0,0.0,0.0,0.0,0.0,0.0,0.0,0.0,0.0,0.0,0.0,0.0,0.0,0.0,0.0,0.0,0.0,0.0,0.0,0.0,0.0,0.0,0.0,0.0,0.0,0.0,0.0,0.0,0.0,0.0,0.0,0.0,0.0,0.0,0.0,0.0,0.0,0.0,0.0,0.0,0.0,0.0,0.0,0.0,0.0,0.0,0.0
IH2,0.0,0.0,0.0,0.0,0.0,0.0,0.0,0.0,0.0,0.0,0.0,0.0,0.0,0.0,0.0,0.0,0.0,0.0,0.0,0.0,0.0,0.0,0.0,0.0,0.0,0.0,0.0,0.0,0.0,0.0,0.0,0.0,0.0,0.0,0.0,0.0,0.0,0.0,0.0,0.0,0.0,0.0,0.0,0.0,0.0,0.0,0.0,0.0
IN2,0.0,0.0,0.0,0.0,0.0,0.0,0.0,0.0,0.0,0.0,0.0,0.0,0.0,0.0,0.0,0.0,0.0,0.0,0.0,0.0,0.0,0.0,0.0,0.0,0.0,0.0,0.0,0.0,0.0,0.0,0.0,0.0,0.0,0.0,0.0,0.0,0.0,0.0,0.0,0.0,0.0,0.0,0.0,0.0,0.0,0.0,0.0,0.0
D2,0.0,0.0,0.0,0.0,0.0,0.0,0.0,0.0,0.0,0.0,0.0,0.0,0.0,0.0,0.0,0.0,0.0,0.0,0.0,0.0,0.0,0.0,0.0,0.0,0.0,0.0,0.0,0.0,0.0,0.0,0.0,0.0,0.0,0.0,0.0,0.0,0.0,0.0,0.0,0.0,0.0,0.0,0.0,0.0,0.0,0.0,0.0,0.0
R2,0.0,0.0,0.0,0.0,0.0,0.0,0.0,0.0,0.0,0.0,0.0,0.0,0.0,0.0,0.0,0.0,0.0,0.0,0.0,0.0,0.0,0.0,0.0,0.0,0.0,0.0,0.0,0.0,0.0,0.0,0.0,0.0,0.0,0.0,0.0,0.0,0.0,0.0,0.0,0.0,0.0,0.0,0.0,0.0,0.0,0.0,0.0,0.0
G2,0.0,0.0,0.0,0.0,0.0,0.0,0.0,0.0,0.0,0.0,0.0,0.0,0.0,0.0,0.0,0.0,0.0,0.0,0.0,0.0,0.0,0.0,0.0,0.0,0.0,0.0,0.0,0.0,0.0,0.0,0.0,0.0,0.0,0.0,0.0,0.0,0.0,0.0,0.0,0.0,0.0,0.0,0.0,0.0,0.0,0.0,0.0,0.0
H2,19544.11754661568,20707.457876771372,21768.227597960413,22740.541588789347,23630.805964588246,24444.96844265046,23929.123539179574,23299.670347940308,22572.999020058178,21764.18663282151,20887.119329247627,19954.603486514097,18978.466433794976,17969.647090321145,16938.276738123648,15893.749982018497,14844.785785600996,13799.47831382064,12765.337173033382,11749.316538472205,10757.832626019628,9796.769039138026,8871.469751030329,7986.719919574244,7146.715426470935,6355.02300906258,6364.382687867878,6370.860661142964,6374.677224189005,6376.036807591774,6375.129111801262,6372.130160653949,6367.203279627728,6360.500004205915,6352.160923342722,6342.316462666004,6331.087611721917,6318.5865992586905,6304.917520261167,6290.176918182662,6274.454325574504,6257.832766085018,6240.389220587448,6222.195059999192,6203.316447171719,6183.81471006055,6163.746688226897,6143.1650545759985
S3,159350.11441811628,158654.5385218467,158001.5720217554,157388.6958891477,156812.44901615134,156269.78823907196,158623.52136096946,161091.58675796524,163676.7735579249,166382.15535597067,169211.10707344118,172167.3181407997,175254.8009043118,178477.89258241604,181841.24849472125,185349.82356027493,189008.83814396258,192823.72314141045,196800.0376130312,200943.35009957047,205259.07159537263,209752.2233030385,214427.11435602006,219286.89096240615,224332.8935625699,229563.71208678736,228871.70540232406,228161.47942223173,227421.44963164683,226638.1906141799,225794.42700594955,224868.12155542348,223831.74384364043,222651.91479255827,221289.78534032387,219702.55771074418,217846.44735935936,215681.03699279108,213174.43277537663,210308.12971720393,207080.35613042378,203507.05668784052,199620.4059630655,195465.42580043833,191095.6191005678,186568.50100815852,181941.6572679517,177269.65988391032
E3,0.0,0.0,0.0,0.0,0.0,0.0,0.0,0.0,0.0,0.0,0.0,0.0,0.0,0.0,0.0,0.0,0.0,0.0,0.0,0.0,0.0,0.0,0.0,0.0,0.0,0.0,0.0,0.0,0.0,0.0,0.0,0.0,0.0,0.0,0.0,0.0,0.0,0.0,0.0,0.0,0.0,0.0,0.0,0.0,0.0,0.0,0.0,0.0
I3,0.0,0.0,0.0,0.0,0.0,0.0,0.0,0.0,0.0,0.0,0.0,0.0,0.0,0.0,0.0,0.0,0.0,0.0,0.0,0.0,0.0,0.0,0.0,0.0,0.0,0.0,0.0,0.0,0.0,0.0,0.0,0.0,0.0,0.0,0.0,0.0,0.0,0.0,0.0,0.0,0.0,0.0,0.0,0.0,0.0,0.0,0.0,0.0
A3,0.0,0.0,0.0,0.0,0.0,0.0,0.0,0.0,0.0,0.0,0.0,0.0,0.0,0.0,0.0,0.0,0.0,0.0,0.0,0.0,0.0,0.0,0.0,0.0,0.0,0.0,0.0,0.0,0.0,0.0,0.0,0.0,0.0,0.0,0.0,0.0,0.0,0.0,0.0,0.0,0.0,0.0,0.0,0.0,0.0,0.0,0.0,0.0
IH3,0.0,0.0,0.0,0.0,0.0,0.0,0.0,0.0,0.0,0.0,0.0,0.0,0.0,0.0,0.0,0.0,0.0,0.0,0.0,0.0,0.0,0.0,0.0,0.0,0.0,0.0,0.0,0.0,0.0,0.0,0.0,0.0,0.0,0.0,0.0,0.0,0.0,0.0,0.0,0.0,0.0,0.0,0.0,0.0,0.0,0.0,0.0,0.0
IN3,0.0,0.0,0.0,0.0,0.0,0.0,0.0,0.0,0.0,0.0,0.0,0.0,0.0,0.0,0.0,0.0,0.0,0.0,0.0,0.0,0.0,0.0,0.0,0.0,0.0,0.0,0.0,0.0,0.0,0.0,0.0,0.0,0.0,0.0,0.0,0.0,0.0,0.0,0.0,0.0,0.0,0.0,0.0,0.0,0.0,0.0,0.0,0.0
D3,0.0,0.0,0.0,0.0,0.0,0.0,0.0,0.0,0.0,0.0,0.0,0.0,0.0,0.0,0.0,0.0,0.0,0.0,0.0,0.0,0.0,0.0,0.0,0.0,0.0,0.0,0.0,0.0,0.0,0.0,0.0,0.0,0.0,0.0,0.0,0.0,0.0,0.0,0.0,0.0,0.0,0.0,0.0,0.0,0.0,0.0,0.0,0.0
R3,0.0,0.0,0.0,0.0,0.0,0.0,0.0,0.0,0.0,0.0,0.0,0.0,0.0,0.0,0.0,0.0,0.0,0.0,0.0,0.0,0.0,0.0,0.0,0.0,0.0,0.0,0.0,0.0,0.0,0.0,0.0,0.0,0.0,0.0,0.0,0.0,0.0,0.0,0.0,0.0,0.0,0.0,0.0,0.0,0.0,0.0,0.0,0.0
G3,0.0,0.0,0.0,0.0,0.0,0.0,0.0,0.0,0.0,0.0,0.0,0.0,0.0,0.0,0.0,0.0,0.0,0.0,0.0,0.0,0.0,0.0,0.0,0.0,0.0,0.0,0.0,0.0,0.0,0.0,0.0,0.0,0.0,0.0,0.0,0.0,0.0,0.0,0.0,0.0,0.0,0.0,0.0,0.0,0.0,0.0,0.0,0.0
H3,58632.35263984703,58376.41776721278,58136.46497482852,57911.140000014006,57699.267899880426,57499.759786007475,57311.606650203255,57118.88044644179,56920.266804006445,56714.65742611661,56501.13274081351,56278.94615046444,56047.50973595479,55806.381279033674,55555.25247183126,55293.93818621033,55022.36667730166,54740.57059529558,54448.67867740408,54146.907988104686,53835.55657080467,53514.99636873868,53185.66626851273,52848.0651180731,52502.74457446504,52150.30164856439,51791.37083731519,51435.54254090742,51082.75659903252,50732.95597528093,50386.08654224397,50042.09688191338,49700.93810028617,49362.5636551603,49026.92919617928,48693.99241625091,48363.71291352817,48036.05206319784,47710.97289837666,47388.439999464725,47068.41939135231,46750.87844791931,46435.78580330672,46123.111269476634,45812.82575961194,45504.90121693864,45199.31054858392,44896.02756411032
S4,79675.05720905814,81002.97482920911,82324.52443812844,83640.85576025727,84952.12053986915,86258.56478849027,89171.36072102442,92103.96987252547,95056.40582352703,98028.59348540846,101020.35976651973,104031.42311125461,107061.38195381183,110109.70200645126,113175.70220959031,116258.53904134034,119357.18865610728,122470.42590881376,125596.79857854279,128734.59378274123,131881.7912315839,135035.99383229125,138194.31881137344,141353.2194077322,144508.18350554266,147653.21222487037,149502.9638635284,151323.58041712176,153104.41055487344,154832.53676159572,156490.81408694596,158056.78559197893,159501.70930662003,160789.90718774634,161878.82746481342,162720.29736972414,163263.36857219652,163458.82240644342,163264.82020708293,162652.5818732788,161610.71740613767,160147.14892635297,158288.30733720196,156076.06300207137,153563.30589693756,150809.14504892862,147874.4796851477,144818.38551557413
E4,0.0,0.0,0.0,0.0,0.0,0.0,0.0,0.0,0.0,0.0,0.0,0.0,0.0,0.0,0.0,0.0,0.0,0.0,0.0,0.0,0.0,0.0,0.0,0.0,0.0,0.0,0.0,0.0,0.0,0.0,0.0,0.0,0.0,0.0,0.0,0.0,0.0,0.0,0.0,0.0,0.0,0.0,0.0,0.0,0.0,0.0,0.0,0.0
I4,0.0,0.0,0.0,0.0,0.0,0.0,0.0,0.0,0.0,0.0,0.0,0.0,0.0,0.0,0.0,0.0,0.0,0.0,0.0,0.0,0.0,0.0,0.0,0.0,0.0,0.0,0.0,0.0,0.0,0.0,0.0,0.0,0.0,0.0,0.0,0.0,0.0,0.0,0.0,0.0,0.0,0.0,0.0,0.0,0.0,0.0,0.0,0.0
A4,0.0,0.0,0.0,0.0,0.0,0.0,0.0,0.0,0.0,0.0,0.0,0.0,0.0,0.0,0.0,0.0,0.0,0.0,0.0,0.0,0.0,0.0,0.0,0.0,0.0,0.0,0.0,0.0,0.0,0.0,0.0,0.0,0.0,0.0,0.0,0.0,0.0,0.0,0.0,0.0,0.0,0.0,0.0,0.0,0.0,0.0,0.0,0.0
IH4,0.0,0.0,0.0,0.0,0.0,0.0,0.0,0.0,0.0,0.0,0.0,0.0,0.0,0.0,0.0,0.0,0.0,0.0,0.0,0.0,0.0,0.0,0.0,0.0,0.0,0.0,0.0,0.0,0.0,0.0,0.0,0.0,0.0,0.0,0.0,0.0,0.0,0.0,0.0,0.0,0.0,0.0,0.0,0.0,0.0,0.0,0.0,0.0
IN4,0.0,0.0,0.0,0.0,0.0,0.0,0.0,0.0,0.0,0.0,0.0,0.0,0.0,0.0,0.0,0.0,0.0,0.0,0.0,0.0,0.0,0.0,0.0,0.0,0.0,0.0,0.0,0.0,0.0,0.0,0.0,0.0,0.0,0.0,0.0,0.0,0.0,0.0,0.0,0.0,0.0,0.0,0.0,0.0,0.0,0.0,0.0,0.0
D4,0.0,0.0,0.0,0.0,0.0,0.0,0.0,0.0,0.0,0.0,0.0,0.0,0.0,0.0,0.0,0.0,0.0,0.0,0.0,0.0,0.0,0.0,0.0,0.0,0.0,0.0,0.0,0.0,0.0,0.0,0.0,0.0,0.0,0.0,0.0,0.0,0.0,0.0,0.0,0.0,0.0,0.0,0.0,0.0,0.0,0.0,0.0,0.0
R4,0.0,0.0,0.0,0.0,0.0,0.0,0.0,0.0,0.0,0.0,0.0,0.0,0.0,0.0,0.0,0.0,0.0,0.0,0.0,0.0,0.0,0.0,0.0,0.0,0.0,0.0,0.0,0.0,0.0,0.0,0.0,0.0,0.0,0.0,0.0,0.0,0.0,0.0,0.0,0.0,0.0,0.0,0.0,0.0,0.0,0.0,0.0,0.0
G4,0.0,0.0,0.0,0.0,0.0,0.0,0.0,0.0,0.0,0.0,0.0,0.0,0.0,0.0,0.0,0.0,0.0,0.0,0.0,0.0,0.0,0.0,0.0,0.0,0.0,0.0,0.0,0.0,0.0,0.0,0.0,0.0,0.0,0.0,0.0,0.0,0.0,0.0,0.0,0.0,0.0,0.0,0.0,0.0,0.0,0.0,0.0,0.0
H4,29316.176319923514,29804.779258588907,30291.249406649014,30775.719948105918,31258.312781439367,31739.14001393837,30607.389444880675,29473.800976209055,28339.259142101284,27204.744192911807,26071.344303091097,24940.268137776933,23812.857633686875,22690.600764192655,21575.143947297554,20468.30361420325,19372.076281628608,18288.64626155216,17220.38990023762,16169.874973858612,15139.85360100421,14133.246798036635,13153.11865605695,12202.638134065503,11285.026737319386,10403.490987918663,10838.076834990034,11269.67159196766,11698.30111314189,12123.990751467161,12546.765384594502,12966.649439113202,13383.666913129147,13797.841397298198,14209.196094424533,14617.753837726026,15023.53710786145,15426.568048807518,15826.8684826675,16224.459923487306,16619.36359014951,17011.60041841078,17401.19107214344,17788.15595383766,18172.51521441663,18554.2887624134,18933.496272554552,19310.15719379275
E_Om,0.0,0.0,4.0394602498447405,5.642688446973776,6.599709352255008,7.44637746161295,8.350848546139796,9.483336684248748,10.887842804874554,12.627518270609617,14.786451896788176,17.475279713207968,20.839981471894504,25.07450865104648,30.438728298514018,37.28408861525568,46.09073088746585,57.52182687225442,72.50422250423377,92.34988029524592,118.9416441079735,155.02220473658588,204.6517595370456,273.94691939519953,372.29831205248036,514.4204538977745,723.8793584517553,999.8900599273227,1375.8558806974845,1886.4924139129369,2576.072081740926,3500.293270429212,4726.952558998709,6334.809259413894,8409.461597480766,11035.09382736052,14281.68792373113,18188.9052706044,22749.96154026255,27900.314125346362,33515.551120504846,39420.21465289724,45405.683838469675,51252.615505330934,56752.880628218285,61727.145963567964,66036.19827880446,69585.87312918995
I_Om,0.0,5.0,3.0001489089341646,2.527369699005135,2.5323041578469203,2.7075496294858583,2.965120869317401,3.2824958189197986,3.6768028214307833,4.166240520348668,4.773097267269061,5.525884558886052,6.461627042270194,7.628820149611984,9.091478083460645,10.934793011863675,13.273151119150274,16.261623432863026,20.112642577438542,25.12052695026717,31.698058240063414,40.43187074069048,52.16770670007024,68.14396079019707,90.20483014681147,121.14740591330607,165.29896016387477,229.49838176522795,317.7078967386211,438.31828573425844,602.6138314495162,825.3354417789647,1125.3550255794978,1526.2011540492022,2056.170065659736,2747.6498949833513,3635.229490361462,4752.261473674669,6125.898326060838,7771.21101779888,9685.623501966924,11845.193215511714,14203.967661171322,16696.817659881617,19245.177206562854,21764.436591488593,24171.54357130913,26391.602906458764
A_Om,0.0,0.0,0.0,0.08079900042770699,0.1904287337242191,0.3148082028758959,0.4511390436747117,0.6000985491173394,0.7657415665343629,0.952840585640393,1.16724003680195,1.4162321368378432,1.7090298830376476,2.0573970451940196,2.4765055037533448,2.9861171537175846,3.612231822058817,4.389411479621881,5.364098198375768,6.599412223581946,8.182186923587807,10.233437586166708,12.924190729198413,16.499833413122172,21.318266776608358,27.910885730612506,37.08211752510988,50.07553240266505,68.06916794400804,92.86200371281073,126.87532791773867,173.3189604679146,236.38820249277006,321.4663400478972,435.2963212896244,586.0630679446374,783.3074107317926,1037.5876763335436,1359.832429698672,1760.3966112612204,2247.9292171520447,2828.2441274195735,3503.412669607164,4271.250246953572,5125.27240693974,6055.091452108591,7047.148833520162,8085.644708315008
IH_Om,0.0,0.0,0.9998510910658351,1.0988661264334116,1.0537328673056756,1.0321981158122908,1.0564961500215997,1.1201274461265942,1.215345000810371,1.341708217932677,1.5026364267310675,1.704292879027268,1.9554544876958204,2.267904759015086,2.657221304775442,3.143978287312796,3.7554781100672785,4.528218502596394,5.511421419165569,6.772128813217437,8.40264953367017,10.531589740500573,13.340433295292222,17.088863906844363,22.15410579864054,29.093178361861185,38.74336919901167,52.38781036468646,72.03435885313988,99.47726250658519,137.28975723588695,189.01240823394,259.3597001003362,354.45798038248404,482.06931002326587,651.725362414969,874.6591049182757,1163.3925277967408,1530.8436352673239,1988.888199012455,2546.465974317025,3207.5227664031,3969.2397325181496,4821.021139223754,5744.555819384642,6714.995639420378,7703.021958557379,8677.396799823893
IN_Om,0.0,0.0,2.0,2.995401675493211,3.6006682581661997,4.0467636614718865,4.433771949061018,4.81258769185566,5.213467927761145,5.662290862728398,6.183525095522606,6.802762089899634,7.548985175770911,8.45685557452805,9.569310385009933,10.940791001072059,12.641486137849515,14.76310068572271,17.426875263789988,20.79492427373129,25.08650542171044,30.601705510838762,37.75643954660261,47.1349851623866,59.57017197437841,76.26800746960288,99.00514041990694,130.44824546009468,174.68194826480925,236.36850223778475,321.7856497150282,439.37595889750673,600.3798987940206,819.5703820121307,1116.039749237394,1513.9286568157,2042.9046942673344,2738.111550971029,3639.2567693479205,4788.547064949047,6227.365619959506,7991.908429660643,10108.359484474917,12588.432367230693,15426.117277524543,18596.237059677554,22055.032577370202,25742.607147701165
D_Om,0.0,0.0,0.0,0.0009998510910658352,0.002098717217499247,0.0031524500848049224,0.004184648200617214,0.005241144350638814,0.006361271796765408,0.007576616797575779,0.008918325015508455,0.010420961442239524,0.01212525432126679,0.014080708808962611,0.016348613567977698,0.01900583487275314,0.022149813160065937,0.025905291270133215,0.030433509772729607,0.03594493119189517,0.04271706000511261,0.05111970953878278,0.06165129927928335,0.07499173257457557,0.09208059648141995,0.11423470228006048,0.14332788064192167,0.18207124984093334,0.2344590602056198,0.3064934190587597,0.40597068156534494,0.5432604388012319,0.7322728470351718,0.9916325471355081,1.3460905275179922,1.828159837541258,2.479885199956227,3.354544304874503,4.517936832671244,6.048780467938569,8.037668666951022,10.584134641268047,13.79165740767115,17.760897140189297,22.581918279413053,28.326474098797693,35.04146973821807,42.744491696775455
R_Om,0.0,0.0,0.0,0.7045834336133728,1.5637705060584728,2.466720242171955,3.409535117755844,4.409564110179024,5.486141562599232,6.657986970148484,7.946438859115203,9.377283460044726,10.982299585266272,12.800989513619859,14.882765512498906,17.289830319738638,20.101036568975836,23.417112278833464,27.36780333947602,32.121734035669256,37.90016793301335,44.996438954714705,53.803740906276346,64.85542291759174,78.88429745807755,96.91135323829286,120.38079180755082,151.36949553305922,192.9186222514025,249.53843919380068,327.1855083813292,433.8424286353547,580.2546220323276,780.843089329275,1054.8194167292684,1427.5001184843738,1931.7658136475588,2609.531771291704,3512.9935578354784,4705.306894201245,6260.299291430663,8260.849411826419,10795.745687852073,13955.129511416942,17824.955506699807,22481.147897515933,27984.214240875866,34374.98163887652
G_Om,0.0,0.0,0.0,0.7271910038493627,1.7429980727075782,2.931089790942659,4.27160024690264,5.774935237634334,7.482142809122478,9.442192134854821,11.715421011827608,14.377305058986877,17.523236795209442,21.27488828066015,25.78884707445812,31.26848247578313,37.980432130140656,46.27776959335628,56.632953810874376,69.68529622424452,86.31029015996887,107.72238193180777,135.62976205410808,172.4715451767425,221.7879694005215,288.80979076471795,381.4166993943908,511.7307821628986,691.7328149704987,939.4169007527285,1279.026706859939,1742.775902852523,2372.9050834004493,3223.8597070184696,4364.26362725125,5878.150246420172,7864.707969868157,10435.723485696179,13710.123396714036,17805.612978678302,22828.278429415932,28861.809088573013,35958.30804941797,44132.32209305972,53358.911442629265,63575.66855441502,74687.90198701988,86575.85887893512
beta,25.987217624354027,25.987217624354027,25.987217624354027,25.986478947244777,25.986036717201593,25.985653066690197,25.985253343502364,26.550379575079926,27.145230412228432,27.77345147315148,28.4392229959287,29.147363498727273,29.90345681709239,30.714009000071865,31.586643358998415,32.530344483462834,33.55576543876343,34.67561689857014,35.90516296951408,37.2628562585578,38.77115447692176,40.45757207993199,42.35603075948391,44.50857474906592,46.96749098900258,49.79776861108757,53.07951554428197,52.876857451169585,52.605408348506046,52.237188642361204,51.741473445117585,51.0812575318169,50.214068187875775,49.094974043035,47.682407373618084,45.94698251067041,43.882111876252225,41.513292651513666,38.90164601072041,36.1382988110928,33.32998003148377,30.580667294627926,27.97592654017291,25.57447719322129,23.407506072280608,21.483277156132168,19.79384682768606,18.32152335999776
