series,2021-11-01,2021-11-02,2021-11-03,2021-11-04,2021-11-05,2021-11-06,2021-11-07,2021-11-08,2021-11-09,2021-11-10,2021-11-11,2021-11-12,2021-11-13,2021-11-14,2021-11-15,2021-11-16,2021-11-17,2021-11-18,2021-11-19,2021-11-20,2021-11-21,2021-11-22,2021-11-23,2021-11-24,2021-11-25,2021-11-26,2021-11-27,2021-11-28,2021-11-29,2021-11-30,2021-12-01,2021-12-02,2021-12-03,2021-12-04,2021-12-05,2021-12-06,2021-12-07,2021-12-08,2021-12-09,2021-12-10,2021-12-11,2021-12-12,2021-12-13,2021-12-14,2021-12-15,2021-12-16,2021-12-17,2021-12-18,2021-12-19,2021-12-20,2021-12-21,2021-12-22,2021-12-23,2021-12-24,2021-12-25,2021-12-26,2021-12-27,2021-12-28,2021-12-29,2021-12-30,2021-12-31,2022-01-01,2022-01-02,2022-01-03,2022-01-04,2022-01-05,2022-01-06,2022-01-07,2022-01-08,2022-01-09,2022-01-10,2022-01-11,2022-01-12
S,35260256.56523358,35260076.35044471,35259934.046662904,35259810.95396637,35259696.8033243,35259585.922668874,35259475.15381244,35259362.715500325,35259247.581444725,35259129.13937292,35259007.00376163,35258880.91279213,35258750.67154423,35258616.12061992,35258477.11877507,35258333.533278786,35258185.2345422,35258032.093108915,35257873.97795358,35257710.75550595,35257542.289077595,35257368.43851263,35257189.059962876,35257004.00573262,35256813.124162026,35256616.25953248,35256413.25198412,35256203.93744055,35255988.147537775,35255765.70955575,35255536.44635191,35255299.5483499,35255055.614401236,35254804.3367009,35254545.46385253,35254278.76617268,35254004.02023002,35253721.00188007,35253429.483050205,35253129.23017522,35252820.00335207,35252501.55579946,35252173.63343671,35251835.97449748,35251488.30913901,35251130.35902663,35250761.836882316,35250382.44598913,35360791.76259261,35471171.02245154,35581516.387233384,35691822.06079929,35802080.043495044,35912279.56535094,36022406.1040702,36132439.782014295,36242352.74255635,36352104.72904336,36461635.29098807,36570849.20588361,36679587.064549685,36787559.77689245,36894182.00873177,36998059.92823457,37094873.099557735,37093173.76409398,37049723.95895066,37001853.9781933,36947577.5089335,36888496.8168747,36825516.976110406,36759487.580996126,36691167.78483211
E,0.0,180.2147888753188,286.46547680343787,352.2489658454479,395.930002658337,427.6023886457077,452.8267170388059,474.67421670825473,494.8467311135079,514.2916242578883,533.5399845905065,552.8929484437564,572.524509435998,592.5383304601008,612.9991821652077,633.9503641469735,655.4233716389604,677.4432665918646,700.0316660993346,723.2084075402302,746.9924778432171,771.4025329787687,796.4571889326854,822.1751850194584,848.5754757188464,875.6772823639362,903.5001221641976,932.0638243253471,961.3885387156091,991.4947401159968,1022.4032297410263,1054.1351349576855,1086.711691860171,1120.1547601876912,1154.486451004319,1189.729160924096,1225.9055822939436,1263.0387026504613,1301.1517991324781,1340.2684302031482,1380.4124256007096,1421.6078748273178,1463.8791142309522,1507.2507126311239,1551.747455396489,1597.3943268641437,1644.2164909805301,1692.23927003654,1741.4881213618512,1810.4065702059538,1898.783551535701,2008.3594107961862,2142.667216428841,2307.2159959652126,2510.0366120611848,2762.7134114784203,3082.1845859734417,3493.8955824351415,4037.5295927562793,4778.030613147286,5828.471073677911,7402.43079497473,9951.141764948701,14598.074724074027,24991.064383480712,60487.39276456325,88782.30718229976,114551.95788293649,140155.29374233348,163966.47045856118,185372.9662590021,203981.95323844085,219597.69580506347
I,86.38371350472318,64.84728649702367,53.830527452118965,48.59693008447244,46.54816702280125,46.25855287983937,46.94631442787278,48.183500597518055,49.736626595163344,51.47905533529227,53.342796686722025,55.2919893054233,57.3083187192351,59.38300905842653,61.51243497901894,63.69572606960228,65.93346639013907,68.22699449667029,70.57803147887887,72.98848713889055,75.46036208031333,77.99570076522008,80.59657112121975,83.2650575485063,86.00326033769491,88.81329785741448,91.69730967371262,94.657459721214,97.69593914436611,100.81496867800564,104.01680055589277,107.30371998688702,110.67804625506444,114.142127331722,117.6983505466113,121.34913995810032,125.09695535710941,128.94429181039675,132.89367930218373,136.947682305442,141.1088992234878,145.37996168359362,149.76353367773038,154.26231054834335,158.87901781617973,163.6164098453025,168.47726833848924,173.4644006544765,178.58063793700092,183.82883304423353,189.73822889158959,196.70009013873084,205.0578724756253,215.17037653374598,227.464393562142,242.4898266506071,260.9905533234429,284.009074179806,313.0551934140704,350.39641824404964,399.5909887926223,466.54155634606155,561.7831168160336,706.1200255921312,947.2777810025391,1425.3355997805245,2798.665131183636,4638.254420114439,6755.689656477361,9076.947588458563,11499.994450589986,13930.729251703537,16287.28472176009
A,518.3077303265258,415.6522445996096,364.2312950713756,341.21427821788444,334.0363454837423,335.77036141819883,342.5920269291313,352.38799365377747,363.9901260222972,376.75347524785457,390.32328159800636,404.506118155514,419.1985059020931,434.34729667575675,449.92764458964825,465.9307313863194,482.35691022958383,499.2118650453819,516.5044515563276,534.2454783650999,552.4470149888418,571.1219962910839,590.2839943404141,609.9470853498594,630.1257709746052,650.8349309452701,672.089793945901,693.9059192366278,716.2991846803045,739.2857786266441,762.8821941326001,787.1052245882202,811.9719601606478,837.4997476589823,863.7062466448417,890.60941058537,918.2274776078798,946.5789648317566,975.6826637298323,1005.5576354503628,1036.223205646058,1067.698958604054,1100.0047305646,1133.1606021478763,1167.1868898158923,1202.1041362951084,1237.9330998812538,1274.6947425427813,1312.4102167341,1351.1008508241762,1393.9463899988068,1443.4606096387784,1501.95783869122,1571.8998726516315,1656.205598107077,1758.592898572733,1884.029746929083,2039.4046755175668,2234.605191063823,2484.365247304663,2811.637010690752,3254.21609110257,3879.036374695729,4817.1508173116745,6366.305599277121,9390.79549815753,17903.063370394833,29581.3285232116,43365.512110222146,58809.99895753064,75278.6369993164,92156.23636138762,108882.09006526397
IH,0.0,4.365185780047179,5.081069355698775,4.820246447302874,4.447979024591714,4.190588180468484,4.069571139723229,4.054307949457203,4.110517647370054,4.212233009594628,4.342322243090546,4.490268901104899,4.6499142713577015,4.817787422599892,4.992010318846684,5.171623552035402,5.356186605513747,5.545546923527754,5.739709093912207,5.938761983843248,6.142838830072601,6.352095796151049,6.566700737774208,6.786827528886017,7.012653363231388,7.244357609643749,7.482121449468927,7.726127884340312,7.976561899638986,8.233610675628647,8.497463795015705,8.768313425178873,9.046354468081297,9.331784677822363,9.62480443695403,9.925617203274458,10.234429561599779,10.551451194828253,10.876894848901866,11.210976300215064,11.55391432048053,11.90593063399022,12.267249864255373,12.638099468531847,13.018709659507556,13.40931331370227,13.810145866148229,14.221445190829296,14.643451466231502,15.076407025229502,15.520556188412352,16.00274390821527,16.553837046609697,17.203948852269807,17.98365651664045,18.92716471967033,20.076398567396236,21.48627610706957,23.23217566672917,25.421546028380778,28.213379635958688,31.853196396759405,36.740747829119385,43.57361485608592,53.69141065842738,70.05949942189943,100.98204896548167,183.16042300901069,310.0845976897466,469.54289497765035,652.7475302526377,850.9104054386466,1055.6441558939441
IN,17.17124122765233,31.83082811326623,40.065160104670454,44.905151349327916,47.99686469675365,50.229099658948904,52.07725429851331,53.79178987943116,55.50146489821506,57.2697924185384,59.12582263208664,61.08084154136928,63.137355863296165,65.29386512808338,67.54734388526761,69.89448857888095,72.33230584809789,74.85835627259783,77.4708233248831,80.16849829866862,82.95072891428708,85.81735597901988,88.76864998091224,91.80525290339381,94.92812716068227,98.1385118867338,101.43788605269883,104.82793759929463,108.31053771457516,111.88771943889572,115.56165987255643,119.3346653653271,123.20915916574711,127.18767109565432,131.27282766401203,135.4673457480099,139.774026675681,144.1957509760635,148.7354738064767,153.39622097741642,158.1810854736739,163.09322437331497,168.13585607690806,173.31225777123387,178.6257630623744,184.07975972200938,189.6776874979977,195.42303594612423,201.31934224450345,207.37018895576549,213.57920170498528,220.05467800580655,226.96684966371814,234.52932018200823,242.99577098821007,252.667614282459,263.91148342061126,277.18825093523316,293.0986039815415,312.4554835105577,336.4036529104753,366.6277322057487,405.7392516709584,458.0618831435249,531.4223331961906,641.9893002715919,831.4112342958098,1266.1148780631147,2002.905137487033,3052.8253590705353,4410.58932329191,6051.401893135089,7935.3894691051555
D,9661.0,9661.0,9661.4013358762,9661.868490202422,9662.311664428882,9662.720612329178,9663.10589567425,9663.480052693316,9663.852806412233,9664.230728059736,9664.618001433848,9665.017235232817,9665.430071271097,9665.857585130163,9666.3005332735,9666.759499497683,9667.234979391143,9667.72742804115,9668.237286508971,9668.764996277676,9669.311007000797,9669.87578058168,9670.45979328137,9671.06353679359,9671.687518798064,9672.33226326573,9672.998310658731,9673.68621809706,9674.396559525885,9675.129925897987,9675.886925375513,9676.668183550879,9677.474343684402,9678.306066955714,9679.164032725994,9680.048938779619,9680.961501606911,9681.90245669164,9682.872558795842,9683.87258224146,9684.903321188947,9685.965589912663,9687.060223072336,9688.188075979617,9689.350024858606,9690.546967099206,9691.779821502014,9693.049528513562,9694.357050450562,9695.703371711772,9697.089498976064,9698.516461385192,9699.987756210116,9701.509718626,9703.09145242489,9704.74487267069,9706.485039211017,9708.330866494436,9710.306318143514,9712.442288076307,9714.779549069024,9717.373491688495,9720.302079640951,9723.680029850919,9727.686194944148,9732.622591795693,9739.063873336374,9748.348179009528,9765.187977487196,9793.6972048101,9836.86705339499,9896.880765340322,9975.11360360708
R,0.0,105.16714006895455,194.30639107636898,274.8198901219404,351.3535710256435,426.73364665835237,502.65632669512365,580.1405568407527,659.8082012256206,742.0516373918884,827.131947829593,915.2357249297443,1006.5076989512078,1101.0694248426407,1199.0299943642526,1300.4922066316121,1405.556156343728,1514.3213523593213,1626.8879969961229,1743.3577830915692,1863.8344113920123,1988.4239436290397,2117.2350573764274,2250.3792408888226,2387.9709502685896,2530.1277422406347,2676.9703905858246,2828.6229912323015,2985.2130591958035,3146.8716194670187,3313.7332932664976,3485.936380655048,3663.622940201612,3846.938866214453,4036.0339565710756,4231.061990104607,4432.180799554145,4639.552341844055,4853.342766458434,5073.722482210655,5300.866222488831,5534.953108950873,5776.166713585128,6024.695119016038,6280.730976906496,6544.471564284173,6816.118837596022,7095.879484272115,7383.964971556994,7680.59159234302,7985.98050771616,8300.983306961967,8626.978577412747,8965.843451326407,9319.988784126985,9692.45577716026,10087.083002515541,10508.767354060008,10963.864644149853,11460.814150903821,12011.145413853423,12631.179961770344,13345.092964354662,14190.896214886074,15233.535273744457,16598.734591645436,18587.23206292383,22304.666256429642,28439.327702141207,37474.63689870065,49801.329861275866,65679.02601483016,85237.52620019056
G,726098.0,726098.0,726103.1503955682,726111.3373514302,726121.4043471742,726132.7197122659,726144.9402489999,726157.8816770102,726171.4474892132,726185.5898158601,726200.2878621134,726215.5360112207,726231.337252668,726247.6995485403,726264.6338235255,726282.1528534057,726300.2706514309,726319.00213096,726338.362921602,726358.3692707657,726379.0379927966,726400.3864446714,726422.4325165391,726445.1946305798,726468.6917445274,726492.9433578206,726517.9695192276,726543.7908353035,726570.4284793065,726597.9042003618,726626.2403327477,726655.4598052244,726685.5861503556,726716.6435076161,726748.6566412145,726781.6509472756,726815.652462002,726850.6878701254,726886.7845133437,726923.970398596,726962.2742061041,727001.7252971247,727042.3537213736,727084.1902240794,727127.2662526286,727171.6139627538,727217.2662242203,727264.2566259585,727312.6194805899,727362.3898282868,727414.1298105277,727468.3955367199,727525.7928539625,727587.028581644,727652.9669827863,727724.701836089,727803.6579916833,727891.7443797719,727991.5971412243,728106.9865310243,728243.5388519994,728410.1119272447,728621.6675215373,728906.0632515724,729323.264635728,730037.4894118971,731766.1710676851,734303.4989102315,737577.3029076627,741582.8299138767,746268.8614436083,751566.6736256976,757396.315879375
H,1924859.984617452,1924859.9846174517,1924859.9846174517,1924859.9846174517,1924859.984617452,1924859.984617452,1924859.9846174517,1924859.9846174517,1924859.9846174517,1924859.9846174514,1924859.9846174514,1924859.9846174512,1924859.9846174514,1924859.9846174514,1924859.9846174512,1924859.9846174512,1924859.984617451,1924859.9846174512,1924859.9846174507,1924859.9846174507,1924859.9846174507,1924859.9846174507,1924859.984617451,1924859.9846174507,1924859.9846174507,1924859.9846174507,1924859.9846174507,1924859.984617451,1924859.9846174507,1924859.9846174507,1924859.9846174507,1924859.9846174507,1924859.9846174505,1924859.9846174505,1924859.9846174507,1924859.9846174505,1924859.9846174505,1924859.9846174505,1924859.9846174505,1924859.9846174507,1924859.9846174507,1924859.9846174507,1924859.984617451,1924859.9846174507,1924859.9846174507,1924859.9846174503,1924859.9846174505,1924859.9846174503,1844124.3683447598,1764641.5633789408,1686490.5146282054,1609757.1850408912,1534535.0924295262,1460925.8197887214,1389039.4639236412,1318994.9727463247,1250920.303034428,1184952.3074104814,1121236.2320120032,1059924.6761673999,1001175.8357562511,945150.829310765,892009.9011023608,841907.3243098971,794984.9101020398,778740.5137852186,778740.5137852185,778740.5137852186,778740.5137852185,778740.5137852186,778740.5137852185,778740.5137852185,778740.5137852186
S0,12341089.797831755,12313223.238295358,12268817.185693765,12224581.448394444,12180509.793947725,12136598.52451782,12092845.334274169,12049248.683325352,12005807.454045428,11962520.762103502,11919387.852396917,11876408.04165613,11833580.686743066,11790905.167113664,11748380.875099119,11706007.210508574,11663783.577623414,11621709.383516904,11579784.037109403,11538006.948632564,11496377.52932147,11454895.191234201,11413559.347143035,11372369.41046616,11331324.795222627,11290424.916000856,11249669.1879353,11209057.026688224,11168587.848434918,11128261.069851378,11088076.108103933,11048032.13247182,11008128.873111056,10968365.701994572,10928742.016110977,10889257.223533807,10849910.737250837,10810701.972411059,10771630.345076801,10732695.271637425,10693896.168511804,10655232.451974386,10616703.538031276,10578308.842313211,10540047.779970095,10501919.765559657,10463924.212926134,10426060.53506632,10420987.970160462,10415271.018557638,10408876.971884562,10401769.660861835,10393909.204037664,10385251.623342238,10375748.300067652,10365345.197138026,10353981.688838948,10341588.669806931,10328085.248625806,10313372.477283886,10297320.394040693,10279738.461737214,10260298.931036348,10238298.325191349,10211665.995638324,10160397.772580752,10103487.343218854,10044929.483551776,9983823.957558692,9920967.671301696,9856818.957394255,9791797.644163495,9726271.052057728
E0,0.0,99.33098599427021,158.19158226619086,194.78546717602603,219.20685257983297,237.0092866449899,251.25162129770317,263.6203905413278,275.04649922160417,286.04451891035256,296.8995778757561,307.7703982361041,318.7461409574392,329.8777778089833,341.19540359817944,352.7177830217877,364.457606876579,376.42437745438184,388.62598453433924,401.06955903876343,413.76192908985826,426.70985803507733,439.92016363936625,453.39977314094216,467.15574423162377,481.1952683946715,495.52566550562693,510.1543744544631,525.0889422722832,540.3370130060212,555.9063169162507,571.8046602190333,588.0397992625817,604.6197104485732,621.5523823897179,638.8458285317614,656.508087418578,674.5472177691555,692.9712913850927,711.7883851093608,731.0065722898913,750.6339138814383,770.6784491903418,791.148186218071,812.0510915429616,833.3950796754211,855.1880018216782,877.4376339918301,900.1516643881598,932.7230699798531,974.9676762279983,1027.684586082318,1092.563045609907,1172.261628822098,1270.6666412696463,1393.3872781959233,1548.6227806011464,1748.682320849619,2012.746293065553,2372.174854436729,2881.5131540506077,3643.6808782721937,4875.876757176551,7118.251280183964,12122.43469374741,29169.190190937457,42675.91613992139,54898.26026660404,66960.74338133764,78089.69124248518,88000.2996492247,96516.26516383284,103557.36688104222
I0,86.38371350472318,64.84728649702367,51.51893259077214,43.19567565354555,37.99332403926416,34.78592073598268,32.88693841896009,31.868428271699916,31.45733371200417,31.47527874232314,31.803064545488972,32.35935864361396,33.0876418083295,33.94803383735229,34.91205384205416,35.95918162394024,37.07454917989677,38.247357959356734,39.469773179275144,40.736138839368635,42.04241283965167,43.38575596323493,44.764230132889935,46.1765753020503,47.62204354283502,49.1002750973864,50.61120542639009,52.154995277136166,53.731977918384054,55.34261921941616,56.987487363878174,58.667229805580085,60.38255567630414,62.134218983612264,63.92301371176498,65.74976420406446,67.61531830371399,69.52054221231401,71.46631648949692,73.45353284719957,75.48309151334733,77.5558990088373,79.67286622444286,81.83490671266006,84.04293512944206,86.2978657752546,88.60061119564301,90.95208080957028,93.35317953986338,95.80480642467265,98.57608018524886,101.86376167025578,105.8383947734543,110.67628219759368,116.58575234181085,123.83426252946046,132.78289632461718,143.9370429130694,158.0278786699832,176.15244994734246,200.03054554924861,232.5120487244909,278.67769783197934,348.54891351017494,465.08573610980216,695.5842124193032,1355.799574013349,2237.4273563258384,3248.5603511053987,4352.342758039892,5498.996345008694,6643.013672607917,7745.194203361814
A0,518.3077303265258,415.6522445996096,350.3615800821766,308.0955568741851,280.4757089307436,262.5139259648071,251.16234357724608,244.501277066588,241.28045432733288,240.6568596427081,242.04268131435867,245.01542196375408,249.26348079905736,254.5522614130282,260.70237180495565,267.57511073419084,275.06246569703825,283.07999321330266,291.56160401481696,300.45565132054867,309.72194024621587,319.3294077303561,329.254302787689,339.4787476183238,349.9895931429696,360.77750480728855,371.83623002324197,383.1620097744044,394.7531051500262,406.6094157887417,418.73217198518336,431.12368592530913,443.7871504327631,456.72645599950727,469.94609034048233,483.45102220216256,497.24661034824965,511.33853061702234,525.732716581447,540.4353107458826,555.4526240298281,570.7911018124771,586.4572951766264,602.4578362609252,618.7994168379713,635.4887694001576,652.5326501662981,669.9378235271846,687.7110475326433,705.8590600903962,725.9979444795912,749.3921225147282,777.1926137585785,810.6121349589858,851.0790978543826,900.4054166186501,961.0059877931126,1036.2233976071843,1130.8489435904285,1252.0139610901235,1410.8149075352048,1625.5037282644566,1928.365770488448,2382.5365744160877,3131.270527674582,4589.813571444851,8682.606259446824,14280.878085123042,20866.213437331196,28215.70305582672,36017.91948697217,43974.278891189024,51815.1026397637
IH0,0.0,4.365185780047179,5.081069355698775,4.70343575916975,4.1267611055648965,3.625528045011718,3.2562854639418086,3.0077136127886552,2.853508602762396,2.7690005494383683,2.734979365607659,2.7374819221631093,2.7666271893766607,2.8154751842098644,2.8791422982434494,2.954170878386309,3.038094906245098,3.129143835198553,3.226040203445293,3.3278601124914613,3.43393589431828,3.5437873378580647,3.6570724945048663,3.7735520977059966,3.8930635829795106,4.015501966189098,4.1408056769143045,4.268946006174687,4.399919211236391,4.533740586098099,4.6704399934602705,4.810058487609415,4.952645754142484,5.098258162802744,5.246957113641157,5.398808105906122,5.553879867202308,5.7122436469540485,5.873972664573863,6.03914167923672,6.207826650070141,6.380104462487845,6.556052702746195,6.735749467587373,6.919273199245785,7.106702538511553,7.298116190276114,7.4935927972440615,7.693210818423521,7.897048409698067,8.105183304299507,8.331246874323593,8.590815916319723,8.898946480965499,9.270770396728217,9.723069150555387,10.276293982005939,10.957144043540483,11.802192935242152,12.86350505454794,14.218035622327609,15.984496214741188,18.355963218898513,21.66897941944299,26.56904871473042,34.48319252004513,49.40185060134407,88.93021417496223,149.81853086701352,226.07934493723283,313.3755672799142,407.3992182909801,504.07016347474246
IN0,17.17124122765233,31.83082811326623,40.065160104670454,44.445655555799455,46.53092553598001,47.277064397369585,47.27650137344785,46.898543490238254,46.373411767621896,45.84337474134704,45.39443384177062,45.07631680097249,44.91531046351533,44.92262185329785,45.099891397527486,45.44285818283858,45.94380556572145,46.59319018155093,47.38071806131824,48.29604355709172,49.329209996722284,50.470913596956805,51.71264707226076,53.046762257672995,54.466479222439915,55.965861070824374,57.53976779047263,59.18379837465283,60.894227509351516,62.6679410326265,64.50237289895031,66.39544534359803,68.34551321855332,70.35131297350344,72.41191575951639,74.5266864184565,76.6952465592733,78.91744167170687,81.1933120282826,83.52306704731235,85.90706276861434,88.34578209983823,90.83981751029135,93.38985587388552,95.99666518957646,98.66108293446756,101.38400583050961,104.1663808298579,107.00919714615289,109.91347917915516,112.88028019828876,115.96399447652665,119.2501718463684,122.84574917361044,126.87706678344657,131.49339632328633,136.87534014567578,143.24885943652842,150.90732441610186,160.2465360345008,171.82247048202228,186.4516381267834,205.39761361523438,230.74908979220268,266.2812891914561,319.78119552925233,411.2738026377255,620.6204394414463,974.5945515875301,1477.7842122308948,2126.780244925698,2908.777285150064,3803.7971125495715
D0,9661.0,9661.0,9661.4013358762,9661.868490202422,9662.300924835601,9662.680339909237,9663.013671535415,9663.313054939852,9663.589584608684,9663.851936644323,9664.106518996074,9664.35797343476,9664.609657958896,9664.864022103544,9665.12287734062,9665.387586142306,9665.659193083606,9665.938516013399,9666.22620999623,9666.522812646597,9666.828776635626,9667.14449324894,9667.470309621476,9667.806541449367,9668.153482430536,9668.511411316707,9668.88059720734,9669.261303541105,9669.65379111716,9670.058320390559,9670.475153222487,9670.904554219711,9671.346791763533,9671.802138803363,9672.270873471247,9672.753279544366,9673.24964682191,9673.7602714219,9674.285456013034,9674.82550999582,9675.380749644133,9675.951498215545,9676.538086036482,9677.140850566666,9677.760136446042,9678.396295526552,9679.049686890381,9679.720676855854,9680.40963897172,9681.116954000263,9681.843009889428,9682.588201733968,9683.35417789916,9684.144018883435,9684.962189440923,9685.814545548476,9686.708486075528,9687.653290181739,9688.6606917511,9689.74578725022,9690.928459954706,9692.235668415437,9693.705285544514,9695.392935727843,9697.38518514857,9699.827947721124,9702.998337936238,9707.540351952604,9715.716610014688,9729.49094961586,9750.276720614644,9779.088520206076,9816.544869253932
R0,0.0,105.16714006895455,194.30639107636898,272.0728689107901,341.9220875678981,406.3206526727533,467.02287916945716,525.2940579550731,582.0676876403807,638.050300053765,693.7900645423109,749.7218044032049,806.1970290087886,863.504488766172,921.8846758682284,981.5403760967752,1042.6445702886815,1105.3464976533799,1169.7764007174726,1236.0492947029086,1304.2679953572435,1374.5255707702597,1446.9073382562908,1521.4924974862527,1598.3554701909657,1677.5670016724364,1759.1950681041221,1843.305624981806,1929.9632253510613,2019.2315310935583,2111.1737362686795,2205.852918043247,2303.332327928138,2403.675633746075,2506.9471169347366,2613.21184227796,2722.5357981648626,2834.9860129910503,2950.630651953009,3069.5390975604887,3191.7820165201542,3317.4314151318604,3446.560684934961,3579.244640016287,3715.559547125201,3855.583149521806,3999.3946853027396,4147.074900797919,4298.70605950553,4454.371946926885,4614.157871573839,4778.469414239663,4947.977286204899,5123.60038855978,5306.520902547278,5498.229885541002,5700.607397491489,5916.048325365768,6147.655846231954,6399.543102871579,6677.31931593575,6988.910855598346,7346.037217546857,7767.092648384354,8283.447973396997,8955.718400421267,9928.607342031482,11732.87423598716,14696.106984206695,19045.52499863583,24961.907323723874,32561.707569529506,41898.23771671883
G0,726098.0,726098.0,726100.8388007069,726105.3597905176,726110.926604502,726117.1913622897,726123.9648995071,726131.1454713399,726138.6795327764,726146.5401433262,726154.7150685458,726163.2002227312,726171.9960563307,726181.105567942,726190.5332128956,726200.2843066076,726210.3647007742,726220.7806097848,726231.5385195963,726242.6451416496,726254.1073911816,726265.9323785714,726278.1274074892,726290.6999764517,726303.6577819504,726317.0087221802,726330.7609008625,726344.9226309153,726359.5024378541,726374.5090628825,726389.9514656649,726405.8388267903,726422.1805499435,726438.9862604791,726456.2658117113,726474.0292852625,726492.2869917726,726511.0494716172,726530.3274954834,726550.1320647441,726570.4744116019,726591.3659989893,726612.8185202145,726634.8438983427,726657.4542853013,726680.6620606963,726704.4798303242,726728.9204243625,726753.9968952212,726779.7225150327,726806.3789997532,726834.2428017762,726863.6132112235,726894.837795528,726928.3401020569,726964.6547457039,727004.4766477091,727048.73505711,727098.7110093157,727156.23370017,727224.0285739074,727306.3799318129,727410.5134380846,727549.8621241624,727753.2960935722,728099.7456514186,728933.377945565,730153.0217424497,731721.970429442,733635.6553057565,735867.3966751102,738382.3753633067,741140.7335838915
H0,673700.9946161081,672185.1673782219,669765.3007756603,667354.1456928679,664951.6707683736,662557.8447536075,660172.6365124945,657796.0150210495,655427.9493669737,653068.4087492526,650717.3624777553,648374.7799728353,646040.6307649331,643714.8844941793,641397.5109100002,639088.4798707241,636787.7613431895,634495.325402354,632211.1422309055,629935.1821188742,627667.4154632462,625407.8127675785,623156.3446416153,620912.9818009054,618677.6950664222,616450.455364183,614231.233724872,612020.0012834625,609816.729278842,607621.3890534382,605433.9520528459,603254.3898254556,601082.674022084,598918.7763956045,596762.6688005803,594614.3231928982,592473.7116294038,590340.8062675379,588215.5793649748,586098.0032792608,583988.0504674555,581885.6934857727,579790.9049892239,577703.6577312627,575623.9245634301,573551.6784350018,571486.8923926357,569429.5395800222,534719.7670579323,500783.05270807655,467649.8192950255,435352.9982059018,403928.17605719424,373413.71782399295,343850.85049345176,315283.68550054956,287759.1510470262,261326.7968227105,236038.42391836806,211947.48263229063,189108.17205738783,167574.17064982504,147396.93088450405,128623.48978171172,111293.78790513541,105137.46188326956,104758.96702048978,104381.83473921602,104006.06013415485,103631.6383176719,103258.56441972828,102886.83358781727,102516.44098690113
S1,3526025.656523359,3301907.556489074,3110364.7321864776,2932347.2543438347,2766888.02473189,2613089.773897999,2470119.710017146,2337204.7257841313,2213627.0382105545,2098720.1866053618,1991865.3405971962,1892487.8844073087,1800054.2516153276,1714068.989401321,1634072.0342498585,1559636.1831668143,1490364.7460032285,1425889.3657199836,1365867.9944772683,1309983.0143555664,1257939.4923444388,1209463.5599913625,1164300.9087974052,1122215.3930875144,1082987.7326763435,1046414.3082002368,1012306.0424958655,980487.3618791448,950795.2316172558,923078.2602943301,897195.8681499248,873017.4951947801,850421.9487872763,829296.6633578112,809537.1135997567,791046.2390776757,773733.9105534602,757516.4346964008,742316.094284114,728060.7212944074,714683.3005108736,702121.6014506542,690317.8365861671,679218.3439803793,668773.2925907834,658936.4086223968,649664.7214260162,640918.3275454633,634649.1895756809,628752.2892862273,623198.4565129915,617960.1756142633,613011.4503836264,608327.6691934561,603885.4686360203,599662.5911867875,595637.7276791972,591790.3259878632,588100.3270378237,584547.7420176665,581111.864468683,577769.568339321,574491.0066833155,571226.3628530359,567850.9764914657,563248.0283258173,558469.5532817028,553728.4565929591,548966.6212420246,544220.075344188,539506.4225084805,534841.4589783663,530238.4329137704
E1,0.0,28.38028171264863,43.81546339455102,52.35024618887841,57.08266753243582,59.668545621069676,61.00675204292497,61.59561479279884,61.7191788644981,61.54513306543107,61.176697518339864,60.68040510523109,60.10118840300804,59.47073139234848,58.812211764583836,58.14308254194443,57.47676893864743,56.82375034644972,56.192282826897774,55.58890337752415,55.018795956962784,54.48606592407569,53.99395110704414,53.54498728475657,53.141139786570186,52.78390925160719,52.47441728782506,52.213476263619945,52.00164643485208,51.83928287927248,51.726574174571816,51.66357435326501,51.65022018039329,51.68637551378153,51.7718332765571,51.9063323986272,52.089571103792835,52.32121761911645,52.60091892532495,52.92830794460221,53.30300944508659,53.72464487316039,54.1928362803439,54.70720948012145,55.26739654612343,55.873037744183314,56.523782975460804,57.219292795223346,57.95923906141684,59.31488543448072,61.263357292034115,63.84139959664908,67.13810749351903,71.29821867072685,76.5359158644386,83.16210275253894,91.63254917086795,102.63245387073133,117.2301282327899,137.17238531485,165.4966687298631,207.9314840481331,276.5585993522427,401.4025874246953,679.7505726679191,1626.5582366403914,2373.4023573405057,3046.091937290522,3707.0740792275824,4313.965225458854,4851.552781323463,5310.6835247295585,5687.509536949123
I1,0.0,0.0,0.8110859162620454,1.8610842682546178,2.8932235896556433,3.8032878657225755,4.56036527033692,5.166939677997548,5.63911752387786,5.997107508900012,6.260872491535259,6.448348315262612,6.574900673893638,6.653348559093961,6.694220547383234,6.706082723281437,6.695864344040948,6.669150807457001,6.6304345018106154,6.583323764366821,6.530714155707079,6.474927494160034,6.417824070644259,6.360892919281264,6.305324311860603,6.2520679396398,6.201879612286813,6.155358762321465,6.112978593868303,6.075110347632816,6.042042857696046,6.01399833796924,5.991145146153834,5.9736078592862984,5.961476105117771,5.954811248104884,5.953651892682187,5.9580183942423,5.967916551543434,5.983340628637932,6.004275828821606,6.03070032054564,6.06258689634898,6.099904330427806,6.142618487967326,6.190693229300783,6.244091143868162,6.302774142434076,6.366703930775082,6.435842383807068,6.526487143265305,6.650218927772899,6.816781394985245,7.03603526810985,7.319519369846787,7.682016937727717,8.143510962884942,8.73202799302238,9.48818967992747,10.473021733736994,11.782258001903292,13.574572538390948,16.132796319386905,20.01453473027101,26.49645433979385,39.31732321192194,76.000817153025,124.88291725803177,180.80309653059334,241.67209374724084,304.7102354761822,367.3960881199388,427.5752478897987
A1,0.0,0.0,4.866566662876858,11.416045479273638,18.13186066582103,24.329050134131254,29.742249469690407,34.312787893763705,38.079066709350116,41.12058869200142,43.529865160987974,45.39878462163731,46.81244509981483,47.8467951008155,48.56817392377018,49.03375621763855,49.29238547291021,49.385533405527624,49.34825486191329,49.210077487339774,48.99580165758901,48.72620474188859,48.418652940277845,48.08762813460934,47.745178768251606,47.40130399136803,47.06427985807544,46.74093560589908,46.43688718326587,46.15673432076024,45.904226618830215,45.6824033727337,45.49371118343157,45.340101237319686,45.223114925604754,45.143952844238044,45.10353303286891,45.10253995748722,45.14146562802558,45.2206440727456,45.34028021720472,45.50047405597086,45.70124086553933,45.942528087272755,46.22422940784677,46.54619647931832,46.90824864923286,47.31018101105927,47.751771034861676,48.23278399592233,48.85099025961018,49.680873422716665,50.78846585629936,52.24199940087774,54.12101116029245,56.526012624294324,59.59092092431551,63.50128376685751,68.5233953269118,75.05399870619131,83.71079681373939,95.510002803652,112.24886688885148,137.44042360106528,179.0504443615191,260.1495162412425,487.5419653076155,797.9639224048527,1162.2548491651412,1567.7379571276924,1996.9794023064599,2433.3896588974353,2862.0953377685573
IH1,0.0,0.0,0.0,0.040986206362499486,0.1109852508282498,0.19207311870330188,0.27157534561875574,0.3426914014165105,0.4027360779852299,0.4514134515665247,0.4896224103860672,0.5187432469183747,0.5402527924908185,0.5555379027559657,0.5658195543054938,0.572134423895815,0.5753438457441982,0.5761539703214102,0.5751389005731212,0.5727629304197331,0.569400295339441,0.5653519903959175,0.5608597470495338,0.5561174804054163,0.5512805820717336,0.5464734243146141,0.5417954016698775,0.5373257878140019,0.5331276381491317,0.5292509262711217,0.5257350664720755,0.5226109445688051,0.5199025549929286,0.517628322410875,0.515802157104704,0.514434337442921,0.5135322124740436,0.5131007704094432,0.5131431015339174,0.5136607761176963,0.5146541533167428,0.516122633859083,0.5180648668569091,0.5204789191140271,0.5233624137036437,0.5267126433012183,0.5305266627154438,0.5348013642209655,0.5395335386203743,0.5447199244183241,0.5503572470512634,0.5572677138382323,0.5663763537402123,0.5785578615918554,0.5946720442653535,0.6156573538725303,0.6426486957808334,0.6771249279733627,0.7211135284522405,0.7775051873605208,0.8505784369836276,0.946939307373923,1.0773363323486849,1.2605041431633026,1.5323631422598192,1.9722727423239064,2.8019622827346047,4.998589937430268,8.37661243771591,12.598568589203058,17.419406822974874,22.597381095987043,27.905161077582253
IN1,0.0,0.0,0.0,0.16122659422051241,0.5075877106618327,1.0084535460131603,1.6169586257477349,2.2869479221524722,2.9795112901245195,3.664631625803536,4.320699515685989,4.933234567247996,5.493439712654797,5.996859012290374,6.442236443552375,6.83059256012596,7.164501393346506,7.447537857119292,7.683864217222012,7.877926911771632,8.034239254555837,8.157229968248966,8.251141509905144,8.319965574400726,8.367405975725658,8.396861368019522,8.411422059320467,8.41387657412474,8.406724711117834,8.392194683867986,8.372262577693734,8.348672848030272,8.322958958490359,8.296463537378965,8.270357588698293,8.245658648630247,8.22324761528485,8.203884210678062,8.188221077757637,8.17681654941504,8.170146150456443,8.168612908937499,8.172556561957164,8.18226174467139,8.197965251347624,8.219862454849231,8.248112966863166,8.282845616095925,8.324162816024167,8.372144387929108,8.426850899100463,8.491573681431149,8.571424640514138,8.672704789968058,8.802753589573662,8.970130621147717,9.185082040616098,9.46032748135834,9.812297143849332,10.263092685624867,10.843713543626354,11.599654685251863,12.601297504527658,13.964949410104708,15.900745478463811,18.84185822722465,23.90128701400768,35.51256497000479,55.14216960123197,83.01627252135894,118.9126623949756,162.08909111964147,211.41067269068006
D1,0.0,0.0,0.0,0.0,0.0037682783440313827,0.01397227999043992,0.0316315131304568,0.05660019368158811,0.0881072957349544,0.12513491492003787,0.1666379395888196,0.21165390201998485,0.2593472388022727,0.30901816663199044,0.3600944099351351,0.4121159499201022,0.46471808002146425,0.5176152848789811,0.5705869727192184,0.6234653348850488,0.6761252499763711,0.7284760038625827,0.7804545559471981,0.8320200904627177,0.8831496202273073,0.9338344447883488,0.9840772984991906,1.0338900540626426,1.083291872615962,1.132307712620127,1.1809671271164823,1.2293032929026686,1.2773522264232462,1.3251521501746417,1.3727429806200493,1.4201659131362119,1.467463088094711,1.51467732153982,1.56185188813276,1.6090303466560298,1.6562564002630227,1.7035737851279882,1.7510261823280158,1.7986571487393541,1.846510063499886,1.8946280872124655,1.943054131568098,1.9918308374764302,2.0410005601223444,2.090605359636602,2.1406869962875623,2.1912869292796904,2.2425222116893804,2.2945949439031,2.347787645889797,2.4024618883992552,2.4590655236179613,2.5181507471127285,2.5804057208889897,2.646705013602767,2.7181889644224606,2.7963912814565663,2.8834530322692515,2.9825035063366,3.0983944581176384,3.2392801695957525,3.4206112398024007,3.678224098563639,4.1377952539254546,4.907942336244098,6.066256739890035,7.66779977893908,9.745406597747845
R1,0.0,0.0,0.0,0.9638670916316714,3.2687777990502127,6.989110446111287,12.050232321774654,18.311827164123606,25.61184273320344,33.788812578372635,42.69247944572437,52.18819267125108,62.15806577073707,72.50051059262543,83.12901563917416,93.9706288634629,104.96438434305547,116.05979269743013,127.21545066492538,138.3977907662833,149.57997383111163,160.74091794538,171.8644530500223,182.93858876240668,193.95488277491657,204.9078977225462,215.794735319179,226.61463762316575,237.36864638537196,248.0593124902079,258.69044848733927,269.2669181125385,279.7944575051877,290.2795235483716,300.7291650782776,311.15091438344183,321.5526954624191,331.942746625511,342.3295553408409,352.7218035151484,363.1283216572532,373.5580505964896,384.0200096218313,394.52327007322634,405.0769335583289,415.6901140886331,426.37192353192626,437.13145986558436,447.97779778976445,458.9199813229465,469.9670180561908,481.14728711577595,492.50480798468715,504.0978838298425,515.9996861558891,528.300638442524,541.1127876875802,554.576764585544,568.8725413937425,584.2362386714211,600.9872185014212,619.5738356801418,640.6556380444507,665.2637475195542,695.1513553293362,733.6978533262653,788.9545933104886,890.3989800908591,1056.1103893462398,1298.5153966288967,1627.3959494009255,2048.9273238715723,2565.7709188915705
G1,0.0,0.0,0.8110859162620454,2.0632970688376298,3.559425536714188,5.190802848856679,6.89608250348109,8.63960703505239,10.39996079643437,12.16384592087067,13.922756954569003,15.671138392884115,17.40533618810872,19.122980429905155,20.82260671094517,22.50341302391475,24.16509615501682,25.807736572416466,27.431714236974138,29.03764506123363,30.62633177993758,32.19872528125011,33.75589378123181,35.298998030501714,36.82927125022597,38.348002829123224,39.856525042986654,41.35620222227426,42.848421914287755,44.33458767799647,45.816113220209914,47.29441763713826,48.77092156919805,50.24704384960092,51.72419942072323,53.20379730684877,54.68723907108536,56.17591765201667,57.671216506419285,59.174509002059246,60.6871580159101,62.210515701116734,63.745923392062224,65.2947116216622,66.85820022887881,68.4376985376307,70.03450559091965,71.64991042620062,73.28519237986762,74.94162141027533,76.63679373758745,78.3876518434234,80.21218835125593,82.1309421530623,84.16858862901765,86.35592433182697,88.73263119443924,91.35141668981211,94.28457072714022,97.63491470659523,101.55519255850109,106.28495593978748,112.22747264791946,120.13129781875239,131.60306503754686,151.02979665509412,197.51553950559824,265.34549430143335,352.40038314965034,458.3456167680157,581.6353174496847,720.2888436118171,872.0639618522141
H1,192485.9984617452,180252.8258095068,169797.4905685322,160080.25346785798,151048.4245732196,142653.07740418435,134848.78011642705,127593.3458852701,120847.60111896944,114575.17022819273,108742.27576910485,103317.55286194585,98271.87686542336,93578.20336007545,89211.41956139197,85148.20634628284,81366.91013479725,77847.4239231472,74571.07681437087,71520.53143966135,68679.68870674206,66033.59935192816,63568.38180989658,61271.145949899495,59129.92225938993,57133.59608595834,55271.84657627238,53535.08997651961,51914.42698281724,50401.59385230555,48988.91700630468,47669.270876101735,46436.03875975182,45283.07647482048,44204.678607357484,43195.54717165689,42250.762508604406,41365.7562627128,40536.28628936788,39758.41335441266,39028.47949804567,38343.08794415382,37699.084444691616,37093.539956603425,36523.73455610715,35987.14250195642,35481.41836561126,35004.38415210966,32564.999382509464,30231.42559275943,27999.047962661592,25863.946616486122,23822.855500743164,21873.12400771928,20012.680144696507,18239.993768695924,16554.038050241692,14954.24689753815,13440.465580815635,12012.891289626199,10671.99992282759,9418.455206963245,8252.996503808188,7176.302732329173,6188.832083458168,5828.3611955372135,5790.54454435004,5754.066501027372,5718.8363560151665,5684.769861354183,5651.788769201075,5619.82040331202,5588.797261134447
S2,3526025.656523359,3735896.294067916,3927262.108672844,4102669.1076334883,4263272.7406803155,4410145.889148998,4544284.725359921,4666614.1662844755,4777992.947189557,4879218.339385811,4971030.535222602,5054116.722528185,5129114.869651343,5196617.241127117,5257173.662807239,5311294.554107462,5359453.743860584,5402091.08514537,5439614.88339931,5472404.151122214,5500810.701539653,5525161.092718977,5545758.432814032,5562884.056354575,5576799.080789507,5587745.85183614,5595949.285577258,5601618.114680816,5604946.045590473,5606112.833046106,5605285.277839312,5602618.067802376,5598254.91557529,5592329.043161468,5584964.05417836,5576274.617951587,5566367.106985027,5555340.189880396,5543285.382332055,5530287.55894501,5516425.42856491,5501771.975677526,5486394.870279415,5470356.848461835,5453716.065795067,5436526.425453526,5418837.882884418,5400696.7286943,5399062.382747669,5396662.854385365,5393515.026789257,5389632.130374071,5385023.796901829,5379696.086816807,5373651.490255535,5366888.89490736,5359403.499932548,5351186.625347606,5342225.299022679,5332501.342755506,5321989.264836879,5310651.080476668,5298422.242100463,5285166.698598811,5270487.829292671,5247416.074372766,5221276.763455482,5194692.356251423,5167496.760008566,5139836.324205686,5111796.482206959,5083458.816558812,5054897.592780579
E2,0.0,9.933098599427021,16.306655702884402,20.689825627492652,23.996600499063042,26.748974197986698,29.239372367807835,31.627626996830774,33.998099640537355,36.392929195426674,38.83115958560833,41.31960825241116,43.85895183775675,46.44706945365241,49.08083017090405,51.7570089944929,54.472722559459186,57.22560616851044,60.013856331401634,62.836207377480456,65.69187926493771,68.58051609274415,71.5021250756853,74.45702044555787,77.44577393594511,80.46917208235473,83.52817989636978,86.62391020031586,89.75759784295789,92.93057805034695,96.14426824211341,99.40015273262867,102.69974937636272,106.04464766164605,109.43646449929818,112.87683993506977,116.36743178259738,119.90991024099742,123.50595287624148,127.15724005917461,130.86545084024453,134.63225920206418,138.45933062226626,142.34831888195308,146.30086306152464,150.31858467266443,154.40308488160537,158.55594178420586,162.7787076977943,168.77476001915704,176.51125073152514,186.1332209002,197.94668692938248,212.43287757283946,230.29486607424028,252.54698279991706,280.6714267482888,316.8927681825166,364.6766444164038,429.6884578457765,521.7808015224326,659.542327482815,882.1991730921087,1287.2996755409486,2191.1909031399637,5270.305369631101,7712.248817052571,9924.273210473317,12110.068870688578,14130.185884135306,15933.173922905411,17486.90768729009,18776.408432672317
I2,0.0,0.0,0.2838800706917159,0.6791368623354337,1.101119226198291,1.5124016619672893,1.8998074362249895,2.2618022154284323,2.6018020638794273,2.924782369069168,3.235682394880275,3.538754251634331,3.8373847879990923,4.13413581123603,4.430869828077235,4.728895522001877,5.0291031392476935,5.3320785734163,5.638194067103278,5.9476775163380005,6.260663828255736,6.577231983156867,6.897431099299737,7.221298255403754,7.548870266543647,7.88019110907563,8.215316274118184,8.554314997497407,8.897271057351164,9.244282635986675,9.595461597462949,9.9509324256041,10.310830989549181,10.675302663815087,11.044502005738265,11.418591249807953,11.797739054843987,12.182119410131325,12.571910660442581,12.96729463070506,13.36845583852028,13.775580785114235,14.18885731596291,14.608474042590124,15.034619817305675,15.467483253040301,15.907252280925595,16.354113738817343,16.80825298452843,17.26985352809021,17.78773430187843,18.397604361569602,19.13041525390674,20.01814766431076,21.09856227090984,22.420098867007383,24.048109419510723,26.07401298868606,28.63001329118677,31.914399339404,36.23793717663014,42.11549467800939,50.46482630754539,63.09593192411407,84.1554121749658,125.797021756881,245.05555832407612,404.3704111235118,587.1841880130187,786.8887477331772,994.538064830537,1201.946048647084,1402.0493770278983
A2,0.0,0.0,1.7032983320069002,4.162161879427094,6.885638488646654,9.636742137974625,12.314933973523623,14.889732044779688,17.36409914042232,19.754877312017232,22.082798745234314,24.36775502649295,26.626867070108574,28.873980868608047,31.119836408160914,33.3725096420684,35.637923996191574,37.92033527799047,40.222750902872015,42.54727338353396,44.895371777757894,47.26809042402175,49.666205791364774,52.09034179935234,54.54105267823268,57.0188809271738,59.52439647130679,62.05822183431723,64.62104706697902,67.21363729754246,69.83683507436783,72.49155912649107,75.17880074627112,77.89961516893105,80.65512119166365,83.44649328694157,86.27495454263922,89.14177008010174,92.04824085286519,94.995697813017,97.98549645068564,101.01901170764414,104.09763325572045,107.22276112096941,110.395801627239,113.61816362800313,116.89125499271515,120.21647931292424,123.59523279351319,127.02890129526781,130.81068630846806,135.1700854629523,140.31601354092936,146.46848266860607,153.88644928269906,162.8981420972799,173.9407155587794,187.61890485710992,204.79913468531007,226.77050379343945,255.53827980982717,294.400062637564,349.1878600026844,431.3049801660104,566.623504090652,830.1375739513076,1569.4577536184142,2581.0861843354883,3771.6639408610436,5101.250881821426,6513.904910162641,7955.941212064183,9378.798980394715
IH2,0.0,0.0,0.0,0.014345172226874819,0.04024748726069039,0.07227699079181538,0.10629822604745004,0.1399361155686023,0.17213148327442232,0.20261918380361787,0.23154104884137278,0.25920529218390687,0.28595417136068657,0.3121002906612532,0.33790230699359436,0.36356124288374214,0.3892263139348272,0.41500417876679807,0.44096852708681744,0.46716862591191405,0.4936363539322307,0.5203917041130397,0.54744693081192,0.574809580941553,0.6024846473942584,0.6304760541385486,0.6587876452239665,0.6874238135386042,0.7163898733653664,0.7456922546679959,0.7753385764106742,0.805337640356145,0.8356993748375678,0.8664347491390204,0.8975556431101974,0.9290747769772331,0.961005606247719,0.9933622149656891,1.0261592163171105,1.05941166228112,1.0931349620552402,1.1273448085463715,1.1620571121587517,1.1972879411186836,1.2330534675921672,1.2693699188719978,1.3062535329389826,1.3437205177383635,1.3817870135554267,1.420469057920665,1.4597825525219907,1.5022010128195618,1.5505512347206385,1.6075656194761234,1.6759895590770622,1.7588658922458396,1.859900037783438,1.98392587977485,2.1375609434902563,2.3302209012726345,2.5758173823642845,2.8958039848122854,3.3250652525641122,3.9243957388637654,4.810386251445546,6.2407630270383265,8.936206516678686,16.076692308000094,27.078502995471244,40.86369599377074,56.6528213070812,73.67165964365368,91.18655502392868
IN2,0.0,0.0,0.0,0.05642930797717934,0.18317327201136024,0.3752593723871134,0.6210030328914252,0.907809537985855,1.2246214207519992,1.5626776416122148,1.9154876478616036,2.278492086716629,2.6486437353200527,3.024014324433206,3.4034668673415105,3.7864009121397766,4.1725639739984075,4.561917461271204,4.954544890311398,5.350591555347835,5.750226799153308,6.153622011230028,6.560939211369641,6.97232648423247,7.387917624449127,7.807834174430268,8.232188640020997,8.661088101177526,9.094637737772233,9.53294399822244,9.976117277180977,10.424274057957117,10.877538530463141,11.336043727119916,11.799932118920998,12.26935606019214,12.744477869000937,13.225469646770511,13.71251290684134,14.205798063558971,14.705523822095838,15.211896500990104,15.725129312833445,16.24544162307931,16.773058202331747,17.30820848359186,17.851125832700916,18.402046837552838,18.961210619481445,19.528858168490725,20.105231702623023,20.700242173772452,21.32944904838634,22.01228840230275,22.771710456118388,23.634814497145147,24.63436477184375,25.811323646356414,27.218834042093928,28.928544894420803,31.041040608171063,33.703966674694385,37.14571709478399,41.743708482297194,48.179941748871386,57.86091669802654,74.40331043561025,112.23208739342274,176.19600934632194,267.143348230363,384.48474076214984,525.9387512036924,687.9304313060062
D2,0.0,0.0,0.0,0.0,0.0013188974204109839,0.0050192578125087504,0.011664415863090138,0.021437491704284703,0.03430324046817882,0.05012903646920812,0.06875787651504067,0.09004579744108095,0.11387717330827105,0.1401678453893502,0.16886239584525092,0.19992918779424249,0.23335506639767006,0.26914059572320786,0.307296146049044,0.3478388626967853,0.390790420605435,0.43617542564584777,0.4840203218452912,0.5343526798986215,0.5872007643650491,0.6425932988511004,0.7005593677335917,0.761128408811867,0.8243302637681016,0.8901952628804876,0.9587543275991082,1.0300390798628278,1.1040819508459798,1.1809162845354304,1.2605764334357719,1.3430978422868705,1.42851712532821,1.5168721339007865,1.6082020142348485,1.7025472560992914,1.7999497331443706,1.900452735744417,2.004100997082123,2.1109407131452813,2.221019557236972,2.3343866895317946,2.451092762144232,2.5711899201113124,2.6947317986311305,2.821773516842183,2.9523716683760757,3.0865843088681344,3.2246969093592415,3.3672548369564366,3.5150546761731696,3.6691454233000194,3.830855833704571,4.001855339549421,4.184257801070212,4.380785494830411,4.595026375809068,4.831847436394559,5.098088116198292,5.40379514536098,5.764604714936072,6.206872393418602,6.780649140576573,7.602245391685158,9.080339044268772,11.56994092457318,15.32695564578188,20.53562506425925,27.30900919131611
R2,0.0,0.0,0.0,0.33735348207108495,1.1770581482481859,2.587525877029574,4.586817537436766,7.169326245871714,10.32039058404158,14.023794526310649,18.265245099518893,23.03367631719684,28.321447487457505,34.12403248046006,40.4395201003327,47.268087964003506,54.61152483049418,62.4728295395915,70.85589095638433,79.76524226552249,89.20587870031409,99.18312699603437,109.70255568937785,120.76991686532335,132.39111157603043,144.5721726844274,157.31926021977125,170.63866544827806,184.53682076862532,199.02031326422943,214.09590031054665,229.7705260742969,246.05133807751216,262.94570325397547,280.4612224220907,298.60574470499165,317.3873804189505,336.8145125232804,356.8958066874304,377.6402200263549,399.0570085610469,421.15573346795856,443.94626618555264,467.438792447729,491.64381531263933,516.5721572520627,542.2349613616673,568.6436917466656,595.810133130969,623.7463897312871,652.4648834308803,682.036150589646,712.5788550844708,744.2567126913644,777.2812093474702,811.91983486496,848.5105569755755,887.4845514777795,929.4011505586143,975.0023368610341,1025.3005491412985,1081.7269827214968,1146.3981625272913,1222.6363613718775,1316.1076625665569,1437.7597869286742,1613.7269566809387,1939.876349657216,2475.4538184769094,3261.6350837313166,4331.276128716736,5705.681263824929,7394.805288483982
G2,0.0,0.0,0.2838800706917159,0.7499113425394878,1.3412101304193031,2.0270139184163165,2.79147836123312,3.627116406267073,4.531008872228243,5.502647564095902,6.542728583051284,7.652492290505036,8.833373884927656,10.086827902678486,11.414248266822105,12.816939420952806,14.296113640868025,15.852900798084153,17.488363182946628,19.20351154348173,20.99932045585349,22.87674220325041,24.836718897492183,26.880192856591343,29.00811537905566,31.22145410308473,33.52119914543842,35.908368202141396,38.38401077279674,40.949211648004734,43.60509377806597,46.352820622008586,49.19359805938686,52.12867534883057,55.15934717528387,58.286954433718236,61.51288489031045,64.83857369023465,68.2655037116295,71.79520577613711,75.42925872906403,79.16928940164539,83.01697246621016,86.97403019311564,91.04223211646982,95.22339461399706,99.51938040493808,103.93209796859314,108.46350088498907,113.11558709814935,117.93903572554738,122.98358711442003,128.30312677048198,133.96028590529068,140.0314488660712,146.61309327508428,153.8306855110413,161.85205202310283,170.90859571215225,181.33076464164603,193.61091957695592,208.52300056951879,227.37219658583544,252.58474845117254,289.37475101040087,351.9972471284097,502.6183897579724,723.0283371135012,1006.656185196634,1352.7523376390277,1756.5818302715484,2211.9392894070797,2711.7012258016075
H2,192485.9984617452,203943.49837018244,214390.8014235974,223966.92216154496,232734.95309780215,240753.4720780583,248076.86484409455,254755.62455664776,260836.62992277837,266363.40345600503,271376.35128830443,275912.98585171305,280008.13265314116,283694.1222786102,287000.96868196543,289956.5347377557,292586.6859679931,294915.4332875263,296965.0655524234,298756.2726397306,300308.2597349477,301638.8534552513,302764.600391636,303700.8586114901,304461.8826244414,305060.9022783926,305510.1960193135,305821.1589173887,306004.36583336163,306069.6300722133,306026.0578465183,305882.0988487958,305645.59321079357,305323.8151077902,304923.51324756554,304450.9484665724,303911.9286399458,303311.8410972277,302655.6827219783,301948.08790071914,301193.3544748353,300395.4678380905,299558.12331221945,298684.74692359957,297778.5146952189,296842.37055999774,295879.042993947,294891.0604606103,276964.23431247834,259410.71426083564,242252.08904835707,225510.54963702537,209209.0187366346,193371.26288852602,178021.97924909217,163186.8462505559,148892.52363827304,135166.58299394592,122037.34490119018,109533.59380838549,97684.13723799115,86517.17375529025,76059.436332595,66335.0875889095,57364.36459281432,54158.642275854414,53930.20804844214,53701.79208674759,53473.48978816922,53245.388935168296,53017.5702474654,52790.10789470041,52563.069972381025
S3,10578076.969570076,10531885.81954919,10488581.604518015,10447918.216540605,10409682.696613597,10373678.047136772,10339721.9210623,10307645.479956701,10277292.374665268,10248517.82122213,10221187.755071843,10195178.052477045,10170373.81128601,10146668.685160127,10123964.266530732,10102169.51430261,10081200.222831076,10060978.529071452,10041432.4550895,10022495.483359843,10004106.162483934,9986207.741139874,9968747.82823897,9951678.077412155,9934953.894085381,9918534.163528556,9902380.99837861,9886459.504244689,9870737.562103145,9855185.626282338,9839776.536923135,9824485.213251818,9809288.923208684,9794166.64405638,9779099.126812536,9764068.75962295,9749059.444497311,9734056.48446107,9719046.479500039,9704017.230280604,9688957.64891729,9673857.676207008,9658708.20483306,9643501.008096002,9628228.673768371,9612884.54270263,9597462.651849648,9581957.681370081,9596429.172218978,9612010.579109484,9628762.115999794,9646750.524276232,9666049.487239307,9686739.983660828,9708910.536024434,9732657.283825727,9758083.77485217,9785300.307151033,9814422.547618926,9845568.93885953,9878855.908405563,9914388.536244404,9952239.888434783,9992393.95560746,10034523.450722678,10034318.829371655,10008708.72971461,9982443.776636533,9955322.292319532,9927490.164838688,9899026.654555978,9870010.652396867,9840515.875287466
E3,0.0,17.028169027589175,27.09003206039013,33.33833144680174,37.504132434762376,40.5396846659096,42.969740242267456,45.08400818828843,47.04278628514207,48.93503793742427,50.81037155402589,52.69667317902224,54.60983985147369,56.55915752407313,58.55027449275997,60.58684593718024,62.67144335455885,64.80605707132256,66.99237340841131,69.23192704878859,71.52618432324692,73.8765883002994,76.28458280219006,78.75162483456732,81.27919068082822,83.8687785608486,86.52190944920211,89.24012692468209,92.02499652261584,94.87810484049085,97.80105852600823,100.79548321044862,103.8630019662399,107.00528324765311,110.22400478327813,113.52085609055685,116.89753875012632,120.35576570172435,123.89726009734801,127.52375393161923,131.23698653380347,135.03870294881972,138.93065221114904,142.91458550628937,146.99225421091404,151.16540780164587,155.43579162186217,159.80514449565578,164.27519617773632,170.57617472049535,178.68987522466884,188.78104969095676,201.18236362758114,216.4116452210166,235.22331712568456,258.70559493144304,288.45013155434054,326.8492448930707,377.63627741572196,446.92553587646705,545.3708391348505,693.1125617008672,932.7383961417065,1370.3804483231293,2350.995308139034,5707.492677670046,8386.11110794634,10821.453870142757,13236.92790451349,15479.767722146958,17492.888582209347,19239.89240859067,20702.88277073921
I3,0.0,0.0,0.48665154975722713,1.1395354751180498,1.8082195626641049,2.429248504409345,2.9822016497857176,3.466746443461612,3.890912893751412,4.265310221288356,4.600445152674116,4.905622738860688,5.188625138406916,5.455748655360224,5.711985239824383,5.961243716660834,6.206562859058213,6.450297331373163,6.694271635722117,6.9399035991285505,7.188301428484194,7.4403389488638965,7.696713372719456,7.957989352925089,8.224632408135612,8.497034189000082,8.775531521209873,9.060420724285688,9.351968356230111,9.650419260907608,9.956002583562107,10.26893625767806,10.589430342733248,10.917688914146828,11.25391285214919,11.59830090343097,11.951050549974415,12.312358669115898,12.68242200892498,13.06143751229033,13.449602521064344,13.847114886215302,14.25417300424792,14.670975795213533,15.097722633658396,15.534613240776672,15.981847543685276,16.439625505960166,16.908146932230714,17.3876112486111,17.92761670591895,18.564875874130188,19.33165694981855,20.261690622922934,21.395097263093867,22.783555583025123,24.496960551165024,26.63326971422402,29.334389251643476,32.813542506732645,37.405535887899156,43.6661825005812,52.58832093086795,66.13438642583776,88.8107284647361,133.85879857418428,263.6019100332495,437.55139888966625,637.7334948602336,857.040282802471,1085.770014034481,1315.0082578849542,1537.0228229493623
A3,0.0,0.0,2.919939997726114,6.9869382161928115,11.319870906043665,15.50896670638799,19.38890209107137,22.917080274678142,26.10901959202833,29.004652221625346,31.651256597723467,34.095253940497045,36.37865314817249,38.53786885781205,40.60369578930326,42.60179804565567,44.55338350392169,46.47590058398583,48.383683185262974,50.288515415397015,52.200110596914946,54.12650968392846,56.07440850072233,58.04942428600539,60.0563115770902,62.0991363813184,64.18141630718746,66.30623308155901,68.47632275602338,70.69414793602287,72.96195555098606,75.28182300904422,77.65569502748973,80.08540947460008,82.57272631398583,85.11934462463992,87.72691668119876,90.39705929252489,93.13136277384602,95.93139794522449,98.79872150905643,101.73488010392491,104.74141327793149,107.81985557714788,110.97173790516273,114.1985882772902,117.50193206680353,120.8832918194582,124.34418669559952,127.88613158548249,131.80703572432265,136.3426830342928,141.71040950629674,148.14155028890906,155.9104181776093,165.3663620258033,176.97614300592676,191.38700799044,209.5282384034233,232.78524567479673,263.31751131432765,304.6836974956164,363.1912532700837,451.2011923445854,596.8255382240716,881.760610990395,1685.8239709563863,2789.956940724539,4093.0118568130256,5552.18341645494,7106.948516636938,8698.98247437443,10275.270897950759
IH3,0.0,0.0,0.0,0.024591723817499685,0.0677475826279489,0.11937459881853886,0.17209469174585396,0.22182652300903732,0.26686643133743826,0.30691605360950147,0.3423881840145551,0.3739843656178501,0.40246476048666,0.42853680291203,0.45281105033148505,0.4757921077698337,0.49788605606460395,0.51941428916513,0.5406286293796285,0.5617253539597287,0.5828572325381447,0.6041434067481443,0.6256772755461188,0.6475326735135501,0.669768650519553,0.6924331362685876,0.7155657316584428,0.7391998247683365,0.7633641889813823,0.7880841864582276,0.8133826721985857,0.8392806716777581,0.865797887652674,0.8929530782947246,0.9207643089795171,0.9492491972825924,0.9784250678863002,1.0083090605085294,1.0389182078653059,1.0702694919155782,1.102379883484607,1.1352663689566296,1.1689459668734612,1.2034357366352784,1.2387527809855352,1.2749142435486485,1.311937302362518,1.3498391600942612,1.3886370314328538,1.4283481280040524,1.468989641040233,1.5130749998988593,1.5634982073802064,1.6230859756098752,1.694711108289558,1.7815883457601835,1.8876578261382684,2.018080014525696,2.179937821393068,2.3833295570509136,2.643203660790645,2.9826570741911964,3.4393226161057275,4.078924917304621,5.027795376607399,6.565865121813587,9.477956148847934,17.237796326163487,29.235117016559876,44.30942861413958,61.62190881730107,80.33561059843004,99.65414715314266
IN3,0.0,0.0,0.0,0.09673595653230742,0.3091016596079101,0.6233245679877383,1.0150331007221798,1.4593613418499447,1.9350144324801968,2.425408528191926,2.918494406754829,3.4060738108526216,3.882997296148758,4.346415559861672,4.795147640587166,5.2291776105988514,5.649268863011791,6.056677172026628,6.452942685607932,6.839742944899586,7.218791949247934,7.591773277541113,7.9602979477293605,8.325879923559288,8.689923960768791,9.053721875279832,9.418454379631124,9.785196436146114,10.154924673357522,10.52852585343209,10.906805700704435,11.290497634609265,11.680271117131353,12.076739442739933,12.480466764563113,12.89197464720474,13.3117478721075,13.740239566464995,14.177875713129183,14.625059095344433,15.082172728902833,15.549582832854362,16.027641387584264,16.51668832595756,17.01705339959159,17.529057758421025,18.053015277780677,18.589233663401416,19.13801536109149,19.699658294515398,20.274456451411538,20.87251989286306,21.509777547865166,22.206242635079356,22.985705962279297,23.876453506825467,24.91290645505335,26.138344802640376,27.609189810337416,29.401817869752122,31.62381797899237,34.433594366169196,38.076865116984244,42.96076204253707,49.82295568704083,60.188983035486885,77.9933576382736,118.98363431934315,188.5556740752021,287.74327753387433,416.01612824296467,570.9929787856643,748.8688903143961
D3,0.0,0.0,0.0,0.0,0.002260967006418829,0.008489690548662956,0.019465010186123094,0.03528742356815316,0.05568218944117987,0.08021793166293156,0.10843584253819728,0.13991506673531076,0.17429924890381426,0.21130192311484536,0.25070166506098845,0.29233318518292495,0.336077587387725,0.38185331071936895,0.4296083432327526,0.4793138255659164,0.5309589441186919,0.5845469309552861,0.6400919720406534,0.6976168404546818,0.7571510976404461,0.8187297340953971,0.882392146981651,0.9481813743741772,1.0161435240532686,1.0863273492286465,1.1587839349111235,1.233566467403828,1.3107300660954377,1.390331661849242,1.4724299101577973,1.5570851274471718,1.6443592499061361,1.7343158065575173,1.8270199022525355,1.922538207833037,2.02093895546488,2.1222919376143006,2.2266685084784092,2.3341415869417625,2.444785660332887,2.5586767884092687,2.6758926071159537,2.79651233174953,2.9206167592225416,3.0482882691687805,3.1796108236616525,3.314669965339208,3.4537823219351322,3.5975305962617203,3.7467573794945257,3.902569388839211,4.066368905240645,4.239920466569982,4.425463064682153,4.6258868953494,4.845010594603062,5.0880271603649305,5.362253127046012,5.67846499641938,6.0534820032842145,6.515738311377798,7.119404996933721,7.990809795550576,9.575655536583543,12.263536853638612,16.33735278103405,22.002880897014364,29.38894973673951
R3,0.0,0.0,0.0,0.5783202549790027,1.9884623380113833,4.3091948383889065,7.531119433154945,11.604878832915523,16.467022668545916,22.053216409301854,28.30446109939833,35.16956347860801,42.6056723463352,50.57787961639353,59.05842268039268,68.02576743292327,77.46371009759852,87.36055987877495,97.70842448961561,108.50260046847599,119.74106078552515,131.4240285125893,143.55362450852598,156.13357765446582,169.1689873545914,182.66612938170044,196.63229748615973,211.0756744087248,226.00522700829873,241.430621131348,257.3621526209004,273.81069150607794,290.78763694561985,308.30488093774005,326.3747784747115,345.01012458243633,364.2241358106879,384.0304354378709,404.4430417250977,425.4763586455186,447.1451686045877,469.4646267470202,492.4502565143856,516.1179461739811,540.4839460861465,565.5648665150612,591.3776758187446,617.9396988787396,645.2686156498486,673.3824597261964,702.2996168325269,732.0975277916543,762.9030548711585,794.889867425784,828.2817786769239,863.3618331758038,900.4879950525598,940.1176588708236,982.8452959800693,1029.4611872992914,1081.046174674159,1139.1319374866157,1205.9895771773895,1285.1940022058018,1382.860399294039,1510.842195353553,1697.5351425919698,2047.5250570738326,2626.033260825324,3478.7352030269994,4642.405422009844,6141.3387363388,7987.515851878752
G3,0.0,0.0,0.48665154975722713,1.2608631554678569,2.213646196241041,3.2854845214365604,4.444076519047672,5.6721175754691995,6.960582730974198,8.30502820913866,9.70355273700141,11.155672810536293,12.661701886714194,14.222407747259451,15.838823559050944,17.51214391278053,19.243667861271987,21.03476794869791,22.88687360117977,24.801462438552495,26.780055940671513,28.824217493961974,30.93555172660128,33.11570453006011,35.36636343587365,37.68925816658437,40.0861612626691,42.55888873285031,45.109300700106715,47.73930202917356,50.45084292848249,53.24591952318068,56.12657439766651,59.09489652245955,62.15302255117763,65.30313708558947,68.54747301253077,71.88831184866069,75.32798406509595,78.8688693792691,82.51339700764372,86.2640458753327,90.12334477944705,94.09387250311448,98.17825787695372,102.37917978453812,106.69936710809381,111.14159861037471,115.70870274834668,120.40355741399163,125.27848904315817,130.38530379012937,135.78051629054858,141.53014849613433,147.71502147699817,154.43751710367312,161.83111758416334,170.07479330297724,179.41588519057123,190.20843014071554,202.98120707920913,218.56747261529597,238.376079269448,265.03300199936626,304.1973870752333,371.38696619698885,534.5025749459935,774.170971501497,1083.439530440444,1461.740419298146,1904.1398892387651,2404.0727548610143,2953.9336026499195
H3,577457.9953852355,574937.3454053793,572574.0996504556,570354.9202655542,568268.2354795501,566303.3210540991,564450.2394748157,562699.7834892409,561043.4236810763,559473.2597923385,557981.975525688,556562.7965783109,555209.4516764883,553916.1363964835,552677.4795726867,551488.5121081758,550344.6380160571,549241.6075322089,548175.4921514349,547142.6614496065,546139.7615641899,545163.6952146663,544211.603152821,543280.8469407335,542368.9929616023,541473.7975753085,540593.1933369237,539725.2762022031,538868.2936495347,538020.6336528524,537180.8144447001,536347.4750129766,535519.3662789256,534695.3429076821,533874.3557061632,533055.444566321,532237.7319147751,531420.4166326276,530602.7684118465,529784.1225170095,528963.8749234239,528141.4778047148,527316.4353448909,526488.2998516861,525656.6681496315,524821.1782328513,523981.5061590061,523137.36316713283,522288.4930033664,521233.2821606297,519977.8942647773,518528.6985869561,516892.2754991722,515075.4234264009,513085.167075092,510928.76662624115,508613.72745495767,506147.8097694791,503539.03734275664,500795.70423277165,497926.3780523603,494939.89796428103,491845.3651688084,488652.1232725516,485369.7256689578,482007.88705734524,478635.9004065799,475289.2941894827,471967.85711988877,468671.38080803456,465399.6596457672,462152.4906992842,458929.6736088699
S4,5289038.484785038,5377163.442043171,5464908.415591801,5552294.927054003,5639343.547350775,5726073.687967284,5812503.463098902,5898649.660149661,5984527.767333921,6070152.030056116,6155535.520473071,6240690.2117234655,6325627.052248484,6410356.037817699,6494886.280088123,6579226.071193323,6663382.944223897,6747363.729655206,6831174.607878107,6914821.158035761,6998308.4033881,7081640.853428213,7164822.542969437,7247857.068412214,7330747.621388169,7413497.01996669,7496107.737597086,7578581.929947679,7660921.459791982,7743127.920081599,7825202.655335608,7907146.63962911,7988960.95371893,8070646.284130669,8152203.153150904,8233631.925986661,8314932.820943388,8396105.920431148,8477151.181857198,8558068.44801777,8638857.45684719,8719517.85048989,8800049.183706786,8880450.931646055,8960722.497014698,9040863.216688422,9120872.367796099,9200749.173312966,9309663.047889818,9418474.28111283,9527163.81604678,9635709.569672888,9744086.104932625,9852264.20233761,9960210.309086565,10067885.814956399,10175246.051253485,10282238.800749926,10388801.868682835,10494858.704967018,10600309.63279787,10705012.13009485,10808729.940476857,10910974.585983912,11010344.847412594,11087793.059442993,11157781.569280015,11226059.905160604,11291967.87780469,11355982.581184441,11418368.459444733,11479379.008898584,11539244.831792569
E4,0.0,25.54225354138377,41.06174337942146,51.085095406249096,58.13974961224275,63.63589751575189,68.35923108810243,72.7465761890089,77.04016710172621,81.37400514925369,85.82217805677627,90.42586367098778,95.20838838632031,100.18359428104353,105.36046213878045,110.74564365156826,116.34482990971594,122.16347555120005,128.20716899828477,134.48181069767347,140.99368920821138,147.7495046265721,154.75636630839975,162.0217793136344,169.55362708387906,177.36015407445424,185.4499500251737,193.83193648226623,202.51535564289995,211.5097613398654,220.82501188208215,230.4712644423099,240.4589210745933,250.79874331603722,261.50176605546767,272.5793039680807,284.0429532388489,295.9045913194676,308.1763758484709,320.87074315839146,334.0004064916837,347.5783539218353,361.61784592685103,376.13241254468886,391.1358500349652,406.642216970229,422.6658296799237,439.22125696962485,456.32331403674397,479.0176800519676,507.35139205947456,541.9191545260625,583.8370127684515,634.811625678532,697.3158717271748,774.9114527985981,872.8076978987979,998.8387946392043,1165.2402496258112,1392.0693796734631,1714.3096102401564,2198.1635434707205,2983.768839186093,4420.740732601291,7646.6929057863845,18713.84628968425,27634.62876003894,35861.878598425865,44140.47950656618,51952.86038433487,59095.05132333917,65428.20445399771,70873.5281836606
I4,0.0,0.0,0.7299773246358409,1.7214978252187891,2.752280605019056,3.7276941117574864,4.617001652565058,5.4195839889305475,6.1474604016504735,6.816576493711595,7.442732102143413,8.039905356051715,8.619766310605957,9.191742195384021,9.763305521679932,10.340322483717891,10.92738686789545,11.528109825067096,12.145358094967719,12.781443419688541,13.438269828214656,14.117446375804354,14.820372445666367,15.54830171884591,16.302389808320036,17.083729522312563,17.893376839707667,18.73236995997327,19.601743218532462,20.502537214062386,21.435806153293502,22.402623160055533,23.404084100324045,24.441308910861526,25.515445871841102,26.627672352692052,27.779195555894823,28.97125312459323,30.20511359177582,31.4820766866091,32.80347352173425,34.17066668288115,35.58505023672772,37.048049667451835,38.561121747806254,40.125754346930165,41.74346617436719,43.41580645769463,45.14435454960331,46.93071945905252,48.92031055527804,51.22362930500236,53.94062410346047,57.178220780808736,61.06546231648066,65.7698927333864,71.51907606526501,78.63272057080417,87.57472252132949,99.04300471683351,114.13471217694112,134.6732579045891,163.91947542625405,208.32625900173346,282.7294499132411,430.7782438182342,858.2072716599357,1434.0223365173904,2101.408525968116,2839.0037061357807,3615.979791240092,4403.365184443643,5175.443070531217
A4,0.0,0.0,4.379909996589172,10.55357576880581,17.223266492487394,23.781676474897885,29.983597817599765,35.76711637396796,41.15748625316359,46.216497379502485,51.016679779701946,55.628902603132566,60.11705978493987,64.53639043549298,68.93356666345824,73.34755674676592,77.81075155952209,82.3501025645753,86.9881585914624,91.74396075828045,96.63379071036411,101.67178371088899,106.87042432036007,112.24094351156853,117.79363480806103,123.53810483812134,129.4834712860893,135.63851894044805,142.01182252401,148.61184328357677,155.44700490323268,162.52575315464196,169.85660277069218,177.44816577862423,185.30919387310516,193.44859762738793,201.87546300292337,210.59906488462036,219.6288778936485,228.97458487349303,238.64608343928285,248.65349092403721,259.0071479887825,269.71762110156095,280.7957040376725,292.2524185103392,304.0990140062041,316.346966872155,329.0079786774822,342.0939738571073,356.47973322681503,372.8748452040883,391.95033602911616,414.43570533425293,441.2086216320939,473.3969652067053,512.5159796469488,560.6740812959749,620.9054790577494,697.741538040112,798.255515217653,934.1185999012808,1126.0426240456616,1414.6676467839252,1892.5355849262955,2828.9342255297324,5477.633421065597,9131.443390623677,13472.368026051747,18373.12364629986,23642.88468323818,29093.64412486254,34550.822209386235
IH4,0.0,0.0,0.0,0.03688758572624954,0.10223759830992724,0.181335427143109,0.26331741236936107,0.34214029667439727,0.41527505201056814,0.48228377117661503,0.5437912342408919,0.6008540742216575,0.6546153576428759,0.7061372420607785,0.7563351089726614,0.8059648990997015,0.8556354835250193,0.905830650075861,0.9569328334273473,1.009244961060411,1.063009053944505,1.1184213570358836,1.1756442898617696,1.234815696319502,1.2960559002663326,1.3594730287329,1.425166994002336,1.4932324520446827,1.5637609879067145,1.6368427221332031,1.7125674864740987,1.7910256809667502,1.8723088964556442,1.956510365174999,2.043725214118453,2.1340507856655893,2.2275868077894083,2.324435501990542,2.424701658611668,2.528492690663949,2.6359186715537986,2.7470923601402912,2.8621292156200537,2.9811474040764865,3.1042677979804245,3.2316139694688535,3.363312177855171,3.499491351531646,3.6402830641993265,3.785821505188393,3.936243443499357,4.098953307335022,4.282595334448917,4.4957929146264535,4.747513408280261,5.047983977236386,5.409898025687759,5.850001241255179,6.391370438151451,7.066985328148771,7.9257445334925185,9.043299815640811,10.543060409202347,12.640810637311237,15.75181717338419,20.79740601067848,30.364073415876362,55.91713026245462,95.57583437298601,145.69185684330412,203.67782602536641,266.90653580959577,332.82812916454816
IN4,0.0,0.0,0.0,0.14510393479846118,0.4660765184925331,0.9449977751913103,1.5477581657041253,2.239127587204637,2.9889059872364463,3.773699881583681,4.576707220013593,5.3867242755795415,6.196964655657224,7.00395437820029,7.8066015362590795,8.605459313177787,9.402166052019744,10.199033600629782,10.998753470423521,11.804193329557847,12.618260914607719,13.443817125042964,14.283624239647331,15.14031866352833,16.016400377298762,16.91423339817981,17.83605318325361,18.783978113193424,19.760023082976055,20.7661138707467,21.80410141802697,22.875775481132408,23.982877341108924,25.12711141491207,26.310155432313234,27.533669973526294,28.79930676001443,30.108715880443068,31.463552080465938,32.86548022178562,34.316180003604444,35.817350030694755,37.37071130424183,38.97801020364011,40.64102101952699,42.36154809067972,44.141427590143344,45.982528999216164,47.886756301753465,49.85604892567511,51.89238245356151,54.026347781213225,56.3060265805841,58.79233518104763,61.55853419679216,64.6928193340543,68.30379000742226,72.5293955683496,77.55095856915895,83.61549202625912,91.07261029766318,100.43887835284988,112.51775833942814,128.64337341638327,151.23740109035847,185.31634678160157,243.83947657019283,378.76615193889774,608.4167328767469,937.1382485540446,1364.3955469661225,1883.6037868760266,2483.382362244501
D4,0.0,0.0,0.0,0.0,0.003391450509628245,0.01279119158958273,0.02946319965652759,0.053672644508825786,0.08512907790438484,0.12330953235941625,0.16765077913226822,0.2176470318603308,0.27288965118906483,0.33307509148228975,0.39799746203879727,0.46753503247810463,0.5416355737300916,0.6203028364290424,0.7035850507391685,0.7915656079296525,0.8843557504705445,0.9820889722783919,1.084916810062291,1.1930057334085524,1.3065348852933731,1.4256944712875592,1.5506846381783437,1.681714718704191,1.819002748288535,1.9627751826986035,2.1132667633988715,2.2707204909992185,2.435387677503363,2.607528055791861,2.787409930531738,2.9753103523809736,3.171515321671437,3.3763200077407265,3.590028978187498,3.8129564350512104,4.045426455940686,4.287773238631272,4.540341347965786,4.803485964123983,5.077573131494154,5.362980007498822,5.660095110802473,5.969318568370986,6.29106236086717,6.6257505658608755,6.97381959831035,7.335718447737546,7.712576867973256,8.106319365444778,8.519663282410393,8.956150421673655,9.420262872926077,9.91764975946334,10.455499805769364,11.04312342230404,11.692863179482838,12.42155739484236,13.252999820922607,14.222330474958504,15.384528619238687,16.832753200177567,18.744870022820933,21.536547771125917,26.67757763772955,35.46483507978401,48.85976761363911,67.58593939403157,92.12536882734399
R4,0.0,0.0,0.0,0.8674803824685042,2.9971851724356124,6.52716282406929,11.46527823330005,17.760466642768584,25.34125759944905,34.135513824138386,44.07969764264046,55.122488059483416,67.22548433788953,80.3625133869898,94.51836007612476,109.68734627444725,125.87196678389849,143.0816725901449,161.33183016772472,180.6428548883788,201.03950271781778,222.55029940477633,245.20708587221054,269.0446601203742,294.1004983720856,320.41454077952403,348.0290294565925,376.98838877032654,407.3391396824462,439.12984148767526,472.41105557903177,507.2353269188881,543.6571797451539,581.7331247282902,621.5216736612585,663.0833641557765,706.4807896972246,751.778634266343,799.0437107520562,848.3450024631447,899.7537071457895,953.3432830075443,1009.1894963283963,1067.3704703048147,1127.9667348241796,1191.0612769066106,1256.7395915809436,1325.0897329832069,1396.2023654808816,1470.1708146357046,1547.0911178227232,1627.2329272252273,1711.0145732675294,1798.9985988196352,1891.9052073994242,1990.643585135971,2096.364265308337,2210.5400537600935,2335.089809985473,2472.5712852004945,2626.4921556007957,2801.836350283744,3006.0123690586734,3250.7094554044866,3555.967883157528,3960.716355615679,4558.408028308948,5693.991633620575,7585.623249286042,10390.22621667761,14238.345037424486,19221.37112126535,25391.19642421743
G4,0.0,0.0,0.7299773246358409,1.9034893457435,3.363460808833132,5.025048687450806,6.843712108988219,8.797364653506529,10.876404037280228,13.078150840055466,15.403755292987274,17.856484995587834,20.44078437753097,23.16176451832128,26.02493209306914,29.03605044054977,32.2010729996151,35.52611585595914,39.01745098449807,42.68151007281894,46.52489343859039,50.554381121499496,54.776944644676114,59.19975871098929,63.83021251196186,68.67592054161787,73.74473291396802,79.0447452309663,84.58430806527382,90.37203612420808,96.41681715604165,102.72782065168806,109.31450638599318,116.18663141624778,123.35426035592799,130.82777318687047,138.61787325534468,146.7355953173787,155.192313577139,163.9997496944476,173.16998074963533,182.71544715740765,192.6489605212972,202.98371141876862,213.733277105028,224.91162912142653,236.5331407921557,248.6125945907348,261.16518935557826,274.2065473316786,287.89649226825446,302.3961921958976,317.8838113266417,334.5694095614875,352.7118217574099,372.6405556745166,394.7869096846314,419.7310606461528,448.27708027875383,481.5787213654223,521.3629588773979,570.3565663072623,633.1783349493671,718.4520791408067,844.7933390325583,1063.3297504981304,1598.1566179104718,2387.9323648653753,3412.836379434013,4674.336234415122,6159.107731538142,7847.99737451096,9717.883505179623
H4,288728.99769261776,293541.1476541614,298332.2921992062,303103.74302962667,307856.70069850626,312592.2693275025,317311.46366962,322015.21566524345,326704.3805276538,331379.74239166273,336042.0195565989,340691.8693526463,345329.89265746553,349956.6380881029,354572.60589140694,359178.25155451265,363773.9891554141,368360.19447221456,372937.20786831627,377505.33696957823,382064.85914832493,386616.0238280265,391159.05462148204,395694.1513144222,400221.491705595,404741.23331360833,409253.5149600692,413758.4582378769,418256.16887289524,422746.73798664135,427230.2432670818,431706.75005412096,436176.31234589574,440638.9737315535,445094.7682557842,449543.7212200022,453985.8499247216,458421.1643573447,462849.6678292832,467271.3575660486,471686.2252536904,476094.2575447189,480495.4365264249,484889.74015429895,489277.142653063,493657.61488764326,498031.1247062503,502397.63725757535,477586.8745884733,452983.0886566394,428611.6640573839,404500.99199452193,380682.76663578174,357192.2916420823,334068.7869613089,311355.6806002823,289100.8628439295,267356.87092680763,246180.96026887276,225635.0042043259,205785.14848568436,186701.1317344054,168455.17221264512,151120.32093439525,134768.19985167397,131608.16137321212,135624.89376535665,139613.5262687448,143574.2703869905,147507.3358629896,151412.93070305654,155291.2612001046,159142.53195593198
E_Om,0.0,0.0,0.0,0.0,0.0,0.0,0.0,0.0,0.0,0.0,0.0,0.0,0.0,0.0,0.0,0.0,0.0,0.0,0.0,0.0,0.0,0.0,0.0,0.0,0.0,0.0,0.0,0.0,0.0,0.0,0.0,0.6199364837120567,0.9597181440694007,1.1910829281038375,1.3907071125320922,1.5936767731633166,1.8170824257345122,2.070445064507628,2.3603366993084083,2.692443859648154,3.072508653640462,3.506781474485032,4.00226587587311,4.566879903536678,5.209589162771962,5.940536484299031,6.771179716207296,7.714443398843665,8.784887656507136,10.136096082155692,11.816389501489052,13.909045123045297,16.537899464673227,19.88182584298414,24.200800006566524,29.880380146036813,37.508585166074155,48.013683707517664,62.92374436266043,84.88701349211703,118.80020418725925,174.5145669536684,274.2678152633819,477.44277186260433,991.9746969940711,3023.258876920743,5173.959821047197,8042.490092711312,11597.609691414793,15745.689918250513,20419.578636679908,25528.014362027614,30972.92792970461
I_Om,0.0,0.0,0.0,0.0,0.0,0.0,0.0,0.0,0.0,0.0,0.0,0.0,0.0,0.0,0.0,0.0,0.0,0.0,0.0,0.0,0.0,0.0,0.0,0.0,0.0,0.0,0.0,0.0,0.0,0.0,1.0,0.7506888030864525,0.5812509715293525,0.4637665786128938,0.38218458212785655,0.32664699151442667,0.29075625582528974,0.2701982385663281,0.2620064682323749,0.264141870702206,0.27523625236245497,0.29442663047753487,0.32124380484516735,0.3555357081304887,0.3974144765476747,0.44722051937744245,0.5054992521034568,0.5729875682227381,0.6506080185330764,0.7394692683797918,0.8447928775591739,0.9718795833747618,1.1270885864629894,1.3187328168871497,1.558164755522738,1.8613364831136983,2.2512419949995417,2.761947739404926,3.4455561982455603,4.384851108328381,5.717662072124224,7.687400400906011,10.758333157751201,15.914516621945559,25.591784745692042,47.56131543186251,122.10608506797934,239.53133420253033,409.66147136319535,638.9787556202263,929.6735124065551,1281.4708397590255,1691.5561910852173
A_Om,0.0,0.0,0.0,0.0,0.0,0.0,0.0,0.0,0.0,0.0,0.0,0.0,0.0,0.0,0.0,0.0,0.0,0.0,0.0,0.0,0.0,0.0,0.0,0.0,0.0,0.0,0.0,0.0,0.0,0.0,0.0,0.0,0.10630487235049488,0.24981986601312023,0.4045841784814155,0.5629269974413478,0.7247132400005394,0.8927652086694926,1.070978855582717,1.2636054534616894,1.4750293816498177,1.7097512936085684,1.9724522470088655,2.2680871227931694,2.6019872064123373,2.9799652699551165,3.4084220765388333,3.8944554187068787,4.445973569556132,5.071815224900667,5.805404557426052,6.681831695308253,7.743516981825099,9.045714150885965,10.66340610640264,12.701304588419875,15.30949661625542,18.709174871935517,23.2368996043219,29.424600969195183,38.15296903672017,50.967939184801054,70.7985237142558,103.80687507162767,165.1174668382356,302.51535786095843,761.0189623619874,1497.5076524294955,2580.015240738104,4057.743891572401,5954.0956681202715,8276.3225959573,11014.591122944983
R_Om,0.0,0.0,0.0,0.0,0.0,0.0,0.0,0.0,0.0,0.0,0.0,0.0,0.0,0.0,0.0,0.0,0.0,0.0,0.0,0.0,0.0,0.0,0.0,0.0,0.0,0.0,0.0,0.0,0.0,0.0,0.0,0.24931119691354747,0.4364663209206293,0.5813786963397745,0.6970008971422558,0.7922837927544557,0.8737205451771267,0.9462093353270312,1.0135727815879347,1.0788939277820393,1.1447474537217899,1.2133669332322725,1.28677078887985,1.3668604663668604,1.4554994993063783,1.55457937812525,1.6660764610955385,1.7921030846763546,1.9349553011265483,2.097159164948581,2.281517133329132,2.4921334567774496,2.7344339189644513,3.0154297234831384,3.3442045804704477,3.7326725006583263,4.196724527122256,4.757984363437634,5.446568860161342,6.305584599978836,7.39877707808388,8.824254252832365,10.740809247935927,13.422982164289582,17.390649351607376,23.770967837709726,35.62853631481014,66.07095053353552,125.78879416186729,227.9219859167905,387.2265442827983,619.0045603996982,938.4895892698297
G_Om,0.0,0.0,0.0,0.0,0.0,0.0,0.0,0.0,0.0,0.0,0.0,0.0,0.0,0.0,0.0,0.0,0.0,0.0,0.0,0.0,0.0,0.0,0.0,0.0,0.0,0.0,0.0,0.0,0.0,0.0,0.0,0.0,0.017717292449981728,0.0451452749526682,0.07918547927011227,0.11893078426888232,0.16447680100241646,0.2164075738933594,0.27557924982030974,0.3430357984842456,0.4199837060842451,0.5077935637098078,0.6080145937250173,0.7223961744973495,0.8529139758540533,1.0017998975026927,1.1715757131989957,1.365090652899093,1.585563319659625,1.8366284333283733,2.1263100108883064,2.4640130401522113,2.8615225054274407,3.3341625403702873,3.9023693359931855,4.594008983772024,5.447966522121797,6.519932102842559,7.892125058406904,9.690435708307216,12.116439150208102,15.511654653738372,20.499142405687127,28.337498786235145,41.982434097299425,70.33228326957224,156.73462138278947,304.6022847360658,534.4502655250627,865.9007415370165,1315.9000566893533,1899.475400158724,2629.0457803550466
beta,1.3856254574165991,1.3856254574165838,1.385278530382932,1.3850047076170284,1.3847679383699292,1.384548441530251,1.384335299061977,1.3841224370160203,1.3839064337525298,1.3836853215944487,1.3834579301896504,1.3832235259877288,1.382981613930138,1.3827318281719279,1.382473871755253,1.3822074832417452,1.3819324182142383,1.3816484389923644,1.3813553088915156,1.38105278899889,1.3807406363460069,1.3804186028574863,1.3800864347325672,1.3797438720683293,1.379390648619352,1.3790264916344617,1.3786511217386466,1.3782642528415212,1.3778655920630003,1.3774548396703612,1.3770316890241054,1.376595826531175,1.3761457389455372,1.3756825910710713,1.375205825756965,1.3747149951529554,1.3742096947161413,1.3736895338884045,1.3731541229649986,1.3726030671108858,1.3720359635256931,1.3714523999847086,1.370851953968286,1.3702341920277148,1.3695986692279631,1.36894492859338,1.3682725005192722,1.3675809021291463,1.3668696365635615,1.4247372872060484,1.4901312139789928,1.564646812230602,1.6503612348717065,1.7500297389004378,1.8673853557178457,2.0076113346174824,2.1781143813505146,2.3898471430490598,2.6596923598590063,3.0150460037847076,3.5033627160668708,4.214192947964269,5.337561922509628,7.351697197104678,11.833575963017964,27.141290686352914,18.321952924903037,10.332284795766167,6.979233875140418,5.1019551682423225,3.946471197493061,3.178983325480497,2.640590358969855
