series,2021-12-01,2021-12-02,2021-12-03,2021-12-04,2021-12-05,2021-12-06,2021-12-07,2021-12-08,2021-12-09,2021-12-10,2021-12-11,2021-12-12,2021-12-13,2021-12-14,2021-12-15,2021-12-16,2021-12-17,2021-12-18,2021-12-19,2021-12-20,2021-12-21,2021-12-22,2021-12-23,2021-12-24,2021-12-25,2021-12-26,2021-12-27,2021-12-28,2021-12-29,2021-12-30,2021-12-31,2022-01-01,2022-01-02,2022-01-03,2022-01-04,2022-01-05,2022-01-06,2022-01-07,2022-01-08,2022-01-09,2022-01-10,2022-01-11,2022-01-12,2022-01-13,2022-01-14,2022-01-15,2022-01-16,2022-01-17,2022-01-18,2022-01-19
S,340516.1725395513,340516.1725395513,340515.2804815411,340514.59032931994,340513.88666778966,340513.07516225905,340512.09993216384,340510.9137757203,340509.4666854547,340507.7005669647,340505.5458871759,340502.9186998338,340499.7174402341,348244.6765706596,355988.55372269126,363731.0496063302,371471.7313518,379209.99324943125,386944.98874768073,394675.5247776808,402399.900064374,410115.6557610642,417819.1850144039,425505.11055742187,433165.27268441836,440787.04839803773,448350.4965269399,455823.3964334921,458611.34495351324,457994.58330941474,457110.7799838277,455840.736504655,454034.3545982173,451502.7217188084,448021.93074506125,443349.0055099784,437251.3133333118,429545.28008420125,420133.70231574174,409029.1449587377,396356.3211970862,382335.0596539924,367251.42069861176,351425.48970405816,335182.12368142477,318827.95950546913,302635.64965516236,286834.8534443504,271608.80426040204,257095.04626810848
E,0.0,0.0,0.0,0.0,0.0,0.0,0.0,0.0,0.0,0.0,0.0,0.0,0.0,0.0,0.0,0.0,0.0,0.0,0.0,0.0,0.0,0.0,0.0,0.0,0.0,0.0,0.0,0.0,0.0,0.0,0.0,0.0,0.0,0.0,0.0,0.0,0.0,0.0,0.0,0.0,0.0,0.0,0.0,0.0,0.0,0.0,0.0,0.0,0.0,0.0
I,0.0,0.0,0.0,0.0,0.0,0.0,0.0,0.0,0.0,0.0,0.0,0.0,0.0,0.0,0.0,0.0,0.0,0.0,0.0,0.0,0.0,0.0,0.0,0.0,0.0,0.0,0.0,0.0,0.0,0.0,0.0,0.0,0.0,0.0,0.0,0.0,0.0,0.0,0.0,0.0,0.0,0.0,0.0,0.0,0.0,0.0,0.0,0.0,0.0,0.0
A,0.0,0.0,0.0,0.0,0.0,0.0,0.0,0.0,0.0,0.0,0.0,0.0,0.0,0.0,0.0,0.0,0.0,0.0,0.0,0.0,0.0,0.0,0.0,0.0,0.0,0.0,0.0,0.0,0.0,0.0,0.0,0.0,0.0,0.0,0.0,0.0,0.0,0.0,0.0,0.0,0.0,0.0,0.0,0.0,0.0,0.0,0.0,0.0,0.0,0.0
IH,0.0,0.0,0.0,0.0,0.0,0.0,0.0,0.0,0.0,0.0,0.0,0.0,0.0,0.0,0.0,0.0,0.0,0.0,0.0,0.0,0.0,0.0,0.0,0.0,0.0,0.0,0.0,0.0,0.0,0.0,0.0,0.0,0.0,0.0,0.0,0.0,0.0,0.0,0.0,0.0,0.0,0.0,0.0,0.0,0.0,0.0,0.0,0.0,0.0,0.0
IN,0.0,0.0,0.0,0.0,0.0,0.0,0.0,0.0,0.0,0.0,0.0,0.0,0.0,0.0,0.0,0.0,0.0,0.0,0.0,0.0,0.0,0.0,0.0,0.0,0.0,0.0,0.0,0.0,0.0,0.0,0.0,0.0,0.0,0.0,0.0,0.0,0.0,0.0,0.0,0.0,0.0,0.0,0.0,0.0,0.0,0.0,0.0,0.0,0.0,0.0
D,10054.0,10054.0,10054.0,10054.0,10054.0,10054.0,10054.0,10054.0,10054.0,10054.0,10054.0,10054.0,10054.0,10054.0,10054.0,10054.0,10054.0,10054.0,10054.0,10054.0,10054.0,10054.0,10054.0,10054.0,10054.0,10054.0,10054.0,10054.0,10054.0,10054.0,10054.0,10054.0,10054.0,10054.0,10054.0,10054.0,10054.0,10054.0,10054.0,10054.0,10054.0,10054.0,10054.0,10054.0,10054.0,10054.0,10054.0,10054.0,10054.0,10054.0
R,0.0,0.0,0.0,0.0,0.0,0.0,0.0,0.0,0.0,0.0,0.0,0.0,0.0,0.0,0.0,0.0,0.0,0.0,0.0,0.0,0.0,0.0,0.0,0.0,0.0,0.0,0.0,0.0,0.0,0.0,0.0,0.0,0.0,0.0,0.0,0.0,0.0,0.0,0.0,0.0,0.0,0.0,0.0,0.0,0.0,0.0,0.0,0.0,0.0,0.0
G,771709.0,771709.0,771709.0,771709.0,771709.0,771709.0,771709.0,771709.0,771709.0,771709.0,771709.0,771709.0,771709.0,771709.0,771709.0,771709.0,771709.0,771709.0,771709.0,771709.0,771709.0,771709.0,771709.0,771709.0,771709.0,771709.0,771709.0,771709.0,771709.0,771709.0,771709.0,771709.0,771709.0,771709.0,771709.0,771709.0,771709.0,771709.0,771709.0,771709.0,771709.0,771709.0,771709.0,771709.0,771709.0,771709.0,771709.0,771709.0,771709.0,771709.0
H,119440.62905338388,119440.62905338388,119440.62905338386,119440.62905338389,119440.62905338388,119440.62905338388,119440.62905338389,119440.62905338386,119440.62905338386,119440.62905338386,119440.62905338388,119440.62905338388,119440.62905338386,113921.65706283935,108504.55981769742,103196.66981049643,98005.95854655642,92941.0791963577,88011.40014834405,83227.02322418717,78598.77801820738,74138.1810448911,69857.3452606865,65768.82243892823,61885.358563896385,58219.54214264437,54783.3290016697,51587.437128018835,50367.554666594435,50367.55466659443,50367.55466659443,50367.55466659443,50367.55466659443,50367.55466659442,50367.55466659443,50367.55466659443,50367.55466659443,50367.55466659443,50367.55466659443,50367.55466659442,50367.55466659443,50367.55466659443,50367.55466659443,50367.55466659443,50367.55466659442,50367.55466659442,50367.55466659443,50367.55466659443,50367.55466659443,50367.55466659442
S0,119180.66038884294,118912.50390296805,118484.03830968564,118057.2017535215,117631.89652565724,117208.0771143971,116785.71468975079,116364.78434776959,115945.26023143332,115527.11332911972,115110.31011671985,114694.81138083151,114280.57096706278,116458.92013353115,118569.11132477815,120607.81894675475,122571.3888197962,124455.81252226456,126256.69637945225,127969.225036315,129588.11699541345,131107.56575272905,132521.15347615603,133821.7116878789,135001.0799764667,136049.66976898376,136955.6575043972,137703.47587545004,137553.457666999,136822.98367768963,135994.49992917565,135024.03317342183,133856.7368006174,132424.27040841765,130646.74488455379,128439.28038926674,125723.54476079466,122442.47167025102,118573.91118619434,114138.41891420055,109198.63501335047,103851.15411212597,98214.08209252535,92413.77422226786,86573.27158593007,80803.6975153436,75198.88588156382,69832.90910220903,64759.88907471614,60015.40433764244
E0,0.0,0.0,0.0,0.0,0.0,0.0,0.0,0.0,0.0,0.0,0.0,0.0,0.0,0.0,0.0,0.0,0.0,0.0,0.0,0.0,0.0,0.0,0.0,0.0,0.0,0.0,0.0,0.0,0.0,0.0,0.0,0.0,0.0,0.0,0.0,0.0,0.0,0.0,0.0,0.0,0.0,0.0,0.0,0.0,0.0,0.0,0.0,0.0,0.0,0.0
I0,0.0,0.0,0.0,0.0,0.0,0.0,0.0,0.0,0.0,0.0,0.0,0.0,0.0,0.0,0.0,0.0,0.0,0.0,0.0,0.0,0.0,0.0,0.0,0.0,0.0,0.0,0.0,0.0,0.0,0.0,0.0,0.0,0.0,0.0,0.0,0.0,0.0,0.0,0.0,0.0,0.0,0.0,0.0,0.0,0.0,0.0,0.0,0.0,0.0,0.0
A0,0.0,0.0,0.0,0.0,0.0,0.0,0.0,0.0,0.0,0.0,0.0,0.0,0.0,0.0,0.0,0.0,0.0,0.0,0.0,0.0,0.0,0.0,0.0,0.0,0.0,0.0,0.0,0.0,0.0,0.0,0.0,0.0,0.0,0.0,0.0,0.0,0.0,0.0,0.0,0.0,0.0,0.0,0.0,0.0,0.0,0.0,0.0,0.0,0.0,0.0
IH0,0.0,0.0,0.0,0.0,0.0,0.0,0.0,0.0,0.0,0.0,0.0,0.0,0.0,0.0,0.0,0.0,0.0,0.0,0.0,0.0,0.0,0.0,0.0,0.0,0.0,0.0,0.0,0.0,0.0,0.0,0.0,0.0,0.0,0.0,0.0,0.0,0.0,0.0,0.0,0.0,0.0,0.0,0.0,0.0,0.0,0.0,0.0,0.0,0.0,0.0
IN0,0.0,0.0,0.0,0.0,0.0,0.0,0.0,0.0,0.0,0.0,0.0,0.0,0.0,0.0,0.0,0.0,0.0,0.0,0.0,0.0,0.0,0.0,0.0,0.0,0.0,0.0,0.0,0.0,0.0,0.0,0.0,0.0,0.0,0.0,0.0,0.0,0.0,0.0,0.0,0.0,0.0,0.0,0.0,0.0,0.0,0.0,0.0,0.0,0.0,0.0
D0,10054.0,10054.0,10054.0,10054.0,10054.0,10054.0,10054.0,10054.0,10054.0,10054.0,10054.0,10054.0,10054.0,10054.0,10054.0,10054.0,10054.0,10054.0,10054.0,10054.0,10054.0,10054.0,10054.0,10054.0,10054.0,10054.0,10054.0,10054.0,10054.0,10054.0,10054.0,10054.0,10054.0,10054.0,10054.0,10054.0,10054.0,10054.0,10054.0,10054.0,10054.0,10054.0,10054.0,10054.0,10054.0,10054.0,10054.0,10054.0,10054.0,10054.0
R0,0.0,0.0,0.0,0.0,0.0,0.0,0.0,0.0,0.0,0.0,0.0,0.0,0.0,0.0,0.0,0.0,0.0,0.0,0.0,0.0,0.0,0.0,0.0,0.0,0.0,0.0,0.0,0.0,0.0,0.0,0.0,0.0,0.0,0.0,0.0,0.0,0.0,0.0,0.0,0.0,0.0,0.0,0.0,0.0,0.0,0.0,0.0,0.0,0.0,0.0
G0,771709.0,771709.0,771709.0,771709.0,771709.0,771709.0,771709.0,771709.0,771709.0,771709.0,771709.0,771709.0,771709.0,771709.0,771709.0,771709.0,771709.0,771709.0,771709.0,771709.0,771709.0,771709.0,771709.0,771709.0,771709.0,771709.0,771709.0,771709.0,771709.0,771709.0,771709.0,771709.0,771709.0,771709.0,771709.0,771709.0,771709.0,771709.0,771709.0,771709.0,771709.0,771709.0,771709.0,771709.0,771709.0,771709.0,771709.0,771709.0,771709.0,771709.0
H0,41804.220168684355,41710.16067330482,41560.00409488092,41410.388080139346,41261.31068305085,41112.76996459186,40964.76399271933,40817.29084234554,40670.348595313095,40523.935340369964,40378.04917314463,40232.68819612131,40087.85051861527,37352.14845927002,34686.16470777082,32093.098319800087,29576.423900051046,27139.902385921378,24787.58600018016,22523.814250650255,20353.196832025507,18280.57809757908,16310.976510079108,14449.491359812695,12701.168435962145,11070.816870995894,9562.7719120111,8180.603929417099,7644.3052693656955,7616.785770395979,7589.365341622553,7562.043626392712,7534.820269337699,7507.694916368083,7480.667214669158,7453.736812696349,7426.903360170642,7400.166508074028,7373.525908644961,7346.981215373839,7320.532082998494,7294.178167499699,7267.9191260967,7241.754617242752,7215.684300620678,7189.707837138444,7163.824888924746,7138.035119324617,7112.338192895048,7086.733775400627
S1,34051.617253955126,31887.515364547515,30037.82422605546,28318.737363635646,26720.908346961314,25235.672672796707,23854.98927088585,22571.392710055723,21377.95096107232,20268.226878415437,19236.24265828227,18276.446900551,17383.68403375513,16929.881184763715,16491.674129524978,16069.041733831162,15661.819816010353,15269.717536495038,14892.331335410256,14529.156716939353,14179.597850828712,13842.974603420385,13518.526056097557,13205.40859737173,12902.684915907834,12609.297004439775,12324.01036240079,12045.305636436737,11710.090247494987,11349.33130600683,11004.046350150467,10669.623496631186,10340.9678684217,10012.339903776458,9677.544643210605,9330.42609023801,8965.656242906633,8579.663451251128,8171.402082689986,7742.668313865029,7297.8491330802035,6843.223643065003,6386.0625315134985,5933.758564237514,5493.133721737534,5069.977626260559,4668.808972014848,4292.819052689059,3943.945740650034,3623.028416879064
E1,0.0,0.0,0.0,0.0,0.0,0.0,0.0,0.0,0.0,0.0,0.0,0.0,0.0,0.0,0.0,0.0,0.0,0.0,0.0,0.0,0.0,0.0,0.0,0.0,0.0,0.0,0.0,0.0,0.0,0.0,0.0,0.0,0.0,0.0,0.0,0.0,0.0,0.0,0.0,0.0,0.0,0.0,0.0,0.0,0.0,0.0,0.0,0.0,0.0,0.0
I1,0.0,0.0,0.0,0.0,0.0,0.0,0.0,0.0,0.0,0.0,0.0,0.0,0.0,0.0,0.0,0.0,0.0,0.0,0.0,0.0,0.0,0.0,0.0,0.0,0.0,0.0,0.0,0.0,0.0,0.0,0.0,0.0,0.0,0.0,0.0,0.0,0.0,0.0,0.0,0.0,0.0,0.0,0.0,0.0,0.0,0.0,0.0,0.0,0.0,0.0
A1,0.0,0.0,0.0,0.0,0.0,0.0,0.0,0.0,0.0,0.0,0.0,0.0,0.0,0.0,0.0,0.0,0.0,0.0,0.0,0.0,0.0,0.0,0.0,0.0,0.0,0.0,0.0,0.0,0.0,0.0,0.0,0.0,0.0,0.0,0.0,0.0,0.0,0.0,0.0,0.0,0.0,0.0,0.0,0.0,0.0,0.0,0.0,0.0,0.0,0.0
IH1,0.0,0.0,0.0,0.0,0.0,0.0,0.0,0.0,0.0,0.0,0.0,0.0,0.0,0.0,0.0,0.0,0.0,0.0,0.0,0.0,0.0,0.0,0.0,0.0,0.0,0.0,0.0,0.0,0.0,0.0,0.0,0.0,0.0,0.0,0.0,0.0,0.0,0.0,0.0,0.0,0.0,0.0,0.0,0.0,0.0,0.0,0.0,0.0,0.0,0.0
IN1,0.0,0.0,0.0,0.0,0.0,0.0,0.0,0.0,0.0,0.0,0.0,0.0,0.0,0.0,0.0,0.0,0.0,0.0,0.0,0.0,0.0,0.0,0.0,0.0,0.0,0.0,0.0,0.0,0.0,0.0,0.0,0.0,0.0,0.0,0.0,0.0,0.0,0.0,0.0,0.0,0.0,0.0,0.0,0.0,0.0,0.0,0.0,0.0,0.0,0.0
D1,0.0,0.0,0.0,0.0,0.0,0.0,0.0,0.0,0.0,0.0,0.0,0.0,0.0,0.0,0.0,0.0,0.0,0.0,0.0,0.0,0.0,0.0,0.0,0.0,0.0,0.0,0.0,0.0,0.0,0.0,0.0,0.0,0.0,0.0,0.0,0.0,0.0,0.0,0.0,0.0,0.0,0.0,0.0,0.0,0.0,0.0,0.0,0.0,0.0,0.0
R1,0.0,0.0,0.0,0.0,0.0,0.0,0.0,0.0,0.0,0.0,0.0,0.0,0.0,0.0,0.0,0.0,0.0,0.0,0.0,0.0,0.0,0.0,0.0,0.0,0.0,0.0,0.0,0.0,0.0,0.0,0.0,0.0,0.0,0.0,0.0,0.0,0.0,0.0,0.0,0.0,0.0,0.0,0.0,0.0,0.0,0.0,0.0,0.0,0.0,0.0
G1,0.0,0.0,0.0,0.0,0.0,0.0,0.0,0.0,0.0,0.0,0.0,0.0,0.0,0.0,0.0,0.0,0.0,0.0,0.0,0.0,0.0,0.0,0.0,0.0,0.0,0.0,0.0,0.0,0.0,0.0,0.0,0.0,0.0,0.0,0.0,0.0,0.0,0.0,0.0,0.0,0.0,0.0,0.0,0.0,0.0,0.0,0.0,0.0,0.0,0.0
H1,11944.06290533839,11184.975050336614,10536.204839450753,9933.234794231557,9372.795420303519,8851.850751597964,8367.581669784926,7917.370415174078,7498.786203979802,7109.571872924372,6747.631477797962,6411.018777835714,6097.9265426392,5429.961351917293,4824.468352442186,4275.886429025677,3779.1904488050336,3329.845629563744,2923.765267944524,2557.2713050193297,2227.0571773729616,1930.1523667817978,1663.8880297066933,1425.863075758297,1213.9100992500269,1026.0606897847422,860.509907253128,715.5801550687781,650.7688436329998,631.8048537717879,614.0963644186571,597.5540536185943,582.0949782722798,567.6421185081613,554.1239545993606,541.4740741007867,529.6308070478659,518.5368872124898,508.1391375549499,498.3881781435753,489.2381549372372,480.6464879405148,472.57363734776266,464.9828863911563,457.8401396995762,451.11373606041235,444.77427455550986,438.7944531159597,433.1489186086741,427.8141276310481
S2,34051.617253955126,36078.499233357215,37926.58835089171,39620.57187851565,41171.59297496716,42590.00493237263,43885.422193505714,45066.770936120505,46142.33723175354,47119.812173252685,48006.33388532792,48808.526518134924,49532.536382649916,51326.12523987648,53056.50114351841,54721.86454064699,56320.40156235008,57850.25218671478,59309.47987843553,60696.04288763208,62007.7667738693,63242.31666851208,64397.165701558115,65469.5518720976,66456.40756064282,67354.23037588691,68158.83453763103,68864.86616693893,69104.81027469393,69038.01179768288,68911.34169624234,68711.07238287688,68419.29917043471,68012.92514919452,67464.1632999986,66742.59668056936,65818.96934469377,64670.16982841995,63284.0426200673,61662.4419845129,59821.633884536845,57790.2489003191,55605.72839304683,53310.31786519653,50947.37898146846,48558.42928120092,46181.038170628606,43847.53782643828,41584.42337195975,39412.286936847544
E2,0.0,0.0,0.0,0.0,0.0,0.0,0.0,0.0,0.0,0.0,0.0,0.0,0.0,0.0,0.0,0.0,0.0,0.0,0.0,0.0,0.0,0.0,0.0,0.0,0.0,0.0,0.0,0.0,0.0,0.0,0.0,0.0,0.0,0.0,0.0,0.0,0.0,0.0,0.0,0.0,0.0,0.0,0.0,0.0,0.0,0.0,0.0,0.0,0.0,0.0
I2,0.0,0.0,0.0,0.0,0.0,0.0,0.0,0.0,0.0,0.0,0.0,0.0,0.0,0.0,0.0,0.0,0.0,0.0,0.0,0.0,0.0,0.0,0.0,0.0,0.0,0.0,0.0,0.0,0.0,0.0,0.0,0.0,0.0,0.0,0.0,0.0,0.0,0.0,0.0,0.0,0.0,0.0,0.0,0.0,0.0,0.0,0.0,0.0,0.0,0.0
A2,0.0,0.0,0.0,0.0,0.0,0.0,0.0,0.0,0.0,0.0,0.0,0.0,0.0,0.0,0.0,0.0,0.0,0.0,0.0,0.0,0.0,0.0,0.0,0.0,0.0,0.0,0.0,0.0,0.0,0.0,0.0,0.0,0.0,0.0,0.0,0.0,0.0,0.0,0.0,0.0,0.0,0.0,0.0,0.0,0.0,0.0,0.0,0.0,0.0,0.0
IH2,0.0,0.0,0.0,0.0,0.0,0.0,0.0,0.0,0.0,0.0,0.0,0.0,0.0,0.0,0.0,0.0,0.0,0.0,0.0,0.0,0.0,0.0,0.0,0.0,0.0,0.0,0.0,0.0,0.0,0.0,0.0,0.0,0.0,0.0,0.0,0.0,0.0,0.0,0.0,0.0,0.0,0.0,0.0,0.0,0.0,0.0,0.0,0.0,0.0,0.0
IN2,0.0,0.0,0.0,0.0,0.0,0.0,0.0,0.0,0.0,0.0,0.0,0.0,0.0,0.0,0.0,0.0,0.0,0.0,0.0,0.0,0.0,0.0,0.0,0.0,0.0,0.0,0.0,0.0,0.0,0.0,0.0,0.0,0.0,0.0,0.0,0.0,0.0,0.0,0.0,0.0,0.0,0.0,0.0,0.0,0.0,0.0,0.0,0.0,0.0,0.0
D2,0.0,0.0,0.0,0.0,0.0,0.0,0.0,0.0,0.0,0.0,0.0,0.0,0.0,0.0,0.0,0.0,0.0,0.0,0.0,0.0,0.0,0.0,0.0,0.0,0.0,0.0,0.0,0.0,0.0,0.0,0.0,0.0,0.0,0.0,0.0,0.0,0.0,0.0,0.0,0.0,0.0,0.0,0.0,0.0,0.0,0.0,0.0,0.0,0.0,0.0
R2,0.0,0.0,0.0,0.0,0.0,0.0,0.0,0.0,0.0,0.0,0.0,0.0,0.0,0.0,0.0,0.0,0.0,0.0,0.0,0.0,0.0,0.0,0.0,0.0,0.0,0.0,0.0,0.0,0.0,0.0,0.0,0.0,0.0,0.0,0.0,0.0,0.0,0.0,0.0,0.0,0.0,0.0,0.0,0.0,0.0,0.0,0.0,0.0,0.0,0.0
G2,0.0,0.0,0.0,0.0,0.0,0.0,0.0,0.0,0.0,0.0,0.0,0.0,0.0,0.0,0.0,0.0,0.0,0.0,0.0,0.0,0.0,0.0,0.0,0.0,0.0,0.0,0.0,0.0,0.0,0.0,0.0,0.0,0.0,0.0,0.0,0.0,0.0,0.0,0.0,0.0,0.0,0.0,0.0,0.0,0.0,0.0,0.0,0.0,0.0,0.0
H2,11944.06290533839,12655.01903065615,13303.290831505718,13897.504381567607,14441.5746718512,14939.13655101751,15393.56474100049,15807.992422877978,16185.328495118054,16528.273599031872,16839.334999490377,17120.84040267249,17374.9507867718,16461.612474130656,15520.738234341694,14560.743732526178,13589.563708710617,12614.712435351035,11643.336552808376,10682.259035794059,9738.012472986728,8816.859184172301,7924.795001343668,7067.532908953628,6250.462372217893,5478.580402101663,4756.391666391738,4087.777799895383,3835.8914635798183,3836.709577844321,3836.1633819489207,3834.3587962889565,3831.394100163035,3827.360478371019,3822.342528760042,3816.418733508091,3809.6618967354316,3802.1395508491432,3793.914333854212,3785.044339705111,3775.5834436236387,3765.5816041712555,3755.0851437363963,3744.13700897866,3732.7770126616156,3721.042058203709,3708.9663481817897,3696.5815779335903,3683.917115323616,3671.000167660859
S3,102154.85176186539,101708.93772639692,101290.67387363153,100897.9410745308,100528.6448132871,100180.86729529346,99852.83841918816,99542.91922657982,99249.59011026037,98971.44105615055,98707.16292893868,98455.53941637083,98215.43945870861,100215.6954420206,102322.27761600654,104540.8144756126,106877.47539298232,109338.99940203292,111932.70754736564,114666.49043910064,117548.75812416861,120588.33335490114,123794.26079398407,127175.49206793057,130740.38700295192,134495.93915328238,138446.57704961507,142592.28665491843,144111.4362902279,143585.03401017035,142998.4972559809,142323.30036577312,141523.691493531,140554.77160787574,139363.30857733218,137891.31849150683,136082.72170723538,133892.12785207655,131293.3461155872,128284.83440642296,124890.52743162186,121156.41087940712,117144.488216305,112925.95866313654,108574.91781667958,104163.26296734696,99757.01093077415,95413.95769803191,91182.47646972402,87101.20658396532
E3,0.0,0.0,0.0,0.0,0.0,0.0,0.0,0.0,0.0,0.0,0.0,0.0,0.0,0.0,0.0,0.0,0.0,0.0,0.0,0.0,0.0,0.0,0.0,0.0,0.0,0.0,0.0,0.0,0.0,0.0,0.0,0.0,0.0,0.0,0.0,0.0,0.0,0.0,0.0,0.0,0.0,0.0,0.0,0.0,0.0,0.0,0.0,0.0,0.0,0.0
I3,0.0,0.0,0.0,0.0,0.0,0.0,0.0,0.0,0.0,0.0,0.0,0.0,0.0,0.0,0.0,0.0,0.0,0.0,0.0,0.0,0.0,0.0,0.0,0.0,0.0,0.0,0.0,0.0,0.0,0.0,0.0,0.0,0.0,0.0,0.0,0.0,0.0,0.0,0.0,0.0,0.0,0.0,0.0,0.0,0.0,0.0,0.0,0.0,0.0,0.0
A3,0.0,0.0,0.0,0.0,0.0,0.0,0.0,0.0,0.0,0.0,0.0,0.0,0.0,0.0,0.0,0.0,0.0,0.0,0.0,0.0,0.0,0.0,0.0,0.0,0.0,0.0,0.0,0.0,0.0,0.0,0.0,0.0,0.0,0.0,0.0,0.0,0.0,0.0,0.0,0.0,0.0,0.0,0.0,0.0,0.0,0.0,0.0,0.0,0.0,0.0
IH3,0.0,0.0,0.0,0.0,0.0,0.0,0.0,0.0,0.0,0.0,0.0,0.0,0.0,0.0,0.0,0.0,0.0,0.0,0.0,0.0,0.0,0.0,0.0,0.0,0.0,0.0,0.0,0.0,0.0,0.0,0.0,0.0,0.0,0.0,0.0,0.0,0.0,0.0,0.0,0.0,0.0,0.0,0.0,0.0,0.0,0.0,0.0,0.0,0.0,0.0
IN3,0.0,0.0,0.0,0.0,0.0,0.0,0.0,0.0,0.0,0.0,0.0,0.0,0.0,0.0,0.0,0.0,0.0,0.0,0.0,0.0,0.0,0.0,0.0,0.0,0.0,0.0,0.0,0.0,0.0,0.0,0.0,0.0,0.0,0.0,0.0,0.0,0.0,0.0,0.0,0.0,0.0,0.0,0.0,0.0,0.0,0.0,0.0,0.0,0.0,0.0
D3,0.0,0.0,0.0,0.0,0.0,0.0,0.0,0.0,0.0,0.0,0.0,0.0,0.0,0.0,0.0,0.0,0.0,0.0,0.0,0.0,0.0,0.0,0.0,0.0,0.0,0.0,0.0,0.0,0.0,0.0,0.0,0.0,0.0,0.0,0.0,0.0,0.0,0.0,0.0,0.0,0.0,0.0,0.0,0.0,0.0,0.0,0.0,0.0,0.0,0.0
R3,0.0,0.0,0.0,0.0,0.0,0.0,0.0,0.0,0.0,0.0,0.0,0.0,0.0,0.0,0.0,0.0,0.0,0.0,0.0,0.0,0.0,0.0,0.0,0.0,0.0,0.0,0.0,0.0,0.0,0.0,0.0,0.0,0.0,0.0,0.0,0.0,0.0,0.0,0.0,0.0,0.0,0.0,0.0,0.0,0.0,0.0,0.0,0.0,0.0,0.0
G3,0.0,0.0,0.0,0.0,0.0,0.0,0.0,0.0,0.0,0.0,0.0,0.0,0.0,0.0,0.0,0.0,0.0,0.0,0.0,0.0,0.0,0.0,0.0,0.0,0.0,0.0,0.0,0.0,0.0,0.0,0.0,0.0,0.0,0.0,0.0,0.0,0.0,0.0,0.0,0.0,0.0,0.0,0.0,0.0,0.0,0.0,0.0,0.0,0.0,0.0
H3,35832.18871601516,35675.77836844525,35529.13520383507,35391.431587035324,35261.94947120965,35140.023400281134,35025.03673564804,34916.41815262479,34813.63838733956,34716.20721619647,34623.67065128807,34535.60833633079,34451.63112879794,34371.378854948096,34280.92227489651,34180.018615871675,34068.527314698054,33946.4034407507,33813.691893451,33670.522277110445,33517.10434189397,33353.72385896137,33180.73876947208,32998.57541069486,32807.72457880757,32608.7371403201,32402.21885941388,32188.82407923295,31969.2479,31748.502875399758,31529.607132126715,31312.529017715526,31097.238404428477,30883.70658558399,30671.90617925616,30461.811038819025,30253.39616984682,30046.637652916375,29841.512571890275,29637.998947289452,29436.075674391865,29235.722465719835,29036.91979760278,28839.64886052438,28643.89151298404,28449.63023862181,28256.848106373815,28065.52873344191,27875.656250876724,27687.215271587553
S4,51077.42588093269,51928.71631228157,52776.15572127676,53620.138259116306,54460.84400691683,55298.453147399116,56133.13535883334,56965.046555194676,57794.328150935165,58621.1071300263,59445.49629790718,60267.59448394553,61087.48659805767,63314.05457046766,65548.9895088632,67791.50990948475,70040.64576066105,72295.21160192395,74553.77360701708,76814.60969769373,79075.66032009391,81334.46538150153,83588.07898660812,85832.94633214302,88064.71322844908,90277.91209544493,92465.41707289583,94617.46209974794,96131.55047409746,97199.22251786507,98202.39475227834,99112.70708595193,99893.65926521251,100498.41464954405,100870.16933996607,100945.38385839746,100660.4212776814,99960.84728220264,98811.00031120288,97200.78133973625,95147.6757344968,92694.02211907525,89901.05946522109,86841.68038921973,83593.42157560916,80232.59211531708,76829.90570018091,73447.62976498218,70138.0696033521,66943.11999277411
E4,0.0,0.0,0.0,0.0,0.0,0.0,0.0,0.0,0.0,0.0,0.0,0.0,0.0,0.0,0.0,0.0,0.0,0.0,0.0,0.0,0.0,0.0,0.0,0.0,0.0,0.0,0.0,0.0,0.0,0.0,0.0,0.0,0.0,0.0,0.0,0.0,0.0,0.0,0.0,0.0,0.0,0.0,0.0,0.0,0.0,0.0,0.0,0.0,0.0,0.0
I4,0.0,0.0,0.0,0.0,0.0,0.0,0.0,0.0,0.0,0.0,0.0,0.0,0.0,0.0,0.0,0.0,0.0,0.0,0.0,0.0,0.0,0.0,0.0,0.0,0.0,0.0,0.0,0.0,0.0,0.0,0.0,0.0,0.0,0.0,0.0,0.0,0.0,0.0,0.0,0.0,0.0,0.0,0.0,0.0,0.0,0.0,0.0,0.0,0.0,0.0
A4,0.0,0.0,0.0,0.0,0.0,0.0,0.0,0.0,0.0,0.0,0.0,0.0,0.0,0.0,0.0,0.0,0.0,0.0,0.0,0.0,0.0,0.0,0.0,0.0,0.0,0.0,0.0,0.0,0.0,0.0,0.0,0.0,0.0,0.0,0.0,0.0,0.0,0.0,0.0,0.0,0.0,0.0,0.0,0.0,0.0,0.0,0.0,0.0,0.0,0.0
IH4,0.0,0.0,0.0,0.0,0.0,0.0,0.0,0.0,0.0,0.0,0.0,0.0,0.0,0.0,0.0,0.0,0.0,0.0,0.0,0.0,0.0,0.0,0.0,0.0,0.0,0.0,0.0,0.0,0.0,0.0,0.0,0.0,0.0,0.0,0.0,0.0,0.0,0.0,0.0,0.0,0.0,0.0,0.0,0.0,0.0,0.0,0.0,0.0,0.0,0.0
IN4,0.0,0.0,0.0,0.0,0.0,0.0,0.0,0.0,0.0,0.0,0.0,0.0,0.0,0.0,0.0,0.0,0.0,0.0,0.0,0.0,0.0,0.0,0.0,0.0,0.0,0.0,0.0,0.0,0.0,0.0,0.0,0.0,0.0,0.0,0.0,0.0,0.0,0.0,0.0,0.0,0.0,0.0,0.0,0.0,0.0,0.0,0.0,0.0,0.0,0.0
D4,0.0,0.0,0.0,0.0,0.0,0.0,0.0,0.0,0.0,0.0,0.0,0.0,0.0,0.0,0.0,0.0,0.0,0.0,0.0,0.0,0.0,0.0,0.0,0.0,0.0,0.0,0.0,0.0,0.0,0.0,0.0,0.0,0.0,0.0,0.0,0.0,0.0,0.0,0.0,0.0,0.0,0.0,0.0,0.0,0.0,0.0,0.0,0.0,0.0,0.0
R4,0.0,0.0,0.0,0.0,0.0,0.0,0.0,0.0,0.0,0.0,0.0,0.0,0.0,0.0,0.0,0.0,0.0,0.0,0.0,0.0,0.0,0.0,0.0,0.0,0.0,0.0,0.0,0.0,0.0,0.0,0.0,0.0,0.0,0.0,0.0,0.0,0.0,0.0,0.0,0.0,0.0,0.0,0.0,0.0,0.0,0.0,0.0,0.0,0.0,0.0
G4,0.0,0.0,0.0,0.0,0.0,0.0,0.0,0.0,0.0,0.0,0.0,0.0,0.0,0.0,0.0,0.0,0.0,0.0,0.0,0.0,0.0,0.0,0.0,0.0,0.0,0.0,0.0,0.0,0.0,0.0,0.0,0.0,0.0,0.0,0.0,0.0,0.0,0.0,0.0,0.0,0.0,0.0,0.0,0.0,0.0,0.0,0.0,0.0,0.0,0.0
H4,17916.09435800758,18214.69593064104,18511.994083711415,18808.070210410042,19102.99880696867,19396.848385895417,19689.681914231092,19981.557220361494,20272.52737163337,20562.641024861197,20851.942751662835,21140.47334042357,21428.27007655966,20306.555922573287,19192.266248246207,18086.92271327281,16992.25317429167,15910.215304770842,14843.020433959984,13793.156355613082,12763.4071939282,11756.867537396549,10776.94695008496,9827.359683708752,8912.093077658752,8035.347039441979,7201.436656599852,6414.651164404624,6267.341190015918,6533.751589182585,6798.322446477583,7061.069172578639,7322.006914392935,7581.150567763172,7838.5147893097055,8094.114007470173,8347.962432793665,8600.07406754239,8850.462714650026,9099.141986082444,9346.12531064319,9591.425941263122,9835.056961810787,10077.031293457478,10317.361700628515,10556.06079657005,10793.141048558564,11028.614782778346,11262.494188890361,11494.791324314334
E_Om,0.0,0.0,0.9546366422659245,1.5000241686222755,1.948501130426084,2.4194555828859947,2.9668512051411575,3.624202734809237,4.420857430863455,5.388339931923713,6.563332172428503,7.989615927493093,9.719825239303002,11.817341616602585,14.602843482080715,18.24315645679682,23.008217750731735,29.29030908298254,37.64902749356144,48.885963583456245,64.1620301361459,85.1816058510015,114.48537777976519,155.92439265644578,215.44287541577987,302.3988267795229,431.8422354028736,628.5353284606334,934.2002116900894,1380.4925617297333,2008.8106575088002,2902.682693179304,4159.299322341338,5894.510468389167,8234.910938489076,11299.463367390457,15171.57601721051,19867.909331960287,25315.28558288998,31346.35842408327,37717.01094936787,44139.22005697346,50318.6415790094,55987.56106621977,60928.0753014277,64984.35782905444,68065.37095478189,70140.47844462573,71230.56925176924,71396.96833793432
I_Om,0.0,1.0,0.7753564949426575,0.7689767606204889,0.8598944337971053,1.0092180515955327,1.2077780272685312,1.4579500041126854,1.7674669287276124,2.147483038623543,2.612188015352997,3.1790316035661634,3.8692392172216765,4.708519746941152,5.727947487382244,7.007982609017645,8.640333818540933,10.7435556513232,13.478522555860135,17.06833146695636,21.826859791484893,28.201531197486304,36.83884178891982,48.686639958494254,65.15675502115555,88.3886905110424,121.68620550394266,170.25626829627353,242.48865926602804,352.22205656830226,515.7505731520872,752.9846428550884,1094.043926628766,1579.36536345072,2260.6652511799766,3200.2940691451013,4467.50605074299,6130.658811620107,8245.682324382675,10843.079609112283,13917.086460393732,17420.324474810746,21265.431899411087,25332.934560590067,29483.140488540525,33569.437168934805,37450.757598701886,41001.72261886137,44119.733670401794,46728.91200205966
A_Om,0.0,0.0,0.0,0.023172449963936543,0.05540631311008393,0.0927158011749879,0.1347315847760836,0.1824608020554135,0.23754256586005057,0.30203288355061453,0.3783823598698036,0.469490252356971,0.5787959351853887,0.7103964132765831,0.8691886564501125,1.066970914247319,1.3174641240507046,1.63846821245577,2.054096550875329,2.5976992279947666,3.3160720777498396,4.275754968401876,5.572664581896889,7.347099110852966,9.807545113273541,13.269194722283634,18.217575327485697,25.416009656695927,36.09129084594507,52.26181366465808,76.3505311196282,111.34851612175848,161.73519538693876,233.541693712001,334.5240502124913,474.1130998910563,662.9273126538634,911.6956767911938,1229.6175682170465,1622.4577861599932,2090.8798647391377,2629.5021370514355,3226.921690162994,3866.646327632111,4528.658368834068,5191.259254186176,5832.879367824761,6433.627449298379,6976.454210842325,7447.890740593119
IH_Om,0.0,0.0,0.08185298202452358,0.13082611533252175,0.17060633269239472,0.21078532702778954,0.2560731954279068,0.30959555211709194,0.37411907337859157,0.4525535589322891,0.5482066347281425,0.6649617777766756,0.8074432073412465,0.9811937859751466,1.1928793592413172,1.450529105376569,1.76733653782297,2.1616658835489013,2.658334016984538,3.290932026923342,4.1053648339060675,5.165101673021716,6.558997483691599,8.413093031615984,10.908697724683886,14.310582496662274,19.011765210618666,25.606102269306792,35.00851340990761,48.658659953804886,68.8740476007075,98.89558833968627,143.02011759165762,207.24909816585944,299.8313151732815,431.78823574421205,617.2935438722146,873.6801318332339,1220.807370076483,1679.5965534650068,2269.7616151841858,3007.054310122761,3900.5594741529703,4950.602648803315,6147.672420941197,7472.507173189347,8897.254894844187,10387.448031579677,11904.458867294235,13408.100742697161
IN_Om,0.0,0.0,0.2855810460656379,0.46428764085586094,0.5981024290820762,0.7157895211004299,0.8335937773579907,0.9628945132431712,1.1132443827784666,1.2937544892296147,1.5138799763614208,1.783992029594752,2.1158865609053983,2.5232963455110484,3.0224439544902664,3.6326630543064216,4.3849868040354805,5.322395193497294,6.502853645612044,8.004680433885046,9.93467501096849,12.44013129180884,15.726677937246219,20.08511066418283,25.932378956092332,33.87527563470734,44.81126120184524,60.09130563564775,81.78859374619825,113.15203191880798,159.38941302727628,227.81581468195657,328.1934444351056,474.1707472475053,684.5199371810513,984.3512851342756,1406.0164182560784,1989.1924348858615,2779.5412930838565,3825.4957542570464,5173.202872525612,6860.308015460218,8909.76043333051,11324.906882368057,14086.80758195855,17154.157347975914,20465.653639053122,23944.266715963946,27502.67755652233,31049.131691584487
D_Om,0.0,0.0,0.0,8.185298202452359e-05,0.00021267909735704535,0.0003832854300494401,0.0005940707570772296,0.0008501439525051365,0.0011597395046222282,0.0015338585780008203,0.0019864121369331093,0.002534618771661252,0.003199580549437927,0.004007023756779174,0.00498821754275432,0.0061810969019956375,0.007631626007372207,0.009398962545195177,0.011560628428744078,0.014218962445728617,0.017509894472651957,0.021615259306558023,0.026780360979579736,0.03333935846327134,0.04175245149488732,0.05266114921957121,0.0669717317162335,0.08598349692685214,0.11158959919615893,0.14659811260606656,0.19525677255987145,0.264130820160579,0.36302640850026524,0.5060465260919228,0.7132956242577821,1.0131269394310638,1.4449151751752756,2.0622087190474905,2.935888850880724,4.156696220957207,5.836292774422215,8.106054389606399,11.11310869972916,15.013668173882133,19.964270822685446,26.11194324362664,33.58445041681599,42.48170531166018,52.86915334323985,64.7736122105341
R_Om,0.0,0.0,0.0,0.057130779062403755,0.15379340034021244,0.2832874316526055,0.44418544864849097,0.6382527605238197,0.8696887402223217,1.1449043006204866,1.4725561891251577,1.86373962135412,2.332307566832338,2.8953116462304385,3.5735721427489953,4.392392359010341,5.383508059541567,6.588093386253897,8.060193594149684,9.871240807254571,12.116308360801035,14.922962949017927,18.463973546568795,22.97580246272139,28.78589246613536,36.35356011883363,46.33232306585078,59.66666425667202,77.74530660730902,102.64931937842258,137.56307234966718,187.29473985821423,258.85650899631804,362.2848380269683,511.8016163283553,727.287214544062,1036.0186373788965,1474.521803421779,2090.243476311459,2942.6156072214653,4103.037654888106,5653.402545927968,7683.03763509493,10284.24717807778,13546.920484687747,17552.83073165641,22370.26976096748,28049.567544177255,34619.877398794975,42087.41669724651
G_Om,0.0,0.0,0.0,0.16779906637072578,0.43146237436076995,0.7739556917466778,1.1992299478972388,1.7207214141182385,2.357757337855406,3.1348234136936437,4.081946507270683,5.23560116712153,6.63995758289021,8.348437572271692,10.425603692297356,12.992385014282702,16.199034000476612,20.243250707121412,25.39168760995021,32.009359070989305,40.60217720173545,51.8801108956912,66.85271230331203,86.97611701460231,114.38336952700462,152.25234684300648,205.40580707973598,281.31188559360066,391.79124143141337,555.9981410878637,798.6510550176577,1151.745141208877,1661.957534407873,2393.048833594411,3429.1428923354006,4876.615476086932,6862.752734591801,9529.50171357271,13021.7379100883,17471.47417375661,22981.30843404484,29610.929531110785,37369.39970496882,46214.043524589724,56055.12866561943,66764.62136545751,78187.09782365634,90151.1322978411,102479.91403187148,115000.30397744486
beta,47.90026660737125,47.90026660737125,47.90026660737125,47.899764670932335,47.899376348529586,47.898980431434744,47.89852384374298,47.89797514913031,47.89730779777382,47.896493665888144,47.89550008646591,47.894287966824535,47.89281012007178,47.89100946917028,49.155760205275215,50.50795928251182,51.961473320288995,53.532858752327144,55.24203788689745,57.113166369394335,59.1757554197261,61.466130038791604,64.02932498953942,66.92153755733032,70.21325176114469,73.9930734065611,78.37203899108344,83.48734604034703,89.50222717951901,91.89393711814846,90.84421342543615,89.38111950903698,87.3592788156418,84.63627244906027,81.0937066832949,76.68079518109043,71.46027658137322,65.62979101114446,59.49517786086701,53.39908552814854,47.639682812464706,42.4184766850639,37.83109774667723,33.888512499292446,30.54824288215404,27.741716617419304,25.392907969630244,23.428885764982688,21.784683030352173,20.404793880009542
