series,2021-11-15,2021-11-16,2021-11-17,2021-11-18,2021-11-19,2021-11-20,2021-11-21,2021-11-22,2021-11-23,2021-11-24,2021-11-25,2021-11-26,2021-11-27,2021-11-28,2021-11-29,2021-11-30,2021-12-01,2021-12-02,2021-12-03,2021-12-04,2021-12-05,2021-12-06,2021-12-07,2021-12-08,2021-12-09,2021-12-10,2021-12-11,2021-12-12,2021-12-13,2021-12-14,2021-12-15,2021-12-16,2021-12-17,2021-12-18,2021-12-19,2021-12-20,2021-12-21,2021-12-22,2021-12-23,2021-12-24,2021-12-25,2021-12-26,2021-12-27,2021-12-28,2021-12-29,2021-12-30,2021-12-31,2022-01-01,2022-01-02,2022-01-03,2022-01-04,2022-01-05,2022-01-06,2022-01-07,2022-01-08,2022-01-09,2022-01-10,2022-01-11,2022-01-12,2022-01-13,2022-01-14,2022-01-15,2022-01-16,2022-01-17,2022-01-18,2022-01-19,2022-01-20,2022-01-21,2022-01-22
S,489536.1881886696,489046.7534245004,488680.3304397389,488398.44311764406,488176.58551574184,487998.71171414934,487854.00713098794,487734.95875011076,487636.184537627,487553.7127475225,650663.1741990953,813763.6478779346,976859.4902445234,1139953.3710159059,1303046.7320502014,1466140.1977767844,1629233.8854720902,1792327.6158805804,1955421.0442997168,2118513.7354362314,2281605.201708273,2444694.9192694114,2607782.331112298,2770866.842888115,2933947.8145530513,3097024.549366908,3260096.2808271726,3423162.157581534,3586221.2260495517,3749272.41028789,3912314.4884847724,4075342.9355299347,4238359.993321108,4401362.870596509,4564349.059200605,4727315.816247267,4890259.959707128,5053177.733705015,5216064.671887124,5378915.434229742,5378544.960270956,5378136.610393534,5377683.698600303,5377180.022596351,5376618.962700555,5375993.0679838285,5375293.781504576,5374511.184138523,5373633.70901607,5372647.801582823,5371537.506453027,5370283.9622711325,5368864.78338673,5367253.303567858,5365417.652741005,5363319.633173864,5360913.356982574,5358143.602921709,5354943.848011775,5351233.9300759835,5346917.302776213,5341877.858224959,5335976.317754227,5329046.234165025,5320889.714996751,5311273.072618416,5299922.738615569,5286521.948304066,5270708.8988933815
E,0.0,489.4347641692578,709.027319679972,778.2064458708048,766.6021140117232,714.4952814006967,644.8512801419049,570.4442769765706,498.08520636729247,431.131434561663,370.9737916264992,337.85121430539186,319.2967224310795,308.27017332556727,301.0713260385009,295.9274406499789,292.10475215518,289.3861570246695,287.7851297870591,287.40169334244183,288.3581523039917,290.77638448073856,294.77486525534533,300.4738688684388,308.0032822774623,317.5107227435569,329.1692846620786,343.18498390862663,359.80425972452286,379.321982475314,402.09042985612166,428.52969672176494,459.13924792709776,494.51458599864577,535.3635138992611,582.5280222686897,637.0105477204055,700.0058439098468,772.939803622198,857.516833822527,955.7777518952705,1058.2851532506754,1169.1519869270828,1290.5138334789262,1423.8682453224983,1570.5531330926433,1731.9207772547802,1909.4040657169446,2104.5443235869348,2319.0050607907133,2554.579953166881,2813.1976036249926,3096.9234530606354,3407.9582660876204,3748.6320595750976,4121.3918627172825,4528.781175380017,4973.40837502798,5457.900589635642,5984.838704592892,6556.668234710085,7175.57984334388,7843.352478359674,8561.15167883627,9329.276001894003,10146.84633762687,11011.436948280792,11918.654378367688,12861.681916197347
I,7558.154685829555,5605.074810385646,4261.911168250595,3313.042014093,2624.240537875105,2110.9352752293853,1719.0688838194606,1413.4902821546846,1170.8780747960545,975.4016047628442,816.0427893101619,684.9297187391752,580.5759408099365,499.19875547457394,436.4793325332319,388.41931867423216,351.67243003781454,323.5993289206183,302.19602438177395,285.97926769063724,273.8705965076639,265.096525749205,259.10964757650373,255.52947994927933,254.09971858360615,254.65821525447905,257.1164591673269,261.4460260278613,267.670129275307,275.8589674152015,286.12799527410687,298.6385718271295,313.6006786996102,331.27742000956425,351.9919429109636,376.136066258289,404.18138524468947,436.69315196681714,474.3474213238843,517.9521129108674,568.4728158428602,627.0643729232597,692.5541983159997,764.9569802987152,844.7427539969692,932.5820627499988,1029.2598229616178,1135.6488587664421,1252.7045163794248,1381.4666534361468,1523.0640699639084,1678.719510266583,1849.7543959200445,2037.5927465686761,2243.7637619984034,2469.902431640618,2717.7473550335417,2989.1347091074413,3285.986981964487,3610.29470076455,3964.0889079631734,4349.401587672262,4768.210630152185,5222.365292639693,5713.487558259751,6242.844467131237,6811.1866417947585,7418.549213500815,8064.013657670471
A,2988.2780520292085,2390.6224416233667,1954.1016082980811,1623.5510716080203,1364.9911082749468,1157.1567290929772,986.4599639830896,843.9825698806902,723.6758008780033,621.2796133358167,533.6713601355727,458.4711489691336,395.495445912866,343.5376872097601,301.0341852727383,266.41945669862207,238.29042571408868,215.46225912634753,196.96863582705805,182.0376443112832,170.06025766900956,160.55965068916962,153.1647232400177,147.5886660352064,143.61225537388185,141.07115313790442,139.8464368127057,139.8576820114774,141.05806128979222,143.4310608836239,146.9885347870512,151.7699110230542,157.84244153187035,165.30238411323666,174.2773647901672,184.9296500914598,197.4606253691741,212.116609499053,229.19621579236372,249.0595407376798,272.13954203812557,298.9560624226287,329.122763903506,362.68019104514224,399.8423112640824,440.90759565067515,486.2285481283756,536.2021203726363,591.2676741731188,651.9077169494876,718.6496587593593,792.0678963254178,872.7858849720976,961.4779586093529,1058.8706570016461,1165.7432714877077,1282.9272411197524,1411.3039234629607,1551.8001257141386,1705.3806086338548,1873.036565053374,2055.768826491051,2254.564272156126,2470.3636221637,2704.0185274760356,2956.2356872552073,3227.5057334352878,3518.0149754286695,3827.539001788174
IH,0.0,441.4489382779976,761.8847011532771,998.8330081290377,1176.635851192862,1311.4127782269509,1414.0903703996044,1492.2661144525664,1551.3649943968358,1595.3645799735757,1627.2552917411044,1649.33700720973,1663.413674801811,1671.1740652279846,1674.059465226362,1673.2362543351303,1669.6189445898285,1663.9122253486144,1656.655552344216,1648.262853880578,1639.0549191328191,1629.2845046663158,1619.1552167253317,1608.8354883763595,1598.4688820702083,1588.1817334614004,1578.088921588273,1568.298349913376,1558.9145654519361,1550.0418275397967,1541.7868566113207,1534.261438795015,1527.5850274018853,1521.8874622971719,1517.311909345042,1514.018157852432,1512.186370150401,1512.021420819404,1513.757978422593,1517.6665087930294,1524.060414109101,1533.3045669235094,1545.825554770784,1561.9747719296117,1582.0989465676137,1606.5668095249673,1635.7804595045702,1670.1815187051313,1710.2556459260784,1756.536664165744,1809.6107395239887,1870.1207532110052,1938.7708969719656,2016.3314727103445,2103.6438456617784,2201.6254705138226,2311.2748741130863,2433.676432542665,2570.004720750075,2721.5281357720896,2889.611395782664,3075.7163922755444,3281.400717473857,3508.3130004317673,3758.1839628463918,4032.8118541472722,4334.040658796313,4663.729214933592,5023.7091911930775
IN,1511.630937165911,2902.203846534303,3790.7976102291614,4339.596164033277,4654.670694569209,4806.752381136793,4843.993647455682,4799.879191734388,4698.181894556644,4556.106520993902,4386.313871761687,4198.247198639154,3999.019114493002,3794.875332543709,3590.8048419254555,3390.5333256261715,3196.688426955821,3011.0180992646347,2834.6024446002225,2668.0342675181946,2511.5622484421883,2365.199459910151,2228.8032305371935,2102.1328331202108,1984.8907225370758,1876.751921525779,1777.3850487821553,1686.4675593097215,1603.6970540695008,1528.7999941501935,1461.5387865359774,1401.7179566659286,1349.1899562333444,1303.861049571389,1265.697628599679,1234.7334061509384,1211.0777589574482,1194.925623422226,1186.5693750064647,1186.4131854433901,1194.9904425421787,1212.9849359025322,1241.2566628180532,1280.3622310642718,1330.8166104831203,1393.1875369006557,1468.13138803862,1556.4089592960163,1658.894683070228,1776.5840326244188,1910.6007308888559,2062.2042681440594,2232.7978180319224,2423.936466217062,2637.3355642202305,2874.878930654747,3138.6265175727776,3430.8210269492893,3753.8927907460284,4110.46200691456,4503.337141907566,4935.507956371603,5410.131174645105,5930.5062948041705,6500.03842811144,7122.184386227085,7800.377552213255,8537.926473283193,9337.881759944888
D,4450.0,4450.0,4450.441448938278,4451.203333639432,4452.202166647561,4453.378802498753,4454.690215276981,4456.104305647379,4457.596571761832,4459.147936756229,4460.7433013362015,4462.370556627943,4464.019893635153,4465.683307309954,4467.354481375183,4469.02854084041,4470.701777094744,4472.371396039335,4474.035308264683,4475.6919638170275,4477.340226670908,4478.979281590042,4480.608566094707,4482.227721311433,4483.83655679981,4485.43502568188,4487.023207415342,4488.60129633693,4490.169594686843,4491.728509252294,4493.278551079835,4494.820337936445,4496.354599375241,4497.882184402642,4499.40407186494,4500.9213837742855,4502.435401932136,4503.947588302287,4505.459609723107,4506.973367701528,4508.491034210321,4510.015094624431,4511.548399191355,4513.094224746124,4514.6561995180555,4516.238298464622,4517.844865274147,4519.480645733652,4521.150827252356,4522.861082898283,4524.617619562448,4526.427230301972,4528.297351055183,4530.236121952155,4532.252453424866,4534.356097270528,4536.557722741042,4538.868997615154,4541.302674047697,4543.872678768447,4546.594206904219,4549.483818300001,4552.559534692277,4555.840935409752,4559.3492484101835,4563.10743237303,4567.140244227177,4571.474284885973,4576.138014100907
R,0.0,718.7136382033606,1435.7575674060572,2141.3767086766757,2828.3238753809997,3491.4089019593416,4127.090371629593,4733.126372737271,5308.284783310582,5852.107425787769,6364.720497693909,6846.683619281451,7298.870544105437,7722.714482721546,8119.932376152228,8492.349184122186,8841.792308099446,9170.032429438748,9478.753619827747,9769.541126964097,10043.879383761963,10303.155655270866,10548.666609046217,10781.626264004086,11003.174478092527,11214.385549078905,11416.276741197613,11609.81668676267,11795.933690761245,11975.52401421087,12149.460243906282,12318.599880903837,12483.794302925988,12645.898280152063,12805.780238834868,12964.333546388038,13122.489075542198,13281.229387502386,13441.604934416713,13604.752760185287,13771.918277175955,13944.480818690761,14123.983818462628,14311.968594456584,14510.034321754287,14719.86931388996,14943.272473201343,15182.171687411228,15438.64166319898,15714.92215700219,16013.437006614922,16336.814153014511,16687.906745399832,17069.815362211648,17485.9113257886,17939.861024400627,18435.651074203037,18977.61404771973,19570.454356683207,20219.273695942826,20929.5952205632,21707.385327476753,22559.071532470833,23491.5544596492,24512.21138364536,25628.88808218353,26849.87498013864,28183.862733057424,29639.87158390245
G,334180.0,334180.0,334285.2267742514,334437.66518518585,334604.97686795855,334769.793659689,334923.4076634006,335062.0484487488,335184.69198686845,335291.77857614524,335384.47033704683,335464.2284136741,335536.86525122816,335605.51293747796,335671.7899539707,335736.5192433019,335800.14261514164,335862.94412223314,335925.16114081454,335987.0339441011,336048.82430988376,336110.820311021,336173.33622367657,336236.71179580997,336301.3126339248,336367.5322697692,336435.79597228987,336506.5662251272,336580.3498046191,336657.70647068473,336739.2593793471,336825.70742511057,336917.8398214137,337016.553164904,337122.872083204,337237.9733791145,337363.21488049906,337500.16993561154,337650.6687605913,337816.8481335742,338001.2112742729,338206.7001710494,338434.2278030592,338685.5914192151,338963.0474108308,339269.1741377881,339606.8376061081,339979.1945574146,340389.70979925466,340842.1795187198,341340.7575517572,341889.9833683893,342494.81108156504,343160.6388668515,343893.3380565637,344699.2809285498,345585.3658634354,346559.03808548226,347628.30361104687,348801.733279875,350088.4528131066,351498.1137090712,353040.8384511111,354727.1319901802,356567.749864086,358573.51179937983,360755.0485170368,363122.4692128405,365684.93850490556
H,4895359.297170184,4895359.297170185,4895359.297170185,4895359.297170185,4895359.297170185,4895359.297170185,4895359.297170185,4895359.297170185,4895359.297170185,4895359.297170185,4732180.653931179,4569002.010692173,4405823.367453166,4242644.724214161,4079466.080975155,3916287.4377361485,3753108.7944971425,3589930.151258136,3426751.5080191297,3263572.8647801233,3100394.2215411174,2937215.5783021115,2774036.9350631055,2610858.2918240987,2447679.6485850923,2284501.0053460863,2121322.3621070804,1958143.7188680742,1794965.075629068,1631786.432390062,1468607.789151056,1305429.1459120498,1142250.5026730436,979071.8594340374,815893.2161950313,652714.5729560251,489535.9297170191,326357.2864780129,163178.64323900678,6.716618372593075e-10,6.716618372593075e-10,6.716618372593075e-10,6.716618372593075e-10,6.716618372593076e-10,6.716618372593076e-10,6.716618372593075e-10,6.716618372593076e-10,6.716618372593075e-10,6.716618372593075e-10,6.716618372593075e-10,6.716618372593075e-10,6.716618372593075e-10,6.716618372593075e-10,6.716618372593075e-10,6.716618372593075e-10,6.716618372593075e-10,6.716618372593075e-10,6.716618372593075e-10,6.716618372593075e-10,6.716618372593075e-10,6.716618372593075e-10,6.716618372593075e-10,6.716618372593075e-10,6.716618372593075e-10,6.716618372593075e-10,6.716618372593075e-10,6.716618372593075e-10,6.716618372593075e-10,6.716618372593075e-10
S0,171337.66586603437,170682.9959011705,169866.59011625123,169099.43217147206,168367.99617069296,167663.3962679422,166979.6227978563,166312.48535050097,165658.97025598306,165016.84429673568,219548.51035846543,273680.28502067405,327416.75408357085,380761.5463914895,433717.5917696705,486287.35187970387,538472.9948174512,590276.5136903994,641699.8004891939,692744.6883786276,743412.9734907548,793706.424261438,843626.7835814257,893175.7669389148,942355.0583124858,991166.304685226,1039611.1095264856,1087691.0252899001,1135407.5448076325,1182762.0913583634,1229756.0071123487,1276389.302259651,1322664.6408251822,1368582.6561954946,1414144.0596039556,1459349.4289969462,1504199.1224589944,1548693.218530761,1592831.4547203416,1636613.154276077,1630529.9618336214,1624450.116386045,1618370.439583589,1612288.0828164502,1606200.0793698174,1600103.1518968341,1593993.598047666,1587867.1931131661,1581719.086443804,1575543.6808578677,1569334.4880181374,1563083.95343475,1556783.244269963,1550421.9921620872,1543987.9821225398,1537466.7773474131,1530841.2686811385,1524091.1366969123,1517192.2142517786,1510115.7384331878,1502827.4837601313,1495286.7743390193,1487445.3827347688,1479246.3392664217,1470622.6991779725,1461496.3485322415,1451776.9739673196,1441361.3762344944,1430133.369111016
E0,0.0,269.7671928491972,391.51367055751746,430.2601117032458,424.3033597677429,395.84325964175054,357.5652351026065,316.5449673448688,276.5695815734678,239.5176817359591,206.17831485061754,187.84540211519516,177.57695872660378,171.45485712331566,167.42226789062235,164.4961156176085,162.27142466093116,160.6299532941182,159.5806765003834,159.1795516423069,159.4937735334458,160.5891757893905,162.5285894385805,165.37470914454235,169.19436399273778,174.0629056440888,180.06833592606813,187.31520695412087,195.92848605639452,206.05762332584982,217.8810635575711,231.61144119575823,247.50127689149775,265.8513287993841,287.01852871782,311.42677035914056,339.57980348112966,372.0768426180304,409.6315331737064,453.09503838307,503.4841812550824,555.8031888672111,612.1651385477319,673.6359327161515,740.9392708890377,814.7071629963241,895.5701897409651,984.1911269733084,1081.2783869261475,1187.592026094691,1303.946672359107,1431.212711663258,1570.3159474017689,1722.2354658519598,1887.999167628821,2068.676198085084,2265.365267908667,2479.177574178571,2711.212702858895,2962.525518653571,3234.0816445004857,3526.6987407481447,3840.9704886703394,4177.170092191603,4535.130435063658,4914.099056705697,5312.568219716926,5728.083980463185,6157.043757299298
I0,7558.154685829555,5605.074810385646,4214.683403429106,3209.753901348683,2472.8355404548083,1925.0613417294653,1512.7169930298173,1198.6956570815792,957.000408995583,769.1663293206595,621.9038558750642,505.5271843839534,415.2815437665184,346.14832632549064,293.5633837722326,253.69976438287745,223.50806964650883,200.6398185348964,183.32797233348344,170.26403704370927,160.48967327923668,153.3086298853776,148.218725859603,144.86105572512443,142.9829368179692,142.41134945778964,143.03418380150833,144.7872200584984,147.64531162150965,151.61667748343734,156.73954404297353,163.08062474194494,170.73510947052335,179.8278814503373,190.51621516626756,202.99348337645202,217.49422564565924,234.30067932778275,253.75097871986742,276.24931314171215,302.27842371338363,332.4149212982723,366.0123426662428,403.04557947958654,443.72517688794113,488.3628665884032,537.3257065734258,591.0214771514602,649.8950798613963,714.4287567514721,785.1435446683078,862.6009830686934,947.4046356527066,1040.2011455656252,1141.6805590035876,1252.575604475635,1373.6595308717747,1505.7419931583536,1649.6623293247737,1806.279393733978,1976.4568990398368,2161.0429741011753,2360.842379500312,2576.579559485047,2808.85049475265,3058.061231019412,3324.3511125458786,3607.499317759928,3906.814497565906
A0,2988.2780520292085,2390.6224416233667,1935.4291017235528,1581.6233032936443,1301.872246632341,1077.565056698084,895.700097384198,746.954364889064,624.4709136502066,523.0861060145925,438.8287197206425,368.58884869639076,310.83859061535526,263.76553079519806,225.58668303775607,194.70082073987967,169.7433977944222,149.5883529793049,133.32478635940345,120.22474089136614,109.71060751069805,101.32601075835586,94.71144635310225,89.58465172560746,85.7251460845765,82.96222550136754,81.16573198597847,80.23901960741591,80.11365891385836,80.74552900081348,82.1120369217019,84.21027674666789,87.05599839816668,90.68326694663189,95.14489993623029,100.51349184495727,106.88315069314669,114.3719833762452,123.12541072738429,133.32043175123522,145.17099748300646,158.9347022385474,174.3929634193729,191.55053385934372,210.50182123360406,231.38386865493803,254.3600336528951,279.61460380117956,307.3513474081773,337.7934966210446,371.18424459964524,407.7873920712835,447.8879654463046,491.79268235729353,539.8301426447333,592.3506013036834,649.7251433988355,712.3440312067723,780.6139301602033,854.9536412316412,935.7878723629888,1023.5384712115667,1118.6124198729867,1221.385768994154,1332.1825823751485,1451.2479055944543,1578.7138133518285,1714.5578024909041,1858.553276753944
IH0,0.0,441.4489382779976,761.8847011532771,996.07457733418,1167.8880376088948,1293.959374905324,1386.0550052352842,1452.6190831185047,1499.7957207319512,1532.1140415251461,1552.9534899003352,1564.8641814177322,1569.7904246508526,1569.368251352637,1564.9148527485759,1557.4601353907362,1547.7942947671074,1536.5169981511813,1524.0813182233744,1510.82999786157,1497.0239667630808,1482.864079040054,1468.5073654035277,1454.0790571288028,1439.6814542405891,1425.4004901511746,1411.3106418215552,1397.4786674190443,1383.966524771716,1370.8337289773533,1358.1393395875139,1345.9437204105814,1334.3101828504762,1323.3066027928467,1313.007083147852,1303.4937478353722,1294.8587240835407,1287.2063896027244,1280.655965888268,1275.3445496436182,1271.4306898513755,1269.0986385108145,1268.5634292274,1269.998957262163,1273.5749176956663,1279.4706352628518,1287.880822972351,1299.018571640295,1313.117439453649,1330.4332983565641,1351.2461642184744,1375.8620831721,1404.615088045846,1437.8692129145631,1476.0205376121994,1519.4992190050116,1568.771448236514,1624.3412509321308,1686.7520188000835,1756.587624481926,1834.4729250741136,1921.0734015998446,2017.0936101881298,2123.2740347932636,2240.385831366123,2369.222842515298,2510.59014733962,2665.2883075628497,2834.0924023518387
IN0,1511.630937165911,2902.203846534303,3790.7976102291614,4330.150611068979,4625.323960317735,4749.474862446104,4754.128376690558,4675.9403473876655,4541.209690817982,4368.92980585477,4172.880032890539,3963.07828993649,3746.8030553867216,3529.7989609828683,3316.34686165041,3109.4719530405423,2911.1917695387683,2722.7523928361406,2544.8304167372494,2377.694842707792,2221.3314305979034,2075.535412794038,1939.9791701392783,1814.2608844535623,1697.939135821668,1590.5573186362192,1491.660790331166,1400.80889614029,1317.583426903403,1241.5946361605606,1172.4856338543611,1109.9357565264486,1053.6633635413816,1003.4284072576872,959.0350407449793,920.3345562500248,887.2288297395754,859.6745032957937,837.6881387636291,821.3525985023405,810.8249467544026,806.346217593679,808.2534642021226,816.7274544202423,831.9294577404062,854.0499375174502,883.3264503057683,920.0509396886501,964.5735251899416,1017.3052675359478,1078.7207563188306,1149.360781286392,1229.835131265626,1320.825473262834,1423.0882120331735,1537.4571853644798,1664.8459993633617,1806.2497443349685,1962.7457503866608,2135.492937908975,2325.729186743012,2534.765984419908,2763.9794145755345,3014.796310156141,3288.674125924345,3587.072793419821,3911.4165356119474,4263.043386307401,4643.140059389366
D0,4450.0,4450.0,4450.441448938278,4451.203333639432,4452.199408216766,4453.367296254374,4454.661255629279,4456.047310634514,4457.499929717633,4458.999725438364,4460.53183947989,4462.08479296979,4463.649657151208,4465.219447575859,4466.788815827212,4468.35373067996,4469.911190815351,4471.458985110118,4472.99550210827,4474.519583426493,4476.030413424355,4477.527437391118,4479.010301470158,4480.478808835562,4481.932887892691,4483.372569346931,4484.797969837083,4486.2092804789045,4487.606759146323,4488.990725671095,4490.361559400072,4491.719698739659,4493.06564246007,4494.399952642921,4495.723259245713,4497.036266328861,4498.339760076696,4499.634618800779,4500.921825190382,4502.202481156271,4503.477825705914,4504.749256395766,4506.018355034276,4507.286918463504,4508.556917420766,4509.830492338461,4511.109962973724,4512.397843796696,4513.696862368336,4515.00997980779,4516.340413106146,4517.691659270365,4519.067521353537,4520.472136441583,4521.910005654498,4523.38602619211,4524.905525411115,4526.474296859352,4528.098638110284,4529.785390129084,4531.541977753565,4533.376450678639,4535.297524080239,4537.314617690427,4539.437891725221,4541.678277556587,4544.047500399102,4546.558090546442,4549.223378854005
R0,0.0,718.7136382033606,1435.7575674060572,2137.6422073617696,2815.406774327116,3463.389043454632,4078.3082254113724,4658.582760799963,5203.826350201395,5714.477880433257,6191.531255241108,6636.339390158408,7050.473036626667,7435.808878783251,7794.345255916112,8128.08612908549,8438.97264544261,8728.846247791407,8999.431785629504,9252.332782410469,9489.033758258818,9710.906412025182,9919.217725405275,10115.13885359386,10299.754163348389,10474.07008031022,10639.02358731964,10795.490322170597,10944.292286604175,11086.205216484645,11221.965686969037,11352.278042677628,11477.82125548104,11599.255824178683,11717.230835667879,11832.3913468886,11945.386233393392,12056.876690273024,12167.545598172228,12278.108003218695,12389.32300542071,12502.007407268238,12617.051545416065,12735.33219804496,12857.744130366262,12985.216402249252,13118.72337503209,13259.293972354262,13408.020492243035,13566.067463529562,13734.680747519384,13915.196973269687,14109.053343873478,14317.79781931613,14543.099652665425,14786.760223561343,15050.724072046187,15337.08998320881,15648.121905171953,15986.259395326022,16354.12717743418,16754.543249746708,17190.524805765082,17665.291009464352,18182.261402097378,18745.04840865439,19357.442066523297,20023.384737019227,20746.933220910647
G0,334180.0,334180.0,334237.9990094299,334322.17308868235,334414.6775181959,334505.901266734,334591.0061926008,334667.8814761499,334735.9375446144,334795.39904399205,334846.8945136039,334891.22213513916,334931.6082441155,334969.7866734305,335006.64887216594,335042.64407822344,335078.0101717062,335112.8979643607,335147.432846373,335181.7421375193,335215.9651882144,335250.25579552463,335284.78191051504,335319.7249927035,335355.2799807427,335391.6561813068,335429.0791014152,335467.79316817434,335508.06528703263,335550.1892309798,335594.4909042565,335641.3345761145,335691.1302314724,335744.3421463117,335801.4992585726,335863.20724529197,335930.1629191825,336003.1713974051,336083.1666261641,336171.2359829469,336268.6498423798,336376.8971925042,336496.39294753585,336628.00632597634,336772.8357116451,336932.13508124376,337107.29429141374,337299.83877145714,337511.4364451819,337743.90754256526,337999.23570309085,338279.579708407,338587.2854701167,338924.897944337,339295.17258733365,339701.0858504344,340145.844047504,340632.8897113889,341165.9042784477,341748.8055922019,342385.73828842025,343081.0546084492,343839.2825877699,344665.07790127525,345563.1549617529,346538.19225257763,347594.7064807131,348736.8901948187,349968.40835419646
H0,1713375.7540095644,1709520.658563043,1703366.384192216,1697234.265209124,1691124.221854371,1685036.1746556952,1678970.0444269348,1672925.752266998,1666903.2195588367,1660902.367968425,1599759.0154622807,1539034.369799492,1478726.2087086346,1418832.320492199,1359350.5039792568,1300278.5684783342,1241614.333730487,1183355.6298625765,1125500.2973407498,1068046.1869241172,1010991.1596186308,954333.0866311614,898069.8493237732,842199.3391681954,786719.4577004906,731628.1164759176,676923.2370239898,622602.7508037263,568664.5991590967,515106.73327465815,461927.1141313825,409123.7124626752,356694.5087105834,304637.49298219313,252950.66500621437,201632.03408975364,150679.61907527296,100091.44829773472,49865.559541931536,2.0299339666962624e-10,2.022626204416156e-10,2.0153447500802578e-10,2.008089508979969e-10,2.000860386747641e-10,1.9936572893553496e-10,1.9864801231136704e-10,1.9793287946704613e-10,1.9722032110096475e-10,1.965103279450013e-10,1.9580289076439927e-10,1.9509800035764742e-10,1.943956475563599e-10,1.93695823225157e-10,1.9299851826154643e-10,1.9230372359580486e-10,1.9161143019085997e-10,1.9092162904217287e-10,1.9023431117762105e-10,1.8954946765738162e-10,1.8886708957381504e-10,1.8818716805134932e-10,1.8750969424636447e-10,1.8683465934707756e-10,1.8616205457342809e-10,1.8549187117696374e-10,1.8482410044072667e-10,1.8415873367914005e-10,1.8349576223789514e-10,1.828351774938387e-10
S1,48953.61881886697,45770.26364449238,43064.2207050286,40562.39125505954,38245.96837352985,36099.03593331347,34107.74272248393,32259.797845820543,30544.14932809856,28950.769586340528,36689.05431874435,43610.544685406436,49804.69866559322,55352.11671844102,60325.40100697375,64789.92672472554,68804.53180649882,72422.13481083499,75690.29066015546,78651.69254111031,81344.62669567755,83803.38549145851,86058.64313971024,88137.79769316436,90065.28242912947,91862.84933870756,93549.82714941907,95143.3560724073,96658.60126592743,98108.946831865,99506.17200465983,100860.51327430605,102181.12945517176,103475.85603440492,104751.49825463719,106013.92304456518,107268.15155035819,108518.44480902587,109768.3810567543,111020.92470015389,108969.87555727223,107042.38714025701,105229.46003402442,103522.75188350621,101914.50153395593,100397.47473542896,98964.9184912154,97610.51955832774,96328.36533564194,95112.9062743315,93958.91923088393,92861.47125510794,91815.88329943614,90817.69329867265,89862.61801921064,88946.5130232529,88065.33004570352,87215.07105135299,86391.73824590865,85591.2793832243,84809.52788145115,84042.1375863829,83284.5125719388,82531.73323380707,81778.48121309667,81018.9674795652,80246.87027102153,79455.29249975608,78636.75149960519
E1,0.0,77.07634081405635,108.30310003038818,115.4118030262551,110.32173559583197,99.67534712854844,87.09953164809298,74.50194715025192,62.81746019664479,52.438748375639044,43.46441000932725,37.69787143167817,33.732114169600614,30.78480882662961,28.440567388456746,26.48738630971319,24.819700605462355,23.384420821436382,22.152754088889345,21.106510527791976,20.232031808992698,19.517848752068833,18.95400277828849,18.53201385709267,18.24503905023509,18.08804576224816,18.057951758040517,18.1537355203921,18.37653679809203,18.72976917446839,19.219263983957553,19.853462060286653,20.64363450855351,21.60429783002295,22.753568631516693,24.113712223056535,25.71181195946838,27.58059457488246,29.759446223981687,32.2956599907359,35.245964817093615,38.263203344723095,41.485504898857464,44.97803417053393,48.78204162812629,52.931984861438295,57.461577516924024,62.405987005156106,67.80268156023303,73.69178939149208,80.1162620841077,87.12193338663623,94.7574910963537,103.0743497426626,112.12639569923155,121.96956373134915,132.66119092329643,144.2590789180408,156.82017791498947,170.3987860581811,185.04413666669004,200.79722540859083,217.68671410551744,235.72374428457982,254.8955126008829,275.1575172754758,296.424500022316,318.5603050728471,341.36717752022724
I1,0.0,0.0,16.57114555139992,35.57383630397149,51.19444570838888,61.68423389960103,67.17445113429204,68.5422013047087,66.84807838397857,63.07960453032686,58.05354360762934,52.396800298637544,46.9620131421663,42.07898884851514,37.82411167140017,34.16472066050187,31.0310146569522,28.34853350299016,26.050644016584684,24.081741127820187,22.396677743569306,20.959036601063524,19.73934507822623,18.713605424207916,17.86219789720512,17.169101425554935,16.621352903685626,16.20867631306115,15.923231407337967,15.759448956530171,15.71393276707415,15.78541796215427,15.974781267876523,16.28509610665352,16.721762704463888,17.292680838775333,18.0084958937875,18.882925239404223,19.933177715654168,21.18048316475123,22.650753338422643,24.375400736532878,26.3030830237404,28.42542240731178,30.750216156800363,33.29211538035232,36.06939349972339,39.10285027394688,42.415471530400325,46.03235893856761,49.980755147121414,54.29009755596934,58.9920708323463,64.12063981182773,69.71204652486617,75.80475319168697,82.4393089068524,89.6581118700932,97.50503144314271,106.02484493380884,115.26243279368458,125.26166304530011,136.06388183450082,147.70591336682503,160.2174616059456,173.61780212951004,187.91166184359093,203.08421595341434,219.09519747724792
A1,0.0,0.0,6.551756692816984,14.44754504618248,21.368440175506798,26.472482867100254,29.650737020570283,31.12435234558345,31.23240616573897,30.325627244900158,28.71797755312918,26.66900786633356,24.53965630780352,22.499071918698945,20.616073215837705,18.910405588613244,17.379844310792546,16.013636210991038,14.798665964082804,13.721993816112064,12.771721760929408,11.9371703881954,11.208821249464524,10.578213072197169,10.037856006308857,9.581176498212223,9.202487916941974,8.89697895703701,8.66071374161652,8.490640451781832,8.384607798853931,8.341390435571757,8.360725584312389,8.443361106060836,8.591129242635485,8.807035761998682,9.095377907210404,9.461895651952501,9.91396286124739,10.460826587068324,11.113904547403225,11.887153073755265,12.762227650022417,13.736194135758213,14.812244443692304,15.996438537103126,17.29655340143472,18.721676402094804,20.28206678346175,21.989116871082032,23.855351562571283,25.894441809953587,28.121220402678404,30.551692204190164,33.203031518831295,36.09355831901115,39.24268323199541,42.67080861092006,46.39916967871937,50.449595578506084,54.84416515561757,59.6047264894563,64.75224281772847,70.3059210849944,76.28207391540661,82.69266307949881,89.5434751879108,96.83189227869732,104.54424626903966
IH1,0.0,0.0,0.0,0.9678704543360052,3.030415384681974,5.972889090570312,9.481783127006034,13.256183413024738,17.051135298347543,20.6874809669029,24.046557190047256,27.059270860887466,29.69423063904567,31.97033870042737,33.925463085540265,35.60133791256628,37.03713360130989,38.26732792803355,39.321507677003794,40.22490267811163,40.999098417970636,41.66270414870554,42.23190955809572,42.720928421195154,43.14234943284831,43.507417460628304,43.82626485757947,44.10810755777697,44.36141642729039,44.59407124292666,44.813502627497556,45.026826031116805,45.240971169556545,45.46281002858369,45.69928607387285,45.95754902887728,46.24509762364014,46.56993447089951,46.94073757030891,47.367053617382446,47.85951920193821,48.43011713084162,49.09247654717449,49.85701358996095,50.7334913323111,51.73197478421571,52.86322645798752,54.13890697171838,55.57170848653788,57.175466172125404,58.96526381825343,60.957539254271005,63.17019125202814,65.6226878155646,68.33617469010541,71.3335819915958,74.63972583049691,78.28140055147779,82.28745563569832,86.68884931965202,91.51866847536901,96.81210117203142,102.60634451169378,108.94042575158292,115.85490942073916,123.39145728193002,131.59220199238916,140.49888995736274,150.15174544642272
IN1,0.0,0.0,0.0,3.314229110279984,10.163578384517432,19.588523643237927,30.35663563385739,41.36043348886173,51.756549038852874,60.98127352680054,68.71354689415107,74.82137375115654,79.30871041369295,82.34972406629153,84.17059516439194,84.99466749242471,85.0208662960458,84.41822578398785,83.32735113346898,81.86426060672801,80.12456020131269,78.1871699490185,76.11740616719788,73.96945983194819,71.78838251842409,69.6116939259134,67.47070479748122,65.39162575360346,63.396513149734226,61.504088922486794,59.73046182777379,58.089771323050286,56.594771540711264,55.257370551575754,54.089137460465686,53.10179491280115,52.307706708694425,51.720375577819816,51.35496636608554,51.2288712201091,51.36233541565587,51.779165248460245,52.507543001773385,53.56312553107078,54.95864026370319,56.70735481279179,58.8244044845038,61.32736716773297,64.23657298882962,67.57532111403658,71.37006514418871,75.65058868960918,80.45017763860808,85.80578913318348,91.75821359261067,98.35222316677994,105.63669689971974,113.66470920638952,122.49356371002965,132.1847487810349,142.80378399328418,154.4199179164621,167.10562699592583,180.9358526749432,195.98689959879954,212.33490239523508,230.05375361298957,249.21237354299618,269.8711980784003
D1,0.0,0.0,0.0,0.0,0.0009678704543360051,0.003998285839017979,0.009971174929588291,0.019452958056594326,0.03270914146961906,0.049760276767966606,0.0704477577348695,0.09449431492491675,0.12155358578580422,0.15124781642484988,0.18321815512527725,0.2171436182108175,0.25274495612338377,0.28978208972469366,0.3280494176527272,0.36737092532973104,0.40759582800784266,0.4485949264258133,0.4902576305745188,0.5324895401326145,0.5752104685538096,0.618352817986658,0.6618602354472862,0.7056865003048657,0.7497946078626426,0.794156024289933,0.8387500955328597,0.8835635981603573,0.9285904241914742,0.9738313953610307,1.0192942053896143,1.064993491463487,1.1109510404923644,1.1571961381160045,1.203766072586904,1.2507068101572127,1.2980738637745952,1.3459333829765334,1.394363500107375,1.4434559766545496,1.4933129902445106,1.5440464815768218,1.5957784563610375,1.6486416828190251,1.7027805897907435,1.7583522982772815,1.8155277644494068,1.8744930282676602,1.9354505675219311,1.9986207587739593,2.064243446589524,2.1325796212796293,2.203913203271225,2.278552929101722,2.3568343296532,2.4391217852888984,2.5258106346085505,2.6173293030839195,2.714141404255951,2.8167477487676447,2.9256881745192276,3.041543083939967,3.1649345412218968,3.2965267432142857,3.4370256331716487
R1,0.0,0.0,0.0,1.310351338563397,4.479525637660458,9.611766053610925,16.562919887868667,25.063733962716675,34.79606358963988,45.43843313132247,56.691731187020906,68.29218010057076,80.01632453351999,91.71275152253659,103.27810422858795,114.6414604651034,125.75434780911047,136.5843562962457,147.1109698496109,157.32274513096908,167.21531349161842,176.78990097269735,186.0521919281679,195.0114361555323,203.67974027900095,212.07150618911615,220.20299133495055,228.09197249171484,235.75749889577418,243.21972367102813,250.49980490465177,257.61986986651783,264.6030378480091,271.4734989989885,278.25664784940267,284.9792740917693,291.66981261877737,298.35865830225066,305.07855316702455,311.8650562206337,318.7571092501282,325.7977154898843,333.0347523430497,340.5148858947687,348.2856025999337,356.39619027908327,364.89835943354404,373.8467464903197,383.2993847111582,393.31817416415953,403.9693629391118,415.3240446628576,427.4586743237364,440.4556026222854,454.4036274956211,469.3985596880401,485.54379702546265,502.950899206805,521.7401512529563,542.0410990264056,563.9930341895868,587.7453983158238,613.45806630063,641.3014574692769,671.4564086663539,704.113727191915,739.4733231665692,777.7428018756816,819.1353789689383
G1,0.0,0.0,16.57114555139992,39.85593586858748,64.66907263790318,88.38786258995796,109.81771600163242,128.5438127669331,144.56147262273646,158.0670083694209,169.34115712490356,178.6858543038715,186.79076571863828,194.04305309706234,200.66168006417269,206.77630326476663,212.47099931777862,217.80714873706032,222.83471798820125,227.59748317002223,232.13530962032007,236.485126183566,240.68139587027844,244.75644063113944,248.7407592397161,252.66337926162151,256.55224627192376,260.4346431758525,264.33763325598323,268.28852483692225,272.3153601518343,276.44743515053295,280.71586053276394,285.15417024671905,289.7990192379391,294.6909574595038,299.8753218288093,305.40327209046563,311.33300412324496,317.73118169236903,324.6746364118412,332.2523964211366,340.47885223353535,349.39809168745234,359.06821280352676,369.55618230981537,380.9363751964946,393.2904147706248,406.70748521038576,421.28482623414305,437.128304985885,454.35302305122076,473.0839361124961,493.45646755935473,515.6170947266744,539.7238803324977,565.946912875116,594.4686081267812,625.4838090122101,659.1996025511764,695.8347496758181,735.6185963108628,778.7893023072767,825.5911897081203,876.2709759460831,931.0726257791745,990.2305362375055,1053.9607741158316,1122.450133191604
H1,489535.9297170185,458424.17304089584,431833.86362308735,407120.7066331016,384150.69951406145,362799.4110331614,342951.29761669604,324499.0685182976,307343.0963322947,291390.8696132569,267337.9351076679,245242.82832958494,224935.07835231494,206258.6754152758,189070.87426863957,173241.09468979674,158649.91139532533,145188.12618727767,132755.9157395239,121262.04895236628,110623.16828511788,100763.12992001355,91612.39801963721,83107.48871671945,75190.45982219397,67808.44255710841,60913.21190850175,54460.79248065045,48411.09696296786,42727.594565987056,37377.00698881336,32329.02967662193,27556.076306512747,23033.044605531377,18737.101757036336,14647.487791873464,10745.335489954216,7013.505436704699,3436.4349882631104,1.3921089703217149e-11,1.3657502380998007e-11,1.3410111930230823e-11,1.3177770902386086e-11,1.295941377544844e-11,1.2754051102145558e-11,1.256076407616023e-11,1.2378699486469707e-11,1.2207065032088951e-11,1.2045124971474641e-11,1.1892196082685599e-11,1.1747643912102751e-11,1.1610879291097227e-11,1.1481355101507465e-11,1.1358563272153211e-11,1.1242031989883835e-11,1.113132310983703e-11,1.1026029750678624e-11,1.0925774061610544e-11,1.0830205148877799e-11,1.0738997150381672e-11,1.0651847447820143e-11,1.0568475006532133e-11,1.0488618833923892e-11,1.0412036548007379e-11,1.033850304818548e-11,1.0267809280980729e-11,1.0199761093925865e-11,1.013417817131892e-11,1.007089304599542e-11
S2,48953.61881886697,51835.363680162234,54462.41183826865,56869.91739480113,59073.77878138428,61088.778724090385,62928.65599806658,64606.17165820164,66133.17269437591,67520.65359656377,91784.55366611069,116696.04363788637,142152.01490654252,168059.584050021,194335.17328806402,220903.67712927514,247697.70095763972,274656.862796783,301727.1524832293,328860.3439255786,356013.4567384959,383148.2637745314,410230.8411841942,437231.1577316796,464122.7002200931,490882.13203908683,517488.98202906124,543925.3610467869,570175.7038071258,596226.5337574248,622066.2489109645,647684.5005849779,673073.3893516825,698225.7058523741,723135.5095770452,747797.9308297464,772209.0278141949,796365.6649423933,820265.4018294482,843906.3889181154,841753.8137602165,839476.6596806485,837084.5712332777,834586.4780232023,831990.558623979,829304.247944414,826534.2536125327,823686.5697961856,820766.4838939403,817778.5736683799,814726.6929045515,811613.9435990443,808442.6323688288,805214.2083363356,801929.1792494771,798587.0020678706,795185.9437336875,791722.9074159731,788193.2192791706,784590.370945442,780905.713540118,777128.1008758653,773243.4824121508,769234.4517218441,765079.7640156549,760753.8475552889,756226.3491107407,751461.7730797356,746419.2965695098
E2,0.0,26.976719284919724,40.42677503064932,45.82702981235753,46.571364503668676,44.73652719127735,41.57804047776802,37.84307695506513,33.96644055449958,30.192512400287185,26.650664968068646,25.02344769110318,24.394092750015577,24.240778308728004,24.291595263958037,24.42197285288718,24.587790180279782,24.78488981847131,25.026393782459905,25.331117682972327,25.718405451382402,26.206392646670892,26.81192899290252,27.551195349952685,28.4405383985869,29.497320449263285,30.740723582882293,32.19251369388767,33.87779695490875,35.82580978644003,38.070784955924715,40.65293660554937,43.61953766196322,47.026451890277045,50.939615234192935,55.4370158452472,60.61105471142062,66.57139644007559,73.4484268795152,81.39745639374691,90.60383862275845,100.16774937237628,110.47039584722191,121.70432012496292,134.00033196546718,147.47267810851,162.2353392364426,178.4081127621311,196.11905546531773,215.5055892035178,236.7150582559112,259.9049832999572,285.24305394038294,312.90681579160525,343.082959736161,375.9660812004825,411.7567350811631,450.6585628089742,492.8742102254945,538.5996887039535,588.016759979379,641.2828540167914,698.5179715002655,759.7879996473528,825.0839158360448,894.2965171611498,967.1866610247484,1043.3516095043483,1122.1890125060572
I2,0.0,0.0,5.799900942989972,12.992782305110392,19.488008986117862,24.464853173346718,27.761162469117384,29.526618784548912,30.032864693133202,29.574829768100813,28.42377281720455,26.808672113617572,25.261078631848857,23.97808497119079,22.993663746694153,22.274549300049177,21.769289769710745,21.43024297471947,21.221183973387856,21.118069789210175,21.10711560941706,21.182257591037686,21.342897912596605,21.592215866002988,21.936048020636008,22.38223721523223,22.940332480749653,23.62153939272419,24.438847519536278,25.40728757442717,26.544291958378217,27.870148344490573,29.40854783055262,31.18722308450885,33.238750974977876,35.601466279430156,38.320564983210716,41.44943000535246,45.05122725602411,49.2008326382291,53.9871647883023,59.51601553567503,65.67238028712435,72.45293066314329,79.89659423860522,88.06036307559158,97.0110647421414,106.82276354750465,117.57614109460644,129.35856206040705,142.2643607021606,156.39517315545908,171.86023846823488,188.77662023923628,207.26930370738285,227.47111494558578,249.52239418404986,273.57033536501547,299.76787868990334,328.2720116976543,359.2412970168408,392.83240172880517,429.19535594424633,468.46722067732213,510.76380494329146,556.1690520679174,604.7217355909298,656.3991948711222,711.0980376805618
A2,0.0,0.0,2.2931148424859447,5.270908173447536,8.11218325237359,10.448474349712313,12.161539682747565,13.263509607566803,13.827600674647417,13.94934596881999,13.72594520236185,13.246155254897843,12.724004176267481,12.252785957314911,11.862779122107783,11.555093271648637,11.32002713920508,11.14606928204284,11.02365715018224,10.946256120493528,10.91023788674044,10.914344105291626,10.959109686748986,11.046394844666832,11.179063179182016,11.360795095049063,11.596010772768281,11.889876900245156,12.24837700443533,12.678432018782763,13.188063887336961,13.786600069477254,14.484920874476243,15.29574891271906,16.23401088659025,17.317252942239744,18.566141260358844,20.00506319043254,21.66285048459315,23.573651794545764,25.777987962063527,28.324031363787256,31.17383171899775,34.32943273963052,37.80883614062801,41.63756257789886,45.8457399458854,50.46715931405167,55.53903673417723,61.10203031876729,67.20034789304779,73.8818804927281,81.1983307511057,89.20531497368795,97.96241819880842,107.53317783061787,117.98496507960822,129.38872477700812,141.81852301676184,155.35083827444657,170.06351497809135,186.03427904894374,203.33869331785937,222.0474085244898,242.22254590290655,263.91303548615616,287.14873867441975,311.93321663636044,338.2350841845923
IH2,0.0,0.0,0.0,0.3387546590176018,1.0922984362644335,2.2133628412978146,3.6074862291949144,5.172221085763751,6.815472865593647,8.462460593849816,10.056804815637925,11.558855781588232,12.942960974509099,14.214917424940586,15.391942614771434,16.492967600241254,17.534682890077647,18.53051146639711,19.490882662980006,20.423946072584656,21.336318896779634,22.23370918382399,23.121381079268517,24.00448105799215,24.888260383775627,25.778228665526868,26.680266976149415,27.600721666555753,28.546493805131515,29.52513465505569,30.544954670163584,31.615151835584932,32.745964483324734,33.948853721475956,35.23672026774317,36.62416475350629,38.12779730276621,39.76660668478585,41.56240109518831,43.540335228746805,45.72954161679074,48.16388828813619,50.88288983797841,53.91872261166499,57.30286273350366,61.06856515681364,65.25189079229422,69.8922368597823,75.03270711676035,80.72044008672077,87.00693596972738,93.94839514782154,101.60607077755898,110.04663342218548,119.34254289693314,129.57241993950782,140.821407318176,153.18150618294206,166.75186855458958,181.63902053275007,197.95698276621127,215.82724463288474,235.37853611627702,256.74632633593114,280.07196012079174,305.5013243766037,333.1829155048179,363.2651601501613,395.89282811267014
IN2,0.0,0.0,0.0,1.1599801885979946,3.6656403543251757,7.269681613060708,11.580464296190115,16.205282475971615,20.812816217997955,25.152607654397038,29.053242595240448,32.41128621143336,35.177382842770236,37.41243964144029,39.21190456791392,40.67037621484639,41.868224173501375,42.86909131387156,43.72199526991379,44.46478314037734,45.127462467236995,45.73488069449138,46.30868260537464,46.86866000976017,47.43365556106199,48.02217022433622,48.65279189405317,49.344529670853305,50.117111438427436,50.99128309879003,51.98913527388414,53.134475952066424,54.45326400830504,55.974117636694366,57.72890969456028,59.75347589490498,62.0884490253338,64.78024701888023,67.88224704095332,71.45618476174826,75.57382696913209,80.31897677946111,85.78988435428452,92.053930633143,99.1724347188462,107.20959052679082,116.23584945481576,126.3293863577862,137.57692836756112,150.07439344791976,163.92749096728411,179.2523314761984,196.1760541107655,214.83746395766798,235.38766270390116,257.99064819918374,282.82384984154817,310.0785557515676,339.9601736475479,372.6882493381204,408.4961439495344,447.63024255242516,490.34853203784394,536.9183445985241,587.6130154968727,642.7071519130724,702.4701579464347,767.1576173437038,837.0001134572486
D2,0.0,0.0,0.0,0.0,0.0003387546590176018,0.0014310530952820351,0.00364441593657985,0.007251902165774765,0.012424123251538516,0.019239596117132163,0.027702056710981977,0.037758861526619905,0.04931771730820814,0.06226067828271724,0.07647559570765783,0.09186753832242926,0.10836050592267052,0.12589518881274817,0.14442570027914528,0.1639165829421253,0.18434052901470996,0.2056768479114896,0.2279105570953136,0.25103193817458214,0.27503641923257427,0.2999246796163499,0.32570290828187676,0.35238317525802615,0.3799838969245819,0.4085303907297134,0.4380555253847691,0.4686004800549327,0.5002156318905177,0.5329615963738424,0.5669104500953184,0.6021471703630615,0.6387713351165678,0.676899132419334,0.7166657391041198,0.7582281401993081,0.8017684754280548,0.8474980170448456,0.8956619053329818,0.9465447951709602,1.0004635177826253,1.057766380516129,1.1188349456729427,1.184086836465237,1.2539790733250193,1.3290117804417796,1.4097322205285003,1.4967391564982278,1.5906875516460492,1.6922936224236083,1.8023402558457937,1.9216827987427267,2.0512552186822344,2.1920766260004103,2.3452581321833526,2.5120100007379422,2.6936490212706925,2.8916060040369036,3.107433248669788,3.342811784786065,3.5995581111219965,3.8796300712427882,4.185131395619392,4.518314311124209,4.881579471274371
R2,0.0,0.0,0.0,0.458622968497189,1.610687454637894,3.542763558965734,6.247227653675216,9.660053034175323,13.686681402087952,18.219308561776796,23.148078375991986,28.368017130504708,33.7830353181954,39.33551881273467,44.991475331327415,50.73086563260188,56.54172693515841,62.41683824181614,68.35197065645822,74.3450618423314,80.3958934636421,86.50602206568948,92.67882644116285,98.91960326352095,105.23568202121527,111.63655122491882,118.13399820745613,124.74226950868679,131.47826075803437,138.36174577117677,145.41565512974648,152.66641524999744,160.14436008478722,167.88422926015326,175.92576750504153,184.31444730882208,193.10233519605433,202.34912948439623,212.1234028324263,222.50408994867462,233.58226961855124,245.46330103299104,258.2693877250903,272.12359314022217,287.1552592710981,303.5027024924929,321.3149737618472,340.75332249799965,361.99259685579887,385.22266818756765,410.6499148901313,438.4987806909477,469.01341345032904,502.45938507655376,539.1254882663652,579.3256002364469,623.4005966681651,671.7202901320449,724.6853556362847,782.7291909012098,846.3196396241566,915.9604813828231,992.1925608900598,1075.5943910839826,1166.7820183242573,1266.4078837350626,1375.1583536861783,1493.7495277933524,1622.9208710507814
G2,0.0,0.0,5.799900942989972,14.491517152725987,24.344169382817682,34.356850986104845,43.975048940510334,52.91418322247199,61.05031332039755,68.35298005764537,74.84426535042567,80.5740657478379,85.95402008281965,91.1986652915234,96.41034842788595,101.63295703311096,106.88359636709095,112.1698858504961,117.49855107148953,122.87913880587976,128.32524112042583,133.8546089599413,139.48889235142687,145.25336395403,151.17677525556724,157.29139222343986,163.6332136614898,170.24236245432397,177.16364107825106,184.44724974948917,192.14967441311043,200.33476094028015,209.0750011030505,218.4530501885014,228.5635739991695,239.51541433645986,251.43418018346696,264.46534641474767,278.77796541452324,294.56912207150657,312.06929246320374,331.54880305589484,353.0845212396398,376.83527262937406,403.00127871793933,431.810884642183,463.5169981911697,498.39703260475915,536.7541571504626,578.9190728586324,625.2520259816538,676.1449412801372,732.0236099132012,793.3498757225127,860.6237542401362,934.3853988894134,1015.2168004344442,1103.7430682454715,1200.6330938930084,1306.5993370996198,1422.3963993522716,1548.8179602796147,1686.6915464059477,1836.870483985825,2000.2222647967162,2177.6124407836987,2369.883085646549,2577.8248582571487,2802.1418302329494
H2,489535.9297170185,518674.97315255535,545244.8548798509,569599.1206757874,591898.2292367734,612291.1574254353,630916.2206251201,647901.8344950613,663367.2223119033,677423.0717843064,667166.406784735,654929.1882043565,640912.265712311,625299.1806129314,608257.6012289946,589940.6416870673,570488.0734364104,550027.4380947559,528675.069533959,506537.0324915618,483709.98441652535,460281.9667249885,436333.13115132286,411936.40642776043,387158.11010942445,362058.50997794885,336692.33910345344,311109.268319095,285354.3395625563,259468.3632626621,233488.28269496656,207447.50799592704,181376.2223096008,155301.6623422035,129248.3754170246,103238.45495385963,77291.75614215707,51426.09343443466,25657.421355228056,1.0550138540565968e-10,1.0523978008201257e-10,1.0496246144158371e-10,1.0467077346705753e-10,1.0436596218071537e-10,1.040491826625246e-10,1.0372150556669542e-10,1.0338392317253192e-10,1.0303735500284485e-10,1.0268265304081733e-10,1.0232060657400817e-10,1.0195194669212847e-10,1.0157735046332476e-10,1.0119744481193498e-10,1.0081281011904344e-10,1.0042398356563721e-10,1.0003146223675228e-10,9.963570600368408e-11,9.923714020011726e-11,9.883615810689757e-11,9.843312325911626e-11,9.802837158820165e-11,9.762221341080545e-11,9.72149352754291e-11,9.680680167695427e-11,9.639805664851486e-11,9.598892523947436e-11,9.55796148876459e-11,9.517031669331149e-11,9.476120660205676e-11
S3,146860.8564566009,146173.6155883399,145537.90799144207,144946.7026871202,144394.7325516251,143877.74741459428,143392.19480981858,142935.02311458785,142503.55701737598,142095.4163975996,189010.98882462186,235703.28098230407,282187.86024144193,328478.28407427785,374586.3186841108,420522.13782277453,466294.49814214115,511910.89228266245,557377.682679687,602700.2192901239,647882.9440190076,692929.4840385542,737842.7356556925,782624.939966287,827277.7512354297,871802.2987384881,916199.2426587271,960468.8245407821,1004610.9127281953,1048625.0431566446,1092510.4558256029,1136265.4657682453,1179889.6278152284,1223381.2740032168,1266738.6697700063,1309959.934168376,1353043.0255441393,1395985.7414995823,1438785.7185283296,1481440.4267423993,1479104.619283038,1476758.6128800665,1474400.2364009225,1472027.4709920287,1469638.3374070732,1467230.8337351142,1464802.884767958,1462352.289860884,1459876.66353768,1457373.3651620639,1454839.4143236794,1452271.388263977,1449665.2970515268,1447016.4314302313,1444319.1773602422,1441566.7902933832,1438751.1212354242,1435862.2857514282,1432888.266438538,1429814.4392903687,1426623.0152097938,1423292.390269875,1419796.4029711348,1416103.504733946,1412175.8624534032,1407968.4304869683,1403428.0551123184,1398492.7077233044,1393090.9826588328
E3,0.0,46.24580448843379,67.08668302435493,73.72650668852039,72.7156909577154,67.85273557671069,61.3085819336023,54.29420161468264,47.457698118286984,41.12049479827408,35.417533679246475,32.28571379207382,30.538041286281256,29.504151811679698,28.83185255897522,28.35265050846364,27.997075832447635,27.744869604592793,27.597688834660815,27.56536441378497,27.65977354929229,27.89268026027579,28.27545908144588,28.81959746392844,29.537444881695286,30.442987893395113,31.55258666761183,32.88567942389606,34.4654890008235,36.31977402420537,38.48166829503283,40.990652018236815,43.89363021841123,47.24647766033287,51.11555377958152,55.57973393404971,60.73284431004207,66.68661468894624,73.574271987597,81.55492157871645,90.81889688638549,100.46884168165155,110.89196336434483,122.28726143100832,134.79273137125523,148.53072173047366,163.62438028842223,180.20387244041748,198.40895864814968,218.39024004353655,240.30986267753786,264.34192499381464,290.67262828834095,319.5001222947948,351.03394762093586,385.49393433133423,423.1083702444334,464.1111987051084,508.73794168707354,557.2199700146087,609.7766607347555,666.6048986845219,727.8653078889616,793.664560937356,864.0331466082966,938.8981304132853,1018.0507905752265,1101.1096388596393,1187.4803264843767
I3,0.0,0.0,9.942687330839947,21.79683141762502,32.01532103536674,39.375959809106874,43.78903968090101,45.654778638236266,45.53033023458716,43.968215661023166,41.44728568461321,38.35166476165729,35.38264347421017,32.805094472829715,30.671319461366913,28.94438478802546,27.560675300201268,26.458078672672755,25.586177239385304,24.90793786210912,24.398010631219144,24.040149788827765,23.824836817413498,23.747458336210514,23.807062856303517,24.005599854156074,24.347522109446793,24.83964915195387,25.49121744709177,26.314069522833577,27.322955723473857,28.53593845360745,29.97490077345509,31.66615542524494,33.64122863547583,35.937767082031215,38.60064720668559,41.68332136987741,45.249450984279584,49.37489023396331,54.150099155373304,59.68308330579663,65.86101038110147,72.68345297735121,80.19287833530157,88.45044841550524,97.5278250136951,107.50462836276962,118.46788938010282,130.51219760094136,143.74007868528258,158.26242578539134,174.19890705036428,191.67830017696662,210.83870731159544,231.82759454583504,254.80158440519756,279.9259081504512,307.37339713893806,337.3228583063392,369.95663755285346,405.45712662964235,444.0019155435904,485.75723741289147,530.8693037949887,579.4530991428126,631.5782144631547,687.2513835042959,746.3955813216858
A3,0.0,0.0,3.9310540156901888,8.847444294303962,13.344964591986294,16.85705798195903,19.2533645951424,20.614134094996153,21.106503003416286,20.91927158645679,20.2308021584985,19.19525511185659,18.100601905799575,17.0763211074449,16.169012272218993,15.386017432336068,14.718887721634434,14.154958870527963,13.68237738424022,13.291801318535406,12.976592777918668,12.73245104987225,12.556935546867008,12.449060673839305,12.409014427985436,12.437996955245772,12.538157278439868,12.712605286979827,12.965481208575522,13.302071247338004,13.728963946169273,14.254246627564989,14.88774510407476,15.641307115752724,16.52916040372845,17.56832794342848,18.779132794587387,20.185808956732714,21.817241048996316,23.70786151737652,25.898740828003724,28.438914355949667,31.291332004856123,34.45926767158171,37.962256122041524,41.82765526491023,46.08775147846154,50.77884185434607,55.94102857661393,61.618273517204955,67.858547792995,74.71401127502843,82.24119083258051,90.50113571799693,99.55952874878724,109.48672785845514,120.35770571286878,132.25184570224502,145.25254053567073,159.44652456626352,174.92285260024465,191.7714162935929,210.08086486611376,229.93577129370652,251.4128614977054,274.5761078672603,299.47048862883196,326.1142442875435,354.4895394224684
IH3,0.0,0.0,0.0,0.5807222726016028,1.8446801170930416,3.6855992668929254,5.927491323431067,8.3918948951223,10.926529570868077,13.414050479673701,15.77122853265939,17.944111247664516,19.902029836325653,21.655757891801894,23.231370053388755,24.65758584452699,25.960516127513102,27.16214572662394,28.28048606609972,29.330320682664514,30.324037718510628,31.272349959540065,32.18485291834518,33.07043531578182,33.93757668610923,34.79456768952837,35.6496825179381,36.51132536418499,37.388166613124476,38.289279822908625,39.22428759922374,40.2035228008712,41.23821082182206,42.3406787132643,43.52459658958491,44.8052610189053,46.19992693184824,47.728199104198964,49.41249611018342,51.27860236866973,53.35632737409275,55.68029550485391,58.290895112866366,61.221289441344894,64.50409543537721,68.17389767623534,72.2683093516245,76.82853790879912,81.89979338009994,87.53165829693128,93.77846042893705,100.69966171265456,108.36026626098041,116.83124575973027,126.18997771695648,136.52068937464634,147.91489694882952,160.471825844613,174.29879227590519,189.51151997444694,206.23435703690177,224.60034704781532,244.75109506231394,266.8363525622244,291.01322607064674,317.44489213004124,346.2986779992984,377.7433451096106,411.9453952166989
IN3,0.0,0.0,0.0,1.9885374661679895,6.188652957758884,12.0961027239197,19.002585787430668,26.238583404755882,33.26823842395394,39.710038192058455,45.32352749894672,49.983277994553845,53.65073107184098,56.430674182354444,58.47247746956582,59.92400920224754,60.91390898004895,61.547791349397585,61.91039031610881,62.069570482387626,62.08035492813844,61.98829026204963,61.832026369271794,61.645214179325926,61.45788703172144,61.29748276678284,61.18963177767089,61.15880241931279,61.228867419534694,61.42363496661655,61.76737509041346,62.285364239323364,63.004467093941095,63.95377350559132,65.16530623130966,66.67482875075862,68.52276978304874,70.75529562670371,73.42556585289778,76.5952150639918,80.33611273018694,84.73246470694448,89.88333438737783,95.8572852732637,102.71730451999731,110.52982844377867,119.36820524166416,129.31424142490317,140.45911612751533,152.90411264249337,166.7613209600615,182.15435954496786,199.21912558419262,218.10456665244593,238.97345748947924,262.0031575500594,287.38631578513315,315.3314774787761,346.0635329472465,379.8239285765164,416.8705360553456,457.4770447579802,501.93170416479467,550.5351974763515,603.5973744888787,661.4325131809807,724.3527196644916,792.6590234278533,866.62969294894
D3,0.0,0.0,0.0,0.0,0.0005807222726016028,0.0024254023896946447,0.00611100165658757,0.012038492980018637,0.02043038787514094,0.03135691744600902,0.04477096792568272,0.06054219645834211,0.07848630770600662,0.09838833754233227,0.12004409543413416,0.14327546548752293,0.16793305133204992,0.19389356745956302,0.22105571318618694,0.24933619925228667,0.2786665199349512,0.3089905576534618,0.3402629076130018,0.372447760531347,0.4055181958471288,0.43945577253323803,0.4742503402227664,0.5099000227407046,0.5464113481048896,0.5837995147180141,0.6220887945409227,0.6613130821401464,0.7015166049410176,0.7427548157628397,0.785095494476104,0.8286200910656889,0.8734253520845942,0.9196252790164424,0.9673534781206414,1.0167659742308248,1.0680445765994946,1.1214009039735873,1.1770811994784411,1.2353720945913076,1.2965933840326525,1.3610974794680297,1.429271377144265,1.5015396864958896,1.5783682244046888,1.6602680177847888,1.74779967608172,1.8415781365106572,1.9422777982233117,2.0506380644842923,2.1674693102440226,2.293659287960979,2.430179977335625,2.5780948742844547,2.7385667001290677,2.912865492404973,3.10237701237942,3.3086113694163215,3.533211716464137,3.777962811526451,4.044799164088675,4.335812390159322,4.653257282289363,4.999555960288662,5.377299305398273
R3,0.0,0.0,0.0,0.7862108031380378,2.7234988359151693,5.915260363439124,10.309633832158811,15.769371274710608,22.117029664505417,29.16343788403399,36.724904317530836,44.6329279517577,52.739000805688036,60.94866979548151,69.20192797898409,77.46043436602768,85.69958107046055,93.90375681424284,102.06359916328225,110.17442598775179,118.23533928111439,126.24870230368073,134.21982344019617,142.1567594584515,150.07019576535217,157.9733853895812,165.88214077212763,173.81487855095742,181.79272058686706,189.8396562491307,197.98277237698585,206.2525588158098,214.68329922655397,223.31355911469524,232.18678463383628,241.3520332360964,250.86485623424605,260.78836125898397,271.19448852771933,282.165542440244,293.7960294078349,306.1948643604885,319.48802255682205,333.8025971936729,349.27231528435794,366.0403352125873,384.26111654903735,404.10200386083966,425.7447591415421,449.3871323493679,475.24450689442676,503.55163678649313,534.5644832128493,568.5621528540687,605.8489353370687,646.756431583455,691.6457576704476,740.9097995227725,794.9754815867852,854.3059967748259,919.4029244374545,990.808136817159,1069.1053611676857,1154.9212233309506,1248.9255481525495,1351.8306324400926,1464.3891382372663,1587.3901811583082,1721.6531168906004
G3,0.0,0.0,9.942687330839947,24.36609115639461,40.2170340064076,55.85065498535222,70.43875744879024,83.61988960998869,95.29295436697412,105.49619461873645,114.33695816888562,121.95160488760177,128.89292120890963,135.45849401198876,141.8017841692296,148.0005323223613,154.0962536991348,160.11552775564866,166.08057834920865,172.01398558846367,177.9404431895088,183.88719842675917,189.8840277978727,195.96315328596077,202.1592666362253,208.50971468787648,215.05485134165176,221.83854787770738,228.90885472588454,236.318815145654,244.12744040461675,252.40086542249702,261.2137132259453,270.65069125897577,280.8085198459494,291.7981863593781,303.74763609974843,316.80498667169826,331.142377194772,346.9605901128716,364.49461497238406,384.02036234475304,405.6208143291521,429.4622012707587,455.75353771528506,484.7335067593846,516.6670960119934,551.8457694269432,590.5889760659313,633.2462130044624,680.1993560382924,731.8651418009214,788.697737486508,851.1913429210778,919.8827594351264,995.3538388619818,1078.2336957352775,1169.2005256766574,1268.9828213143153,1378.3597116827104,1498.1600697398592,1629.2599337468887,1772.5776715210059,1929.0661844868787,2099.7013083053453,2285.465433618738,2487.3252704077,2706.20265419579,2942.937401861248
H3,1468607.7891510553,1462197.1995952372,1456186.9249932836,1450543.044128814,1445236.1273405475,1440238.900436957,1435526.0900455231,1431074.2800168714,1426861.778094053,1422868.4921136491,1371773.2878891616,1321102.083769562,1270822.1873671939,1220904.0618643689,1171321.0569358387,1122049.1616455356,1073066.7775572836,1024354.5104384467,975894.9790638337,927672.6397454797,879673.6253229228,831885.5974490526,784297.6110991589,736899.9903160924,689684.2142830162,642642.8128876074,595769.2710082511,549057.9408141844,502503.9614281222,456103.18535200367,409852.11110447755,363747.82156294124,317787.9275436347,271970.5161907589,226294.10378008356,180757.59257426657,135360.2313963417,90101.5796147415,44981.47425799058,1.8189894035458565e-10,1.8163908472550768e-10,1.8137828021091432e-10,1.8111634765488983e-10,1.8085312539427834e-10,1.805884679467155e-10,1.8032224479314198e-10,1.8005433924804075e-10,1.7978464741112293e-10,1.7951307719463552e-10,1.7923954742088043e-10,1.789639869849208e-10,1.786863340778099e-10,1.7840653546601058e-10,1.7812454582298353e-10,1.7784032710920918e-10,1.7755384799717572e-10,1.7726508333811298e-10,1.769740136674821e-10,1.7668062474644494e-10,1.7638490713673524e-10,1.7608685580653763e-10,1.7578646976515222e-10,1.7548375172438078e-10,1.7517870778471843e-10,1.7487134714457142e-10,1.7456168183084897e-10,1.7424972644939518e-10,1.739354979538365e-10,1.7361901543152252e-10
S4,73430.42822830044,74584.51461033539,75749.19978874833,76919.9996091911,78094.10963850966,79269.75337420897,80445.79080276252,81621.48078099969,82796.33524179348,83970.0288702829,113630.06703115297,144073.49355166365,175298.16234737498,207301.83978167648,240082.24730138222,273637.10422030534,307964.1597483594,343061.21229990065,378926.11798745114,415556.7913007908,452951.20076433726,491107.3617034292,530023.3275512757,569697.1805580691,610127.0223559134,651310.9645653998,693247.1194634797,735933.5906316573,779368.4634406705,823549.7951835919,868475.6046311964,914143.1536427544,960551.2058738424,1007697.3785110193,1055579.3219949612,1104194.5992076332,1153540.6323394408,1203614.6639232521,1254413.71575225,1305934.5395929962,1318186.6898368087,1330408.8343065174,1342598.9913484887,1354755.238881163,1366875.4857657293,1378957.3596720372,1390998.1265852042,1402994.6118099596,1414943.1098050042,1426839.2756201802,1438677.9919757748,1450453.205718253,1462157.7263969749,1473782.9783405322,1485318.6959895354,1496752.5504419447,1508069.6932866203,1519252.2020060432,1530278.409796379,1541122.102023761,1551751.5623847183,1562128.4551538166,1572206.5370642336,1581930.2052090054,1591232.9081366234,1600035.4785643516,1608244.490154168,1615750.798766776,1622428.4990544182
E4,0.0,69.36870673265071,101.6970910370621,112.98099464042599,112.68996318676416,106.38741186240978,97.2998909798352,87.26008391170213,77.27402592439329,67.86199725150364,59.2628681192392,54.9987792753415,53.0555154985783,52.2855772552143,52.08504293648855,52.169315361306424,52.42876087605909,52.84202348605082,53.427616580665656,54.21914907558565,55.25416796087852,56.5702870323325,58.20488496412791,60.19635305292264,62.585895954207274,65.41946299456154,68.74968672747582,72.63784831632996,77.15595091430409,82.3890061643504,88.43764906363546,95.42120484193387,103.48116864667207,112.78602981862885,123.53624753614989,135.9707899071957,150.37503325834476,167.09039558791207,186.52612535739786,209.1737574762578,235.62487031395062,263.58216998471335,294.1389842689267,327.9082850362696,365.35386946861183,406.9105853958973,453.02929047202633,504.1949665359316,560.9352409870871,623.8254160574759,693.4920977902169,770.6160502813261,855.9343323337888,950.2415124065978,1054.3895888899485,1169.2860853690331,1295.8896112224566,1435.201960417285,1588.2555569491894,1756.0947411625784,1939.749032828775,2140.196124485832,2358.3119961945895,2594.805281775378,2850.13299178512,3124.395116071263,3417.206776941574,3727.5488444676685,4053.601642387389
I4,0.0,0.0,14.914030996259925,32.92466271761043,48.70722169042291,60.3488866178654,67.62723750533303,71.07102634561178,71.4663924887728,69.6126254827338,66.21433132565062,61.845397181309394,57.6886617951927,54.1882608565477,51.426853881538065,49.33589954277824,47.8033806644415,46.7226552353395,46.01004681893267,45.607481867788465,45.479119244221664,45.60645188289843,45.98384190866436,46.615144597733504,47.51147299149233,48.689927301746124,50.17306787193651,51.988941111623696,54.17152127983131,56.76148387797327,59.80727078220712,63.36644232493227,67.50733935720262,72.31106394281963,77.87398542977843,84.3106686816003,91.75745151534643,100.37679602440025,110.36258664805902,121.94659373221162,135.4063748473783,151.07495204698284,168.70538195779065,188.34959477132236,210.17788837832092,234.41626929014652,261.32583313263217,291.19713943076084,324.34993451291894,361.1347780847587,401.93533076103614,447.17083070107,497.2985439163924,552.8160407750204,614.2631454509715,682.2233644818753,757.3245366656677,840.2383605635275,931.678345367729,1032.3955920927694,1143.1716415599583,1264.8074221673392,1398.1070973295361,1543.8553616976073,1702.7864931628749,1875.5432827715854,2062.6239173512045,2264.3151014120544,2480.6103436250696
A4,0.0,0.0,5.896581023535285,13.361870800441954,20.293273622739015,25.81365719612161,29.694225300431203,32.02620894347977,33.038377383993925,32.99926252104731,32.16791550094072,30.77188203965482,29.29259290764015,27.943977431103228,26.799637624817727,25.867119666144408,25.128268748034394,24.55924178348083,24.139148969149332,23.85285216477605,23.691097732722987,23.64967438745446,23.728410403834932,23.93034571889562,24.261175675829058,24.728959088029793,25.344048858577093,26.11920125979952,27.069830421306495,28.214388164907838,29.574862232989133,31.177397143772296,33.05305157084027,35.23870003207212,37.77816432098273,40.72354159883564,44.13682271387077,48.09185832369005,52.67675067014254,57.99676908745401,64.17791121764863,71.37126139058913,79.50240911025676,88.60476263882809,98.75715332411653,110.06207061582492,122.63846964969883,136.61983900096416,152.15419467068875,169.40479962138875,188.55116691110007,209.7901706764242,233.3371775394285,259.4271333561843,288.3155358904859,320.27920617594003,355.6167436964444,394.64851316601516,437.7159623227835,485.1800089829974,537.4181599564316,594.8199334474916,657.7800512814379,726.688752266355,801.9184637848687,883.805975227838,972.6292175922965,1068.577819735164,1171.7168551581294
IH4,0.0,0.0,0.0,0.8710834089024044,2.780419645927935,5.581552122865837,9.0186044846882,12.826731940150834,16.776135930075316,20.686546408003117,24.42721130242481,27.91058790185768,31.084028701078026,33.96479985817797,36.59583672408573,39.024227587059585,41.29231720382043,43.435242076378486,45.48135771475792,47.453686585647226,49.37149733647745,51.251662334191906,53.1097077660945,54.96058645258773,56.81924132688627,58.70102949454218,60.622065415050955,62.599527905813936,64.65196383467374,66.79961284155245,69.06477212692171,71.47221771686058,74.04969807670562,76.82851704100156,79.84422326598938,83.13743521577081,86.75482420860595,90.75029095679541,95.18637775864433,100.13596793461244,105.68433606490392,111.93162748886331,118.99586404536468,126.97878902447799,135.98357937075554,146.12173664485067,157.5162099303127,170.30326532453665,184.6339974890313,200.6758012534023,218.61391508859649,238.65307392415815,261.01928063555204,285.9616927983009,313.75461274558387,344.6995602030613,379.1273957790698,417.4004490315014,459.9145854837983,507.1011214633147,559.4284624300685,617.4032978229682,681.5711315954426,752.5158609887651,830.858035868091,917.2513378433989,1012.3767159601877,1116.9335121536074,1231.626820065447
IN4,0.0,0.0,0.0,2.982806199251985,9.328862554872906,18.323210710469738,28.925585047645498,40.13454497713428,51.1346000578569,61.3327957658765,70.3435218828089,77.95297074552064,84.07923477797561,88.88353367075457,92.6030030731738,95.47231967611039,97.69365796745676,99.43059798123727,100.81229114348129,101.94081058091047,102.89844024759684,103.7537062105531,104.5659452560709,105.38861464561444,106.27166160420018,107.26325597252725,108.41112998178397,109.76370532566185,111.37113515840156,113.28635100173948,115.56618048954479,118.27258862504011,121.4740900490055,125.24738061984027,129.67923446836426,134.86875034244886,140.93000370079554,147.99520190302854,156.21845698289897,165.78031589520052,176.89322067280122,189.80811157398742,204.82243687249496,222.16043520655194,242.0387732401675,264.69082559984406,290.3764785518678,319.3870246569439,352.04854039638036,388.7249378840213,429.82109749849104,475.7862071468923,527.11732943273,584.3631732109304,648.1280184010657,719.0757163742439,797.9336556830146,885.4965401775879,982.6297700545431,1090.2721423099142,1209.437491166389,1341.214766724827,1486.7658968710061,1647.3205898982105,1824.1670126025447,2018.6370253179762,2232.0843853773918,2465.854072661237,2721.240696070933
D4,0.0,0.0,0.0,0.0,0.0008710834089024045,0.0036515030548303394,0.009233055177696178,0.01825165966238438,0.031078391602535213,0.04785452753261053,0.06854107394061365,0.09296828524303846,0.12087887314489615,0.15196290184597416,0.18592770170415213,0.22252353842823785,0.26154776601529744,0.3028400832191179,0.3462753252954964,0.3917566830102543,0.43921036959590154,0.488581866932379,0.5398335292665709,0.5929432370326654,0.6479038234852531,0.7047230648121394,0.7634240943066816,0.8240461597217326,0.8866456876275465,0.9512976514622202,1.0180972643037727,1.0871620364306944,1.158634254147555,1.2326839522242605,1.309512469265262,1.3893566925312513,1.472494127747022,1.559248951955628,1.6499992429124235,1.7451856206710679,1.8453215886056804,1.9510059246705844,2.0629375521594477,2.1819334162048123,2.3089122052292903,2.4448957846000456,2.5910175212448965,2.7485337311752094,2.918836996499746,3.1034709939887772,3.3041467952421795,3.522760710330776,3.761413784254934,4.022433064890486,4.308394757688787,4.622149370434371,4.966848930637432,5.345976326416501,5.763376775448003,6.2232913609318015,6.730392482395116,7.289820944825184,7.9072242426481525,8.588795374243595,9.34131123523236,10.172169271100453,11.089420608943852,12.101797324904041,13.218730837057649
R4,0.0,0.0,0.0,1.1793162047070571,4.103389125669957,8.95006852869346,15.66236484451819,24.05045366570531,33.858658452953534,44.80836577737965,56.62452857225841,69.05110394021027,81.85914682136689,94.90866380754233,108.11561269721659,121.43029457296176,134.82400684210617,148.28123029503706,161.7952945288908,175.36611159257475,188.99907926676806,202.70461790361617,216.49804183141492,230.3996115327206,244.43469667856826,258.63402596506603,273.0340235634368,287.677244040714,302.6129239163931,317.8976720348897,333.5963245258635,349.7829942938847,366.5423502855993,383.9711685995446,402.18020317871105,421.29644486274924,441.4658380997291,462.85654818372836,485.66289171731455,510.11006835704154,536.4598634787308,565.0175305391604,596.1401104216011,630.1953201829604,667.5770142326367,708.7136836565438,754.0746484248227,804.1756422078063,859.5844302474475,920.9267187715328,988.8924743718694,1064.2427176045248,1147.8168305394402,1240.540402342608,1343.4336220241182,1457.6202093313436,1584.3368507927746,1724.943075649297,1880.9314630352292,2053.93801391436,2245.7524448778186,2458.328061214242,2693.790738347372,2954.446378300638,3242.7860064048214,3561.48743016207,3913.4120985253235,4301.595485210853,4729.228996081484
G4,0.0,0.0,14.914030996259925,36.77855232576482,61.06907373550716,85.29702439360601,108.16994840879502,129.08908699961077,147.8497019439113,164.46334910737713,179.05344279872534,191.79475359559487,203.61930010228102,215.0260516468634,226.26726914349254,237.4653724581489,248.68159405142194,259.9535955291864,271.31444703263696,282.8011990173801,294.45812773915367,306.3375819261411,318.4999971419695,331.0138452353802,343.9558520505444,357.41160228944005,371.4765595996553,386.25750344496015,401.87438852639224,418.4626499728208,436.1760001210631,455.1897874827728,475.7050150795305,497.9531068981322,522.2017115483958,548.7615756671913,577.9948232045477,610.3249330294577,646.2487876946409,686.3512567505203,731.3228880457123,781.9814167234272,838.6506677210557,901.889527651111,972.3886699489378,1050.9384828329896,1138.42284529472,1235.8225691551227,1344.2227356459848,1464.8218640572732,1598.9421616605268,1748.0405538500477,1913.7203279361563,2097.7432363116513,2302.041860828092,2528.731960031525,2780.1244068865426,3058.73617204442,3367.2996083796343,3708.7690363396205,4086.3233059183603,4503.3626102846465,4963.497343106951,5470.526230724123,6028.400353284951,6641.169046620544,7312.903144031896,8047.590731453041,8849.000785423344
H4,734303.8945755276,746542.292818453,758727.2694817467,770862.1605233575,782950.0192244309,794993.6536189355,806995.6444559102,818958.3618729563,830883.9808730969,842774.4956905473,826144.0086873334,808693.5405891773,790427.6273127121,771350.4858293855,751466.0445624249,730777.9712354146,709289.698377636,687004.4466750794,663925.2463410634,640054.9566665988,615396.2838979205,589951.7975768952,563723.9454692131,536715.0671953312,508927.4066699675,480363.12344750424,451024.30306288425,420912.9664504182,390031.07851632504,358380.555934751,325963.27423141594,292781.07421388436,258835.76780271198,224129.14331335053,188662.97023467242,152439.00354627185,115458.98761329308,77724.65969439734,39237.7530955935,1.673470251262188e-10,1.6886284962917367e-10,1.703765086685529e-10,1.7188799433697718e-10,1.7339729723410126e-10,1.7490440661238692e-10,1.7640931051194287e-10,1.7791199588521905e-10,1.7941244871228605e-10,1.8091065410737875e-10,1.8240659641733404e-10,1.8390025931250804e-10,1.8539162587071572e-10,1.8688067865469748e-10,1.883673997835809e-10,1.8985177099877243e-10,1.9133377372468252e-10,1.9281338912465898e-10,1.9429059815247659e-10,1.957653815997056e-10,1.9723772013925933e-10,1.987075943653988e-10,2.0017498483045328e-10,2.016398720784962e-10,2.0310223667619937e-10,2.0456205924107201e-10,2.0601932046727678e-10,2.0747400114920052e-10,2.0892608220294548e-10,2.1037554468589412e-10
E_Om,0.0,0.0,0.0,0.0,0.0,0.0,0.0,0.0,0.0,0.0,0.0,0.0,0.0,0.0,0.0,0.0,0.0,0.0,0.0,0.0,0.0,0.0,0.0,0.0,0.0,0.0,0.0,0.0,0.0,0.0,0.0,3.090139179326395,4.5429745758978655,5.781169273531994,7.230828754444371,9.078076065885654,11.476553952776339,14.610023750595328,18.721333140200592,24.138305702719315,31.306282713049036,40.272228121657264,51.71943750616239,66.36415635823599,85.09061468502577,109.01684328872452,139.5597077387864,178.5134339449388,228.14732425421258,291.32760998913494,371.66908170843914,473.7232006322417,603.210627520805,767.3074423125386,974.9956899541615,1237.4901395968693,1568.7540582406145,1986.1170117130034,2511.0066551663303,3169.8033305743443,3994.819860509354,5025.397582749059,6309.091279673436,7902.8876360550075,9874.361413925508,12302.618270229463,15278.802272596247,18905.862527489655,23297.186319448214
I_Om,0.0,0.0,0.0,0.0,0.0,0.0,0.0,0.0,0.0,0.0,0.0,0.0,0.0,0.0,0.0,0.0,0.0,0.0,0.0,0.0,0.0,0.0,0.0,0.0,0.0,0.0,0.0,0.0,0.0,0.0,4.0,2.966372107146391,2.864210059512767,3.100801961244294,3.5424644249014587,4.18166998116666,5.052852119947628,6.214579133729787,7.749792908646581,9.772213976939454,12.436657623572708,15.95368061153195,20.489527454211952,26.314390099257842,33.78263130377755,43.34715039757104,55.58418710446095,71.22569796136091,91.20024917032902,116.6843510739421,149.16672531672515,190.52856490328605,243.14349780076805,310.00171215060925,394.8635428880221,502.4487366438757,638.6685610209809,810.9088247568234,1028.3725885672263,1302.4916495332118,1647.4154305463023,2080.5841895708013,2623.3897512690005,3301.9202566714994,4147.774428532035,5198.913998416948,6500.4985632112275,8105.613823009912,10075.761463122963
A_Om,0.0,0.0,0.0,0.0,0.0,0.0,0.0,0.0,0.0,0.0,0.0,0.0,0.0,0.0,0.0,0.0,0.0,0.0,0.0,0.0,0.0,0.0,0.0,0.0,0.0,0.0,0.0,0.0,0.0,0.0,0.0,0.0,0.26267256379918175,0.5963066699511052,0.9684648050239975,1.3894174043323664,1.8832019216399993,2.482108486952154,3.227589556081244,4.173449990078248,5.390599820870509,6.9736226292530645,9.002177378780317,11.598073737811264,14.919642795694157,19.168712045876074,24.601779984765848,31.544483904357453,40.40984907279222,51.72119428647166,66.14081420074736,84.5058142933188,107.87276895949412,137.5732137507796,175.28236882916104,223.10391534370945,283.67409254588136,360.2888180330561,457.0578991724949,579.0906069746211,732.7167789473009,925.7469872536235,1167.7738399867671,1470.5137453044626,1848.183895881033,2317.9021353486537,2900.0869942257714,3618.8208592633223,4502.120671503799
IH_Om,0.0,0.0,0.0,0.0,0.0,0.0,0.0,0.0,0.0,0.0,0.0,0.0,0.0,0.0,0.0,0.0,0.0,0.0,0.0,0.0,0.0,0.0,0.0,0.0,0.0,0.0,0.0,0.0,0.0,0.0,0.0,0.23362789285360905,0.40321201818306296,0.5641632612415325,0.736402926016613,0.931731106417861,1.1613227391291923,1.4381882438635678,1.7785543098629315,2.203236923141051,2.739366909110606,3.4226908817968056,4.300691492426694,5.429814791515437,6.881400576920135,8.746364422494898,11.14064516479315,14.212015469998763,18.148676345625578,23.190104971985694,29.64073029427072,37.88714728116625,48.419748317936154,61.859853119866244,78.99366193437314,100.81464551956832,128.57632313145487,163.85776762780367,208.64461116592597,265.4287941730006,337.33077979436183,428.24840165180086,543.0368510946544,687.7244263391093,869.7683885493077,1098.3543545694797,1384.7407708111089,1742.6467333631235,2188.6762456407087
IN_Om,0.0,0.0,0.0,0.0,0.0,0.0,0.0,0.0,0.0,0.0,0.0,0.0,0.0,0.0,0.0,0.0,0.0,0.0,0.0,0.0,0.0,0.0,0.0,0.0,0.0,0.0,0.0,0.0,0.0,0.0,0.0,1.6,2.6584138333706084,3.4934911091889447,4.237870758356032,4.972196246024934,5.763124831758523,6.6764907135761415,7.784527710675045,9.172289428124735,10.944958851195137,13.237014049216391,16.224229894731188,20.10939671060617,25.146497833983986,31.657901352948336,40.053741695739255,50.855949605044046,64.72846537826271,82.51528092817325,105.28830502495691,134.40750884767624,171.59637697938467,219.03637377719554,279.4849510919024,356.4225830518044,454.23542349819525,578.4414363876404,735.9692234049298,935.5002071932497,1187.886211928455,1506.655625811884,1908.6219284653762,2414.6079559330233,3050.2971778709702,3847.2185246294684,4843.86266012804,6086.913468633504,7632.5571102419835
D_Om,0.0,0.0,0.0,0.0,0.0,0.0,0.0,0.0,0.0,0.0,0.0,0.0,0.0,0.0,0.0,0.0,0.0,0.0,0.0,0.0,0.0,0.0,0.0,0.0,0.0,0.0,0.0,0.0,0.0,0.0,0.0,0.0,0.00023362789285360906,0.000636839911036672,0.0012010031722782043,0.0019374060982948172,0.0028691372047126777,0.00403045994384187,0.005468648187705439,0.00724720249756837,0.00945043942070942,0.012189806329820026,0.015612497211616831,0.019913188704043523,0.02534300349555896,0.0322244040724791,0.040970768494974,0.052111413659767146,0.06632342912976591,0.08447210547539148,0.10766221044737717,0.1373029407416479,0.17519008802281416,0.22360983634075032,0.28546968946061657,0.3644633513949897,0.465277996914558,0.5938543200460129,0.7577120876738165,0.9663566988397425,1.231785493012743,1.569116272807105,1.9973646744589062,2.5404015255535604,3.228125951892669,4.097894340441977,5.196248695011457,6.580989465822565,8.323636199185689
R_Om,0.0,0.0,0.0,0.0,0.0,0.0,0.0,0.0,0.0,0.0,0.0,0.0,0.0,0.0,0.0,0.0,0.0,0.0,0.0,0.0,0.0,0.0,0.0,0.0,0.0,0.0,0.0,0.0,0.0,0.0,0.0,0.0,0.13157407246872374,0.40294139647657445,0.810281432284677,1.3542016908810175,2.0439957527322474,2.8992673923813124,3.9515422181062636,5.246659991100855,6.848339326772404,8.843303733937395,11.348489229902023,14.51153940343537,18.5215310148998,23.620597281116307,30.11839186711188,38.41042014862575,49.001288712061104,62.534150812625846,79.82793920065726,101.92436998061109,130.14718358032331,166.17667820525588,212.1433063805663,270.744966559116,345.39364918588217,440.3983070986875,561.1922237429774,714.6147458329718,909.2590026502562,1155.899086623281,1468.0119943257885,1862.4112107287856,2360.009824476814,2986.730980329029,3774.5815812941364,4762.900464717844,5999.78354390808
G_Om,0.0,0.0,0.0,0.0,0.0,0.0,0.0,0.0,0.0,0.0,0.0,0.0,0.0,0.0,0.0,0.0,0.0,0.0,0.0,0.0,0.0,0.0,0.0,0.0,0.0,0.0,0.0,0.0,0.0,0.0,0.0,0.0,0.6643691899987367,1.6410929438563366,2.884024256852822,4.438627322872964,6.390382144464554,8.857801380657301,11.998905739316378,16.023927336163304,21.213579218171187,27.94432125952924,36.60271042064855,47.72220983771026,61.9902729397359,80.28445953592289,103.72270217447524,133.7275545795664,172.1073228137418,221.15820506176766,283.7926292869381,363.7001908667489,465.5490335315824,595.2372232046396,760.2056580698638,969.8263447757316,1235.8824263838787,1573.1590998597121,2000.1673586275629,2540.0250675408365,3221.5217733455365,4080.3941674025596,5160.837192043408,6517.269902630391,8216.363293809429,10339.316699343253,12984.336894465245,16269.226312361414,20333.92108651517
beta,1.8313451285400044,1.8313451285400109,1.8217827506803024,1.8146888391838396,1.8092690154571762,1.8050260915023286,1.80163868378,1.798892311200791,1.7966391419292294,1.7947739715943554,1.793219606744453,1.8016146074363757,1.8065863703468148,1.8098717314728943,1.8122095754801877,1.813963170397143,1.8153300991441261,1.816426412996303,1.8173246077930303,1.8180723209437226,1.8187021864068909,1.819237331519387,1.81969459686857,1.820086505825021,1.820422516181879,1.8207098423022792,1.8209540102459363,1.8211592407955273,1.8213287177387028,1.821464777130549,1.8215690403698377,1.8216425059717722,1.8216783111168091,1.821685824454646,1.8216621618813644,1.8216054439147913,1.821513582750209,1.8213839213680465,1.8212130742563264,1.8209967954134438,1.8207298247263548,1.8200762359300526,1.8193563700130364,1.818558613175046,1.8176722617015424,1.8166859447665784,1.8155869135887472,1.8143605828775307,1.8129901137794953,1.811455956606907,1.8097353134630287,1.8078014933902622,1.805623135042651,1.8031632708468992,1.8003782048072066,1.7972161749462778,1.7936157721159947,1.7895040911344013,1.7847946001048796,1.779384732402071,1.7731532372784857,1.7659573746106132,1.757630113173375,1.7479775964278743,1.736777280022243,1.723777321093459,1.7086980007610477,1.691236159509321,1.6710737646629101
