series,2021-11-01,2021-11-02,2021-11-03,2021-11-04,2021-11-05,2021-11-06,2021-11-07,2021-11-08,2021-11-09,2021-11-10,2021-11-11,2021-11-12,2021-11-13,2021-11-14,2021-11-15,2021-11-16,2021-11-17,2021-11-18,2021-11-19,2021-11-20,2021-11-21,2021-11-22,2021-11-23,2021-11-24,2021-11-25,2021-11-26,2021-11-27,2021-11-28,2021-11-29,2021-11-30,2021-12-01,2021-12-02,2021-12-03,2021-12-04,2021-12-05,2021-12-06,2021-12-07,2021-12-08,2021-12-09,2021-12-10,2021-12-11,2021-12-12,2021-12-13,2021-12-14,2021-12-15,2021-12-16,2021-12-17,2021-12-18,2021-12-19,2021-12-20,2021-12-21,2021-12-22,2021-12-23,2021-12-24,2021-12-25,2021-12-26,2021-12-27,2021-12-28,2021-12-29,2021-12-30,2021-12-31,2022-01-01,2022-01-02,2022-01-03,2022-01-04,2022-01-05,2022-01-06,2022-01-07,2022-01-08,2022-01-09,2022-01-10,2022-01-11,2022-01-12,2022-01-13
S,749680.6545319872,749680.654531987,749309.4949777216,748806.4375126939,748258.6095404867,747696.880378956,747132.7851163205,746571.2380870323,746014.808378926,745465.1648392808,744923.5715845905,744391.0619660894,743868.5028223202,743356.6213822385,742856.0197334914,742367.1853878947,741890.5007597341,741426.2523777424,740974.6399726868,740535.7853719248,740109.7410869717,739696.4984902971,739295.9955034098,738908.1237455483,738532.7351162093,738169.6478041359,737818.6517303443,737479.5134438077,737151.9804962146,736835.7853273452,736530.6486956656,736235.7973498626,735951.6250267765,735677.6972331263,735413.6679485596,735159.2214506764,734914.0536706727,734677.8666254231,734450.3671301894,734231.2668553903,734020.2827487648,733817.1375022136,733621.5599643209,733433.2854739799,733252.0561149849,733077.6208989001,732909.7358852106,732748.1642475659,737174.2881759969,741598.9677344676,746021.8231639004,750442.0405404711,754858.5009287039,759269.8056690884,763674.2359432556,768069.6576713615,772453.3642770541,776821.8316720665,781170.3341052335,785492.3244479513,789778.394504574,794014.4469068178,798178.3013009285,802232.9964376978,806112.7005897402,807637.851601825,806392.2111945134,805146.5623278094,803838.5766759849,802482.7969652335,801097.8137974575,799700.3420458299,798304.4894023156,796921.8002680775
E,3632.9199018009376,2772.282396258452,2486.68918121779,2400.650813738421,2379.7654138202306,2377.7289474571767,2378.5410203969554,2376.6124801823485,2370.023489315577,2358.2092597129654,2341.1435321832414,2319.0370335891844,2292.217082360963,2261.0730648908916,2226.027263372875,2187.5164973227443,2145.9792013900933,2101.845830754807,2055.531663876105,2007.4315032945724,1957.915938803455,1907.3289066446696,1855.9863156402007,1804.1755381884607,1752.155588005217,1700.1578292968284,1648.387083894621,1597.023023448946,1546.2217527419289,1496.1175072928959,1446.824403586165,1398.438193439824,1351.0329828493234,1304.676524244952,1259.4204811038207,1215.303888979011,1172.355085718338,1130.5931279728384,1090.0289916826032,1050.666642006711,1012.503997915758,975.5338009071234,939.7443939467439,905.1204164669475,871.6434215001716,839.2924211897224,808.0443669012577,777.8745699930573,748.7570690352902,727.9539006433399,713.872079276415,705.7278364835244,703.2260652769286,706.4189814889834,715.6635690644805,731.6433135365428,755.4462618150867,788.7113161469515,833.8772147197926,894.6049008143492,976.5138441224176,1088.5205808321828,1245.401176852716,1472.995175638138,1819.4335827240277,2380.34126793544,3046.476849722768,3551.879199711153,3995.346226764237,4376.810770907396,4692.166353787152,4940.227402293517,5122.764424401008,5243.751972380047
I,0.0,770.6009828405037,1050.4064583206612,1157.7108103672563,1203.8432943329176,1227.0926540903877,1240.6103025403277,1248.8931453957991,1253.453776583633,1254.7925239212668,1253.089783425286,1248.4482227070862,1240.9741409043409,1230.8007470248863,1218.0905616158252,1203.030669878606,1185.8259794080416,1166.69243383092,1145.85090581882,1123.5220062426379,1099.9218456198316,1075.2586983410501,1049.7304834721651,1023.5229618157701,996.8085461801907,969.7456252426082,942.478308294033,915.1365069273688,887.8362793570952,860.6803728572816,833.7589093139225,807.1501678079201,780.9214262948245,755.1287706264131,729.820223698418,705.0355579061393,680.8069167579902,657.1595972741961,634.1128198903423,611.6804450419348,589.8716300645552,568.691427939607,548.1413308103017,528.2197613173804,508.922514820811,490.2431556368359,472.1733704918417,454.70328243408096,437.8217284328746,421.5165038312707,407.3206810831369,395.81620570086983,387.18599504558927,381.47720257588855,378.72919618825244,379.04131868055384,382.61815405138566,389.81324502145793,401.18635485802815,417.5906372766824,440.3145297008634,471.3230748607206,513.6866397219474,572.3816866767872,655.8750776359184,779.4562933357436,972.5826014499653,1229.7565013074568,1491.2648419041252,1742.2363646940512,1973.7340688344298,2179.5247034411677,2355.6168387801713,2499.9911703460875
A,0.0,90.03652270198187,151.89186369007004,201.96216058929267,246.0898969392491,286.3420066085471,323.4805581478209,357.8130825489722,389.48518960533977,418.58382823998284,445.1753333414537,469.32034108008804,491.0800959138406,510.51929384787104,527.7073580424562,542.7188943615921,555.6336572678129,566.5361980550948,575.515302062385,582.6632903406339,588.0752431285146,591.8481898079963,594.0803000106224,594.8701022293344,594.3157492771302,592.5143440475713,589.5613341590765,585.5499801039873,580.5708983736536,574.7116785906404,568.0565718488675,560.6862461471002,552.6776039127784,544.1035320932497,535.0330502603338,525.5312061673616,515.6590650305343,505.4737474635499,495.0284996315551,484.3727878188112,473.5524123166149,462.60963655061886,451.58332791169596,440.5091071748328,429.41950377209895,418.34411454446416,407.3097639326639,396.34066387677996,385.4585719760203,374.6829467139081,364.21174461988033,354.1883784343788,344.7259230015122,335.9215346573578,327.8662704696982,320.6531056023598,314.38487920960046,309.18357026321155,305.20249319027744,302.64373606703896,301.78473960071756,303.02110214565937,306.9393010896687,314.44738716449655,327.02470535401454,347.2308815670056,379.8006807640574,426.40117849162834,481.98113845947205,544.3222705318108,611.3734265796986,681.1377728768936,751.7410472034948,821.4954935314935
IH,0.0,0.0,154.12019656810074,351.2235583093683,553.1903965219777,747.3768010187281,929.8613104328685,1099.6829587074953,1256.861080563916,1401.7159013986425,1534.6407470960514,1656.0319021283813,1766.2728147422222,1865.7359041580366,1954.788871260424,2033.8009582207562,2103.147731641606,2163.214114476891,2214.3958053722117,2257.0993570899927,2291.7412101616274,2318.7459602018826,2338.5441039721095,2351.5694714000965,2358.256513252969,2359.037579259599,2354.340290205557,2344.5850802638747,2330.1829626152667,2311.5335520816975,2289.023362754761,2263.0243860853566,2233.8929452241364,2201.9688141699266,2167.5743728959415,2131.014459449451,2092.576196996745,2052.5289597547494,2011.1244982711746,1968.5972081359512,1925.1645193823238,1881.0273844778503,1836.3708449725127,1791.3646591345434,1746.1639750023487,1700.9100352053902,1655.7309016819454,1610.7421900616544,1566.0478049905987,1521.7406690570244,1477.9034392272847,1434.9184267005976,1393.252138671835,1353.3683828470103,1315.7013419774185,1280.6565113624188,1248.6251095010498,1220.0063285322608,1195.236454546634,1174.82698814203,1159.4169889591399,1149.8493911162354,1147.2891567042736,1153.417223769662,1170.768276844864,1203.3569358065608,1257.9176593923448,1346.5092743431844,1479.0756750779508,1652.7807847795684,1862.0530911639557,2100.0028396020193,2359.07378775035,2631.547692411761
IN,0.0,0.0,154.12019656810074,362.66028626655196,590.5758454773376,825.4387458891478,1062.602889248334,1300.0989208639157,1536.8765607344362,1772.1985504438187,2005.4350697236337,2235.998675711455,2463.3283334957573,2686.889878341668,2906.1811289632287,3120.7374299967614,3330.1361896725157,3534.0000236573983,3731.9985101870084,3923.848706248903,4109.314620434941,4288.205843354558,4460.375524589223,4625.717866037763,4784.16527974054,4935.685336179174,5080.2776078659035,5217.97049344605,5348.818089897063,5472.8971648695115,5590.304267792273,5701.153006977134,5805.571510468947,5903.700080623223,5995.688833942273,6081.695990342533,6161.886142020336,6236.42866395173,6305.496296767053,6369.26389777745,6427.907347808063,6481.602600342893,6530.524859927386,6574.847877490173,6614.743350978747,6650.380420433123,6681.925247356157,6709.540668980964,6733.385918777971,6753.616405276766,6770.3835419902525,6784.143842786976,6795.465645499281,6804.948188053406,6813.194146688049,6820.80804445882,6828.408227750342,6836.647776283115,6846.243947524576,6858.018779020937,6872.956718686064,6892.290057439375,6917.631771837125,6951.192782063144,6996.1571915778695,7057.370635189275,7142.688187504531,7265.777825919479,7439.071347921775,7662.933602823382,7934.751539733959,8250.150838103506,8603.554270410703,8988.64209546263
D,433.0,433.0,433.0,433.1541201965681,433.50534375487746,434.05853415139944,434.8059109524182,435.73577226285096,436.8354552215585,438.09231630212247,439.4940322035211,441.0286729506172,442.6847048527456,444.4509776674878,446.31671357164583,448.27150244290624,450.305303401127,452.4084511327686,454.5716652472455,456.7860610526177,459.0431604097077,461.33490161986936,463.65364758007127,465.99219168404335,468.3437611554435,470.7020176686964,473.061055247956,475.41539553816165,477.75998061842546,480.09016358104077,482.4016971331224,484.69072049587714,486.9537448819625,489.1876378271867,491.3896066413566,493.5571810142526,495.6881954737021,497.78077167069887,499.8333006304536,501.84442512872477,503.8130223368607,505.73818685624303,507.61921424072085,509.4555850856933,511.24694974482793,512.9931137198303,514.6940237550356,516.3497546567176,517.9604968467793,519.5265446517698,521.0482853208268,522.5261887600541,523.9611071867547,525.3543593254266,526.7077277082736,528.0234290502511,529.3040855616135,530.5527106711145,531.7727169996467,532.9679534541934,534.1427804423355,535.3021974312946,536.4520468224108,537.599335979115,538.7527532028848,539.9235214797296,541.1268784155362,542.3847960749285,543.7313053492718,545.2103810243497,546.8631618091293,548.7252149002933,550.8252177398952,553.1842915276457
R,0.0,0.0,6.851559701710112,32.77517162663098,80.99470245462179,151.65636561652605,243.8873257487449,356.4999867941629,488.23050283736563,637.8172144883714,804.0243512241668,985.6476195317947,1181.5144391977497,1390.48318561865,1611.4428034701166,1843.3130936697914,2085.0456112728193,2335.6250041376716,2594.07060853739,2859.4381375938856,3130.8213282581246,3407.3534435207566,3688.208555113688,3972.6025568840582,4259.793879967164,4549.083897957447,4839.817023776461,5131.380510251719,5423.203973969836,5714.758667169569,6005.556525693113,6295.149022683444,6583.125858129518,6869.1135138076215,7152.773692458427,7433.801674333765,7711.924636381941,7986.899938915072,8258.513396433413,8526.577550041127,8790.929956927228,9051.431509982169,9307.964798336214,9560.432517547535,9808.75593633736,10052.873425149712,10292.739050388198,10528.321236937923,10759.601500503475,10986.573250371403,11209.240662424596,11427.631368290915,11641.820288892179,11851.935449702165,12058.156853772765,12260.71358698745,12459.881595507944,12655.983386709864,12849.390496468543,13040.52960194791,13229.893539296574,13418.059275650665,13605.716342764284,13793.711964130998,13983.124437945726,14175.387380335265,14372.51168772754,14577.50746243053,14794.65172026898,15028.788805425802,15284.36192394464,15565.168477680854,15874.236898401852,16213.768489967111
G,121524.0,122294.60098284051,122882.64685145687,123410.11378683173,123919.33059494429,124424.11727243493,124928.47198252103,125432.99894639265,125937.1168357388,126439.8370937099,126940.05136278241,127436.64571543434,127928.55092271442,128414.7671851967,128894.37729859761,129366.5536315067,129830.56120898758,130285.75805517368,130731.59350069394,131167.60496344528,131593.41360531954,132008.7191962887,132413.29446075624,132806.97913248872,133189.67390157943,133561.3343991139,133921.96533226236,134271.61485421335,134610.369229414,134938.34783465703,135255.69852025656,135562.59334247615,135859.22466808624,136145.80058293577,136422.54354425834,136689.6869679454,136947.4725499597,137196.14799717913,137435.96505870493,137667.1778118126,137890.0411748521,138104.8096247529,138311.73609879945,138511.07106163065,138703.06171966108,138887.9513664054,139065.97884351513,139237.37810365413,139402.37786262654,139561.20132939809,139715.61210818245,139867.03590523347,140016.73217685852,140165.89778240706,140315.74065704973,140467.54445801736,140622.73782086044,140782.98017345104,140950.27858129618,141127.15740565807,141316.91755299293,141524.0519100331,141754.94470483865,142019.11440768224,142331.56047331207,142717.4917200663,143222.4005455148,143868.6074859523,144622.01842707195,145469.4958866235,146397.88813664153,147393.17239878202,148441.07441549748,149527.69548257545
H,80415.22610391141,80415.22610391141,80415.2261039114,80415.22610391141,80415.2261039114,80415.22610391141,80415.22610391141,80415.22610391141,80415.22610391141,80415.22610391142,80415.22610391142,80415.22610391141,80415.22610391141,80415.22610391141,80415.22610391141,80415.22610391142,80415.22610391141,80415.22610391142,80415.22610391141,80415.22610391142,80415.22610391141,80415.22610391141,80415.22610391141,80415.22610391141,80415.22610391141,80415.22610391141,80415.22610391141,80415.22610391141,80415.22610391141,80415.22610391141,80415.22610391141,80415.22610391141,80415.22610391141,80415.22610391142,80415.22610391141,80415.22610391141,80415.22610391142,80415.22610391141,80415.22610391141,80415.22610391141,80415.22610391141,80415.22610391142,80415.22610391142,80415.22610391142,80415.22610391142,80415.22610391141,80415.22610391141,80415.22610391142,77076.78161315873,73789.56739596685,70556.77064410996,67381.8589455394,64268.60156532102,61221.089726676255,58243.75454685437,55341.3807341315,52519.11344893943,49782.4548592157,47137.24588380031,44589.62746567706,42145.97456818346,39812.79517264877,37596.586261662196,35503.63967185879,33539.79353803913,32530.30906882463,32530.309068824638,32530.309068824638,32530.309068824634,32530.309068824634,32530.309068824634,32530.309068824634,32530.309068824634,32530.309068824634
S0,262388.22908619547,261797.85557075153,260650.7709149145,259434.58042253542,258197.59304589493,256957.01981388615,255719.3512955972,254487.3932068215,253262.637248769,252046.06355486737,250838.4161766443,249640.30000063474,248452.21680091368,247274.58066471145,246107.72663229366,244951.91726903536,243807.34870413074,242674.15656208617,241552.42183927025,240442.1766653193,239343.40986867872,238256.07227557356,237180.08168990022,236115.32751993404,235061.6750337226,234018.96923795415,232987.03838506225,231965.69712071592,230954.74928906394,229953.990416562,228963.2098972706,227982.00281138587,227010.42290715929,226048.1972678217,225095.08907877654,224150.8747372758,223215.33674230112,222288.26174589695,221369.44025500526,220458.66682090244,219555.7403341143,218660.46430348206,217772.64708516106,216892.10205609494,216018.64773559605,215152.10786112407,214292.3114246145,213439.09267527267,213942.78573096616,214417.63666493955,214862.22645867686,215274.82230265846,215653.4399387293,215995.85419149793,216299.57840358495,216561.8198934684,216779.40963799218,216948.69599948684,217065.3806638367,217124.25446022663,217118.75045464415,217040.1470936482,216876.06596329535,216607.46692427064,216202.26763483457,215310.2005412267,213951.86240765444,212601.3054535646,211229.67031737042,209844.06808124995,208453.36135276975,207065.3886511054,205686.64926571652,204322.35147195627
E0,3632.9199018009376,2772.282396258452,2320.881268644724,2049.9168577651326,1868.4099529834202,1737.9700279534,1639.9982684711495,1563.9766294003714,1503.1874120245357,1453.012364752175,1410.1606918807643,1372.2581656387576,1337.5943115637642,1304.9500567642094,1273.4729627693555,1242.5840597361334,1211.9072631478136,1181.2155974589427,1150.3901930519776,1119.3890911296087,1088.2236144733183,1056.940583386951,1025.6090457638493,994.3104872643576,963.1317166383609,932.1597990233402,901.4785486346658,871.1662005793027,841.2939663262589,811.9252438287904,783.1153054022527,754.9113273100539,727.3499765690643,700.4651527406996,674.2824304601473,648.8207034251634,624.093080017093,600.1075584992487,576.8676261027072,554.3728159305142,532.6192262992246,511.60000103090823,491.3057691900815,471.7250439540921,452.84458144499547,434.64970118752865,417.12457040450505,400.25245468100144,384.0159376823924,372.08104549953896,363.61004020025825,358.1779789602457,355.60743639173035,355.89482881486936,359.1867215825331,365.7880760892383,376.1978104826567,391.1768249697702,411.86441546221795,439.9760463392043,478.1481104907417,530.5641683385629,604.1523026561207,711.0126424341377,873.6428829290603,1136.6259996877511,1447.3737490283124,1680.6334343961103,1883.163861988723,2055.132541709619,2194.8822521405464,2302.1690873278462,2378.145656769292,2424.98362174623
I0,0.0,770.6009828405037,1050.4064583206612,1122.540274312168,1108.344636283372,1061.3267076247757,1005.4475357255267,951.1386401555496,902.427885416927,860.3070578222754,824.391623411836,793.7528308948865,767.329817442862,744.1232461009823,723.2749296480451,704.0891397848013,686.0256306776216,668.6804812265641,651.7631935928168,635.0742549074672,618.4850573106237,601.9208378311664,585.3466700290172,568.7562442134308,552.1630589945127,535.5936270761383,519.0823240023951,502.66755344841533,486.3889525489627,470.2854086875378,454.3937020240036,438.7476248050127,423.3774592259227,408.3091522703984,393.56546277309326,379.1654708279529,365.1246321497721,351.45500066681143,338.16550529684775,325.2622430885774,312.74877323483383,300.6264036412461,288.8944647451254,277.55056708210174,266.5908404329564,256.01015342575727,245.8023132714523,235.96024590886947,226.47615726163946,217.34167659809282,209.32940481943308,202.72520472149597,197.61045674591992,193.99635436752112,191.8888535148182,191.3226166232971,192.38312839115395,195.22750823395722,200.11142702348985,207.42995034531305,217.78399525034814,232.09333347887357,251.79722880502067,279.22879773807745,318.3545429596726,376.3264905805289,466.8926253957734,587.1469224972409,708.7776471693276,824.7160565320535,930.7564364132418,1024.0238348826438,1102.7415443902573,1166.0880274952058
A0,0.0,90.03652270198187,151.89186369007004,197.85285780032876,233.60088201783677,262.1301898238892,285.2557271528523,304.1933830020345,319.8058460595401,332.72366832626324,343.4149618294625,352.23065893056435,359.43614518634797,365.2342193917533,369.78203493766114,373.2036598042224,375.59937179356314,377.0524971156945,377.63439580765026,377.4080515748758,376.4306153300457,374.7551695591379,372.4319176721354,369.50895397146934,366.0327324015356,362.0483233008052,357.5995250450449,352.728880271301,347.47763316663844,341.88565420658387,335.9913510448419,329.83157844860295,323.44155582079793,316.8547311912655,310.10284742665044,303.2158656682333,296.22193533977423,289.1473886343237,282.01675215436165,274.8527725136022,267.6764537926068,260.5071050152253,253.36239591551927,246.2584193591852,239.20975890026975,232.22956009009852,225.32960430184448,218.52038398306547,211.811178394047,205.21012902802693,198.815614840887,192.6977662998906,186.91084553824479,181.5005882485585,176.50916093264044,171.9791537289253,167.9574737853391,164.49982367539474,161.67652492390397,159.58078351584706,158.34122792430165,158.14203739053372,159.25705889487637,162.11100256978926,167.39614286397128,176.30964578398854,191.06249874069786,212.39411690288983,237.88344574031717,266.45251461221216,297.1095352975841,328.8971204683578,360.9246927895252,392.3980114024802
IH0,0.0,0.0,154.12019656810074,351.2235583093683,546.1562893109602,721.8352800931018,873.3173635538856,1000.8678291132555,1106.8159309985342,1194.1003578766502,1265.6106988450902,1323.9163138827373,1371.184455772725,1409.1877078542516,1439.3495229493062,1462.8018523854762,1480.442184115283,1492.9843825610462,1501.0014158654608,1504.959904933332,1505.2472755594804,1502.1926081774761,1496.082319898928,1487.1717243508149,1475.6933741424612,1461.862939152462,1445.8832309839345,1427.9468582835657,1408.2378915235765,1386.9328286638554,1364.201082856839,1340.2051575899727,1315.1006309421125,1289.036036738027,1262.1525906783868,1234.5841689439396,1206.4571904830148,1177.8905200835015,1148.995424125326,1119.8755854140684,1090.6271753937733,1061.3389790816132,1032.0925667959643,1002.9625061876338,974.0166079299947,945.316198549769,916.9164142040993,888.8665096667862,861.2101773248598,833.9858715649361,807.2271345160967,781.1192040207194,755.8888922408518,731.760188357375,708.940458890142,687.6207999256425,667.9831484954444,650.211218281146,634.5046769522814,621.0975130272933,610.2830247760337,602.4499962433337,598.138427659261,598.1307004527409,603.6099377142286,616.4529363577187,639.8088599275782,679.3112887321017,739.538213740262,819.0197821559118,914.9961638387784,1024.0987815867845,1142.6677240738754,1266.9959269673268
IN0,0.0,0.0,154.12019656810074,362.66028626655196,583.5417382663201,799.3752481403312,1003.646837183883,1194.6998759571495,1372.9806052286879,1539.7363762597863,1696.4004240616434,1844.3147445033942,1984.6221632373376,2118.241905093537,2245.884135262798,2368.080279839779,2485.2173049983417,2597.5702580838824,2705.3306517483566,2808.6299839494363,2907.5585350914353,3002.1799612026457,3092.5423291568527,3178.6862398710878,3260.650626315063,3338.476731850815,3412.210689947535,3481.9050478485383,3547.619508059736,3609.421103488931,3667.383974191549,3721.5888748544344,3772.1225110668925,3819.076777801408,3862.5478404774735,3902.6354546273174,3939.4421942466347,3973.0726987341227,4003.632971880144,4031.229743220712,4055.96989440622,4077.9599501091247,4097.305631336283,4114.111467971946,4128.480466708646,4140.513830128151,4150.310722512021,4157.968077941191,4163.580446343553,4167.239873332445,4169.03580991874,4169.211332783439,4168.064260399903,4165.905709145088,4163.045922927141,4159.793234400833,4156.459825381484,4153.3718528059,4150.8836359246325,4149.3970849700845,4149.389104189447,4151.452012197622,4156.35615877142,4165.15204294471,4179.346282062878,4201.2237278341845,4234.476788671948,4285.510545864384,4360.084824905188,4458.239506090002,4578.600322335513,4718.965606394806,4876.580717307386,5048.3632190123635
D0,433.0,433.0,433.0,433.1541201965681,433.50534375487746,434.0515000441884,434.7733353242815,435.6466526878354,436.64752051694865,437.7543364479472,438.94843680582386,440.21404750466894,441.5379638185517,442.9091482743244,444.31833598217867,445.757685505128,447.2204873575135,448.7009295416288,450.1939139241898,451.6949153400553,453.1998752449886,454.7051225205481,456.2073151287256,457.7033974486245,459.1905691729753,460.66626254711775,462.1281254862702,463.5740087172542,465.00195557553775,466.41019346706133,467.7971262957252,469.16132737858203,470.501532536172,471.81663316711416,473.1056692038522,474.3678217945306,475.60240596347455,476.8088631539576,477.9867536740411,479.1357490981664,480.2556246835805,481.34625185897426,482.40759083805585,483.4396834048518,484.44264591103945,485.4166625189694,486.3619787175192,487.2788951317233,488.1677616413901,489.0289718187149,489.86295769027987,490.67018482479597,491.4513040288167,492.2071929210576,492.93895310941497,493.6478935683051,494.33551436823075,495.0034975167262,495.65370873500734,496.28821341195965,496.9093109249869,497.51959394976296,498.1220439460063,498.7201823736655,499.31831307411824,499.92192301183246,500.5383759481902,501.1781848081178,501.8574960968499,502.5970343105902,503.4160540927461,504.3310502565849,505.35514903817165,506.4978167622455
R0,0.0,0.0,6.851559701710112,32.77517162663098,80.68199453847777,149.73764927602775,237.74029242788794,342.1497498761015,460.523881211604,590.684466143931,730.7582595073422,879.1624034069139,1034.5679525805208,1195.8579148413687,1362.0874132873737,1532.4490722553141,1706.244457377385,1882.8613117191223,2061.755867936008,2242.4393788367383,2424.468031031197,2607.435499341803,2790.967516246231,2974.717947027408,3158.3659666023814,3341.614024149863,3524.186356171354,3705.827868706225,3886.303256958008,4065.396267606113,4242.9090374911275,4418.661463866745,4592.490577445822,4764.249901222821,4933.808781442398,5101.05169162926,5265.877522208214,5428.198850330943,5587.941193687589,5745.042254512324,5899.451160384957,6051.12770815508,6200.041616783516,6346.171794249521,6489.505622975918,6630.038267517473,6767.772007567814,6902.715598686516,7034.883662543384,7164.296107929322,7290.977583295953,7414.963908928337,7536.31408563745,7655.113093892279,7771.471143067009,7885.5220079953615,7997.42168828916,8107.348013250469,8215.501598762155,8322.108568853835,8427.42562878268,8531.748445498233,8635.424974105856,8738.876643851469,8842.63280763508,8947.38900851635,9054.110901279062,9164.231346570175,9279.772274317189,9403.009895190835,9536.016486350054,9680.545473676666,9837.975123855369,10009.283857806935
G0,121524.0,122294.60098284051,122882.64685145687,123374.94325077665,123809.76372247272,124206.08364832748,124574.73515947814,124922.60527819837,125254.34997952197,125573.20030609409,125881.40769481256,126180.52555166035,126471.60367056628,126755.32902620155,127032.13000818901,127302.25419018498,127565.82633699171,127822.8914398117,128073.44634466858,128317.46268342037,128554.9031877865,128785.7329912313,129009.92715856162,129227.47540075764,129438.38471322409,129642.68050490352,129840.40665266023,130031.62481170721,130216.41323218713,130394.86526934529,130567.08772615677,130733.19912974737,130893.3280140903,131047.61069082514,131196.19066223598,131339.21685540007,131476.84220505308,131609.22242643003,131736.5149313268,131858.87787123726,131976.46929861893,132089.44643831928,132197.96506087965,132302.1789491147,132402.2394492984,132498.29509846438,132590.49131968038,132678.97017762638,132763.8701873427,132845.3261695838,132924.25056844437,133001.3781302742,133077.35346418724,133152.7835445072,133228.2745854015,133304.4638899159,133382.05344833308,133461.85107953235,133544.82600161547,133632.1890957467,133725.51512078985,133826.9380571185,133939.4792858362,134067.62974629126,134218.4470106081,134403.7607754128,134644.85750646028,134951.86885372005,135308.35834739104,135707.8078156215,136143.7346181155,136609.3045911502,137097.63183461086,137602.0749354719
H0,28145.329136368993,28082.002145812163,27980.90693808724,27880.175673110123,27779.807040686926,27679.799735340453,27580.152456293228,27480.863907450574,27381.93279738375,27283.35783931317,27185.137751091643,27087.271255187712,26989.757078669038,26892.593953185828,26795.780614954358,26699.315804740523,26603.198267843458,26507.42675407922,26412.000017764534,26316.91681770058,26222.17591715686,26127.776083855093,26033.716089953214,25939.994712029384,25846.610731066077,25753.56293243424,25660.85010587748,25568.47104549632,25476.424549732536,25384.7094213535,25293.324467436625,25202.268499353853,25111.54033275618,25021.13878755826,24931.062687923048,24841.310862246526,24751.88214314244,24662.775367427126,24573.98937610439,24485.523014350412,24397.37513149875,24309.544581025355,24222.030220533663,24134.83091173974,24047.945520457477,23961.37291658383,23875.111974084128,23789.161570977423,22353.025952482014,20948.625845068,19577.1881434063,18240.039828725137,16938.61376235322,15674.453571990322,14449.21701741898,13264.677004346559,12122.71914365149,11025.334427714397,9974.605225224808,8972.682408808436,8021.751083975901,7123.982185551488,6281.4673095770795,5496.1347798696015,4769.646382434667,4394.291501983152,4378.472052576012,4362.709553186739,4347.003798795266,4331.354585119603,4315.761708613172,4300.224966462165,4284.744156582901,4269.319077619203
S1,74968.06545319871,70203.57715055702,66079.63530635355,62231.355960557856,58651.389826742634,55324.542494384594,52233.9773980055,49363.17223484491,46696.48615707886,44219.28889877244,41917.95362813696,39779.80897540184,37793.080641834655,35946.832289581725,34230.90873356175,32635.882281527654,31153.002360421906,29774.148342387165,28491.785418572417,27298.923355526174,26189.077971586317,25156.23517747148,24194.817432593234,23299.652475491366,22465.944193145275,21689.245499858902,20965.43310210014,20290.684031210236,19661.453831351897,19074.456295469903,18526.6446474007,18015.17905246672,17537.462403378482,17091.061772143832,16673.724059885666,16283.361004980563,15918.036523578761,15575.955376656984,15255.452797733795,14954.984924000557,14673.11994389129,14408.529899528989,14159.983093146482,13926.337052260777,13706.532012282121,13499.584878421752,13304.58363158178,13120.682145491377,13029.341936533347,12944.02994182414,12864.19353919493,12789.291758308163,12718.797653697466,12652.197491337902,12588.98813776842,12528.673150731183,12470.757515787212,12414.740484024203,12360.105313226111,12306.303584161838,12252.729550964228,12198.67534231101,12143.247511423728,12085.201228559423,12022.58954107475,11935.85611978248,11826.174167752697,11719.683341851087,11614.591654773973,11511.110440573062,11409.555935785467,11310.196410777715,11213.235369876315,11118.814565641987
E1,0.0,0.0,55.06698971662097,112.71550518884476,158.9628731844066,192.21980288872123,214.23603567689852,227.31440027284765,233.53967735804588,234.62140058403668,231.91179439037984,226.46435400564948,219.09359860927074,210.4259951242559,200.9409195989456,191.00291994202274,180.88694772486858,170.79806477054692,160.88685065079864,151.2614725675266,141.99716089644645,133.14366250245763,124.73111230631037,116.774663109405,109.27813711811558,102.23690418176267,95.64014703456095,89.47263945543017,83.71613670872424,78.35045701424785,73.35431670123327,68.70596906705697,64.38347518096639,60.36564762927469,56.631817144980275,53.16210424263745,49.937565046174925,46.940271810854625,44.153352253209945,41.56099996397938,39.14846373522826,36.90202150951938,34.80894334890395,32.85744686740638,31.036647823019877,29.3365079649329,27.74778174735368,26.261963131243917,24.871233382511196,23.79276593301137,22.966104734805597,22.357519690690584,21.949315726147436,21.734976049841418,21.717425844884673,21.90923193001423,22.334397632245636,23.031998090283167,24.06251638121008,25.518690310257718,27.54448400422135,30.369593961742655,34.37544077852228,40.228915350095754,49.17005759937704,63.654631667465615,80.72831468573747,93.45001486776296,104.42388031028537,113.67192815800138,121.116114348726,126.75606134648154,130.66711210652596,132.97892895861378
I1,0.0,0.0,0.0,11.680597850962801,30.9171377169162,52.2688752834942,72.13424971325172,88.72347290771157,101.4511391708201,110.40822073670145,116.01192064229662,118.79938935183003,119.3163804957684,118.06311892483527,115.47262330127856,111.90638822422487,107.65863695203174,102.96422510847242,98.00756299223187,92.93123714154785,87.8437434897873,82.8261371746305,77.93760339214282,73.22004536333367,68.7018191747035,64.40074922985316,60.326548041207104,56.48274859944807,52.86824097159105,49.47848919476196,46.30649080972111,43.3435297306235,40.579763479126356,38.004632966697585,35.60730854759816,33.37690814904489,31.302685767451074,29.374175498606313,27.581295035792277,25.91441611116727,24.364408969348354,22.922666787670757,21.58111480254191,20.332207930378797,19.168919886680612,18.08472617723669,17.073582830405712,16.129902333624862,15.248527911103867,14.424707017594983,13.701654118197833,13.092474187838993,12.597875513116403,12.21452965490786,11.939057233051741,11.770051098030876,11.709332585343251,11.763085989601464,11.943310355555875,12.270034547507954,12.774947070244014,13.507598142950247,14.546440234099487,16.019450293067436,18.14487281871278,21.31668700464968,26.29218760197289,32.899091868579944,39.56171249265213,45.88701895541792,51.64386313758153,56.677001761564185,60.89320877934054,64.25253001969459
A1,0.0,0.0,0.0,1.3647535326315643,4.054385464599024,7.685515279552347,11.864548571253723,16.271207248034514,20.666657788411285,24.8819095112079,28.80319976564434,32.35893583497124,35.509082347676305,38.236837174151624,40.5422028378656,42.43706229345414,43.9414290100425,45.0806077468142,45.883059785163695,46.37881246339731,46.59828887604458,46.571461467469135,46.32725475428951,45.89313901722353,45.294869655321556,44.55633687231231,43.69949813430333,42.744371907942,41.70907594413656,40.60989710848715,39.46138270041922,38.27644552120426,37.066476779724695,35.84145711785364,34.61008257639677,33.37987519159511,32.1572919075706,30.94782881492609,29.756119452659313,28.58602660427517,27.440727366506916,26.322791480003787,25.23425305361329,24.176675912862105,23.151212871037334,22.15865926537911,21.199501126770564,20.273958363213183,19.382023338705096,18.523495222616567,17.703570787914582,16.92555303248802,16.19165765379547,15.503493193990755,14.862384280102503,14.269627234592146,13.726731182877772,13.235685296415948,12.79929579483146,12.421654334494287,12.108839575439113,11.8700355435126,11.719420069083977,11.679545027049377,11.787774049761643,12.109360035600023,12.76545276253967,13.794764302681381,15.061036185647003,16.50291882006003,18.064276830986355,19.691312402423232,21.334312244238614,22.949213389602967
IH1,0.0,0.0,0.0,0.0,2.3361195701925603,8.322830545932472,18.07576876235865,30.9805205924742,46.11645244092891,62.5233729513507,79.34013961493291,95.86156436933692,111.54927069837143,126.01936764056468,139.02033533774372,150.40843728351,160.12433944649553,168.1725487610384,174.6041637728431,179.50286225514554,182.97379307229605,185.13495005229373,186.11060219758502,186.0263912859546,185.00575987884,183.16742708284954,180.62367995901408,177.4792927649144,173.83092367758664,169.76686963592488,165.36708520571466,160.70339176281198,155.83981963568047,150.83303888410796,145.73283575999528,140.58263825762273,135.42004103517473,130.2773238336824,125.18195504773186,120.15707359184398,115.22194427882607,110.39238374700041,105.68115540562243,101.098332948579,96.65163278203994,92.34671628333875,88.18746320591751,84.17621780824075,80.3140094443446,76.60074943475578,73.03540605834388,69.62567736467463,66.38123417210915,63.31107461008555,60.42277341878779,57.72259161963516,55.21598158513499,52.90830082942014,50.80569258776831,48.916182603763296,47.251126573676814,45.82726167074047,44.66982573242105,43.8176218986763,43.331781220823146,43.31193601506677,43.92812474279369,45.48752646353609,48.23699719980033,52.08746861791195,56.878766417468476,62.41797439932381,68.49737251624079,74.90808689976525
IN1,0.0,0.0,0.0,0.0,2.3361195701925603,8.496185917873875,18.864999115393978,33.10319906689038,50.5168616577638,70.30192087535018,91.68054581393696,113.96612448425691,136.58634110978034,159.0837537978362,181.1055400448249,202.38900930463237,222.74639685643103,242.05066027827309,260.22299869718483,277.2222813086594,293.03630592388237,307.674691562601,321.1631720819011,333.53906103951067,344.8476795017823,355.13956654170516,364.46832072225874,372.88894712327755,380.4566073719344,387.22568949253326,393.24913043656034,398.57793729413896,403.26086386732226,407.3442079244743,410.8716924385691,413.884437223703,416.4209744812749,418.51730188995236,420.2069639707741,421.5211533382248,422.488825027076,423.1368185706749,423.4899837425023,423.57130686558565,423.40203538300557,423.00179900651165,422.38872625189384,421.57955555545607,420.5897404666265,419.43354864418103,418.1241545612582,416.6832438392852,415.13490623846013,413.5031322786988,411.8110068868934,410.0807082646348,408.3339114015946,406.5924388046473,404.87913161452116,403.2190023694871,401.6408192552938,400.1794004767897,398.8791261006118,397.7996228864256,397.0255167161748,396.6842361127556,396.980731152558,398.269361361427,400.86648612152874,404.77016375884386,409.899865912339,416.12963988073193,423.3037438342374,431.2493481517632
D1,0.0,0.0,0.0,0.0,0.0,0.0023361195701925605,0.010658950116125034,0.028734718878483684,0.05971523947095789,0.1058316919118868,0.16835506486323748,0.2476952044781704,0.3435567688475073,0.45510603954587875,0.5811254071864435,0.7201457425241872,0.8705541798076972,1.0306785192541927,1.1988510680152311,1.3734552317880742,1.5529580940432197,1.7359318871155158,1.9210668371678095,2.1071774393653944,2.293203830651349,2.4782095905301893,2.661377017613039,2.842000697572053,3.0194799903369676,3.193310914014554,3.363077783650479,3.5284448688561936,3.6891482606190054,3.844988080254686,3.995821119138794,4.141553954898789,4.282136593156412,4.4175566341915875,4.54783395802527,4.673015913073002,4.793172986664845,4.908394930943671,5.018787314690671,5.124468470096294,5.225566803044873,5.322218435826913,5.414565152110251,5.502752615316169,5.58692883312441,5.667242842568754,5.74384359200351,5.8168789980618545,5.886504675426529,5.952885909598638,6.016196984208724,6.076619757627512,6.134342349247147,6.189558330832282,6.242466631661703,6.293272324249471,6.342188506853234,6.389439633426911,6.4352668950976515,6.479936720830072,6.523754342728749,6.567086123949572,6.610398059964639,6.654326184707433,6.699813711170969,6.748050708370769,6.800138176988681,6.857016943406149,6.919434917805473,6.987932290321714
R1,0.0,0.0,0.0,0.0,0.10385441403479609,0.6301248995599225,1.992449729709194,4.587985263149507,8.734998638529602,14.650040360492593,22.448866285645703,32.159144204807816,43.73755149259615,57.08719931966098,72.0734035944648,88.53702409299726,106.30523813094317,125.19993137294632,145.04401969631897,165.66604853737616,186.90339957033066,208.6043966449332,230.62955849028026,252.85220225405484,275.15856285962747,297.4475595936285,319.6303133268244,341.62949484408307,363.3785662419641,384.82096254330634,405.90924892552107,426.6042796930434,446.87437786272835,466.6945485753335,486.0457347719161,504.9141209129722,523.290488559289,541.1696240731391,558.5497779185291,575.4321741560154,591.8205680299301,607.7208490628582,623.1406867716076,638.0892159606822,652.5767584984296,666.6145785094368,680.2146680023037,693.3895600774482,706.1521670117711,718.5156406855837,730.493252994351,742.098717194058,753.3468552751248,764.253703410168,774.8364087864372,785.1130805093283,795.102669071216,804.8249102282364,814.3003551129518,823.5505079732076,832.598102341727,841.4675668725896,850.1857699263117,858.7832025157411,867.2958967393548,875.7686607395416,884.2608325915037,892.8571673873354,901.6744690181702,910.8428760696128,920.4804280876153,930.6867600186341,941.540101508348,953.0960580557113
G1,0.0,0.0,0.0,11.680597850962801,35.58937685730132,69.30796951064579,110.08089405380099,155.52381713356152,203.74087255975468,253.27840979396407,303.0453979942398,352.2376349606919,400.27438184536226,446.7476724727365,491.38242441911393,534.0052386625716,574.5200426800684,612.8890856173218,649.1181135444702,683.244812890679,715.3298140955376,745.4497051762958,773.6916262636603,800.1491095917082,824.9189015484116,848.0985592734426,869.7846577767377,890.0714775514615,909.0500693633837,926.8076139751911,943.427011268055,958.9866465128458,973.5602921535981,987.2170670328198,1000.0215958003995,1012.0341188208855,1023.3106596989096,1033.9032237370452,1043.8600134736737,1053.2256525633657,1062.0414118660137,1070.3454332720755,1078.172948002015,1085.5564870508686,1092.526082179322,1099.1094564245502,1105.332203548614,1111.2179561839953,1116.7885426949242,1122.064132965857,1127.1109628734978,1131.982444590418,1136.724835590831,1141.3806399378689,1145.990979377976,1150.5975961361758,1155.2448980627005,1159.982384501096,1164.867843262891,1169.9718915970655,1175.3848179388046,1181.2274478396084,1187.6693291879378,1194.9609153405456,1203.494117983418,1213.92388129684,1227.426056696023,1244.5498360034192,1264.3720933749232,1286.5220848347499,1310.6337365990807,1336.324420478096,1363.2114282004982,1390.9280329525884
H1,8041.522610391141,7530.455128777176,7093.660684446587,6687.701900534659,6310.377540062523,5959.643592547387,5633.602043555513,5330.490446429917,5048.672238894602,4786.627751329855,4542.945857313535,4316.316220552212,4105.5220956028725,3909.433642828733,3727.0017208581494,3557.2521224392603,3399.280222019236,3252.246005639241,3115.3694558368375,2987.926266198159,2869.243862013441,2758.6977051713884,2655.7078629895964,2559.7358221284567,2470.2815300825873,2386.8806479942405,2309.101999694272,2236.5452029544113,2168.8384699357402,2105.636564747939,2046.6189068971014,1991.4878102015089,1939.966847499075,1891.799332161349,1846.7469080707478,1804.5882403136459,1765.1177993953302,1728.1447322966908,1693.4918141696648,1660.9944749115218,1630.4998952695032,1601.8661675093629,1574.9615160360997,1549.6635736845851,1525.8587097036636,1503.4414057413344,1482.3136764023693,1462.3845311946172,1361.3229231170903,1264.6330982668173,1172.1219750017192,1083.6250545117568,999.0047042083605,918.148558470964,840.9679897430364,767.3965924336528,697.3886086548974,630.9172085089442,567.9725189921726,508.5592761691775,452.6939582661388,400.4012482928009,351.7096823769424,306.64637621763274,265.2308014129492,243.600307761596,242.0197351857642,240.49511063319756,239.02264283658428,237.59881059534837,236.2203434878255,234.88420396113108,233.58757070031407,232.32782318541865
S2,74968.06545319871,79430.4503016034,83473.91061318247,87164.21410095888,90531.09492699495,93599.80821563117,96392.92787619217,98931.09504048932,101233.35491032702,103317.3398337489,105199.39321329122,106894.66839616142,108417.21503320734,109780.05763114795,110995.2682087866,112074.03392974506,113026.72019172655,113862.92949846656,114591.55637660608,115220.83857037165,115758.40473113344,116211.31880842465,116586.12134054805,116888.86783511256,117125.16442217708,117300.20095492009,117418.7817248482,117485.35395052575,117504.0341907044,117478.63282462493,117412.67673422079,117309.36396214823,117171.80943277864,117002.79107179993,116804.89064472444,116580.50113751001,116331.83834197916,116060.95317095054,115769.74359346143,115459.96586370349,115133.24497634772,114791.08436516738,114434.87488752839,114065.90314335377,113685.35917671317,113294.34360568869,112893.87422313234,112484.8921078668,112767.77146454451,113026.97604554915,113262.43756030861,113473.96148353069,113661.23860450533,113823.8472549259,113961.25015582283,114072.78740716224,114157.66557895414,114214.94138768007,114243.49634040921,114241.99493471078,114208.81140985213,114141.89393108615,114038.49907365745,113894.64476100974,113703.92318763168,113304.92450656569,112698.8768667602,112092.48848292053,111480.51412506698,110864.41140604265,110245.97348952561,109626.82049562942,109008.33728465001,108391.67788712865
E2,0.0,0.0,21.80656013008579,47.896557818352875,72.31174049292501,93.49239900312735,111.34500907963859,126.19524335676999,138.44003507270537,148.443460093883,156.51432563798699,162.90913296415914,167.84127307266306,171.4902982158414,174.00959269937294,175.53225583291447,176.17545129156184,176.04355996950162,175.23044248149563,173.82105863855423,171.89263319631115,169.5155082197161,166.75378368629146,163.6658183519617,160.3046407817576,156.7183042124146,152.95020720619388,149.03939377262435,145.0208409067107,140.92573764268354,136.7817572336683,132.6133225473572,128.44138849655008,124.28498651489497,120.16038886941453,116.08152446252154,112.0602468156509,108.10655056458594,104.22876440767187,100.43372827841759,96.7269568329643,93.11278991490393,89.59453041860732,86.17457002220573,82.85450335450295,79.63523123562885,76.51705367971365,73.49975337221251,70.58267033969356,68.44286007725148,66.92855537780417,65.96356556977167,65.51690670152321,65.58928569967881,66.20877975953906,67.43238878794192,69.35260837370446,72.1099709890582,75.91448706601005,81.08205774302083,88.0979491333824,97.73211496888041,111.25978110155097,130.90894104102645,160.82457048919224,209.22881067077338,266.4919663362096,309.57884461422947,347.0846828593528,379.0334606163127,405.1078295082315,425.2467143661599,439.6443663656794,448.6827488110146
I2,0.0,0.0,0.0,4.6255235796099905,12.934947590607074,23.09945654776366,33.69092165977707,43.8326276439254,53.067625755927054,61.205942699504966,68.21082086799093,74.1257086954924,79.03108330203403,83.02049463705188,86.18815860269896,88.62314002865855,90.40711032587313,91.6139246485898,92.31003696276554,92.55522900021477,92.40339114804267,91.90323825636233,91.09891992324202,90.03052254797005,88.73447680474509,87.24388931314084,85.5888169124731,83.79649924227384,81.89156195124419,79.89619961412393,77.83034467362026,75.7118265392685,73.55652334145678,71.37840683384474,69.18989694306259,67.00189723572119,64.82390439694056,62.66413076112353,60.52962375257479,58.42637847730472,56.35944285928171,54.33301540051605,52.35053575312827,50.414768305628506,48.52787900468007,46.69150566480349,44.9068220532089,43.17459606806461,41.49524235234702,39.86886970081849,38.43915779529454,37.26012216920145,36.34801087067329,35.70600053205868,35.33614708331978,35.24563970900393,35.450882520628554,35.98133779329628,36.88449209902887,38.233383985337234,40.138844313999904,42.770304381762536,46.39274258793961,51.43564197023841,58.62928575677896,69.29106017217458,85.95544589256559,108.10051744159412,130.52698310700708,151.93845651745818,171.56219229884732,188.86722851080128,203.5220329593979,215.36889013978174
A2,0.0,0.0,0.0,0.5404431970083615,1.6863618187415228,3.3501728606391574,5.412303096902023,7.759960672397549,10.297008229395455,12.944461629152231,15.638370312651762,18.327303530515515,20.97010129055885,23.534024354506002,25.993274796066608,28.327819250346447,30.522447511298846,32.566010560075554,34.45079471635491,36.171999487965074,37.72729529117561,39.11644371873745,40.34096782919114,41.40386340275433,42.30934458314721,43.06261906223983,43.66968916734157,44.137176032191114,44.47216458617663,44.68206746570544,44.774506197518974,44.75720816923642,44.63791801762597,44.42431036787668,44.12394749073554,43.74421947056062,43.29229923147461,42.775107627494485,42.199286554732296,41.57117889162658,40.89681435663301,40.1819004939043,39.43181807398487,38.65162026123921,37.84603496074205,37.01946981603326,36.17601938522198,35.31947407593989,34.45333046922777,33.58080270837932,32.7216401628382,31.890327998456716,31.09836082270124,30.355590640243665,29.67113726236388,29.05412235652843,28.514386111577128,28.063312267745122,27.7149011789596,27.487292602938595,27.40507504651031,27.502992490832487,27.832227144266383,28.471670952261814,29.549429884934728,31.28658842563225,34.091180623378044,38.10153244071884,42.87455053770422,48.21388008522231,53.938702674971836,59.87409473028458,65.85693027455973,71.74131104681966
IH2,0.0,0.0,0.0,0.0,0.9251047159219982,3.4341943582199206,7.764904011410165,13.849232571300533,21.449562015483718,30.256893566402827,39.95025350802636,50.2283446920164,60.823930850017206,71.50837418167086,82.09099967670312,92.4160315899139,102.35862448000007,111.82077999164883,120.72752290372993,129.02348219295524,136.66990578519906,143.64208286219522,149.92712638843548,155.5220644208155,160.432192553162,164.669646590459,168.2521617473452,171.2019911850976,173.54496213097838,175.30965212030557,176.52667118770992,177.22803829097492,177.44664206384553,177.21577732778715,176.56872961297356,175.53846557526865,174.15735657552784,172.4569474310384,170.46776914575761,168.21919129801535,165.73930937649936,163.05486263053925,160.191178389951,157.17213918792922,154.02016936966282,150.75623819294583,147.39987672963719,143.9692061608734,140.48097532529286,136.9506056282235,133.39224165061847,129.84757284344136,126.36558123953519,122.9943738734088,119.7786421786701,116.75972546351419,113.97691983255415,111.46949322333805,109.27929941091737,107.45416512277777,106.0524974722235,105.1499514834515,104.84969779148673,105.29921506805756,106.71945992239948,109.45883961577408,114.09990048116084,121.68303077028835,133.05662613505444,147.95778341466053,165.8864603419968,186.23017240892634,208.32181792613736,231.48416309679
IN2,0.0,0.0,0.0,0.0,0.9251047159219982,3.5028431868841934,8.087706064568083,14.745013335877816,23.36408873130412,33.74397299517649,45.64772180512572,58.833408760672654,73.07021641216441,88.14573090844958,103.86837252677546,120.0673205220475,136.59127532255874,153.30678463450778,170.09650171788067,186.85754409325497,203.50001445236538,219.94569253745027,236.12688326334825,251.98539841536316,267.47164894080356,282.54382781234455,297.16716739684927,311.3132591053754,324.9594263627764,338.0881444893975,350.6865029673283,362.74570687237906,374.26061511150897,385.22931362868525,395.65270185916734,405.5341542291882,414.8791921340405,423.6951810920882,431.99105543339203,439.7770696295731,447.0645746287383,453.86581745430726,460.1937623598674,466.06193188689434,471.4842662291511,476.4749993677956,481.04855050707835,485.21942941264933,489.0021543321358,492.4111812592838,495.46084338685466,498.194066512045,500.6641502807649,502.9271109520919,505.0390399489827,507.0558789661568,509.03444811829604,511.0342801412388,513.1202048984857,515.3659012693066,517.858919053681,520.7080987259442,524.0550786150372,528.0930763464748,533.0992739770578,539.494138388643,547.9574090391915,559.6689241273127,575.6923383743584,596.0408116120162,620.4680947993877,648.5758523111633,679.8635394902119,713.7693106871893
D2,0.0,0.0,0.0,0.0,0.0,0.0009251047159219982,0.004359299074141919,0.012124203085552083,0.025973435656852617,0.047422997672336334,0.07767989123873917,0.11763014474676553,0.16785848943878193,0.22868242028879915,0.30019079447047003,0.38228179414717317,0.4746978257370871,0.5770564502170872,0.688877230208736,0.8096047531124659,0.9386282353054212,1.0752981410906202,1.2189402239528153,1.3688673503412507,1.5243894147620662,1.6848216073152282,1.8494912539056871,2.0177434156530323,2.1889454068381298,2.3624903689691084,2.537800021089414,2.714326692277124,2.8915547305680986,3.069001372631944,3.2462171499597314,3.422785879572705,3.5983243451479736,3.7724817017235015,3.94493864915454,4.115406418300298,4.283625609598313,4.449364918974812,4.612419781605351,4.772610959995302,4.929783099183231,5.083803268552894,5.23455950674584,5.381959383475477,5.525928589636351,5.6664095649616435,5.803360170589867,5.9367524122404856,6.0665999850839265,6.192965566323462,6.315959940196871,6.435738582375541,6.5524983078390555,6.66647522767161,6.777944720894948,6.887224020305865,6.994678185428643,7.100730682900866,7.205880634384317,7.310730332175804,7.416029547243861,7.522749007166261,7.632207846782035,7.746307747263196,7.867990778033485,8.001047404168538,8.1490051875832,8.314891647925196,8.501121820334122,8.70944363826026
R2,0.0,0.0,0.0,0.0,0.041126408690196584,0.25568024688769997,0.8313961215250023,1.97022711067277,3.8605381700656256,6.662500298696552,10.502553680749914,15.473195460364035,21.63551986711591,29.022944973380525,37.64524917447143,47.4924664995938,58.53843671809683,70.7439411856826,84.05942421700499,98.4273312376359,113.78410631083497,130.0618928247768,147.18997772093135,165.0960146052011,183.70705588777662,202.9504194024653,222.7544109839017,243.04892123886276,263.7659121491188,284.8398070709859,306.20779603562863,327.81006690397595,349.58997181004685,371.4941373746158,393.47252544535075,415.4784519087312,437.4685718045625,459.4028347378592,481.24441536431766,502.9596234945079,524.5177979025557,545.8911874475937,567.0548226698396,587.986380615273,608.6660452719416,629.0763656642541,649.2021133469315,669.0301407657118,688.5492417057131,707.7500148288827,726.6247311074901,745.168484646333,763.3813699293157,781.2689647743128,798.8421596956441,816.1168187372176,833.1134991977108,849.8573450845738,866.378229357052,882.7112211739959,898.8974863713089,914.985797262621,931.0349534919985,947.1176504005008,963.3267901813689,979.7861804371665,996.6696471949887,1014.2373359422431,1032.8582839328863,1052.949038720594,1074.889462069144,1099.0015866206772,1125.5391876812937,1154.6831143921393
G2,0.0,0.0,0.0,4.6255235796099905,14.78515702245107,30.123645015850485,49.954892746969364,73.57296739502853,100.34101656460034,129.70638381054908,161.19363905883705,194.3928552335349,228.9485133182735,264.550357974105,300.92621979457283,337.836464661612,375.06969097029,412.43934942335596,449.78103159696764,486.9502384195231,523.8204921674369,560.2816957349736,596.2386727043983,631.6098432984231,666.3260065743862,700.32920980468,733.5716931292686,766.0149022240586,797.6285646299384,828.3898270733158,858.2824519784617,887.296071713558,915.4254991314538,942.6699919604245,969.0328448031802,994.5208038730639,1019.1435699285718,1042.9133580515308,1065.8445033474316,1087.9531075731913,1109.2567233460902,1129.7740730310372,1149.5247995438558,1168.5292463976073,1186.8082644189103,1204.3830426809059,1221.2749613352328,1237.505464171372,1253.0959488828803,1268.0676731722906,1282.585509147094,1296.7821366391186,1310.774074208271,1324.6712682179257,1338.5838149820102,1352.6277664410222,1366.9312651362484,1381.6420734171675,1396.9377628402185,1413.0404515661385,1430.239265488936,1448.9262632822988,1469.656823241181,1493.2568196586556,1521.0247202332914,1555.1382089513986,1599.5190187406595,1656.0462686467142,1721.7129412887648,1795.3352079420188,1875.7343263303912,1961.664239461884,2051.8659353148014,2145.1216056789444
H2,8041.522610391141,8520.184670533472,8956.64355270168,9356.706892629989,9723.010517755916,10058.001645406146,10363.952358618983,10642.972119365579,10897.019387927648,11127.912412278125,11337.339246750757,11526.867055049928,11697.950748719732,11851.94100853994,11990.091732926041,12113.566954262027,12223.447261171235,12320.735762015809,12406.363622394614,12481.195207068737,12546.032854570167,12601.621310731005,12648.651845496448,12687.766075644557,12719.559514419869,12744.584867587437,12763.355094020508,12776.346247641282,12784.000116332772,12786.726672324221,12784.906347516642,12778.892146253142,12769.011607145474,12755.568624738915,12738.845141027357,12719.102716115418,12696.583986660256,12671.514020109205,12644.101572176716,12614.540254472446,12583.009618698597,12549.676163376198,12514.694268634292,12478.207064200747,12440.347235366306,12401.237771352682,12360.992660199056,12319.717533987332,11578.006086364487,10851.601235036065,10141.380429874474,9448.244124028362,8773.121000301304,8116.972509649422,7480.796421905543,6865.628976123517,6272.5450783711185,5702.65582817628,5157.102466270317,4637.0456404200595,4143.64871306731,3678.053736962322,3241.348785494167,2834.525658119258,2458.4277272869717,2263.597173155686,2254.049609743947,2244.502809760264,2234.960760403584,2225.427130601393,2215.9052940891397,2206.398350837209,2196.9091469435134,2187.4402931013515
S3,224904.1963595961,223922.47169294706,222966.9563168016,222054.95357044725,221190.1129189103,220371.11472348942,219595.12842523315,218858.99052115847,218159.58782005776,217493.97459399392,216859.40118752702,216253.31341383012,215673.3427351029,215117.29402081683,214583.13317972684,214068.97540845355,213573.07425895214,213093.8115405601,212629.6880109667,212179.31479370812,211741.40545876016,211314.7687069899,210898.3016048127,210490.9833210087,210091.86932281597,209700.08599301233,209314.82563373083,208935.34182626917,208560.94511921614,208190.99901988424,207824.9162663676,207462.05153975394,207102.05252651137,206744.43076660446,206388.7536818403,206034.62928719525,205681.69950834606,205329.63648609736,204978.1399870419,204626.93528194953,204275.7712695829,203924.41876438205,203572.66891462848,203220.33173452772,202867.23473977234,202513.2216785831,202158.15135136686,201801.8965128015,202687.51024174129,203620.21961143176,204602.4966442906,205637.03027105215,206726.75666275714,207874.87828692247,209084.87402843247,210360.49952048037,211705.7743136534,213124.94983690805,214622.44848572163,216202.75844545438,217870.25871030887,219628.92890719656,221481.85593936522,223430.35034698088,225472.24172644448,226364.73286447534,225701.66714314016,225036.69364148233,224363.46259216501,223683.40145575796,222998.3407590986,222309.93782007997,221619.60396034,220928.50761768883
E3,0.0,0.0,35.12851323684445,74.51385419828108,108.92156478756006,136.60611401815723,158.06021028355167,174.2855965254618,186.2685636522014,194.8469408023246,200.69841045094395,204.36205646977783,206.2652095838947,206.74746784926054,206.08019270634486,204.48174047670327,202.1291721038861,199.16719850716112,195.7150045575462,191.8714626035793,187.7191297896953,183.32732897827998,178.75453947185892,174.0502673875111,169.25652284087062,164.40899894566357,159.53802352846526,154.66933644607303,149.82473197328255,145.022595756673,140.27835843645335,135.60488256726399,131.01231676878356,126.50968860454131,122.10407236599507,117.80099840485599,113.60469844038923,109.51828863606858,105.54392208020124,101.68292117438686,97.93589409229797,94.30283753875548,90.78322739899951,87.37609860091203,84.08011535472302,80.89363281245753,77.81475108364867,74.84136244937623,71.97119253163987,69.89728932520609,68.47118224525192,67.62103261991504,67.32122715000787,67.57917933007062,68.431607558661,69.94701252404614,72.2336534411339,75.45427062272795,79.85104208765847,85.78789703952452,93.82434766058242,104.84992738951141,120.34212195672686,142.8916568011018,177.3401077168448,233.3480026040372,300.0266099398947,350.5069266452518,394.63318925661395,432.44892008491024,463.5889547861376,487.9690411783463,505.790406566149,517.4666068583358
I3,0.0,0.0,0.0,7.451324983140586,20.276386864333467,35.269855093675986,50.13827602865352,63.61008889125641,75.13484307076918,84.59147643101736,92.08506878152696,97.82241540555921,102.04194186846865,104.97734725764764,106.8408852577117,107.81746822344195,108.06436046996429,107.7134780720161,106.87466619749836,105.63911298313059,104.08250373285819,102.26776133268118,100.24734401287603,98.06513111611525,95.75795129495877,93.35681276493203,90.88789154121551,88.3733262547286,85.83185992334845,83.27936127546312,80.72925144067312,78.19285618473201,75.6796993226614,73.1976478296084,70.75333678268095,68.35224779961187,65.99884292795402,63.69669701223749,61.4486159477792,59.25673997657164,57.12263374654637,55.04736504992029,53.03157386306283,51.07553299859062,49.179201436691486,47.34227122289491,45.56420868569877,43.84429062475055,42.18163603861608,40.575233894129774,39.17148424380969,38.026734110325265,37.15955356478137,36.57565165542839,36.28002633313647,36.28346493376407,36.606969961094066,37.28610644526481,38.37673325296157,39.96373557316521,42.17523978080544,45.20680327082029,49.364444888484414,55.14517452578319,63.39673282371729,75.65474058430397,94.8897242739186,120.57432396335352,146.6927742075038,171.7237372931521,194.7636423774017,215.19288969974602,232.62184815541656,246.85942264268226
A3,0.0,0.0,0.0,0.8706080136718964,2.651072046543814,5.148791101461368,8.142560254894478,11.440218783851144,14.889055638136703,18.37242446081298,21.80331974862526,25.118152258216735,28.27153212539941,31.23211430108387,33.97935545124949,36.50100082963949,38.79113988332715,40.848700030486825,42.67627675530445,44.27922185191919,45.66493026026761,46.842280239577626,47.82119249936979,48.61228213001149,49.22658337495793,49.67533195696514,49.96979318849891,50.12112674935879,50.140281019051145,50.03791137083761,49.82431799100891,49.509399672303815,49.10262071279344,48.61297671901912,48.049002488563104,47.41875866753949,46.72982956811117,45.98932723166539,45.203899720074496,44.37974255501771,43.522612567849706,42.63784358178589,41.73036344744257,40.804712028621715,39.86505979868782,38.915226762592674,37.958701467118026,36.99865990318433,36.037984139869735,35.07928056074744,34.14213337491842,33.240956858076665,32.38728797994595,31.59115098743334,30.861991039162653,30.209444551190654,29.644112319617737,29.178471489637097,28.82808300302104,28.613325674256554,28.562046984427646,28.713841967477766,29.12733833666054,29.893319668170232,31.159868410773267,33.18378956360107,36.44176772424534,41.104351920963964,46.66320449234066,52.89264581068755,59.585248553178246,66.54032005438309,73.57035180588632,80.50709135907097
IH3,0.0,0.0,0.0,0.0,1.4902649966281174,5.420052296659406,12.01761941473369,21.033312359339476,31.984187484495223,44.31787803998703,57.50431774632253,71.07909133818485,84.65824941382114,97.93785873875797,110.68631906487806,122.73398313868685,133.96247158745263,144.29482621994913,153.68695244361726,162.1204377529582,169.59665772336814,176.13200915857496,181.75409272124594,186.49867656354334,190.40729279349733,193.52534197414968,195.90060328689947,197.5820677961902,198.61902892416836,199.0603778675762,198.95406260986707,198.34667782618433,197.2831597680148,195.80656552317558,193.95789988572733,191.77604179294178,189.29769264449095,186.5573557513384,183.58734398859977,180.41781045474417,177.07679720826795,173.59029791227385,169.9823309516358,166.2750202011927,162.4886811231506,158.6419102807843,154.75167669405317,150.83341374600127,146.9011105876727,142.96740219168834,139.04365737659174,135.16956764245137,131.39275160961427,127.76053211294895,124.31738890434893,121.10505583946329,118.16390997714164,115.53512886419556,113.26353563434066,111.40135079321281,110.01337457566434,109.18457588736595,109.03188017463577,109.72357076449283,111.51316240408849,114.80237036673242,120.26620702919097,129.11694959855646,142.35932161573493,159.71028923028064,180.60638435297162,204.3508724294129,230.18176856567763,257.32332576538414
IN3,0.0,0.0,0.0,0.0,1.4902649966281174,5.53063971952853,12.529304341068443,22.431666503388463,34.92936761660586,49.60704255459363,66.02926741525117,83.78598849740405,102.51261169354186,121.89587395030017,141.6723846623267,161.62383786724575,181.57109313326168,201.36825429592193,220.89726736736594,240.06322793319197,258.79041825048614,277.0190148145529,294.7023769329436,311.80482196618937,328.29979996975055,344.1683922290448,359.39807085974076,373.98166845938647,387.9165170257383,401.2037238401506,413.8475588568417,425.8549335564079,437.23495545779025,447.99854576774464,458.1580898759889,467.72717633376516,476.7203541303499,485.1529191746372,493.0407293853383,500.4000452810408,507.2473928235447,513.5994456446185,519.4729241981564,524.8845097287874,529.8507712312177,534.3881038062437,538.5126770127603,542.2403919797724,545.5868461849249,548.5673049307989,551.1966786603168,553.5190087224756,555.589165457316,557.4651845156991,559.2056630016277,560.8696116382388,562.5176085086092,564.2138264157419,566.0289094406374,568.0439669968234,570.3562744414883,573.0877596532345,576.3982427108662,580.5071492614544,585.7311126739964,592.5531481119999,601.7585647477407,614.718923955047,632.6865995081672,655.6982883545863,683.4860529296709,715.6039208758546,751.4864596070452,790.495964642058
D3,0.0,0.0,0.0,0.0,0.0,0.0014902649966281175,0.006910317293287524,0.018927936708021214,0.03996124906736069,0.07194543655185592,0.11626331459184296,0.1737676323381655,0.24484672367635035,0.32950497309017146,0.42744283182892945,0.5381291508938075,0.6608631340324944,0.7948256056199471,0.9391204318398962,1.0928073842835135,1.2549278220364717,1.4245244797598398,1.6006564889184147,1.7824105816396607,1.9689092582032042,2.1593165509967016,2.3528418929708512,2.5487424962577507,2.746324564053941,2.944943592978109,3.1440039708456853,3.3429580334555524,3.541304711281737,3.7385878710497518,3.9343944365729273,4.128352336458654,4.320128378251596,4.509426070896087,4.695983426647425,4.8795707706360245,5.059988581090769,5.237065378299037,5.41065567621131,5.580638007162946,5.746913027364139,5.909401708487289,6.0680436187680735,6.222795295462126,6.373628709208128,6.520529819795801,6.663497221987489,6.802540879364081,6.937710447006532,7.069103198616147,7.1968637307290955,7.321181119633445,7.442286175472908,7.56045008545005,7.675985214314245,7.789248749948586,7.900650100741799,8.010663475317463,8.119848051204828,8.228879931379463,8.338603502143956,8.450116664548045,8.564919034914777,8.685185241943968,8.814302191542524,8.95666151315826,9.11637180238854,9.296978186741512,9.501329059170924,9.731510827736601
R3,0.0,0.0,0.0,0.0,0.06625114568456064,0.4068937180046135,1.3049944040901913,3.049861057955689,5.894859800720824,10.038468155014481,15.620172957835074,22.724380914652187,31.387916816006197,41.60855834863548,53.35327605134323,66.56557260183135,81.17171929933448,97.08589632100498,114.21433983596214,132.45863402457317,151.718289240492,171.89273585371203,192.88284593450217,214.5920766438939,236.92731224351624,259.79946691795004,283.1238982999034,306.82067154684415,330.81470574403704,355.03582797724977,379.41875532074096,403.9030209536039,428.4328574258459,452.9570475630777,477.4287505783856,501.8053108834419,526.0480571531428,550.1220944967476,573.9960930930449,597.642076244133,621.0352102566529,644.1535980606052,666.9780780562501,689.4920293327194,711.6811841154315,733.5334480621059,755.0387288303849,776.1887731769932,796.977012713652,817.3984183342692,837.449363237681,857.1288059978431,876.4405450861675,895.3937677937937,914.0029421588919,932.287541950865,950.2718368842138,967.9848687847241,985.4606969280954,1002.739000758823,1019.8661666816722,1036.89706478428,1053.897867487981,1070.950535803741,1088.160135682584,1105.6672622095703,1123.670308196936,1142.4679595340488,1162.486465492088,1184.2095154030008,1208.0804416291505,1234.4772282087624,1263.7001543562924,1295.9661738867333
G3,0.0,0.0,0.0,7.451324983140586,23.256916857589705,46.36093983266561,75.33730280511354,108.86442607917783,145.83321581519317,185.34378640374902,226.67396932666557,269.2453434633086,312.5938360884417,356.34601822500815,400.2004951281313,443.91343219694625,487.28731173284535,530.1621735228829,572.4087528771715,613.9230661418031,654.6221020847829,694.4403611777492,733.3270483910165,771.2437730994062,808.1626457246958,844.0646877126526,878.9384915949089,912.7790829249082,945.5869470954194,977.3671924168734,1008.1288270922687,1037.8841324125967,1066.6481180244189,1094.4379462604304,1121.2726943453463,1147.1729400753495,1172.1604343235365,1196.2578255790015,1219.4884233194382,1241.8759937273423,1263.4445834879457,1284.218368289938,1304.2215231230487,1323.4781118038015,1342.0119934413387,1359.8467438022187,1377.0055897541806,1393.511355167512,1409.3864168312778,1424.652669102238,1439.4790130095698,1454.0028565736093,1468.3463696721956,1482.6262891887552,1496.9609245286347,1511.4763736625168,1526.3132646633524,1541.6351891319607,1557.6402585177634,1574.5779541391516,1592.774952576058,1612.676611978395,1634.9169749043872,1660.4434824970797,1690.753110605327,1728.3698114954007,1777.866691418737,1841.5071808177393,1915.855360647231,1999.5634334158808,2091.292833417391,2189.627537690696,2293.133652026265,2400.419965775697
H3,24124.567831173423,24019.26217794211,23920.532429679894,23827.821368393295,23740.645558092754,23658.556970320027,23581.14044372696,23508.01132525089,23438.813279913866,23373.216257199438,23310.914602821325,23251.62530549723,23195.086369082965,23141.05530111108,23089.30770941777,23039.63599913603,22991.848162884446,22945.7666574934,22901.227361085905,22858.07860477203,22816.180273625938,22775.402971995365,22735.627248546964,22696.74287677927,22658.648187039973,22621.249446367256,22584.460282737855,22548.20115054862,22512.398834385014,22476.98598834053,22441.900708346315,22407.08613515196,22372.490085766804,22338.064711327625,22303.766179503928,22269.55437968696,22235.3926493338,22201.247519954355,22167.08848133699,22132.887762708906,22098.62012962053,22064.26269542963,22029.79474634124,21995.19757903404,21960.45434997305,21925.549935572875,21890.470802435393,21855.20488694128,21819.74148352614,21775.74371028681,21723.464908356276,21663.166753523245,21595.119460625174,21519.602048456883,21436.902656501283,21347.31890129122,21251.15825540098,21148.7384256342,21040.387698613158,20926.445211437458,20807.26109229953,20683.196401209738,20554.62278521111,20421.921747542616,20285.483419385942,20145.70472097781,20004.771433697708,19864.898929009083,19726.078376145437,19588.30106539665,19451.558403311217,19315.841908213257,19181.143206011922,19047.45402628258
S4,112452.09817979805,114326.29981612801,116138.22182646942,117921.33345819447,119688.41882194392,121444.3951315647,123191.40012129243,124930.58708371817,126662.74224269344,128388.4979578981,130108.40737899106,131822.9711800612,133532.64761126172,135237.85677598047,136938.9829791225,138636.37649913313,140330.3552445026,142021.2064342424,143709.1883272713,145394.5319869994,147077.44305681306,148758.1035218375,150436.67343555557,152113.2925940017,153788.0821443483,155461.1461183905,157132.57288460285,158802.43651508668,160470.79806587822,162137.70677080416,163803.20115040595,165467.19998410787,167129.87775694867,168791.21635475638,170451.21048333275,172109.85528371477,173767.14255446766,175423.0598458212,177077.590496947,178730.71396483437,180382.40622482865,182032.64016965314,183681.38598385648,185328.61148774263,186974.28245062128,188618.3628750826,190260.81525451507,191901.60080613362,194746.8788022116,197590.10547072292,200430.46896142946,203266.93472492168,206098.2680690146,208923.02844440428,211739.5452176469,214545.87769951933,217339.75723066714,220118.50396396732,222878.90330203998,225617.01302339765,228327.84437880467,231004.80163257587,233638.63281318668,236215.33317687715,238711.67849975472,240722.1375697748,242213.63060920587,243696.3914079909,245150.33798660847,246579.8055816099,247990.58226027817,249387.9986682373,250776.66352173264,252160.4487256618
E4,0.0,0.0,53.80584948951505,115.60803876780982,171.159282371919,217.44060359377076,254.90149688571665,284.84061062689756,308.587801208089,327.2850934805464,341.85830982316634,353.04332451084036,361.42268953137045,367.4592469373241,371.5235955988561,373.91552133497044,374.8803671219634,374.62141004865475,373.30917313428677,371.0884183553036,368.0834004476837,364.4018235572647,360.13783441189065,355.3743020752252,350.1845706261125,344.6338229336474,338.7801574907349,332.6754531955159,326.36607682695274,319.89347305050114,313.29466581255747,306.60269194809194,299.845825833959,293.0510487555413,286.2417722632835,279.43855844383256,272.65949539902994,265.9204584620803,259.23532683881297,252.61617665941316,246.07345695604286,239.6161509130364,233.25192359015153,226.98725702233128,220.82757352293024,214.7773479891745,208.84020998603654,203.0190363592232,197.31603509905312,193.73993980833205,191.89619671829507,191.60773964290138,192.83117930751965,195.62071159452316,200.11903431886267,206.56660420530216,215.32779188534602,226.938251475112,242.1847537226961,262.24020938234185,288.8989528334896,325.00477617348525,375.27153035979524,447.9530200117766,558.4559639895533,737.4838233054128,951.8562097326135,1117.709979187798,1266.0406123492623,1396.5239203385518,1507.4712030035103,1598.0864980746833,1668.5168825933606,1719.6400660058528
I4,0.0,0.0,0.0,11.413089641374764,31.370185877688808,55.127759540678184,79.19931941311859,101.5883157973561,121.37228316918979,138.27982623176774,152.3903497216353,163.947878359318,173.2549177952078,180.6165401043691,186.3139648060909,190.59453361747933,193.67024098255087,195.72032477527767,196.8954460735074,197.32217221027724,197.10714993851974,196.34072374620982,195.09994611488696,193.45101857492048,191.45123991127073,189.15054685854386,186.59272779674217,183.816379382503,180.85566396194884,177.7409140853947,174.49912036590428,171.15433054828327,167.72798092565733,164.2389307258639,160.70421865198296,157.13903389380846,153.55685151587235,149.9695933354173,146.38777985734825,142.8206673883138,139.27637125454498,135.76197706025383,132.28364164644336,128.8466850006807,125.45567405980248,122.11449914614353,118.82644365107603,115.59424749877144,112.42016486916808,109.30601662063464,106.67898010640175,104.71167051200814,103.47009835109824,102.9846663659725,103.28511202392623,104.41954631645787,106.46784059316583,109.55520655933815,113.87039212699199,119.693532825359,127.44150328546583,137.74503558631397,151.58578320640322,170.5526221496208,197.34964327703676,236.8673149940864,298.55261828573475,381.03564553668843,465.70572492763483,547.9710953959693,625.0079346073574,694.7637485864127,755.8382044957591,807.4223000487233
A4,0.0,0.0,0.0,1.3334980456520922,4.0971955915279645,8.027337543004979,12.805419071918394,18.148312842654512,23.826621889856238,29.66136431254651,35.5154816850698,41.28529052582016,46.89323496385806,52.282098626376225,57.41049001961339,62.24935218392962,66.77926906958122,70.98838260202373,74.87077499791164,78.42520496247649,81.65411337098097,84.5628348230741,87.15896725563661,89.45186370787575,91.45221926216777,93.17173285524879,94.62282862388783,95.81842514319442,96.77174365765086,97.49614843902636,98.00501391507848,98.31161433575276,98.42903258183635,98.37005669723473,98.14717027798793,97.77248716943309,97.2577089836037,96.6140951551402,95.85244174972735,94.98306725428961,94.01580423301849,92.95999597969957,91.82449742113594,90.61767961292458,89.347437241362,88.0211986103606,86.64593765170882,85.22818755137713,83.7740556341707,82.28923919413782,80.82878545332211,79.43377424546686,78.13777100682472,76.97071158713156,75.96159695542872,75.1407577311233,74.54217581018872,74.20627753401862,74.18368828956139,74.54067993950248,75.36755007003883,76.79219475330277,79.00325664478146,82.29184894722589,87.13149014457359,94.34149775818373,105.43978091319649,121.00641292437436,139.49890150346297,160.2603112036287,182.67566322297813,206.1349252214449,230.05476008928497,253.8998663335196
IH4,0.0,0.0,0.0,0.0,2.282617928274953,8.364443724814524,18.685654690480483,32.952064071125605,50.49494762447395,70.51739896425181,92.23533738167923,114.94658784610581,138.0569080072875,161.08259574279134,183.6416942317927,205.44065382316924,226.2601120123746,245.94157694320864,264.3757503865606,281.4926699556019,297.2535780212836,311.6443099513426,324.66996276591516,336.3506147789682,346.71789388500855,355.8122244596787,363.6806142283639,370.37487023410694,375.95015635895663,380.4638237940357,383.97446089462994,386.541120615413,388.2226928144835,389.0773956968289,389.1623169588585,388.53314487967845,387.2439162585362,385.3468126551886,382.8920059637593,379.9275473772793,376.49929312495703,372.6508611064237,368.4236134293393,363.85666060920886,358.9868837975006,353.84897189855246,348.47547084823793,342.8968426797528,337.14153230842857,331.2360402374206,325.20499962563383,319.1564048293109,313.2236794097243,307.542213893192,302.2420785854695,297.44833851416377,293.28514961077457,289.8821873341609,287.38324996132616,285.95777659498265,285.81696556154134,287.2376058313439,290.59932534646924,296.44611558569443,305.5939355833243,319.3308534512689,339.81456721162135,370.9104787787017,415.8845163870989,474.0054613608037,543.6853162127403,622.9050387775718,709.4051046684191,800.8361896824949
IN4,0.0,0.0,0.0,0.0,2.282617928274953,8.533828924529965,19.474042543420303,35.119166000609816,55.08563750007494,78.80923775891215,105.67711062767657,135.09840946572686,166.53700104293318,199.52261459154542,233.6506964665038,268.57698246305694,304.01011936192225,339.70406636481323,375.45109065622063,411.0756689643599,446.42934671677176,481.38648323730797,515.8407631541769,549.7023447456125,582.8955250131405,615.3568177452632,647.0333589395194,677.8815709094727,707.8660310768786,736.9585035584996,765.1371013399936,792.3855543997745,818.6925649654333,844.0512355009105,868.4585092910742,891.91476792856,914.423427028036,935.9905630609302,956.6245760974043,976.3358863079,995.1366609224838,1013.040568564168,1030.062558290577,1046.21866103696,1061.5258114267265,1076.0016881244196,1089.6645710724042,1102.5332140918954,1114.6267314507306,1125.964497110057,1136.5660554630833,1146.5361909297328,1156.013163122837,1165.1470511618284,1174.0925139234046,1183.0086111889557,1192.0624343403576,1201.4353781155871,1211.3320656462988,1221.9928234152342,1233.7116017461535,1246.862786385785,1261.94316563919,1279.6408906240788,1300.955006147762,1327.415384741692,1361.5146938930923,1407.6100706113084,1469.741099012533,1548.1848330079345,1642.297203757049,1750.87581864095,1872.319810171823,2004.7642529692566
D4,0.0,0.0,0.0,0.0,0.0,0.0022826179282749532,0.010647061653089478,0.029332716343569962,0.06228478041469557,0.11277972803916952,0.18329712700342132,0.27553246438510054,0.3904790522312064,0.5285359602384938,0.6896185559812852,0.873260250213078,1.0787009040362472,1.3049610160486218,1.5509025929918305,1.8152783433783912,2.096771013333993,2.3940245913552767,2.7056689013066193,3.0303388640725344,3.3666894788515025,3.713407372736511,4.06921959719619,4.4329002114245535,4.8032750816586605,5.179225238017617,5.559689061811652,5.943663522706283,6.330204643321696,6.7184273361361795,7.107504731833008,7.496667048791867,7.885200193671546,8.272444109930081,8.657790922585269,9.040682928549028,9.420610475926308,9.797109769051264,10.169760630157688,10.538184243587027,10.902040904196236,11.261027787993736,11.614876759892288,11.963352230740526,12.306249073420279,12.643390605728708,12.97462664596613,13.299831645591762,13.618988050421073,13.932211729830797,14.23975394372399,14.54199602230946,14.839444360823624,15.132729510434398,15.42261169776856,15.709994947729886,15.995952724324868,16.28176968988641,16.569007295717753,16.859606621064223,17.15605273664992,17.461646672233243,17.780977525684513,18.120792092896135,18.491702571674836,18.907587088061934,19.381592549422738,19.92527786563548,20.54818290441305,21.25758800908147
R4,0.0,0.0,0.0,0.0,0.10147594773446258,0.6260174760460545,2.0181930655325755,4.742163486283378,9.21622501644552,15.781739530236926,24.694498792593908,36.128495545056644,50.18549844151064,66.90656813560402,86.28346136246337,108.26895822005498,132.78575974706004,159.73392353891543,188.9969568520955,220.4467449575619,253.94750210526976,289.35891885553144,326.5386567217435,365.34431635350023,405.634982373862,447.2724278935407,490.12204499447796,534.0535539157036,578.9415328767075,624.6658019719132,671.1116879200953,718.1701912660752,765.7380735850738,813.7178790717735,862.017900220377,910.5520989993591,959.2399966567334,1008.0065352763834,1056.7819163699337,1105.5014216341476,1154.105220353132,1202.538167256033,1250.7495940550018,1298.693097389339,1346.3263254756391,1393.6107653964418,1440.5115326407636,1486.9971642312544,1533.0394165289538,1578.6130685933451,1623.6957317891206,1668.2714515243447,1712.3374329641215,1755.9059198316097,1799.0042000647848,1841.6741377946764,1883.9719020656423,1925.9682493618607,1967.7496163082894,2009.4203031880488,2051.1061551191883,2092.96040123294,2135.1727777521373,2177.9839315595464,2221.708807707337,2266.776268432639,2313.7999984650487,2363.713652996727,2417.860227508646,2477.777480041759,2544.8951058086755,2620.457429156115,2705.482331000548,2800.7392858255935
G4,0.0,0.0,0.0,11.413089641374764,35.935421734238716,72.24106974830362,118.3637334370153,172.43245758650025,232.85175127727638,298.3082076075303,367.7306615901049,440.24433011644174,515.1305208960588,591.7941103233032,669.7381510667727,748.5443058005975,827.8578266126608,907.376006798408,986.8392580067488,1066.0241625729216,1144.738009185275,1222.814442968373,1300.1099548355342,1376.5010057415225,1451.881634507841,1526.1614374196224,1599.2638371012383,1671.124579805696,1741.690416138143,1810.9179318463684,1878.772503761036,1945.2273620897768,2010.2627446864642,2073.8648868569335,2136.025747073398,2196.7422497760167,2256.015680955604,2313.851163381498,2370.2571872375956,2425.2451867115005,2478.8291575330572,2531.025311840584,2581.851767250875,2631.3282672636897,2679.4759303230835,2726.3170250333455,2771.8747691967355,2816.1731505048615,2859.2367668747665,2901.0906845739005,2942.1860547079214,2982.8903371560887,3023.533433199982,3064.4360405552957,3105.9303527596385,3148.3788318617408,3192.194944665032,3237.8694468684707,3286.0067150598597,3337.3780126090237,3393.003396199274,3454.2835298143086,3523.2222916689234,3602.8234438947025,3697.841513881967,3816.2990429098313,3972.7312721991143,4174.635346764362,4411.719684369984,4680.267344809372,4976.4926221791475,5296.251610001145,5635.231565345057,5989.150942696325
H4,12062.283915586711,12263.32198084649,12463.482498996007,12662.820269243339,12861.385447313283,13059.22416029739,13256.378801716724,13452.88830541445,13648.788399791541,13844.111843790824,14038.888645934154,14233.146267624332,14426.90981183681,14620.202198245834,14813.044325755092,15005.455223333574,15197.45218999304,15389.050924683745,15580.265646829523,15771.109208171905,15961.593196545005,16151.728032158555,16341.523056925183,16530.98661732974,16720.126141302902,16908.948209528236,17097.458621581296,17285.662457270777,17473.56413352535,17661.167457145224,17848.47567371473,18035.49151295095,18222.21723074388,18408.65464812527,18594.805187386333,18780.669905548864,18966.24952537959,19151.54446412404,19336.55486012366,19521.280597468132,19705.72132882404,19889.876496570876,20073.745352366124,20257.3269752523,20440.62028841092,20623.624074660693,20806.336990790467,20988.75758081076,19964.685167668995,18948.96350730915,17942.615187471183,16946.783184750893,15962.742637832966,14991.913038108667,14035.870461285525,13096.359259936547,12175.302362860943,11274.80896918188,10397.177974699847,9544.894928841932,8720.619720574581,7927.161600632426,7167.437699002899,6444.411110109688,5761.0052075185995,5483.11536494639,5650.996237621205,5817.702666235353,5983.243490643762,6147.6274771116405,6310.863319323279,6472.959639350873,6633.924988585984,6793.767848636083
E_Om,0.0,0.0,0.0,0.0,0.0,0.0,0.0,0.0,0.0,0.0,0.0,0.0,0.0,0.0,0.0,0.0,0.0,0.0,0.0,0.0,0.0,0.0,0.0,0.0,0.0,0.0,0.0,0.0,0.0,0.0,0.0,0.4800512717036494,0.6504149702581821,0.7176710280688172,0.7516220952016639,0.7759031719543,0.7984659907256564,0.8219090674168368,0.8470013374926075,0.8738909566561697,0.9025216351066212,0.9327760376289335,0.9645246998007493,0.9976421282024307,1.0320115138169015,1.0675255396991443,1.1040859018244311,1.1416024584223323,1.1799923236652128,1.2347290017471713,1.304713941497917,1.3912698088696331,1.4972655667782642,1.627002116437351,1.7865155486127828,1.9842305834015979,2.232058736479695,2.5471961816575086,2.9551272430111446,3.4948218593400924,4.228130468745794,5.257659958802104,6.762881190800249,9.07825300554246,12.875536423851855,19.619873960948752,29.17372442561475,39.08559391115037,50.71005091698266,63.795038934394626,78.15333008063502,93.57553271971614,109.83992098643961,126.72304186521902
I_Om,0.0,0.0,0.0,0.0,0.0,0.0,0.0,0.0,0.0,0.0,0.0,0.0,0.0,0.0,0.0,0.0,0.0,0.0,0.0,0.0,0.0,0.0,0.0,0.0,0.0,0.0,0.0,0.0,0.0,0.0,1.0,0.6,0.46182662755798237,0.41505949593048774,0.4012653130011845,0.40019037289232673,0.4046958173457167,0.41218502226875375,0.42165120039454196,0.4326533829933312,0.44495841504463546,0.45841446356031124,0.4729055400534008,0.4883345899368965,0.5046167612775696,0.521676365836495,0.5394452270131104,0.5578615869758231,0.5768692705003797,0.5964169910295802,0.6197561567658175,0.6486045921857033,0.6842735507847224,0.728158338028398,0.7820084278030051,0.8481538567746398,0.9297796661347993,1.0313235054442578,1.1590955506229372,1.3222875439312518,1.5346806841094633,1.817663167207826,2.2058324888124834,2.758015814409999,3.5804535649378577,4.879381354417861,7.089320940797819,10.441810670898308,14.555772103565939,19.48988402912294,25.225888465550327,31.713116565974218,38.876751674601685,46.62487216107494
A_Om,0.0,0.0,0.0,0.0,0.0,0.0,0.0,0.0,0.0,0.0,0.0,0.0,0.0,0.0,0.0,0.0,0.0,0.0,0.0,0.0,0.0,0.0,0.0,0.0,0.0,0.0,0.0,0.0,0.0,0.0,0.0,0.0,0.011897357605223969,0.02711156650093907,0.042834852697396335,0.05820306193801327,0.07300355836695342,0.08723695907262664,0.10096823454077522,0.11427646808485897,0.12723839679013893,0.13992352317782367,0.1523931528178425,0.16470071749245377,0.176892472787679,0.18900825941434352,0.20108222661133202,0.2131434886245568,0.22521671014698513,0.23732262474652494,0.24986387603117327,0.26318524145400124,0.2776380420557807,0.2936179671869943,0.31159718665113745,0.33216153482410377,0.356061059686976,0.3842839416197682,0.41816934450785465,0.45958611624502166,0.5112267019994755,0.5771115296546547,0.6634980416170949,0.7806154228687093,0.9462035078693805,1.1933007718924211,1.5887429234765615,2.190870882716844,2.9928293334930527,4.021855600427708,5.296867468081116,6.830702958836836,8.63003369227209,10.695528447818944
R_Om,0.0,0.0,0.0,0.0,0.0,0.0,0.0,0.0,0.0,0.0,0.0,0.0,0.0,0.0,0.0,0.0,0.0,0.0,0.0,0.0,0.0,0.0,0.0,0.0,0.0,0.0,0.0,0.0,0.0,0.0,0.0,0.4,0.64,0.824730651023193,0.990754449395388,1.151260574595862,1.3113367237527924,1.4732150506910793,1.6380890595985806,1.8067495397563973,1.97981089295373,2.157794258971584,2.341160044395709,2.5303222604170688,2.7256560963918277,2.9275028009028556,3.136173347237454,3.351951438042698,3.5750960728330266,3.8058437810331784,4.04441057744501,4.292313040151337,4.551754877025619,4.825464297339508,5.116727632550867,5.429531003672069,5.768792546381925,6.140704412835845,6.553233815013549,7.016872035262723,7.545787052835225,8.159659326479009,8.886724593362139,9.769057588887131,10.872263914651132,12.304445340626275,14.256197882393419,17.091926258712547,21.26865052707187,27.090959368498247,34.88691298014742,44.977268366367554,57.66251499275724,73.21321566259792
G_Om,0.0,0.0,0.0,0.0,0.0,0.0,0.0,0.0,0.0,0.0,0.0,0.0,0.0,0.0,0.0,0.0,0.0,0.0,0.0,0.0,0.0,0.0,0.0,0.0,0.0,0.0,0.0,0.0,0.0,0.0,0.0,0.0,0.10182662755798237,0.23979014695368067,0.3920197623965726,0.5514509474881886,0.7160325410985091,0.8854000729598329,1.0597402599931225,1.2394029227497287,1.4247693079983652,1.6162087225318953,1.8140655844491091,2.018656850353965,2.230272857669397,2.4491791667393503,2.6756185742505636,2.9098130250185203,3.1519653433334063,3.4022607720627587,3.664166734210828,3.9409176323370403,4.236028427810341,4.553622635367906,4.8987360603538725,5.277684860446709,5.698572212516725,6.1720279182801026,6.712329365636485,7.339159579193975,8.080467736944687,8.977322493686836,10.092557082174622,11.527073403297132,13.45271747958899,16.183826695044136,20.34551882319124,26.53373692961086,34.82442263063781,45.58084339762118,59.11280144569774,75.69038493234177,95.53926666735892,118.83808782367286
beta,1.0,1.000000000000011,1.0,0.9763151600949193,0.9459486441896278,0.9149578554939298,0.885220701742509,0.8572420204362773,0.8310927921185475,0.8067092585420244,0.7839882553959144,0.7628181226265228,0.7430889426850729,0.7246959721996715,0.7075407454998535,0.6915313339284441,0.6765822711863146,0.6626143311647447,0.6495542337226134,0.6373343138574419,0.6258921739364712,0.6151703314382413,0.6051158706803816,0.5956801044261784,0.5868182494022728,0.5784891183565491,0.5706548302151283,0.5632805390861211,0.5563341822527024,0.5497862468574862,0.5436095546691153,0.5377790641122956,0.5322627013875226,0.5270521797798098,0.5221251621929299,0.5174625912052637,0.5130473678686431,0.5088638442147607,0.504897588236283,0.5011352446215441,0.49756443271663714,0.4941736618707564,0.4909522571072258,0.48789029234478093,0.48497852986010725,0.4822083652088385,0.47957177703073917,0.4770612812636507,0.47466988935055016,0.4923576547051587,0.5120674333759977,0.5341771577246681,0.5591576549923408,0.5876074596301374,0.6203008981144085,0.6582574629791906,0.702845167361245,0.7559391359420542,0.8201725512414564,0.899347341371203,0.999131878468035,1.1282958741748337,1.3009923481996002,1.5411439357203898,1.8910073173957593,2.426438318338805,2.6233651469224273,2.1847506422565073,1.8717933383696554,1.6270595137091244,1.4328687138344225,1.2771558558624634,1.1509516840980327,1.047555743166316
