series,2021-11-15,2021-11-16,2021-11-17,2021-11-18,2021-11-19,2021-11-20,2021-11-21,2021-11-22,2021-11-23,2021-11-24,2021-11-25,2021-11-26,2021-11-27,2021-11-28,2021-11-29,2021-11-30,2021-12-01,2021-12-02,2021-12-03,2021-12-04,2021-12-05,2021-12-06,2021-12-07,2021-12-08,2021-12-09,2021-12-10,2021-12-11,2021-12-12,2021-12-13,2021-12-14,2021-12-15,2021-12-16,2021-12-17,2021-12-18,2021-12-19,2021-12-20,2021-12-21,2021-12-22,2021-12-23,2021-12-24,2021-12-25,2021-12-26,2021-12-27,2021-12-28,2021-12-29,2021-12-30,2021-12-31,2022-01-01,2022-01-02,2022-01-03,2022-01-04,2022-01-05,2022-01-06,2022-01-07,2022-01-08,2022-01-09,2022-01-10,2022-01-11,2022-01-12,2022-01-13,2022-01-14,2022-01-15,2022-01-16,2022-01-17,2022-01-18,2022-01-19,2022-01-20,2022-01-21,2022-01-22
S,27648.91364401814,19727.841677280023,18437.96580137631,17470.947890653762,16711.425460883485,16099.64020678011,15598.967646777926,15184.659336533921,14838.941486719974,14548.527568470785,14303.20717448086,14094.976086704395,13917.465375979078,13765.548533590312,13635.061073780575,13522.594625948,13425.342264606998,13340.980180517041,13267.57578430438,13203.515442591406,13147.447055745935,13098.23402534318,13054.918075566056,13016.689034012572,12982.860135271434,12952.847743459743,12926.154635745179,12902.356173090848,12881.088824333401,12862.040617182956,12844.943173215846,12829.35439776958,12815.302470229319,12802.608823105416,12791.119872073588,25879.2054815002,38948.46496153123,51996.505795527046,65022.206662526,78023.54186769796,90996.18680990703,103932.64169550521,116821.41304838352,129645.81964210099,142382.07708345185,154996.35067350115,167440.42580380506,179645.572375105,191514.16788288363,202908.85104927598,213639.65618723384,223451.04558583174,232013.17043169844,238924.48983772338,234051.4544477895,223844.533689027,211830.11963638448,198195.79822855737,183337.23260152197,167745.84381566633,151937.386306099,136391.49509935826,121509.46281258794,107592.37949588972,94837.19478064937,83345.74147716672,73141.2257634677,64187.4761664651,56407.617266231726
E,0.0,7921.071966738118,6834.626252620389,5751.256287556826,4785.401831060055,3961.5665358454135,3273.769135093973,2705.9467048097845,2239.880543180799,1858.3302984757465,1546.1516029229492,1290.5372098225275,1080.886757601088,908.5375727095271,766.4637607064064,648.9910803270564,551.5461175699423,470.44436638891693,402.71545268490434,345.9611585924068,298.24119786015524,257.98186890486676,223.90325801052893,194.96132216085385,170.30182425373712,149.2236687893062,131.14967586707877,115.60323576128604,102.18961379034735,90.58093680368856,80.5040997296923,71.73099361848895,64.07017074265471,57.36146625213506,51.46999049337384,46.281873691654084,61.193836988799475,92.5043514939094,136.3449802944938,190.854802501907,256.92728279807847,338.207469030728,441.0001529768416,574.5173991701789,751.6643026417714,990.4377970472015,1315.979552473675,1763.301769089629,2380.5890989317004,3232.6444215632237,4403.348357666044,5994.866960874172,8120.0180916008285,10883.687552632517,14351.328475577662,18010.103691798824,21552.509400147508,24720.135906904834,27211.218795036024,28803.153963665987,29394.489387010588,29008.675574994282,27770.91355015051,25870.945184176242,23523.874443562636,20937.54903296254,18290.59081061008,15721.403834465782,13326.135891743425
I,2764.8913644018135,2543.7000552496684,2577.836209831839,2576.6481006239037,2543.0539412006956,2483.1716808364417,2403.3649424448886,2309.308821102117,2205.742516558241,2096.4795315290057,1984.5110779609577,1872.1347398117694,1761.0800769215036,1652.6202734958158,1547.6667787974363,1446.8473493148335,1350.569293779459,1259.0701338042004,1172.4578540915318,1090.7426893447564,1013.8621089549481,941.7003761743571,874.1038021475545,810.8925957160659,751.8700277236062,696.8294802333298,645.5598318783426,597.8495356040875,553.4896698285992,512.2761846560217,474.0115179876506,438.50571954052936,405.5771917858417,375.05312156525395,346.7697158275977,320.57223827619106,296.3149154248454,274.4455373005218,255.2650248612973,238.9341722812283,225.54508257378725,215.20929445182662,208.1387749666023,204.7176775585794,205.5757853289984,211.67965158193164,224.45841336679314,245.98112687165994,279.201689794616,328.28322757899775,398.99990201957456,499.18036058798987,639.0919405671758,831.5651280698264,1091.550544403216,1434.7663551182884,1860.2881574627897,2358.0403868701915,2911.0012331277217,3494.4576983285842,4078.9957013722765,4634.510726872812,5134.010135972816,5556.4167315995055,5888.031748596832,6122.705442015964,6261.015477643562,6308.85196375038,6275.785921684323
A,24884.02227961633,19907.217823693063,18064.463689973745,16296.9200401865,14590.37522978954,12964.358678217848,11441.109907252541,10036.805592277404,8760.050084120565,7612.807813955268,6591.995431752667,5691.057278191329,4901.290869205145,4212.872119916411,3615.602840564701,3099.427487842491,2654.7695819622977,2272.7331173137222,1945.2064727759853,1664.8983504457126,1425.32819317652,1220.7876779634578,1046.2852469750803,897.482077242907,770.6252187777563,662.481667570714,570.2757246296839,491.6309921878583,424.5176674058339,367.2053296480609,318.22111665544463,276.3130002513726,240.4177684780901,209.63316088298885,183.19412459446755,160.452197108785,140.8578635837746,129.20862685399553,128.34307638655196,139.48760578875488,163.12088130651878,199.8670714006962,251.20967375885357,320.03778031083004,411.14992202461235,531.8692993329681,692.913644669119,909.6453949031875,1203.8077935767499,1605.805291572959,2157.4582270804376,2914.8706382341816,3950.510590023372,5352.813356750921,7220.846324611517,9651.535748095182,12583.956595261827,15886.342814249288,19383.51094626374,22853.837831670717,26059.92183552639,28784.44960291397,30859.902087579634,32186.06832860435,32734.009862611063,32538.653989850765,31684.0614307805,30285.70866348912,28473.345966097055
IH,0.0,110.59565457607255,205.6521284874047,296.322709728918,381.4597937349277,460.1019396559084,531.5905960548196,595.5616016979858,651.8998325267889,700.6866979894708,742.1512220097144,776.6282200245009,804.52415300814,826.2900716343522,842.4006633760389,853.338352976235,859.5814865979314,861.5957606860009,859.828195846585,854.7030853418655,846.6194601953497,835.9497070570183,823.0390520607097,808.205686071669,791.7413563482503,773.9122889776665,754.9603374689705,735.1042772650793,714.5411850407673,693.4478565934156,671.9822287936121,650.2847801458698,628.4798915699425,606.6771544863636,584.9726170216543,563.4499642420491,542.1816284437309,521.2298285078172,500.6709303978589,480.58871643576526,461.06833150782325,442.19345297707855,424.0471569029838,406.7159715564728,390.2965560014024,374.9049123230163,360.6886860973549,347.8437551693358,336.6369081518148,327.4369476695849,320.7568871683819,317.30966697378005,318.07823725408673,324.3967688180933,338.03192865961375,361.2415174251965,396.7754554165714,447.1803044336957,514.4455253947316,599.7593355878387,703.249539961653,823.8596474537678,959.3929087878854,1106.7057822212178,1262.0018363651518,1421.1663901852207,1580.0877293264318,1734.9260230454026,1882.3093717436836
IN,110.59565457607255,208.3555741558297,285.9218221628987,355.8511752767126,417.6170011966616,470.8705171257768,515.548137979964,551.8482032784518,580.1730370529444,601.0678375859319,615.1670675394703,623.1512022978383,625.7136446100557,623.5365032748401,617.2736488914406,607.5395217882015,594.9023605900186,579.8807464791506,562.9425749547615,544.50575693841,524.940109985661,504.570029391102,483.6776316517635,462.50614326132927,441.26337019297176,420.12513128611585,399.23857512292113,378.72532736200026,358.6844359021873,339.19509627691997,320.3191505878091,302.1033610563445,284.5814646678654,267.7760189910249,251.70005103604674,236.3585241759094,221.74963628250697,207.8659634433282,194.71885496644958,182.33037979723397,170.726477325544,159.93376053541357,149.9802152556633,140.89905796102948,132.73501615881,125.55281760451027,119.4483398805479,114.56349849621812,111.10650049006223,109.37954429338987,109.8162801962176,113.0309954946512,119.87982918160111,131.53025022402917,149.52745054998712,175.8353119181757,212.8185145333539,262.53031763450736,326.382656548931,404.94272493885876,497.72336803675483,603.1174070280354,718.5000117042337,840.4712841755265,965.182830920525,1088.6849524794336,1207.2403618325961,1317.5686282357246,1417.005652166204
D,820.0,820.0,820.8850432448248,822.5307772277675,824.9021037824958,827.9547410213772,831.6367131131757,835.8907741597346,840.6567640576227,845.8736014215486,851.4808563464487,857.4199316943542,863.6349096924298,870.0731252773697,876.6855229250804,883.4268458044901,890.2556976951593,897.1345103483882,904.029442257674,910.9102292050538,917.7500023852241,924.5250862441272,931.2147852569872,937.8011665759058,944.2688436797541,950.604764758846,956.7980084814146,962.8395889517217,968.7222710275155,974.440396675341,979.9897226725404,985.3672696884323,990.5711825734963,995.6006015382321,1000.4555437999862,1005.1367952025577,1009.6458112806372,1013.9846272093607,1018.155776071315,1022.1624020687588,1026.008319873133,1029.6980255290002,1033.2366847101705,1036.6301279077604,1039.8848780565636,1043.0082316068592,1046.008413317208,1048.8948294819193,1051.6784539104485,1054.372395391789,1056.9927140630052,1059.5595754583067,1062.0988504266522,1064.644275889222,1067.2402654874209,1069.9453706395366,1072.8362108445424,1076.0114118763986,1079.5899784048472,1083.7068357879534,1088.5064181089529,1094.134182211937,1100.7271303567597,1108.4046852870176,1117.2611135103325,1127.3603005399934,1138.7332040977951,1151.3778778549286,1165.2616471843198
R,0.0,4989.640190919581,9001.07199491494,12657.945961357966,15974.187580964492,18960.75864312948,21632.435863895065,24008.401908752952,26111.078678395417,27964.649593184593,29593.758509599287,31022.51827406564,32273.82715559491,33368.94474271373,34327.26865357068,35166.257678611044,35901.45613981054,36546.58412707494,37113.66716569653,37613.18623015274,38054.23481430856,38444.67417153426,38791.28109094368,39099.88491757106,39375.49216636485,39622.39819753663,39844.28615341876,40044.31381238947,40225.1892752837,40389.23652477595,40538.451932969765,40674.55276890318,40799.01869859603,40913.127191430205,41017.983636489946,41114.546966912225,41203.65139300971,41286.02481580683,41363.35704188655,41437.910922286625,41512.20154682213,41588.84721935435,41670.59855936331,41760.51049555596,41862.2241730313,41980.35070894493,42120.97946317735,42292.36222132816,42505.85001105367,42777.18068015016,43128.22740259823,43589.304683676746,44202.05656123502,45022.771656416066,46125.63118824615,47604.90194143483,49574.582418651764,52136.90493715102,55368.12060454657,59309.71215648341,63958.96590889113,69265.6380215198,75135.77998609727,81441.51951365615,88034.38248879275,94759.46113879405,101468.15872007332,108028.04101056169,114329.18675840137
G,65384.0,65384.0,65621.63215900214,65826.67094658075,65999.20863520745,66142.77069013927,66261.61768621462,66359.83076026745,66441.00916141173,66508.20557770715,66563.95548666143,66610.34003474913,66649.05615104378,66681.48275377184,66708.73888095313,66731.73279377432,66751.20252618412,66767.74890971121,66781.8622407029,66793.94370428345,66804.32253904121,66813.26977497702,66821.00923104417,66827.72632878448,66833.5751684493,66838.68422317693,66843.1609332406,66847.09542351661,66850.56352058945,66853.62920900318,66856.3466371073,66858.76176009917,66860.91368990773,66862.83579503,66864.55663901758,66866.10073873239,66867.48919494313,66869.32501005281,66872.10014059763,66876.19049000645,66881.9161340815,66889.62395256545,66899.77017663636,66913.00018122567,66930.23570320079,66952.78563228004,66982.49876619145,67021.97815276566,67074.87720583835,67146.29487880632,67243.27421145319,67375.37466218317,67555.22067100942,67798.82121375743,68125.3318403364,68555.87169460373,69096.1748053577,69742.75008736213,70484.35416456929,71300.69072842036,72164.78534733034,73046.62002894066,73916.88029619049,74750.007702695,75526.13605822029,76231.85229152716,76859.97876251604,77408.69648683433,77880.33860186834
H,252287.37078535603,252287.37078535603,252287.37078535606,252287.37078535603,252287.37078535603,252287.37078535603,252287.37078535603,252287.37078535603,252287.37078535603,252287.37078535606,252287.37078535603,252287.37078535603,252287.37078535603,252287.37078535603,252287.37078535603,252287.37078535603,252287.37078535606,252287.370785356,252287.37078535603,252287.37078535603,252287.37078535603,252287.37078535598,252287.37078535603,252287.37078535603,252287.37078535603,252287.370785356,252287.37078535603,252287.37078535603,252287.37078535603,252287.37078535603,252287.370785356,252287.370785356,252287.37078535603,252287.37078535603,252287.370785356,239188.86806925118,226090.36535314634,212991.8626370415,199893.35992093664,186794.8572048318,173696.35448872694,160597.8517726221,147499.34905651727,134400.84634041242,121302.34362430756,108203.8409082027,95105.33819209786,82006.83547599302,68908.33275988817,55809.830043783324,42711.327327678475,29612.82461157363,16514.321895468784,3415.819179363933,3.986144747614162e-12,3.986144747614162e-12,3.986144747614162e-12,3.986144747614162e-12,3.986144747614162e-12,3.986144747614162e-12,3.986144747614162e-12,3.986144747614162e-12,3.986144747614162e-12,3.986144747614162e-12,3.986144747614162e-12,3.986144747614162e-12,3.986144747614162e-12,3.986144747614162e-12,3.986144747614162e-12
S0,9677.119775406349,5299.224454046274,4656.347555868912,4185.694018633091,3823.4368593725794,3536.6395031488,3305.298896225686,3116.087761761951,2959.6038750127645,2828.958971369698,2718.9712704163626,2625.665588358065,2545.9456598436022,2477.370084517919,2417.9941626895848,2366.25543730818,2320.8891979727564,2280.8650689687256,2245.3387533763757,2213.614867790414,2185.118017450283,2159.3700761527434,2135.972193623043,2114.590442958771,2094.944297577222,2076.7973264599686,2059.94964194769,2044.2317417415293,2029.4994669529187,2015.6298585308684,2002.5177404665124,1990.0279530915648,1978.1320386226234,1966.7618835549995,1955.8589109663433,5991.670626789216,9988.948432090072,13946.501451044624,17863.92847890107,21740.457201554837,25574.20840178419,29361.75155256118,33097.715730346754,36774.23741755719,40380.07928566853,43899.2837566358,47309.22173334664,50577.885887959164,53660.311061627894,56494.16462707492,58994.95942224019,61052.13469404593,62528.43610159977,63266.19698081893,60311.162192773794,55650.57351994122,50404.31704086322,44737.01721681191,38893.336940675945,33133.10430602677,27689.580380641866,22740.58076382603,18395.424657521588,14696.444332796753,11630.702976199187,9146.567458931211,7170.505464986947,5621.100112829861,4419.002153613859
E0,0.0,4365.945178517073,3682.2151076423966,3033.0811715306227,2471.599875865728,2004.1393666688737,1622.2960961220238,1313.5599553999516,1065.2827865307124,866.1218061445826,706.449303498723,578.3336468176313,475.35496224280934,392.37329387330504,325.3009981280835,270.9001270273968,226.6109397432587,190.4110057642078,160.70159538787868,136.21719673318404,115.95404174382477,99.11395169630796,85.06036660446776,73.28397758582258,63.37588164738739,55.00660535667944,47.90969614732976,41.86886427537999,36.70788435681745,32.282643037146535,28.474857927733797,25.18710048628174,22.338679003037534,19.862892786501614,17.704210427942815,15.816254964023937,23.865563250024458,40.23156460719577,62.99139924714191,91.1530140958389,125.09843389098216,166.60209897019618,218.77857173860406,286.18833147351813,375.2052905671312,494.67943340480156,656.9042751517323,878.8799450902276,1183.7938021301636,1602.457316064702,2174.0724009414153,2945.1279741225526,3964.60511616891,5273.548238478533,6888.417666857874,8536.87664981482,10052.60317487874,11303.852928400724,12152.440410159934,12514.312083760982,12376.48025695883,11791.761035184425,10859.23789308002,9699.28218360011,8430.719715664034,7154.697955558706,5946.53349640148,4854.416167856636,3902.693925591956
I0,2764.8913644018135,2543.7000552496684,2471.182406185207,2383.9542669196626,2284.2303607120084,2175.6399281310196,2061.7129148806043,1945.4447645738167,1829.2159820699098,1714.8371871002385,1603.6338663165568,1496.536636116194,1394.1637146314274,1296.8912663281974,1204.9111638381407,1118.277300674932,1036.9421204317593,960.7850789895164,889.6346028432813,823.2848824774552,761.5086077812543,704.0665404110688,650.7146357290725,601.2092758688807,555.3110531269449,512.7874453262109,473.4146478608144,436.9787669163691,403.276531491321,372.1156455027199,343.3148731536167,316.7039290391594,292.1232277306151,269.423529882257,248.4655342752715,229.11941784608806,211.26435206732174,195.07917079943672,180.67978407369765,168.11514332521608,157.40052228207395,148.56143351623749,141.67458180404438,136.90397241187895,134.53730456313417,135.03047891509738,139.06842360403363,147.6500779702629,162.2044700853487,184.7419265424257,218.03629190097269,265.8155605771373,332.9041549546429,425.2099760433387,549.3996251142275,712.1001851108256,911.238469796404,1139.917487459054,1387.8396763143512,1641.385714514001,1885.5042198657102,2105.958289985218,2291.2344578419334,2433.7128380069794,2529.994276474424,2580.516325826391,2588.7159584270407,2560.0146866449218,2500.845996749027
A0,24884.02227961633,19907.217823693063,17104.57945715406,14677.861644786695,12561.221232142623,10716.308952197845,9114.164790758872,7729.351778560044,6538.142610806022,5518.14044100811,4648.365240465526,3909.433504317076,3283.6968880944214,2755.303350281096,2310.183469570669,1935.9780451511176,1621.9254704182913,1358.7253300653128,1138.3912356085864,954.1024192415964,800.0605785112368,671.3560540798221,563.8456102218609,474.04278716069496,399.02090367672804,336.32821098617706,283.9143522352451,240.06709974797508,203.35827315273266,172.59774729852683,146.79451145885102,125.12382080756893,106.89957377735121,91.5511023527011,78.60386293451631,67.66322716315761,58.400970570812554,53.16447853415664,53.394105271268174,59.72296201374286,72.38968341687078,91.68832388406182,118.33322582920242,153.73679503278504,200.26028552407791,261.51365687238774,342.77437251720664,451.58365230473305,598.5645070181479,798.4759321896624,1071.4442210891993,1444.1549251255417,1950.5084931135225,2630.8501758564234,3528.538165074343,4682.7033021111,6051.119337138882,7555.098326928366,9096.118952210889,10558.054072511894,11825.307520624981,12801.89568587887,13425.29202820289,13672.227853693917,13556.588472527164,13121.56510125102,12429.020529001667,11548.780467229733,10549.716739105079
IH0,0.0,110.59565457607255,205.6521284874047,292.05655758305284,369.74400939330025,438.74206908159636,499.2218224092369,551.4852015172594,595.935688055697,633.0475714371124,663.3388692473652,687.3492761737303,705.6230576338089,718.6962772954415,727.087611172342,731.2920279810252,731.776704372862,728.978648480636,723.3036057394162,715.1259092431851,704.7890108905617,692.6064898104684,678.8633826680608,663.8177183587849,647.7021691692535,630.7257533712125,613.0755418155564,594.9183345516144,576.4022837323338,557.6584468073474,538.802259825192,519.9349250088949,501.14470998131924,482.508158364966,464.09121297938674,445.9502547619209,428.1330604302471,410.67968285733474,393.6349048938672,377.0454362304148,360.95711847121737,345.4136305489819,330.4570291298707,316.12989445600726,302.4787906864072,289.55897261059243,277.4405878842031,266.2169370436118,256.0156331019703,247.0137290412204,239.45797841526274,233.6911588744412,230.18442827549546,229.57341422759265,232.69160208687845,240.58871169447065,254.51603349664035,275.56622186073963,304.4899410435315,341.580534308886,386.5688234764299,438.599861553532,496.30095354238534,557.9219199079803,621.5136793332241,685.1091124170724,746.8776213222445,805.2368464055535,858.91702830482
IN0,110.59565457607255,208.3555741558297,285.9218221628987,351.5850231308474,406.13822544898244,450.3710252170553,485.1265476104838,511.29126249962565,529.768573779546,541.4522564564488,547.204778771691,547.8415303426692,544.1204912991545,536.7363992995515,526.3184073073733,513.4303236795309,498.5726768986229,482.18600184023086,464.65488312426305,446.3124075278777,427.44477138623444,408.2958626747953,389.07169418951077,369.9446070895245,351.0571958992111,332.5259293100158,314.4444577664697,296.8866104554605,279.9090921936498,263.5538957949098,247.85044854255372,232.81751295663054,218.46486256235394,204.79475315215802,191.80320913731012,179.48114428727285,167.81533399715548,156.7892553690132,146.39545650735224,136.63198678514448,127.49908002259785,118.99755385186317,111.12915151355791,103.89848211879455,97.3161800557666,91.4031534541897,86.19611987190743,81.75493255134626,78.1724557394294,75.58793697865171,74.2048758012636,74.31410736006124,76.32183224790623,80.78008429998488,88.41314432836307,100.12789714311538,116.99105779372474,139.86261089948,169.22685157041457,205.09996514014898,246.9514855980652,293.71045754699986,343.86074461002335,395.6016345624874,447.03661047753866,496.3532990796557,541.9671732934671,582.6150851981907,617.3973483534623
D0,820.0,820.0,820.8850432448248,822.5307772277675,824.867963841351,827.8268453551171,831.3378847892575,835.3329142801183,839.7461821801514,844.5151657092554,849.5811375948671,854.8895160072697,860.390038030894,866.0367962416509,871.7881730723165,877.6067016675906,883.4588761661258,889.3149292941439,895.1485909414519,900.936837981274,906.6596428925609,912.299726632799,917.8423195807613,923.2749331250491,928.587143534043,933.7703890392935,938.8177805439417,943.7239259881824,948.4847681318961,953.0974353246024,957.5601047048617,961.8718771897984,966.0326635687164,970.0430809937845,973.9043591585615,977.6182554649256,981.1869785039803,984.6131192006688,987.8995890036003,991.0496577367617,994.0669690190801,996.9555333175505,999.7197106404266,1002.3641975550107,1004.8940313775778,1007.3146220547247,1009.6318217102606,1011.8520438255722,1013.9824485208702,1016.0312171412559,1018.0079479007502,1019.9242136620787,1021.7943303708221,1023.6363844197809,1025.473548820429,1027.3356665622505,1029.2609810321771,1031.2977490861235,1033.5029715615872,1035.939656497091,1038.6731594146563,1041.766681734219,1045.2765831506626,1049.248238348297,1053.7130161756631,1058.6866879312904,1064.1692830136824,1070.1461814370057,1076.5901003606477
R0,0.0,4989.640190919581,9001.07199491494,12465.96911479403,15457.679944362977,18036.472878678327,20255.039548213168,22160.386416067366,23794.55128722689,25194.952538366262,26394.657809524797,27422.666030013483,28304.222397326004,29061.158986242615,29712.246238889704,30273.540964134772,30758.719553109528,31179.388694650326,31545.36906679243,31864.950007194406,32145.1150112239,32391.739161599944,32609.760378328523,32803.326809096194,32975.922858568694,33130.47636043618,33269.44928985406,33394.91424126069,33508.618689500974,33612.038832781844,33706.42459873602,33792.83718879736,33872.180346324945,33945.22636290034,34012.63767699711,34074.98481908717,34132.761299530226,34186.39595731414,34236.78729370712,34285.12336713977,34332.72108424796,34380.9475125084,34431.23091840105,34485.144847265256,34544.548096074825,34611.775391544936,34689.888779885754,34783.01374432336,34896.79585708019,35039.02277029179,35220.45939189697,35455.93246168758,35765.657580561216,36176.702319527154,36724.30074049359,37452.48636335343,38413.27924166181,39650.443677149495,41192.1635592027,43047.014131979435,45200.362491099906,47614.380800468556,50231.87532037483,52982.89897112707,55792.55005573875,58588.38149892054,61306.270847035485,63894.18819409863,66313.83909849799
G0,65384.0,65384.0,65514.97835535551,65625.44480858478,65716.4372437307,65790.58524000668,65850.70942100674,65899.37830389041,65938.7851025524,65970.74358614832,65996.72724033266,66017.92071943762,66035.27072884215,66049.53137770944,66061.30257652565,66071.06160646949,66079.18861028031,66085.9869384726,66091.69926864553,66096.52031650717,66100.60683240916,66104.08545366148,66107.05887221236,66109.6106832105,66111.80920253808,66113.7104789875,66115.3606771482,66116.79796803262,66118.05403396089,66119.1552704916,66120.12374978271,66120.97799552054,66121.73360853513,66122.40376890522,66122.99965568882,66123.53078200166,66124.00526965059,66124.7212365481,66125.9281834863,66127.81792546372,66130.5525158866,66134.30546890332,66139.30353187243,66145.86688902459,66154.45253896879,66165.70869768581,66180.54908068795,66200.2562089425,66226.62260729521,66262.13642135912,66310.21014084105,66375.43231286929,66463.78615209297,66582.72430557804,66740.9307527324,66947.58328273814,67203.68958223259,67505.26767747896,67844.38326533098,68208.95647763577,68584.3858401486,68955.68024785737,69309.4330789129,69635.2102157053,69926.1886812133,70179.11027268322,70393.75121134998,70572.14721624203,70717.77970127773
H0,88300.57977487461,88101.90347038115,87784.73661788777,87468.71156606337,87153.82420442555,86840.07043728961,86527.44618371536,86215.947377454,85905.56996689516,85596.30991501434,85288.16319932029,84981.12581180273,84675.19375888024,84370.36306134827,84066.62975432741,83763.98988721184,83462.43952361787,83161.97474133284,82862.59163226404,82564.28630238789,82267.05487169929,81970.89347416117,81675.7982576542,81381.76538392664,81088.79102854451,80796.87138084175,80506.00264387073,80216.18103435279,79927.40278262913,79639.66413261167,79352.96134173426,79067.29068090401,78782.64843445276,78499.03090008872,78216.4343888484,73888.55711005868,69590.82686268656,65323.08267739538,61085.164353122156,56876.9124536322,52698.16830408855,48548.77398763621,44428.57234200111,40337.4069561037,36275.1221666872,32241.563054960356,28236.57544325466,24260.005891696055,20311.701694890926,16391.51087862644,12499.282196585089,8634.86512707345,4798.109869765025,988.8673424571742,1.2460532161640003e-12,1.24156742458581e-12,1.237097781857301e-12,1.2326442298426147e-12,1.2282067106151813e-12,1.2237851664569667e-12,1.2193795398577216e-12,1.2149897735142337e-12,1.2106158103295824e-12,1.206257593412396e-12,1.2019150660761114e-12,1.1975881718382373e-12,1.1932768544196197e-12,1.1889810577437091e-12,1.1847007259358317e-12
S1,2764.8913644018144,1421.037280793217,1180.4674402896326,1004.03505959496,868.5204345694153,761.4618297682375,675.1499523379151,604.4306358143971,545.6908404701621,496.3162378869654,454.37103840301586,418.39589015837726,387.2741844332152,360.1405640159332,336.3166960823544,315.26527638972095,296.55655191289964,279.8436218941573,264.84400142248586,251.3257176946022,239.0967278669676,227.99679752994086,217.89121960659924,208.66592171901732,200.22362926821535,192.48083697539593,185.36540363491034,178.8146302367377,172.77371516749122,167.19450519099206,162.034479663281,157.2523683986511,152.81860547191908,148.70301665405694,144.8785573909534,435.26279321149667,712.3365638523435,977.24496361519,1231.0747019915536,1474.7808030348901,1709.1487873576007,1934.7790031235306,2152.075117956413,2361.2221019662056,2562.143848178083,2754.4331917823956,2937.2472251193312,3109.1603511287194,3267.9696997209667,3410.4571333089975,3532.135863772259,3627.054732726352,3687.798936128045,3705.8878825402694,3510.207976472286,3219.5326333379603,2899.6297047545027,2560.0451582219075,2214.6587313894584,1877.9387005349852,1562.6146478517237,1278.127413514065,1029.9900715270135,819.9601316988102,646.7608757609062,507.04570849528164,396.34918595933846,309.8641055597756,242.98151608472728
E1,0.0,1247.4129081477354,1041.0712128737073,844.2350077965226,674.5465930952382,534.4280513128116,421.337589674853,331.2854456862541,260.1790015944592,204.32901409107154,160.60321905373513,126.4293844667481,99.73805040440261,78.88641003089437,62.582086930554404,49.8146407149147,39.79734891925382,31.919329104319743,25.70699222387605,20.79345221117374,16.894492565189083,13.789818669334585,11.308507143451187,9.317752434387312,7.714184028035126,6.41717679067777,5.36370063010083,4.504355765245106,3.8003195492514283,3.220993422088333,2.7421873857473122,2.3447172010136557,2.013306029789693,1.735775509751757,1.502367443019472,1.3052357648611657,1.8430940626297523,2.967839452897661,4.518010931158505,6.40563379204359,8.641688232891669,11.331045729032317,14.663326905289797,18.915054011833952,24.46891681321597,31.85106868574067,41.78595043915713,55.26717538032788,73.63905066113541,98.67267466994547,132.5995988681617,178.03392770228132,237.680263052642,313.722249178487,406.8695347448319,501.02681684406843,586.5718110091041,656.0714835180005,701.8664473524622,719.5069052533738,708.6309055647057,672.5777140196328,617.2179216460133,549.5126930052155,476.22775239180214,403.04712745917635,334.1451857254875,272.14318778528343,218.31653656455921
I1,0.0,0.0,37.42238724443205,65.6607326510887,85.73492427289727,99.11252812392263,107.21636741339316,111.27918571056729,112.31541422430952,111.13555113419854,108.3745774661948,104.52270784051126,99.95377274727281,94.94961243962307,89.72023574538005,84.42007949366628,79.16091235562041,74.02195983474839,69.05778292109811,64.30437005412654,59.783824016131625,55.50795287179677,51.48101120213306,47.70178552026595,44.165175251676295,40.86338675238324,37.78683111591292,34.92479564554291,32.26594266685683,29.798676839985827,27.511412495449612,25.392765117386062,23.431685424025588,21.617549770997233,19.940219054610008,18.39007255353179,16.958023822195084,15.65667473829837,14.49317594282143,13.46926219533047,12.58389023346534,11.836429661774863,11.229446660703843,10.77099073500623,10.476763096560749,10.372689553232368,10.498406449545998,10.912112446757032,11.697158712426305,12.970557535266263,14.893093172543324,17.679633684784708,21.60628082107037,27.008186246964,34.25919882256149,43.724548959101526,55.25738954769545,68.43395271415294,82.6413810025607,97.08606394292971,110.90438598509654,123.29096227322998,133.60501671196056,141.4331530243841,146.60388157258984,149.1624036185367,149.32082515282906,147.39951471236736,143.77184916893648
A1,0.0,0.0,336.8014851998886,550.5304156358119,668.3677846137107,716.8218078266829,717.7530201158054,687.9635653048547,639.8179225791723,582.1026684938419,520.8509685996628,460.0436440242387,402.1708490254129,348.66595282951903,300.2320929719567,257.0828378488151,219.11622327207903,186.03826282586175,157.4488291188557,132.89995119553112,111.9341930534418,94.1088674353545,79.01034498900394,66.26157291993498,55.52505149323255,46.50287088215553,38.93493443920742,32.596146721493156,27.293093433810704,22.86056102534645,19.15811704424101,16.066884229544584,13.486581027909354,11.3328574503707,9.534945347929535,8.033595487958884,6.779290046879622,5.921067434413731,5.538170599813353,5.650399431263478,6.249840668862552,7.333128357970793,8.92588503321536,11.099806291000533,13.986909615995593,17.796135232364787,22.836696731041812,29.551564003405876,38.563388555413226,50.73325452283714,67.228225779155,89.58447231772766,119.73673833379809,159.96306169125182,212.67545663119296,279.995139686059,359.2733522967457,445.79307080985467,533.7737571977439,616.5229465433599,687.4852216530988,741.3185218249496,774.6508002452605,786.369479040632,777.4640103439137,750.5527014209176,709.2648855507117,657.631108586451,599.5835475711873
IH1,0.0,0.0,0.0,1.4968954897772822,4.032755970414735,7.218153294138006,10.745924086272222,14.38440264890728,17.96524983054127,21.370888994350075,24.523277339422535,27.37449324195841,29.899123134043805,32.08824430109979,33.94474750253435,35.479748947085035,36.70986973665444,37.65519606950504,38.33776785983433,38.78047394874523,39.0062578383743,39.03755895837004,38.89593137581262,38.601795224234614,38.17428658892141,37.63117971402735,36.98886167723408,36.26234450898341,35.46530343733247,34.61013277132746,33.70801309567473,32.76898509326954,31.802026560463048,30.815130125782616,29.815379882456607,28.809025740462314,27.801554633611918,26.797758054029735,25.802641662393683,24.82119428031784,23.858172273934052,22.918002497603975,22.004818745521018,21.122607346187948,20.27543541771849,19.467752047992047,18.70477416762584,17.992988513545402,17.340817292732456,16.759507177942577,16.264304859827437,15.875965906828661,15.622584805734979,15.54160027206944,15.681591879409114,16.103153875773376,16.87782350450419,18.066935803642036,19.711164054046414,21.824206324202994,24.387187469816233,27.347829754645538,30.62480308344466,34.11606714913245,37.70921968532927,41.291799676475705,44.75995854841357,48.024615266575935,51.01489333610549
IN1,0.0,0.0,0.0,1.4968954897772822,3.9495950602574412,6.920601909693921,10.081897768871386,13.200447107134071,16.119570247293115,18.741349008560984,21.011649524340434,22.908019947258012,24.4302227768302,25.593001296491735,26.42066129388425,26.943087979317404,27.192875557858407,27.20330609699963,27.006967966619534,26.634849769010305,26.11578310592837,25.476137493855102,24.739694324983308,23.9276451056531,23.058673315866432,22.149090007393557,21.213001425086468,20.262493086336434,19.307819355153914,18.357590966777256,17.41895548065932,16.49776748350869,15.598746697889979,14.725623103954232,13.881268834469138,13.067817118239347,12.286768772617,11.539086972224512,10.82612718071659,10.149373572234602,9.510207458007079,8.90980810374542,8.349192693729043,7.829363005017099,7.351526528583281,6.91737866243771,6.52945506896106,6.191582575262841,5.909471813233353,5.691504685356391,5.549770781809893,5.501387944862797,5.5700820419165735,5.7878693854517085,6.196456540381844,6.847663560846235,7.801905480391773,9.106711677599337,10.78714455497463,12.840843473598245,15.233977351575202,17.902096921386196,20.75601750520531,23.691274157782594,26.598990287479474,29.37606593764103,31.93317498616085,34.199842742974894,36.12658855414353
D1,0.0,0.0,0.0,0.0,0.011978926717459268,0.04425111176237649,0.10201448264321958,0.18800888774359695,0.30312026751756144,0.44688742604705967,0.6179082587628866,0.8141561225095935,1.0332208806790455,1.2724890242368105,1.5292756400024812,1.8009189481375183,2.084846126416491,2.3786173632102416,2.6799535869671014,2.9867521008514943,3.297093376293159,3.6092414904128214,3.9216400921751844,4.232905317262815,4.541816713757353,4.847306966525778,5.148450999068053,5.444454872698369,5.734644782710727,6.0184563605994885,6.295424423487401,6.565173261279893,6.827407514585176,7.081903668950075,7.328502171040989,7.567100158077677,7.79764478227034,8.020127105092374,8.234576531998716,8.44106252631263,8.63969447447087,8.830619825795495,9.014021455571394,9.19011531982827,9.359149275244421,9.521403725666719,9.677194678828894,9.826879891023603,9.970869028744845,10.109639157313673,10.243757343704345,10.37391266674248,10.500960301975237,10.62598025146619,10.750352121114128,10.875844275522647,11.00470998559741,11.139775000016519,11.284355901942456,11.442094763026454,11.61674327390094,11.81190207659687,12.030753459842865,12.275828867163243,12.548843163123331,12.850611711607863,13.181049905679853,13.53924208876121,13.923559732071153
R1,0.0,0.0,0.0,67.36029703997772,177.71869980139212,312.0623743077614,456.60890810081924,601.8937992110536,741.773765427303,872.5513979974761,992.2690660934127,1100.1653918214406,1196.2700397737021,1281.1093435682913,1355.4975533147722,1420.392519330675,1476.798857713542,1525.7054472476218,1568.047286715868,1604.684288768141,1636.3915701095884,1663.8573110195252,1687.6853928860066,1708.4008629257987,1726.4568893800124,1742.2423136293914,1756.0892213325712,1768.2801763430562,1779.0549142318193,1788.616395808423,1797.136189259574,1804.7591928298214,1811.607735950241,1817.7851108639961,1823.3785923464702,1828.4620068116124,1833.0979065417669,1837.339402514071,1841.2697767362554,1844.9885799278877,1848.59975696222,1852.2060800939369,1855.9100176707964,1859.819497634084,1864.0571126005716,1868.7722123569454,1874.1563650883577,1880.4635498861137,1888.0371245276567,1897.3460820498315,1909.0331955924912,1923.9768546690334,1943.365759196169,1968.7797865692537,2002.2601031753434,2046.3376692361496,2103.9768838317386,2177.6231619441387,2268.787250293536,2377.8288321634254,2503.769543053067,2644.3150176051586,2796.0922536561425,2955.039218916566,3116.853884004789,3277.4135724095863,3433.101398868723,3581.010525333034,3719.0273667033052
G1,0.0,0.0,37.42238724443205,68.65452363064327,93.98157386453894,114.21797165739608,130.25081319678043,142.890940887026,152.82950425761362,160.6348743054474,166.76474472817955,171.5828412997916,175.37572283379404,178.3678643459261,180.73445664685295,182.6119192547696,184.10635847621703,185.30027894379464,186.25785881692423,187.0290685836405,187.6528721499757,188.1597069269314,188.57340148701144,188.91265670131497,189.1921892743466,189.42361479518763,189.61613009890797,189.777041117811,189.91217179076835,190.0261813772459,190.12281117990855,190.20507680148097,190.27541831751137,190.33581749840505,190.3878907636976,190.4329617869882,190.47211885993403,190.5274116818129,190.61644686539984,190.7519871933346,190.94415620709592,191.20340685408266,191.54333822595362,191.98323803311231,192.55068965346734,193.28475715786382,194.24028921843603,195.49386773161075,197.1518829930206,199.36105451285465,202.32123475295302,206.29922271899787,211.6402405500663,218.77064844164556,228.18231591700018,240.38840195934515,255.41920646466718,273.0163607949403,292.6985053004803,313.7544987210542,335.33970587865537,356.59863304559656,376.77596446618554,395.2925021155659,411.7778829057224,426.06471547747645,438.1561293012517,448.1804848730163,456.3447805065748
H1,25228.737078535607,23625.360734562244,22255.00182030117,20981.383884961197,19797.600969101797,18697.240381301886,17674.347464783135,16723.392880702857,15839.242228354344,15017.127835352714,14252.622562807286,13541.615481552892,12880.289285793031,12265.099320054069,11692.754104213916,11160.197249599929,10664.590666793896,10203.298972879356,9773.875012456772,9374.046412871723,9001.703099783768,8654.885704480188,8331.774799238583,8030.680901591953,7750.0351925746645,7488.380897950663,7244.365285068075,7016.732231366862,6804.315323707185,6606.031450602708,6420.874852151344,6247.911594970777,6086.274441781261,5935.158087446629,5793.814735297903,5367.608094192847,4962.693602837743,4577.252135840977,4209.622793269882,3858.2895403190423,3521.868948507355,3199.0989492067574,2888.8285174278803,2590.008210347936,2301.681491107732,2022.9767739685212,1753.100132042806,1491.3286135308263,1237.0041167379848,989.5277781474119,748.3548315031932,512.9898992485163,282.98268078213164,57.92400486728927,6.845084499218501e-14,6.804729049950504e-14,6.76564124780493e-14,6.727736360144635e-14,6.690935685734788e-14,6.655166124003769e-14,6.620359775070865e-14,6.586453568343155e-14,6.553388917640911e-14,6.521111400956639e-14,6.489570463088199e-14,6.458719139512156e-14,6.428513799980195e-14,6.398913910429816e-14,6.369881811901136e-14
S2,2764.8913644018144,2408.9703452521826,2371.3800182827435,2338.988842790427,2309.552514223642,2282.4059418331462,2257.2835260070233,2234.010953689533,2212.422228207709,2192.343319821218,2173.5951204274684,2156.000457220019,2139.3903875569167,2123.608597492809,2108.5139385708576,2093.9814848409555,2079.902530208477,2066.1838847441018,2052.7467461943247,2039.5253472512713,2026.4655178688422,2013.523255298781,2000.6633603842392,1987.858174346311,1975.0864334315015,1962.332247395926,1949.5842003657613,1936.8345679889005,1924.0786421340172,1911.3141530833348,1898.5407787591976,1885.7309499772432,1872.9184851433802,1860.105965251085,1847.2969407374533,3906.2575014805557,5955.927682297392,7994.83811190599,10021.768693703176,12035.529524650527,14034.815943387943,16018.112710177791,17983.602746620996,19929.0380099603,21851.53775775943,23747.281414593952,25611.056737495008,27435.612357152895,29210.754712516573,30922.13646046123,32549.72994368975,34066.098694142245,35434.80038492717,36609.552956104366,36089.00665706641,34825.643170809264,33325.6924020529,31591.571856848266,29650.378746323804,27545.780553707547,25332.955758744352,23072.699004640035,20825.493337790063,18646.325742476507,16580.82921345874,14663.052159442233,12914.85402273772,11346.670583716184,9959.234075672164
E2,0.0,436.59451785170734,405.2251714349692,364.8548779815879,323.54757830474074,284.4159500797958,248.64803546110147,216.5887750059823,188.19468062449585,163.24385283749416,141.4389548348678,122.45955793430535,105.9891104066015,91.72859940438633,79.40298990346957,68.76365042705353,59.588528312342916,51.681076940463925,44.868521493228414,38.99981357092617,33.94348601695166,29.58553493446751,25.827403348740017,22.58410764336516,19.782526541536484,17.359858715699747,15.262246447140784,13.443557442576402,11.86431385028846,10.490755968726827,9.29402760399341,8.249470161957074,7.335971591091883,6.535548761750967,5.832820697449162,5.214627190312957,6.569639009998626,9.508274795804743,13.643862222798695,18.790841646168673,25.029408348273776,32.7009470869112,42.396563092308824,54.97871926079807,71.65427343383918,94.10585286876042,124.68611051811357,166.6788007136184,224.62250416918928,304.6662366082337,414.86848425548123,565.2543359731533,767.3261416116932,1032.6576033119675,1370.3373996849327,1737.2767725344777,2109.0204950581874,2463.741939932728,2772.5000141466157,3010.0704365860897,3159.362175394801,3213.2485022878645,3174.3415773361694,3053.268412035071,2866.1014019858108,2631.568472169574,2368.5399023585474,2094.1071172977736,1822.3791911019302
I2,0.0,0.0,13.097835535551217,24.206763835756192,33.21586906834333,40.265026892018085,45.57630324305051,49.389640047439514,51.93613209382382,53.42708194505279,54.05023097457339,53.96938114165355,53.32561738835042,52.239241309480434,50.81195998685359,49.129092885009385,47.26167496702024,45.26839681902891,43.197357381720515,41.08762443597973,38.97060888822914,36.871264757679356,34.80912962509903,32.79922135555331,30.852806876409996,28.978058122543292,27.18060923421082,25.46402788888818,23.830212381054416,22.279724806078715,20.81206950065422,19.425924768721686,18.119334892082662,16.889867248448805,15.73474433142543,14.65094940583487,13.63531226907747,12.741576457851231,12.007498585097274,11.456214564973452,11.103442649160636,10.966049487675997,11.069793941269253,11.456107318736978,12.188980311061961,13.36349008919218,15.117586468119617,17.648762866213453,21.237225858324926,26.27692291473461,33.31475617980285,43.095630213083055,56.605609875231,75.09694533356331,100.06891780623727,133.17352637228626,174.63794743853768,223.93752649520027,279.93478257356605,340.7150003920792,403.75991345829556,466.2399856434759,525.3382418606337,578.5414298318681,623.8561678063708,659.9307164414354,686.0833132912078,702.2528452986676,708.8958311937074
A2,0.0,0.0,117.880519819961,203.7152121434105,261.48298676975713,296.5442355580857,314.0276949680134,318.35712554890813,313.16466969074173,301.3442995212073,285.1512798830893,266.30954171188574,246.11171401177103,225.50643101919923,205.1718666545437,185.57630059757173,167.02722609336183,149.71068351902204,133.72243758914288,119.09245087448598,105.80391036373885,93.80786951556803,83.03439004476066,73.40091093996833,64.81843781568325,57.196032418761455,50.443987788248094,44.475996771326486,39.21055792655682,34.57181108082334,30.489952976214912,26.90134983405015,23.74843681096853,20.979461778369632,18.548167588368468,16.41339565900605,14.538665868589337,13.404735227571098,13.29102237692416,14.316660701694975,16.526855805821523,19.97942489869114,24.812795632418933,31.29730854085853,39.8821010331023,51.25233465361842,66.41044799746005,86.7936082378587,114.43816278296393,152.19860635205225,204.0187689658649,275.22950592167183,372.80227545008887,505.4198785952283,683.1534557704139,916.5138625312629,1202.2758186093192,1531.2561885531659,1890.2152746243694,2260.7472235190817,2621.31679669351,2950.081224711404,3227.6420753868465,3439.185886190243,3575.7311802016634,3634.4323226975,3618.069345643785,3533.961250151836,3392.5779217918675
IH2,0.0,0.0,0.0,0.5239134214220487,1.4604848859601631,2.700753826531891,4.147947300646253,5.720030196088725,7.3495285663224355,8.98229472979866,10.575909282706515,12.098029038504047,13.524819795454032,14.839532824563275,16.03124483312271,17.093761719419014,18.02467693098443,18.824570920986798,19.496336646045005,20.044615983681194,20.475332668446484,20.795308458899033,21.011950527674657,21.132999383797422,21.16632791571954,21.119783344270118,21.001064975960624,20.81763164067338,20.57663358305438,20.28486435797079,19.94872896386234,19.574225041783887,19.166934481026328,18.732023213059254,18.27424730266297,17.797963951319325,17.30714606106143,16.80539934760027,16.298261106299893,15.79244386607926,15.29517945461119,14.813890871942272,14.356226659648634,13.930402943000994,13.545795987552157,13.213774380784784,12.94882194698459,12.770064167339587,12.703369083217236,12.784247867586641,13.061821008545055,13.604113072271737,14.504829018951618,15.891446836925777,17.933821536755744,20.851502395200527,24.916834945835827,30.394773664140406,37.513255922672656,46.44092863184746,57.259646203713174,69.94557983514528,84.3631610262914,100.27234477017132,117.34707975774106,135.20130696223768,153.41825606894216,171.57910272037515,189.2879187705601
IN2,0.0,0.0,0.0,0.5239134214220487,1.4313785674051103,2.5938874905564213,3.9034419060707775,5.273460450776368,6.637008074155035,7.944162001210408,9.159245598227624,10.258232517611633,11.226436988762591,12.056521069740437,12.746810524160026,13.299893710833821,13.72147136215425,14.019423981863719,14.203065085648989,14.282551219913511,14.268422873215078,14.17125364094936,14.001388107480818,13.768751767632208,13.482718877601247,13.152026394224121,12.784724140258808,12.3881530414022,11.968944742393045,11.53303715086143,11.085701504514073,10.631577434518642,10.174713228467573,9.718609100845637,9.266261726247695,8.820208884869215,8.38257315265275,7.955103951209132,7.541497405692349,7.1465309333774965,6.775352920913356,6.433142963106645,6.125154176835721,5.857060356506039,5.635534048125576,5.469033009451257,5.368836477458286,5.350432613138975,5.43541175778982,5.65406674004116,6.048932500732645,6.679483459965232,7.6280876172363765,9.006995933970831,10.965521528327061,13.695619482205686,17.433046528090134,22.39528452127441,28.753588185994573,36.61383717929297,45.99303415076899,56.805477762300384,68.86223173049532,81.88360871921532,95.5218518218498,109.38982953879602,123.09127129023008,136.2486271739063,148.52572121830775
D2,0.0,0.0,0.0,0.0,0.004192624351110744,0.015880174711407895,0.03749299430426857,0.070686999551567,0.1164616197628924,0.1752763230638884,0.2471572600148628,0.33179111931447763,0.42860576286684515,0.5368383190493022,0.6555918843053665,0.7838821412786152,0.9206752042285858,1.0649179289456379,1.2155618163045787,1.371581518105295,1.5319888328363023,1.6958429637532264,1.862257705328255,2.0304061280343344,2.1995232458741953,2.3689070757485453,2.537918432050561,2.705979742979531,2.8725731261233274,3.037237919000814,3.1995678246469903,3.359207802184847,3.515850806942295,3.669234463392966,3.8191377364480337,3.9653776514924015,4.107806102475681,4.246306776550573,4.38079221565928,4.511219274026215,4.637598522980662,4.759998406652191,4.8785467718302025,4.993432672863115,5.104910913754679,5.213311332202519,5.31905474318174,5.422677868670236,5.524870482571808,5.626529368146604,5.728835487304222,5.833362889334948,5.942229991054266,6.0583050845086195,6.185476606097115,6.328992259273913,6.495856693596043,6.695254007493759,6.9384886012266,7.238688947008823,7.610333116271721,8.068554221503309,8.6282946848673,9.303412039745242,10.105842856053204,11.044914473628173,12.126864789642774,13.354596491101569,14.727660617335657
R2,0.0,0.0,0.0,23.5761039639922,64.40745826466251,116.94685972999807,176.6985482837551,240.17489609140645,304.75867179115954,368.5477615029812,430.2102088759508,488.8587427960534,543.9463917581095,595.1817542852622,642.4614247656253,685.816864565539,725.3731661900183,761.3174560716234,793.8750138047477,823.2915047394125,849.8200092163902,873.7117793110925,895.2098631179384,914.5449105579182,931.9326176946252,947.5723830328268,961.6468434323554,974.3220328519567,985.7479674108174,996.0595080103509,1005.3773893458115,1013.8093335156428,1021.4511892260018,1028.3880551187005,1034.6953568661895,1040.439866208055,1045.6806464638141,1050.469919859888,1054.9564523697388,1059.3456133861,1063.8675058666147,1068.762251096516,1074.2825246686548,1080.7096989463846,1088.380304262993,1097.7219651214923,1109.3009168141652,1123.8859518495826,1142.5360978520214,1166.7215158250847,1198.4886459078664,1240.6802097704335,1297.2155741661443,1373.4228768180176,1476.3865363479736,1615.2314464610552,1801.2184770462488,2045.005102537809,2355.451321851073,2738.8010373335765,3197.6381233561547,3730.245677423325,4330.527045594379,4988.476841933121,5691.081924651207,6423.475377577032,7170.155958257694,7916.1105582131795,8647.724061646619
G2,0.0,0.0,13.097835535551217,25.254590678600287,36.20023701804792,45.90666436719014,54.43914286958401,61.89858393341705,68.39624718359651,74.04208760233139,78.93940318745622,83.18257183250225,86.85635857053141,90.03603188272946,92.78788986486104,95.16997956196514,97.23288907477674,99.02054492414702,100.57097723236093,101.91703287715778,103.08702728428557,104.10533186479412,104.99289791282816,105.76772001329036,106.44524324259132,107.03871903883741,107.5595148003084,108.01738219372263,108.42068891699992,108.77661833250858,109.09134101157038,109.37016183969018,109.6176459445489,109.83772509228166,110.03379155513419,110.20877617605767,110.36521499176706,110.56230416206702,110.84755240594116,111.25686827262511,111.82059352201017,112.57147577245838,113.55250418506571,114.82440107783498,116.47376265565892,118.62339085867409,121.4465664447369,125.1871497602803,130.18751378168886,136.92618890676454,146.06617600501156,158.512230532676,175.4698606118706,198.48964486022138,229.4693729595804,270.5794949501284,322.6977981261627,385.9684129779083,459.88067117589014,543.0556716002886,633.3577846978712,728.1386499597153,824.5361050283511,919.7663523484362,1011.3644047094882,1097.3474467690626,1176.2945009341497,1247.350698004906,1310.1739115238393
H2,25228.737078535607,26730.44761892463,28099.75377116807,29354.87588010425,30504.083349505,31555.053855041973,32514.915622098753,33390.2866836059,34187.31133361317,34911.69397690499,35568.73056065751,36163.337760850205,36700.08008380815,37183.19503179565,37616.6164709448,38003.99632992502,38348.72474858782,38653.948787304194,38922.58979980386,39157.35956498168,39360.77526631797,39535.173401227315,39682.72269677081,39805.436102707245,39905.181927788726,39983.694180498955,40042.582171060916,40083.33942748172,40107.35197463314,40115.90602186659,40110.19510141123,40091.32669678619,40060.3283976557,40018.1536149537,39965.686887688535,37831.98691244132,35696.91277832894,33562.417272655905,31430.265994378213,29302.053351114948,27179.217234809516,25063.052483070343,22954.723224674246,20855.274199843607,18765.641138658793,16686.660274290665,14619.077061590076,12563.554165910185,10520.678781825265,8490.969336611033,6474.881628934023,4472.8144491311305,2485.1147237175364,512.0822233164299,6.252776074688882e-13,6.227231724984623e-13,6.201703221472548e-13,6.176199430129814e-13,6.150728506153112e-13,6.125297945501776e-13,6.099914632750591e-13,6.074584885515971e-13,6.049314495700375e-13,6.02410876778233e-13,5.998972554363184e-13,5.973910289166633e-13,5.948926017673069e-13,5.924023425557772e-13,5.899205865089917e-13
S3,8294.674093205442,7511.05894834928,7299.965940928408,7124.756062054517,6974.783663888508,6844.324321113068,6729.65874302848,6628.085074292993,6537.506764549428,6456.232995920498,6382.869185011575,6316.2498913425625,6255.393625191395,6199.470016689918,6147.774598772703,6099.708681203038,6054.762880530878,6012.5034284108415,5972.560680655435,5934.619419521971,5898.410644175452,5863.704610167886,5830.304924134046,5798.043533153808,5766.7764739206805,5736.380267509406,5706.74886260417,5677.791044406788,5649.428238648849,5621.592650564189,5594.225687616686,5567.201309313813,5540.557601362453,5514.254460997859,5488.257550856916,9089.932629216884,12678.509293306706,16253.84680704878,19815.853950191286,23364.28833989041,26898.6317645627,30418.010373400455,33921.11091860842,37406.04772710356,40870.142061818326,44309.574334406294,47718.85726428431,51090.05719159323,54411.667783609126,57667.02801520795,60832.199588773525,63873.31996776534,66743.67528407575,69381.10445500647,69105.63638790978,67594.70175465009,65734.74023476442,63500.514093092184,60897.15860801996,57954.14874505126,54723.101497593365,51273.34999869896,47685.83552140416,44046.1067023985,40437.35625202259,36934.38540993489,33599.17189027802,30478.38133018395,27602.798814507798
E3,0.0,748.447744888641,701.3856026444041,633.8010914436702,562.2825152900335,493.5720235766387,430.41915126660217,373.7564962765946,323.6505183662888,279.7565210971322,241.5483172431171,208.43742434588955,179.83518227772612,155.1842883618418,133.97356032310353,115.74340384426503,100.0861532965909,86.64366126677524,75.10351040986099,65.19464643961425,56.68289435858519,49.3666194346706,43.07267353379242,37.65269416910658,32.97977938212169,28.945535244525992,25.457477634348397,22.436761837362155,19.816209839941926,17.53860424591528,15.555218492582245,13.824554762156467,12.311197749287137,10.985060099079295,9.820475142295587,8.795533973904202,10.038872138999508,12.999219101920856,17.217764246062465,22.492635270006545,28.918699810372654,36.86831464617765,46.974240087775456,60.152596846225464,77.68240219898836,101.34803631124335,133.64999802486307,178.09006801814735,239.53014370600306,324.59840021685847,442.058868655748,602.9614993993886,820.263614853117,1107.5334515208956,1476.4592480929039,1884.8609064161603,2309.758543843097,2729.7997559811,3114.453183190462,3435.0966321085484,3669.700924616803,3805.256956300709,3838.38462420614,3774.488515163984,3625.9098154824405,3409.5520997532267,3144.4242751226748,2849.456933079402,2541.824862884548
I3,0.0,0.0,22.453432346659223,41.6987258382586,57.37686051450802,69.65518713204838,78.88993286878366,85.49131277727903,89.86470264339455,92.38504198291164,93.38693425719268,93.16242903391077,91.96255744157459,90.0006083145804,87.45608830026923,84.4788080459408,81.19280551759348,77.69996567508373,74.08327825908029,70.4097213106497,66.73278299898615,63.09464718982481,59.528073997678945,56.0580082838784,52.70294844624132,49.47610595200567,46.386383533181,43.43919717955697,40.63716426031328,37.980677414686475,35.46838134888902,33.09756739575536,30.86449864695963,28.76467468768147,26.79305251563933,24.944222568657054,23.212550782381616,21.65671288396107,20.31415242630181,19.205553159579537,18.34388796491337,17.74393792203148,17.430472327654293,17.445261744075214,17.85421870993596,18.756353279110733,20.296286106119176,22.682083158375534,26.210218546249912,31.299305373730007,38.53331295033736,48.712413973982805,62.90426583804583,82.47983301659568,109.10744992089488,144.67263137001038,189.64464805289435,243.76583252395568,306.15855860147224,375.0994694090683,448.1444108195993,522.3838856925354,594.7508835261538,662.3223515702456,722.5712188995454,773.542815852055,813.9459535764873,843.1630055440486,861.1936730929067
A3,0.0,0.0,202.08089111993309,351.0388256099356,451.95735517773943,513.3821632705007,543.970176982093,551.3893124276569,542.025703936806,521.0062031083428,492.3392231828999,459.08942420196155,423.5496439349594,387.3952143629536,351.81592934806014,317.6256047656861,285.35120285050044,255.3042236704799,227.63716747841323,202.38768179339306,179.5126999734103,158.91454145554624,140.46062041179806,123.9981181835624,109.36472197250869,96.3963180111798,84.93234892496585,74.81939810124675,65.91344417708518,58.08113199845246,51.2003287451591,45.160171989124485,39.860767377081835,35.212637293972996,31.136076061929806,27.560389137963654,24.423105483325056,22.248979864189913,21.308973048870563,21.695974785533316,23.42979135132842,26.55188202986335,31.195950578358648,37.63980528638629,46.35304537758991,58.05668489579878,73.80931772067473,95.13295364325282,124.19068127950204,164.02568382422248,218.8621151179298,294.4455866313958,398.35607414295157,540.1560353247029,731.1588601704041,983.5710851214074,1295.769312829489,1660.2502571012274,2065.246139795879,2493.099271298128,2921.9555077078103,3328.383655812785,3690.1263028514195,3988.4648908167933,4209.883811747711,4346.902699578428,4398.1012265961135,4367.475535560013,4263.333800379449
IH3,0.0,0.0,0.0,0.898137293866369,2.511745032153056,4.654847722685915,7.159416246819917,9.881837080984585,12.703594559729613,15.52955877317138,18.285353174113105,20.91448546525207,23.375563366882787,25.639740261200934,27.688446432273864,29.511415980351565,31.10499656410561,32.470718343719284,33.61409429628304,34.543623428914906,35.26996964269764,35.805291152103884,36.1626979002609,36.3558170250911,36.39844895660255,36.30429907340767,36.086771976531615,35.75881733838304,35.3328179582671,34.82051211590153,34.23294357851648,33.580433704623694,32.87257101801727,32.11821441788251,31.325506784065514,30.50189659592482,29.654165284249245,28.788458610571887,27.912897519643373,27.036609345105017,26.168996526381946,25.319411528799066,24.49723219518045,23.712259739077613,22.975373179583066,22.299429808362092,21.70046939598513,21.19934606184526,20.82397479718788,20.612440576721884,20.617268589196136,20.911164788536976,21.594443003460206,22.804053926248155,24.72350070301342,27.591917100972964,31.709388825107,37.376615890009305,44.86579792604549,54.39756022973446,66.11024501222097,80.03605800136008,96.08887644981266,114.06510799888815,133.6565564218185,154.47258989535953,176.068024770036,197.97296543034201,219.72124197134082
IN3,0.0,0.0,0.0,0.898137293866369,2.4618484860586802,4.471200697305777,6.738480495184936,9.112009561002141,11.474121968395412,13.737023133389597,15.83810549469742,17.735411864932058,19.403536591843604,20.83006384908671,22.012550344870935,22.956016621818158,23.670892964114554,24.171360635489897,24.474030420173225,24.596904843903133,24.558576180382218,24.37761841023575,24.072137171968418,23.65944716771605,23.155851349217034,22.576500483053415,21.93531539607157,21.244957372815794,20.516834868356966,19.761136966894508,18.986885912778682,18.202002616657605,17.41338034136473,16.626962841108703,15.847824021213142,15.080247189305942,14.327802149715835,13.593419032599677,12.882034926206117,12.199511662289435,11.551858098241242,10.944904618528321,10.384396176210018,9.876401736789646,9.42795672394341,9.047916531409735,8.748069197818396,8.544619467862056,8.460214001773549,8.526730052132784,8.789089720786029,9.31036022146908,10.17829609311122,11.513173375949513,13.476147448336524,16.276403367016897,20.174268757520828,25.418628440888092,32.21917496051962,40.726158889653725,51.00345844042482,63.00977195266004,76.59221135248714,91.49295234041678,107.36717160290416,123.80898319353463,140.38142151456168,156.64658765460374,172.19270020195242
D3,0.0,0.0,0.0,0.0,0.0071873560304755585,0.02728763015020086,0.06453811298737147,0.1218314398402724,0.2009109768122212,0.3025716667659045,0.4268471741535145,0.5731759640867062,0.7405444212920236,0.9276076882091259,1.1327900618224727,1.3543672347097089,1.5905327464447239,1.8394509086897595,2.0992982782349414,2.3682955295452857,2.6447313505070067,2.926979767021208,3.213512101267309,3.502904587924675,3.7938425130310707,4.085121600754955,4.375647252745383,4.664432141155229,4.950592568068691,5.233343929091486,5.511995555574005,5.785945156765589,6.054673038728836,6.317736239819711,6.574762691856588,6.825445490165657,7.069537336631483,7.306845201631663,7.53722523708488,7.760598582881725,7.976959420525624,8.18637717467065,8.388996113203095,8.585035550325264,8.774793234585529,8.958653974031977,9.137105467365851,9.310763771772693,9.480411829814933,9.647055974155863,9.812007312991998,9.976997288064274,10.144339171508568,10.317148998252911,10.4996387530214,10.697488906985399,10.918293602573026,11.172048422188318,11.471155304232342,11.830194468386948,12.265511691299764,12.794559835063295,13.435049488549565,14.204002042162085,15.11680963565751,16.18639806425458,17.422567086641017,18.83155387323483,20.41583524833672
R3,0.0,0.0,0.0,40.41617822398662,110.77533512652495,201.5843998273338,305.0241486471475,414.976135446234,526.8303535308374,637.2341444612806,743.8450361719449,845.1110680977935,940.085376175151,1028.2745421389905,1109.5172586362771,1183.8889185719986,1251.6277217310255,1313.078279129299,1368.6492280106095,1418.7819229593465,1463.9277836516535,1504.5323341304804,1541.0243563526399,1573.8089047475787,1603.2631950088826,1629.7345969407183,1653.5401355509823,1674.9670437916245,1694.2740206438998,1711.6929350029473,1727.430783560831,1741.6717633865962,1754.5793602560177,1766.2983845224908,1776.9569059579756,1786.6680695933514,1795.5317697312366,1803.6361768162856,1811.1750749817093,1818.3974398782457,1825.571984633246,1832.9725746638555,1840.8825349409951,1849.6130903012802,1859.532246186164,1871.1033155827852,1884.9355170769081,1901.851998269222,1922.9832843232462,1949.8966120886123,1984.7735542633916,2030.6484856479083,2091.7160401220963,2173.7022981853597,2284.266981287707,2433.3608268448556,2633.4127125685122,2896.5728054107567,3233.535287995207,3652.679415245523,4158.881925501704,4752.663405263696,5429.85509977989,6181.814505941649,6996.114796951714,7857.569823320451,8749.42974628621,9654.58657430461,10556.656051396687
G3,0.0,0.0,22.453432346659223,43.49500042599134,62.509033169301446,79.37750862800245,94.1846693353016,107.09724387329967,118.30993876159751,128.01945431258616,136.41214994550012,143.65859946279363,149.9117221931703,155.30677766150208,159.96230631235733,163.98151312205044,167.4538152373784,170.45639983627612,173.05570967427937,175.3088149865752,177.2646543797636,178.96514121052118,180.4461397935613,181.73831999957505,182.86790082464825,183.8572942061119,184.72566026344768,185.48938459247813,186.162487447599,186.75697374279727,187.28313187017474,187.74978842495221,188.1645250678169,188.5338610002955,188.8634128032679,189.15802705753677,189.4218930767539,189.72305924092387,190.1130358139815,190.62956874136336,191.30434779946356,192.17190879377475,193.27795823316006,194.68718543579334,196.4917633411801,198.82223540714975,201.86267649648704,205.87217643723292,211.21487847777735,218.40078278895743,228.13873479546317,241.4005008551356,259.48934583711724,284.09725428271076,317.3232578283376,361.6170352711247,418.1628624636095,487.45561877890236,569.3496114583354,662.7832069540492,765.8361059173056,875.9271336558097,990.0848423448309,1105.236381071015,1218.4710365259346,1327.2483309904078,1429.5348939830046,1523.8676222366848,1609.351330229067
H3,75686.21123560681,75355.83491672123,75046.08924025956,74755.22604148558,74481.72863256968,74224.19141003047,73981.31188464977,73751.8832811122,73534.78766666967,73328.98957103805,73133.53006243303,72947.52124715869,72770.14116249011,72600.62903475278,72438.28087650836,72282.44539862014,72132.52021470216,71987.94831706282,71848.21480474569,71712.84384565619,71581.3958560493,71453.46488184792,71328.67616737094,71206.6838980806,71087.16910491454,70969.83771865678,70854.41876362631,70740.66268072776,70628.33977062028,70517.23874842026,70407.16540196756,70297.94134625368,70189.4028671395,70081.39984798068,69973.79477323504,66239.0664375048,62515.62411032029,58803.35467851244,55102.17418867165,51412.0249295013,47732.87276201017,44064.70467737012,40407.526563877494,36761.361165941875,33126.24621939327,29502.232748658353,25889.383512516142,22287.77158621127,18697.47906868624,15118.595904599177,11551.218811626863,7995.450304319783,4451.397806481936,919.172844697825,1.0231815394945443e-12,1.0220988077067194e-12,1.0209946887436688e-12,1.0198693796963674e-12,1.0187230865680997e-12,1.0175560233540242e-12,1.0163684111897666e-12,1.0151604775640787e-12,1.0139324555909448e-12,1.012684583336854e-12,1.0114171031992639e-12,1.0101302613325594e-12,1.0088243071180818e-12,1.0074994926750418e-12,1.0061560724093662e-12
S4,4147.337046602721,3087.550648839066,2929.8048460066184,2817.473907580766,2735.13198882934,2674.808610916857,2631.576529178821,2602.0449109750484,2583.71777847991,2574.6760434724065,2573.400560222438,2578.6642596253714,2589.4615189539486,2604.9592708737323,2624.461677665074,2647.3837462061065,2673.2311039819874,2701.584176499215,2732.0856026557576,2764.4300903331473,2798.3561483843914,2833.6392861938266,2870.086377818129,2907.5309618346664,2945.8293010738143,2984.8570651190475,3024.5065271926464,3064.6841887168925,3105.3087614301253,3146.3094498135715,3187.6244867101686,3229.141816988308,3270.8757396289434,3312.7834966474156,3354.827912121922,6456.081930802047,9612.742989984721,12824.074461912462,16089.580837738911,19408.485998567296,22779.381912814602,26199.988056242255,29666.908534850932,33175.27438551374,36718.17413002748,40285.777976082696,43864.04284355976,47432.856587271,50963.46462540906,54415.06481322289,57730.63136875813,60832.43749715188,63618.4597249677,65961.74756325335,65035.441233567224,62554.082610288446,59465.74025394943,55806.649903583115,51681.699575112805,47234.871510345794,42629.13402126771,38026.73791867915,33572.71922434512,29383.54258651915,25541.54546320795,22094.690740363105,19060.34519950566,16431.46003417532,14183.600706353172
E4,0.0,1122.6716173329614,1004.729158024912,875.2841388044228,753.4252685043141,645.0111442072938,551.0682625693926,470.7560324410021,402.57355606484276,344.8791043054659,296.1118082925062,254.877196257953,219.96945226954827,190.36498103909955,165.20412542119544,143.7692583134263,125.46314729849597,109.78929331315022,96.3348331700602,84.75604963750864,74.76628317560456,66.12594417008609,58.63430738007755,52.12279032817221,46.44945265465644,41.49449268172323,37.156555008158996,33.349696440722376,30.000886194048093,27.047940129811572,24.43780831963554,22.125151007080014,20.071016369448465,18.242189095051426,16.61011678266681,15.150221798551819,18.876668527147128,26.797453536090355,37.97394364733222,52.012677697849284,69.23905251555819,90.70506259841063,118.18745115286342,154.28269757780336,202.6534196285967,268.4534057766555,358.9532183398091,484.38577988730776,659.0035982652089,902.249794003484,1239.7490049452374,1703.4892236767964,2330.1429559144663,3156.226010142635,4209.24462619712,5350.062546189296,6494.555375358379,7566.669799072283,8469.95874018655,9124.167905956994,9480.315124475446,9525.831367201654,9281.731533882168,8794.393380371861,8124.915758038549,7338.683378021855,6496.947951001889,5651.280428446688,4840.92137560043
I4,0.0,0.0,33.68014851998883,61.12761137913708,82.49592663293879,98.49901055743311,109.96942403905727,117.70391799301447,122.41028552680338,124.69466936660439,125.06546894644,123.94358567949999,121.67441471287857,118.53954510393473,114.76733092679294,110.54206821528537,106.01178050746533,101.29473248582298,96.48483268635164,91.65609106654532,86.86628527034695,82.15997094398733,77.57095159357092,73.12430468748758,68.83804402233373,64.72448408018673,60.79136013422349,57.04274797373038,53.479819029053616,50.10146009255077,46.90478148904105,43.88553321950683,41.03844509215869,38.357499975869445,35.83616565065143,33.46757590207932,31.244676483869526,29.311402420974378,27.770413833379138,26.687999036128772,26.11333944417395,26.101443864106777,26.734480232930554,28.141345348882012,30.51851864830555,34.15663974529901,39.47771073897475,47.08809043005104,57.85261659226619,72.99451521284115,94.22244781591837,123.87712213900201,165.07162907818574,221.77018742936485,298.7153527392947,401.0954633060647,529.5097026272583,681.985587677829,854.4268346357711,1040.171450070506,1230.6827712435752,1416.6376032783526,1589.081536032134,1740.4069591660282,1865.0062038439016,1959.5531802775458,2022.9494271959977,2056.0219115503746,2061.0785714797453
A4,0.0,0.0,303.1213366798996,513.7739420106459,647.3458710857109,721.3015193647335,751.1942244277561,749.7438104359409,726.8991771078232,690.2142018237661,645.2887196214887,596.1811639361676,545.7617741385815,496.0011714236432,448.1994820194714,403.1646994792999,361.349459328065,322.9546172330459,288.0068029809873,256.4158473407061,228.0168112746922,202.600345477167,179.93428130765685,159.77868803874642,141.89610381960364,126.05823527244016,112.0501012420174,99.67235084581685,88.74229871564852,79.0940782449118,70.57820643097857,63.06077339108445,56.422409484779166,50.55710200757442,45.371072661723424,40.78158966069878,36.71583161416801,34.46936579366413,34.8108050896757,38.10160885652026,44.52471006363551,54.31431223010912,67.94181668565817,86.26406515979966,110.66758047384664,143.25048767879844,187.08280970273574,246.58361671393706,328.0510539407228,440.37181468418464,595.9048961282884,811.4561482378449,1109.107008983011,1516.4242052833147,2065.3203869651634,2788.752358645353,3675.5187743873926,4693.944970856676,5798.1568224348575,6925.414317798255,8003.8567888469925,8962.770514685964,9742.190880893218,10299.82021886276,10614.34238779061,10685.201164902897,10529.60544398822,10177.860301961085,9668.133957249474
IH4,0.0,0.0,0.0,1.3472059407995534,3.7107984530995513,6.786115730956199,10.31548601184427,14.090130254745791,17.945771514498567,21.756384055038218,25.427812966107062,28.891936105056196,32.10158907795056,35.0262769520467,37.64861343576595,39.96139834835418,41.96523899332487,43.666626871153795,45.07639130500638,46.208462737339175,47.07888915526955,47.70505867717686,48.105089588900576,48.29735607976097,48.30012371775334,48.131273474748895,47.80809702368763,47.347149225424936,46.76414632977955,46.073900540868266,45.290283330366556,44.42621129729789,43.493649529116645,42.50362836467319,41.466270073082484,40.39082319242173,39.28570203456122,38.158529638280626,37.02222521565478,35.893032713848314,34.788864781678754,33.72851752975137,32.73185017276295,31.820807072198996,31.021160730141496,30.36498347528488,29.894032702556245,29.664419382993824,29.753113876706895,30.2670230061134,31.355514295550527,33.227264331701534,36.171952150444476,40.586253555257244,47.00141245355703,56.10623235877896,68.75537464448405,85.77575721516433,107.86536644843551,135.51610609316788,168.92363779947283,207.93031830908484,252.01511468595132,300.3303423950454,351.7753011670389,405.0915812340754,458.96386861679565,512.1124932225559,563.3682893608573
IN4,0.0,0.0,0.0,1.3472059407995534,3.635953633957987,6.513801811165355,9.697770199353169,12.971023659913522,16.173762983554887,19.1930469863221,21.953288150513796,24.408007625367276,26.532956953464815,28.320517759969647,29.775219421152038,30.910199796701093,31.74444380726855,32.30065392456647,32.60362835805681,32.679043577705315,32.55255643990101,32.249157171266496,31.792717857820197,31.20569213080345,30.508930751076004,29.721585091429,28.861076395034537,27.943113405985294,26.98174474263355,25.989435397476953,24.97715914730329,23.95450056502908,22.929761837789183,21.910070792958322,20.90148731680665,19.909106696222047,18.937158210365922,17.989098118281674,17.073738946482273,16.20297684418796,15.389978825784489,14.648350998170033,13.99232069533063,13.43775074392214,13.003818802391129,12.715335947021856,12.605859264402739,12.721931288607987,13.128947177836105,13.919305837207819,15.223611391625441,17.22565650829284,20.181531181430714,24.442127228672234,30.47618070457863,38.887728364991524,50.41823597362644,65.74708209526548,85.39589727702764,109.66192025616479,138.5414124959206,171.6896028446888,208.4288065060226,247.80181439562438,288.65820673075297,329.75677472980624,369.8673207481763,407.8584854660489,442.76329383833803
D4,0.0,0.0,0.0,0.0,0.010781034045713338,0.040476749636087994,0.09478273398334311,0.17733255248085492,0.2900890133785816,0.4337002964164049,0.6078060586503325,0.8112924811737762,1.042500596697912,1.2993940042236272,1.5796922666336686,1.8809758127736158,2.2007674519436664,2.5365948533987255,2.8860376347154197,3.246762075277753,3.6165459330268273,3.9932953901410784,4.375055777455106,4.760017417634803,5.146517673048474,5.533040076523195,5.91821125360904,6.300796206706297,6.679692418716636,7.053923142046772,7.422630163970317,7.785066278403496,8.140587644523634,8.488646172284756,8.828782042079045,9.160616437896307,9.483844555279347,9.798228925417284,10.103593082971777,10.399863948776568,10.687098436075697,10.965496804331408,11.235409729139237,11.4973468097331,11.751993255401125,12.00024052023334,12.243236717570683,12.48246412488055,12.719854048446779,12.957953750917204,13.200166018254473,13.451088952086367,13.716990591291868,14.00645713521344,14.331249186759392,14.707378635504012,15.156369530598868,15.7065853605766,16.393007035858627,17.256201112440383,18.340670612824155,19.692484344554746,21.356449572837384,23.373203989649923,25.77660167983535,28.59168835921274,31.8334393021491,35.50630396482519,39.60449122592857
R4,0.0,0.0,0.0,60.62426733597993,163.60614340893594,293.69213058605885,439.06471065017706,590.9706619368935,743.164600419231,891.3637508565952,1032.7763889331823,1165.7170413368692,1289.3029505619468,1403.2201164785668,1507.5461779642985,1602.618412008059,1688.9368410664338,1767.0942499760622,1837.7265703728776,1901.4785064914395,1958.9804401070292,2010.8335854732084,2057.601100258569,2099.803430243563,2137.9166057126326,2172.3725434975167,2203.5606632487898,2231.8303181421456,2257.493683496194,2280.8288531723856,2302.0829720675238,2321.4752903737526,2339.200066838831,2355.429278024673,2370.3151043222056,2383.9922052120305,2396.57977074267,2408.1833593024403,2419.168444091722,2430.0559219546235,2441.441215112092,2453.9588009916392,2468.2925636818095,2485.223361408954,2505.706413906745,2530.9778243387727,2562.697884312167,2603.1469769998794,2655.4976472705634,2724.193699894841,2815.472614937513,2938.0666719017936,3104.1016071893964,3330.1643753162775,3638.4168269415377,4057.4856355393345,4622.695103543456,5367.260190108818,6318.183185204065,7493.388739761447,8898.313825880294,10524.033120759068,12347.430266692047,14333.289975737753,16437.78182744628,18612.62086656645,20809.200769625204,22982.14515861222,25091.940180156773
G4,0.0,0.0,33.68014851998883,63.82202326073619,90.08054742486887,112.68330547999828,132.03363980621708,148.56568768329885,162.6883686565289,174.76557533847418,185.11194846763814,193.99530271641333,201.64161860415192,208.24070217223837,213.95165160341136,218.90777536604722,223.22085311545,226.9847475344049,230.27842633379942,233.16847132890123,235.7111528180265,237.95414131329466,239.93791963839723,241.69694885979956,243.26063256964474,244.65411614928445,245.89895092973615,247.01364757998093,248.0141384732026,248.91416505902404,249.72560326291838,250.45873751250744,251.12249204271984,251.72462253380328,252.27188820665484,252.77019171013484,253.22469836409138,253.7909984199058,254.59492202598852,255.73414033540848,257.29452066634394,259.3716922418107,262.092844119763,265.6384676543489,270.26694858168304,276.3465511705409,284.4001533438406,295.1687498940349,309.7003232906541,329.4704312386104,356.5379250587149,393.73039520707204,444.8350719173759,514.7393605948099,609.426140899089,735.7034796850025,896.2053560706813,1091.0420173314326,1318.042111303601,1572.1408735091973,1845.865910687907,2130.2753644221702,2416.0503054382198,2694.5022514546845,2958.33405286584,3202.0815256069964,3422.242026947652,3617.1504654777086,3786.688878331109
H4,37843.105617803405,38473.82404476679,39101.78933573947,39727.173412741635,40350.13362975401,40970.81470169209,41589.34963010901,42205.860562481095,42820.459589823695,43433.24948704594,44044.32440013793,44653.77048399154,45261.666494384524,45868.08433740528,46473.08957936155,47076.74191999912,47679.09563165429,48280.1999667768,48880.09953608566,49478.834659458546,50076.44169150568,50672.95332363942,51268.39886432148,51862.80449904958,52456.19353153358,53048.586607407866,53640.00192173001,54230.45541142689,54819.96093376629,55408.53043185479,55996.174088091626,56582.90046644136,57168.71664432681,57753.6283348863,58337.64000028614,55861.649515053534,53324.3079989728,50725.755872636786,48066.132591494745,45345.57693026431,42564.22723931136,39722.22167533867,36819.698408536526,33856.79580817529,30833.65260846056,27750.408056324817,24607.202042694178,21404.17521864468,18141.469097747755,14819.226145799264,11437.58985902931,7996.704831800751,4496.716814722153,937.7727640252147,1.0231815394945443e-12,1.0317080523236654e-12,1.0402255423878881e-12,1.048733831460752e-12,1.0572327429582218e-12,1.065722102012956e-12,1.0742017355409061e-12,1.082671472300821e-12,1.0911311429471882e-12,1.0995805800771128e-12,1.1080196182715866e-12,1.1164480941315805e-12,1.1248658463093518e-12,1.1332727155353359e-12,1.1416685446409613e-12
E_Om,0.0,0.0,0.0,0.0,0.0,0.0,0.0,0.0,0.0,0.0,0.0,0.0,0.0,0.0,0.0,0.0,0.0,0.0,0.0,0.0,0.0,0.0,0.0,0.0,0.0,0.0,0.0,0.0,0.0,0.0,0.0,0.2288150551910288,0.3692958394735619,0.4535490696675299,0.5016069197902442,0.5260787424271807,0.8215270237073916,1.3660898883805108,2.1509697376918724,3.2258383577436383,4.724295665932056,6.888338062314189,10.115826094525026,15.053927761684228,22.766942567096738,35.02539519406041,54.797449773970115,87.07644600326776,140.2517629852871,228.31534649674916,374.2507839812885,614.8649994500922,1006.8898252347351,1633.167938038745,2606.1605344732443,3936.6352972315935,5656.312867267356,7760.531788300364,10169.717063549997,12753.067550710359,15346.149008606622,17775.954701641884,19885.576457302017,21553.232219760626,22702.997492837807,23307.097622301793,23381.352055072828,22976.15798637789,22165.440444892116
I_Om,0.0,0.0,0.0,0.0,0.0,0.0,0.0,0.0,0.0,0.0,0.0,0.0,0.0,0.0,0.0,0.0,0.0,0.0,0.0,0.0,0.0,0.0,0.0,0.0,0.0,0.0,0.0,0.0,0.0,0.0,4.0,3.68,3.392464451655731,3.1321461707074794,2.895180949140907,2.6786146808033413,2.4801078686118894,2.30634504983416,2.162820142498843,2.0543236232296915,1.9867528841036253,1.9695415233532974,2.018628343354459,2.160612858721853,2.439381662874631,2.927239406857563,3.74382211013077,5.0882398345394115,7.293474027874289,10.91754899520296,16.893605470489195,26.769640552288713,43.07401929160838,69.83479250532176,113.24304724605835,182.368419500571,285.8780048574731,432.6971504868959,630.8973320969551,885.5170574356987,1197.2677193621532,1561.8707720713796,1970.1997513549256,2409.151064965592,2863.015946361163,3315.064595437404,3749.0723564714654,4150.587129605932,4507.824898828794
A_Om,0.0,0.0,0.0,0.0,0.0,0.0,0.0,0.0,0.0,0.0,0.0,0.0,0.0,0.0,0.0,0.0,0.0,0.0,0.0,0.0,0.0,0.0,0.0,0.0,0.0,0.0,0.0,0.0,0.0,0.0,0.0,0.0,0.06178006490157777,0.14913392857912394,0.24176539167353223,0.3288461816821917,0.4051182058010922,0.5459068610418696,0.8055697586962336,1.2252176361337925,1.8511504654978164,2.756480202199908,4.065035438584758,5.983301396389564,8.851201612766392,13.228035783329233,20.039285329059698,30.82673970221969,48.17203218265806,76.40560175215396,122.76962495584544,199.26341163962425,325.4242791632243,532.199676143958,866.7150841856273,1397.0354116562778,2180.519859577553,3271.6203618242284,4712.63987230048,6515.935504998884,8656.076642690903,11068.321546476513,13654.165006624518,16292.43764877116,18853.322818352295,21212.467577748044,23262.89042021992,24923.2773910456,26142.18456915851
IH_Om,0.0,0.0,0.0,0.0,0.0,0.0,0.0,0.0,0.0,0.0,0.0,0.0,0.0,0.0,0.0,0.0,0.0,0.0,0.0,0.0,0.0,0.0,0.0,0.0,0.0,0.0,0.0,0.0,0.0,0.0,0.0,0.16,0.2975192893799611,0.41521662904389645,0.5153800256821832,0.6000044830979606,0.6708461342576107,0.7294612784000882,0.7775794332389869,0.8170452297059376,0.8497833094334605,0.8778377603703287,0.9035063379951594,0.9295853254699492,0.9597657989906407,0.9992709719866334,1.0559002163183886,1.1417664479872773,1.2762141002523877,1.4907364401563803,1.837242224415119,2.401825128775441,3.3272896631694104,4.84893463247006,7.348944251480262,11.434022374688979,18.03695001825923,28.380754627590203,43.971478942515844,66.54690245653389,97.94120159557644,139.90603267990218,193.9159272104334,260.9911424150008,341.5660617379184,435.42043583417035,541.6781494181553,658.8671098412931,785.026208604062
IN_Om,0.0,0.0,0.0,0.0,0.0,0.0,0.0,0.0,0.0,0.0,0.0,0.0,0.0,0.0,0.0,0.0,0.0,0.0,0.0,0.0,0.0,0.0,0.0,0.0,0.0,0.0,0.0,0.0,0.0,0.0,0.0,0.32,0.5772607903758491,0.7814059507897873,0.9406412660346543,1.0619846167638902,1.1514484387166926,1.2141878959666987,1.255044343007292,1.2785315268471042,1.2888425948743074,1.289944041962979,1.285779032513502,1.2805949413660767,1.2794397217797693,1.288930041175231,1.3184829523914874,1.3823427455628976,1.502964737525486,1.71669567615632,2.0832896132301357,2.701687516394342,3.7356638284864045,5.454164011496417,8.291681253927552,12.932364131934374,20.41572758381339,32.05985669828728,49.42024857545368,74.1957801219679,108.04035612058108,152.3425322667909,208.01536989954877,275.3385916843883,353.88091868656056,442.5107794773313,539.485346481398,642.5956999631666,749.341252487734
D_Om,0.0,0.0,0.0,0.0,0.0,0.0,0.0,0.0,0.0,0.0,0.0,0.0,0.0,0.0,0.0,0.0,0.0,0.0,0.0,0.0,0.0,0.0,0.0,0.0,0.0,0.0,0.0,0.0,0.0,0.0,0.0,0.0,0.0012804021976702271,0.003661304397491392,0.006984081174597819,0.011108416909090353,0.01590996102640671,0.021278416430169343,0.027115940330036878,0.03333853042492668,0.03987694609812329,0.04667734870401131,0.0537022574388618,0.060932579318724166,0.06837159865405991,0.07605213764328701,0.08404881732203545,0.09249867330637629,0.10163567498905776,0.11184859585568832,0.12377823469395907,0.13848079083016943,0.15770142941331727,0.18432811064461435,0.2231317766432015,0.2819418039566472,0.37344272506141174,0.5177836653279564,0.7449010440573687,1.096783408262415,1.6293259092217411,2.4131017202557343,3.5327016684474173,5.084516539469284,7.173101741473224,9.906488842090694,13.390946860544442,17.725733691450365,22.998326787784258
R_Om,0.0,0.0,0.0,0.0,0.0,0.0,0.0,0.0,0.0,0.0,0.0,0.0,0.0,0.0,0.0,0.0,0.0,0.0,0.0,0.0,0.0,0.0,0.0,0.0,0.0,0.0,0.0,0.0,0.0,0.0,0.0,0.0,0.04553951804651948,0.14051277192171904,0.2828292292002649,0.46741160597654907,0.6879362008294596,0.9378176976157273,1.22621587680187,1.573814731874706,2.010141116088246,2.5745695813328586,3.32166474065319,4.331335205933595,5.725426394113797,7.694548083786354,10.542212152059975,14.758529185732469,21.14425680623483,31.020101075750368,46.57872771469741,71.47089811935695,111.76323883080347,177.4563450408667,284.78386912407325,459.4750524762259,740.9833735929285,1180.4037701105306,1839.9387547338156,2790.5110321355714,4105.8031382652025,5854.69973566323,8093.390260239321,10858.546491629533,14162.692364689296,17992.361235083234,22309.072977222757,27052.702893809466,32146.529841607815
G_Om,0.0,0.0,0.0,0.0,0.0,0.0,0.0,0.0,0.0,0.0,0.0,0.0,0.0,0.0,0.0,0.0,0.0,0.0,0.0,0.0,0.0,0.0,0.0,0.0,0.0,0.0,0.0,0.0,0.0,0.0,0.0,0.0,0.006864451655730862,0.017943326839937716,0.03154979892996361,0.04659800652367092,0.06238036879648635,0.08702617950770809,0.1280088761591234,0.19253796828987957,0.2893131190221887,0.4310419890001503,0.637692130869576,0.9411669137053267,1.3927847465558534,2.0757930235687554,3.126554879390568,4.77047837260967,7.382771752707702,11.590324642266314,18.439785037168786,29.667308556607438,48.11325854011021,78.31995329715224,127.31499143831459,205.4998074725119,323.59886638945966,493.2882524074803,726.1042060564912,1031.195717962991,1413.7877444843018,1874.1722147425,2407.4508557917566,3004.018149510817,3650.615116103636,4331.705040888769,5030.917969557824,5732.358531210009,6421.643270801345
beta,17.222323944942715,17.22232394494283,5.553959184766873,5.002092791045115,4.655303363310257,4.414899725607116,4.238591329547335,4.104450209818262,3.9997040537059028,3.9163056306902604,3.848889923568938,3.7937245530273436,3.7481253688970617,3.7101101863904007,3.6781832173230167,3.6511953352767237,3.628250396777363,3.6086406204506054,3.591800903438855,3.5772758294139653,3.5646953930831993,3.5537568421090664,3.5442108960950667,3.5358511522078095,3.5285058473414788,3.522031387764362,3.5163072214674895,3.511231742345049,3.506718995583703,3.5026960110139256,3.4991006327699252,3.495879744150632,3.4929482283807958,3.490309931624399,3.487930080528779,3.4857788864985304,4.685276361821927,5.685999114240364,6.529918291867669,7.24796247849015,7.86306511890658,8.392058341330186,8.8470048494586,9.236139828593664,9.564470317070404,9.834070331816983,10.044127202952211,10.190817851933364,10.267138518317436,10.262902526372011,10.165268920789725,9.960326944885184,9.636273985791274,9.188273107655352,8.623896412774393,7.821151121538997,6.974283556744494,6.185870999293794,5.482530075398506,4.87808387584105,4.372269188931544,3.9563217361554477,3.6178600829560277,3.343998822033301,3.1229302025777423,2.944522195957922,2.8003907000821546,2.6837362434577963,2.5891028198884127
