series,2021-12-01,2021-12-02,2021-12-03,2021-12-04,2021-12-05,2021-12-06,2021-12-07,2021-12-08,2021-12-09,2021-12-10,2021-12-11,2021-12-12,2021-12-13,2021-12-14,2021-12-15,2021-12-16,2021-12-17,2021-12-18,2021-12-19,2021-12-20,2021-12-21,2021-12-22,2021-12-23,2021-12-24,2021-12-25,2021-12-26,2021-12-27,2021-12-28,2021-12-29,2021-12-30,2021-12-31,2022-01-01,2022-01-02,2022-01-03,2022-01-04,2022-01-05,2022-01-06,2022-01-07,2022-01-08,2022-01-09,2022-01-10,2022-01-11,2022-01-12,2022-01-13,2022-01-14,2022-01-15,2022-01-16,2022-01-17
S,18766.47938157448,18721.189169458874,18686.109280931785,18658.097207145882,18633.955320402183,18612.31487656577,18592.541415376014,18574.305931207684,18557.41106506024,18541.71890589927,18527.12039999031,18513.522143699265,18500.840549204142,18488.99917292147,18477.927412157766,18467.55979763259,18457.835547376555,18448.698236845485,18440.095522503983,18431.978892117444,18424.303430678654,18417.027597665885,19150.03038697617,19882.69998180018,20614.984890881322,21346.752211777606,22077.791739326276,22807.794165995318,23536.298308273548,24262.585743629366,24985.46698431582,25702.81311220426,25670.672531500008,25632.553480417213,25585.014530907967,25525.667151890648,25451.937654601024,25361.082479580607,25250.344959960195,25117.190858388873,24959.5879549218,24776.281159032267,24567.006910743778,24332.600155958666,24074.972677691385,23796.97251753505,23502.158314103275,23194.532752929976
E,49.798307831789124,80.1490275978606,89.02498077737256,88.91788750419346,85.16710319594833,80.0634772419486,74.59304924315444,69.17685698010985,63.98941732646044,59.09712171998501,54.51881162350658,50.25246554933435,46.28703655318762,42.60774593554066,39.19847632188843,36.042869828049064,33.12484225216683,30.428829610135644,27.939908631571,25.64385522933908,23.527170363667462,21.57708723605074,19.781566767166446,18.557802932877728,17.74138806734214,17.251892498954557,17.060181701012034,17.174611258526962,17.640261693146584,18.550996858799657,20.081322946493074,22.560386202005272,26.655524927619425,29.94121892000547,33.1059085545072,36.273679761113954,39.41062561697193,42.42428495608847,45.19282833950767,47.58039593324057,49.45242881624292,50.69265496647256,51.219163269228396,50.99588980595272,50.036800390449365,48.40220854287064,46.188843164854106,43.51654355416143
I,202.96593913740713,147.99984998582994,119.7553069873515,103.42736766177528,92.57400297715103,84.36615803755565,77.54686758901394,71.54906936227313,66.11051510961028,61.10446944676294,56.464840064340514,52.15289889984189,48.14242575701756,44.413055535331466,40.94729713942167,37.72920332562321,34.743785394213354,31.97676399713579,29.414470502955115,27.043814141619556,24.852276010171945,22.827912082203706,20.959357145297727,19.235826190355375,17.76281177335815,16.565859094507818,15.640187085947957,14.974759862761546,14.564517299702283,14.418276576509294,14.567226197797993,15.079158952713033,16.08788690168882,17.862300797976502,19.925768711637183,22.148191014620053,24.476822617540687,26.867541804214003,29.266133994690446,31.603764208875717,33.79811680710549,35.75829052329314,37.39262979606054,38.61825645624136,39.37048996492615,39.610221753968766,39.327809826699,38.54297891809508
A,22.551771015267462,19.535366047167642,18.03276366566993,17.096960355857124,16.3451049098115,15.63109702372765,14.906781936240577,14.163217026287093,13.405879330432969,12.64438598414019,11.888422438911702,11.146302299834558,10.424615806347676,9.728303741673772,9.060875371405237,8.424654586780843,7.821009764266146,7.250553078977919,6.713307351486405,6.2088431401362545,5.7363901689891765,5.294927246101365,4.883254413962614,4.500050534185084,4.1567745153344,3.857661254287784,3.603685778398864,3.394754073749452,3.2310415967553703,3.114041128198694,3.047762808322945,3.040649935053148,3.1093315341026764,3.287130975110724,3.527941347688743,3.81553033478621,4.1406346606623865,4.494826497039067,4.868589746313908,5.250656647236356,5.627937195786302,5.98592262111633,6.30951774588724,6.584189094786644,6.797227970007897,6.938886387719798,7.003175366461957,6.988205588115189
IH,0.0,37.18309967756611,63.884056025233974,85.11448751932154,103.11817845737778,118.93385414782287,133.07043937137212,145.80093961116984,157.29144715663887,167.65816849752352,176.99280342834442,185.3739266044939,192.87214621815866,199.5524837855321,205.47550875895104,210.69791442221543,215.27284371580063,219.25010422046168,222.67633510458435,225.59515414998125,228.04729712787454,230.07075453080617,231.70090733927827,232.97066200383563,233.91058418448088,234.5702266149374,235.00327224941614,235.2619327177637,235.3958187705895,235.45306387912004,235.48288292530987,235.5396586051034,235.68958996621032,236.02265598968287,236.67709807165568,237.70230590866558,239.12328729323863,240.95510980455967,243.2045908539189,245.86854019396492,248.93119248278018,252.361877124371,256.11361071853906,260.1231398127892,264.31272937296535,268.5936571921116,272.87102050988096,277.0492028038925
IN,31.22853258859415,57.766380238161794,71.86097296458456,79.49275367526991,83.46596969553,85.17247937499194,85.35979575806394,84.46975374526592,82.79057364008335,80.52683382075293,77.83288432237926,74.82972199158736,71.61421059469063,68.26463020170027,64.8443694229331,61.40460437941352,57.98637061957113,54.62223376747044,51.337670890190935,48.152229200696404,45.08050566248284,42.132978530322724,39.316714452384076,36.63596996782189,34.09270287012542,31.704808067288404,29.49142296963304,27.468074831150837,25.646260641297843,24.034971927363305,22.64320626302546,21.483408433492652,20.57658461680145,19.961174206850185,19.71121459167447,19.81628732342771,20.24752160568311,20.972267773292977,21.955991698160915,23.161004947566575,24.544689068132374,26.058161952968774,27.64589768173861,29.246608398745604,30.795460282946163,32.22740607475061,33.48115166334419,34.50312609932555
D,1473.0,1473.0,1473.0404267692559,1473.109883754135,1473.2024232082715,1473.3145369062347,1473.4438459611554,1473.5885248070263,1473.7470446989678,1473.918057473461,1474.1003413107546,1474.2927740903287,1474.4943191207828,1474.7040164784169,1474.9209769332035,1475.1443771083461,1475.3734552659744,1475.607507447084,1475.8458838452189,1476.0879853616623,1476.3332603204778,1476.5812013350878,1476.8313423235093,1477.0832556712023,1477.3365495406717,1477.590865326481,1477.8458982986613,1478.1014020932334,1478.3571871125337,1478.6131176974432,1478.8691105212408,1479.1251357653507,1479.38122273797,1479.63747272122,1479.8940848255247,1480.1514084621997,1480.4098467407694,1480.6698299601062,1480.9318048010834,1481.1962253567033,1481.4635422514182,1481.7341889690492,1482.0085656472697,1482.287021341754,1482.5698363368053,1482.8572064004738,1483.1492308389163,1483.4459057766815
R,0.0,9.201039142079996,22.15691695806786,37.19648463701678,53.407624606491716,70.24530932308546,87.35474737015657,104.48888820692703,121.46798991724896,138.15835982827983,154.46012000218528,170.29943116788127,185.62307722177087,200.39441594206986,214.590201839472,228.19801853957378,241.21416855054238,253.6419234748885,265.4900671746232,276.77168146443444,287.50313473733553,297.70324141191026,307.39256563281504,316.59284696999697,325.32652933328984,333.61894827996076,341.49947000509235,349.0010673187938,356.1595488541324,363.01298157432075,369.6015631248979,375.96813703282976,382.1596488283712,388.23018737258997,394.24718019125095,400.28133726208466,406.39905131622413,412.66077607999796,419.12052631186856,425.82529455354177,432.81412688263816,440.1168921419352,447.7529082331803,455.72966369912723,464.04190181757866,472.67130805333977,481.5869602199234,490.7465821885725
G,84480.0,84493.44554311458,84515.08578056599,84539.12252537587,84563.13035500201,84586.12547286494,84607.74261172023,84627.8827350159,84646.56048640051,84663.83762907864,84679.79385194303,84694.51393108141,84708.08209677972,84720.57959664908,84732.08368805169,84742.66727665858,84752.39885151217,84761.34255892024,84769.55834291498,84777.10211824552,84784.02595915743,84790.37829515563,84796.20410870937,84801.5451317365,84806.55573852836,84811.34591330658,84816.00392428126,84820.61017334055,84825.24731838035,84830.0101890375,84835.01895818938,84840.44091538493,84846.53221965948,84853.72921138993,84861.81334049834,84870.75193580803,84880.54582934352,84891.18669826012,84902.64125519825,84914.84331884992,84927.6900257519,84941.04218153229,84954.72919837324,84968.55837245591,84982.32726270353,84995.83719880895,85008.90579511551,85021.37678277004
H,7399.357550411247,7399.357550411246,7399.357550411247,7399.357550411247,7399.357550411247,7399.357550411247,7399.357550411245,7399.357550411246,7399.357550411246,7399.357550411247,7399.357550411246,7399.357550411247,7399.357550411247,7399.357550411247,7399.357550411247,7399.357550411247,7399.357550411247,7399.357550411246,7399.357550411247,7399.357550411246,7399.357550411247,7399.357550411246,6868.635455642057,6353.542669941193,5855.951162126212,5378.008700586511,4922.161366065865,4491.159169082398,4088.02856953368,3715.9876552687842,3378.272205744204,3077.8402303824855,3077.7754135528317,3077.7754135528317,3077.775413552831,3077.775413552831,3077.775413552831,3077.775413552831,3077.7754135528317,3077.775413552831,3077.775413552831,3077.7754135528317,3077.775413552831,3077.775413552831,3077.775413552831,3077.7754135528317,3077.7754135528317,3077.775413552831
S0,6568.2677835510685,6528.58223899332,6486.022483589487,6447.395669309375,6411.00414758024,6376.112893932482,6342.377947388383,6309.619400590656,6277.7283681882145,6246.628035974491,6216.257089767496,6186.5625677688495,6157.49672900299,6129.015646231639,6101.078541417598,6073.6474399785775,6046.686960461614,6020.1641605850455,5994.048406063391,5968.31124845147,5942.926306824615,5917.869151750857,6132.6588771374645,6338.412530348162,6534.2836067323415,6719.273194520631,6892.227282075394,7051.831638694814,7196.6102573874805,7324.930092895892,7435.004388702099,7524.851753178592,7484.12123225409,7441.342888506097,7395.160254899185,7344.721683230193,7289.140955333571,7227.497613411137,7158.894973392882,7082.546186278035,6997.873196014578,6904.59994738677,6802.8195826935,6693.019929885139,6576.061594453152,6453.114356444803,6325.565885175363,6194.919766338942
E0,49.798307831789124,59.821924522351395,60.07755890610609,56.78422434635142,52.459202280213766,48.06860981740921,43.94888910741721,40.18764571370773,36.78045685952175,33.69400294376759,30.890206601275843,28.334443366124088,25.997509666290213,23.855353302116804,21.888168256714422,20.07945151674544,18.4152110821118,16.883356947277107,15.473253058708888,14.175395447157612,12.981183738985953,11.88275950346383,10.87289140795024,10.179068747214547,9.708987785923771,9.416735820041787,9.284529187653225,9.314788474517563,9.529241246277778,9.974737253082429,10.7391735155156,11.98869327496285,14.059948567992206,15.70834566292058,17.2896731364084,18.865535118772552,20.416200216357502,21.892569526560113,23.231466550805244,24.363690173988427,25.221971932706467,25.749638712724735,25.90862632026998,25.68497223014363,25.090463062078715,24.160248034797338,22.94733917769105,21.515532898566228
I0,202.96593913740713,147.99984998582994,114.26698915696403,91.9731365174834,76.30444213851224,64.74927674289438,55.903431605933555,48.92683951126143,43.28623952254265,38.62691730841463,34.70472214034257,31.34751576494462,28.431832185748934,25.867935849742594,23.589843345802233,21.5484639849578,19.70679775601384,18.036538019275376,16.515654860159003,15.126672025345375,13.855437729977137,12.690248084234796,11.621222331230433,10.639857658909282,9.801939319821145,9.119527599215788,8.58822131649876,8.200301162832886,7.951303255217696,7.84413474830297,7.893372344694581,8.132411724000495,8.62825090428772,9.516201623702576,10.549927183164048,11.66218396554694,12.825026580242943,14.014601424465567,15.201838279185411,16.350407669161914,17.417541018976237,18.35672282996542,19.121814361206376,19.671951048201354,19.976272241232884,20.01750155829065,19.793676078021406,19.31780774862924
A0,22.551771015267462,19.535366047167642,17.422950573404655,15.740687225906907,14.296076511116068,13.010637277299267,11.85056811636169,10.798921166311867,9.844766304460725,8.979226749354233,8.194201487796414,7.482067388275406,6.835687211604048,6.248475059271945,5.7144406464810595,5.228197564886281,4.784941597411388,4.380409610392464,4.010828396732284,3.672860309147094,3.3635501107324037,3.0802756007555017,2.820703265708316,2.58274935480516,2.3715715462605647,2.188526870586165,2.0333235710701856,1.9051947324857452,1.803599440224123,1.728756789567632,1.6822475492465783,1.6679732448627305,1.69403939413907,1.7770299723510221,1.892874347768435,2.032989672307,2.1923577914087766,2.3663722396177462,2.5498748774910003,2.7368438985169576,2.920385824033219,3.0929678172077693,3.246863415147957,3.374749521726465,3.470348784285481,3.5289929192907463,3.548001776476517,3.526821596511945
IH0,0.0,37.18309967756611,63.884056025233974,84.10903473341688,100.0254774686559,112.89489400609745,123.50467448574807,132.3762262619745,139.87127412344012,146.2498379719742,151.70407041855145,156.37926466173045,160.38756683444564,163.8172603585919,166.73920999864683,169.21140642729924,171.28220374691458,172.9926413727938,174.37811778049095,175.46960296179586,176.29452176934987,176.87740227686382,177.24035636074817,177.40344049562688,177.3849309901026,177.21312122290925,176.91820017797832,176.52921569940068,176.07347927184742,175.57718166970247,175.0667557523627,174.57101162530253,174.1245578846574,173.77389320701076,173.58978945326496,173.5971049320087,173.8081032848478,174.2297925682122,174.86473315736657,175.7101314016538,176.756569123682,177.98689746214507,179.37563618724232,180.88913513181842,182.48663103276724,184.1221591321951,185.74709949161115,187.3130118489218
IN0,31.22853258859415,57.766380238161794,71.86097296458456,78.64831586983703,80.98601185067568,80.56177373567276,78.42336960368523,75.24513453089155,71.47086148269227,67.3956354213738,63.21564135755221,59.060031048724085,55.01207164389563,51.12352654568186,47.424577231899946,43.930719497955636,40.64756845158528,37.574202925751074,34.70548483087744,32.03365830103331,29.549443527954477,27.24277717083988,25.103306682397236,23.120714258101877,21.284923629559408,19.595955207359083,18.055681943283602,16.665018292365605,15.423553653620505,14.330252283139302,13.38468130861462,12.58871566270615,11.949086944673338,11.481824012050524,11.221367299010343,11.15908251178376,11.277286104645862,11.55665098627148,11.977082955039606,12.517033289373458,13.15260030798919,13.856892070367433,14.59989902377149,15.34902025281453,16.070264205157137,16.729996784123653,17.296977745397147,17.74435727181326
D0,1473.0,1473.0,1473.0404267692559,1473.109883754135,1473.201330044761,1473.3100812498085,1473.4328245355948,1473.5671031465968,1473.7110272196421,1473.8631001714277,1474.0221081214013,1474.1870461040644,1474.3570671217767,1474.531446106104,1474.7095539734435,1474.8908386868472,1475.07481125886,1475.2610352743013,1475.449118937481,1475.6387089391728,1475.8294856418108,1476.0211592250903,1476.2134665364877,1476.4061684642868,1476.5990477028736,1476.791906817277,1476.9845791340797,1477.1769308023852,1477.3688595531314,1477.5602928112598,1477.7511864772398,1477.9415251902717,1478.1313249129125,1478.3206392353982,1478.5095723029553,1478.6983052064584,1478.8870460636065,1479.0760163255593,1479.2654450628813,1479.455564129867,1479.6466023434555,1479.8387782808136,1480.0322918742647,1480.227315353134,1480.4239843611044,1480.6223902226116,1480.8225742875945,1481.0245250446912
R0,0.0,9.201039142079996,22.15691695806786,37.07452201856373,52.8775094095273,68.90194509554019,84.73432270521195,100.11963316772439,114.90598284609489,129.00957093418475,142.39174591421562,155.04362645250336,166.9756594326087,178.21049341057432,188.77811812432827,198.71256763566993,208.04970644185468,216.82576537475947,225.07639485571593,232.83607304257484,240.13775543339187,247.01268697712817,253.49032200937972,259.5983143766066,265.3625520438837,270.80862385093064,275.96267617137994,280.85138038111637,285.5016824389005,289.94063168485275,294.19542773059146,298.2937857702608,302.26477115922313,306.14042771977785,309.958988883004,313.75975512198477,317.57926212096953,321.45050846650236,325.4027385366326,329.46117244526505,333.64656126789856,337.97459300534746,342.4552382180312,347.0921596680504,351.8823220202409,356.8159209469,361.8767065947502,367.04271421659087
G0,84480.0,84493.44554311458,84509.5974627356,84525.81840364025,84541.15014421377,84555.31412882943,84568.29265348012,84580.15885353912,84591.00951788182,84600.94024123388,84610.0376220287,84618.37797781105,84626.0282775199,84633.0476051298,84639.48855052138,84645.39835595069,84650.81980786021,84655.79191485238,84660.35042122814,84664.528199554,84668.35555632474,84671.86047593426,84675.0688210002,84678.00450168035,84680.75285024209,84683.37427694429,84685.9167956157,84688.42361849637,84690.93861138448,84693.51150652098,84696.20468557932,84699.1042624285,84702.34120961274,84706.1373957261,84710.37864905508,84715.04686080191,84720.14055528399,84725.6529293424,84731.56392311456,84737.83641908328,84744.41461543026,84751.22454785209,84758.17695030452,84765.172279411,84772.10722191313,84778.88164693989,84785.40491390928,84791.60069548726
H0,2589.7751426439363,2583.9481485729875,2574.645935238125,2565.3772098712675,2556.141851915731,2546.9397412488343,2537.7707581803384,2528.6347834508892,2519.531698230466,2510.4613841168366,2501.423723134016,2492.418597730734,2483.445890778903,2474.505485572099,2465.5972658240394,2456.721115667073,2447.8769196506714,2439.064562739929,2430.2839303140654,2421.5349081649347,2412.817382495541,2404.131239918557,2155.934681796936,1916.7633422458175,1687.4452215635638,1468.924114397366,1262.2659722206702,1068.6564526468414,889.3822198575805,725.7852081922073,579.1762603038944,450.695305713607,449.04598197250516,447.42941643740414,445.81867053822947,444.21372332429183,442.6145539203244,441.02114152621124,439.4334654167169,437.8515049412167,436.27523952342835,434.704648661144,433.13971192596387,431.5804089630304,430.02671949076347,428.4786233005967,426.93610025671455,425.39913029579037
S1,1876.6479381574482,1750.7012267144376,1644.322780247256,1546.5562619365392,1456.3044488712776,1372.8191936723958,1295.512540114899,1223.8831373251958,1157.4856008273168,1095.9165395011112,1038.8072943577831,985.8195057432255,936.64195645924,890.9880544254125,848.5936853156627,809.2153149098849,772.6282827536503,738.6252549596205,707.0148155572309,677.6201812554199,650.2780273508121,624.8374142538516,625.5945307528389,625.4689636399987,624.5120597816406,622.7527895330247,620.1998660887114,616.8433065669406,612.6560322029168,607.5957136956555,601.6061895845669,594.6151450776279,578.178275041852,562.6253715462176,547.7901005013473,533.5547085833301,519.8066299828992,506.4378092986038,493.3480620663922,480.4500225222403,467.6745531727252,454.9754117787461,442.33199883452903,429.74940330917383,417.2556383624583,404.8966373186498,392.73000406270944,380.81858460023153
E1,0.0,7.132316868599716,9.873717466524237,10.64590389280211,10.500977618534517,9.928272988715127,9.16763472554013,8.34220012806545,7.517215543418877,6.72744222219421,5.990703779490323,5.315027033697462,4.702647398800091,4.152377220063221,3.66106122619541,3.2244918881619093,2.8379898666955947,2.496769812655519,2.1961658108330577,1.931764197993609,1.699475249842723,1.495564858363618,1.316660481194797,1.1836294199241781,1.083491879401987,1.0088924457023913,0.9557989520033375,0.9224237974685767,0.90889256656884,0.917521112925418,0.9538923915386935,1.029519322479211,1.168539105799707,1.2711788023554451,1.3656894182563113,1.456928481916826,1.5436414924126454,1.6226114700713308,1.6898559617177367,1.7412171881640037,1.7728931964239478,1.781972258922372,1.7668851466782987,1.7276653378685345,1.6659519291012765,1.584745715842828,1.4879947013134576,1.3801145097787952
I1,0.0,0.0,1.9257255545219234,3.942544852470293,5.488066040492223,6.47352427437775,6.972194032074427,7.097409995238819,6.957553365985965,6.642090928043496,6.219719358288657,5.74079283050499,5.2408603982925985,4.744092524787288,4.266192118042017,3.816717345870219,3.4008686703663944,3.0208302659906443,2.676758065814431,2.367495647053433,2.0910846813309054,1.845122688225083,1.6270087574054357,1.4341080540789641,1.2703080114246341,1.1346812209903678,1.0246269045500083,0.9373322162835229,0.8704497550261718,0.8224572416799352,0.792970776513463,0.7832432547618906,0.79721375962614,0.8440107122414631,0.9027470175675913,0.9672035495547999,1.0345689313931423,1.102640672760125,1.1690900694807955,1.231298067281346,1.2864057890738985,1.331491442629288,1.3638318875947282,1.3811981525785488,1.3821216016563294,1.366071172926445,1.333505018811959,1.2857928279013326
A1,0.0,0.0,0.21396950605799148,0.46738712884212025,0.6932868198577595,0.8696587844422431,0.9935752172152483,1.0698892155384025,1.1061773762726856,1.110458367320715,1.0901899605223981,1.0518730818026283,1.0009492764530266,0.941838843126424,0.8780423911030357,0.8122657496682909,0.74654735637949,0.6823775811044598,0.6208051592632334,0.5625291017355785,0.507976207328271,0.4573652233578985,0.41075912443722734,0.3681071139856258,0.329994573786226,0.2965004154110404,0.26746710569990406,0.24264765312002337,0.221790836420076,0.204699446133126,0.19128519029426333,0.18164492398157148,0.1762015188596335,0.176017388261698,0.17894927468002175,0.18413010229170673,0.19101193629087015,0.19911879380507547,0.2079733791462003,0.2170743821684923,0.22589602137971396,0.2339036129964896,0.24058205816486283,0.24547220093223923,0.24820772088184742,0.24854473457851622,0.24637815913809782,0.24174236834988197
IH1,0.0,0.0,0.0,0.3527904511946166,1.0711465407334269,2.064672290279142,3.227712767113252,4.4692087288648645,5.719873709430365,6.931045049295911,8.07099004387792,9.120913103462811,10.071451934695784,10.919860629622425,11.667851735101607,12.319995555431012,12.882562746235845,13.362707128469154,13.767903312521817,14.105571568880071,14.382838008941885,14.606390939685458,14.78240435160934,14.9165072713067,15.01378359116045,15.079972986970809,15.120581571347724,15.140577925143614,15.144360209119684,15.135847759776926,15.118637561667777,15.096216372488726,15.072261804429125,15.05113231344685,15.038810327559757,15.037385430066275,15.047784691177785,15.070409857633056,15.105254726687644,15.15188654877901,15.209397566919163,15.276366350134872,15.35085196504709,15.430436130839961,15.512319045007512,15.593462907585886,15.670766323324115,15.741246229863567
IN1,0.0,0.0,0.0,0.29629396681855824,0.8583928048646395,1.5738568904072487,2.333478161504375,3.055726245277289,3.6887548288611987,4.205180815050416,4.595499632065551,4.862204079398941,5.015160066447515,5.068221203900022,5.0368791098961365,4.936714546864484,4.782438596013461,4.587352807138287,4.363096828544948,4.11958596598313,3.8650682673755314,3.6062515714929524,3.3484665175714436,3.0958428770949777,2.8514847106091765,2.6186279570963427,2.3998798090450024,2.1970556871152294,2.011265539385459,1.8430914206916338,1.6927937389523915,1.560534720310173,1.4466449953665073,1.3520116034102307,1.278792853467608,1.2256091572120886,1.1903312668694679,1.1707171974337727,1.1645228442292437,1.1694828819120773,1.1832692783804655,1.203463814283163,1.2275619494210108,1.253016353345532,1.2773193659794506,1.298114024863232,1.313315685635538,1.321223319922948
D1,0.0,0.0,0.0,0.0,0.00038356614402174847,0.0015481542073327564,0.0037929382891276754,0.007302220742490998,0.012161301120529287,0.018380148301875725,0.02591582341608933,0.03469088668405858,0.04460746310274044,0.05555749865560347,0.06742995387874272,0.08011565124922382,0.09351038223913634,0.1075167559971552,0.12204515955684048,0.1370141066101581,0.1523501784272308,0.1679877040362671,0.18386828422725057,0.1999402323690364,0.2161579819054921,0.23248149366647677,0.24887696885855812,0.2653165951269254,0.28177796213202183,0.29824344136882797,0.314699665572343,0.33113717824524774,0.347550313815403,0.3639374051395442,0.38030152374049014,0.39665224544648786,0.41300141795398726,0.42936189690266646,0.4457469747253393,0.4621699371109785,0.47864359924806427,0.4951797893798622,0.5117887903200617,0.5284787746315522,0.5452552856375578,0.5621208226178837,0.579074582049738,0.5961123884647066
R1,0.0,0.0,0.0,0.0427939012115983,0.18430569628574925,0.4626143602244578,0.8936035343562829,1.475110662552886,2.192786524963645,3.025316461647639,3.948389618147699,4.937441588311983,5.969394541282987,7.023647199822918,8.082535757912106,9.13144058470904,10.158669249006516,11.155209421549822,12.11441637834491,13.031678257033727,13.904086563290356,14.730128354849338,15.509408903905385,16.242408534679218,16.930274040605795,17.574786399177334,18.17828584752189,18.743527815834774,19.27354072978125,19.771513492184866,20.240722202712703,20.684500403386938,21.1062602578215,21.509584959158435,21.898447025349387,22.27677436327039,22.648135148731544,23.015677421605897,23.38212128689277,23.749754252425408,24.120418971125208,24.495494175630025,24.87587421218266,25.26195479440607,25.653632988931765,26.050327924252883,26.451025532618246,26.854346577469297
G1,0.0,0.0,1.9257255545219234,4.591629270483468,7.466023321540037,10.301287278544358,12.981920985497442,15.457182361393278,17.70957639597095,19.739224592694047,21.555633992686484,23.173124013148872,24.608181312247186,25.87789610992321,26.99903795934028,27.98752449041304,28.858137300216757,29.624394564224566,30.298522413641557,30.891487182566483,31.413063516024756,31.871921833482293,32.27572434524047,32.631222675163066,32.950802618542596,33.24334542598113,33.51574638632078,33.77381210336168,34.02286652867819,34.26826752165178,34.51599822214164,34.773549167857084,35.05151938492647,35.367024943492396,35.71024322012837,36.07897936305757,36.47235005317511,36.88913325612653,37.327238353045786,37.78349946270958,38.25362810351386,38.73230926654833,39.213441776457366,39.69050076606051,40.156970407285016,40.60677742814236,41.03465877141992,41.436417340774554
H1,739.9357550411247,692.9101951805648,652.7188231453871,615.364775430431,580.6455065695081,548.3729381957256,518.3724256788124,490.48179857406075,464.5504696106225,440.43860732349344,418.0163677832074,397.163181201975,377.7670894965217,359.72413116785987,342.9377701182151,327.3183652667377,312.7826780498007,299.2534150998431,286.6588035900038,274.932196911277,264.0117085155795,253.8398719128792,219.92759953119634,189.14451772860198,161.27703578730126,136.14219326567357,113.58551523330813,93.47834911679506,75.71417131703504,60.203165896283934,46.864265956417306,35.61402448619665,34.69059669322617,33.829262464525314,33.02363247337673,32.269748796358876,31.56393614344355,30.90278167016789,30.283116231793116,29.701996976450932,29.156691181635676,28.644661245231752,28.1635507486096,27.711171515213813,27.28549159353688,26.884624098450995,26.506816849586645,26.150442749826055
S2,1876.6479381574482,1985.3771284496245,2084.323801553496,2174.9182708587336,2257.6686412171525,2333.1199840847316,2401.8066584468274,2464.2348627463025,2520.877170181289,2572.171913910645,2618.524506061358,2660.3094667621567,2697.8726441300246,2731.53340715105,2761.5867240989905,2788.30509628555,2811.9403417822623,2832.7252342516736,2850.875006117399,2866.5887265424535,2880.050564676053,2891.4309480972665,3017.2705259675263,3138.42414615969,3254.342609909921,3364.421966261577,3467.9986744333205,3564.3464460442565,3652.6779342275413,3732.1542531139203,3801.9027458388264,3861.0323964116806,3853.716014584866,3844.5611587996864,3833.212222633469,3819.442552139985,3802.993102455706,3783.5772076794337,3760.902069602249,3734.700010689579,3704.7652538677767,3670.9899816097645,3633.3923902514125,3592.130700533212,3547.500404708603,3499.9160440506116,3449.881922091337,3397.957488394372
E2,0.0,2.4963109040099,3.684804456442576,4.236107694550316,4.4659294648865995,4.524738248281228,4.486553396005463,4.38958804976631,4.254985640758917,4.095501729671747,3.919557476402586,3.733159457862012,3.540833748830594,3.3461024116386584,3.151745365953011,2.9599594736116215,2.7724664160258814,2.590593276289799,2.4153370487202017,2.247418484467288,2.0873280198183997,1.9353653134465747,1.7916733550668797,1.6963890021573413,1.6352176908233418,1.601433646693188,1.5929172466861368,1.6109044020284302,1.6599278906239063,1.7489341898191235,1.894213912174486,2.1261872225295555,2.5062024444777613,2.8115906378175404,3.1062086437707137,3.4012414731320293,3.6932126439409485,3.973285942002054,4.2299925693875515,4.45065866632747,4.622823136087733,4.735798241271354,4.782135015223251,4.758656957209439,4.66681750816928,4.512336404317394,4.304268436919952,4.053771026591379
I2,0.0,0.0,0.6740039440826731,1.4417216010175575,2.099524472901163,2.5976604045039946,2.943773175394842,3.162915380174285,3.2820129424598576,3.324624869389443,3.309813378338686,3.2524892951763826,3.164159383505169,3.0536739811871425,2.927851290963154,2.791961952725011,2.6500932389233647,2.505419621290567,2.360403897602961,2.2169479442990987,2.076507194785206,1.9401789323629222,1.8087714982291447,1.6828593815875648,1.5736603860200942,1.4847517136947486,1.4166888771204493,1.369267849711929,1.3426870700483051,1.3383019411009351,1.3594265630478448,1.4126564519492946,1.5105774859119985,1.6780973985040344,1.8716079170067883,2.0794407058002147,2.296880307520852,2.519862005174057,2.7433053560972613,2.960745754509667,3.1644756103773464,3.346020755293879,3.4968776321538697,3.6093976689984117,3.677652663803298,3.6981050014100587,3.6699537828325743,3.595112853473764
A2,0.0,0.0,0.074889327120297,0.17045559538951488,0.2634477071481214,0.3447360496650951,0.4115309871805129,0.4638213916245742,0.5027447547926487,0.5298453730568864,0.5467413503356615,0.5549798045606068,0.5559786273843458,0.5510079143723945,0.5411894038470754,0.5275038840562506,0.5108018914533491,0.4918155056434557,0.47117020280345856,0.4493962737043729,0.426939573497517,0.4041714993925656,0.3813981589174497,0.3588687277859661,0.3379866522934931,0.31944585255949476,0.30359969144839144,0.29066727055929725,0.2808609485082907,0.2744865955253497,0.27205730211485346,0.27447225905711736,0.28336342392158054,0.30187681247159726,0.325849169111804,0.3538655946025646,0.3851297198760126,0.4189001552190385,0.4543187024352924,0.49035473902986043,0.5258035512137125,0.559327535053602,0.5895359752810222,0.6150928306815153,0.6348339732614954,0.6478717038542747,0.6536674552129416,0.6520620172779518
IH2,0.0,0.0,0.0,0.1234766579181158,0.38622863130369306,0.766574863070494,1.2339602463703354,1.7595689151183822,2.3194942253194855,2.8950274945891223,3.4719835327900044,4.039826662390369,4.590869709318867,5.119618788185134,5.622262321042986,6.096280093079473,6.540145417586107,6.953097324578614,7.334964843724172,7.686030082446452,8.006920440422817,8.29852299189199,8.561915992764382,8.798313826256459,9.009022651613098,9.197389227689623,9.367378530717266,9.523013327510334,9.668234387878792,9.806975125221815,9.943373632515849,10.082129242871826,10.22909745556998,10.392374538775336,10.58453002356299,10.810005043067555,11.071053846288867,11.369041812880344,11.704574527082201,12.077320125556446,12.485766118430188,12.927004771410473,13.396608145337048,13.888639573969897,14.395827030621806,14.909893109231529,15.422004128245481,15.923277663588383
IN2,0.0,0.0,0.0,0.10370288838649537,0.30995084323848626,0.5864294788843172,0.8980232813048763,1.2160673450645207,1.5200569958388326,1.7967103142496421,2.038365204243494,2.24144338659993,2.405198251756674,2.530765776317896,2.620473028813122,2.677346595368437,2.704769399101177,2.7062451024447434,2.685239527099889,2.645076839073568,2.5888745221960003,2.519505732688318,2.4395808931001386,2.351442699340366,2.257170353894442,2.160256734362088,2.0642204620355966,1.9721371150187075,1.8865889121661679,1.8098007418335844,1.743871846384326,1.69109606187527,1.654437470862173,1.6383514107619792,1.6504563321733428,1.6905167451927272,1.7565372304767066,1.8460965660905602,1.9565118087627031,2.0847213252468393,2.227128704833549,2.379491838913645,2.5369019616193453,2.6938792633729474,2.8445902133942766,2.9831653881858533,3.1040726807728127,3.202487707795264
D2,0.0,0.0,0.0,0.0,0.00013424815040761194,0.0005541694558689989,0.0013876165158341978,0.00272922134661602,0.004642286344909228,0.007164121766117146,0.01031169713040591,0.014086559322026338,0.01847880046733591,0.02347015492760242,0.029036383919333796,0.03514910457789716,0.041777193972780194,0.04888786930616997,0.056447520427014286,0.06442235129932249,0.07277887260418295,0.08148427715360394,0.09050672221779849,0.09981553738459881,0.1093813725618348,0.11917629775944898,0.12917602170091688,0.13936056397084712,0.1497143178469288,0.16022596114991433,0.17088844824547192,0.18169923257899592,0.19266087687555297,0.20378231016426532,0.2150812640207825,0.22658913605550735,0.2383421524344505,0.2503789902221479,0.2627398109717518,0.27546543464882656,0.28859632040548344,0.3021712829618304,0.31622597564733446,0.3307912375808062,0.34589145332943694,0.3615431010581154,0.37775365944573325,0.39452100288297215
R2,0.0,0.0,0.0,0.0149778654240594,0.0658810137589668,0.16899079038704815,0.33369192368478623,0.5632309959244478,0.8562584594269853,1.2083331833591833,1.6131407124736672,2.06339741018338,2.5514861831589064,3.069884465250308,3.6114393751464036,4.169533783710909,4.738176114564687,5.312037757145679,5.886455171638675,6.457408787089417,7.021487219746694,7.57584279570854,8.118142558002999,8.64651765739702,9.159513114016216,9.656280011580776,10.136666348631516,10.601158978888863,11.050790789820022,11.48706442862408,11.911917258093071,12.327745975721259,12.737518677671344,13.145033653478746,13.555468609625512,13.974438683913865,14.407285093975155,14.858912614168181,15.333727721005735,15.835568318179572,16.367602991809175,16.932204054262346,17.53081002023856,18.16379964024058,18.830401967596675,19.52866425071794,20.25549176924345,21.00676276181064
G2,0.0,0.0,0.6740039440826731,1.6689011473221687,2.812650224850754,4.018451180370136,5.240130507406068,6.451499924327543,7.636688697764447,8.785534820769355,9.891320287780726,10.949600806409425,11.957553860032167,12.913578972216428,13.817026623358865,14.667997872166179,15.467186930041317,16.215752862368305,16.91521304696655,17.567354050121004,18.17415704092717,18.73773560627814,19.260284240908714,19.74403604677677,20.202061077359254,20.643569853881555,21.075956938488716,21.50604459509397,21.940988783641647,22.389169314110102,22.861381545361265,23.372819301648377,23.946889851731356,24.62356451174035,25.382693983951086,26.22137031776918,27.139705515514827,28.13687292937888,29.209660133719435,30.351758127454072,31.55343596736249,32.80159821410618,34.080263739249446,35.371440193359724,36.65627757180627,37.91631829901198,39.13464912817767,40.296801606146055
H2,739.9357550411247,783.9795499840488,824.1400454733267,860.9516275376004,894.6568302167074,925.4808327071876,953.6326993317967,979.3065309358572,1002.6825340371489,1023.928013604132,1043.1982949176656,1060.637579581732,1076.3797403868525,1090.5490593939035,1103.2609132940613,1114.6224098109092,1124.7329786417367,1133.6849201852733,1141.5639150711518,1148.4494972910193,1154.4154935312174,1159.5304311212442,1047.4750165307498,937.5269802004884,830.4206747387287,726.9218666596917,627.8337919467973,533.9984872187761,446.28956390361975,365.59083367576545,292.7536969773688,228.52651945535905,228.33618646919618,228.09579829884095,227.79674801893987,227.44371286205083,227.04103167057585,226.59272911331496,226.10253817173987,225.57392101958533,225.01008841052723,224.41401768051873,223.7884694637434,223.1360032140757,222.4589916173758,221.75963397385016,221.03996862405083,220.30188448683023
S3,5629.9438144723445,5601.0952163774655,5574.460890494806,5549.980246870666,5527.167589858681,5505.766371626878,5485.612191851518,5466.581592902091,5448.5719204855495,5431.492973443553,5415.26330289507,5399.808409853343,5385.059746367344,5370.9540720878595,5357.43297826337,5344.442498329326,5331.932769315436,5319.857727586815,5308.174830835801,5296.844801969777,5285.831392237387,5275.101161738811,5473.818553900968,5687.9403209039,5919.140671000716,6169.334772306228,6440.69789329061,6735.662325567017,7056.874485152622,7407.082933263316,7788.9125810349615,8204.457948111723,8175.678241481749,8145.583158913462,8113.459467350292,8078.734827651873,8040.780044343701,7998.919205282058,7952.46848581606,7900.7928164650475,7843.37332628865,7779.874312541347,7710.1963089534,7634.503906257257,7553.222959200511,7467.009178719626,7376.695903485486,7283.231409824453
E3,0.0,4.279390121159829,6.1188337675999245,6.815134035599681,6.958814111702619,6.827733904215506,6.558370342940117,6.220949606275555,5.853361695494735,5.47694531512035,5.104109339273394,4.742179842840173,4.395444061440254,4.066297453445026,3.755922670183793,3.4647109073954945,3.1925336373561017,2.938923012018433,2.703194108837004,2.4845288782115724,2.282034222799475,2.0947822769501334,1.9218382723158425,1.8037179978734303,1.7263019283604168,1.683162057947064,1.6726976285279367,1.697120121270677,1.762781199547757,1.8819687942928893,2.077176659511631,2.3908447707083558,2.9095424897625106,3.3183706040329235,3.7007538693170963,4.074455279733019,4.438300210213549,4.783820204888599,5.098790185119951,5.369101993454397,5.580564859445779,5.720840686266183,5.7812472268694455,5.758038873503343,5.652879176925765,5.472452476269018,5.227395425028815,4.930862654206802
I3,0.0,0.0,1.155435332713154,2.4180697991572284,3.443122182619723,4.161464369541211,4.602290720680787,4.821804126269578,4.876224817127703,4.813053752027017,4.669542682519156,4.47373769312035,4.246209704602038,4.001753563606468,3.7508241444238584,3.5006717207355273,3.2562084142250427,3.0206559659816796,2.7960238791367833,2.583459405274091,2.383502230346188,2.1962689976545913,2.0215865110225604,1.859087564265481,1.719467984617527,1.6060061955046527,1.519140034463954,1.4587275569687248,1.4252717621827116,1.4208210576485834,1.4500511566927798,1.522135091837041,1.6546128296836833,1.8824860492050326,2.1439359876310577,2.420505177974988,2.7047534293752538,2.9914311904713347,3.2747718388618208,3.547651676750914,3.801538915051636,4.026945978662274,4.2142518852610795,4.354734290940767,4.441599488051343,4.470792812499308,4.4414310354941895,4.3558005254931365
A3,0.0,0.0,0.12838170363479487,0.2862703759358336,0.43347032181665734,0.5555406808044044,0.6492645617699887,0.7161627597041944,0.7595586959516222,0.7832478076261398,0.7909066055545223,0.7858485646218196,0.7709442469826608,0.7486187194293363,0.7208838991468198,0.6893847994229696,0.6554491667602405,0.6201353425288754,0.5842759643836533,0.5485165947720327,0.5133491421639733,0.4791403404151629,0.44615574064063435,0.4145797406819827,0.3857753324817891,0.36040932383624374,0.33882232080740693,0.32123878550176366,0.3079046320395312,0.29920714161805767,0.2958247771232328,0.2989751214839352,0.31090544030839884,0.3360106269395944,0.3683596196726632,0.40571031181764344,0.4468019078461053,0.4905905325832907,0.5359870322132905,0.5817533313242309,0.6264757248630166,0.6685975256737866,0.7065032411270148,0.7386400097076952,0.7636531739712564,0.7805089144847781,0.788580705875893,0.7876864274515789
IH3,0.0,0.0,0.0,0.21167427071676995,0.652313714058116,1.2758539686584998,2.024077426631317,2.8447605857214,3.6965554920285384,4.548872287723443,5.380162525289687,6.175941240684725,6.9270221404294166,7.628089389575546,8.276596512107593,8.871940596488919,9.414853659375181,9.906959492454195,10.35045409552791,10.747877249274044,11.10195073873103,11.415465029303677,11.691201004105503,11.931876972022696,12.140113819388349,12.320462824101051,12.478025385307431,12.617926529894138,12.745208435084129,12.864949500242624,12.982547061942032,13.104195175433665,13.237699680736345,13.39399313668407,13.590299103392391,13.83232498321033,14.122333489030938,14.461199202839842,14.848825294887385,15.284059571610724,15.764457567012899,16.286038915730497,16.8431292901011,17.4283547491683,18.032825219802515,18.646504636975326,19.258725444101373,19.85877660027519
IN3,0.0,0.0,0.0,0.17777638009113494,0.5231199816293589,0.9743067475083818,1.4682477715957538,1.9558222955075564,2.403935179596421,2.7931124412857837,3.114113732278846,3.3648182416938277,3.5477389125241743,3.6681762923536767,3.732911108659724,3.749314185963556,3.7247647473433143,3.6662894026359996,3.580355029178283,3.4727663303980276,3.3486326308702985,3.2123788451429176,3.0677831898698074,2.9180297261564334,2.765767754190395,2.614894305912067,2.469225480528578,2.3320715457746344,2.2062237105604936,2.0941313219060045,1.9981909923450825,1.9211587606832632,1.8667880661498835,1.8409672782068647,1.854085694820416,1.905460594708699,1.9916719213707013,2.108668573394871,2.2522002445033893,2.4177677880970054,2.6004517934291163,2.794759061158755,2.994561731179241,3.1931720857417014,3.3835649082914308,3.5587249193209383,3.7120667156235103,3.837858160733833
D3,0.0,0.0,0.0,0.0,0.00023013968641304904,0.0009393580202611818,0.0023265111743107575,0.0045271590974773485,0.007620082516564658,0.011639107213629473,0.01658480060510666,0.022434301880007286,0.02914900166673009,0.03668030293341906,0.04497382908613981,0.053972434912978595,0.0636183196954667,0.073854478589301,0.08462567219341605,0.09587904867470198,0.10756451753862238,0.11963494751073452,0.13204624120839098,0.14475732472253675,0.15773007958481597,0.17092923684635747,0.18432447586714606,0.19789102242712533,0.21160967441510484,0.22546671175170177,0.23945393577132365,0.25356901598187886,0.26781635628524986,0.282208847366186,0.2967712661705929,0.31154711570262805,0.3265861042543302,0.3419404002185047,0.35766312286414614,0.3738072861835514,0.39042465146379085,0.40756432228282313,0.4252710746258701,0.443583515150231,0.46253223330613674,0.4821381529447104,0.5024112863554069,0.5233500476862584
R3,0.0,0.0,0.0,0.025676340726958975,0.11175103749756184,0.28354648628585816,0.5537647902311107,0.9244059586650974,1.3898734996271216,1.939850879620379,2.5615495237851786,3.241312629813784,3.965682618461546,4.722061575200197,5.499079585708016,6.286762142663338,7.0765648450066925,7.861324561422717,8.635161506798251,9.3933557514765,10.132213783682756,10.848935150145628,11.541485306410856,12.208478147103374,12.849069904051658,13.463113566622287,14.051226373232263,14.614717918198773,15.155491180864393,15.675968021843719,16.179066469424107,16.668254225732266,17.147718449200994,17.62273763089156,18.100463078816063,18.588592727884024,19.09433064334089,19.62413765877444,20.18366608641883,20.777711021318424,21.41013262150071,22.08374492764677,22.800185714740454,23.5597924543869,24.361513743723915,25.202883083999268,26.080073075654663,26.988035128973685
G3,0.0,0.0,1.155435332713154,2.807520449965134,4.647606639577048,6.526486449736755,8.369974603874942,10.140734596468773,11.820390990163173,13.40079864794675,14.879573883029245,16.257683404633063,17.53807196219991,18.72484185878878,19.822742171218934,20.836841292168558,21.772313237165342,22.63429731925149,23.42780653249647,24.15766894188246,24.828491738999585,25.444640979155444,26.01023219393198,26.529128527457257,27.016132386883083,27.482233907540394,27.936687663186103,28.388316022888645,28.846538455631727,29.322489379509623,29.830620953968705,30.391458652036846,31.036986740128103,31.82256321236398,32.718523275452874,33.71772682016849,34.8178297456964,36.016170802454056,37.30780225777398,38.68447560775637,40.134133145989054,41.640885658039416,43.185512643331286,44.74644939458604,46.30111989043194,47.8273972682019,49.30495943679453,50.716356201552315
H3,2219.807265123374,2210.1176302359304,2201.0330731980603,2192.502321938949,2184.480893393477,2176.9275624987304,2169.8041284387073,2163.075197598525,2156.70798203444,2150.672112351262,2144.9394639579077,2139.4839957453737,2134.281600299659,2129.309964825577,2124.548442016244,2119.9779301577046,2115.580761808901,2111.3406004443236,2107.2423444904457,2103.2720382276816,2099.416789067344,2095.6646907481068,2092.0047520290304,2087.04131976844,2080.810344248947,2073.356218460429,2064.732081719207,2055.000192847104,2044.232316087887,2032.5100177860074,2019.9247061339308,2006.5771633087356,1992.5762407508696,1978.6897266787696,1964.9160717933373,1951.253637242904,1937.7008535142375,1924.2562158262685,1910.918279850494,1897.6856577347367,1884.557014408609,1871.5310641505673,1858.60656739789,1845.7823277822379,1833.0571893746965,1820.4300341253524,1807.8997794835202,1795.4653761857294
S4,2814.9719072361722,2855.4333589240255,2896.9793250467364,2939.2467581705687,2981.810492874833,3024.4964332492846,3067.232077574387,3109.9869376434403,3152.7480053778695,3195.5094430694703,3238.268206908599,3281.0221935716913,3323.7694732445448,3366.5079930255097,3409.2354830621443,3451.949448129254,3494.6471930635926,3537.3258594623285,3579.9824639301623,3622.6139338983226,3665.217139589789,3707.7889218251016,3900.6878992173733,4092.4540207484297,4282.705943456704,4470.969489156146,4656.66802343824,4839.110449122291,5017.4795993029875,5190.822750660584,5358.041079155364,5517.8558694246385,5578.978768137452,5638.440902651751,5695.392485523674,5749.213380285265,5799.216922485145,5844.650643909375,5884.73136908261,5918.701822433971,5945.901625578071,5965.841505715643,5978.266630010937,5983.196215973884,5980.93208096666,5972.036301001362,5957.28459928838,5937.60550377198
E4,0.0,6.419085181739743,9.270066180699734,10.43651753488993,10.78217972061082,10.71412228332753,10.431601671251514,10.036473482294802,9.58339758726616,9.103229509231111,8.614234427064428,8.127655848810612,7.650601677826465,7.1876155482769555,6.741578802841796,6.314256042134594,5.906641249977448,5.519186561894787,5.151958604471853,4.804748221508999,4.477149132220911,4.1686152838265835,3.8785032506386887,3.6949977657082314,3.5873887828326225,3.541668528570129,3.5542386861413977,3.6293744632417146,3.7794187901283025,4.027835508679798,4.416866467752664,5.025141611325299,6.011292319587237,6.831733212878978,7.6435834867546815,8.475519407559524,9.31927105404728,10.151997812566382,10.94272307247719,11.655727911306276,12.254175691578995,12.704405067287908,12.980269560187416,13.066556407227779,12.96068871417433,12.67242591164406,12.22184542390083,11.63626246501822
I4,0.0,0.0,1.7331529990697307,3.651894891646802,5.238848142625668,6.384232246238314,7.125178054930338,7.54010034932902,7.708484461494088,7.697782588888353,7.561042504851443,7.338363316095545,7.059364084868816,6.745599616007971,6.4125862401904055,6.07138832133465,5.729817314684712,5.393320124597524,5.065629800241936,4.749239119647555,4.44574417373251,4.1560933797263155,3.8807680474101525,3.619913531514086,3.397436071474748,3.2208923651022614,3.0915099533147865,3.0091310769644846,2.974805457227399,2.992561587776871,3.071405356849326,3.2287124301643138,3.497231922179275,3.941505014323396,4.457550606267699,5.01885761574311,5.615593369008496,6.239006511342918,6.877128451065153,7.513661041171876,8.128155473626368,8.697109516742284,9.195854029844488,9.60097529552228,9.892843970182298,10.057751208842301,10.089243911538874,9.988464962597606
A4,0.0,0.0,0.1925725554521923,0.4321600297827458,0.6588235498728945,0.8505242315166401,1.001843053713138,1.1144224931080557,1.1926321989552886,1.2416076867822157,1.2663830347027059,1.2715334605740976,1.2610564439235963,1.238363205473671,1.2063190308272456,1.1673025887470503,1.123269752261678,1.0758150393086656,1.0262276283037761,0.9755408607771765,0.9245751352670112,0.8739745821802363,0.8242381242589865,0.7757455969263498,0.7314464105123267,0.69277879189484,0.6604730893729759,0.6350056320826226,0.6168857395633496,0.6068911553545288,0.6063479895440169,0.6175843856677934,0.6448217568739937,0.696196175086812,0.7619089364558189,0.8388346537672955,0.9253333052406221,1.019844775813916,1.1204357550281243,1.2246302961968152,1.3293760742966403,1.431126130184682,1.5260330561663829,1.6102345317387288,1.6801843176078164,1.7329681155114829,1.766547269758508,1.7798931785238312
IH4,0.0,0.0,0.0,0.3175114060751549,0.9830121026266618,1.9318590197172907,3.080014445509167,4.351175119490719,5.684249606420339,7.033385693940858,8.365596907835355,9.657980936225549,10.895235599268968,12.067654619557102,13.169588192051997,14.198291749916793,15.15307814568895,16.034698902165935,16.844895072319503,17.586072287584848,18.261066170428926,18.872973293061225,19.42502963005091,19.920523438622897,20.36273313221638,20.7592803532667,21.119086584065393,21.451199235814926,21.764536466659482,22.068109824176197,22.371568916821488,22.68610618900665,23.025973140817452,23.41126279376586,23.87366916387559,24.425485520312723,25.074011981893243,25.824666362994236,26.681203147895108,27.645142546364966,28.71500210673593,29.885569624950072,31.147385130811518,32.48657422699259,33.88512704476632,35.321637406123806,36.77242512259885,38.21289046124356
IN4,0.0,0.0,0.0,0.2666645701367024,0.7884942151218373,1.4761125225192462,2.236676939973711,2.9970033285250124,3.706965153094645,4.3361948287932925,4.869264396239162,5.30122523517058,5.634041720066645,5.873940383446805,6.029528943664174,6.1105095532614,6.1268294255279,6.088143529500336,6.003494674490373,5.881141764208366,5.728486714086535,5.5520652101586565,5.357577169445448,5.1499404071282395,4.933356421871997,4.715073862558825,4.502415274740259,4.301792190876659,4.1186288255652155,3.9576961597927776,3.82366837672904,3.7219032279177973,3.6596271397495492,3.6480199024205864,3.7065124122027604,3.8356183145304334,4.031695082320375,4.290134450102294,4.605673845625972,4.971999662937192,5.3812389835000545,5.823555168245777,6.28697301574752,6.757520443470892,7.219721590123869,7.657404958256938,8.054718835915182,8.397199639060245
D4,0.0,0.0,0.0,0.0,0.00034520952961957353,0.0014139747426644709,0.003514359581532534,0.00686305924274735,0.011593809343536623,0.017773924751447814,0.025420868201610533,0.03451623837819323,0.04501673376915272,0.05686241579617197,0.06998279287592551,0.0843012307590221,0.09973811120680699,0.11621306888981933,0.1336465555605249,0.15196091590520516,0.17108111009695653,0.19093518129701145,0.211454539368445,0.2325741124393063,0.2542324037461546,0.2763714809315501,0.29894169815485133,0.32190310932366645,0.34522560500817934,0.36888877191269415,0.3928819944119002,0.4172051482730242,0.4418702780811577,0.4669049231518077,0.4923584686377396,0.5183147585368308,0.5448710025200817,0.572132347203542,0.6002098296409493,0.6292185688929465,0.6592753368455214,0.690495293611248,0.7229879324117578,0.7568524612575092,0.7921730034278807,0.8290141012417163,0.8674170234708313,0.9073972929561379
R4,0.0,0.0,0.0,0.038514511090438464,0.16817744942214186,0.42821259064791306,0.8393644166724407,1.4065074220602274,2.123088587136326,2.9752883694679033,3.945294233563127,5.013653087068767,6.160854446258737,7.368329291222135,8.619028996377196,9.897714392820568,11.191051900109814,12.487586360010814,13.777639262125419,15.053165626259936,16.30759173722385,17.535648134078617,18.733206855116094,19.897128254210767,21.02512023073251,22.11614445164973,23.17061526432668,24.190282224755006,25.178043714766254,26.1378039468153,27.074429464076537,27.99385065772853,28.903380284454272,29.81240340928341,30.73381259445596,31.681776365031578,32.67003830920701,33.7115399189471,34.81827268091862,36.00108851635329,37.269411030304454,38.630855979048604,40.090800067987374,41.651957142043265,43.31403109708541,45.07351184746965,46.923663247656876,48.85472350372799
G4,0.0,0.0,1.7331529990697307,4.236070867858659,7.053930602278941,9.965119126843863,12.857932143342296,15.674464594580204,18.384312434799803,20.971829783361667,23.42970175085407,25.755545046161465,27.95001212534033,30.015674578353476,31.956330776388253,33.776557053155535,35.48140618453188,37.076199322025786,38.56637969373738,39.95740851694478,41.254690536752214,42.46352080245186,43.589046929085036,44.63624280675748,45.633892203498704,46.60248717486351,47.55873767757745,48.518382122835625,49.49831322791089,50.51875630124553,51.60627188858908,52.798825834882294,54.15561406994013,55.77866299622868,57.62323096370601,59.68699850512977,61.97538874517085,64.49159192976362,67.23263133915654,70.18716656872539,73.33421310477809,76.64284054150441,80.07302990967214,83.57770269092275,87.10567292087426,90.60505887370132,94.02661386984522,97.32651213429844
H4,1109.903632561687,1128.402026437715,1146.8196733563477,1165.1616156329983,1183.432468315823,1201.6364757607685,1219.7775387815911,1237.8592398519138,1255.8848664985683,1273.857433015522,1291.7797006184492,1309.6541961514317,1327.4832294493099,1345.268909451807,1363.013159158687,1380.7177295088222,1398.3842122601363,1416.0140519418771,1433.60855694558,1451.1689098163336,1468.6961768015642,1486.1913167104588,1353.2934057541445,1223.0665099978448,1095.9978857876715,972.6643078033504,853.7440049458826,740.0256872528814,632.410298367558,531.8984297185203,439.55327637259234,356.427217418587,373.12640766703447,389.73120967329174,406.22029072894816,422.59459132722594,438.8550383042501,455.00254541686877,471.0380138820877,486.9623328808418,502.7763800286313,518.4810218153697,534.0771140166244,549.5655020782734,564.9470214764588,580.2224980545813,595.3927483389592,610.4585798346552
E_Om,0.0,0.0,2.3114764902170104,3.1250987904766627,3.4835381002422414,3.706051076371988,3.8910301196946255,4.068587827371964,4.247606000787432,4.430385198913142,4.617229874934438,4.807881056707536,5.001956551070151,5.199078716698081,5.398904993957459,5.601129357350525,5.805476123939352,6.011692669997891,6.21954289212935,6.428801784728113,6.639251078437808,6.850675782944844,7.062861473995076,7.508405664402515,8.1627853004988,9.056532209161002,10.262336939833993,11.90343404841654,14.182406746774415,17.443078239859755,22.30282841286293,29.9580002509504,42.97557763483137,57.51204321530332,76.3168438053243,100.39217554604369,130.72859855413907,168.23755608967844,213.60378392238664,267.1108806960239,328.47424820061246,396.72644915886355,470.1968475055458,546.6061383511543,623.2643222960053,697.3320683542789,766.0921688605207,827.1826837019032
I_Om,0.0,5.0,3.314701654945024,2.821548064617649,2.7142946812877087,2.739970701479974,2.817070874359746,2.918128030185084,3.0330634755896226,3.157593724630652,3.289500232641997,3.427394439248392,3.570285889296238,3.717414777964362,3.8681754368355934,4.022073852787841,4.178699897714035,4.337707246757887,4.498798098798509,4.661711281545113,4.826212901839285,4.992088969746949,5.159139575325709,5.32717429566357,5.558868220192004,5.889149968953023,6.349418726135074,6.980116725646949,7.841328085514743,9.027582458033613,10.69437962752147,13.111499241464145,16.780801714654935,22.72807620437867,30.595610029806014,40.88861166740767,54.21259714990393,71.23643870794842,92.64964839973847,119.09421023518193,151.0722929401121,188.83996289915115,232.3057687812078,280.9580120729665,333.84205487247687,389.59872937513074,446.5603690605002,502.88776446388067
A_Om,0.0,0.0,0.0,0.06934429470651031,0.1492283994795081,0.2238888625908737,0.2902926223638586,0.34896500148192566,0.4012296360066995,0.44841188882898253,0.49164106703058025,0.5318297498724974,0.5697002315992239,0.6058188818114837,0.6406274669501293,0.6744691233788271,0.7076091794235776,0.7402516272570425,0.7725520819055707,0.8046279522883372,0.8365664153725131,0.8684306646511446,0.900264805209261,0.9320976883872609,0.9709303206418842,1.0216278155284715,1.088998218697607,1.1790686831531054,1.3003579679749806,1.4657585767832169,1.695899208622366,2.025804219283781,2.5193833829555365,3.3047740354093698,4.369180524786596,5.784849733989005,7.639645053572515,10.033573999482183,13.073985882276098,16.867302223492477,21.507168199674698,27.059962005758134,33.54976307937242,40.94571588866431,49.15475686146607,58.02173515805301,67.33735017707077,76.85264520747224
IH_Om,0.0,0.0,0.9159935858103094,1.5130826885567608,2.0132039124723744,2.4881292256334584,2.9624905914314907,3.4457151038432055,3.9420933434465617,4.454021897000377,4.983086039749803,5.530447028898163,6.0969988587740085,6.6834441576147885,7.290338565000112,7.918120599807311,8.567133414393897,9.237641220008006,9.929841851058551,10.64387639083779,11.379836511346221,12.137770018853226,12.917684986690727,13.719552775398133,14.543310177943908,15.400376684356097,16.308444000714218,17.29075989106418,18.377723226021107,19.610403032328268,21.04673051965233,22.77248169913656,24.921904459656538,27.719697827853416,31.575991778619933,36.83083471613464,43.91305685140484,53.357661670701674,65.81625506042374,82.05953317027144,102.96725441421627,129.50141579650128,162.66025510708815,203.41418414756527,252.6291086258766,310.98644138587406,378.91103940011703,456.5175328590551
IN_Om,0.0,0.0,1.5386095184893342,2.327508821476176,2.780622197469276,3.0658756240790694,3.261357691301181,3.408087200614019,3.529515341362364,3.63966770400984,3.747047208765102,3.8567510358592454,3.9717245466965267,4.093544058110332,4.2229189853574205,4.360017796040822,4.5046801507461085,4.6565544736825055,4.815186362142752,4.980074535831749,5.15070538824196,5.326573494755612,5.507192974539466,5.692102966791684,5.880869389262074,6.085352507501439,6.322368948915287,6.612196644054626,6.979747364362144,7.457592735984386,8.091341491472079,8.949215664726323,10.140230812370069,11.851801794946638,14.436505608352633,18.127314411956814,23.219002185605206,30.077215283625492,39.13929625356182,50.906900359143734,65.9267384353663,84.756632775111,107.91647088519198,135.8273414239343,168.74620513777433,206.70641261052174,249.47490035572986,296.53453854697733
D_Om,0.0,0.0,0.0,0.0009959003325293978,0.002640976865838452,0.004829802723289294,0.00753498402758024,0.010755907635371542,0.01450220987031935,0.018788191925671174,0.023630760647800286,0.02904854644989119,0.035061442304662474,0.04169031316680171,0.04895678791304367,0.05688309953094953,0.06549195778117421,0.07480644551164338,0.08484993283001244,0.09564600493644033,0.1072184004217864,0.11959095754592201,0.13278756654537036,0.14683212643426394,0.16174850508891006,0.17756050166471565,0.1943043309869052,0.21203544292365603,0.23083456312706194,0.2508154679668452,0.27213658549809355,0.2950193286175623,0.31977836890781414,0.34687433696165343,0.3770121640294627,0.41134268904559024,0.4513864634882747,0.499130278071877,0.5571425980531736,0.6287003374477477,0.7179183381384253,0.8298679461916774,0.9706664245354675,1.1475163552117424,1.3686753859865586,1.6433426076620798,1.9814579669681693,2.3934233300267076
R_Om,0.0,0.0,0.0,0.24027108834522176,0.6188813338332494,1.086531820563266,1.6167123259809906,2.194281751148643,2.8104596086174394,3.460295551704836,4.141234998290803,4.852242269611534,5.5932414430703945,6.364752407226916,7.167652124859599,8.003018028740886,8.872025870786036,9.775883817856343,10.715790670080034,11.692910076226212,12.708355283462135,13.763180745165894,14.858378114337064,15.994874963981765,17.173535127205792,18.396556804680564,19.669006938854203,20.99961702180235,22.40160240785684,23.89392820484744,25.50344132219801,27.268544648177663,29.24575138872774,31.5220744848948,34.240553022005656,37.59872897761998,41.84698933837634,47.301860570802994,54.36014505268642,63.51232511858392,75.35322904259407,90.58733446305988,110.02580674259274,134.57270379031067,165.19887059076186,202.90379921138765,248.66777819669733,303.39847914157497
G_Om,0.0,0.0,0.0,0.6240986523585929,1.4678753257872919,2.408430612852697,3.409064403473134,4.459642535790683,5.558161249181113,6.70501486939372,7.901218873100269,9.147870939332567,10.4459988246436,11.796527093432543,13.200278346941023,14.65798269530954,16.17028762179418,17.737766175257807,19.360923196157238,21.04019977703216,22.77597625890875,24.568574050086962,26.41825651148207,28.32522910946074,30.35249863884942,32.556450669984095,35.00171436645756,37.772545340212744,40.98647253328521,44.8157223549143,49.52535347967643,55.54711715114943,63.63577721890603,75.2391831803105,90.7674348484424,111.37298267587997,138.47887007331178,173.7755916829293,219.1997318271425,276.87275348618687,348.9926912741134,437.68073828827875,544.796879561172,671.7500283876693,819.3336857424811,987.6150527624025,1175.8947112180579,1382.7395968103983
beta,49.999823195249284,49.99982319524921,49.374245402538484,48.90035413174576,48.528423899535326,48.212389700243364,47.932579429680764,47.67973386034449,47.4489075191843,47.23703645653739,47.04193587588997,46.861874204029334,46.69538546283563,46.54118230503957,46.39811251623677,46.26513480080042,46.1413034640694,46.02575745246603,45.91771172570278,45.816450028054,45.72131860762722,45.63172064896823,45.547111284079826,48.074932130434185,50.950384078352485,54.28075873694397,58.21766352371851,62.982945663029504,68.91407170187397,76.548555040259,86.792699700257,101.29051160006638,123.33010538020476,121.14137329829705,118.64962422962915,115.68215861319645,112.17960182247629,108.11295669722578,103.48990483503636,98.36330683512405,92.83367067936041,87.04202372099284,81.15335163871356,75.33472087382705,69.73436625070168,64.46715306379757,59.60871509519834,55.19728648537841
