series,2021-12-01,2021-12-02,2021-12-03,2021-12-04,2021-12-05,2021-12-06,2021-12-07,2021-12-08,2021-12-09,2021-12-10,2021-12-11,2021-12-12,2021-12-13,2021-12-14,2021-12-15,2021-12-16,2021-12-17,2021-12-18,2021-12-19,2021-12-20,2021-12-21,2021-12-22,2021-12-23,2021-12-24,2021-12-25,2021-12-26,2021-12-27,2021-12-28,2021-12-29,2021-12-30,2021-12-31,2022-01-01,2022-01-02,2022-01-03,2022-01-04,2022-01-05,2022-01-06,2022-01-07,2022-01-08,2022-01-09,2022-01-10,2022-01-11,2022-01-12,2022-01-13,2022-01-14,2022-01-15,2022-01-16,2022-01-17
S,8345843.244909848,8335677.437033367,8328900.321320407,8324248.1571555715,8320955.978033122,8318554.278212893,8316750.720842453,8315360.350393321,8314263.955683306,8313383.013285847,8710460.04967637,9107599.42907099,9504791.104208358,9902026.733485963,10299299.204573521,10696602.266283972,11093930.231549364,11491277.718578957,11888639.397898855,12286009.70786416,12683382.486132054,13080750.429858092,13478104.219635513,13875430.959703282,14272711.118323542,14669911.783164868,15066969.247717138,15463731.800114563,15859667.16244249,15917222.548920376,15892489.334885938,15870089.82956294,15834503.020617949,15794869.123528007,15749726.116837572,15700787.315742083,15649140.059720207,15595783.801110288,15541577.803334506,15487241.782073082,15433365.104004031,15380419.942284591,15328775.789758572,15278713.871981464,15230440.675280256,15184100.209254242,15139784.863566017,15097544.858428022
E,8345.84324490985,16842.482472408436,20250.59002027221,20852.304420208595,19973.796153466905,18380.573391288046,16507.891897363515,14596.585110925398,12773.581161446948,11099.738044642105,9598.248116350249,8334.714980414057,7271.594055767683,6377.144027623812,5624.742557550238,4992.2305931511855,4461.316706749646,4017.0623755736515,3647.4643093091017,3343.151813882973,3097.2286770487813,2905.3178735753513,2765.9334347733734,2681.4613674269617,2660.443535922059,2723.088053613873,2916.341525640266,3365.725300251721,4552.039026944863,13732.94478744303,35704.93598930192,50943.21722475994,76297.60953248174,100610.57973174291,125540.15186155576,149247.55719999346,170884.69680706953,189862.34650193117,205849.78963792595,218722.5770654272,228512.04487945474,235360.96515318495,239486.70267663363,241151.83806727311,240641.55125139398,238246.79544937517,234252.24470212834,228928.06137163294
I,194002.61570784188,128087.22080247961,86607.41110870533,60155.66618738116,43004.448153239864,31655.300525788985,23963.303258898595,18607.261272530013,14768.456630301485,11935.530275494739,9785.779443203264,8112.8180939077265,6793.789834165899,5741.77394312097,4894.341992323245,4205.967970478876,3642.9579335754984,3180.0344279684423,2798.015207472215,2482.2234360145217,2221.3958845892134,2006.9420789530304,1832.4689470677058,1693.5375923285724,1587.6811556825564,1514.8275692832842,1478.5672699104634,1489.6933743272098,1577.8421372298403,1848.8948862575921,3678.3174139991797,8826.95764308041,14929.289897253024,23474.79764834224,33426.999547499785,44408.04512565252,55840.4119662865,67194.61405644463,78019.10616286026,87959.73006903552,96762.99986405823,104269.1587586999,110399.66585214298,115142.39957231775,118536.71521316984,120659.62413821557,121613.74715200716,121517.28473767827
A,21555.84618976021,17411.593816706365,14266.124702813258,11817.911562656052,9871.375338529013,8296.57619389255,7004.8724229398,5934.05577629911,5039.176323257798,4286.812681835177,3651.4449063609836,3113.1208874157915,2657.191009540914,2271.1846887480847,1944.4906315509443,1668.0873563917603,1434.3144969764319,1236.6779317161381,1069.6835928843836,928.6961604936889,809.8199646726106,709.8005452790642,625.9467936947584,556.0761036512741,498.4901102695586,452.0009589340881,416.0625282195479,391.17685308844364,380.25598847578937,395.2455713195287,590.8553528044837,1186.7830020296255,1968.2907461188993,3100.5847875447544,4492.679424670662,6104.946576967645,7868.908405573986,9712.82066060058,11567.50345851909,13370.998559573789,15071.250388967577,16627.241208763156,18009.012270074225,19196.943869592054,20180.591857019106,20957.304510643164,21530.779517502033,21909.668508044197
IH,0.0,28617.123547877658,33173.95702870282,29329.17346055482,23508.757149119454,18074.41112183756,13688.571521961385,10365.399065573029,7917.071841410036,6129.098486670509,4819.017770076689,3848.1799888661985,3116.9551518790445,2557.5054750375753,2123.158319189568,1781.4152850143573,1509.3441767969803,1290.5316703285857,1113.0588659997604,968.1486797727695,849.256381927951,751.4547251691686,671.0178411976973,605.1434863424506,551.7785640020372,509.5346951657483,477.70844805436957,456.47843179553934,447.52585374321166,456.06124939421784,500.3031201943546,792.2360231702643,1697.381093230055,3049.1971508286933,4984.29230115125,7417.943705701831,10252.13833937955,13352.777973207498,16574.843661273593,19779.363983054904,22844.750690491477,25672.939805403807,28191.43184528676,30352.46408198877,32130.414873705937,33518.30427955047,34524.009174948515,35166.59760860988
IN,38800.523141568374,70813.77582831641,84043.95792226345,86663.85814649734,83535.1173340206,77523.43507349922,70293.53058777405,62789.934264289615,55527.7133312671,48768.09211404172,42624.3278626788,37125.32549016976,32253.65644343698,27970.369620313842,24225.943385298287,20967.03310280934,18140.52036767067,15695.839844694807,13586.215965136325,11769.21903460135,10206.906103037007,8865.718832105606,7716.2510578819065,6732.961942666778,5893.890659023157,5180.424555784637,4577.192428887483,4072.230004730899,3657.8245110525945,3333.5396008978832,3120.1915218312324,3310.048350111564,4496.422083303383,6695.7331224703075,10219.42618674368,15117.169544051621,21354.37303288337,28786.992771720317,37190.284882625696,46288.51027904858,55783.332522943165,65377.90517939719,74795.35699875485,83791.54088922804,92162.59343431567,99748.18355176307,106431.42871411672,112136.41649888376
D,140997.0,140997.0,141025.61712354788,141058.7910805766,141088.12025403717,141111.62901118628,141129.7034223081,141143.39199383007,141153.75739289564,141161.67446473712,141167.80356322374,141172.62258099383,141176.47076098266,141179.58771613456,141182.1452216096,141184.2683799288,141186.04979521377,141187.5591393906,141188.84967106092,141189.96272992692,141190.9308786067,141191.78013498863,141192.5315897138,141193.20260755497,141193.8077510413,141194.35952960534,141194.8690643005,141195.34677274854,141195.80325118036,141196.2507770341,141196.70683828345,141197.20714140366,141197.99937742678,141199.69675852003,141202.74595567083,141207.730247972,141215.14819167773,141225.40033001712,141238.75310799034,141255.32795165162,141275.10731563467,141297.95206632518,141323.62500613058,141351.8164379759,141382.1689020579,141414.2993169316,141447.8176212111,141482.34163038607
R,0.0,11098.43969277238,41276.58229660138,75418.36774902263,107606.4108417842,135947.6363752191,160205.12176579935,180746.63898663214,198099.822862207,212779.50659084925,225232.28867701342,235828.24480447365,244869.19164190427,252601.15220970823,259226.92290861643,264915.178875475,269807.21031849505,274022.01741597976,277660.24960263947,280807.3157262456,283535.88691699796,285907.9455487457,287976.4892104004,289786.9703943668,291378.5361603776,292785.12579880765,294036.4909789311,295159.23358674085,296178.0523418001,297117.7198039675,298007.9265992467,298922.0558844243,300134.54829183966,302163.4439279621,305479.4259262805,310657.7645139823,318232.13121852546,328667.4447237504,342322.02854285785,359428.5469013476,380089.55237470224,404284.2051140992,431882.50319093594,462663.77084754955,496336.8190318383,532559.8977652816,570959.1904724749,611145.1126090841
G,6635658.0,6637160.251784083,6640191.898629117,6643837.004832766,6647590.419628403,6651185.702936027,6654494.206146458,6657465.626687983,6660093.01200795,6662392.2566170115,6664390.2094650455,6666117.89412599,6667618.142822463,6668927.029752502,6670074.915677475,6671087.3693378335,6671985.970844599,6672789.007851814,6673512.0790794175,6674168.622655093,6674770.389981591,6675327.891143461,6675850.848360705,6676348.716378964,6676831.3794251,6677310.259261566,6677800.415111217,6678325.356585832,6678931.187139876,6679750.554164726,6682222.484226466,6688649.37270454,6697819.151804998,6711552.721520844,6729662.625872558,6752259.8532076385,6779124.413503637,6809883.65892891,6844058.881299257,6881111.843434084,6920481.907305863,6961614.075384162,7003979.049111737,7047086.655593531,7090493.986445639,7133809.465670891,7176693.888851779,7218859.29289816
H,7625766.985639766,7625766.985639765,7625766.985639766,7625766.985639766,7625766.985639767,7625766.985639767,7625766.985639766,7625766.985639767,7625766.985639767,7625766.985639766,7343285.143205078,7064898.453464107,6790839.556577628,6521356.033864233,6256711.364077869,5997185.769689662,5743076.890218236,5494700.200263133,5252389.066609895,5016494.311660214,4787383.120178203,4565437.094621413,4351049.234350954,4144619.5911333137,3946549.3456577957,3757233.0685596415,3577048.988888105,3406347.2089068186,3245435.9906969345,3219778.2354138424,3219778.2354138424,3219778.2354138424,3219778.2354138424,3219778.2354138424,3219778.235413842,3219778.235413842,3219778.235413842,3219778.2354138424,3219778.2354138424,3219778.2354138424,3219778.2354138424,3219778.235413842,3219778.235413842,3219778.235413842,3219778.235413842,3219778.235413842,3219778.235413842,3219778.235413842
S0,2921045.1357184467,2908882.190174001,2894675.4199925293,2881686.232735968,2869491.885457066,2857832.173597442,2846544.622301247,2835526.1404711613,2824710.0783107188,2814052.3852838622,2938001.7974643125,3058951.384027309,3176798.829308761,3291436.0342372973,3402748.6641464103,3510615.8333575497,3614909.94044276,3715496.678968002,3812235.259096502,3904978.884325187,3993575.532059552,4077869.080668873,4157700.795258527,4232911.095089083,4303341.280016727,4368834.17000976,4429230.1019567065,4484343.256924898,4533817.45008108,4522741.5656459695,4493741.3355845455,4466091.780784402,4431860.844376858,4395778.519250386,4357135.242653389,4316833.338740129,4275446.242951507,4233492.929589447,4191412.755096667,4149567.286384621,4108246.5027589235,4067676.8928302918,4028030.065450925,3989431.111991443,3951966.3230020115,3915690.080983262,3880630.8796655824,3846796.493304875
E0,8345.84324490985,12279.875787688816,13571.969803127644,13435.069359577368,12574.81242607232,11394.125137733403,10118.213515259678,8868.23544577376,7704.919199164786,6654.408676676673,5723.53992463435,4944.051595718832,4291.12661479879,3743.9970173653896,3285.386985723767,2901.009945060444,2579.128226271586,2310.180069513032,2086.4774983038947,1901.9805092402144,1752.1597115967613,1633.975064737047,1546.0330532411588,1489.0666298520398,1467.0959470383448,1490.264791530415,1582.6315578666013,1808.993298166465,2418.0833342461856,7165.290277800283,18491.18056156753,26299.09555015643,39241.969445721596,51571.73113188887,64125.47295197564,75961.42884024304,86651.93192543156,95907.95306291319,103576.4908844232,109611.84920868596,114048.21579587788,116975.79924334183,118521.19190829883,118831.87862074857,118064.4622079363,116376.04424703664,113918.18303324761,110832.89298761959
I0,194002.61570784188,128087.22080247961,85786.1419054558,58417.643749492796,40535.3017695149,28712.387556252117,20785.51822105895,15383.642890793042,11633.971571263872,8977.947697645028,7055.824016744973,5634.0991565427275,4566.128520808605,3751.7607505121923,3121.909747355853,2628.387803837129,2237.181288973841,1923.9838327802067,1671.2146297869162,1466.01852613445,1298.9204484636543,1162.9227059477917,1052.912160687952,965.3017032291939,897.8827082765531,849.9376950526444,822.8243953883436,821.7592281586499,861.8093293362251,997.5778681099589,1940.662873386085,4594.677642953636,7731.823205354423,12108.499885808738,17183.5993203046,22754.72976996711,28520.314546221904,34206.59752424691,39582.930038666185,44471.27565501329,48747.241881887065,52335.817529695305,55204.29601664521,57354.12321537796,58812.78981424081,59626.42175004339,59853.3940672836,59559.07645275182
A0,21555.84618976021,17411.593816706365,14174.872569118868,11611.337451357647,9557.771348277665,7897.713327143579,6546.053164469531,5439.206801880819,4528.7301504201305,3777.0825043194,3154.754176989053,2638.2741400839295,2209.50034398152,1853.4228074811917,1557.6181863322613,1311.8022887802845,1107.4620299254364,937.5521884657808,796.2453521628852,678.7258316963861,581.0202755419132,499.85941466546575,432.56703302711355,376.974287486514,331.360762586252,294.4305290097685,265.34971903842313,243.93240638807055,231.32579107378575,233.4222995439523,330.0436451911675,633.8585273842846,1033.0687329105563,1611.294375242877,2320.470122832079,3138.885557305176,4030.337022649002,4957.308256627833,5884.005666560531,6778.734350936889,7615.224464923231,8373.143887856142,9038.03109515175,9600.848714287376,10057.316543844872,10407.142479234624,10653.234868328433,10800.951555327698
IH0,0.0,28617.123547877658,33173.95702870282,29208.028896757532,23191.932134285264,17552.094231061168,12993.82937003428,9549.970974447966,7034.660637859373,5226.410673507558,3932.306629253123,3003.0182512847423,2329.586199046053,1836.0083701224542,1469.5864928707756,1193.8333114203488,983.433566605496,820.7376288638943,693.3529257526782,592.5022373403706,511.9094805399893,447.04523170000346,394.6170863412516,352.227900988861,318.15237027361087,291.20377480203206,270.6841067554606,256.44533783898817,249.1830704423137,251.46694767404927,272.6336779952838,422.3093621570345,888.4884797530037,1583.868930101438,2576.462788203009,3820.3897489454853,5262.900945719329,6833.189431222247,8455.54105823562,10058.151723175411,11578.92920955158,12968.540494638608,14191.303577737237,15224.588626722889,16057.316634531026,16688.01429940878,17122.750432622684,17373.16421293836
IN0,38800.523141568374,70813.77582831641,84043.95792226345,86499.60430584743,83051.99148539559,76630.99184469227,68968.61744264877,61061.227580668754,53456.68095072764,46432.442808386455,40105.730850365144,34501.30874844292,29592.908057941884,25329.526482839876,21649.053148855317,18486.424849110517,15778.322165837848,13465.699249376357,11494.977706673484,9818.435306807816,8394.126708725906,7185.548941639541,6161.184862437786,5294.007908936846,4561.001780406213,3942.734630223024,3423.030275923992,2988.813737210826,2630.34048846131,2342.5840147300673,2132.3177095588367,2147.4497208783437,2690.737684343468,3766.4188678748187,5529.2693906327595,7998.769131530484,11150.512059232666,14904.046085667542,19138.241163729028,23707.02646439804,28454.275646373473,33226.294628221905,37881.27238010645,42295.66317530605,46367.821981084286,50019.38239273136,53194.91161588627,55860.34857371243
D0,140997.0,140997.0,141025.61712354788,141058.7910805766,141087.99910947337,141111.19104160764,141128.7431358387,141141.73696520875,141151.2869361832,141158.32159682107,141163.54800749457,141167.48031412382,141170.4833323751,141172.81291857414,141174.64892694427,141176.11851343713,141177.31234674854,141178.29578031515,141179.11651794403,141179.8098708698,141180.40237310712,141180.91428258765,141181.36132781935,141181.7559449057,141182.10817280668,141182.42632517696,141182.71752895176,141182.9882130585,141183.24465839635,141183.49384146678,141183.74530841445,141184.01794209244,141184.4402514546,141185.32873993434,141186.91260886443,141189.48907165264,141193.3094614016,141198.57236234733,141205.40555177856,141213.8610928368,141223.91924455998,141235.49817376953,141248.46671426418,141262.65801784192,141277.88260646866,141293.9399231032,141310.6279374026,141327.7506878352
R0,0.0,11098.43969277238,41276.58229660138,75400.11732228374,107457.54083128445,135493.1211626889,159253.56285694212,179124.18168104498,195668.28373674484,209442.39254235252,220933.3158775205,230546.0069328161,238610.39140828484,245393.6918558679,251113.20608651236,255946.5332194302,260039.59057693652,263512.8589404806,266466.25650186464,268982.9673609966,271132.47594931483,272972.9966014723,274553.4397206467,275915.02105606126,277092.59633322945,278115.788362722,279009.96824923455,279797.1616642108,280496.99590878916,281127.97094182356,281710.1707543626,282285.4968857562,282999.0708374372,284120.61228143534,285893.65507593844,288613.20061776956,292550.37562999455,297938.4223901935,304953.6031839181,313705.9755534122,324237.80423421453,336527.74312650395,350498.82790544897,366028.55432147736,382959.6842149936,401110.8033922292,420285.99416463426,440283.25821024185
G0,6635658.0,6637160.251784083,6639370.629425867,6641813.58399043,6644231.896475154,6646495.362711847,6648546.3052366385,6650367.583669385,6651963.866049624,6653350.751505474,6654548.545067276,6655578.78225371,6656468.711540939,6657241.114331603,6657915.033794729,6658506.403452159,6659028.58524227,6659492.828322998,6659908.66073551,6660284.226685205,6660626.583176868,6660941.971924955,6661236.087436608,6661514.373386191,6661782.4053795645,6662046.482650031,6662314.730312507,6662599.603992922,6662925.222786592,6663360.477786757,6664650.230036761,6667978.6425378425,6672712.479736871,6679776.034237101,6689058.945840841,6700601.530972197,6714274.58816344,6729871.935910018,6747135.367461342,6765779.135820539,6785509.268678103,6806037.947521361,6827093.591385162,6848427.405928656,6869817.144080391,6891068.74727782,6912016.435242286,6932521.70818827
H0,2669018.4449739177,2663013.1534727262,2653426.3061202243,2643873.9714181917,2634356.0251210863,2624872.3434306504,2615422.8029943,2606007.2809035205,2596625.654692268,2587277.802335376,2443485.0034003197,2302798.135161956,2165313.691757499,2031134.882705394,1900371.8297812578,1773141.6851682458,1649568.6375137004,1529783.7637253033,1413924.6741117823,1302134.8870274918,1194562.8570651084,1091360.569120147,992681.6011282358,898678.5537397861,809499.7496313693,725285.123799305,646161.2652572514,572235.6363854444,503590.0934176537,491317.5704466956,489548.8271930875,487786.4514151924,486030.4201900977,484280.7106774133,482537.30011897464,480800.16583854635,479069.2852415276,477344.6358146581,475626.1951257253,473913.9408232727,472207.8506363089,470507.90237401816,468814.0739254717,467126.34325934,465444.68842360633,463769.08754528133,462099.5188301183,460435.96056232986
S1,834584.3244909849,780044.339227112,733852.0251137578,691238.7755863469,651825.1591474039,615310.1310270834,581443.4719561931,550009.8196798658,520819.16425767133,493701.00705444545,490973.531816452,487439.3345999746,483235.83457964315,478483.0644401901,473285.33955244307,467732.79568694875,461902.80361068505,455861.2703241742,449663.83752330043,443356.9881399153,436979.0714183924,430561.25552843953,424128.41316139646,417699.93719234836,411290.46250114724,404910.41034012893,398566.0663358826,392257.96418683213,385969.2980938743,375156.94410583185,363612.77822347265,352911.37942210725,342378.9618992562,332356.21038888034,322751.02502205357,313594.8308719742,304892.6227164676,296644.97999474424,288847.00330605276,281489.1204046967,274558.0398049253,268037.68261748407,261910.01665680387,256155.76494343393,250754.98567136916,245687.53302639164,240933.4135162026,236473.0539022361
E1,0.0,1600.9146262174106,2285.8119862078756,2482.090325070709,2423.861961300277,2242.179515716027,2009.6774887414313,1765.7729760499235,1531.0048601117837,1315.2372055444334,1122.368562001425,958.9272099473596,820.6645949699688,703.8537163809068,605.2684199606184,522.1443903603398,452.1325114443894,393.2513051554973,343.84262212445026,302.5333347429764,268.20534261947114,239.97689160954866,217.2007751514442,199.4917238311059,186.81328804317747,179.70843022597438,179.9514572548004,192.81316723863966,239.1768655663148,636.6477579984667,1567.6603644704458,2185.152855746997,3186.5023746444526,4108.045058720085,5015.447426570848,5839.103928434682,6551.529183308297,7137.165678170066,7591.1472383107175,7916.412435128607,8121.1953101717645,8216.99969791304,8217.045900951749,8135.131875764916,7984.83635519178,7778.992093542063,7529.3651743573155,7246.486550637127
I1,0.0,0.0,288.1646327191339,599.4709992024492,837.9257158775001,983.034177129502,1045.0133081177248,1043.6037710692092,998.7812484861647,927.2766931186441,841.7824334037762,751.2818388960001,662.8115682468804,580.1982384032061,505.2678225228697,438.6310439761682,380.18881752903764,329.4536500493605,285.7507905847218,248.34150329612913,216.4966066961965,189.5390583253805,166.86837829728188,147.9762616835591,132.46169557695706,120.05646171850265,110.68328333561216,104.61111326391719,102.96418447920526,110.23504389812395,186.52397517981117,403.88408866662905,656.8582641965137,1002.1645611770136,1393.3515100937213,1811.9299165136124,2233.3067477244035,2636.4879015868123,3004.9745621605975,3327.1254883811916,3595.873817579236,3808.090612641314,3963.8049603327217,4065.415493975157,4116.9709324917185,4123.5572006253815,4090.802714490762,4024.497860224965
A1,0.0,0.0,32.01829252434822,71.33087374363609,106.70650549632306,133.842443623064,151.91754521277176,161.72758594504603,164.6975282770353,162.37811982386393,156.2072399699798,147.41316321601235,137.10907477175707,126.10055171680503,114.95751570106216,104.0713809600621,93.69999257525647,84.00264428909297,75.06714153438432,66.93056566999647,59.5951192308567,53.04020223707479,47.2316996218508,42.12937520050953,37.69333463702974,33.89093347048735,30.706915380909365,28.164561449823502,26.387912504631597,25.893867315031574,33.4480490119946,58.1116464990046,90.19237431414362,135.88394694420396,190.86805872976487,253.00339551522887,319.18479498087675,386.3784196508674,451.8460492840952,513.2997841934905,568.9680760573646,617.598367049327,658.4186875977224,691.075868097213,715.5633319930687,732.1473926982906,741.2977560294737,743.6255083107253
IH1,0.0,0.0,0.0,42.50686449027558,109.63826737783444,178.31104402808728,233.98355738477727,270.9066185334322,289.12330670637164,291.6017105368884,282.29087164704447,265.0335939391526,243.0725640360816,219.06385274289732,194.89729966696422,171.78528216885405,150.42286371901628,131.14226502964888,114.03735463255092,99.05544111569229,86.06126131117303,74.87975809735684,65.32370814332234,57.211110845044196,50.376168371166344,44.676994608046954,40.00322378928078,36.28838438128773,33.53898004114621,31.924090527708884,32.19077755173873,43.577155080217736,81.32152115627775,137.47191667318145,216.42673583742243,313.5287695269912,423.72674859869784,540.8723971389545,658.8009073518026,772.0023170117656,876.0099676377381,967.5525711042243,1044.536208385684,1105.920304446792,1151.539432245042,1181.90826599279,1198.033847577517,1201.2489326931427
IN1,0.0,0.0,0.0,57.632926543826784,167.44555459394374,305.73990028870287,448.8644827945116,579.3484958118602,686.7253863277473,766.3546236083895,817.7536229463298,843.0626825577406,845.844377997911,830.4454248567732,801.2175029248656,762.1162590613828,716.5275342050173,667.225076259924,616.3999302933059,565.7249176008662,516.4324902106706,469.3936743570903,425.1917215218453,384.1877606069211,346.57808822762195,312.444460782389,281.8006895924575,254.64271464751835,231.02097671099915,211.20193967531463,196.3039650090006,199.26983896886367,245.18892332484756,333.67034169334056,475.7352045196684,671.1864353374119,916.1635928462032,1202.5629257471574,1519.4994295861047,1854.692421077185,2195.681195396997,2530.7713925437665,2849.688527823884,3143.961221684517,3407.079696724797,3634.482657062995,3823.423886904163,3972.763241769488
D1,0.0,0.0,0.0,0.0,0.04250686449027558,0.15214513186811002,0.3304561758961973,0.5644397332809745,0.8353463518144068,1.1244696585207783,1.4160713690576667,1.6983622407047112,1.9633958346438638,2.2064683986799456,2.425532251422843,2.6204295510898072,2.792214833258661,2.9426376969776773,3.0737799620073263,3.1878173166398773,3.2868727577555696,3.3729340190667427,3.4478137771640998,3.513137485307422,3.5703485961524666,3.620724764523633,3.66540175913168,3.7054049829209608,3.7416933673022483,3.7752323473433944,3.8071564378711034,3.8393472154228423,3.88292437050306,3.9642458916593375,4.101717808332519,4.318144544169941,4.631673313696933,5.0554000622956305,5.596272459434585,6.255073366786388,7.027075683798154,7.903085651435892,8.870638222540116,9.9151744309258,11.021094735372593,12.172634167617634,13.354542433610424,14.55257628118794
R1,0.0,0.0,0.0,6.403658504869644,52.00483728910755,157.4560695580303,326.8623332167784,552.7562695579178,821.8989597115979,1119.5271311367815,1431.8599496557872,1747.29426054265,2056.7683624944584,2353.6877262573644,2633.707332584723,2894.3022939264747,3134.324144854513,3353.6157966799733,3552.7033340291064,3732.5606104616427,3894.4351722029096,4039.7229638974873,4169.880647893901,4286.366478464313,4390.602833642948,4483.9555513165615,4567.727298848315,4643.164925431199,4711.48599050111,4773.944936954135,4832.030739126935,4889.154658781303,4957.423298998554,5059.012768910331,5213.2935660448375,5442.899616910502,5767.6735065709745,6203.635856510426,6761.708815488491,7447.280399962251,8260.377838663258,9196.261004062677,10246.2579502728,11398.698090191097,12639.838039788687,13954.711648469967,15327.86547028993,16743.96313331741
G1,0.0,0.0,288.1646327191339,699.6107902365516,1146.387048749279,1582.682201783329,1986.2745146122138,2348.0164625856714,2665.8555982746575,2941.4364730947786,3178.1791700927765,3380.205511253033,3552.8124090435576,3700.532036138152,3827.225705086715,3936.1740206796267,4030.160010944488,4111.543863004478,4182.329097932467,4244.2207699148685,4298.676770168604,4346.953731840109,4390.149572329828,4429.245711857087,4465.154222146686,4498.780613994458,4531.128131435134,4563.519393740998,4598.225763843953,4641.2775996458895,4755.874196085613,5038.053061690293,5431.380575724753,6004.951003160754,6744.399113730369,7647.179650513122,8698.218357631366,9877.49361062686,11162.183432697471,12528.589935593402,13953.54417391655,15415.359329747469,16894.419275371816,18373.48753754313,19837.811275180815,21275.081819115334,22675.300395952905,24030.58612733722
H1,762576.6985639767,714112.2258820268,672691.0571000981,634194.0305806954,598412.403264894,565152.3418649803,534233.8578824035,505489.8186958685,478765.02928598766,453915.37955102354,408334.14843224327,366947.44368365715,329374.7023921057,295270.4026020808,264321.05791731813,236242.45913561422,210777.13994792153,187692.04499647437,166776.37966148715,147839.6218688342,130709.67704021602,115231.158131621,101263.77365614487,88680.80784609988,77367.67891649873,67220.56403676946,58145.08340815856,50055.04104019793,42871.22651573991,40754.307014656486,39612.02833864627,38544.9735209238,37547.792351666794,36615.51669637494,35743.53320507256,34927.557970852824,34163.61299852496,33448.00435407124,32777.301874856064,32148.32032910467,31558.101921132406,31003.900046199375,30483.1642057316,29993.526000025326,29532.78612147143,29098.902276834164,28689.977972223307,28304.25209913864
S2,834584.3244909849,883593.9621672468,928326.8669154418,969360.7832147101,1006951.1361355751,1041338.9702156243,1072750.9817452102,1101399.681725873,1127483.744133919,1151188.5151197542,1228769.8348211818,1305279.3052913968,1380499.62897597,1454230.8642808166,1526288.2016914727,1596499.9767717083,1664705.9202226186,1730755.650600776,1794507.4213529704,1855827.1401254262,1914587.6840910232,1970668.5387935787,2023955.7865427663,2074342.456387582,2121729.2019348666,2166025.1351836743,2207148.1733525516,2245022.1444387943,2279552.279957745,2284310.725263052,2281607.4246357335,2278328.3632729463,2273093.745116956,2266790.538465251,2259331.4614219624,2250919.941217681,2241701.0770016825,2231810.6537290453,2221369.978240712,2210485.650352722,2199250.188692915,2187743.09567258,2176032.1168940836,2164174.551016321,2152218.526474352,2140204.1987623964,2128164.845147151,2116127.8479697416
E2,0.0,560.3201191760937,846.7321683062846,966.6978843376614,988.432134993578,954.6222731377084,891.6026296239736,815.3294494685161,735.2380612542427,656.7108411559801,582.6425261536176,519.5754632787982,465.8241176273977,419.9753644164833,380.85457066693664,347.49515459630044,319.11224510574647,295.08122884609713,274.92221964805964,258.292053273159,244.98667141110803,234.95948625798127,228.36737382436723,225.6703069612771,227.84818588501219,236.91049897177408,257.2765938624247,300.50636043335356,410.5266142587059,1248.9209821098775,3254.6030198400485,4648.388872498701,6968.778456525301,9197.292121793496,11485.204511575492,13663.83843694359,15654.679086349848,17402.66613387328,18876.32588472912,20063.131506505633,20964.984623351207,21594.21785248876,21970.248789118417,22116.889295310495,22060.25355197166,21827.18355810508,21444.105220970294,20936.232554893133
I2,0.0,0.0,100.85762145169689,218.2204848848923,316.39253091156166,384.3610767099421,422.62416889770714,436.2469579854636,431.4065334144417,413.83174986019964,388.22946139519377,358.19190079758795,327.24059024428357,297.369895129793,269.62675854906746,244.4828675575847,222.07200901318026,202.34020084443964,185.13978983044416,170.28805405663923,157.6039995475394,146.93279885949792,138.1650426676577,131.25758004946263,126.26505052764074,123.39948794028614,123.16095037523027,126.67120383099031,136.74297075140433,163.11835414014956,331.2390417634723,801.9590513291895,1359.9810946900448,2141.7556047618473,3052.988929778047,4059.3847423622847,5108.203102095463,6150.899004180605,7145.886409151912,8060.365533693466,8870.679983153555,9561.736464265015,10125.906609465626,10561.708144386303,10872.46003345098,11065.028423780665,11148.72497469055,11134.382123783611
A2,0.0,0.0,11.206402383521876,25.899765272943196,40.053769905107785,51.81165862395779,60.5417723619204,66.2654704820158,69.31896537498297,70.15993352507122,69.26216364317658,67.06258143761362,64.04157441566686,60.549741885081446,56.839300796394824,53.08853205045459,49.42072873228968,45.91882788794668,42.63668688727928,39.60779390278462,36.85207618769088,34.381394378374864,32.204305227859514,30.330791658774956,28.77803946624551,27.579395290696652,26.801726211992804,26.586912846842736,27.27965748614126,30.03425827408713,49.005826261467256,104.2967214059748,176.40515457475385,280.49969279030915,408.3455966681173,556.3805675660037,718.3812227916749,887.7985599603369,1058.2921706457353,1224.1602542111707,1380.5908334990493,1523.7723592662637,1650.9022444627863,1760.1267713525974,1850.439202988288,1921.5564334300636,1973.7888179061526,2007.913158744328
IH2,0.0,0.0,0.0,14.877402571596457,39.61330006035792,66.4377690482699,89.8491483901208,107.17557551168764,117.83094605859426,122.43396998035595,122.13844092124,118.214405045917,111.82550190188306,104.07184368760511,95.79657314984888,87.57485200349245,79.76326400996433,72.55947922611114,66.05417217123451,60.27080925781285,55.19414710658923,50.78988103872107,47.0180545846991,43.84259061081448,41.23912147975567,39.20354755952673,37.76510002412182,37.01212827646715,37.154189201348686,38.71075343901395,43.37808429449329,70.5063897157493,153.4788318912319,277.1953302784673,454.24860576321566,677.0132678195866,936.6252310861856,1220.8817033507453,1516.5326682617851,1810.8320543419363,2092.581310088858,2352.7028281953876,2584.4404866638615,2783.297728072782,2946.812121522271,3074.244490974632,3166.2388057892367,3224.4899598323127
IN2,0.0,0.0,0.0,20.171524290339377,60.287071140687324,113.01972320479925,170.12170438471037,224.88760904669581,272.79802011075117,311.3595077779121,339.66058210771735,357.8905684414838,366.9241205068318,368.18719565844754,363.25518547086165,353.6372911550753,340.67305085173706,325.49443829312304,309.02461769723067,291.99573602082745,274.9753233530221,258.39543448601273,242.58158054832316,227.78045002316415,214.18694866081384,201.97281578093688,191.32215557663824,182.48687901057943,175.89918414251446,172.47821028461428,174.93073479861715,210.57838336463422,334.1342872015868,547.6812999989666,880.2280140731683,1336.849896878558,1914.8753126150395,2601.551979415347,3376.6493365911115,4215.158492764693,5089.885337548569,5973.661473722764,6841.05233957698,7669.546898900503,8440.275455221079,9138.332929862549,9752.794778628002,10276.509790120064
D2,0.0,0.0,0.0,0.0,0.014877402571596457,0.05449070263195438,0.12092847168022428,0.21077762007034506,0.3179531955820327,0.43578414164062695,0.5582181116209829,0.6803565525422229,0.7985709575881399,0.9103964594900229,1.014468303177628,1.110264876327477,1.1978397283309694,1.2776029923409338,1.3501624715670448,1.4162166437382793,1.476487452996092,1.5316816001026814,1.5824714811414025,1.6294895357261017,1.673332126336916,1.7145712478166717,1.7537747953761984,1.7915398954003203,1.8285520236767874,1.865706212878136,1.90441696631715,1.9477950506116433,2.0183014403273924,2.1717802722186246,2.4489756024970917,2.9032242082603075,3.580237476079894,4.51686270716608,5.737744410516825,7.25427707877861,9.065109133120547,11.157690443209406,13.510393271404794,16.094833758068656,18.878131486141438,21.82494360766371,24.89918809863834,28.06542690442758
R2,0.0,0.0,0.0,2.2412804767043752,18.388484943721757,56.751743073122675,120.1031934841265,206.89505126912698,313.0749136544114,433.5739987744325,563.2882461118593,697.6258052463869,832.7503521510378,965.6564608823536,1094.208320316717,1217.0177130765203,1333.2836593032125,1442.6424514159028,1545.043817371328,1640.655080476893,1729.7900673654897,1812.8582449328396,1890.3298780374644,1962.7139054340764,2030.5463764434814,2094.3886880620134,2154.836898692272,2212.5472605878363,2268.2926429297013,2323.095237035785,2378.6286117241366,2440.718978910354,2533.667424478309,2704.137077479505,2994.6390880549684,3457.4084134204195,4141.042693579389,5087.995507299603,6331.078514627399,7891.67140854424,9779.26574851226,11992.034430713014,14518.096743662747,17337.18419845684,20422.471489320433,23742.399922727953,27262.37729089196,30946.284440813855
G2,0.0,0.0,100.85762145169689,253.26941174682815,427.27503092760725,605.1928152264513,777.0248243912389,937.5132977235542,1084.272598627887,1216.6154496536506,1334.823401061727,1439.6990557693782,1533.2226391595618,1617.0709803324935,1692.6665459274604,1761.220368647509,1823.7694964748432,1881.2097005938776,1934.3243217861752,1983.810321322826,2030.3028909119946,2074.400491765994,2116.6931992924306,2157.799326580817,2198.4199818338466,2239.432655293149,2282.0765451080683,2328.3863320033047,2382.477476881308,2456.3722674478754,2681.1780442276536,3267.0065877988623,4103.716584848628,5358.096707023183,7013.609288946012,9080.946101029602,11540.437019679448,14358.27925522242,17490.759159319612,20888.497818570853,24499.861489741867,28273.558721945083,32160.517935393058,36115.162717434374,40096.202790590265,44067.048429945164,47995.941470404076,51855.88041017873
H2,762576.6985639767,807968.1687165943,849357.5161758274,887295.4783951697,922032.0105986103,953799.1821342146,982812.4543848772,1009271.8673957052,1033363.1417383184,1055258.7016666231,1019035.4259575134,979945.4403715578,938494.2905516813,895149.4546088673,850344.0483099582,804480.185176314,757931.9990522823,711048.3299923091,664155.0670115162,617557.133440244,571540.0925894262,526371.343713948,482300.8717893563,439561.5108495499,398368.68166116776,358919.5730978885,321391.75601945096,285941.2521261252,252700.13067445552,247485.34160204412,247450.10946497144,247333.70542410127,247142.46894435651,246882.28186299515,246558.60112865295,246176.4892012932,245740.64228014825,245255.41651480304,244724.85234348904,244152.6970923658,243542.42596001175,242897.26150247344,242220.19172598203,241513.9868867964,240781.21509052682,240024.2567766971,239245.31816817692,238446.44375942886
S3,2503752.9734729542,2491864.6783529823,2480976.4612940694,2470911.5077564577,2461547.3167417087,2452792.9397257296,2444577.6217261343,2436843.9747955385,2429543.807929301,2422635.5357863074,2531396.247444972,2644275.2957167467,2761457.1686928095,2883137.367085556,3009523.417735939,3140835.7559073484,3277308.4123036643,3419189.422723436,3566740.855935818,3720238.3286692346,3879969.8457796453,4046233.769255596,4219335.682039339,4399583.869332713,4587283.076537523,4782726.053805983,4986181.861070255,5197877.264993518,5417946.997139189,5440676.7009073915,5419457.072298295,5398675.094212821,5376394.837498369,5353738.033533553,5330512.1763014365,5306918.6998988455,5283082.018011311,5259116.768970735,5235121.332281132,5211177.908492356,5187353.571348478,5163701.774229076,5140264.013255219,5117071.48231133,5094146.631653337,5071504.586961883,5049154.41231873,5027100.215990088
E3,0.0,960.548775730446,1410.588174352964,1570.2956022051733,1569.5082522793323,1484.5238918363536,1359.7733037567975,1220.7013833720694,1081.4644623791114,949.5431604788675,828.5092709550089,725.7424134354317,638.6643732337124,565.0159759217452,502.8511268425925,450.51826425688637,406.6367889211164,370.07368159877143,339.9242616417876,315.50083207538563,296.3340701552585,282.1953622994042,273.1562951483097,269.7209289909958,273.11755740051075,285.98945637676525,314.27297805063233,373.6490407955996,523.9938974937154,1669.3700703209727,4405.19667701044,6299.44355868239,9440.28954746099,12447.95085275374,15528.693773026194,18457.01283558623,21129.435109150254,23474.00476129001,25450.194550969944,27042.529374137936,28254.475970338248,29103.097991943916,29614.622202315306,29820.90003872014,29756.674962451856,29457.538328864724,28958.45303763821,28292.732744635112
I3,0.0,0.0,172.8987796314803,366.72077639455244,521.9352301827337,623.0695479973712,673.7615996057749,684.3826033642868,666.2797675124218,629.405183492071,581.599013371814,528.6198154661256,475.5533290273449,425.2538747198015,379.1772198130325,337.9229423724827,301.58498060219495,269.97612047504674,242.77026305269248,219.59178918216168,200.07182527519745,183.8852065255819,170.7786153650817,160.5996499447423,153.33960027524702,149.2138760097329,148.83881969737658,153.68513271433534,167.53499984233173,203.63398829221353,433.3559660168097,1075.6962880077947,1835.7820332015663,2897.083451638529,4130.952155773514,5490.574158793561,6904.812768543462,8308.626802950419,9646.625423465317,10875.371700698352,11963.737908568957,12892.037497746525,13650.49662855743,14237.458775566276,14657.576329472575,14920.138756567929,15037.613794363253,15024.429851850018
A3,0.0,0.0,19.210975514608922,43.58054389874642,66.27034716310061,84.40644277606714,97.21563205758079,104.96797172120058,108.38840504440185,108.34001328310372,105.66287383606033,101.10048448794845,95.3952358590674,89.08947615192817,82.57190043997744,76.11454288883381,69.90199959620477,64.05433545538615,58.64494199628435,53.714438829863234,49.2815677053983,45.35193556742381,41.925455699927134,39.003490462907905,36.59721095014624,34.740119908127205,33.51188505403707,33.094967604242306,33.94895489930584,37.63904186931898,63.49863490187464,138.90284146170853,237.11114434301464,378.49470642363156,551.7547821939801,751.9777012157081,970.722417684291,1199.166636330438,1428.8134042901506,1652.0546144515195,1862.4942790439743,2055.0849426419445,2226.129913952434,2373.1963752082534,2494.9751009410056,2591.113580001842,2662.041630578768,2708.8023652157785
IH3,0.0,0.0,0.0,25.504118694165342,66.82115455822796,110.33387768365135,146.9649442868078,172.72137819567382,187.14053190562137,191.6653591670115,188.48391653237778,179.84453835288372,167.7185824020223,153.83994830275176,139.494889831796,125.53998633567613,112.49111404353317,100.61955192023325,90.03305242332019,80.73728151475086,72.67965931996198,65.77953632318362,59.94870369454523,55.10577861759686,51.187670429106916,48.161612086681004,46.04302768948131,44.93052990973094,45.09026809730021,47.21295691107342,53.5971027733619,90.66884095143993,203.91858940226848,372.54966957743466,613.248044152122,915.3632190018751,1266.675115178844,1650.5926140056408,2049.2425903160342,2445.535709816194,2824.5370585328346,3174.2024959774103,3485.618053682423,3752.893932483954,3972.846770259565,4144.574338610989,4268.996705053623,4348.412086237222
IN3,0.0,0.0,0.0,34.57975592629606,101.87496813098282,188.4413018343908,280.0916847375406,365.8483246385133,438.7279884724933,495.2384428744275,534.4887596944354,557.3118908452872,565.5467938798913,561.7278903361519,548.5171263875463,528.4019546249583,503.5546199057943,475.78616981704766,446.553407489582,416.9930816394265,387.96796877704185,360.1161475363613,333.899046222336,309.64671322227264,287.600982082952,267.95964106575417,250.92896179766547,236.80240187831063,226.11622543922476,220.0693263357749,222.2999926095663,270.08485001687177,437.9788961009038,728.5208403409472,1180.4993526490996,1800.1882284269414,2583.4010076711197,3512.456218060149,4559.757122935897,5691.456240351644,6870.939550852427,8061.772281052386,9229.95578395522,10345.483935892447,11383.268198075675,12323.539180015623,13151.843590430979,13858.749960651963
D3,0.0,0.0,0.0,0.0,0.025504118694165342,0.0923252732523933,0.20265915093604464,0.3496240952228524,0.5223454734185262,0.7094860053241476,0.9011513644911591,1.0896352810235368,1.2694798193764205,1.437198401778443,1.5910383500811947,1.7305332399129907,1.8560732262486668,1.9685643402922,2.069183892212433,2.1592169446357534,2.239954226150504,2.312633885470466,2.37841342179365,2.438362125488195,2.493467904105792,2.544655574534899,2.5928171866215797,2.638860214311061,2.6837907442207922,2.7288810123180927,2.776093969229166,2.829691072002528,2.920359912953968,3.1242785023562365,3.496828171933671,4.110076216085793,5.0254394350876685,6.292114550266513,7.942707164272154,9.991949754588187,12.437485464404382,15.262022522937217,18.436225018914627,21.92184307259705,25.674737005081003,29.647583775340568,33.79215811395156,38.06115481900518
R3,0.0,0.0,0.0,3.8421951029217847,31.359306303977473,95.84466534885034,200.85641944221385,342.7776980173162,514.1288382982706,706.1222843605118,910.2536864790445,1119.1248910359566,1326.7563171686093,1528.6242248906424,1721.6236331649698,1903.8360738940578,2074.260898833323,2232.5723019835164,2378.9209314571854,2513.780824528796,2637.835823750961,2751.898153247742,2856.85245114196,2953.619950202298,3043.139198731947,3126.361737208777,3204.2640217037783,3277.8822364181565,3348.3896978758235,3417.278521976251,3486.908940190303,3565.2935543534154,3685.653754639004,3911.649740609011,4301.061694702008,4924.538228593727,5847.517430852339,7126.906815298283,8806.460905281527,10914.47084857489,13463.24065601218,16449.922892601226,19858.26512576479,23660.871309170747,27821.665043384404,32298.327732656955,37044.560958861046,42012.08402615528
G3,0.0,0.0,172.8987796314803,426.80465101501386,709.457859411945,991.9693448222249,1259.1836453527685,1503.9428400289921,1723.6690890359646,1918.3326922642048,2089.250461150401,2238.3821299223027,2369.0157643406806,2483.975351522749,2585.678227188663,2676.19143002033,2757.2847175865695,2830.4793395923707,2897.0926022801495,2958.2789693756713,3015.0691191492406,3068.409251777187,3119.2044169910796,3168.3725501177755,3216.9223173361547,3266.083477668247,3317.5615798160648,3374.1307158651784,3441.3875432083864,3535.706444757255,3836.19305741503,4629.12845927691,5763.02829983974,7462.280418382718,9702.911571878392,12498.076451023107,15820.33876142863,19623.637081075674,23848.957938107877,28429.992957282466,33297.64824462729,38383.45391928818,43622.01155783809,48952.64355425484,54320.40556122447,59676.60705446581,64978.963953661456,70191.48550043633
H3,2287730.0956919296,2277743.9722583536,2268381.441164732,2259589.6614904525,2251322.789054165,2243538.337366793,2236196.936723667,2229262.1105174567,2222700.067541665,2216479.509142369,2210571.450157452,2204281.3955246815,2197578.4010425895,2190437.798778564,2182840.6915817056,2174773.495917453,2166227.528513097,2157198.6324308724,2147686.838231952,2137696.0558539657,2127233.792691376,2116310.893140251,2104941.2945511527,2093141.7941416714,2080931.8209863186,2068333.2067835894,2055369.9487877486,2042067.9582147491,2028454.7877549373,2014559.3327459611,2000717.5923731024,1986990.7804064811,1973376.9727771902,1959874.3369200511,1946481.125563134,1933195.6709587823,1920016.3795246172,1906941.7268652474,1893970.253147499,1881100.5588039304,1868331.3005411876,1855661.1876314397,1843088.9784666833,1830613.4773571512,1818233.5315563986,1805948.0284968873,1793755.8932210407,1781656.0859938199
S4,1251876.4867364771,1271292.2671120248,1291069.5480046086,1311050.8578620886,1331140.4805513674,1351280.0636470132,1371434.0231136677,1391580.7337208837,1411707.1610516966,1431805.570041479,1521318.6381294513,1611654.1094355632,1702799.6426511751,1794739.4034421027,1887453.581447256,1980917.9045604162,2075103.154969636,2169974.6959625697,2265492.023990264,2361608.366604397,2458270.352783439,2555417.785611604,2652983.5426334837,2750893.6017015544,2849067.097333278,2947416.013825321,3045843.0450017415,3144231.1695705187,3242381.1371706026,3294336.6129981293,3334070.7241438907,3374083.211870662,3410774.6317265085,3446205.821889938,3479996.2114387294,3512520.5050134556,3544018.099039237,3574718.4688263163,3604826.7344099414,3634521.816438688,3663956.8013987895,3693260.4969351604,3722539.577501541,3751880.9617189365,3781354.208479186,3811013.809520308,3840901.3129183515,3871047.2472610814
E4,0.0,1440.8231635956693,2135.4878882774447,2398.151249017683,2417.181378821397,2305.122572864553,2128.6249599816347,1926.5458562611286,1720.954578537025,1523.83816078615,1341.187832605847,1186.418298033636,1055.3143551378141,944.3019535392875,850.3814543563235,771.0628388772145,704.3069350068079,648.4760904602535,602.2977075909095,564.8450845512374,535.5428812661826,514.2110686713703,501.17593740809343,497.51177779154324,505.56855755501397,530.2148765089443,582.2089386058067,689.7634336176634,960.2583153799412,3012.7156992134305,7986.295366413459,11511.136387675422,17460.06970812941,23285.560566586726,29385.333198407585,35326.17315878593,40897.12150282958,45940.55686568463,50355.631079492945,54088.65454096907,57123.173179715646,59470.850367497434,61163.59387594933,62247.038236728986,62775.324173842375,62807.03722182667,62402.13823591491,61619.716533847975
I4,0.0,0.0,259.34816944722047,553.6101774064684,792.8929067531702,952.4481677000497,1036.385961218439,1059.3850493180112,1038.0175096245855,987.0689513787963,918.3445182875082,840.6253822052854,762.0558258387858,687.1911843559775,618.3604440824221,556.5433127355114,501.93083745724425,454.28062381938906,413.13973421744066,377.98356334514165,348.30300460662585,323.6623092947785,303.74475004973226,288.4023974216142,277.73210102615855,272.22004856211817,273.0598211139008,282.966696359317,308.7906528206738,374.3296318171465,786.5355576530017,1950.7405721231605,3344.8452998104767,5325.294144956113,7666.107631549909,10291.426538015947,13073.774801701271,15892.002823479881,18638.689729416255,21225.591691249203,23585.46627286942,25671.476654351733,27455.161637141977,28923.693943012062,30076.91810351375,30924.478007198213,31483.211601179,31774.898449067863
A4,0.0,0.0,28.816463271913392,65.76292838307961,100.57336768681736,128.80232172588185,149.14430883799656,161.88794627002994,168.04127414124653,168.85211088373774,165.55845192271318,159.27051819028748,151.1447805129027,142.02211151307847,132.50372828124853,123.0106117121253,113.82974614724452,105.14993561793177,97.08947030355048,89.71753039465858,83.07092600675162,77.16759843072495,72.01830011800737,67.63815884256778,64.06076262988509,61.35998125500835,59.692282534185566,59.39800479946459,61.313672511924935,68.25610431713878,114.85919743797965,251.61326527865293,431.5133399764308,694.4120661437329,1021.2408642467209,1404.6993553655284,1830.2829474681416,2282.168788031105,2744.546167738577,3202.7495557807206,3643.9727354439583,4057.6416519494796,4435.530328909533,4771.696140646613,5062.29767725187,5305.344625278343,5500.4164446592085,5648.3759204456655
IH4,0.0,0.0,0.0,38.25617804124802,100.75229283777028,167.23420001638536,223.94450186539663,264.6245188842672,288.31641888007596,296.98677347869454,293.7979117229045,282.069200243503,264.75230449300494,244.52146018186718,223.38306367018342,202.68185308598598,183.23336841897054,165.4727452886981,149.58136101997658,135.58291054414292,123.41183365023755,112.9603180099036,104.11028843387912,96.75610528013411,90.8232334483975,86.28876610946156,83.21298979602506,81.80205138906537,82.55934596110285,86.74650084237231,98.50347757947694,165.17427526582276,370.1736710272732,678.1113041981721,1123.9061271954815,1691.6487004078922,2362.210298796494,3107.2418274899123,3894.72643710835,4692.842178709599,5472.693144680466,6209.941415488174,6885.53351881755,7485.763490262356,8001.899915148033,8429.562884563285,8767.989383905453,9019.282416908844
IN4,0.0,0.0,0.0,51.869633889444096,153.51825475940217,285.2423034790632,425.83527320852215,558.6222541237933,672.7809856284738,762.6967313945324,826.694047565172,865.7515998823184,882.4330931104616,880.482626622593,863.9004216597001,836.4527488574059,801.4429968702746,761.6349109483555,719.2603029827226,676.0699925324142,633.4036119703655,592.2646340866002,553.3938471516152,517.3391098775738,484.52285964555665,455.3130079325325,430.11034599673104,409.48427198366477,394.4476362985462,387.2061098721122,394.33911985521166,482.665556882851,788.3822923325769,1319.4417725622343,2153.6942248689843,3310.1758518782276,4789.421060518342,6566.3755628301205,8596.137829783556,10820.176660457018,13172.550792771703,15585.405403856366,17993.387967292318,20336.88565744452,22564.148103209838,24632.44639209054,26508.454842267303,28168.04493262981
D4,0.0,0.0,0.0,0.0,0.03825617804124802,0.1390084708790183,0.3062426708954037,0.5301871727608003,0.7948116916450676,1.0831281105251436,1.3801148840038382,1.6739127957267428,1.9559819959702458,2.220734300463251,2.465255760645118,2.6886388243153014,2.8913206774012874,3.074554045820258,3.240026791108956,3.3896081521289325,3.5251910626730756,3.6486028963233132,3.7615632143332167,3.8656735027670956,3.9624296080472297,4.0532528414956275,4.139541607605089,4.2227545974011145,4.30455664879018,4.387115994751283,4.4738624955936555,4.572365973173133,4.737540248438956,5.107713919466229,5.785825223664401,6.909731350859882,8.601380051267775,10.963590350064269,14.07083217755418,17.96555861466253,22.65840079337213,28.131093938052597,34.341035353540775,41.22656887235833,48.712332362620685,56.714232277768716,65.143795162332,73.91178454623746
R4,0.0,0.0,0.0,5.763292654382679,47.11738196295821,144.46273455017985,303.73696271409995,520.0282867428142,782.4364137978755,1077.8906342250214,1393.570917246236,1718.1929148325862,2042.525201805309,2359.491941810018,2664.1775360376555,2953.4895751477757,3225.7510385674273,3480.3279254197296,3717.3250179171755,3937.3518497816704,4141.34990436375,4330.46958519531,4505.986512680348,4669.249004204877,4821.651418329798,4964.63145949823,5099.694510452187,5228.477500092883,5352.88810170429,5475.430166177795,5600.187553842739,5741.391806623034,5958.732976286583,6368.032059527944,7076.776501540249,8219.717637288073,9925.521957528199,12310.48415444855,15469.177123542268,19469.14869085395,24348.86389730005,30118.243660218293,36761.055465786674,44238.462928253546,52493.16024435114,61453.65506919757,71038.39258779776,81159.52279855563
G4,0.0,0.0,259.34816944722047,643.7359893371606,1075.4032141603436,1510.4958623481953,1925.4179254638148,2308.570418260509,2655.348672387512,2965.120496524177,3239.411365465684,3480.8251753347363,3694.3804689807907,3884.3370529055974,4054.311404542669,4207.3800663268075,4346.171377324707,4472.946625625932,4589.672321908778,4698.085909275142,4799.758024494365,4896.155743122277,4988.713735483124,5078.92540421658,5168.477524219058,5259.479864578961,5354.9185423505705,5459.716151299615,5583.873569350795,5756.720066119185,6299.008891977603,7736.542057932025,9808.5466077136,12951.359155176895,17142.760057162508,22432.120032875875,28790.831201457346,36152.31307196667,44421.61330778991,53485.62690209864,63221.584719473074,73503.75589182189,84208.50895797143,95217.9558556423,106422.42273825352,117721.98108954515,129027.24778947396,140259.63267193863
H4,1143865.0478459648,1162929.4653100641,1181910.6650788838,1200813.8437552566,1219643.7576010104,1238404.7808431285,1257100.9336545183,1275735.9081272155,1294313.0923815276,1312835.5929443748,1261859.1152575498,1210926.0387222543,1160078.4708337532,1109363.4951693257,1058833.7364876296,1008547.9442920345,958571.5851912335,908977.4291181738,859846.1075931572,811266.6134696791,763336.7007920763,716163.1305154465,669861.6932260648,624556.9245562063,580381.4144624418,537474.600842089,495980.9354154955,456047.3211403017,417819.7523341482,425661.6836044849,442449.6780440346,459122.3246471438,475680.5811505311,492125.3892570077,508457.6753980081,524678.3514443676,540788.315369024,556788.4518650626,572679.632922273,588462.7183651688,604138.5563552015,619707.9838597114,635171.8270899735,650530.9019105292,665786.0142218388,680937.9603181421,695987.5272222828,710935.4929991248
E_Om,0.0,0.0,0.5476576478269802,0.792198104966988,0.8747986328207084,0.873172086197944,0.829933666138799,0.7682433515735597,0.7004797537986389,0.6330644292816308,0.5691481651825735,0.5159491356722085,0.471866796909114,0.4356032503202498,0.4061289518569844,0.38265560780985486,0.36461852101265024,0.35167121069865503,0.3436967576811944,0.3408437774183256,0.34360191412403174,0.35294630354212037,0.3706125845933923,0.39964086488276107,0.4455304715169287,0.5189628576200388,0.643287594516755,0.8806738907147742,1.4741977693860615,6.192973451182375,20.334122373225217,37.464437707452795,75.6670007423449,124.42831222809343,194.2614376956806,282.96839315121156,391.92765352215065,520.7896699028126,668.7548409014973,834.5635196682734,1016.6246483786302,1213.1251008933311,1422.1229515810046,1641.6241270016117,1869.6432282902226,2104.2500640691296,2343.603772289749,2585.9764863330593
I_Om,0.0,5.0,3.2624552137231593,2.2273011809187415,1.5958897289380773,1.1987675072479815,0.9393560363282485,0.762309459557267,0.6356838974438587,0.5408644047828699,0.466860776730923,0.407069144758592,0.35847981515369676,0.31884089183617903,0.28644941104146177,0.2600088862382863,0.23853147871026364,0.22127098705335596,0.20767815499733605,0.1973735522921081,0.19013635488058833,0.18591061300202416,0.18483534437256613,0.18731367181252942,0.1941558487201801,0.2068804370594465,0.22840094647199044,0.26482133874038577,0.3313148517844031,0.4815355716070795,1.4289328684493632,4.592507924527142,9.740169071829204,19.975433207808937,35.430887444095816,58.08539547898828,88.83451103153746,128.51070036866452,177.59422146989917,236.25451011458517,304.3753851980771,381.5946491818458,467.34960871123417,560.9235647988697,661.4899445559406,768.1520447806346,879.9773402177808,996.0260113225024
A_Om,0.0,0.0,0.0,0.010953152956539605,0.02460648446457145,0.03718116022807133,0.04720836990641594,0.05436536924790873,0.05885716242979818,0.061095325019811325,0.06153754860148169,0.06061300218483682,0.058809384461313625,0.05648484350723318,0.05389993981219154,0.05124253088689292,0.04864713686571144,0.04621007991282215,0.04400148814423082,0.04207512566900855,0.04047697608357335,0.03925361914933932,0.038461821390313865,0.03818170880411894,0.03853818434095037,0.03974115690309887,0.04217218267487988,0.046603498030239006,0.054896276238486696,0.0734009763785106,0.182580250126456,0.5527466475656692,1.1914860722015916,2.4665288726081718,4.461789342648407,7.454660228032337,11.623096045450104,17.137029906803097,24.12541732349873,32.67543067682894,42.83161493482862,54.597784915435504,67.94072995021503,82.79504299179213,99.06851693346594,116.6476781125772,135.40314377144438,155.1945904629505
IH_Om,0.0,0.0,0.7375447862768407,0.849276215020786,0.7523357059863457,0.6108235470973945,0.48162989498736647,0.3788967470090115,0.3015169502426924,0.24422602702707547,0.2016511318525772,0.16949006115344573,0.14462188558974384,0.1250453046397011,0.10942949450033723,0.09685917168480863,0.08668636635685875,0.07844202650920457,0.07178202379919968,0.0664536179641764,0.06227472225252076,0.05912190184878007,0.056925309689176126,0.055670598447233,0.05541007303390971,0.05628935323366572,0.05860510481077297,0.06293513275079816,0.07046815077921322,0.08403551554876154,0.11296453230795996,0.26714969903455976,0.810743754952259,1.8413233169976901,3.865375658389997,7.155195715047498,12.138558780679936,19.16102692211188,28.517831841672585,40.42713651259835,55.02279755366686,72.35447166404913,92.3935101554026,115.04261502224435,140.1475150395451,167.5093019610911,196.89644881775473,228.0558678239368
IN_Om,0.0,0.0,2.0,2.9551275007943016,3.3156662289987873,3.345737367099849,3.199931263365713,2.9681766901050706,2.7021495508300513,2.430888429486697,2.1700650337732332,1.9275051020118092,1.706482790760592,1.507958267424204,1.3315114583440963,1.175942969006686,1.0396576215121371,0.9209063166364773,0.8179360310740185,0.7290809138497274,0.6528165677486752,0.5877927511043866,0.532855779860757,0.48707039924076645,0.4497522169430318,0.42052796332489195,0.399458270329085,0.3873073620119996,0.3862072365155856,0.40165258030370476,0.4513846733320499,0.7255876056897601,1.7299245460666777,3.8239225566252664,8.065888611663198,15.359460624667022,26.93281023140263,44.014728892107044,67.81787853678246,99.45443631678083,139.87706212898075,189.83682481146212,249.8586178020204,320.23238794677775,401.0175600492126,492.0576751988575,593.0022890412191,703.3334472185045
D_Om,0.0,0.0,0.0,0.0007375447862768408,0.001586821001297627,0.0023391567072839725,0.002949980254381367,0.003431610149368734,0.003810506896377745,0.004112023846620439,0.004356249873647512,0.0045579010055000905,0.004727391066653536,0.00487201295224328,0.004997058256882981,0.005106487751383317,0.0052033469230681265,0.005290033289424984,0.0053684753159341896,0.0054402573397333885,0.005506710957697564,0.005568985679950087,0.005628107581798865,0.005685032891488043,0.005740703489935275,0.0057961135629691855,0.005852402916202851,0.005911008021013624,0.005973943153764421,0.006044411304543635,0.006128446820092398,0.006241411352400357,0.006508561051434916,0.0073193048063871745,0.009160628123384864,0.013026003781774865,0.02018119949682236,0.032319758277502296,0.05148078519961419,0.07999861704128676,0.1204257535538851,0.17544855110755195,0.24780302277160107,0.34019653292700364,0.4552391479492481,0.5953866629887933,0.7628959649498843,0.959792413767639
R_Om,0.0,0.0,0.0,0.7186269778333827,1.6623881681906094,2.623477833843438,3.521586617970317,4.331598551043902,5.051135110006977,5.686344722058947,6.245905531545374,6.738642207767856,7.172683087262428,7.555266320974886,7.8928689986897,8.191281428040085,8.455664039583267,8.690601142834378,8.900155820546455,9.087926465304125,9.257104449581975,9.410532640520799,9.550765309687225,9.680131347592623,9.80080489469886,9.914891505621124,10.024546231599404,10.13215937417424,10.24069826829869,10.35446978510467,10.481427736491659,10.653385551384057,11.024434805638675,11.97071491436401,14.053590766361404,18.289580519300713,26.044899281421685,39.15008144993947,59.85737824086077,90.80457549158652,134.95052514009095,195.49656264363307,275.80099721085696,379.2929897603928,509.3906904153714,669.4270672850394,862.5855706894329,1091.846708630438
G_Om,0.0,0.0,0.0,0.09857837660885646,0.24117403550291433,0.3986377894106419,0.5558087649262717,0.7051968248312557,0.8434806281144964,0.9695669837982515,1.083518581068945,1.1859652508018081,1.2788360952228057,1.3637721186664462,1.4421807037240915,1.5152839150583486,1.5841619244641223,1.6497932582463994,1.7130940761721574,1.774959492554772,1.8363113724900706,1.8981597170323967,1.961690051669978,2.028400316896789,2.1003356725756857,2.1805311574487334,2.27394447182034,2.3897362388333563,2.5482575391620155,2.8136131376515063,3.928348358864334,7.588490386044874,14.332089173386379,27.95214930700846,50.349245508065295,85.3163042932878,136.25061506050588,206.797592694493,300.5397332769993,420.91560463926885,571.1370381795581,754.1294748877117,972.4919930485112,1228.4741243330923,1523.9664671933824,1860.5022482856225,2239.2672598180657,2661.115938830221
beta,1.0,0.9999999999999994,0.9951513503721385,0.9919449969071599,0.9897559226182241,0.9882126177418017,0.9870897837662927,0.9862482672584848,0.9856005171824757,0.9850903251455092,0.9846807733900645,1.0395841386139073,1.09916507782195,1.1643795625505284,1.2364322073297045,1.316864183388365,1.4076810794049226,1.5115435648125788,1.6320599943414997,1.7742506985341329,1.9453141475748121,2.1559516965921217,2.422791574339097,2.7731467138809838,3.255228193205268,3.9628339402783777,5.105835499585169,7.2698391903211474,12.935371051378684,66.2123071384503,141.263576753029,67.39775013509475,45.738170464930185,30.278750531148816,21.99792197057056,16.773087278474033,13.338586927526295,10.968376812346584,9.267152933348505,8.005676556759717,7.044460491348335,6.295026295636264,5.699193207546716,5.217485906339393,4.822376566010232,4.494200410170957,4.218606713329035,3.984921943406146
