series,2021-11-01,2021-11-02,2021-11-03,2021-11-04,2021-11-05,2021-11-06,2021-11-07,2021-11-08,2021-11-09,2021-11-10,2021-11-11,2021-11-12,2021-11-13,2021-11-14,2021-11-15,2021-11-16,2021-11-17,2021-11-18,2021-11-19,2021-11-20,2021-11-21,2021-11-22,2021-11-23,2021-11-24,2021-11-25,2021-11-26,2021-11-27,2021-11-28,2021-11-29,2021-11-30,2021-12-01,2021-12-02,2021-12-03,2021-12-04,2021-12-05,2021-12-06,2021-12-07,2021-12-08,2021-12-09,2021-12-10,2021-12-11,2021-12-12,2021-12-13,2021-12-14,2021-12-15,2021-12-16,2021-12-17,2021-12-18,2021-12-19,2021-12-20,2021-12-21,2021-12-22,2021-12-23,2021-12-24,2021-12-25,2021-12-26,2021-12-27,2021-12-28,2021-12-29,2021-12-30,2021-12-31,2022-01-01,2022-01-02,2022-01-03,2022-01-04,2022-01-05,2022-01-06,2022-01-07,2022-01-08,2022-01-09
S,212180.39425477502,212116.84599297342,212071.08133842458,212034.68752043252,212003.4073177735,211975.07037644298,211948.56283986737,211923.30840301732,211899.00531529586,211875.49250985932,211852.68122157868,211830.51994792905,211808.9764411835,211788.02842629855,211767.6588028883,211747.85315907683,211728.5984816072,211709.88248744735,211691.69327972544,211674.0191737042,211656.84861228033,211640.17012873603,211623.9723343863,211608.24391919468,211592.9736589358,211578.15042541263,211563.76319781548,211549.80107417083,211536.25328230616,211523.1091900276,211510.35831436014,211497.09337611304,211484.54046433597,211472.4821840176,211460.81899071758,211449.50227899716,211438.5054489057,211427.8113990887,211417.40712938388,211407.28142007295,211397.42384093127,211387.82433327855,211378.4730373868,211369.36022369066,213177.5205087822,214985.55831821074,216793.45518622917,218601.1738849798,220408.6626996413,222215.85655468318,224022.67600587258,225829.02448415154,227634.7837490588,229439.8071403034,231243.90979472094,233046.8543980384,234848.3300806796,236647.9204132564,238445.0534655158,240238.92122711428,242028.34442605643,243811.53512199776,245585.65646168077,247345.95097507272,249083.87046960302,250782.64595729826,250588.3942079141,250348.49088903307,250034.00570172086,249629.3222232303
E,27.429582000154717,85.49192740169762,114.15819647019225,127.72037516824552,133.45650279364378,135.10214356544347,134.58925142795727,132.92583799242175,130.64375811539992,128.0278119288326,125.23353782367317,122.34810390858786,119.42198987242554,116.48560678288293,113.55810883655627,110.65213088072122,107.77638217422022,104.93709989925044,102.13888764130508,99.38521613422529,96.67873433126421,94.02147100931727,91.41497115719996,88.86039211737472,86.35857395277893,83.9100926853801,81.51530174544808,79.17436504105828,76.88728389749105,74.6539193965233,72.47401118469531,70.34719351546815,68.27230622797929,66.24925423013039,64.27757946402699,62.356658516369066,60.48578173973897,58.66418602042026,56.891069703921566,55.16560074614095,53.486922277868715,51.854157110090505,50.26641170907309,48.722779812410685,47.22234573864278,46.07923524570913,45.23314823123021,44.65102323737493,44.31745229863102,44.2295678807303,44.39461370766079,44.829250533922675,45.56015187356475,46.62577748357119,48.079479541081874,49.99438042154205,52.470851102158534,55.648048886639714,59.722085262759194,64.97548042402859,71.82668501232902,80.91707056809241,93.27198524709935,110.61847258293037,136.06244846895208,175.67534525181458,242.65698129463146,310.044763861938,385.40845448366497,468.3926976657734
I,156.09331650413452,100.26505303841265,71.77550008397044,57.13245912761497,49.47898964471182,45.331879520836,42.92588954919146,41.370639884819774,40.22066908147136,39.25610168184318,38.37082915424351,37.515610666732954,36.66922330092699,35.82392199641224,34.978182334688334,34.1331344186995,33.29085477623693,32.45358346889346,31.62339400639182,30.802078680234413,29.99113147968973,29.19177122737396,28.404977893498256,27.631530041142103,26.872038605543352,26.12697558930646,25.396697728741415,24.681465745575615,23.981459937153367,23.296792818826624,22.627519429519847,21.97364579737328,21.335135958235757,20.711841500105358,20.103659596992877,19.5104764154413,18.932153303403986,18.36852677519969,17.819412060824053,17.284606939038582,16.76389501160896,16.25704834831662,15.763829624768471,15.28399388650676,14.817290041215328,14.363462148181208,13.956465737766509,13.610915020810062,13.332327815100706,13.122469780718596,12.982129952849832,12.912586793745772,12.916446523251338,12.998230311483344,13.164932856141167,13.426707859863537,13.797825000257482,14.298078545497038,14.954918315865516,15.80675090513737,16.908196040842455,18.338740860212887,20.2175811775437,22.73036255308501,26.180352086335972,31.093875102842304,38.45834376131573,50.322710588385064,65.03577525786015,82.39051702037297
A,131.36301553559338,108.9122417905339,96.03362168080386,88.2218262844547,83.13373975945372,79.5366063421336,76.77330119844764,74.48812160460932,72.48507413139087,70.65401213641199,68.93174564963846,67.28130592650585,65.68071483057032,64.11678355141272,62.581608505698476,61.07053835063695,59.58096024053925,58.111553744914254,56.66181936158492,55.23177324235225,53.82174568446365,52.432246337743436,51.06387344710613,49.71725280360706,48.39299708127646,47.09167933088323,45.81381637547328,44.55985914893402,43.330187892590146,42.12511072657784,40.94486453438532,39.78961739835539,38.65947203866772,37.55440562457556,36.474390971843484,35.41936419593953,34.38921657178706,33.38379517152454,32.40290637597225,31.446320083098847,30.513773861909208,29.604976825710196,28.71961318126248,27.85734546693685,27.01781750614618,26.200657102141435,25.434272876705453,24.736164838335853,24.11748644360181,23.58586385656005,23.147212257430933,22.806985050761952,22.571122285430636,22.446873331425405,22.443625346484023,22.573858236588322,22.85436399640237,23.307917888883665,23.96568662800332,24.87083951409122,26.084165537536673,27.69314941628821,29.8272739237262,32.68513490167285,36.58544316703558,42.07022837324904,50.133449369327394,62.78664387984777,79.19488014195008,99.37370801691027
IH,0.0,27.760743442578274,32.06297633775901,29.201666988685165,25.13063744060115,21.682538034834707,19.177370235335783,17.465235308207184,16.310938450152676,15.514686557158429,14.934954487468357,14.480320411384831,14.09516096392214,13.747187229208304,13.41846934366481,13.099544719008565,12.785763487215132,12.475111267824357,12.166953807447003,11.861334733311036,11.558595164102115,11.25917567084025,10.963518869698039,10.672025946057571,10.385041026755369,10.102849176297523,9.825680473009061,9.553716307600322,9.287096035893356,9.025923161913814,8.77027075597251,8.52018606497822,8.27569438143534,8.036802275045877,7.803486719024818,7.575717621733341,7.3534593121953735,7.136668845357364,6.925295130629499,6.719279116380198,6.518554566218215,6.323049039255752,6.132684863033238,5.94738001247784,5.767048874230143,5.591602903849282,5.42095119204626,5.2610860280959395,5.117678363958731,4.994616655742947,4.894208279507522,4.81777640450173,4.766226704341091,4.74048696761972,4.7418368881925925,4.772176468557291,4.8342855229695685,4.932126902155328,5.071252455095527,5.259390124556451,5.507332025427064,5.83032453314275,6.250320029474226,6.799770702475973,7.528329202480749,8.515384387573594,9.895239193782878,11.91235038867395,15.05643531912036,19.284879029902754
IN,31.046459046225916,61.78245350198957,81.1070258141934,94.5718718719198,104.98961567831579,113.78093156095068,121.65948740787394,128.9807140226255,135.91939421078655,142.55996209971536,148.94227495360977,155.08468681805212,160.99557435493202,166.6790092892532,172.137482161142,177.37315540338255,182.38839459827514,187.1859546870017,191.7690086023848,196.14110996233939,200.30613332962153,204.26821167102435,208.03167904357463,211.60102107665475,214.980833397048,218.17578718832524,221.19060080202294,224.0300163598679,226.69878041908325,229.20162793188257,231.54326887989896,233.72837709201463,235.76158085780048,237.6474550307777,239.39049919726205,240.99514749594732,242.46576708303138,243.8066538657039,245.02202827530576,246.11603178870442,247.0927242468442,247.95608185134654,248.70999570722864,249.35827080539835,249.9046253662,250.35269048631972,250.70601004569133,250.97484613132227,251.1722649289227,251.31229943857255,251.4091935144669,251.4772055088217,251.5307054723644,251.58443812406708,251.6538999819195,251.7558238216267,251.90879462996222,252.13404973685243,252.45655111525528,252.90647079944338,253.52131805142864,254.34909072888783,255.45311644708408,256.91979720955527,258.87159530516465,261.4900672514276,265.0596384165866,270.0582830205174,277.36672561412655,287.52846506407076
D,396.0,396.0,396.4563936516362,396.9835171014596,397.46359990105736,397.8767539440384,398.2332203596777,398.54850118234685,398.8356340732756,399.1037900315725,399.3588554071255,399.60438984065587,399.84244997485524,400.0741779902101,400.300185229254,400.5207882630234,400.7361480952067,400.9463492844853,401.1514432726152,401.3514710740663,401.54647442055136,401.7365006518604,401.9216043508826,402.1018473772292,402.2772981861009,402.4480308902302,402.6141242888828,402.77566096387,402.9327264791125,403.0854086895758,403.2337971518579,403.37798262385127,403.51805664019963,403.65411115136135,403.786238215803,403.9145295134247,404.0390762294123,404.1599689625119,404.2772976054421,404.3911512109792,404.50161786107554,404.60878454874086,404.71273707603797,404.81355996807474,404.9113364014465,405.00614814524283,405.09807551286053,405.1871973231246,405.2736909096131,405.35782683779007,405.43993960032304,405.52040162372566,405.5996070877496,405.6779650616496,405.7558998677603,405.833856866907,405.9123126564374,405.99178953454924,406.07287494970984,406.1562476241894,406.24271332959427,406.333255262632,406.4291072742833,406.5318641182434,406.64365407039685,406.76742170877253,406.9074167843284,407.07009702229846,407.2659390790756,407.5134706882391
R,0.0,25.26821571247037,59.65157539796138,93.8073908862285,125.26622486987196,153.94539844994716,180.4052678153027,205.23917484881198,228.90584450282796,251.71775356628356,273.87320880666596,295.49226236015454,316.6450733799971,337.3715147231924,357.6937885618178,377.6241767488259,397.1696428822479,416.3344880614461,435.12184144399146,453.5344703303728,471.5752011710929,489.2471225569318,506.5536687128779,523.4986393043868,540.0861866758285,556.3207875880655,572.2072086320547,587.750470123426,602.9558108936529,617.8286551082072,632.3745815646539,646.5992955766548,660.5086033799822,674.1083889200511,687.4045806470167,700.4031359982622,713.1100304441921,725.5312456716727,737.6727570478805,749.5405212986373,761.1404650384105,772.4784744282704,783.5603860113278,794.3919786660784,804.9789665787172,815.3269931299494,825.4416255997554,835.3338212693828,845.0207867973495,854.5246491488886,863.8709556898407,873.0876066543942,882.2043040695985,891.2524487212033,900.2654030736652,909.2790706688362,918.3327882006585,927.4705776191817,936.7428665405178,946.2088680895812,955.9399381569757,966.024439343107,976.5750154057777,987.7398818222765,999.7211319924812,1012.8060186938203,1027.4239770427075,1044.2593759272518,1064.4986581872295,1089.4090646765997
G,31979.0,31981.978939023084,31991.263631684236,32003.661571480327,32017.53240661115,32032.026203273956,32046.698721709232,32061.315538442497,32075.75170323601,32089.94002696511,32103.844250696715,32117.445007457045,32130.732397003532,32143.702001346872,32156.352705235502,32168.68547362398,32180.702643651068,32192.40749830848,32203.803997965573,32214.89660295559,32225.690150544397,32236.189765682528,32246.4007936521,32256.328747525866,32265.979266067607,32275.358079274618,32284.470979701957,32293.323798288347,32301.92238377343,32310.272585040795,32318.380235887063,32326.251141833647,32333.891068680747,32341.305656231412,32348.500533961418,32355.481281599987,32362.253411171714,32368.822357631245,32375.193473056646,32381.37202246382,32387.363180506014,32393.17202877783,32398.803553608337,32404.26264428605,32409.55409167651,32414.682587199397,32419.686937321334,32424.599399727875,32429.448641526076,32434.261656469404,32439.06512688806,32443.88652180351,32448.75511964763,32453.70309567997,32458.76680201084,32463.988384965098,32469.417932187935,32475.1164319289,32481.15998535912,32487.6459919752,32494.70253385679,32502.503138141637,32511.290986937413,32521.420618391927,32533.43413302183,32548.210943595106,32567.28983956082,32593.643152228797,32627.314990391165,32669.17156279102
H,39974.97332096781,39974.973320967816,39974.973320967816,39974.97332096781,39974.973320967816,39974.973320967816,39974.973320967816,39974.973320967816,39974.973320967816,39974.97332096781,39974.97332096781,39974.97332096781,39974.97332096781,39974.97332096781,39974.97332096781,39974.97332096781,39974.97332096781,39974.97332096781,39974.97332096781,39974.97332096781,39974.97332096781,39974.97332096781,39974.973320967816,39974.97332096781,39974.97332096781,39974.97332096781,39974.973320967816,39974.973320967816,39974.973320967816,39974.973320967816,39974.97332096781,39974.973320967816,39974.97332096781,39974.97332096781,39974.973320967816,39974.97332096781,39974.97332096781,39974.97332096781,39974.97332096781,39974.973320967816,39974.97332096781,39974.97332096781,39974.97332096781,39974.97332096781,38654.142533429986,37349.294650252676,36061.17152993143,34790.56650831584,33538.32762621142,32305.360807783585,31092.63289320254,29901.17439664878,28732.081820711006,27586.519309255644,26465.719362185708,25370.982266849613,24303.673822946028,23265.22085302756,22257.103904158164,21280.846466686962,20337.999977258773,19430.12385516455,18558.759871051898,17725.40029854987,16931.449590024542,16178.179782524343,16178.179782524343,16178.179782524343,16178.179782524343,16178.179782524345
S0,74263.13798917126,74061.09813755486,73769.25112883908,73483.58094753978,73201.73550294,72922.5126143102,72645.29374179096,72369.75784105666,72095.73592954954,71823.13688177637,71551.90945799829,71282.02282871684,71013.45656719682,70746.19550107815,70480.22706397541,70215.53993660914,69952.12335482385,69689.96676332662,69429.05964896278,69169.39146722024,68910.95161694377,68653.72943966111,68397.7142310847,68142.89525820267,67889.26177845921,67636.80305916803,67385.5083961862,67135.36713135707,66886.36866849588,66638.50248783949,66391.75815896483,66145.77116662514,65901.02156226747,65657.41647043375,65414.91028779514,65173.47781338265,64933.10267103731,64693.77232400139,64455.47593269432,64218.203438364275,63981.94517444976,63746.691704252626,63512.43375492628,63279.16219184943,63590.24994162269,63891.27148215678,64181.93444492579,64461.919482853125,64730.88178436882,64988.45112254729,65234.231019454935,65467.79731017772,65688.69620319587,65896.44178668002,66090.5127731282,66270.34805440785,66435.34027929029,66584.8260326252,66718.07003236438,66834.23853957484,66932.35274869636,67011.20363552764,67069.18901265005,67103.98373136652,67111.82311772025,67085.79767652608,66764.68377444608,66427.73693103743,66064.37921338779,65669.52504513292
E0,27.429582000154717,56.97026659311724,70.89441421846907,76.88903321688218,78.87830123091794,78.85599387436991,77.83572555686465,76.33205220768062,74.60516733752101,72.78569792740291,70.9384449373509,69.09495028213739,67.27011853225616,65.4706737868202,63.69943475291835,61.957450186864605,60.245042860755106,58.562300265992484,56.90928824156251,55.28612891348683,53.69301492773657,52.13019622728075,50.59795725643546,49.09659307343433,47.626388081715035,46.18759871179164,44.780440238831204,43.4050774046893,42.06161831507024,40.75011104085497,39.47054238391013,38.22283832909395,37.00648511859045,35.82153408884369,34.667823388895236,33.54508437005726,32.45298413919633,31.39114348282221,30.359145536513058,29.35654108649709,28.382852672488266,27.43757823948045,26.520194564179604,25.630160503449535,24.766920060107225,24.092346085864058,23.57403595984499,23.19377692400852,22.94248961245537,22.8175143154163,22.821292785988273,22.960940861034388,23.24847047349647,23.7015905971816,24.345150221604232,25.213424280271184,26.353629071831598,27.831350513962622,29.739090737146917,32.21011604866657,35.44171990377321,39.736046347798805,45.57558770302938,53.77193996253682,65.78242884437039,84.45082530622102,115.94703872452291,147.47136286627503,182.56218779927988,221.0021745947211
I0,156.09331650413452,100.26505303841265,68.67795786166029,50.503313939609505,39.82689048748706,33.388785058650384,29.37377383218017,26.76058917998381,24.968602202889826,23.664190223979254,22.65360737145695,21.82313793439503,21.10533345190906,20.459774941621276,19.862001283952534,19.297073057016686,18.75579307300909,18.232464182456635,17.723545103954336,17.226835862533033,16.740978573611155,16.26514784927923,15.798856406069365,15.341831433129347,14.893934943681074,14.455111823730668,14.02535557230614,13.604685517198327,13.19313159605559,12.79072420832042,12.397487521280357,12.013435163986285,11.63856759254992,11.27282929552825,10.916191250374535,10.568617791085037,10.230057512510951,9.90044222283586,9.579688237313425,9.267698126124206,8.964362379506575,8.669560891140634,8.38316427927265,8.105035082235279,7.835028856354299,7.5729951931807165,7.3364202514109405,7.13268335966701,6.964405766733654,6.832235134203258,6.736286268263253,6.676895904651147,6.6550467182764965,6.672655701047198,6.73284088024037,6.84024426397197,7.001481377949183,7.225803227812589,7.526098396687676,7.920445795622195,8.434586357309481,9.105989966275704,9.990823752417104,11.176494409210513,12.805620574663063,15.125360351355955,18.598599023490358,24.18390427176674,31.088620841953265,39.20300180898214
A0,131.36301553559338,108.9122417905339,93.42683174139793,82.15612879360357,73.57464386536105,66.80537408485726,61.32016377841102,56.78384310148672,52.9719501533482,49.72644957377033,46.931270145577,44.49831570684598,42.35911037865914,40.45955029297277,38.756425374916596,37.21499268288892,35.807205964065304,34.51037699314769,33.30613609305613,32.17960967197229,31.118761144115076,30.113858370282337,29.15704107119994,28.24196834486039,27.36353096905276,26.51761641984265,25.70091695153299,24.910772934815288,24.14504510209858,23.402010507257277,22.680277941431296,21.978719306236304,21.29641406673758,20.632569625230175,19.986548662190255,19.357820150208006,18.74592939849862,18.15047767791365,17.571107355215915,17.00749064406209,16.459320977741804,15.926306396002333,15.40816452207759,14.90461880719996,14.415395785517694,13.940223130756484,13.493674924761478,13.084594811920883,12.718481637740332,12.39895969278675,12.128721597036092,11.910171566253632,11.745907402641853,11.639131202974232,11.59405523983375,11.616362612545693,11.71378930536115,11.896916958417126,12.180311144891174,12.58422451782888,13.137242035195916,13.880549779048048,14.875123872757069,16.214453821551295,18.048444311032423,20.631714510100437,24.430420019952784,30.386061491840934,38.09141038656592,47.540005504049105
IH0,0.0,27.760743442578274,32.06297633775901,28.65077809182565,23.66925829616464,19.216786167433177,15.789294930765408,13.318185004806796,11.586660361505267,10.380320612915312,9.529922799908864,8.91424992396172,8.450937904788834,8.085768522421668,7.783759223161445,7.522626387891718,7.288289721609667,7.071895479701592,6.867891701658946,6.672802451812476,6.484454584858639,6.301492574711418,6.123074738466756,5.948682938092925,5.778003039302886,5.610849465331242,5.447117281176618,5.286751537309909,5.129727502073049,4.976037821477425,4.825684132064032,4.678671570862964,4.5350051951825865,4.394687678694112,4.257710519465794,4.124064197534475,3.9937374895389497,3.8667154997353466,3.7429784643279262,3.6225013686147456,3.5052540615744077,3.3912016107459335,3.2803047479681204,3.172520332839264,3.067801802922618,2.966099599796978,2.867361568376885,2.774670834731115,2.69092030924938,2.6180591804208886,2.5572018551414355,2.5089400352913995,2.47363693541371,2.4516535178620744,2.4435157560065477,2.450047814288409,2.4724977558868586,2.512681933670651,2.573176738129528,2.657595114209133,2.771004465667323,2.920580471013805,3.1166655441511697,3.3745507290893473,3.717619776371814,4.183224324961756,4.834468482184116,5.786024424248488,7.267155598247048,9.254419024809511
IN0,31.046459046225916,61.78245350198957,81.1070258141934,93.95578067786563,103.0611697210903,109.95199855798157,115.49340062558377,120.18081584181837,124.30160287604726,128.0247615887466,131.45124536344633,134.64246261854407,137.63658999877583,140.45800710030616,143.12281051762957,145.6420706412173,148.02377575463052,150.27400496749573,152.3976434536207,154.39882318558367,156.28119724828528,158.0481121168975,159.70271663483774,161.2480312379734,162.68699189661137,164.02247777622873,165.25732828865148,166.39435315856497,167.43633785764314,168.3860459573453,169.2462194397675,170.01957767398073,170.70881554613973,171.31660108425677,171.84556459501638,172.298304309545,172.67738538280423,172.98533709388718,173.22464986596287,173.3977725733415,173.5071102231122,173.55502199115347,173.54381957282402,173.4757658129139,173.35307358708133,173.17790491284535,172.95237027179266,172.68203698146692,172.37388441098582,172.03534349373575,171.6738996715787,171.29698636653978,170.91202964207997,170.52657675190727,170.14848076072286,169.78613636818653,169.4487776074586,169.14686197817196,168.8925824002569,168.70057336221066,168.58891884495614,168.58064177840117,168.70598750277716,169.0060703665563,169.5389784851768,170.39058548171673,171.69506519538317,173.67731612253522,176.750643805899,181.16656414990715
D0,396.0,396.0,396.4563936516362,396.9835171014596,397.4545431480996,397.8436717479028,398.1596005784764,398.4191805852265,398.63813491907143,398.82862254933224,398.99927764866277,399.1559519926139,399.3025045185868,399.4414400776468,399.5743721595943,399.7023391321887,399.8260130148484,399.9458343433769,400.0620980957741,400.17500797440346,400.28471053636576,400.39131661170285,400.49491474526434,400.5955796444199,400.69337749821864,400.7883693312626,400.8806131172246,400.97016510461964,401.0570806385785,401.1414146576372,401.2232219794303,401.3025574484977,401.37947599383307,401.4540326275738,401.52628240581294,401.59628024486966,401.6640809045526,401.7297389601554,401.7933087420819,401.8548442558142,401.91439909558636,401.972026359942,402.0277785731262,402.08170761380563,402.13386465140763,402.1843000898615,402.23306351834344,402.28020366858686,402.3258199596985,402.37005937096427,402.41310092682255,402.45514197284325,402.49638958232504,402.53705679990554,402.5773626045349,402.6175346222988,402.6578140287549,402.6984625179355,402.73977164517413,402.78207532231625,402.82576685893713,402.87132287401295,402.9193379564916,402.9705767272243,403.0260551956978,403.0871738061789,403.15594707333696,403.23542695934464,403.3305506659882,403.4500245441771
R0,0.0,25.26821571247037,59.65157539796138,93.31212504393807,123.35294477347577,149.5084949210368,172.35007556731924,192.59084071078672,210.85291435278305,227.61655378440548,243.23271458957788,257.9516087297393,271.9502407098079,285.3541997340101,298.25350686708833,310.7136604757232,322.7831748861364,334.4986850202719,345.8884065915847,356.97449954165654,367.7747023834229,378.3034799333328,388.5728431058241,398.5929445544734,408.37251842076944,417.9192095675833,427.2398229154457,436.34051392159563,445.2269349585928,453.9043481660181,462.3777125122532,470.65175083944473,478.7310012743846,486.6198563812625,494.32258607745445,501.8433614948512,509.1862743741995,516.3553504354168,523.3545579216066,530.1878127258544,536.8589811735892,543.3718811966238,549.7302823982357,555.9379053573462,561.9984204237466,567.9154461926105,573.6925478015389,579.3360558718205,584.8554888285873,590.2628419633752,595.5717913797273,600.7971244101877,605.9544381472368,611.0600685489769,616.131205400771,621.186165005139,626.244815467074,631.3291747408432,636.4642311345041,641.6790754948858,647.0084942547402,652.4952719288092,658.1936274385265,664.1745375540947,670.5343532572919,677.4094988947941,685.0032226360047,693.6383969055206,703.8730214498582,716.2998252764427
G0,31979.0,31981.978939023084,31988.16608946193,31995.86544620141,32004.215837450374,32012.782269472922,32021.346278846268,32029.799483865943,32038.08938522252,32046.191741441584,32054.096497550407,32061.800636164677,32069.304565451395,32076.61031226088,32083.720633701796,32090.638593003277,32097.367367292703,32103.910168751514,32110.270219062993,32116.450747060746,32122.45499484165,32128.286225424537,32133.947728972842,32139.44282654154,32144.774871229863,32149.947247024153,32154.96336575991,32159.826662652205,32164.54059080758,32169.108615073208,32173.534205516906,32177.820830773133,32181.971951438074,32185.99097231219,32189.881303771243,32193.64633861348,32197.289440461038,32200.813936782826,32204.223113863965,32207.52021271679,32210.7084255676,32213.790892789013,32216.770700228877,32219.650876911357,32222.434393090756,32225.12415863834,32227.74066332705,32230.300877903122,32232.81979514988,32235.311421802915,32237.789475744954,32240.2679400408,32242.761570557563,32245.28642769611,32247.860495107663,32250.504455121983,32253.242712434603,32256.104799579844,32259.12737192931,32262.35713087742,32265.855250959412,32269.70433340135,32274.019793224536,32278.96944563658,32284.809247726906,32291.953426749267,32301.125052442825,32313.717266143543,32329.73312076455,32349.559949528164
H0,13991.240662338734,13959.760370848471,13909.505233513417,13859.43101467277,13809.537063019947,13759.822729593076,13710.287367766541,13660.930333242582,13611.750984042908,13562.748680500354,13513.922785250552,13465.27266322365,13416.797681636044,13368.497209982155,13320.370620026219,13272.417285794125,13224.636583565267,13177.027891864433,13129.59059145372,13082.324065324487,13035.227698689318,12988.300878974036,12941.54299580973,12894.953441024814,12848.531608637126,12802.276894846033,12756.188698024587,12710.266418711699,12664.509459604336,12618.917225549761,12573.489123537782,12528.224562693045,12483.12295426735,12438.183711631988,12393.406250270113,12348.78998776914,12304.33434381317,12260.038740175443,12215.902600710811,12171.925351348253,12128.106420083399,12084.445236971098,12040.941234118001,11997.593845675177,11411.020575656623,10835.46557005493,10271.209911878594,9718.552718214092,9177.811941733939,8649.325082055331,8133.4497592021935,7630.5640881424015,7141.066777355142,6665.3768553986165,6203.932907435366,5757.191678879113,5325.625876504999,4909.7209700372005,4509.970772030263,4126.8715549460885,3760.9144577826582,3412.575948770869,3082.3061561434038,2770.5149681429502,2477.555948811415,2203.708327460082,2195.7749774812255,2187.8701875622933,2179.993854887069,2172.1458770094755
S1,21218.039425477502,19860.18565973192,18701.825413007322,17626.72838661253,16628.28640007456,15700.698314643509,14838.738688156182,14037.633754214356,13292.989330722874,12600.744461537593,11957.13825809228,11358.683880364588,10802.146687425424,10284.525073167555,9803.033221107638,9355.08536227635,8938.281292882253,8550.392995211489,8189.352250203413,7853.239154627842,7540.271470112964,7248.794740463257,6977.2731202252835,6724.280862519982,6488.494418368651,6268.6851034039155,6063.712291137595,5872.517094942518,5694.116503646562,5527.597938166973,5372.114198954411,5226.850788376044,5091.117285240964,4964.228754127283,4845.552908349575,4734.504241526025,4630.539796197546,4533.155745390374,4441.884433162864,4356.2917172466605,4275.974540039416,4200.558689667769,4129.696728270253,4063.066071628807,4034.845165592841,4008.8179982898005,3984.8089218992404,3962.6496974926445,3942.1791659871096,3923.2428371438036,3905.692438573967,3889.385445161301,3874.1845962718107,3859.957398637629,3846.575603432397,3833.914633554996,3821.85291714458,3810.271048464361,3799.050633377232,3788.072554717563,3777.214149962752,3766.344284196332,3755.3141650444186,3743.9390162623927,3731.958556791573,3718.9433047531516,3690.413206439487,3661.840364934094,3632.589997119061,3602.337498917596
E1,0.0,10.007600283712417,14.795395859096338,16.950660450386962,17.726420984333572,17.759621119983557,17.38366959177659,16.77958126102296,16.049940221652882,15.25561447669602,14.434330600888046,13.610319817956128,12.799507067626246,12.01243122270208,11.255978438251175,10.534471387105803,9.850392207950245,9.204885442229745,8.598120937827375,8.029562578489369,7.498170623851841,7.002555495153128,6.541095095618604,6.112024248900858,5.713502574926423,5.3436655802769195,5.00066264104266,4.682684744410555,4.387984240078075,4.114888377744874,3.861808035812601,3.6272427539371055,3.4097528708168325,3.2080398679488167,3.0208813028423376,2.8471369277219742,2.685748464811744,2.5357367717564125,2.396197924574224,2.2662988691889336,2.1452729393542027,2.0324153913857566,1.9270790402121356,1.8286700482940659,1.7366439000143377,1.6608085645453237,1.5984576530215613,1.54788151001561,1.5080148159902906,1.4782451017132763,1.4583151278777438,1.4482835751991974,1.448526690426531,1.4597748707570752,1.483186525930546,1.5204696741653776,1.5740722324634988,1.6474784637759317,1.7456778910326158,1.8759268717545678,2.0490293508995063,2.2815852389304703,2.6001483096353333,3.0494163045778397,3.709656007918046,4.737444895021422,6.472285179737359,8.202125831025992,10.121965216165536,12.218876727894486
I1,0.0,0.0,1.0868569201088227,2.284216825256957,3.2645472327977476,3.9597941920246775,4.396716750098844,4.628201885769986,4.706870516177551,4.676659905499045,4.57156467920345,4.416869420365227,4.2309644872378005,4.027041281685217,3.8144659803736887,3.5998239683196203,3.38768908289216,3.1811815642816335,2.9823704220736698,2.792563625159634,2.612518149235034,2.4425928649517106,2.282860528006471,2.1331903190120496,1.9933090002728004,1.8628464036499128,1.7413693297279225,1.628406800735097,1.5234688124043338,1.4260601662509185,1.3356905608384566,1.251881829186379,1.174172996079446,1.1021204041428636,1.0353065180043939,0.9733383450842379,0.9158471158531014,0.8624880601462281,0.8129399599055775,0.7669044450199779,0.724105082195874,0.6842863203229181,0.6472123482244696,0.6126659088049717,0.5804471026234295,0.5503722050193212,0.5233918848269805,0.4998047298533437,0.4796111628091857,0.46269575009351765,0.4489200309204148,0.43816977175920524,0.43038014877394376,0.425551621694791,0.423763800488153,0.42519210949974795,0.43013137918545075,0.43903121592841987,0.45255024159005725,0.4716408241827864,0.49768459618223376,0.5327160109380764,0.5798058565159873,0.6437518438476023,0.7323984911645,0.8593521680665301,1.0500979347367314,1.3573905208120063,1.736778648818713,2.181735225289341
A1,0.0,0.0,0.9146631366336608,2.0931382162156282,3.24469838528107,4.248374901822908,5.0643966033880305,5.691020986382878,6.1433807947194,6.4431095547089186,6.613293767590831,6.676081804172464,6.651628708320852,6.557715742352658,6.409709113902089,6.2206849669546616,6.001630178440223,5.761671080518438,5.508304694606379,5.247619201344349,4.984497084341654,4.722798171741124,4.46552195711847,4.214949803634089,3.972768305110348,3.740175413290127,3.5179710714032235,3.3066340997112933,3.106387009008108,2.9172503053746155,2.7390877148197226,2.5716436134356293,2.414573806131215,2.2674679111739957,2.129874835043487,2.0013174604000947,1.8813051027067162,1.769343579669774,1.6649431085085509,1.567624344811025,1.476922876626992,1.3923924550777058,1.3136072030683223,1.2401630055143107,1.171678250558274,1.1077940620343867,1.0491161643923639,0.9958878446546912,0.9481499104526977,0.9058380494979473,0.8688441904803985,0.8370572837715258,0.8103927413718535,0.788816433982509,0.7723674725566574,0.761183412330739,0.7555317818096885,0.7558530134725585,0.7628223123803493,0.7774426275887965,0.8011895653776564,0.8362458270893227,0.8858966006305291,0.9552298500274322,1.0524521062223529,1.191546866797806,1.398151582804064,1.7240622607822769,2.1461549268990874,2.663521183689457
IH1,0.0,0.0,0.0,0.1932943497752682,0.5053307758428325,0.8396404748434357,1.1346669680692392,1.3636132714948745,1.522148110041508,1.6174095981238388,1.6608710976823438,1.6644601006478257,1.6387878460918701,1.5925646979747405,1.5326019459131166,1.4640570424231858,1.3907450695807788,1.315435215533764,1.2401019885986924,1.166125558116624,1.0944460656130905,1.025680086431361,0.9602075227512779,0.8982360651007109,0.8398489170563875,0.785040137149047,0.7337408462443784,0.6858386912310742,0.6411923139463727,0.5996421034171591,0.5610181678651052,0.5251462161375617,0.4918518598865662,0.46096371844402406,0.4323150329113616,0.4057460593929958,0.3811050149935379,0.35824850590385526,0.33704170707105213,0.3173583747600769,0.29908072776045513,0.2820992244470143,0.266312260929748,0.2516258131691246,0.23795304261143452,0.2252138812426978,0.21333460850206612,0.2024465063467341,0.19266997747253672,0.18406681968837077,0.17664818318044,0.17039515907494995,0.16527773792017653,0.16126900709093378,0.158355251996395,0.15654360045939814,0.1558689051620099,0.1564014675486038,0.15825728778794806,0.1616129656088623,0.16672840809380107,0.17398257202630185,0.1839315455268249,0.1974065295537879,0.21568688574506784,0.24082358440808826,0.27628787797684873,0.3283916958094486,0.4097530291524374,0.5189347707025992
IN1,0.0,0.0,0.0,0.21617234879093639,0.6683340115074701,1.3109586253613332,2.0854393790882346,2.939077818026572,3.830221522182182,4.728100727082367,5.610992346551504,6.464151947039652,7.278011561653779,8.046756686328905,8.767254689480842,9.438267168281909,10.059877915850306,10.633079608927732,11.15947560323542,11.641064740295203,12.080086024023027,12.478906628328968,12.839941433603421,13.165595642307174,13.458224385320667,13.72010489611592,13.953418010576963,14.160236594257334,14.34251910808973,14.502106968123426,14.640724682859913,14.759981996335556,14.861377449270512,14.946302910488768,15.016048088099925,15.071806746688699,15.114682548232716,15.145694771015497,15.165783926859875,15.175817233230946,15.176593890562856,15.168850125591643,15.153263974491349,15.130459790989022,15.10101247353629,15.06545141224383,15.02426416107663,14.978122483436204,14.927750813245336,14.873866424163394,14.817156457740866,14.758273644707359,14.697841467803018,14.636464281687935,14.574740488914449,14.513278342175868,14.452714902977203,14.393739503038649,14.337124006027999,14.283763554748116,14.23473376351107,14.191374292745326,14.155416052508597,14.129183413636289,14.115931752542297,14.12044414134425,14.150162084627889,14.217521568507172,14.345326965432179,14.547313387883326
D1,0.0,0.0,0.0,0.0,0.003177808055358842,0.011485573967611868,0.025289475983707885,0.04394368825360723,0.06636183572449143,0.09138633608450165,0.11797695943023526,0.14528210083381982,0.17264624635494674,0.19958833351057056,0.22577050040674843,0.25096686447555727,0.2750363329743852,0.2979005340759834,0.31952662210745436,0.3399142128126001,0.3590856122686693,0.3770785827176486,0.3939410230562941,0.40972707786939544,0.42449430622661094,0.4383016350854686,0.4512078937242374,0.46327077903077696,0.4745461407793475,0.4850875047802194,0.4949457727988492,0.5041690535368385,0.5128025903051061,0.5208887594259727,0.5284671196801792,0.5355744882899482,0.5422450562474093,0.548510519195458,0.5544002153464586,0.5599412663547655,0.5651587183957625,0.570075681291909,0.574713463973609,0.5790917049775872,0.58322849706155,0.587140505335392,0.5908430785705836,0.5943503535539076,0.5976786253807659,0.6008461685973673,0.6038722737215473,0.606776414583026,0.6095777541448502,0.6122949620070813,0.6149462653194084,0.6175496657601744,0.6201232821909347,0.6226858064601628,0.6252570861898794,0.6278588760742526,0.63051583415171,0.6332568913989272,0.6361172089380587,0.6391410901207695,0.6423865034529533,0.6459324504697845,0.6498916511776281,0.6544338938518378,0.6598327364846903,0.666569180039622
R1,0.0,0.0,0.0,0.1737774885229616,0.6646431051546648,1.5257617474858924,2.7414305628745144,4.258816007929973,6.0116071312173505,7.933911832894389,9.9670019992739,12.061721596850887,14.178592083841853,16.28686560517426,18.363216361490284,20.390414268762072,22.356129976900313,24.251918994890666,26.07238475605255,27.81450093651123,29.477067854456042,31.060278580537073,32.565373549202576,33.994366124938814,35.34982496865559,36.63470191233721,37.852196362006346,39.00564907692603,40.09845960654582,41.13402279084299,42.11568061515626,43.04668641286886,43.9301789706154,44.76916454277599,45.56650462630203,46.324909380753866,47.04693502812076,47.734984123185775,48.39130799577636,49.018010834205924,49.61705497667856,50.19026705336015,50.739344687681,51.265863522955904,51.771284389678755,52.25696047019697,52.72414435161304,53.174173861741096,53.60850159222858,54.02865183274656,54.43617292908615,54.8326048168093,55.219463955731364,55.59824283736726,55.970420838706865,56.33748429294211,56.70095510667583,57.06242879804542,57.42362456327277,57.78645222725271,58.15310428248997,58.526186725788385,58.90891210365243,59.305396302513614,59.721136551487895,60.16382428111222,60.644821339879805,61.18206956738769,61.806448366568524,62.55061396898439
G1,0.0,0.0,1.0868569201088227,2.693683523823162,4.534578652388772,6.459723819001907,8.388474624944827,10.276395910475923,12.098711300085583,13.841785374059823,15.498593169580474,17.06620694870456,18.54433056072721,19.934397353569867,21.238985229943548,22.461419950694687,23.605496732558024,24.675280360349486,25.674959919691872,26.608742942223188,27.480778735667233,28.295103688668547,29.055603277240238,29.765986812575218,30.429771902153814,31.050276282382196,31.630615199807146,32.1737029173884,32.682257233594825,33.15880614656641,33.60569598849047,34.025100507942135,34.41903049877593,34.78934040309332,35.13774363979531,35.46582086667708,35.77502890703299,36.06670965185681,36.34209865419769,36.60233329811253,36.84846049536096,37.08144389533288,37.30217061003375,37.51145746513127,37.710056793665494,37.89866179256491,38.07903083511049,38.25262837222584,38.42073318086883,38.58450834093924,38.74505041624863,38.9034280336094,39.060716192744515,39.218030754959265,39.3765669049957,39.53764563454322,39.702773431450915,39.873722635066535,40.052643986671605,40.24223010545751,40.445961673903824,40.668492716950745,40.91628006211336,41.19866436039871,41.52984057836948,41.93272090823147,42.44722234931802,43.15013291100023,44.04090961733636,45.140186929420345
H1,3997.497332096782,3743.442099865845,3526.3085157819105,3324.503554923851,3136.932966939255,2962.5806598704658,2800.5031174205387,2649.8242149858884,2509.7304059722837,2379.466251945389,2258.330272056234,2145.671088936262,2040.8838498855628,1943.406903690484,1852.718714811385,1768.3349979855234,1689.8060575011307,1616.7143165233135,1548.672022896646,1485.3191188189762,1426.3212626813604,1371.367992205116,1320.1710187833428,1272.4626436551619,1227.9942872103397,1186.5351233435522,1147.8708113547443,1111.8023184280082,1078.144826219084,1046.726715543725,1017.3886235882952,989.9825684624387,964.3711362836738,940.4267263273452,918.03085009441,897.0734804457817,877.4524472270518,859.072876062847,841.8466672372751,825.6920117971716,810.5329422193703,796.2989151731441,782.9244240853012,770.3486393791759,724.0371164830442,679.8645321875716,637.6998332868036,597.4258957513882,558.9384545474878,522.145120989487,486.9644775081873,453.32523961635945,421.1654745619944,390.43186566872333,361.07901067420903,333.0687415088591,306.3694519539643,280.9554185664596,256.8060993023781,233.90539363860802,212.24084801072289,191.8027914995507,172.5833894753931,154.57560799808155,137.7720898280182,122.16395442673712,121.37130766082649,120.60671846112844,119.86828553198639,119.15424301443795
S2,21218.039425477502,22476.842172351826,23624.703130752063,24676.701739126824,25639.669016523803,26520.005767656883,27323.6877770074,28056.281170486815,28722.963078852532,29328.544597930013,29877.494282182866,30373.961189353886,30821.79696383374,31224.57671910501,31585.618632846083,31908.002251525086,32194.585544583777,32448.020769231713,32670.769215548484,32865.11490371338,33033.17730390109,33176.923146423316,33298.17738599022,33398.63338000648,33479.86233686106,33543.32208634554,33590.36522070367,33622.24665139658,33640.130623470584,33645.09722643118,33638.148437749,33620.09155741771,33591.95662690173,33554.515417613016,33508.49758888971,33454.5858403434,33393.4158742935,33325.57829462695,33251.621207690645,33172.05299987112,33087.345073154735,32997.93445231772,32904.22623422256,32806.595873793114,32986.490580620426,33157.73546534634,33320.39045929179,33474.49377251178,33620.06247308308,33757.09277778856,33885.560180679895,34005.41948897625,34116.604800596884,34219.029429845534,34312.58575587531,34397.144919640574,34472.55620947404,34538.645818128636,34595.21435680422,34642.03193344063,34678.828436065836,34705.27419458467,34720.940653628204,34725.21729385976,34717.12561651628,34694.866739598634,34527.63330314237,34355.45688513416,34175.25602427615,33985.33879363123
E2,0.0,3.5026600992993457,5.49147008699431,6.654383072405844,7.364734451397412,7.823009040027897,8.135991552338712,8.360159821787667,8.525277264685855,8.647105295844575,8.734186163649198,8.79142040058192,8.82192582945703,8.827983609592552,8.811504536947481,8.77424691804371,8.717908553875901,8.644157110910221,8.554632145646876,8.450935654483157,8.334619426231095,8.20717302210904,8.070013942258806,7.92448041839265,7.7718267476571015,7.613220862365967,7.449743761386846,7.282390432345128,7.11207192870317,6.939618311691545,6.7657822140760935,6.591242826345195,6.416544395186791,6.2422733887034685,6.068928391349649,5.896942095726659,5.726692197423182,5.558507886878029,5.39267456804664,5.22943781163156,5.069006914958728,4.9115581985552295,4.75723808175215,4.606165950689805,4.458436824503836,4.343598496962623,4.255959483609035,4.192373840837169,4.151329491367427,4.132459435130559,4.136305061474414,4.1642404402932796,4.218513959736626,4.3023945594940125,4.420433957370834,4.5788811964764875,4.78631941306106,5.054648403750923,5.400631007748809,5.848398117338039,6.433656333446207,7.2110716342705805,8.267925032730574,9.751021467273672,11.92397556562063,15.301264299762929,20.99943205976023,26.702947379835805,33.05322262933273,40.013149913398294
I2,0.0,0.0,0.380399922038088,0.8334775300576875,1.2421569338206715,1.5740152690190397,1.8306180698668442,2.024538221510075,2.169745522147564,2.278179134713545,2.358991954819662,2.418816295712756,2.4623180004471052,2.492743689618167,2.512364580453821,2.522803741440918,2.5252637175667694,2.52067838888523,2.5098109156827717,2.4933150032760336,2.4717720593568844,2.4457129789785164,2.4156304167704614,2.3819853677244223,2.3452104859680407,2.3057116464538514,2.263868654356822,2.2200356254574896,2.1745413233723387,2.127689595312037,2.0797599631734234,2.0310083789775337,1.981668128613466,1.9319437158431136,1.8820262911702375,1.8320891381577422,1.782287248625547,1.7327582411040594,1.6836236383026688,1.634990175761844,1.586951046811841,1.5395870651146115,1.492967747243884,1.447152321429981,1.402190667740598,1.3581241936104318,1.318187689970975,1.2837791469076252,1.25542821090275,1.2333007710088342,1.2174603612284765,1.2080053761061464,1.2051463689629391,1.2092587504804102,1.2209315148106559,1.2410260870546581,1.2707580214436938,1.3118170752237028,1.366548755335365,1.4382354104714694,1.5315434754534183,1.653259183674347,1.8135489940533778,2.028228207264284,2.323097284991433,2.7428659018460113,3.371273455963359,4.381771277767219,5.630989957244945,7.099233037011137
A2,0.0,0.0,0.32013209782178126,0.7612130417198357,1.2247792919143932,1.6651961443332948,2.0638227447752437,2.4153196143898112,2.7205236216873865,2.982832920425382,3.206440590410967,3.395523799878266,3.553913987179045,3.684999612197508,3.7917338497312985,3.8766834395651095,3.9420881684747204,3.989917458243081,4.0219189782932725,4.039658207412001,4.044549615400847,4.037880764563771,4.020830733545259,3.994484142061233,3.959841852332175,3.917829210873353,3.869302502302807,3.815054125016374,3.75581686781913,3.692267563875134,3.62503031932395,3.5546794542071463,3.4817422489710634,3.406695548114173,3.3299792014523373,3.251995060475848,3.1731081753700785,3.0936487603674383,3.013914379036539,2.934172145657996,2.8546608696721183,2.7755931180629547,2.6971571872053777,2.6195189811799735,2.542823795352213,2.467198004769181,2.395444549653516,2.3293136539080193,2.2699354858389174,2.2180872931866387,2.1743651112001605,2.1393012152557076,2.113452339018088,2.097474937527305,2.092199516260279,2.0987148050450526,2.11847382802117,2.153438019868272,2.2062837648414253,2.280711029771954,2.381922309736719,2.5173951449671463,2.6981827107807033,2.941215391590926,3.2736244651051294,3.741480065065362,4.429121002671011,5.506911138982183,6.901214505232374,8.61100835158571
IH2,0.0,0.0,0.0,0.06765302242134387,0.182912864781348,0.31468153550886924,0.4412508046341125,0.5517707002997533,0.6429151987738985,0.7154637520948943,0.7719392801131744,0.815262935669999,0.8481117414992264,0.8726878396890556,0.8906975273109979,0.903419441288057,0.9117977136276318,0.9165302085392477,0.9181407634711307,0.9170336416546148,0.9135323421484844,0.9079061035504642,0.9003873651228329,0.8911829005536667,0.8804806958857399,0.8684540656176093,0.8552640405027729,0.8410607177832871,0.8259840210167584,0.8101641495656673,0.7937218865196454,0.7767688616711954,0.7594078206787002,0.7417329237770132,0.723828811194938,0.7057728680351554,0.687635582585473,0.6694806544518743,0.6513652133355837,0.6333401583799037,0.6154505648712449,0.597736114140587,0.5802315207007005,0.5629669437453457,0.5459683775004867,0.5292580185403926,0.5128546097971176,0.49734305773442855,0.4832718343337306,0.47101630159672747,0.4607983860943413,0.45274315448312213,0.4469322194876373,0.44344486494082413,0.44238850020758724,0.4439229379842835,0.4482833058007405,0.45580632104166785,0.466965115233121,0.4824193737394576,0.5030910305316455,0.5302826130863938,0.5658687544420083,0.6126185322499871,0.6747641778554165,0.7590638182509745,0.8769333914952429,1.0491179155162071,1.3170998275782098,1.676646641605945
IN2,0.0,0.0,0.0,0.07566032207682774,0.2406797212014265,0.48533394645047034,0.793547185889999,1.1497157654297168,1.5408927541727557,1.9570392385009665,2.390591355073456,2.835881360707033,3.288617335442171,3.7454782997087315,4.203822226135687,4.661485245433779,5.116647950112942,5.567748309091602,6.013425657340688,6.45248472660998,6.883872221218554,7.306661018563853,7.7200388605893915,8.123299599241918,8.51583583837115,8.897132309303963,9.266759623277743,9.624368227446293,9.969682496982681,10.302494953335076,10.622660626970953,10.93009159406015,11.224751718045287,11.506651623548235,11.775842504085714,12.032413060460211,12.276485572010003,12.5082119226549,12.72776984935897,12.935359482193029,13.131200179283189,13.31552764102821,13.48859128440053,13.650651858825988,13.801979286540845,13.942850711544176,14.07354874220076,14.194996550312991,14.30838613170078,14.415002907209159,14.516152438274162,14.613139867426417,14.707276856129948,14.79990382761309,14.892422468850071,14.986337598989499,15.083310323672881,15.18522690731573,15.294290838975574,15.413150086612573,15.545078987114444,15.694247272890395,15.866132739039854,16.06818047872031,16.310906746639173,16.60985426387591,16.989302934904664,17.489945362347086,18.186566135033406,19.124686280972163
D2,0.0,0.0,0.0,0.0,0.0011122328193755948,0.004119366632685342,0.009292810758576305,0.01654708571813989,0.02561833574775609,0.03618802441145304,0.04795042966213835,0.06064130689390221,0.07404443599322523,0.08798760777819531,0.10233481684044603,0.11697810972752681,0.13183055410177152,0.14682073939478416,0.16188872810248306,0.176983194741079,0.1920594600166714,0.20707816304180102,0.22200436927973047,0.23680696555405134,0.25145823810014545,0.2659335636915387,0.2802111684359992,0.2942719258276579,0.30809917699731204,0.32167856345447676,0.3349978672191548,0.3480468560159265,0.36081713279142735,0.37330198965693334,0.38549626674182436,0.3973961956822739,0.40899928034513866,0.4203041834425756,0.4313106149243937,0.44201922396715626,0.45243149654223086,0.4625496596701074,0.47237659274240507,0.4819157458661231,0.4911710649730431,0.5001469233466034,0.508848059187544,0.5172795188351541,0.5254559646390939,0.5334010759672796,0.5411447032339827,0.5487203453824957,0.5561635574836138,0.5635112363419895,0.5708015822085647,0.578074561171438,0.5853727666799029,0.5927426577393815,0.6002362290743622,0.607913253811426,0.6158443504715859,0.6241152944037857,0.6328332748385055,0.6421363004480609,0.6522079042425305,0.6633011981869709,0.6757803995654584,0.6901974065744408,0.7074451707580541,0.7290986254330407
R2,0.0,0.0,0.0,0.060822120983036555,0.23806160720268552,0.5593032800750236,1.0287197341001868,1.6365582731452086,2.3667861923208777,3.2018340076411693,4.125044526876927,5.121669670824208,6.179073949241776,7.286567566702296,8.435108337140214,9.61699226754657,10.825583524726866,12.055098235231936,13.300439718677579,14.557076417003591,15.82095262345249,17.088423178141745,18.356205065954285,19.62134062457843,20.881168572735,22.133300236983356,23.375599216520722,24.606163336143133,25.82330815795504,27.025551604341505,28.211599429015077,29.38033139010547,30.530788051206518,31.66215817840435,32.77376558243946,33.86505801254321,34.93559689556353,35.98504743196356,37.01316907640186,38.01980649900941,39.00488109011503,39.96838303227093,40.91036393770555,41.83093003530146,42.73023588437965,43.60847858957682,44.465892489970216,45.30325610980372,46.1219651782541,46.92390035497422,47.71127959093785,48.48655164460997,49.25233835024029,50.01141886636622,50.76674781283148,51.521502196397876,52.27915618031972,53.043587327361564,53.81922328584066,54.611245036443385,55.42587366101006,56.270785571985044,57.155732934706776,58.093505504133766,59.10148812902839,60.20431857376097,61.43872549633905,62.8630799917037,64.578296973011,66.69158415811654
G2,0.0,0.0,0.380399922038088,0.9767908745558591,1.6994778410876985,2.499311205365095,3.348914633778017,4.232508949090337,5.140448644714853,6.06632061484644,7.005423492985372,7.953983627719232,8.908759580902467,9.866848519769968,10.825595352645438,11.782552506313753,12.735463365187677,13.682255700216972,14.621038396183673,15.550098398871214,16.467896635918922,17.373062564120076,18.264387411309183,19.14081635030204,20.00143989009453,20.845484760304366,21.67230453167815,22.481370174845228,23.27226071922581,24.04465413751642,24.79831854967837,25.533103813962523,26.248933550846605,26.945790487713314,27.623721044228983,28.2828257879025,28.923252278022467,29.545189092808368,30.148860561598465,30.734522009499752,31.302455431371204,31.852965552420788,32.386376246821214,32.90302729034586,33.40327142447906,33.887471710082636,34.35920019151304,34.82141079998344,35.27671580732,35.72756326899248,36.17636138310686,36.62557714435796,37.07782677576019,37.5359706823646,38.00322428637145,38.48329734087501,38.98057826473906,39.50038763246561,40.04933837396103,40.63586391628102,41.27101837740847,41.969733724681916,42.75287882289921,43.65080152984317,44.709793182126134,46.0047744954581,47.6665400055852,49.9471444867265,52.84716870075418,56.43685281364337
H2,3997.497332096782,4235.443601864447,4452.410375642193,4651.284669916589,4833.376773007381,4999.903213824383,5151.993460793411,5290.696142266384,5416.984822595538,5531.763365610279,5635.870914968161,5730.086518746366,5815.133423685309,5891.683062680881,5960.358757436382,6021.739156620096,6076.3614284212035,6124.724225047222,6167.2904354530865,6204.489741428406,6236.720991088947,6264.354402815128,6287.733611748647,6307.177570093306,6322.982311662802,6335.422590372317,6344.753401678139,6351.211395326358,6355.016187174473,6356.371577295187,6355.466681056701,6352.476979395667,6347.56529405494,6340.882693145977,6332.569332012859,6322.75523401945,6311.561015551059,6299.098559215479,6285.4716389435935,6270.776500425499,6255.102400072612,6238.532105468369,6221.142360058494,6203.004314635319,5903.084658534165,5607.908418492839,5317.769837892688,5032.9568770356245,4753.752925746741,4480.438356044131,4213.291899282358,3952.5918246776273,3698.6168873045194,3451.647003401996,3211.9635991165082,2979.849565779669,2755.5887408652206,2539.4648196903863,2331.759590086446,2132.7503728038037,1942.7065474616236,1761.88505166409,1590.5247648911643,1428.8397351840365,1277.0112817784343,1135.1791155063463,1130.391075161752,1125.6034176713142,1120.8181425891173,1116.0370898581982
S3,63654.118276432506,63370.2667777384,63105.43406943373,62857.352302429674,62624.340615805806,62405.00932695497,62198.15593855953,62002.70979792941,61817.70136463941,61642.244105693935,61475.522980680325,61316.78644931853,61165.340430807955,61020.543403350115,60881.80221883564,60748.5684055247,60620.334833353074,60496.63266928303,60377.02857780999,60261.122136530736,60148.54344481378,60038.950908284256,59932.029184687104,59827.487278571374,59725.05677358349,59624.49019219849,59525.5594735751,59428.05456095873,59331.782090710796,59236.56417563339,59142.23727579773,59048.46129604228,58955.36017770167,58862.76344575827,58770.53619521315,58678.56409605843,58586.74653003491,58494.99326880418,58403.22270907062,58311.36080473572,58219.34032227367,58127.10025595604,58034.58533078955,57941.745560657444,58344.749300738615,58762.501288045794,59195.514681892935,59644.34835861598,60109.6099169929,60591.95824401248,61092.10565552384,61610.81951720686,62148.923157679776,62707.29578750055,63286.871018797014,63888.633421214305,64513.612321825385,65162.8717076387,65837.49451680781,66538.55859242828,67267.09963809018,68024.05251308858,68810.15324080583,69625.76225222935,70470.51088494709,71342.49864922778,71130.63549360672,70910.29939292232,70676.15028080891,70425.02073131957
E3,0.0,6.00456017022745,9.13634421684818,10.760533998762039,11.579562563201772,11.959059743851826,12.091933025394589,12.081746496734244,11.985391901936332,11.835072123474188,11.649711038038843,11.440930398582072,11.216218991263798,10.980640568526697,10.737774379512707,10.490247768812083,10.24004838377051,9.98871473165504,9.737457715842226,9.487241666083023,9.238840649351449,8.992879044458423,8.749861666066131,8.510196669785644,8.274213297122033,8.042175826513418,7.8142946720209805,7.590735300078689,7.371625454573795,7.157061056407767,6.94711105543679,6.741821448320058,6.54115312099102,6.345156900374899,6.153841691512865,5.967194145275602,5.785187003849853,5.607782944804843,5.434936630106007,5.266596020559212,5.102703365753436,4.943196026763029,4.788007192722075,4.637066516788373,4.490300684202495,4.377411541936914,4.292923365520416,4.233896422281549,4.1990311368886735,4.18819740756945,4.20221853675592,4.24282012258847,4.312702797298292,4.4157299140954205,4.557247494328225,4.744582100853982,4.987801777074186,5.3008893637025425,5.7035912641240465,6.224418555999634,6.905700879814872,7.812480354565648,9.049010707909671,10.791375835100597,13.357177591141742,17.369261028190518,24.186723112241268,31.00770531561192,38.594827880288484,46.91279134441906
I3,0.0,0.0,0.6521141520652937,1.3986698992499704,2.040357461223154,2.529242240592187,2.8751572582818468,3.1051813653103553,3.2474390074981754,3.325637540327688,3.3580500525656998,3.358120551154287,3.335490254614947,3.296981417117504,3.247395989759906,3.1901155356610476,3.127532972612938,3.0613555660259357,2.9928144662432263,2.922808503166321,2.852002607276752,2.7808952666752615,2.7098649766248633,2.6392024610754627,2.5691332424918754,2.499833635794095,2.431442231805164,2.364068259732983,2.2977977675253447,2.2326982584805073,2.1688222217539916,2.1062098597045558,2.044891224080234,1.984880796905897,1.9261931241563124,1.8688382388147295,1.8128209442418093,1.758141273877059,1.7047951952282887,1.6527752711666897,1.6020712148358198,1.552670343012916,1.5045579480171622,1.4577176073260247,1.412131445613218,1.367780359758473,1.3278781577831942,1.2938331842599875,1.2662039343258464,1.245197355514703,1.2309282996801894,1.2235577621803593,1.2233734897512036,1.2308481194742322,1.2466957976308923,1.271942215019333,1.3080223275104514,1.3569239013586083,1.4214044045918828,1.505326967639928,1.6141957030250405,1.7560382148519182,1.9429215355077223,2.193688799995824,2.53920737321513,3.0332080911607404,3.7768219608880234,4.980681713346046,6.471774822648804,8.225093135015108
A3,0.0,0.0,0.5487978819801964,1.2795644659116563,2.019938024880187,2.694504124396532,3.2755937859509814,3.7584260159349294,4.148593596500099,4.455826459376947,4.690949181768642,4.8644593546002,4.985922315765817,5.063770529389954,5.105297180864943,5.1167369502887485,5.103380117548553,5.069693523264008,5.019435964600964,4.955762774978594,4.881317940515805,4.7983138618437735,4.70859967030786,4.61371931796658,4.5149607244848315,4.4133972084066215,4.309922321952338,4.205279081913853,4.100084461914262,3.9948498917156874,3.889998401050531,3.785878949736338,3.682778402420791,3.5809255472342363,3.4805103501110866,3.3816874991178274,3.2845810729587304,3.1892890852600777,3.0958875168182116,3.0044337690313596,2.914969581347594,2.8275234849024566,2.74211286518065,2.6587456982838344,2.577422015448795,2.498135141239587,2.4235943237275737,2.35549361508453,2.294936531021823,2.2426981524386917,2.1993944111805788,2.1655994650196244,2.1419361013250753,2.1291556129361653,2.128219652352344,2.1403957765510704,2.167380343236411,2.2114676053739406,2.2757939167928125,2.3647045123240495,2.4843248952696024,2.6434855760577545,2.85528399502823,3.139857662930595,3.529611664042072,4.079822226963871,4.892189686468461,6.173309440462614,7.834444640753725,9.873418702404818
IH3,0.0,0.0,0.0,0.11597660986516091,0.3082030480177708,0.5208673112791615,0.7168331866362042,0.8788121273044194,1.002757314901737,1.0915960599411854,1.1510452885135656,1.1872855126082147,1.2058760563612734,1.2113814864124057,1.2073550773022608,1.196472374848517,1.18070635856028,1.1614940201931687,1.1398756441562194,1.116603473120949,1.092222987268305,1.067132074765218,1.0416233616581039,1.0159141725725342,0.9901676201199412,0.9645074300431812,0.9390283855802901,0.9138037239083513,0.8888904150623189,0.8643329672515618,0.8401662022058911,0.8164173058053465,0.7931073643552804,0.7702525320491612,0.7478636656773954,0.725948917769693,0.7045142519347463,0.6835635795906081,0.6630989118140298,0.643120562386223,0.6236273694906258,0.6046169080518821,0.5860856792172177,0.5680292736340257,0.5504425102160309,0.533319553882369,0.5166540159320889,0.5010141877256307,0.4869418652770977,0.4748141189034936,0.46486105304967995,0.4572210533671862,0.451993693736084,0.4492811941303876,0.44922001321587013,0.4520071133191228,0.4579258803467671,0.4673767905595324,0.48091866054973964,0.49932836692626426,0.5236912103356621,0.5555424442722623,0.5970967794460827,0.6516356406886921,0.72419239797109,0.8228370039877126,0.9612622718892806,1.1644734725581647,1.4827496020594975,1.9110956557259842
IN3,0.0,0.0,0.0,0.12970340927456184,0.40659732351177214,0.8083518926177371,1.3033265276161072,1.8621528016837858,2.4611418687154445,3.082435632962488,3.713069896455578,4.343844561840151,4.968325502513601,5.582060540521182,6.181998944118737,6.766075581521843,7.332918554301605,7.881645626672597,8.411722954811063,8.92286690517844,9.414975454950566,9.888079854067543,10.342310187651414,10.77787052146452,11.195020704670974,11.594062843636777,11.975331092135276,12.33918382767142,12.685997569313551,13.016162185599633,13.330077072571347,13.62814807223432,13.910784964294084,14.178399407855235,14.431401825859528,14.670201430166937,14.895205336046967,15.106817542989424,15.30543801714023,15.491461922934107,15.66527899394041,15.82727302037011,15.977821431879823,16.117294958519143,16.24605735665021,16.364465189726584,16.472867656018064,16.57224967789962,16.663866443732243,16.749071672881332,16.829246708718113,16.905781924844707,16.980085812586566,17.053610010257007,17.127885645782904,17.20457057721233,17.28551009061657,17.372816427317673,17.468976066544776,17.576999074264375,17.700633780011568,17.844685780319306,18.0155092804149,18.22179503743774,18.475894739955507,18.796175979336212,19.21150956164937,19.770592217222248,20.563527882395558,21.645107818724263
D3,0.0,0.0,0.0,0.0,0.0019066848332153052,0.006973620984301572,0.01553681147321365,0.027321730574519632,0.04176962447592919,0.05825520864623514,0.07620132428030377,0.09512480028554633,0.11464407475147789,0.13446898246411665,0.1543844008408542,0.17423362403227327,0.1939039328396879,0.21331504434713008,0.23241030014696223,0.2511501443706471,0.26950738820964637,0.2874638106877203,0.30500773221084493,0.3221322840312965,0.33883417027322577,0.35511277667341784,0.3709695230511997,0.3864073874863321,0.4014305520963119,0.41604413560043624,0.43025398844423446,0.4440665335512914,0.4574886407879435,0.47052752668472675,0.48319067335120813,0.495485741385338,0.5074205254147196,0.519002918110193,0.5302408764473016,0.5411423904641998,0.5517154553576845,0.5619680472239943,0.5719081022905147,0.5815434992626057,0.5908820443547541,0.5999314586030761,0.608699367113481,0.6171932899600171,0.6254300900705979,0.6334355376367999,0.641241601981691,0.6488840354036786,0.6564008652963225,0.6638317560729845,0.6712180526692829,0.6786033434358547,0.6860344548338599,0.693562872260521,0.7012466650441934,0.7091530895995111,0.717362174389275,0.7259717904937298,0.7351050489493167,0.7449214711973475,0.7556345261342715,0.7675404325333867,0.7810680812337216,0.7968714763897302,0.8160157151408853,0.8403924940533731
R3,0.0,0.0,0.0,0.10426649311377695,0.40328513470143534,0.9362609999379702,1.7015645686199021,2.6745047028491635,3.8210466309126376,5.106075522136746,6.497525104502339,7.967948275205497,9.494710931403196,11.059549977757909,12.64790945448171,14.248261856918523,15.851503541170306,17.450451373284633,19.039438770160046,20.613997842471974,22.170611598282456,23.706521238334304,25.21957598681242,26.70811549136834,28.170877120395016,29.606922347306178,31.015577852638685,32.396388060854214,33.7490766356711,35.073515053849825,36.36969681775321,37.63771619383471,38.877750608592244,40.090046017999526,41.27490356964823,42.43266971985181,43.563728245564484,44.66849337710406,45.747403848444335,46.80091777593102,47.82950828105331,48.83365976561477,49.81386474794337,50.77062117604752,51.70443014414782,52.61579395006124,53.505214441084306,54.37370867983301,55.2228930547915,56.05486130922182,56.87204555350048,57.67711709464636,58.47293539728436,59.26253922656849,60.04917274060706,60.83634237558629,61.62790472475074,62.42819057983936,63.242176335926736,64.07572229152082,64.93591025044373,65.83153438344287,66.77383762100472,67.7776577896827,68.86329086763496,70.05968335319946,71.41026773069063,72.98453559528895,74.90349231539166,77.29586274852429
G3,0.0,0.0,0.6521141520652937,1.6443499183896932,2.8129778120971296,4.0705547882810995,5.369346353902918,6.68256837652224,7.994684110036031,9.29633543098622,10.581661550407656,11.846856871964176,13.089377958304922,14.30749467784969,15.500026838487079,16.666182965839056,17.805456923427627,18.917558439538695,20.00236432919449,21.05988291533892,22.090227250165015,23.093594451977893,24.07024944858868,25.020511992271242,25.94474616228472,26.84335179455299,27.71675742647093,28.56541444706338,29.389792215531205,30.190373964463905,30.96765334376307,31.722131491501905,32.454314541135716,33.16470437820895,33.85380840823027,34.52213500382386,35.17019108785641,35.7984806229102,36.40750351823395,36.99775475922301,37.56972367965225,38.12389334141999,38.66074000363988,39.18073266955503,39.68433270251985,40.17199350367492,40.64739418831872,41.11361919082071,41.57343368132049,42.02946169198229,42.48431312550798,42.940687297837385,43.40147093030493,43.86984404141379,44.34940622199739,44.8443376576504,45.35961422177639,45.90130520901206,46.47699849454905,47.09642647519836,47.77241794063011,48.522398812832186,49.37085879283291,50.35360986493929,51.525587279241385,52.97621884789848,54.86257531802944,57.48932964914306,60.85686413728773,65.04838403945351
H3,11992.491996290344,11940.143816941458,11891.064566108189,11844.977246814933,11801.641539638102,11760.834726486442,11722.35042773982,11685.997429660958,11651.59859563124,11618.989855222355,11588.019265543242,11558.54613969905,11530.440237567585,11503.581014441252,11477.856923400443,11453.164767579681,11429.409098761995,11406.50165899161,11384.360862131527,11362.911312512017,11342.083358019994,11321.812675168505,11302.039883861327,11282.710189730919,11263.77305207951,11245.18187559388,11226.89372413503,11208.869055025312,11191.071472368272,11173.46749804109,11156.026359096642,11138.719790402465,11121.521851427631,11104.40875616639,11087.358715259597,11070.351789442111,11053.369753506515,11036.395970031474,11019.415272176633,11002.413854895918,10985.379173967327,10968.299852280368,10951.165592862179,10933.967098160452,10916.695995135728,10895.998345873099,10871.959174163358,10844.6662981631,10814.210232309784,10780.684110442282,10744.183628046265,10704.807001375431,10662.654940943465,10617.830636522562,10570.439750306326,10520.59041428135,10468.393227088287,10413.961244729993,10357.409958401176,10298.857251486957,10238.423326448421,10176.230590959703,10112.403491411993,10047.06828094655,9980.352708786093,9912.38561813881,9843.29644174368,9774.726008004884,9706.66999862474,9639.124155095597
S4,31827.059138216253,32348.453245596433,32869.8675963924,33390.324144723694,33909.3757824293,34426.8443528774,34942.686694353295,35456.92583933006,35969.61561153149,36480.8224629214,36990.61624262494,37499.065600175214,38006.23579191958,38512.18772959773,39016.977666123545,39520.65720314155,40023.273455964234,40524.86929039447,41025.483587200746,41525.15151161204,42023.904776508745,42521.77189390411,43018.77841239899,43514.94713989417,44010.29835166338,44504.84998429666,44998.617816212936,45491.61563551591,45983.85539598234,46475.347361956585,46966.10024289417,47455.91856765187,47945.08481222415,48433.5580960853,48921.322010470016,49408.37028768665,49894.70057734243,50380.3117662658,50865.202846765416,51349.3724598552,51832.81873101369,52315.53923108441,52797.53098917817,53278.79052576188,54221.18552020762,55165.232084372015,56110.80667821941,57057.76257350626,58005.92935920942,58955.11157319107,59905.08671163994,60855.60272262941,61806.37499131446,62757.082737639634,63707.36464348803,64656.81336922068,65604.96835294529,66551.30580639948,67495.22392616214,68436.01960695295,69372.84945324129,70304.66049460055,71230.05938955228,72147.0486813547,73052.45229362781,73940.53958719262,74475.02843027943,74993.1573150051,75485.63018612895,75947.100154229
E4,0.0,9.006840255341176,13.840572088784368,16.465764429808484,17.907483563793093,18.70445978721028,19.14193170158272,19.372298205196266,19.477981389603837,19.504322105414893,19.476865083746183,19.410483009330356,19.314219451822296,19.1938775952414,19.05341672892655,18.895714619894996,18.722990167868446,18.53704234846296,18.339388600426098,18.131347321682917,17.91408870409326,17.688667220315924,17.456043196820975,17.21709770686123,16.972643251358335,16.72343170443217,16.470160432166395,16.213477159534605,15.95398395906576,15.692240609824141,15.428767495459692,15.164048157771836,14.898370722394198,14.632249984259524,14.366104689426884,14.100300977587567,13.835169934457848,13.571014934158768,13.308115044681635,13.046726958264156,12.787086385314087,12.52940925390604,12.273892830207126,12.020716793188912,11.770044269814887,11.60507055640021,11.51177176923421,11.48309454023208,11.516587241929258,11.61315162090072,11.77648219556444,12.012965534807332,12.331937952606829,12.746287542043083,13.273461341848042,13.937023169775015,14.76902860772819,15.813682141447693,17.133094362706796,18.816620830269787,20.996578544395227,23.8758869925269,27.779313493794387,33.25471901344145,41.2892104599013,53.81654972261866,75.05150221836972,96.66062246918929,121.07625095859834,148.2457050853404
I4,0.0,0.0,0.9781712280979407,2.1127809334408507,3.1050375293831847,3.8800427605497054,4.449623638763753,4.852129232245546,5.1280118327582365,5.311434877323643,5.4286150961977455,5.49866646510565,5.535117106718079,5.547380666370072,5.5419545001483845,5.5233181162612315,5.494575930155969,5.457903767244032,5.414853098437819,5.366555686099392,5.313860090209908,5.257422267489239,5.197765566027093,5.135320460200824,5.0704509331295595,5.003472079677939,4.934661940545369,4.864269542451721,4.792520437795757,4.7196205904627435,4.64575916247362,4.571110565518525,4.4958360169126905,4.4200672876852325,4.343942413287399,4.267592902299551,4.191140482172576,4.114696977236485,4.038365030074092,3.9622389209658633,3.8864052882588496,3.8109437287255385,3.7359273020103045,3.6614229667105036,3.587491968883784,3.5141901966122635,3.4505877537744176,3.4008146001220947,3.36667874032927,3.3490407698982834,3.3485349927574983,3.3659579790489143,3.4024997974867537,3.4599161187867122,3.540700862971097,3.648303184317828,3.787431894168703,3.9645031251737173,4.188316517660534,4.471101907220992,4.830185908872279,5.290737484472842,5.8904810390495115,6.688199292766787,7.780028362301846,9.333088590413064,11.661551386237267,15.418962804693052,20.107610987194427,25.68145381407524
A4,0.0,0.0,0.8231968229702948,1.9317817670040087,3.0696801920170165,4.123157086723594,5.0493242859223635,5.839511886414989,6.5006259651357965,7.045793628130416,7.48979196429101,7.846925261008943,8.130139440645475,8.350747374499829,8.518442986283546,8.641440310939506,8.726655812010447,8.779894689741033,8.806023631028168,8.80912338664501,8.792619900090266,8.75939516931243,8.711880014934597,8.652131195084769,8.581895230296343,8.502661078470481,8.415703528281924,8.32211890747721,8.22285445175007,8.118732458355126,8.010470157759817,7.898696074739971,7.783963514407073,7.666746992822979,7.547477923046317,7.426544025737749,7.304292822252911,7.181036068313599,7.057054016393028,6.932599179536373,6.807899556520701,6.683161371664745,6.558571403730539,6.43429897475877,6.310497659269203,6.187306763341796,6.072442914170519,5.97087491276773,5.885982878548038,5.82028066865002,5.775886947533704,5.754855520461463,5.7594337010737675,5.792295144005192,5.856783465480995,5.957201630115769,6.09918873797395,6.290242291751765,6.540475489097561,6.863756826577538,7.27948673195678,7.81547308912594,8.512786744529667,9.434378175572604,10.681310620633601,12.425664704321562,14.98356707743108,18.99629954777977,24.221655682498977,30.68575427518118
IH4,0.0,0.0,0.0,0.1739649147977414,0.46493245579456116,0.7905625457700647,1.0953243452308192,1.3528542043013427,1.5564574649302632,1.7098965340831977,1.8211760212504098,1.899061938497072,1.951447415180938,1.9847846827104327,2.004055569976991,2.012969472557088,2.0142246238367756,2.0097563438565844,2.0009437095620135,1.988769608606371,1.9739391842135956,1.95696483138179,1.9382258816990676,1.9180098697377352,1.8965407543904151,1.8739980781564434,1.8505299195050027,1.8262616373677,1.8013017837948575,1.7757461202020033,1.7496803673178358,1.723182110501154,1.6963221413322076,1.669165422081568,1.6417686897753287,1.6141855790010222,1.5864669731426657,1.5586606056756802,1.5308108340809072,1.5029586522392493,1.4751418425214822,1.4473951818703354,1.4197506542174512,1.3922376490900799,1.3648831409795736,1.3377118503868437,1.310746389438103,1.2856114415580313,1.2638743776259864,1.2466602351334668,1.2346988020416247,1.2284770022850722,1.228386117783483,1.2348383835955006,1.248357366766192,1.2696550025060773,1.2997096757731927,1.3398603893348724,1.3919346533951904,1.4584343040727337,1.5428169107986323,1.6499364327439867,1.7867574059081408,1.9635592708941587,2.19606596453736,2.509435655965061,2.9462871702373903,3.5843428805416404,4.579677262083169,5.923782937058714
IN4,0.0,0.0,0.0,0.1945551139118428,0.6128349010048126,1.224288538539564,1.9837736896958296,2.8489517956670602,3.7855351896689027,4.76762491242295,5.7763759920828885,6.798346329921222,7.824029956546623,8.846706662388211,9.86159578377717,10.865256766927752,11.855174423379761,12.829476174814035,13.786740933376912,14.725870404672087,15.646002381144108,16.546452053166483,17.42667192689264,18.28622407566775,19.12476057207384,19.942009363039855,20.737763787381475,21.511874551927846,22.264243387054158,22.994817867479146,23.703587057729276,24.39057775540384,25.05585118005083,25.699500004628685,26.321642184200513,26.922421949086456,27.502008243937492,28.060592535156896,28.598386615983802,29.11562057700483,29.61254095994555,30.0894090732031,30.546499443632896,30.984098384150297,31.40250266239135,31.802018259959787,32.18295921460325,32.547440438206515,32.89837712925851,33.23901494058291,33.572738238155026,33.90302370530343,34.23347169376489,34.567883252601746,34.910370617649235,35.265500935062455,35.63848170523695,36.03540492100842,36.46357780345002,36.93198472160768,37.451952675835436,38.0381416045316,38.71007087234358,39.49456791320462,40.42988358085087,41.573007385154455,43.01359864002157,44.902907749905694,47.52066082536643,51.0447934265839
D4,0.0,0.0,0.0,0.0,0.002860027249822958,0.01050363455101664,0.023500682985872365,0.04150809257416082,0.06374935825602479,0.08933791309805382,0.11744904509005057,0.14738964002872582,0.17861069916882866,0.21069298881040943,0.24332335157167553,0.276270532599284,0.3093642604424443,0.3424786232904659,0.37551952648417714,0.4084155477385933,0.44111142369063217,0.473563483710366,0.505736481071382,0.5376014053546285,0.5691339732822307,0.6003135835172182,0.6311225864467725,0.6615457669056044,0.6915699706610028,0.7211838281034512,0.7503775439653524,0.779142732249595,0.8074722824820119,0.8353602480199407,0.8628017502168969,0.8897928431974714,0.9163304628524556,0.9424123816083579,0.9680371566421102,0.9932040743788609,1.0179130951935411,1.0421648006128241,1.065960343905128,1.0893014041628057,1.1121901436494805,1.1346291680962435,1.15662148964548,1.1781704921886567,1.199306269824136,1.2200846846244189,1.2405800945632435,1.2608788555132224,1.2810753284997498,1.3012703073220577,1.3215713630281265,1.3420946742407325,1.3629681239777858,1.3843356801536484,1.406363324227233,1.4292470823879608,1.4532241116445448,1.4785884123226551,1.5057137850658306,1.535088529252965,1.5673699408693762,1.6034738214034938,1.644729579014629,1.6931672861378133,1.7520947907037576,1.827385844535967
R4,0.0,0.0,0.0,0.15639973967066545,0.6072902493374085,1.4155775014114815,2.583477382388845,4.078455154100928,5.853490195594057,7.859378419205788,10.050922586434924,12.389314087534652,14.842455705702392,17.38433183954784,19.994047541617306,22.654847879875522,25.35325095331399,28.078334437766927,30.821171607516582,33.57439559272944,36.331866711478966,39.08841962658582,41.839671005084526,44.5818725090278,47.31179759327336,50.02665352385548,52.72401228544331,55.40175572790705,58.05803153488821,60.69121749315474,63.299892190476136,65.8828107404009,68.43888447518354,70.96716379960878,73.46682079117264,75.93713739026222,78.37749590074388,80.78737030400254,83.16631820565136,85.51397346363646,87.83003951697434,90.11428338040074,92.36653023976217,94.58665857442746,96.77459573676431,98.93031392750375,101.05382651554895,103.14662674618454,105.21193814348804,107.25439368857074,109.2796662365889,111.29420868814077,113.3051282191057,115.32017924192449,117.34785628074867,119.39757679877107,121.47995672183835,123.60719617309215,125.79361122097357,128.0563730394786,130.41655570829178,132.90066073308148,135.54290530788717,138.38878467185165,141.50086318703802,144.9686935909537,148.92693983979314,153.59129386735106,159.33739908240014,166.57117852453158
G4,0.0,0.0,0.9781712280979407,2.481300962150435,4.269534855199208,6.214343988385688,8.245707250336977,10.324581340459808,12.428473958652864,14.543844103631182,16.662074933333933,18.77732384397915,20.88536345220374,22.982948534801224,25.067464112632756,27.136725197855583,29.188859337191527,31.22223505686291,33.235416257511694,35.22713163840857,37.196253080992555,39.14177955322536,41.06282454212162,42.95860582917613,44.82843688321482,46.671719413223514,48.48793678408625,50.27664809684085,52.03748279749794,53.770135719041626,55.47436248822602,57.1499752471091,58.79683865191166,60.41484865020609,62.00395709791632,63.56416132810759,65.09549843776914,66.5980414808421,68.07189645865293,69.51719968019117,70.93411533203209,72.32283319964385,73.6835665189638,75.01654994965655,76.32203766508908,77.60030155473058,78.86064877933973,80.11086346172154,81.35796370668508,82.6087013645729,83.86992621824648,85.14888928690728,86.45353519125896,87.79282250511753,89.17710948981185,90.61864921004465,92.13225383536526,93.73621687251007,95.45363257463461,97.31434060084263,99.3578849054375,101.63817948582006,104.23117603503253,107.24809700016552,110.85966425519038,115.34380259424945,121.18844944506381,129.33927903838352,139.8369271712377,152.98618948034039
H4,5996.245998145172,6096.183431447592,6195.684629922104,6294.776834639672,6393.48497836313,6491.831991193448,6589.838947247501,6687.525200812,6784.908512725841,6882.0051676894345,6978.830083149621,7075.396910362481,7171.718128193307,7267.8051301730375,7363.668305293381,7459.317112988385,7554.760152718216,7650.005228541233,7745.0594090328295,7839.929082883926,7934.620010488193,8029.137371805026,8123.485810764764,8217.669476463609,8311.692061378033,8405.55683681203,8499.266685775312,8592.824133476437,8686.231375601648,8779.49030453805,8872.602533688392,8965.569420014197,9058.392084934218,9151.071433696114,9243.608173330833,9336.00282929133,9428.255760870015,9520.36717548257,9612.3371418995,9704.16560250097,9795.852384625103,9887.397211074831,9978.799709843834,10070.059423117686,9699.30418762043,9330.057783644239,8962.532772709987,8596.964719151636,8233.614071873471,7872.768138252355,7514.743129163533,7159.88624283696,6808.577740545885,6461.232948263747,6118.3040946533,5780.281866400621,5447.6965265335575,5121.118400003519,4801.157484337903,4488.461893811504,4183.714797555347,3887.6294722703387,3600.942069129944,3324.4017062782514,3058.7575608205807,2804.742766992369,2887.345980476859,2969.373450824723,3050.8295008914306,3131.718417546637
E_Om,0.0,0.0,0.0,0.0,0.0,0.0,0.0,0.0,0.0,0.0,0.0,0.0,0.0,0.0,0.0,0.0,0.0,0.0,0.0,0.0,0.0,0.0,0.0,0.0,0.0,0.0,0.0,0.0,0.0,0.0,0.0,0.8857768822651899,1.258527245277811,1.4260863937682315,1.5179962161513894,1.587662608849264,1.6562664770617788,1.7315771545828564,1.8159591906312063,1.9097368529412408,2.012574428050143,2.124016628916573,2.2436798968944225,2.371303543180737,2.5067484569675846,2.6754017072051597,2.877261945667569,3.1156780500307466,3.3965190292539735,3.7280733206816556,4.1214102142567715,4.591130070950053,5.1565520108330745,5.843493954308527,6.686931277730009,7.735022396148564,9.055333764345628,10.744716280905127,12.945449162211863,15.872551841188596,19.861869523920326,25.458781722394647,33.591179430192234,45.930039479845234,65.70493116165319,99.7442454647008,164.25324500590938,244.69630046782783,357.0881647546697,507.7940901548252
I_Om,0.0,0.0,0.0,0.0,0.0,0.0,0.0,0.0,0.0,0.0,0.0,0.0,0.0,0.0,0.0,0.0,0.0,0.0,0.0,0.0,0.0,0.0,0.0,0.0,0.0,0.0,0.0,0.0,0.0,0.0,2.0,1.2465122299166917,0.8730945297512497,0.6808415284757916,0.5792161212388344,0.5258591610192166,0.5001700990201672,0.4916098302685009,0.4944535672710729,0.5053900987106905,0.5223909083835688,0.5441552516216674,0.5698229857495433,0.5988163659076077,0.6307469974539257,0.6653577031808801,0.7052453114920417,0.752028165147855,0.8070786048362288,0.8718893431462058,0.9482908727353992,1.0386262191080484,1.1459413324375478,1.274232737100666,1.428795198849805,1.6167271488805792,1.8476828834415946,2.1350174315651764,2.497572709479556,2.9625440278465875,3.570232818176184,4.382231041571471,5.496156197661487,7.073620875273139,9.396824457131482,12.99239083395586,18.930126340421502,29.636736891884986,45.046066650409905,66.8561362059036
A_Om,0.0,0.0,0.0,0.0,0.0,0.0,0.0,0.0,0.0,0.0,0.0,0.0,0.0,0.0,0.0,0.0,0.0,0.0,0.0,0.0,0.0,0.0,0.0,0.0,0.0,0.0,0.0,0.0,0.0,0.0,0.0,0.0,0.08095721636773011,0.18060152343862146,0.2766287172457122,0.3628119055954048,0.43898837856931044,0.5069622076242254,0.568904800051335,0.6267911283021219,0.6822505754811505,0.7365722739054628,0.7907588209411214,0.8455872737281258,0.9016632296421365,0.9594645139006306,1.02169846749329,1.0905579385795967,1.1681252314336092,1.2566234408135384,1.3586108312111826,1.4771713188863527,1.616137331687296,1.78037887852613,1.9762003885029888,2.21190514703511,2.498620419951607,2.8515347571671774,3.2918028923824134,3.8495642287804532,4.5688840620141855,5.51615088516527,6.794985964278787,8.574129802110257,11.142985793397763,15.031145837930785,21.291677723678845,32.2586861015951,48.494306724253825,71.9175727401617
R_Om,0.0,0.0,0.0,0.0,0.0,0.0,0.0,0.0,0.0,0.0,0.0,0.0,0.0,0.0,0.0,0.0,0.0,0.0,0.0,0.0,0.0,0.0,0.0,0.0,0.0,0.0,0.0,0.0,0.0,0.0,0.0,0.7534877700833083,1.2231036303340583,1.5520366554811602,1.8085395380168277,2.026755669811104,2.2248698931182287,2.413305919404755,2.5985169167847784,2.7847992746911876,2.9752019039410382,3.1720094842759026,3.377016647837668,3.5916939732749866,3.817294377393544,4.0549244516926946,4.305593897731451,4.571290756290374,4.854612768888924,5.158674698008921,5.48715367647224,5.844416464016115,6.235712540909006,6.667438930521337,7.147498322343903,7.685788176487441,8.294880243609027,8.99098347144178,9.795338233241297,10.736283478984635,11.852403825642511,13.197467208065419,14.848445955817189,16.919089194519945,19.58403260438209,23.124228757416237,28.019032556180342,35.150841898000095,46.31630129460616,63.28713145032688
G_Om,0.0,0.0,0.0,0.0,0.0,0.0,0.0,0.0,0.0,0.0,0.0,0.0,0.0,0.0,0.0,0.0,0.0,0.0,0.0,0.0,0.0,0.0,0.0,0.0,0.0,0.0,0.0,0.0,0.0,0.0,0.0,0.0,0.09619816008530786,0.2328781839569517,0.3877556592556622,0.5526148308303207,0.7250399921383955,0.904915749673256,1.0929704840558512,1.2901893734018777,1.4975928123246067,1.7161647358975696,1.9468396335872113,2.1905103391825937,2.448041374847469,2.720282154873573,3.0108392092234917,3.323318921438228,3.6616913737251515,4.030564041155127,4.435444549207638,4.883042683124162,5.381653873346552,5.9416716676220025,6.576293521193708,7.302515325368018,8.142563127050622,9.126000903006956,10.292910942720855,11.698827506831224,13.422636643818693,15.579698249636891,18.344602153478675,21.99271006979308,26.980857061513575,34.1166195913721,44.949158896601844,62.787578789885075,89.36236794501605,128.14326765623048
beta,1.0018282172750184,1.0018282172750184,0.9978576557838952,0.9950176712650776,0.9927707193996265,0.9908475755709889,0.9891118078602396,0.9874935957750904,0.9859567996403371,0.9844824051598122,0.9830601454897031,0.9816842415351471,0.9803512277830929,0.9790588386926811,0.9778054363256834,0.9765897151248631,0.9754105491052343,0.9742669125025751,0.973157838471647,0.9720823975854465,0.9710396866898775,0.9700288231997423,0.9690489422637864,0.9680991954427972,0.9671787501798551,0.9662867896761688,0.965422512963321,0.9645851350581105,0.9637738871378514,0.9629880167026963,0.9622267877075257,0.9614894806550293,0.9607236466492577,0.9600000432369693,0.9593059781868492,0.9586356081760391,0.957986048000647,0.9573556912339855,0.9567434854382169,0.9561486197568356,0.9555703906639279,0.9550081445934591,0.9544612536466088,0.9539291054453598,0.9534110989666678,0.9820464383529675,1.0130744960571767,1.0468328585131998,1.083724467536831,1.1242347108349724,1.1689538020477017,1.2186066159258262,1.274093125962479,1.3365441459318605,1.4073995731089637,1.4885204308516153,1.5823529261345766,1.6921747778419682,1.8224757753344727,1.9795652351800261,2.1725789020476136,2.41522285243796,2.728953482663531,3.1491394470119327,3.737887332945562,4.61301825655343,6.019146524553789,5.648023437581266,5.248374048592968,4.802873963415848
