series,2021-12-01,2021-12-02,2021-12-03,2021-12-04,2021-12-05,2021-12-06,2021-12-07,2021-12-08,2021-12-09,2021-12-10,2021-12-11,2021-12-12,2021-12-13,2021-12-14,2021-12-15,2021-12-16,2021-12-17,2021-12-18,2021-12-19,2021-12-20,2021-12-21,2021-12-22,2021-12-23,2021-12-24,2021-12-25,2021-12-26,2021-12-27,2021-12-28,2021-12-29,2021-12-30,2021-12-31,2022-01-01,2022-01-02,2022-01-03,2022-01-04,2022-01-05,2022-01-06,2022-01-07,2022-01-08,2022-01-09,2022-01-10,2022-01-11,2022-01-12,2022-01-13
S,2843116.83150252,2839698.60709381,2836803.481335206,2834294.071433463,2832077.120023538,2830088.1801188816,2828281.9429502394,2826625.9985475866,2825096.734608854,2823676.602692032,2822352.2759227664,2821113.396565819,2819951.718285997,2818860.5148414033,2817834.1699111187,2816867.890795675,2815957.507261374,2853605.718431469,2891245.600240562,2928874.160870966,2966487.1139796665,3004078.72152,3041641.4861891153,3079165.633173356,3116638.271696449,3154042.0359805347,3191352.826086783,3228535.891243591,3265538.6366703124,3302276.3763058763,3338601.168158041,3374223.8685152507,3408478.7352989917,3439387.5785009232,3458670.2060341174,3472132.5607995857,3483253.361433142,3457759.256777323,3444975.4008971774,3432393.3797863596,3420333.4927082662,3408852.1718624495,3397949.867084109,3387610.8501340235
E,787.9648333281687,4048.5962753723807,6133.8634534419625,7416.396754432448,8149.987106217739,8508.861851181433,8613.267717053262,8546.505200884076,8366.418234039165,8113.218859800074,7814.855625176027,7490.718533147387,7154.2083792830035,6814.525829267789,6477.921572171935,6148.572586607828,5829.19802022071,5521.493110493479,5283.655678922267,5104.703711654203,4977.145962717611,4896.440948830068,4860.714497360897,4870.744454464685,4930.268597944106,5046.751469691984,5232.897811520806,5509.520542942167,5911.1110757976285,6497.348402310842,7379.220655297111,8786.694728189956,11280.272426420619,16620.547462552968,32516.668108423437,51051.89303471125,63609.74682417885,76373.04439242609,73877.01753951413,71677.5459703068,69395.42031271051,66990.85343961634,64487.935088333834,61922.09637005027
I,7848.907469457827,5988.72656536913,4672.468468630078,3734.4531766520536,3059.903994404949,2569.177932436043,2206.9549954924223,1934.7868668612332,1725.9431660751754,1561.8380982174167,1429.5486328816899,1320.0888128872411,1227.2089916462974,1146.5600660984453,1075.1117797571383,1010.7480074357092,951.9853683719791,897.7777844517398,847.3809168954663,801.9689423198473,762.1059181736969,727.996570856031,699.6607208687936,677.0574017855539,660.1787335041736,649.130471239549,644.2161478756044,646.0462676227862,655.7070338680858,675.0551117032447,707.28572156403,758.1453169773158,838.8762613277233,974.7794358852059,1237.7179785655178,1912.7795135450003,2979.952822263885,4166.432411365009,5449.72669258869,6350.409469875084,6969.173280255725,7371.207660498224,7604.867188051045,7707.621525257529
A,44659.41123032222,39665.66617599149,35799.94843301719,32732.803896386944,30235.992259912637,28150.650592462316,26365.793352061344,24803.632791553624,23409.482490375616,22144.774599543893,20982.209854656267,19902.377648703456,18891.39441488169,17939.250224420004,17038.649557072604,16184.197830262969,15371.830387223119,14598.411812204655,13861.455063929594,13168.658352715409,12524.967896528899,11933.487698038214,11396.192834096353,10914.512799265076,10489.84526878854,10124.063248697483,9820.094436450938,9582.69150124669,9419.601775847028,9343.55017827955,9375.952198514311,9554.643946507727,9952.2355206141,10728.343623949768,12323.74208869263,16439.95323364282,23236.460606943558,31388.737784058496,40776.0624912514,48660.95270155593,55266.36280520916,60725.14254854845,65148.119952190005,68637.49555833588
IH,0.0,313.95629877831306,545.0678339592737,717.3179581673204,847.4182749956437,947.0401984497611,1024.35575549366,1085.10455130845,1133.3340073967522,1171.9135562096467,1202.8920828439957,1227.7464877073064,1247.554541447655,1263.1150639285468,1275.0314427296112,1283.7696392222488,1289.6984471299188,1293.1174136707723,1294.276192652792,1293.3879549249357,1290.7071094669186,1286.5037903540538,1281.049060905722,1274.6074924761988,1267.4349074480874,1259.7799378125624,1251.8887638227206,1244.0130909904265,1236.4222804488904,1229.4219024276126,1223.3835816066548,1218.7967641271644,1216.3676004812987,1217.2329580103014,1223.5111861705782,1240.1382296180398,1283.3208852191744,1368.0299459150579,1497.9216471456082,1675.6543000530153,1884.6377262323647,2112.7553072631376,2350.823638459393,2591.84030082723
IN,1569.7814938915653,2841.5363137280497,3499.809337134532,3769.856073986707,3801.0307502689907,3691.377005175667,3504.3960666772005,3280.4693076115304,3044.621939756033,2811.7820040323536,2590.326259028898,2384.4565101177714,2195.7796486952298,2024.3475647644932,1869.332476278689,1729.4577062438875,1603.265732730656,1489.2790715913168,1386.0915268631802,1292.415004407472,1207.4407930821358,1130.626528929417,1061.5737623323998,999.9636543626774,945.5297051199797,898.0544343105938,857.3828018242558,823.4499088536485,796.3252786233217,776.2824758890595,763.9144615187298,760.3406654650471,767.617282001414,789.6586048046171,834.6959660309683,923.7705878318429,1130.946492144424,1512.2242300671248,2058.411418925,2757.5625536593716,3504.114771966861,4232.685074309999,4903.341483303123,5493.404115994594
D,3992.0,3992.0,3992.3139562987785,3992.859024132738,3993.5763420909057,3994.423760365901,3995.370800564351,3996.395156319845,3997.4802608711534,3998.61359487855,3999.78550843476,4000.9884005176036,4002.216147005311,4003.4637015467583,4004.726816610687,4006.0018480534163,4007.2856176926384,4008.575316139769,4009.868433553439,4011.1627097460923,4012.456097701017,4013.746804810484,4015.0333086008377,4016.3143576617435,4017.5889651542197,4018.856400061668,4020.1161799994807,4021.3680687633037,4022.6120818542936,4023.8485041347426,4025.07792603717,4026.301309618777,4027.5201063829045,4028.7364739833856,4029.9537069413955,4031.1772181275664,4032.417356357185,4033.7006772424043,4035.0687071883185,4036.5666288354646,4038.242283135518,4040.126920861751,4042.2396761690134,4044.5904998074725
R,0.0,5425.807806470261,10527.80438637187,15316.894976774354,19809.54283531348,24024.792389340473,27982.36327817747,31701.499118222408,35200.32696757918,38495.550625979886,41602.35391297615,44534.429515923584,47304.077338810246,49922.336137584774,52399.125851747856,54743.38720741274,56963.211202804225,59065.95496193842,61058.342848200904,62946.55315376607,64737.409045258,66438.15465976598,68056.2945557161,69599.49143644114,71075.51845287032,72492.26526035229,73857.80171643954,75180.51077123985,76469.31526666351,77734.04776003044,78986.06172368593,80239.2917412902,81512.2419188168,82832.16207827508,84245.40174101785,85850.53750633837,87945.63673311767,90861.55921223355,94788.10218226787,99899.55099329085,106053.67497453147,113113.37239239163,120944.06865362388,129416.09560924052
G,675994.0,676017.5568885811,676138.5931675307,676321.9703080239,676543.6898881734,676787.3407848615,677041.7205517025,677299.2216219896,677554.7267692502,677804.8480612505,678047.3997394869,678281.0315913841,678504.973085236,678718.8543176834,678922.5804472057,679116.2435020258,679300.0603847468,679474.3292892359,679639.3990899479,679797.3585354273,679949.9680574379,680098.764130482,680245.1474575001,680390.4627114254,680536.0778195726,680683.4724533492,680834.3494430827,680990.79143832,681155.5033087946,681332.2210747582,681526.4649114277,681747.0730800163,682009.7589004413,682346.9923777175,682843.87798501,683815.9918348454,685342.2322268151,687243.9004932595,689527.1385532107,691735.7557367183,693878.6178198692,695953.253787373,697956.0031534454,699883.9256157841
H,765516.7948949115,765516.7948949113,765516.7948949115,765516.7948949113,765516.7948949115,765516.7948949113,765516.7948949116,765516.7948949115,765516.7948949115,765516.7948949115,765516.7948949115,765516.7948949115,765516.7948949113,765516.7948949116,765516.7948949113,765516.7948949115,765516.7948949115,737997.8599484548,710862.8449146997,684132.0740641432,657827.223877474,631971.4072001701,606589.2501996239,581706.9574735264,557352.359211792,533554.9325624086,510345.7872834216,487757.6034032623,465824.50604395935,444581.8599639245,424065.96406229376,404313.62455225823,385361.58548052993,367245.79771425837,350000.51361351064,333657.20560154394,320089.0761156541,320089.0761156541,320089.07611565414,320089.0761156541,320089.0761156541,320089.07611565414,320089.07611565414,320089.0761156541
S0,995090.891025882,990972.1149599295,985809.1265670614,980874.8883459856,976118.1353769732,971503.343799399,967005.4693295215,962606.5425698832,958293.4247938514,954056.3083814633,949887.7044362661,945781.7537601808,941733.7547920134,937739.8383359782,933796.7422495565,929901.6545546124,926052.1035851984,934938.8162696376,943555.6992725737,951892.7453944546,959938.6873531133,967680.9036587788,975105.2506372879,982195.791966569,988934.372135025,995299.9337044298,1001267.3859750249,1006805.6371592125,1011873.9552698097,1016414.7018705365,1020337.320889364,1023478.0738970732,1025478.051998867,1025297.7289529206,1018634.1461735411,1008598.6695477198,998673.3110099796,982083.1154911297,972074.2356476976,962235.5122673651,952725.8685964784,943569.3698335885,934761.7655668333,926290.8571697053
E0,787.9648333281687,2514.4325643766233,3612.7397198561534,4280.477949246562,4654.379014603231,4828.217763670183,4866.626306873276,4814.301193739966,4702.216979777289,4551.8579629596115,4378.120121067572,4191.311837293811,3998.5392503628045,3804.668937276993,3612.9989252732757,3425.7276519794996,3244.282498205609,3069.5504445761803,2933.6259655167487,2830.285414606563,2755.2515250180527,2705.8820792266747,2681.000837059638,2680.8737261122683,2707.35849972741,2764.298078586969,2858.3075949679196,3000.272981338239,3208.2662166587434,3513.570197625317,3974.3482686144434,4711.031973307916,6016.848057036419,8811.469508329936,17110.374307216265,26702.957595098487,33102.117556659265,39520.36152815043,38111.13637798772,36848.863309625965,35544.187507737,34180.29082893493,32772.02653830932,31339.26254446352
I0,7848.907469457827,5988.72656536913,4626.603320749591,3624.2244949169035,2882.3791978040085,2329.754866964439,1914.9574349250265,1600.8596431146184,1360.5810169333038,1174.6184067481681,1028.7917104636863,912.7693785958802,819.0076115469728,741.9855657712938,677.6528906927065,623.0299172432694,575.9178211211351,534.688168637816,498.1298672411573,466.28197859692017,438.98812829131384,416.0015991874433,397.0558948885569,381.9133134182489,370.4011514093666,362.44369344200516,358.0982832266542,357.60626707051733,361.4765125110349,370.6360362809504,386.7246002860569,412.72726694064505,454.51308859128875,525.3088115812786,662.6611806557307,1015.1519007553036,1569.8234023021157,2182.6821519899627,2840.3337432083426,3298.0189507321156,3608.1229659297965,3804.7976086540093,3913.4954690848326,3954.004566934994
A0,44659.41123032222,39665.66617599149,35538.980838698524,32072.946951037153,29118.46714229789,26566.821998667587,24337.726728644702,22371.109007456045,20621.3970658832,19053.520572568097,17640.090529779976,16359.39660431039,15193.974735978712,14129.574866716057,13154.410951025537,12258.611221942028,11433.811349363781,10672.8501966178,9969.53974581893,9323.861888448146,8734.741927197132,8200.500980419456,7719.203483058532,7288.936027777644,6908.05013952057,6575.40263220637,6290.635276767601,6054.556237266521,5869.732626742959,5741.510921421903,5679.945066770728,5703.8284425538495,5850.2824817412675,6202.045427236704,6988.795720168831,9096.8896042335,12594.67084023291,16779.361394793174,21575.336800725618,25580.924620940663,28911.87409450081,31638.434127668414,33819.92683112695,35511.38956921086
IH0,0.0,313.95629877831306,545.0678339592737,715.483352252101,841.2238265639413,933.9112330066777,1002.0027063667314,1051.6723345297846,1087.4431873725716,1112.6415589777953,1129.7242237989337,1140.514726768567,1146.3743433492073,1148.3260129499379,1147.1443498981037,1143.4211368566216,1137.6130656572823,1130.0766016367847,1121.0934928329727,1110.889471646249,1099.6857664199656,1087.6914050430867,1075.0999291266062,1062.0890190245013,1048.8220718793998,1035.451185426066,1022.121341179147,1008.9759180457128,996.1640954989592,983.8513985380906,972.2359843726248,961.5762752436616,952.2431508307316,944.8322855726567,940.4524151027006,941.6843477436378,956.982801187556,994.0569711006551,1054.6491283643516,1139.9189443326072,1241.2045553603937,1352.1722917159477,1468.0247728653794,1585.1116507489257
IN0,1569.7814938915653,2841.5363137280497,3499.809337134532,3760.68304441061,3771.5535053831613,3631.9911245903672,3408.4001207900837,3144.2989035989167,2867.518359459824,2595.2295212612985,2337.442831364517,2099.4322059059155,1883.4039858589135,1689.6368733030104,1517.252489369429,1364.7291473489408,1230.2381224858593,1111.8581128197484,1007.7068933061114,916.0173652001222,835.3657299039817,764.5672254182385,702.6126761420397,648.6312015342858,601.8697193583916,561.6835811215666,527.5353832653641,499.00121829110526,475.7859277878397,457.7521633641146,444.97405588715196,437.83961468747236,437.26019710303075,445.1479476271113,465.6973349344937,509.81584699836577,616.0565007749402,813.0614192108983,1095.2362448168637,1455.3698405850323,1838.6682756247583,2211.2174127632725,2552.372156757256,2850.497449832434
D0,3992.0,3992.0,3992.3139562987785,3992.859024132738,3993.57450748499,3994.4157313115543,3995.349642544561,3996.3516452509275,3997.4033175854574,3998.49076077283,3999.603402331808,4000.7331265556068,4001.8736412823755,4003.0200156257247,4004.1683416386745,4005.3154859885726,4006.458907125429,4007.5965201910863,4008.726596792723,4009.847690285556,4010.958579757202,4012.058265523622,4013.1459569286653,4014.221056857792,4015.2831458768164,4016.331967948696,4017.367419134122,4018.389540475301,4019.3985163933467,4020.3946804888456,4021.378531887384,4022.3507678717565,4023.312344147,4024.264587297831,4025.209419583404,4026.1498719985066,4027.0915563462504,4028.048539147438,4029.0425961185388,4030.097245246903,4031.237164191236,4032.4783687465965,4033.8305410383123,4035.2985658111775
R0,0.0,5425.807806470261,10527.80438637187,15286.930750434298,19702.025027499123,23783.204055413138,27547.305929416692,31014.77629011216,34207.58511557609,37147.870638437715,39857.0903536189,42355.521033434976,44661.99512501391,46793.79395873663,48766.6420579336,50594.76395623327,52290.977130255116,53866.80329574649,55332.586388573065,56697.609783491316,57970.82512902003,59160.796090001386,60275.674041294165,61323.201530238024,62310.7406660284,63245.32553387373,64133.74050616294,64982.63054758025,65798.65664606291,66588.7223682349,67360.32336864992,68122.12889427936,68885.04639382502,69664.42820833003,70485.50509886644,71400.70445902554,72566.36244893078,74154.20058486429,76260.8848535028,78973.38104049674,82216.37624865226,85917.22099625842,90004.72920072092,94410.48247671711
G0,675994.0,676017.5568885811,676092.7280196502,676200.7339907974,676328.7025724646,676467.849249098,676612.19298513,676757.6849777016,676901.6126658678,677042.1894997467,677178.2712210817,677309.1588997252,677434.4617835393,677554.0015645348,677667.7454252414,677775.7591455582,677878.1742295745,677975.1648541603,678066.9317132367,678154.6349927303,678239.248817288,678321.6194389741,678402.5141184801,678482.6649517831,678562.8119849947,678643.7508033656,678726.3918795764,678811.8434513946,678901.539200932,678997.4530877046,679102.4943004171,679221.3108711403,679362.1512368567,679542.0301011086,679805.4565849626,680316.9859884195,681115.2939461475,682104.9103123879,683286.4056200838,684425.7709259776,685527.399489351,686590.0236438983,687611.8729304061,688591.6209408366
H0,267930.878213219,267328.03373723925,266365.6528157852,265406.7364656484,264451.27221437206,263499.2476344003,262550.6503429165,261605.468001682,260663.68831687592,259725.29903893516,258790.287962395,257858.64292573038,256930.35181119776,256005.40254467746,255083.7830955166,254165.48147637275,253250.4857430578,239645.84831219527,226324.17670667675,213293.8983773101,200564.00735706583,188144.08320659318,176044.30436930165,164275.45351061499,152848.91177200907,141776.63811413693,131071.12906219243,120745.35322769776,110812.65402187781,101286.61309977355,92180.86644685727,83508.86488681058,75283.5714883664,67517.09030849366,60220.22461360906,53401.968629958355,47804.279333669234,47632.18392806802,47460.70806592698,47289.84951688964,47119.60605862884,46949.97547681777,46780.95556510123,46612.54412506686
S1,284311.68315025204,265738.56831244624,249920.25665825084,235285.42043244606,221732.06418996956,209171.08264407885,197523.34570221318,186717.74643331146,176689.84312656758,167380.87844340602,158737.04416335045,150708.90996728043,143250.9646976168,136321.23693955364,129880.97325119711,123894.3596351204,118328.27649454103,114709.40046121551,111295.0402626625,108074.41298194129,105036.98073335922,102172.4573761643,99470.80441425144,96922.21532623298,94517.0854069736,92245.96056637767,90099.451641083,88068.08643696854,86142.03914804211,84310.59523595145,82560.97987567322,80875.42231473324,79222.27777961976,77520.75456550272,75454.44345669766,73269.29357129762,71217.85837741494,68815.52207441496,66989.52032734928,65273.993473737246,63671.580266088946,62176.06607958934,60779.95089700146,59475.834127130045
E1,0.0,538.3030564897396,860.0177087296343,1040.476593949605,1127.4242858321736,1152.8830686569256,1138.4854987535066,1098.9145642032972,1044.1575212713424,981.001528707699,914.0372053709928,846.338712543984,779.9288025442128,716.0994622356286,655.6346569053729,598.9661006404071,546.2828112280021,497.6085081482664,456.73175930217036,422.40198129817765,393.67055847774026,369.8306222515329,350.37745390763945,334.98695032773514,323.5123058147248,316.00281067762836,312.7550953478487,314.42008266202674,322.2182550755469,338.3902043159817,367.2226844136277,417.704366256801,511.80263540596025,718.3028956544906,1335.3498584166114,2032.329433987742,2478.693640720304,2912.774468165244,2785.319851430351,2666.545742167861,2544.6671508197633,2419.673605964297,2293.4008452353974,2167.7393329548668
I1,0.0,0.0,16.093034344030496,37.94167756299012,59.94162049048345,79.26095338629321,94.70475866655146,106.01162290446278,113.42183249344846,117.41658273597234,118.56449002898279,117.43494334591611,114.55258301064623,110.37660759516507,105.29463307626423,99.62468491500232,93.62136892691444,87.48383638165016,81.36415135846714,75.49114506393468,70.00134194550012,64.9701408996061,60.43371264115548,56.40445791208945,52.88211193391132,49.86208459197888,47.34236097548194,45.330277774896615,43.85087077482944,42.95965454766812,42.76580459139885,43.48045049501654,45.532774818162714,49.90569025186889,59.40260943863004,85.0674193861298,125.40948074089967,169.41389047240034,215.83446274780238,247.30373193667305,267.6695220405703,279.5038568692623,284.76116146598395,284.98167982411127
A1,0.0,0.0,91.56757695391742,227.3463836102274,378.23190854688573,526.5829617301225,662.2310326791687,779.8549437774722,877.2421305556903,954.1329481888391,1011.452087981204,1050.7989516995763,1074.1122257987884,1083.4520758337032,1080.861892035907,1068.2837988796643,1047.5103630014398,1020.1604817444404,987.6712058924801,951.9590355333362,914.507689340867,876.4691623768323,838.7429366800664,802.039361271764,766.932091815482,733.9039447351677,703.390684093218,675.8284977076019,651.7142151002581,631.6952290810789,616.7257329207636,608.3795542805321,609.5788244744778,626.646899681204,676.881771849188,826.3109312029445,1077.141785506974,1375.1007093747621,1712.6870173779744,1989.8312021146542,2214.9498015417344,2393.488293596917,2530.265126728842,2629.857763046439
IH1,0.0,0.0,0.0,0.6437213737612199,2.144088562974509,4.484131330922962,7.534059123793028,11.119772785667196,15.061395511700672,19.193496114359874,23.374337156031867,27.48873502690433,31.447377217970793,35.18433709317726,38.65382772759387,41.82679735195568,44.687695977288584,47.23157575081138,49.4615878433144,51.386881301525996,53.025512541208066,54.400513692612904,55.53731385687833,56.46210556054076,57.20087343967611,57.77889320610653,58.22057768618534,58.54960301886506,58.78930251810993,58.963383850030155,59.09713812373659,59.219543773576596,59.36724562647353,59.593070987626575,59.98774394414171,60.75168689288203,62.52169138980554,65.85780974121708,70.86444681226396,77.59335417002359,85.4001939409188,93.81185769307918,102.47083266365473,111.10739119225806
IN1,0.0,0.0,0.0,3.2186068688060994,10.195882368317118,20.248494443364383,32.25646127350745,45.07344867959272,57.71847401186813,69.44485374091643,79.74390300557374,88.31723523014459,95.03699102022856,99.90451345012698,103.01273032275427,104.51445007648698,104.5970752038587,103.46335056067272,101.31735967341203,98.35485315141337,94.78018413606466,90.7862137382277,86.54426771680784,82.20037937919028,77.87533741749789,73.66694555352859,69.6535212216953,65.89811012685351,62.453255937996715,59.36653394305959,56.68759006519413,54.478479932968916,52.83170368708415,51.908036612939966,52.03431297161866,54.035999306742674,60.790622816906875,74.33127758699783,94.10208944686501,119.4034810661284,146.19519837444193,171.97360375042933,195.22478577032092,215.11313763006456
D1,0.0,0.0,0.0,0.0,0.0006437213737612199,0.0027878099367357285,0.00727194126765869,0.014806000391451718,0.025925773177118916,0.04098716868881959,0.06018066480317946,0.08355500195921133,0.11104373698611565,0.14249111420408644,0.1776754512972637,0.21632927902485757,0.25815607637681326,0.30284377235410187,0.35007534810491325,0.39953693594822765,0.4509238172497536,0.5039493297909616,0.5583498434835745,0.6138871573404528,0.6703492629009936,0.7275501363406697,0.7853290295467762,0.8435496072329616,0.9020992102518266,0.9608885127699365,1.0198518966199666,1.0789490347437032,1.1381685785172797,1.1975358241437533,1.25712889513138,1.3171166390755216,1.3778683259684037,1.4403900173582092,1.5062478270994262,1.57711227391169,1.6547056280817136,1.7401058220226324,1.8339176797157115,1.9363885123793663
R1,0.0,0.0,0.0,10.513763628089935,37.245328143761235,82.66500029959073,147.08735904732737,229.4434483347307,327.83119697709174,439.9035916284684,563.1377664821892,695.0167860884831,833.1477281171603,975.3336843242463,1119.612843243932,1264.2744727366892,1407.8590941810264,1549.1482274025764,1687.1476371263798,1821.0669171164338,1950.3731135813382,2074.742897020706,2194.022420769691,2308.1943010086857,2417.3511184856893,2521.6749252949803,2621.422432647501,2716.915886487748,2808.5401977141573,2896.747902336106,2982.075515536196,3065.1791924997965,3146.908326083279,3228.4663369914033,3311.8145823813747,3400.9649677356324,3507.672559180401,3644.5086589122807,3818.21336552606,4034.5627184627447,4287.711326931961,4571.99646088995,4881.893075506003,5212.132708656348
G1,0.0,0.0,16.093034344030496,41.80400580555744,72.90995134816839,106.61527316169418,141.0817072546628,175.11771357254648,207.97071265860322,239.18670269955473,268.51458984919856,295.84052077308775,321.1425468408377,344.45919134791166,365.86760265185046,385.46836642889195,403.37497482040465,419.7065708175998,434.5830065260128,448.23739655751245,460.86546825442224,472.63458927544826,483.69099483290313,494.1658311377144,504.18055505843773,513.852234580644,523.299411266222,532.6494946997524,542.0493543656604,551.6823471244581,561.7988142596292,572.7772532651827,585.2648857071329,600.5656670971981,622.0399519444078,661.9613881571788,722.7196301646198,796.8223152739365,883.9022212627146,967.1717615110579,1046.8904472797567,1122.9654673981856,1195.3036976435303,1263.8668947534939
H1,76551.67948949114,71686.54685907866,67528.4601477414,63663.91505875383,60071.95680583346,56733.12732824567,53629.35838199768,50743.8722673752,48061.08964736874,45566.54395049744,43246.80188771636,41089.38964668696,39082.72435788481,37216.050455984776,35479.38058686099,33863.44073551478,32359.61927343581,29402.599511905668,26695.571208358535,24216.60735549074,21945.815971494518,19865.16758708464,17958.336863345903,16210.557007265545,14608.485714909946,13140.081422525325,11794.488684939266,10561.93153121727,9433.61367405267,8401.624478827269,7458.849641026036,6598.88559119636,5815.956763840921,5104.835053255002,4460.761059430526,3879.367120906678,3409.041132756994,3337.6336003041324,3270.7070624234534,3207.943678430544,3149.0483025177364,3093.7468627203903,3041.784855671192,2992.9259488718994
S2,284311.68315025204,301010.38426479127,316209.3688881177,330117.00800568744,342828.90105586284,354433.4961443952,365012.7119427274,374642.46132203017,383393.10877513106,391329.8805622853,398513.2387727248,404999.2259912628,410839.78468611155,416083.05399270693,420773.6457787975,424952.90145317925,428659.13075738534,437827.55029612395,446579.512821298,454922.92644425936,462864.8830876962,470411.6234740732,477568.4945507594,484339.89373280073,490729.1900460059,496738.603866636,502369.0099432562,507619.59196791594,512487.1933466828,516964.9988523506,521039.5900309049,524683.4750561008,527832.3613137457,530294.6068535271,531268.5653360792,531296.5520239364,530777.4260525667,527081.486783523,524483.402197544,521805.6735136272,519088.43390365446,516345.9640466414,513586.45569579594,510815.8450025956
E2,0.0,188.40606977140882,320.9532305021878,412.84506077749415,475.1619939900167,515.9275296215613,540.9499129761718,554.4364569002871,559.4406367000771,558.1861779904323,552.3009596490632,542.9851099666491,531.1313388986854,517.4107891038368,502.3341252025585,486.29492963108123,469.600514604447,452.4938223318121,440.3385202924751,432.34493095112947,428.00935548422973,427.07295246057043,429.5023376770202,435.4935514059614,445.5052735117457,460.33453173293617,481.262412724928,510.32751909611295,550.854898548327,608.5469285054271,693.9573766324191,828.8988827178595,1066.474191756311,1573.4231174311476,3080.0531624087544,4839.770436022342,6036.256363513255,7254.443521263092,7023.573544955136,6819.89020202347,6607.065563327804,6381.189321755525,6144.532481069726,5900.520743403711
I2,0.0,0.0,5.632562020410673,13.875920893173465,22.88805919064719,31.600302784757847,39.4403287781869,46.14681427393232,51.64693511806138,55.97663123252868,59.22969715399984,61.526083573991485,62.99283188882674,63.753181894097985,63.92086022332602,63.59756587743782,62.872356583668335,61.822103578546546,60.51249196879786,59.15379390282264,57.882208122120545,56.78618715928911,55.92521665117745,55.34350763223298,55.080521281730306,55.179960726231,55.698868173874885,56.71889489378612,58.363041634468075,60.824194134819166,64.41942304973685,69.70521606751831,77.75661151860126,90.97819091498823,116.18226680591296,180.37936966069765,281.77743408227747,394.6099422228492,516.7814045931696,602.7296588486672,661.9610427994421,700.6143183942727,723.2380427091233,733.3570127387411
A2,0.0,0.0,32.04865193387109,82.96430700681583,143.66502127642568,207.99646463046955,271.8757758787888,332.6768933693453,388.79096043751724,439.3132576741515,483.8212102271322,522.2176721028086,554.6207983707712,581.2870312252114,602.5575323820223,618.8211576287407,630.4890644406295,637.9774763855792,641.6961518324567,642.9201828371556,642.6439283258305,641.6618939565072,640.6333304709984,640.1361148338792,640.7151195993274,642.9306785494891,647.4143658138007,654.9431564965788,666.551588375236,683.7210182586673,708.7327119718741,745.4012405769895,800.8136074218708,890.2760847260961,1055.7006149417439,1458.4151505881116,2114.225304125454,2898.2627251972026,3799.495863783506,4557.977726828139,5194.723534757683,5722.156015213817,6150.606362300337,6489.605852433224
IH2,0.0,0.0,0.0,0.22530248081642693,0.7742843468861549,1.6689979413043088,2.8881559887006336,4.38815039007665,6.116092091533931,8.017600458238038,10.041193923463164,12.140526261169278,14.275294820701925,16.41136173482184,18.520436178065825,20.57953670191189,22.57036744078356,24.478686536778323,26.29370972920421,28.007569986992294,29.621022590264467,31.14025047076503,32.57480849619874,33.9363741741385,35.238079622307986,36.49428248194979,37.720702659960054,38.93491928147086,40.15730508608433,41.41260532908686,42.73261567037577,44.160960092555406,45.762349697912384,47.642758020990165,50.00149383430583,53.30500201961711,59.0876130427134,68.77073985728188,82.70693444771757,101.15545443827358,122.54610345048481,145.7311374054185,169.8392081483882,194.20432715591886
IN2,0.0,0.0,0.0,1.1265124040821346,3.6878255781363753,7.56529513797803,12.449066786575065,17.973648207653955,23.79067207334721,29.603344573858774,35.178406880074306,40.345643802390555,44.99114603983878,49.0480385169015,52.48679050607917,55.30622308399595,57.5257209488111,59.17880011402083,60.30798774717581,60.96087415532809,61.21806894453514,61.172117547631714,60.91568593792645,60.53574436516236,60.111593781425924,59.71537190414135,59.414261562318224,59.2740992099771,59.36455235077498,59.76666210018166,60.584660876856695,61.966406462905105,64.14298303366431,67.51661056146759,72.89406292216742,82.291408601427,102.74406687952526,139.59335321511762,192.01321831272222,258.9153423623711,330.3055931367849,399.9885152594193,464.17262738153704,520.6959811374383
D2,0.0,0.0,0.0,0.0,0.00022530248081642693,0.0009995868277025818,0.0026685847690068906,0.0055567407577075244,0.009944891147784175,0.016060983239318104,0.024078583697556142,0.03411977762101931,0.04626030388218859,0.06053559870289051,0.07694696043771235,0.09546739661577817,0.11604693331769006,0.13861730075847362,0.16309598729525193,0.18938969702445613,0.21739726701144843,0.2470182896017129,0.2781585400724779,0.3107333485686767,0.34466972274281515,0.3799078023651231,0.4164020848470729,0.45412278750703294,0.4930577067885038,0.5332150118745881,0.574627617203675,0.6173602328740507,0.6615211929666062,0.7072835426645185,0.7549263006855087,0.8049277945198146,0.8582327965394316,0.917320409582145,0.9860911494394269,1.0687980838871445,1.169953538325418,1.292499641775903,1.4382307791813214,1.6080699873297095
R2,0.0,0.0,0.0,3.679817269831476,13.425456515641963,30.641210926884085,56.002780915513384,89.65769654600223,131.38144629621803,180.6972833258247,236.96682707756037,299.4575602577592,367.3922963450491,439.9847465790714,516.4644871196434,596.0939277213839,678.1793079890922,762.0772833415085,847.1982944586244,933.0076252027262,1019.1257967225131,1105.3028256453263,1191.3976834648618,1277.3628767426576,1363.2340773702972,1449.1249146160044,1535.2274221319672,1621.819312302434,1709.2804636376245,1798.1232936660122,1889.0463350156801,1983.0306660953686,2081.5245532067675,2186.8355366568385,2303.107723104459,2439.4558617266525,2623.913156668985,2887.7029993961114,3248.762272264208,3723.6135129804525,4298.732306263764,4961.069160697342,5697.795039644584,6496.524763724445
G2,0.0,0.0,5.632562020410673,15.227735778072024,27.57009508990738,41.77547288977336,57.1995715515443,73.37173595405457,89.94709222392738,106.67205276672942,123.35951018400746,139.8710239209591,156.1040322935523,171.98266195214197,187.4511039359535,202.46881604366357,217.00702256047916,231.04613513543777,244.57382838454026,257.73812839107654,270.6634531470519,283.4591621335294,296.2268765436471,309.06721952098525,322.0866750022185,335.40543955433446,349.1675375762738,363.555292657915,378.8119741731056,395.28025666572904,413.4732921730033,434.2197467227216,459.000394030009,490.88356019086024,537.9224019013822,630.003248789586,774.6923619297332,955.1514542500515,1172.0293027538557,1382.0050941117142,1585.8915961861694,1783.415522052866,1974.1866827823421,2157.8827830621494
H2,76551.67948949114,81108.32707815133,85263.21938858372,89071.64250165354,92558.68830940199,95747.65322042102,98660.16644362404,101316.3091084855,103734.72487629222,105932.72265019604,107926.37194844351,109730.59146484654,111359.23130312363,112825.14933698297,114140.28211554162,115315.71070370381,116361.72181929172,111388.14796741075,106310.01177016414,101157.85221213051,95960.10009602693,90743.29482979582,85532.28081830505,80350.38361617472,75219.56554487834,70160.55997483923,65192.982925058364,60335.42005252397,55605.48652113358,51019.85670881093,46594.260318499284,42343.44133235223,38281.0765657563,34419.651562818806,30770.29348140308,27342.563684088454,24521.409885989455,24472.991277781748,24420.048543544166,24362.95561296079,24302.05926126582,24237.681053573444,24170.119150272836,24099.649983412768
S3,852935.0494507559,848889.387018632,845124.6708917711,841608.0923471185,838313.6003829428,835219.1489097674,832305.6948539169,829556.5227540178,826956.7758654399,824493.121723972,822153.507332439,819926.9752934604,817803.5221506176,815773.9864825656,813829.9583507819,811963.7043645978,810168.1043990066,819424.0515037302,829095.0944892586,839192.804584096,849729.9739979466,860720.6627112929,872180.2216335912,884125.2812239903,896573.6880579025,909544.3605043782,923057.013708369,937131.661748909,951787.7109784205,967042.2268603016,982906.3075379995,999376.367160583,1016408.5159307609,1033817.9920909114,1050742.4320709438,1067781.7937816386,1083043.563025543,1077501.516444199,1073368.0300466204,1069258.557186007,1065208.0761516285,1061222.3570566368,1057301.00465745,1053441.8664220015
E3,0.0,322.9818338938436,532.7092934081747,664.5432243277747,742.7063789099192,783.9161588471281,799.7733080670316,798.3603905606296,785.324922434386,764.6201829265408,739.0155624692261,710.4501818174675,680.2790910726192,649.4453845383212,618.6009595640538,588.1915194923349,558.5165871372251,529.7719935628776,507.6033780850342,491.03197168504744,479.4032159995518,472.3393418433222,469.7170234618103,471.6714342911024,478.6329398592816,491.4109852242928,511.35569670430357,540.6614626724469,582.954868850858,644.5090571763058,737.0023120295184,884.6755327084024,1146.7572639567902,1709.9322147921878,3396.907300745962,5402.504271324617,6807.728071070209,8274.22336513289,8044.5549422019385,7840.181028866482,7620.080257833982,7380.706003685076,7125.481122186402,6858.993798126885
I3,0.0,0.0,9.655820606418294,23.264227631053544,37.54790608641746,50.74025666114849,61.99844502667933,71.02873134261976,77.8495085547566,82.64359266880238,85.66811054297962,87.20127190605125,87.51248784000266,86.84702115911634,85.41946622019525,83.41240376815655,80.97791985513322,78.24055437371342,75.30081218089819,72.40385822664487,69.70675672858596,67.30930790506915,65.27606618629142,63.65240600935965,62.47685307298016,61.791553056969065,61.65273573641673,62.14349893161861,63.39260011982363,65.60631489307325,69.12895369224645,74.57132484048276,83.12234526393537,97.45628027644983,125.18667197195984,196.6953454474153,311.00098923670635,439.8836564955116,581.6766257813512,682.5731467675993,753.1445682356702,800.1987460892865,828.8036213881892,842.9131585643077
A3,0.0,0.0,54.94054617235043,139.2483427069558,236.30143864219184,335.5068011587605,430.3313856994522,516.9656045958595,593.4121635460701,658.8637628768238,713.2782659917823,757.0894591767509,791.0111739601539,815.9057795618593,832.6970524513885,842.3135917780203,845.6531911784056,843.5615099442665,836.8204206776812,827.0823681913004,815.6435713862116,803.540074585452,791.6247036907637,780.6313851508194,771.2327697450162,764.0974816348241,759.9550636952744,759.6809549645188,764.4233513554982,775.8155104820013,796.3702471708922,830.2983800400498,885.4507199479588,978.8516703403985,1157.3267387593373,1602.270791041125,2337.2868335976536,3226.9429212710124,4263.905861916246,5142.737458231884,5885.8970077668255,6506.287133505742,7014.725687206721,7421.370659835197
IH3,0.0,0.0,0.0,0.3862328242567318,1.306421981515084,2.7732283343530817,4.728308514152056,7.0811737482444865,9.73201754225045,12.58445140386831,15.551989906989519,18.560756982412137,21.549990358127264,24.471337182157306,27.287554590585557,29.970984390029848,32.502014926614805,34.86764504874391,37.06020460448164,39.076249770330776,40.9222358730213,42.61072732207155,44.15794286915273,45.58224756667736,46.90332788657206,48.14188225779448,49.31973866938753,50.46038767753612,51.59001244613807,52.73924276966249,53.946136295226054,55.2615002941445,56.759208933025825,58.55870769861359,60.88320261104712,64.25444274662541,70.39542825902818,80.94360147811187,96.3636008481897,117.04090886886405,141.1983782435486,167.52947618826312,195.0350970235942,222.94570352459655
IN3,0.0,0.0,0.0,1.9311641212836588,6.2173736396421635,12.54657198555752,20.312627394024183,28.855916762138104,37.58330000186187,46.01792464198863,53.81003296513302,60.7276949431016,66.63865494968069,71.48964861383321,75.28657649232085,78.07713777881695,79.93649201292486,80.95594673096635,81.23438249927233,80.87200814967385,79.99904062379332,78.75238771701973,77.26292500447501,75.6495919144561,74.01782183510171,72.46073651990406,71.06220747645335,69.90142896622935,69.05917959971393,68.62665347543242,68.7189863982399,69.49831746036021,71.21816493421788,74.32169944277514,79.70280769644906,89.60837834980076,111.93508803067866,152.8841486174158,211.8354680961527,287.95333607811983,369.7993536736551,450.22099842895005,524.785242123485,590.914265484883
D3,0.0,0.0,0.0,0.0,0.0003862328242567318,0.0016926548057718156,0.004465883140124897,0.009194191654276953,0.01627536540252144,0.026007382944771888,0.0385918343486402,0.05414382425562972,0.07270458123804185,0.09425457159616912,0.11872590877832642,0.14601346336891197,0.17598444775894181,0.20848646268555662,0.24335410773430052,0.28041431233878217,0.319490562109113,0.36041279798213427,0.4030235253042058,0.4471814681733586,0.49276371574003597,0.539667043626608,0.5878089258844025,0.63712866455379,0.6875890522313262,0.7391790646774642,0.7919183074471267,0.8458644437423527,0.9011259440364972,0.9578851529695229,1.0164438606681365,1.0773270632791836,1.141581506025809,1.2119769342848372,1.2929205357629492,1.3892841366111388,1.5063250454800028,1.6475234237235514,1.8150528999118145,2.010087996935409
R3,0.0,0.0,0.0,6.308258176853958,22.673343743367848,51.01959531331714,91.99614535992025,145.3854188502584,210.40485259255888,285.92736311534986,370.6401474338528,463.15692433635957,562.095275843222,666.128064658386,774.0158069913441,884.6252433890307,996.9380760450529,1110.0528533329596,1223.1822205358433,1335.647171572629,1446.977369386206,1556.876197432243,1665.192314852515,1771.8975687113782,1877.0711314236744,1980.8899351378225,2083.625898192383,2185.6511928322034,2287.4541519977442,2389.670957656474,2493.14342791253,2599.024745103706,2708.983673700992,2825.6404486043175,2953.6572695745003,3103.248309974909,3305.895528257985,3597.334758305783,3998.9712589509954,4531.262590486007,5179.447297377203,5929.125104273213,6765.985482004292,7676.092531677554
G3,0.0,0.0,9.655820606418294,25.58162457659393,45.448717663410704,67.65256569888192,91.0884156630884,114.99832878543187,138.86600151979746,162.34396768698485,185.20294780167467,207.2964556950614,228.53597688646514,248.87350728717945,268.2892374264463,286.7828468672544,304.36733985858865,321.0646751424008,336.9026659992768,352.07790696843904,366.7577314447749,381.0899042361187,395.21089641455757,409.25349212233573,423.35451662820253,437.6636613497067,452.3548167628269,467.64223653476876,483.80577746656223,501.23371626856954,520.5018706420803,542.5351906764558,568.9833290616243,603.2666269374832,654.3865258993412,755.9400006480671,917.4525273447379,1120.9754320203526,1368.340478865115,1608.8393900388874,1843.2283667311822,2071.037240961359,2291.6898153216907,2504.7122216309745
H3,229655.03846847345,228652.57599896818,227712.7131880024,226830.14557082363,226000.27105418168,225218.824608604,224481.85408472776,223785.69775835055,223126.96348070342,222502.50931927245,221909.4255826856,221345.01813078753,220806.79287808866,220292.44140533224,219799.82760001378,219326.97525234157,218872.05653837806,218433.3813269784,217939.15252981798,217388.58830361906,216781.27687980476,216117.14838314004,215396.4494660162,214619.72049211257,213787.77500725182,212901.6812339161,211962.74531857204,210972.49604716795,209932.67072359065,208845.2018785266,207712.20444273902,206535.96298093643,205318.9185433852,204063.65465749695,202772.88195871803,201449.42096003113,200096.18249588908,198720.63585468513,197355.9756901554,196002.05742301774,194658.74213036118,193325.8961752423,192003.39086251496,190691.10211902106
S4,426467.52472537797,433088.152538011,439740.0583300051,446408.6623022252,453084.41901778954,459761.1086212409,466434.7211218604,473102.7254683442,479763.58204786456,486416.4135809051,493060.78121798637,499696.53155363473,506323.69195963786,512942.3990905987,519552.85028078535,526155.2707881654,532749.8920252427,546705.8999007612,560720.2533947692,574791.2714662147,588916.588807551,603093.074299691,617316.7149532257,631582.4509237631,645883.9360505423,660213.177338713,674559.9648190497,688910.9139305853,703247.7379273573,717543.8534867364,731756.9698240993,745810.5300867608,759537.5282759989,772456.4960380611,782570.6189968559,791186.2518749929,799541.2029676375,802277.6159840559,808060.2126779662,813819.6433456228,819639.5337904162,825538.4148459937,831520.6902670284,837586.4474125908
E4,0.0,484.47275084076546,807.4435009458124,1018.0539261310128,1150.3154328823994,1227.9173303856362,1267.4326903832778,1280.4925954798962,1275.278173856069,1257.5530072157912,1231.381776619174,1199.632691525475,1164.329896404682,1126.9012561130091,1088.352905226674,1049.3923848645056,1010.5156090454267,972.0683418743427,945.3560557258384,928.6394131132857,920.8113077380368,921.3159530479683,930.1168452547904,947.7187923276186,975.2595790309441,1014.7050634701579,1069.217011775806,1143.838497173341,1246.816836664153,1392.3320146878107,1606.690013607103,1944.3839731989774,2538.3902782651394,3807.4197263452024,7593.983479635846,12074.331298278063,15184.951192215818,18411.241509714433,17912.43282293898,17502.065687623035,17079.41983299197,16628.99367927651,16152.494101532991,15655.57995110128
I4,0.0,0.0,14.483730909627443,35.146855647932966,57.14721083339265,77.82155263940462,95.85402809597826,110.74005522560012,122.44387297560552,131.18288483194542,137.2946246920415,141.15713546540223,143.14347735984893,143.59768967877213,142.82392954464638,141.08343563184312,138.59590188512797,135.5431214800137,132.0735941461458,128.63816652952502,125.52748308617632,122.92933570462328,120.96983050161235,119.74371681362288,119.33809580618524,119.85317942236496,121.42389976317669,124.24732895196757,128.62400882792969,135.0289118467338,144.24693994459096,157.66105863365308,177.95144113573528,211.1304628606204,274.28524969328413,435.485478295454,691.9415159018859,979.8427701842847,1295.1004562580238,1519.7839815900286,1678.275181250247,1786.0931304913927,1854.5688934029172,1892.365107195376
A4,0.0,0.0,82.41081925852566,210.2979120257911,359.3267491492425,513.7423662753738,663.628429159229,803.0263423549056,928.6401699531432,1038.9440582359814,1133.5677606761697,1212.8749614139294,1277.675480773268,1329.030471083173,1368.1221291777456,1396.1680600345146,1414.366419238862,1423.8621475125713,1425.7275397080448,1422.8348777054707,1417.4307802788571,1411.3155866999682,1405.9883801959904,1402.7699102309691,1402.915148108144,1407.7285115716322,1418.6990460810457,1437.6826548114698,1467.1799942730763,1510.8074990359003,1574.1784396800535,1666.7363290563062,1806.109887028526,2030.523541965365,2445.037242973528,3456.066756577141,5113.135843480566,7109.070033422349,9424.636947448063,11389.481693440579,13058.918366642101,14464.776978563565,15632.59594482716,16585.271713810158
IH4,0.0,0.0,0.0,0.5793492363850977,1.969653540326732,4.202607836503011,7.202525500282682,10.84311985467718,14.981314878695253,19.476449255384978,24.200338058577245,29.041742668253587,33.907535701647916,38.72201496845238,43.42527433526224,47.97118392172979,52.32530312794978,56.46290469765397,60.367197642818795,64.02778221983739,67.4525720424592,70.66089382551743,73.67906655688584,76.5377461503408,79.27055462013135,81.91369444064553,84.50640362804072,87.09226296684166,89.72156489959914,92.45527194074253,95.37170714469175,98.57848472322617,102.23564539315538,106.60613573041442,112.18633067838293,120.14275021527735,134.33335134007118,158.40082373779217,193.33753667308525,239.94563824324678,294.28849523701865,353.51054426042924,415.45372775837643,478.47122820553056
IN4,0.0,0.0,0.0,2.8967461819254887,9.376163299733777,19.025519018399947,30.9777904330098,44.267390363228884,58.01113420913172,71.48635981429085,84.15108481360002,95.63373023621946,105.70887082656829,114.26849088062102,121.29388958810574,126.83074795564664,130.96832207920227,133.8228613659084,135.52490363720878,136.20990375093456,136.077769473761,135.34858450829927,134.2382075311506,132.9467371695829,131.65523272756255,130.52779921145327,129.71742829842484,129.3750522594834,129.66236294699638,130.7704630062712,132.94916829128707,136.5578469213405,142.16423324341693,150.76431056032314,164.36744750623944,188.0189545755067,239.4202136423729,332.3540314366953,465.2243982523962,635.9205535677199,819.1463511572206,999.2845441079278,1166.7866712705236,1316.1832819097735
D4,0.0,0.0,0.0,0.0,0.0005793492363850977,0.0025490027767118293,0.006751610613214841,0.013954136113497523,0.024797255968174704,0.039778570846869955,0.05925502010225493,0.08345535816083217,0.11249710082908576,0.14640463653073368,0.18512665149918606,0.2285519258344483,0.2765231097561781,0.3288484128841279,0.3853113175817819,0.44567851522460067,0.5097062974444381,0.5771588694868972,0.6478197633124146,0.7214988298693005,0.7980365760196413,0.8773071306397726,0.9592208250804182,1.043727228708459,1.1308194916753005,1.2205410565748998,1.3129963285156423,1.408368035660334,1.5069465203835604,1.6091821657767158,1.7157883015071302,1.8279746321855133,1.9481173824007907,2.082450733740862,2.240851557478654,2.4341890941517392,2.674134732394986,2.968423227632005,3.321933771892434,3.7373874996508105
R4,0.0,0.0,0.0,9.462387265280938,34.17367941158611,77.26252738754,139.97106343801238,222.2362643792556,323.1243561372163,441.15174947252444,574.5188183636417,721.2772118060017,879.4469134909,1047.0956832864492,1222.3906564593412,1403.6296073323665,1589.2575943339382,1777.8733021148903,1968.2283075069904,2159.2216563829656,2350.107636547917,2540.4366496663274,2730.0080953348647,2918.8351597403894,3107.1214595622555,3295.2499514297515,3483.7854573047507,3673.4938320372094,3865.3838072510716,4060.7832381369562,4261.473076571602,4469.928243311975,4689.7789720007395,4926.7915476924845,5191.317067091083,5506.16390787563,5941.79304007951,6577.812210755108,7461.27043202381,8636.731130864926,10071.407795306277,11733.960670272709,13593.665855748088,15620.863128465067
G4,0.0,0.0,14.483730909627443,38.622951066243544,69.05855160720714,103.44822401323333,140.15787210326408,178.0488659759207,216.33029698007013,254.45583835055535,292.0514705703184,328.8646912697691,364.7287456759123,399.5373925611992,433.2270779499788,465.7643271278907,497.13681793281785,527.3470539801343,556.4078758014697,584.6701107799239,612.4325873036612,639.9610358627905,667.5045712288892,695.3112168612867,723.6440878891185,752.8003144987827,783.135797900962,815.1009630329153,849.2970018573496,886.5716669948569,928.1966339359301,976.2300182116941,1034.359054785853,1110.2464223833147,1224.0725203025272,1451.1012088310854,1812.073761228426,2266.0409793272775,2816.460930245245,3351.9685650791753,3875.2079203210005,4385.811913062205,4882.950027291664,5365.842775500822
H4,114827.51923423672,116741.311221474,118646.74935479873,120544.35529803208,122434.60651112229,124317.94210324046,126194.7656416455,128065.44775901824,129930.32857367116,131789.71993601034,133643.90751367094,135493.15272686,137337.69454461656,139177.75115193398,141013.5214969784,142845.1867269785,144672.91152074802,139127.88282996474,133593.93269968234,128075.12781559277,122576.02357308194,117101.71319355638,111657.87868265511,106250.84284735854,100887.62117274279,95575.97181699096,90324.44129265953,85142.40254465537,80040.08110330462,75028.5637979861,70119.78321317211,65326.46976096257,60662.06211918111,56140.56613219398,51776.35250034996,47583.885206559346,44258.1632673493,45925.63145481504,47581.636753604085,49226.26988435538,50859.62036288053,52481.77654730021,54092.82568209389,55692.853939281515
E_Om,0.0,0.0,0.14912422856111995,0.2302004258890108,0.2711170526990309,0.2887801655069909,0.2933894002664623,0.2910376847682838,0.28530548169713044,0.27824309378160017,0.27097690176854194,0.2640830606788218,0.257816916822864,0.2522528174790665,0.24736833642783618,0.24309414257604647,0.2393427645141016,0.2360245158921351,0.23618169279382553,0.23945392662483728,0.2457148676394268,0.25505463491085334,0.2677881140892665,0.2844940723736012,0.30609740740080316,0.3340200487507339,0.3704523054176676,0.41885337929251004,0.48492408974275303,0.5786443970165609,0.7189946643521791,0.9465035291743259,1.3637120977605008,2.3085098388327787,5.381436701284233,9.789964516728462,14.216052806370172,20.263788226016267,21.494041139990976,23.27889721272983,25.103538298622624,26.844087709440117,28.464680550327724,29.95555339845542
I_Om,0.0,1.0,0.76,0.5820581974834225,0.44924627044585647,0.3495324437603596,0.27427798947724435,0.2172224012722507,0.17378984767247949,0.14060973777985805,0.11518171808100885,0.09563919403008035,0.08058077842370467,0.06894905078559568,0.05994259422981367,0.052951661471859375,0.0475107718626626,0.04326354507566617,0.039936450811872234,0.037412558110483655,0.0355922259112259,0.034395949673621515,0.03376600013436119,0.03366791683153755,0.03409281255889751,0.03506158365258541,0.036632621139760894,0.03891578337833882,0.04209797854560641,0.046491687770197215,0.05263275623261644,0.06149586060610239,0.07503339374792237,0.09779472907849748,0.14333888760988348,0.2698202480958491,0.4977428249690754,0.8032857118246612,1.2163005744429232,1.566971342409467,1.8868409384066351,2.1844910510034796,2.462740363031906,2.722658861466762
A_Om,0.0,0.0,0.0,0.025366648228801567,0.06161210157869461,0.10065594959050381,0.13822136243499678,0.17225757496342425,0.20198572253364883,0.22732542103995618,0.2485542810337753,0.2661096399255598,0.2804766265190556,0.29212810272797984,0.30149528337274095,0.3089560565156923,0.314833127711567,0.31939727030472,0.3228729115005249,0.32597621698556956,0.3292798223134011,0.3332691205686586,0.33838910176468134,0.3450872256375017,0.3538580254161435,0.36529658107679747,0.38017152178316543,0.39953580353448914,0.42490990676898094,0.4586094637449276,0.5043818589979332,0.5687728417287644,0.6644706689413012,0.8201494019183057,1.1186671507612538,1.9056267474906057,3.352136683159597,5.385454681252124,8.214052489651635,10.927142597609201,13.63232785883668,16.337283500963668,19.027731546960297,21.68493264614058
IH_Om,0.0,0.0,0.04,0.0693250061277143,0.09074423510746468,0.10627534850815452,0.11740051254803663,0.1252165113373179,0.13054023282829275,0.13398357797576285,0.13600717935418571,0.13695927596761082,0.13710408416836736,0.13664266404665712,0.13572837541450725,0.13447839988705262,0.13298237995009282,0.13130892973539143,0.12951056416736959,0.12762744562793987,0.12569397990272144,0.12373966248470483,0.12179001599840576,0.11986756798118367,0.11799286212780612,0.11618553453614097,0.11446552944037965,0.11285459071756146,0.1113782722156778,0.11006891735406152,0.10897049957275103,0.10814724433954023,0.10770063813954459,0.10780753573842977,0.10882201389394386,0.11163099444569473,0.11942373849487169,0.13612395681644882,0.16459707480321117,0.20882557661068807,0.26589227492624135,0.33422009830666144,0.41261762640494104,0.5000382054266579
IN_Om,0.0,0.0,0.4,0.6280590680385056,0.7410356305065202,0.77864276036576,0.7684491181116758,0.7294237481392594,0.6744571231509329,0.6121577738109509,0.5481337289135619,0.48590615995967346,0.4275597389543747,0.37420420373257085,0.32630045639812433,0.2838894924934513,0.24675173074866213,0.21451661982227482,0.18673686039434934,0.1629375828152506,0.14267176077361393,0.12552703664328896,0.11113013406009961,0.09914944190058539,0.08929640902114466,0.08132643014054443,0.07503998882601125,0.07028503140370415,0.06696201552944181,0.06503411186623237,0.06454737471890092,0.06567133728071457,0.06878555525010563,0.07468407261716623,0.08514478749669532,0.10498868791368153,0.15260441009038242,0.2478850520013141,0.4008757504942806,0.6269450499365284,0.8965978222004689,1.1937541582740534,1.50753283539727,1.8298400684311722
D_Om,0.0,0.0,0.0,4e-05,0.00010932500612771432,0.000200069241235179,0.0003063445897433335,0.00042374510229137015,0.0005489616136286882,0.0006795018464569808,0.0008134854244327438,0.0009494926037869293,0.0010864518797545403,0.0012235559639229075,0.0013601986279695648,0.001495927003384072,0.0016304054032711245,0.0017633877832212174,0.0018946967129566089,0.002024207277123979,0.0021518347227519182,0.0022775287026546402,0.002401268365139345,0.00252305838113775,0.002642925949118935,0.002760918811246741,0.0028771043457828816,0.002991569875223261,0.003104424465940823,0.0032158027381565,0.003325871655510562,0.003434842155083313,0.0035429893994228527,0.0036506900375623975,0.0037584975733008274,0.0038673195871947712,0.003978950581640466,0.004098374320135338,0.004234498276951786,0.004399095351754998,0.004607920928365685,0.004873813203291927,0.005208033301598588,0.0056206509280035295
R_Om,0.0,0.0,0.0,0.07697592583378007,0.20092076860097188,0.35103038708284406,0.5131646757005182,0.6779647897190715,0.8394661125168669,0.9940830215781883,1.1398708471538612,1.2759934107907953,1.4023422622396209,1.5192672699997005,1.6273884851559197,1.7274669422584035,1.8203178800147062,1.906754221564002,1.987551405509904,2.063427077122677,2.1350919957029224,2.2032386916633624,2.268537904250501,2.331641259346533,2.3931893857878213,2.4538254440361,2.5142149906683464,2.575074473441973,2.6372129351035642,2.7015957623951716,2.7694480670540003,2.8424351157867864,2.9230076044923683,3.015147776678234,3.126285550756572,3.2737112899958865,3.5153356031505174,3.932289375231797,4.601229519779522,5.624730853315994,7.003812624715318,8.746173811910714,10.857301045657001,13.338944910059459
G_Om,0.0,0.0,0.0,0.004458197483422426,0.01134023784187785,0.019445516063386507,0.028078848282757612,0.03684997755230261,0.0455508002578716,0.05408025380664521,0.06239857117496195,0.07049965946347558,0.07839465042431917,0.08610230960789933,0.09364362524066026,0.10103891509786123,0.10830642424191071,0.11546178270195329,0.12251793925631924,0.12957879474977999,0.13673747649703832,0.14408333447812816,0.151708412860537,0.15971416958996004,0.16821936535688903,0.17737041146471233,0.18735622902850832,0.19843122034062888,0.21095320351869776,0.22545042759423412,0.24274950112150068,0.26424446699081455,0.2925410066780991,0.33331035650817553,0.402325250018401,0.5632079435307387,0.8558873799469686,1.2808885447951326,1.8866919782513132,2.529274884084159,3.225217602259599,3.975709540074036,4.778236704343296,5.629212889905811
beta,1.262169430021666,1.262169430021666,1.2388350665801797,1.2197360492624283,1.203651734903159,1.1897908207341117,1.1776243867098573,1.1667891553507141,1.1570292253269374,1.1481598431374591,1.1400443107990346,1.1325789702768017,1.1256832765569722,1.1192931396207728,1.1133563997554847,1.1078297136350335,1.1026763840921918,1.0978648277127294,1.1548360701683844,1.2191597922959547,1.2924439355442148,1.3767919544361065,1.4750097983591275,1.5909245918885868,1.7298918877021607,1.8996348433016887,2.1116970520459377,2.3840982811529394,2.7465215833391476,3.251316201603604,3.999437074986813,5.210770857142165,7.455205061377248,12.646282770354254,29.350235439970987,32.97780273548449,22.200021879999905,17.43211649116289,6.510758091059706,4.954317695702324,4.010676114467599,3.3915076241032067,2.95691817866425,2.6361554767679323
