series,2021-11-01,2021-11-02,2021-11-03,2021-11-04,2021-11-05,2021-11-06,2021-11-07,2021-11-08,2021-11-09,2021-11-10,2021-11-11,2021-11-12,2021-11-13,2021-11-14,2021-11-15,2021-11-16,2021-11-17,2021-11-18,2021-11-19,2021-11-20,2021-11-21,2021-11-22,2021-11-23,2021-11-24,2021-11-25,2021-11-26,2021-11-27,2021-11-28,2021-11-29,2021-11-30,2021-12-01,2021-12-02,2021-12-03,2021-12-04,2021-12-05,2021-12-06,2021-12-07,2021-12-08,2021-12-09,2021-12-10,2021-12-11,2021-12-12,2021-12-13,2021-12-14,2021-12-15,2021-12-16,2021-12-17,2021-12-18,2021-12-19,2021-12-20,2021-12-21,2021-12-22,2021-12-23,2021-12-24,2021-12-25,2021-12-26,2021-12-27,2021-12-28,2021-12-29,2021-12-30,2021-12-31,2022-01-01,2022-01-02,2022-01-03,2022-01-04,2022-01-05,2022-01-06,2022-01-07,2022-01-08,2022-01-09
S,10300860.860149896,10300519.418059155,10300227.565085132,10299966.25905485,10299724.077495726,10299494.15138343,10299272.348796368,10299056.187791958,10298844.182956377,10298635.45136385,10298429.47436875,10298225.95331679,10298024.722009836,10297825.693541346,10297628.8279863,10297434.112765437,10297241.550723122,10297051.152905423,10296862.934204843,10296676.910754466,10296493.098389858,10296311.511762317,10296132.163848875,10295955.065703204,10295780.226352008,10295607.65277849,10295437.349957064,10295269.320917472,10295103.566824907,10294940.08706807,10294778.879350208,10294619.191302918,10294461.906060722,10294306.93506668,10294154.225686077,10294003.74370472,10293855.464097582,10293709.36616655,10293565.430988364,10293423.640084911,10293283.974740352,10293146.415660279,10293010.942811301,10305862.18183806,10318710.98761431,10331557.051283762,10344399.854763772,10357238.688734923,10370072.648191918,10382900.607570434,10395721.174215622,10408532.615430836,10421332.749726657,10434118.785934616,10446887.082368283,10459632.77801613,10472349.210287748,10485026.960608734,10497652.217535585,10510203.811467202,10522647.471084027,10534923.732743392,10546919.661705455,10558393.220680192,10566137.247312782,10561550.634954378,10557487.70703555,10552922.770463564,10547954.898636859,10542650.684295572
E,439.5372333643061,692.1608475961217,844.1470087167986,934.8739718047887,988.1430211333518,1018.3924028869654,1034.4056850944332,1041.5415374365605,1043.079259987332,1041.0330077308988,1036.6456497726206,1030.6889139521818,1023.6461268283242,1015.8236562690445,1007.4189800271738,998.5623252437551,989.3421800794587,979.8209499476785,970.0445833977296,960.0485034517312,949.8612726257918,939.5068659939453,929.0060881910323,918.3774631656604,907.6377986439795,896.8025494774047,885.8860562975765,874.9017065620557,863.8620470306528,852.7788656060869,841.663253631379,830.5256555189346,819.3748339926708,808.2205071492325,797.0716047732305,785.9364271314045,774.8227348906487,763.7378040595595,752.6884630782956,741.6811206630902,730.7217887055688,719.8161023627556,708.9693383944093,698.1864322711879,691.9151111309486,689.5398835255533,690.7741883220722,695.5754739276214,704.0992909069878,716.6824432640464,733.850380791047,756.3483596608132,785.2003793494181,821.8056661704919,868.091311623344,926.7548869945699,1001.6591393870558,1098.4968316062414,1225.9614948203262,1397.9248687382672,1637.7678050015472,1987.7437085179222,2531.4671832665945,3455.6057040464375,5247.667994488718,8466.991043631884,10495.861214474498,12504.224048730124,14402.805254134291,16141.660121889878
I,1642.0967444139112,1419.4277773943131,1283.653804359935,1200.491859578649,1149.1254420335667,1116.8950371261276,1096.0951647000015,1082.0348912341374,1071.86054924063,1063.8396752467863,1056.9247189749667,1050.4868078459983,1044.1530618107452,1037.7070625002875,1031.0278952346962,1024.0527815437822,1016.7541569994448,1009.1256045228819,1001.1732221322361,992.9103289242859,984.354223414334,975.524204600239,966.4403703609094,957.1228945334498,947.591598741525,937.865705605414,927.9637033982051,917.9032789740888,907.7012922982898,897.3737760948699,886.9359504219152,876.4022458752247,865.7863315304397,855.1009498228593,844.3582607421533,833.5698059647196,822.7465084307041,811.8986883283167,801.0360861112299,790.1678880115771,779.3027519098517,768.4488325979054,757.6138060366594,746.8048924754228,736.0288784193019,726.0990206932305,717.5669912087048,710.8307981781799,706.2074053242837,703.9836370054977,704.4546463439079,707.9566396212695,714.8992313782887,725.8025425093189,741.344986222661,762.4299709383973,790.2843753942899,826.6105616481459,873.8311227009564,935.5011573818723,1017.040029783241,1127.1148363924406,1280.4694538466886,1504.316453383158,1854.7549531578359,2466.083099037743,3549.437267454635,4801.675882850942,6187.964589869956,7663.67338445518
A,185.09212621142748,157.07094548514465,139.82513319794396,129.13959603967595,122.4483208797747,118.18570263072748,115.39480395145527,113.48987206866886,112.1119951833671,111.04117018101029,110.14262374040229,109.3339783761715,108.56512914623487,107.80588565241398,107.038366838507,106.25231017278419,105.44217134255763,104.60532622553731,103.7409529454664,102.84933455566372,101.93142259860036,100.98856297547844,100.02232317085111,99.03438303795446,98.02646563995701,97.0002934773679,95.95756090758573,94.8999169657354,93.82895491789641,92.74620620604384,91.65313727925643,90.55114833389312,89.44157332162843,88.32565877466415,87.20460084583095,86.07953924791704,84.95155565560393,83.82167426761256,82.69086338105924,81.5600374101599,80.43005907116381,79.30174159904382,78.17585093208585,77.05310783492152,75.93418994715391,74.9106831621993,74.04325726736089,73.37458227449704,72.93792318152377,72.76307607144804,72.88077210397411,73.32635202903415,74.14334364727716,75.38753020214104,77.1321800863545,79.4753550741818,82.55072316443398,86.54428817878991,91.72138253779607,98.47222647975606,107.39294706095643,119.43904580212602,136.23983996758906,160.81035219648928,199.38363431789875,266.9253018016089,386.8573280204972,524.3334000687657,675.4249324406134,835.1616351647717
IH,0.0,138.9531562212379,240.49946842981163,316.9896501241151,376.2233039794064,423.19649335557875,461.1665461191064,492.30356437191966,518.0907714756021,539.5717502687197,557.5040564904186,572.4553901430618,584.8643892717128,595.0795351194826,603.3844371506325,610.0145816600207,615.1686806843256,619.0165649908852,621.7048322147955,623.36100992496,624.0967145101738,624.010113717234,623.187892727061,621.7068558758335,619.6352532060066,617.033893552789,613.957088034257,610.4534560344165,606.5666178278858,602.3357925116718,597.7963160208792,592.980091168628,587.9159795221784,582.6301432871593,577.1463275422254,571.4861338914806,565.6692545206588,559.7136749465976,553.635851031091,547.450864292642,541.1725586267921,534.8136609491156,528.3858878575301,521.9000400967327,515.3660863581216,508.79323774255573,502.25829197053827,495.8744683733657,489.77353888673554,484.09649141085083,478.9897481444521,474.60514431363544,471.1026788596579,468.6556354903976,467.4581587538376,467.73586153226313,469.7606596852077,473.87195761937744,480.50786661621424,490.252962640559,503.9145499320886,522.6506564583584,548.1979967100843,583.3088698605628,632.6705660807146,705.0912041661932,819.5663218107677,1010.4197934785752,1281.738033381103,1634.1138327153708
IN,163.53707802689524,325.43878527352155,463.54578308514107,586.7499261043948,700.4398960231813,807.877363972324,911.0306181992288,1011.080872187779,1108.7303553229667,1204.390076798204,1298.2943989779726,1390.571014647849,1481.2837099913902,1570.4584980556142,1658.0995785642983,1744.1990673021674,1828.7429067628977,1911.714434862701,1993.0965170591567,2072.872797459358,2151.028410183556,2227.5503607769238,2302.4277067241756,2375.6516164910554,2447.2153559792378,2517.114232474884,2585.345514579814,2651.908339464412,2716.8036143683134,2780.0339165495016,2841.603394198847,2901.517669797041,2959.7837467488353,3016.409919733695,3071.405669508573,3124.78159304113,3176.5493307695683,3226.721494547729,3275.3115979026243,3322.333989281714,3367.803788508552,3411.73682645027,3454.149587804345,3495.0591568733257,3534.4831661842804,3572.439747809794,3609.027845077395,3644.4003531098283,3678.7482758772476,3712.2922738552625,3745.2793658684386,3777.983494971739,3810.70934770897,3843.799357436056,3877.644332225311,3912.698735513751,3949.502456913473,3988.7121724894873,4031.1475304710834,4077.861249620723,4130.249575241559,4190.23450684258,4260.58198357754,4345.498633838081,4451.859130692726,4592.056334315166,4791.73398286792,5097.306534139703,5524.5343093912425,6085.550859150917
D,3956.0,3956.0,3956.2967958230643,3956.8104886359533,3957.4875600078444,3958.2911510035233,3959.1950739872036,3960.1800987851075,3961.2316304347564,3962.3382420521075,3963.49073578509,3964.68153187643,3965.90426314289,3967.153499306467,3968.424554424735,3969.7133483285093,3971.016303833577,3972.3302681930204,3973.6524514085227,3974.980376605748,3976.3118393017958,3977.644873419853,3978.9777225636763,3980.3088154915044,3981.6367450111516,3982.960249708533,3984.2781980536847,3985.589574522018,3986.8934674371067,3988.189058292882,3989.4756123529774,3990.7524703565164,3992.019041185169,3993.274795367226,3994.519259311921,3995.7520101465875,3996.972671138325,3998.180907615589,3999.3764233228503,4000.558957153338,4001.7282802135214,4002.8841931796264,4004.0265239118244,4005.155125296254,4006.2698732888157,4007.3706651379507,4008.4574177664754,4009.5302121326486,4010.5893710246064,4011.635498687641,4012.6695005089587,4013.6925946250326,4014.7063234835027,4015.7125712804022,4016.713592335638,4017.712055650531,4018.711112122332,4019.714493444685,4020.7266562592145,4021.7529929876446,4022.800144671806,4023.876476708214,4024.9928279734677,4026.163746864843,4027.4096605298423,4028.761007893909,4030.267041509602,4032.017587288138,4034.17578493115,4036.9135024822663
R,0.0,38.65376078699116,91.59025316781295,155.80878477382706,229.17829212873679,310.13379750709225,397.4866434952059,490.3047038698297,587.8358138913751,689.4580457843521,794.6467794217592,902.9523782819263,1013.9846418851469,1127.4016536646698,1242.9015333722791,1360.2161522239137,1479.1062090889498,1599.3572777483198,1720.7765679127788,1843.1902265250926,1966.4410594216683,2090.386588113433,2214.8973793006735,2339.8556001148095,2465.153762683343,2590.6936291271145,2716.3852535782153,2842.146141920223,2967.9005131264294,3093.5786485819576,3219.116317803475,3344.4542706369816,3469.537787403217,3594.3162796303286,3718.7429306020626,3842.774379366927,3966.370438813183,4089.493843467819,4212.110023342543,4334.186900668944,4455.6947067884485,4576.6058168182235,4696.894600017831,4816.537284043375,4935.511831503108,5053.797827425979,5171.394566291356,5288.324562429128,5404.635277875914,5520.400061543236,5635.7189636081175,5750.719900550115,5865.5605579526855,5980.431408617017,6095.560287643014,6211.219115743702,6327.733631561151,6445.497454543444,6564.992592573284,6686.819914226503,6811.745712490757,6940.775603079192,7075.27776587474,7217.202226322546,7369.50592039907,7537.077370401928,7729.080136520222,7962.115918969953,8250.793810518602,8609.632025019608
G,671463.0,671542.8212672286,671668.5197332226,671821.8193375523,671991.5952278841,672171.0449358103,672355.9880213189,672543.8391664441,672732.9862035518,672922.4124956423,673111.4671822449,673299.7251116096,673486.9012800545,673672.7984574373,673857.2750509297,674040.2253302506,674221.5672147537,674401.2346935066,674579.1730885848,674755.3360664566,674929.6837265167,675102.1813551976,675272.7985928763,675441.5088581133,675608.2889334733,675773.1186538539,675935.9806607995,676096.8602001562,676255.7449489718,676412.624862823,676567.492038005,676720.3405850332,676871.16651116,677019.9674149737,677166.7426598987,677311.4932310344,677454.2216208334,677594.9317311078,677733.6287850154,677870.3192457788,678005.010740462,678137.7119879072,678268.4327303168,678397.1836681695,678523.9763982396,678649.6302377614,678774.8527288944,678900.2993734452,679026.617945724,679154.4844684866,679284.6361290953,679417.9055381566,679555.2606470112,679697.8553683462,679847.0977185045,680004.7456793687,680173.0471197813,680354.9513949322,680554.4416826472,680777.079931837,681030.9472405493,681328.3707389424,681689.350901021,682149.0728612499,682776.6211220147,683729.613218062,685267.2439428638,687173.3235174691,689444.1277486363,692059.7199664585
H,283063.5812739897,283063.5812739897,283063.5812739897,283063.58127398964,283063.58127398964,283063.5812739897,283063.5812739897,283063.5812739897,283063.5812739897,283063.5812739897,283063.5812739897,283063.5812739897,283063.5812739897,283063.5812739897,283063.5812739897,283063.58127398975,283063.58127398975,283063.5812739897,283063.5812739897,283063.5812739897,283063.5812739897,283063.5812739897,283063.5812739897,283063.5812739897,283063.5812739897,283063.58127398964,283063.5812739897,283063.58127398964,283063.5812739897,283063.58127398964,283063.58127398964,283063.5812739897,283063.58127398964,283063.58127398964,283063.58127398964,283063.58127398964,283063.5812739897,283063.58127398964,283063.58127398964,283063.58127398964,283063.58127398964,283063.58127398964,283063.58127398964,273630.4993234825,264312.91166564275,255116.23523119546,246046.26491134404,237109.19730523665,228311.65404047462,219660.70392392034,211163.88293142436,202829.21073672152,194665.20210342304,186680.87101369275,178885.72488144386,171289.74560375573,163903.35356255772,156737.35004140757,149802.83294149002,143111.0802791067,136673.39588577196,130500.9122276209,124604.34657736469,118993.7091962983,114741.81550608767,114741.81550608766,114741.81550608766,114741.81550608765,114741.81550608765,114741.81550608767
S0,3605301.3010524632,3597001.600139091,3583891.503464966,3570845.1527349893,3557856.110327073,3544920.4396318267,3532035.712056918,3519200.4101527394,3506413.56748379,3493674.5507572535,3480982.9277598443,3468338.3872010414,3455740.690024643,3443189.6398320748,3430685.0649298974,3418226.8074558764,3405814.716819513,3393448.645773866,3381128.4480923805,3368853.9772242354,3356625.0855453806,3344441.6239711004,3332303.441786788,3320210.3866091566,3308162.304424154,3296159.0396686797,3284200.4353360143,3272286.3330927314,3260416.573399687,3248590.9956326587,3236809.43820004,3225071.4426882453,3213377.199258977,3201726.5113647524,3190119.1969560827,3178555.0814534673,3167033.9940767796,3155555.765940972,3144120.2290811576,3132727.21596632,3121376.559269334,3110068.0917707304,3098801.6463315305,3091474.107025453,3084107.4929193533,3076699.446037823,3069247.3711108514,3061748.4406888965,3054199.589435635,3046597.4992569103,3038938.5753757707,3031218.911848528,3023434.242940086,3015579.87364377,3007650.5774053875,2999640.4398170067,2991542.609659247,2983348.884498982,2975048.987088187,2966629.231593631,2958069.9021418556,2949339.6746164034,2940382.48133946,2931082.2710260213,2920777.2084014523,2908101.462692231,2895731.722745393,2883188.838109832,2870521.406797764,2857763.412404249
E0,439.5372333643061,538.9151848226962,591.4873507057815,616.8267270380867,626.6668839247528,627.8835675502285,624.463880950758,618.6835823087362,611.8110388319178,604.5274607453996,597.1768863422043,589.9140350986526,582.7909912999542,575.8073663817732,568.9387654912614,562.1524624633431,555.4156165457689,548.6992116522657,541.9796029873105,535.2387774775575,528.4639685967393,521.6469888938241,514.7834798035185,507.87218274764354,500.91428069281295,493.91282865949375,486.8722752159408,479.79806876325097,472.6963388636136,465.57364187647,458.4367605161666,451.29254792280415,444.1472299454365,437.00771546041574,429.88057204998756,422.77204881346967,415.68807776099686,408.6342688724817,401.6159054176992,394.637942037735,387.7050061869613,380.8214027142549,373.9911210614657,367.2178444960788,362.80516527297374,360.41991242660094,359.90001275546615,361.20907820299703,364.4114758439197,369.66247049756447,377.210730246628,387.41272271307247,400.76078105821705,417.92945343371537,439.8490437056117,467.8225997844735,503.71623327887187,550.2795827888351,611.7098368422427,694.7000961712592,810.5231482206063,979.5332733585374,1241.9694764638684,1687.5618412705724,2550.3221643118736,4095.9393894204622,5062.6476605931975,6013.67344074677,6906.302327142891,7717.0496011227615
I0,1642.0967444139112,1419.4277773943131,1255.8239367825665,1131.90478058654,1035.414447449306,958.4855763823092,895.9487069461134,844.3107134825427,801.1352225911281,764.6650038642017,733.5902356723317,706.9048566797493,683.8162293764623,663.6871864726276,645.9978625424861,630.3197262637524,616.2972427940042,603.6344062978501,592.0844686940031,581.4418413389625,571.535535794658,562.223742921719,553.3892893417584,544.9357946269727,536.7844040027375,528.8710033431665,521.1438437704026,513.5615169277604,506.09123172749935,498.7073506667248,491.39014957494555,484.1247694273009,476.90033292681613,469.709097113378,462.5460000281049,455.408104866751,448.2941506680516,441.20418602276567,434.13926935977713,427.10122359253273,420.0924356135839,413.11569298605684,406.17405155010874,399.2707287248297,392.4090181416531,386.00994590931157,380.3564761843799,375.65001539145965,372.0482607484363,369.69154935975155,368.7225634190305,369.30286053086706,371.6289733925983,375.9506406266771,382.5940965139112,391.9944257446573,404.743203537585,421.6619225983905,443.9200912026771,473.2340047009469,512.2192870774996,565.056910556729,638.8540692834061,746.7162657469578,915.6300908219707,1210.1081795521422,1731.029211902639,2331.5486036701172,2994.15557384302,3696.807935618568
A0,185.09212621142748,157.07094548514465,136.68823558237983,121.45820191541412,109.79286231988425,100.66201379503725,93.3822384244326,87.48841667460408,82.65503698985661,78.64765320022623,75.29265251571387,72.45818704285503,70.04194550796213,67.96314502395725,66.1571513119919,64.571757580588,63.16452849080289,61.90084352201365,60.75241229962761,59.69611851596236,58.713100397691214,57.78800719519351,56.90839071092373,56.06420316581318,55.24738057193635,54.45149595242701,53.67147026001828,52.90333131692883,52.14401290748655,51.39118752906409,50.6431273860358,49.898589081915745,49.15671818121828,48.416958576852565,47.679006805885976,46.94275453456176,46.20824301324087,45.47562666887639,44.74514387784434,44.017093488406246,43.29181599940234,42.569678532719536,41.851062905039164,41.13635623258366,40.425943603902205,39.76728700552755,39.191536115414785,38.72029308689228,38.37009479297656,38.155488311984925,38.091289538549255,38.194441360154045,38.48579488662706,38.99210893756541,39.748598393487256,40.80247823613574,42.218193501137634,44.08549903338769,46.53248309056113,49.747531626636494,54.01835941751677,59.80588927426005,67.89550619345545,79.73919995941256,98.33531342387765,130.87268015070003,188.54094978036434,254.46383549620876,326.66939926738564,402.70573792603045
IH0,0.0,138.9531562212379,240.49946842981163,314.63470486875826,368.37919564967524,406.77824149365256,433.5373382195148,451.4294750450907,462.5615718487935,468.5528905942567,470.6576571690433,469.85169121848094,466.8953064188138,462.3801627894585,456.7649553378731,450.40310476608795,443.56455120440035,436.45308449046587,429.2202194395616,421.97634817215265,414.79971716813236,407.74364990992035,400.8423458356873,394.11552005621047,387.57209800942894,381.2131400166338,375.03413944007315,369.0268127919263,363.1804793459295,357.4831106064555,351.9221157080026,346.4849169325695,341.1593596385451,335.93399266709577,330.7982395793736,325.74250865472936,320.7582411573129,315.8379151335881,310.9750177071816,306.1639957136642,301.40019216908007,296.6797742599136,291.99965713484534,287.35742667520367,282.75126355489283,278.17987022257785,273.6777494402833,269.2987384946705,265.1065246590094,261.16963054788897,257.5592990932712,254.34932853827183,251.61732826153968,249.44716916265858,247.93264934664114,247.18264081920603,247.32828639931955,248.53326636897106,251.00890679563273,255.0372627004563,261.00793713080753,269.4798128827953,281.2908947443266,297.7686325844293,321.17210232133465,355.74214531469056,410.61202535142326,502.2310509206014,632.4249389256142,801.2937317389212
IN0,163.53707802689524,325.43878527352155,463.54578308514107,583.9783383517483,690.8654092485885,787.074098186417,874.6593228933667,955.1406232671561,1029.6744620113386,1099.1630977914165,1164.3247634001834,1225.7400636373873,1283.8836031999958,1339.146301648237,1391.8517135989866,1442.2683845152235,1490.6194967978247,1537.0905931650996,1581.8358815674696,1624.983454134774,1666.639647419509,1706.8927058010352,1745.8158683854524,1783.4699725437192,1819.905648707351,1855.1651678246933,1889.2839929829152,1922.2920789466666,1954.2149570579838,1985.07463766781,2014.8903577743106,2043.6791976675634,2071.456587018458,2098.236717926776,2124.0328694467757,2148.8576837196442,2172.723383987635,2195.641945680937,2217.6252293146117,2238.685082207929,2258.833414751653,2278.0822559442336,2296.4437921086733,2313.9303920371003,2330.5546212577883,2346.329247657813,2361.308841605603,2375.5756082805456,2389.23098895741,2402.391115627841,2415.1849351924816,2427.7543148602617,2440.2557927551165,2452.8639143904506,2465.7763513948153,2479.2212884842693,2493.4679587877567,2508.841818317899,2525.7468813175574,2544.6995936887006,2566.3821634214546,2591.7304674751035,2622.0874087518805,2659.4902694605044,2707.261141273903,2771.3765004334887,2864.177897799222,3007.9300172055755,3210.050584196638,3476.1392413074273
D0,3956.0,3956.0,3956.2967958230643,3956.8104886359533,3957.482529982372,3958.269366420966,3959.1382209779395,3960.064231402064,3961.028458385063,3962.016462876419,3963.0172644745603,3964.02256173113,3965.0261374915194,3966.02339858671,3967.0110155989146,3967.9866388560827,3968.9486735721334,3969.896101537333,3970.8283398251338,3971.745129135781,3972.646445960639,3973.532433920982,3974.4033505339266,3975.2595263645917,3976.1013340884206,3976.9291654450703,3977.7434144389827,3978.544465448684,3979.3326851596557,3980.1084174439707,3980.8719804815387,3981.6236655589164,3982.3637370973893,3983.0924335566388,3983.80996893734,3984.516534649513,3985.212301615822,3985.897422477973,3986.5720338112174,3987.2362582796836,3987.8902066862656,3988.5339798868117,3989.1676705505038,3989.7913647574624,3990.405143431391,3991.009083610019,3991.603259559582,3992.1878192422,3992.763025613291,3993.3292776605676,3993.887120732044,3994.4372523464745,3994.9805276513484,3995.5179675632544,3996.050772142121,3996.5803417951493,3997.108309473784,3997.636588242868,3998.167440778764,3998.703581137967,3999.2483258300176,3999.8058235338026,4000.381416669207,4000.9822375853805,4001.618253986835,4002.3042588322514,4003.064103269676,4003.9411465649728,4005.013882745855,4006.36470546467
R0,0.0,38.65376078699116,91.59025316781295,155.18140584787824,226.6773191421392,303.97473819243584,385.45633623635206,469.87580774097614,556.2735791342535,643.9135325498532,732.2345652540988,820.8129253527496,909.3325868668057,997.5617648307463,1085.33421149257,1172.5342916891827,1259.0850780083438,1344.9388763917718,1430.069716029168,1514.4674295264108,1598.1330202259803,1681.0750694221892,1763.3069810576033,1844.8448979731936,1925.7061537432721,2005.9081488632175,2085.467560542457,2164.3998123324704,2242.7187438809215,2320.436432728641,2397.563129653141,2474.1072769425195,2550.075585436598,2625.473151434018,2700.3035964678884,2774.569223702129,2848.271180047434,2921.4096176939106,2993.983850572338,3065.9925026566166,3137.433646097945,3208.304928005029,3278.6036853071123,3348.3270475995473,3417.4720282085264,3486.0356039493195,3554.0242011173764,3621.4555576634693,3688.359631917187,3754.779076854501,3820.7696247408267,3886.4006266790257,3951.7559431532513,4016.935373425612,4082.0568403428606,4147.259617921667,4212.709018238647,4278.603175829567,4345.18294952253,4412.746638609424,4481.672465310734,4552.454237305901,4625.760780930169,4702.541599523404,4784.231484602155,4873.195113634076,4973.852230705985,5094.184658538913,5241.184176360979,5421.7623774552985
G0,671463.0,671542.8212672286,671640.6898656451,671748.1057255522,671860.123291472,671973.9278591127,672087.953380114,672201.3578758707,672313.7126522234,672424.8193542658,672534.6033368919,672643.0524333713,672750.1825744906,672856.0191496969,672960.5874778732,673063.9084477245,673165.9970047872,673266.8621306194,673366.5075373717,673464.9326432298,673562.1335951517,673658.1042216562,673752.8368643967,673846.3230734983,673938.5541705245,674029.521691869,674119.2177287263,674207.6351801644,674294.7679346965,674380.6109939832,674465.1605503389,674548.4140278394,674630.3700951111,674711.0285514127,674790.390450676,674868.4580395246,674945.2346994376,675020.7248891644,675094.9340862437,675167.8687276714,675239.5361502212,675309.9445310263,675379.1028289929,675447.0207275219,675513.7085789065,675579.5950746363,675645.0484013638,675710.4073127666,675776.0039543434,675842.1821608444,675909.3139635727,675977.8165526936,676048.1718539515,676120.9512022554,676196.8484324624,676276.7263253751,676361.6842991675,676453.1606634249,676553.0930702701,676664.1813937307,676790.3409948087,676937.5344061924,677115.4205583473,677340.9659045554,677647.4321478488,678110.5782286443,678854.4129887904,679773.8048425977,680865.9058031121,682120.1108209587
H0,99072.2534458964,98849.34087564313,98493.48324849081,98138.90670879625,97785.60664464458,97433.57846072386,97082.81757826525,96733.3194349835,96385.07948501756,96038.0931988715,95692.35606335556,95347.86358152748,95004.61127263398,94662.5946720525,94321.8093312331,93982.25081764067,93643.91471469717,93306.79662172425,92970.89215388604,92636.19694213205,92302.70663314038,91970.41688926108,91639.32338845974,91309.42182426128,90980.70790569394,90653.17735723344,90326.82591874739,90001.6493454399,89677.64340779632,89354.80389152825,89033.12659751876,88712.60734176768,88393.24195533732,88075.0262842981,87757.95618967463,87442.0275473918,87127.23624822119,86813.57819772759,86501.04931621577,86189.64553867739,85879.36281473815,85570.19710860509,85262.14439901411,81058.1495547482,76933.71783687819,72890.91362350383,68931.93454055784,65059.11737206712,61274.94327253427,57582.04191447534,53983.194101734596,50481.33225570441,47079.53803532689,43781.03618248395,40589.183494368684,37507.45162007021,34539.402172566806,31688.652461295584,28958.8300183393,26353.514062315768,23876.162185186244,21530.020942632476,19318.019774489258,17242.64887221671,15681.02090691109,15624.56923164621,15568.320782412284,15512.2748275956,15456.430638216256,15400.787487918677
S1,1030086.0860149896,964570.0832633328,908580.6372075194,856549.4060890469,808191.909198625,763244.7700540501,721463.8728661041,682622.7963053773,646511.4412204763,612934.802866278,581711.8572596054,552674.5421494846,525666.8193869399,500543.8092000873,477170.9891362635,455423.45184898906,435185.2168369046,416348.5918851619,398813.58043174597,382487.3314477393,367283.6287197658,353122.41667708853,339929.36012833234,327635.43547158776,316176.5511217326,305493.1950634299,295530.1075896241,286235.97742505395,277563.15956351673,269467.4132673335,261907.65878845952,254845.72808623564,248246.2307156939,242076.27508045215,236305.32067971703,230905.0095217631,225849.00986140897,221112.87124569213,216673.88999084325,212510.98431001013,208604.57838411265,204936.49472752912,201489.8542511165,198499.20764582997,195688.74504185922,193045.58867715186,190557.73892906148,188214.01270127727,186003.9853983112,183917.936343509,181946.79740451192,180082.10450374382,178315.95158482276,176640.9464434368,175050.16755447,173537.1205260004,172095.6918625516,170720.09584443676,169404.80642265268,168144.45735875933,166933.67306092154,165766.73784375453,164636.84957842363,163534.1549661202,162418.76600871986,161212.4300342993,160061.3675940986,158936.27805021667,157837.36217620588,156764.16566837227
E1,0.0,53.770407990675615,86.20518138247272,105.51078584468132,116.44901938672989,121.95963586711902,123.89634030081199,123.45491576102701,121.42504503840752,118.34033222939894,114.5690327330613,110.36990963211713,105.92733944067051,101.37389778510018,96.8052640827841,92.29032055936179,87.87817619337622,83.60317346740571,79.48853662713586,75.54908045542601,71.79325254917042,68.2246915850252,64.84342682477906,61.64680707805257,58.630222774763425,55.78766807652852,53.11217827356695,50.59616934952534,48.23170047322869,46.01067560513025,43.92499693716833,41.96668021634228,40.127894245561954,38.40113476458494,36.77918871202032,35.255168396417545,33.8225309585564,32.475087398854086,31.207004054946072,30.012798572491043,28.88733187041402,27.825797232462854,26.823707392418093,25.876880283366862,25.129116864929447,24.551624010904163,24.127527521824092,23.84856270449351,23.713203720577532,23.72581212967922,23.8965826198435,24.24221695427626,24.78739955990835,25.567316138283857,26.631701583023073,28.05131559144319,29.92850369793953,32.414998427795645,35.74325881218277,40.28471582645071,46.665506215873705,56.016389013895605,70.57213790959409,95.31300255749908,143.21493007037748,228.88152687958188,282.1037220848216,334.21366242766885,382.8725908195174,426.82047097070165
I1,0.0,0.0,9.764865816620546,23.6211993174175,38.43101617653949,52.49913604644059,64.9765153644685,75.50715100935338,84.0177768647306,90.59203188791112,95.39505201360251,98.62842980128903,100.5036146395234,101.22658820006032,100.9894644495265,99.96634375478972,98.31176471408422,96.1607167451524,93.62955959540619,90.81743600403419,87.80791605938913,84.67070953325315,81.46334577211745,78.2327619698441,75.0167675674003,71.84537002638505,68.74195846324369,65.72434867909382,62.80569735084719,59.99529548869318,57.29925234330618,54.721081195809575,52.262198182619656,49.9223364053603,47.69991533498757,45.5923356779459,43.59622613067388,41.70764821393348,39.922265014062134,38.23547910877365,36.64254435396783,35.13865561918378,33.719020011901954,32.37891263627085,31.113719492558307,29.945791206208312,28.88813228224356,27.948287264291892,27.130910024634893,26.43952005012062,25.877780575977233,25.45053141941192,25.164753945914757,25.030626250625396,25.062841352220612,25.28241767646824,25.719352021360596,26.41670173523198,27.437147660267435,28.87403946683281,30.87098387411803,33.65884213605508,37.631297811618644,43.51535564932357,52.80852716431168,69.08893818757544,97.9276471858073,131.11929349428266,167.66003482310657,206.30622118718347
A1,0.0,0.0,1.100665830022501,2.645129815700632,4.275881843721452,5.804386483486379,7.1399913276493425,8.248119277557668,9.12558600649942,9.786008647425657,10.2512036420279,10.54616223706296,10.696174245595328,10.72524566068378,10.655295068859699,10.50581587553271,10.293812809425644,10.03389490437337,9.738452371632386,9.417872776646892,9.08076942838142,8.734205895690017,8.38390751773584,8.034455165920296,7.689459269080556,7.351713814310401,7.023331053915837,6.7058582244025375,6.400377872488908,6.107593489071385,5.82790214324292,5.561455730394322,5.308212331349659,5.06797810825614,4.84044438060016,4.6252165544799855,4.421837965502439,4.229809351492641,4.048604615454112,3.8776834661855366,3.716501448300044,3.5645178017732166,3.421201526290087,3.2860359683615954,3.158522199310088,3.041204643173608,2.9355294520961075,2.842308137730722,2.7620207335013696,2.6950200327370917,2.64167755012356,2.6024991800100397,2.5782315185855595,2.5699771265422338,2.5793382945172354,2.6086149152585385,2.6610953354282536,2.7415052186214495,2.8567310207107734,3.0170402817264677,3.2382501280927247,3.5458311152020934,3.98330602635561,4.6312383145151195,5.6560231320821135,7.456390789825373,10.65025751914006,14.294795571939481,18.277103210600224,22.458985293195646
IH1,0.0,0.0,0.0,0.826296580826962,2.7147102830845196,5.604020817385397,9.297742133007269,13.553794050422786,18.13231459440853,22.81928865345188,27.436371932314724,31.84302139819388,35.934529804800974,39.63807195512935,42.907982447489935,45.720953533512414,48.07152374013377,49.9680382261115,51.42914991753521,52.48086591507947,53.154108052537104,53.48273851970731,53.501994167193345,53.2472721461393,52.753212190334594,52.0530254259396,51.17802504121939,50.15731981918162,49.017637045318935,47.78324643389786,46.47596135987884,45.11519779802854,43.71807495667741,42.299544676606274,40.87253858339442,39.44812683831543,38.03568063081036,36.64303384147089,35.276640439097946,33.941725127608954,32.64242553705975,31.381924876659472,30.162574458125935,28.98600587634613,27.853232920483634,26.76474349944598,25.72285163076298,24.730662601978025,23.791505235185973,22.908657415127465,22.085256903683188,21.324332224786723,20.628916820685752,20.00222961125396,19.44792071855935,18.970395906277727,18.575250874539083,18.269872023289274,18.064302382326304,17.972547201350007,18.01463975654022,18.2200886989272,18.633995525290917,19.328749224024726,20.42858597033538,22.1678618987896,25.052400828951967,29.991865672151853,37.08005217888271,46.313280102426646
IN1,0.0,0.0,0.0,0.9724869307531573,3.3152068421823975,7.10941519725303,12.266731208797179,18.61510130618135,25.948737959839775,34.05661491338104,42.73814581051843,51.81119611296481,61.11552931223915,70.5135695949566,79.88963070375324,89.14831595137083,98.21252134328007,107.021304486314,115.52777606187311,123.69710395878695,131.5046780524368,138.93445709830345,145.97750268864087,152.63069517063386,158.89562058209032,164.77761455793734,170.28494783197357,175.42813776221345,180.21937081592046,184.6720218744531,188.80025736581376,192.61871047646704,196.14221795009897,199.3856091965564,202.36353875107065,205.09035719799485,207.58001275114356,209.84597839270978,211.90120014032652,213.75806263646712,215.42836881803774,216.9233309221676,218.25357051873118,219.42912563580234,220.45946336688792,221.35349662446274,222.12227509969242,222.77803311073865,223.33363399672874,223.8022759444189,224.1973756658146,224.53258052887713,224.82188342723873,225.07983260260423,225.3218444548674,225.56464450358763,225.82688424664042,226.13001606015038,226.49956589519257,226.9670468537216,227.57295363804863,228.37167785462933,229.44005875937978,230.8933743203059,232.91815242227884,235.84819344796605,240.37030677293896,247.71925764188828,258.30028846427354,272.4146161663524
D1,0.0,0.0,0.0,0.0,0.0017649212185660216,0.00756338377069244,0.019533244810163965,0.0393926787665248,0.06834279094988206,0.10707235550569577,0.15581302280550888,0.21441551022636868,0.28243034343877116,0.3591843995528769,0.44384900531300253,0.5354979488335521,0.6331552342402136,0.7358332002713105,0.8425620104366891,0.9524116698064875,1.064507733098366,1.1780418022602952,1.2922778068991876,1.4065549404760593,1.5202880026986185,1.6329657817220498,1.7441480027265879,1.853461274033064,1.9605943786220734,2.0652931873944267,2.167355409942599,2.2666253479534912,2.3629887745016864,2.4563680282905365,2.546717384281709,2.6340187386335523,2.7182776327220983,2.7995196242364937,2.8777870035771183,2.9531358464446242,3.0256333882019675,3.0953557019481535,3.162385659931073,3.2268111566630653,3.28872357164782,3.3482164497834463,3.4053843781129736,3.460326886285673,3.5131501366635765,3.5639674017782164,3.6128989555314144,3.660071773901039,3.7056193016151333,3.7496814626571457,3.7924050564353036,3.8339446788053047,3.8744643360766435,3.9141399866473514,3.953163365834178,3.9917476602787376,4.030135971017717,4.068614188995239,4.1075312339099215,4.147332359622358,4.188617438642874,4.23225170469328,4.279600962506085,4.3331114269385855,4.39717229967775,4.476373124653389
R1,0.0,0.0,0.0,0.22013295647327208,0.8675151522365545,2.112741318728002,4.081463159963756,6.854486406526309,10.472154952874153,14.940583689874625,20.2383644513817,26.32299985759332,33.13669246409906,40.61133472792102,48.672670331845964,57.243666253171185,66.24716994794245,75.60794076379145,85.25414755284595,95.11842058377978,105.1385384264712,115.25782145287566,125.4252941419191,135.59566918660119,145.72919786266138,155.79142342072998,165.7528674773859,175.58867350051085,185.2782264629071,194.804763503918,204.15498690958677,213.31868781288918,222.2883866443222,231.05899445245382,239.62749750659344,247.99266698513034,256.1547940296804,264.11544994623216,271.8772708257897,279.4437654930101,286.81914544415963,294.00817528139027,301.0160420686581,307.8482420087814,314.5104828573844,321.0086005365974,327.34909312658885,333.53916265471145,339.58670404077577,345.50027447940096,351.28906464384517,356.9628861938014,362.53218659652913,368.0081013690359,373.4025552088325,378.72842731085956,383.9998033219461,389.2323487301967,394.44385975727755,399.65508551501404,404.8909849996899,410.1827193191055,415.5709670576873,421.1118091611847,426.8881088927895,433.03420692113326,439.7983383245704,447.6256892382983,456.9048199825014,468.01809415011206
G1,0.0,0.0,9.764865816620546,25.419982828997618,44.58105495919542,65.72854279275714,87.87677494849675,110.37671838239413,132.79649780861072,154.84764668184914,176.33860254580253,197.1446792185396,217.18818266260968,236.42490216321556,254.83470313312768,272.41482665152887,289.17502301439345,305.13396085407777,320.31654549978913,334.7518998727392,348.47183730271433,361.50970522819057,373.89951188213337,385.675270811536,396.8705140993434,407.5179367168808,417.6491429573827,427.2944723020986,436.48288695237983,445.2419070310481,453.5975823960939,461.5744923195094,469.19576610922417,476.48311090451386,483.45687104870245,490.136080971739,496.53852427834505,502.68079637057224,508.5783687097635,514.2456533468472,519.6960667209183,524.9420919986826,529.995339432896,534.8666043754398,539.5659227024208,544.1294449713753,548.5880928225906,552.9697234916064,557.3006933211271,561.6070815570837,565.9157595175865,570.2554499063784,574.6579085170135,579.1593739083016,583.8024744669724,588.6388705841749,593.7330728222836,599.1681779967373,605.0548380002895,611.5459199762757,618.8617440364949,627.3363385856323,637.5090812277779,650.3251911073743,667.6343155000066,693.6425722221137,735.2081373982217,786.4390113206437,847.1332052024055,916.6640050219416
H1,28306.35812739897,26507.387974266596,24969.860746114155,23540.875803943425,22212.68473924199,20978.092584645427,19830.418282486502,18763.45797701922,17771.450928626648,16849.04786272795,15991.281579477607,15193.539662771573,14451.53913860996,13761.302943576446,13119.138074140375,12521.615296722788,11965.550307043239,11447.986235227345,10966.177400549313,10517.574226549781,10099.809233645043,9710.68403226399,9348.157245046474,9010.33329174161,8695.45197518455,8401.878811131864,8128.096048822771,7872.694332928635,7634.364961077316,7411.892694411288,7204.149081677127,7010.086260165542,6828.731199441223,6659.180356234636,6500.594711127063,6352.195159757959,6213.258233231572,6083.112124208628,5961.132996848402,5846.741560326179,5739.399887099261,5638.608458439514,5543.903420999099,5204.629863562444,4881.4973957513985,4573.494933925289,4279.718119071206,3999.361077700095,3731.7088552987643,3476.1304445168153,3232.0723294850495,2999.0524654044666,2776.654608760258,2564.522908227195,2362.356659701396,2169.905121299249,1986.962276323341,1813.3614253037513,1648.9694841242817,1493.6808665921976,1347.41084018517,1210.088267582163,1081.647689016559,962.0207663800691,871.9912145751634,866.1578030846745,860.5378378125527,855.1168042140546,849.8812218638234,844.8185705997001
S2,1030086.0860149896,1091378.2976492143,1147263.5257270355,1198485.5829852377,1245382.083818922,1288266.5490351673,1327430.111147561,1363143.0991010063,1395656.512787529,1425203.3953262041,1452000.109923405,1476247.527521331,1498132.1310596075,1517827.0418715952,1535492.9734546922,1551279.1175725418,1565323.9673635664,1577756.081847425,1588694.7959430728,1598250.879842721,1606527.151327902,1613619.044368636,1619615.1371153034,1624597.6421754458,1628642.8618642339,1631821.6109273005,1634199.6090574637,1635837.8453618956,1636792.9167827978,1637117.3423319252,1636859.8548666534,1636065.5701090586,1634776.5625287355,1633031.745041436,1630867.222346461,1628316.4899523105,1625410.6199119687,1622178.4337772848,1618646.6634526881,1614840.1006894743,1610781.7359669607,1606492.8874842399,1601993.3209508404,1599316.2169068914,1596424.9804306717,1593333.5356487408,1590054.6536727655,1586600.0261777232,1582980.3320530395,1579205.2978720444,1575283.7526521229,1571223.6770927445,1567032.2471075705,1562715.87089634,1558280.2178316107,1553730.2356801915,1549070.1493561086,1544303.4278208206,1539432.692022789,1534459.506307796,1529383.9227384552,1524203.4555429101,1518910.5945378107,1513486.0357938625,1507683.8851897107,1500922.9672652953,1494203.2587536946,1487435.1540650278,1480630.251719357,1473796.7337809945
E2,0.0,18.819642796736467,32.16419543811309,41.89524278471751,49.227297868741076,54.94296742608687,59.543690420962754,63.34972993432562,66.56567251552136,69.32287371509557,71.70670243926445,73.77387389178269,75.563381885224,77.10333285477714,78.41517651233865,79.5162956374602,80.42157006607127,81.14430519808985,81.69677105071908,82.0905058465231,82.33647977249747,82.44517776477095,82.42663712654416,82.29046143880981,82.04582335742964,81.70146346158909,81.26568903394771,80.74637469702392,80.1509656924525,79.48648395055405,78.75953675890936,77.97632767784364,77.14256708830415,76.2637334591883,75.34492006444319,74.39086325654442,73.40596485850563,72.39431158621952,71.35969289140971,70.30561785835204,69.23533141890222,68.15182997736723,67.05787646093557,65.95601478271426,65.26506312456867,64.92678179352914,64.9135948015798,65.22043865263183,65.860290503828,66.86240896527492,68.27280335697972,70.15684869838294,72.60436895053921,75.7380224030971,79.72659840982277,84.80616181748906,91.31444263688817,99.74873191636927,110.86776735051133,125.88109336147204,146.82541665783305,177.37764678003168,224.80592444367397,305.31634185130025,461.17177855754306,740.3313255587066,914.870642430839,1086.5148075155748,1247.5593070013847,1393.7731367585952
I2,0.0,0.0,3.4177030358171914,8.629242242377245,14.64795220783805,20.889480085668456,27.01924023032918,32.855343740538586,38.30756815128012,43.33946438054125,47.94515218084404,52.1353377505989,55.9290547515358,59.34891205147034,62.41845795640279,65.16079827611921,67.59793926931468,69.75053564963044,71.63785363117667,73.27783867511026,74.68722588912877,75.88165982943447,76.87580726795615,77.68345601827832,78.3175980830986,78.79049799307006,79.11374834783834,79.29831490434974,79.35457347502265,79.29234062443885,79.12089981365675,78.84902430272604,78.48499781662017,78.03661515953132,77.51123016292925,76.9157669644899,76.25673434388325,75.54024148422458,74.77201435726758,73.95741233061817,73.10144478423229,72.20878761069001,71.2837995134813,70.33053803619138,69.3527752654844,68.42964705880527,67.61513517567022,66.94826952771746,66.45997079030613,66.17782043913792,66.12963262362071,66.34645328477889,66.86548169626391,67.73337696089925,69.01047822950083,70.77666224090392,73.1399617370895,76.2498415486073,80.31854315820866,85.65700011689054,92.73852584332165,102.31911679697718,115.68324521176618,135.19868695381817,165.74012496821754,218.95934253247466,313.0712642026451,421.5437105249663,541.2055646482622,668.0706977759546
A2,0.0,0.0,0.3852330405078753,0.9665789597298543,1.6308477350365282,2.3123480828059066,2.974546713619004,3.598481310094263,4.175537714087331,4.703012429236634,5.181431470827577,5.61296312980241,6.000502984337208,6.347165690409063,6.656018304582576,6.929953542542879,7.171641398224015,7.383522453532112,7.5678215324244125,7.7265696584515045,7.861627835161764,7.974709422533696,8.067399732706708,8.141172476598566,8.197403205951217,8.237380124225403,8.262312711746606,8.27333860085343,8.271529089044257,8.257893616621145,8.233383473048237,8.19889493948261,8.155272026236574,8.10330683168708,8.04374517747545,7.9772879790083735,7.904592920609491,7.826276253999409,7.742914634650171,7.655046956109617,7.5631761633325745,7.467771035263428,7.369267930739433,7.26807249329198,7.164561311042409,7.067608750412713,6.983122155335028,6.915262929000988,6.867256546349221,6.841949026870815,6.84221610260198,6.8713001581596975,6.933133310968776,7.032699928109069,7.17649828648474,7.373182081657456,7.634506455823361,7.9767887677168705,8.423262321815072,9.008044923232529,9.783189872470302,10.832030659906195,12.296499445829966,14.438918876582148,17.80088147998759,23.68077119073289,34.09900513351556,46.006367274915625,59.04576927810062,72.7738310743014
IH2,0.0,0.0,0.0,0.28920380328943673,0.9807657816157763,2.089231410422117,3.5777552698768624,5.3861022279515085,7.446693505854059,9.693344575009357,12.06562914783613,14.51069656676155,16.983663201608948,19.447252684884017,21.87108208026922,24.23082038512519,26.507342522300313,28.685940762729,30.755620181808176,32.70848511877763,34.53921334044544,36.24460980084148,37.823230158070565,39.275064133227076,40.60126953651038,41.80394886448239,42.88596152768363,43.850765865296204,44.702286082672735,45.444800088884634,46.08284491719186,46.62113699406074,47.064504998580794,47.417833440890924,47.686013830752515,47.87390642754529,47.98630805504439,48.02792542936705,48.00335338414448,47.917057391409,47.77335982305776,47.5764294539213,47.33027376350998,47.03873364543052,46.705480180026605,46.33401316698484,45.934061242332106,45.5186211556558,45.102255920410485,44.700199356019446,44.32798390440463,44.00142042142986,43.736834451697206,43.55151815490728,43.4644016464906,43.496991756400185,43.67468102689853,44.02861110726359,44.59841060461814,45.436373309139015,46.61411732944897,48.2337437588675,50.44768447180786,53.49669698986241,57.78973224155634,64.09359604060764,74.05861194230532,90.6559481987292,114.2146764328514,144.75156503803873
IN2,0.0,0.0,0.0,0.3403704257636051,1.1963564418164534,2.6431883541547005,4.697148229705601,7.341033795147137,10.539700410746079,14.249369591434247,18.423070658194558,23.01371702257871,27.97575919664686,33.26599875739804,38.84392089233887,44.671761122406764,50.71443373025889,56.939395467917706,63.316485531159536,69.81776345384787,76.41735537023247,83.09131280935554,89.81748483264,96.5754026806349,103.3461754154076,110.11239488720103,116.85804845731712,123.5684381251258,130.23010495416665,136.83075792869352,143.35920657874934,149.80529688271304,156.1598500916917,162.41460422379728,168.5621562046584,174.59590936169383,180.5100225667159,186.2993613148151,191.959450862145,197.48643146413735,202.87701571525412,208.1284479701858,213.23846581410658,218.20526354138002,223.02745759583055,227.70405392047883,232.24194957092155,236.6533486974332,240.9542204134499,245.16345354382145,249.30249487545456,253.39534674976068,257.4688633625434,261.55333505833613,265.683396077123,269.89934351688936,274.2490264613238,278.790574527687,283.5964212999109,288.7594132410808,294.40243434758236,300.6942772503762,307.8773366468631,316.31950439604924,326.62080119321456,339.86071917009485,358.26836133992674,385.864571379447,423.9876340603509,473.6466384985789
D2,0.0,0.0,0.0,0.0,0.0006177224264981076,0.0027125808327676873,0.007175057057779187,0.01481693327651234,0.026321332941295704,0.042227035181387526,0.06293145283997699,0.08870293174051004,0.11969693178976562,0.1559730440828839,0.1975112395719858,0.24422659303240363,0.29598220963942096,0.3526003445209476,0.41387183795493854,0.47956404570279787,0.549427458855866,0.6232012005263479,0.7006175693949335,0.7814057791124132,0.8652950213744356,0.9520169608915877,1.04130775318427,1.1329096613067309,1.2265723351236506,1.3220538063730634,1.419121244156834,1.517551508414785,1.6171315330981042,1.717658565934389,1.818940287679506,1.9207948270683755,2.023050694065982,2.12554664437263,2.22813148695925,2.3306638450929476,2.4330118800281832,2.535052985353247,2.6366734589158978,2.7377681583059834,2.8382401450376835,2.9380003218383015,3.036967066802788,3.135079537824231,3.232304653093477,3.3286404365472357,3.4241174506704386,3.518799434336447,3.612783897482965,3.706203220457115,3.7992267186488085,3.8920641410684853,3.9849711740587845,4.078257740949007,4.172300281811794,4.2675598811092215,4.364609319783807,4.4641743508736536,4.567198809386727,4.674952115908592,4.789217935024183,4.912653426607962,5.049553602950282,5.207738471032041,5.401374279623951,5.645330155256705
R2,0.0,0.0,0.0,0.07704653476564523,0.31178700036585477,0.7788594826560977,1.5424283963198042,2.654670318393305,4.1558783285250325,6.075386757899089,8.432850281820425,11.239614926063126,14.500041318344351,18.212712928764894,22.371503510422748,26.966500683824002,31.984794209946887,37.411142648103535,43.22853363983629,49.41865269816748,55.96227410610985,62.839585903037104,70.03045926778844,77.51467104666477,85.27208678892451,93.2828104599561,101.52730599589897,109.9864950243911,118.64183438153992,127.47537648227588,136.46981512898446,145.608518953443,154.87555436418594,164.25569960274288,173.7344508689486,183.29802257490894,192.9333423193434,202.62804145704519,212.37044203229385,222.14954074821557,231.95499055743934,241.77708038263359,251.60671340775644,261.4353843211121,271.25515583860977,281.0586347891083,290.8406530454613,300.5985719266876,310.3324157346737,320.0449281324949,329.7416136402812,339.43080841675527,349.12381574785184,358.83514017698246,368.58285939556794,378.3891858030435,388.28129297522554,398.29252232117904,408.4641541567366,418.848049698534,429.51069716186373,440.53963976837076,452.0541984128126,464.2245443124386,477.3086440820017,491.73254705876525,508.29358475359624,528.4324281000817,553.4107284975336,584.4753651043718
G2,0.0,0.0,3.4177030358171914,9.258816471430286,16.867117011356434,25.806940534481377,35.78474662767168,46.59805768322333,58.10255682027864,70.19108068306745,82.78032047399161,95.80247064241098,109.20002528716033,122.92255989926932,136.92475418188832,151.16518316956467,165.60557866124805,180.2103746782936,194.94642154220537,209.78279784605974,224.6906775584251,239.64322686641535,254.61551605269088,269.5844382039893,284.52863044588395,299.4283956855002,314.26562414510744,329.0237146741829,343.6874961770447,358.2431496360082,372.6781312367935,386.9810970681725,401.1418298038999,415.15114913987304,429.00086967821505,442.6837309747273,456.1933327208902,469.52407399231913,482.6710960243751,495.6302282281089,508.39793727469936,520.9712791245896,533.3478538941456,545.5257634555181,557.503571663035,569.3559009969541,581.1467974362885,592.9352990787128,604.7795244759707,616.7399488700919,628.8823609536145,641.2809048482607,654.0215969734805,667.2067660468745,680.9610158958005,695.4396029956514,710.8406538992264,727.4236279325149,745.5382939530947,765.6722098377163,788.5325903231576,815.1965221345317,847.4088296917905,888.2342533589215,943.6806079842462,1027.4307728854976,1161.8771407682784,1328.0203670657572,1525.3346836132664,1751.8951596516326
H2,28306.35812739897,29991.260396887003,31527.606437943105,32935.83927173765,34225.23707592721,35404.41411592155,36481.36818011144,37463.524626716295,38357.77728428057,39170.52643056009,39907.71405848637,40574.85662299088,41177.07544862944,41719.12496509409,42205.418925765094,42640.05475337316,43026.83614655129,43369.294071500204,43670.706254117635,43934.11527970309,44162.34539969827,44358.01813781937,44523.56678134038,44661.24983716108,44773.163526604985,44861.25338761097,44927.32504807739,44973.054229563815,44999.99603632582,45009.593580732224,45003.185992467166,44982.015855533784,44947.23611393211,44899.91648396443,44841.04940841018,44771.555585295326,44692.28910164357,44604.04220042626,44507.54970691227,44403.493138747726,44292.50452235736,44175.169936645914,44052.03280347914,41908.74086021057,39798.916010695146,37724.78122864907,35688.50851187866,33692.23192851953,31738.059431379417,29828.083320421298,27964.38917556377,26149.063013938558,24384.19634670441,22671.888720396695,21014.247227839,19413.382367239225,17871.399521853273,16390.38523776751,14972.387411404008,13619.388486596228,12333.270837743015,11115.77372351279,9968.441583501439,8892.564065431987,8082.497841284144,8048.562715643273,8014.614907344044,7980.66981352894,7946.741611287933,7912.843346048588
S3,3090258.258044969,3076736.8180538896,3064062.3459859095,3052161.6352061722,3040971.6540339743,3030434.3414129745,3020496.109293745,3011107.437173058,3002222.529267325,2993799.01632652,2985797.6908651073,2978182.2686195765,2970919.1714750915,2963977.3285901244,2957327.9933694643,2950944.57451789,2944802.479782964,2938878.971246007,2933153.031193425,2927605.237725379,2922217.6493528164,2916973.697908037,2911858.0891547287,2906856.7105349745,2901956.5455356035,2897145.594196128,2892412.799316403,2887747.977954796,2883141.757837559,2878585.5183276115,2874071.335626326,2869591.773767518,2865140.3415362597,2860710.8974775467,2856297.82227096,2851895.9772341144,2847500.667295706,2843107.607414326,2838712.8918254315,2834312.965718301,2829904.5990656414,2825484.8623970803,2821051.104348457,2820152.4953766894,2819344.7710101637,2818630.011223312,2818010.802118201,2817490.2434524163,2817071.954354552,2816760.0766133796,2816559.2743695844,2816474.728395775,2816512.122332002,2816677.6171196997,2816977.8082255768,2817419.6576537024,2818010.3883664715,2818757.3207435347,2819667.6148517122,2820747.8479668624,2822003.2751952405,2823436.406016291,2825043.8908518744,2826808.52946118,2827139.841404904,2821066.3488539844,2815010.775228922,2808867.1714934497,2802645.7158519444,2796352.352725694
E3,0.0,32.26224479440536,53.36634997359067,67.35267728526472,76.73244212599126,83.08192815606493,87.40144003548622,90.33368736755901,92.29748177176373,93.57010184057586,94.33837580759139,94.73060109773289,94.83666111832714,94.72082935469712,94.43001213082138,93.99912404800116,93.45464466784505,92.81700944541936,92.10224446106638,91.32310393563438,90.48987588327036,89.61096265410283,88.6933061634913,87.74270409265596,86.76404823238244,85.76150631162187,84.73866217346675,83.6986248266634,82.64411395497909,81.5775274309101,80.50099494925635,79.41642087333005,78.32541631546331,77.22957444290789,76.13032402283147,75.02896023469458,73.92666581939706,72.82452642844217,71.72354230612123,70.62463752272949,69.52866748502132,68.43642517933907,67.34864644874779,66.26601451392928,65.6088143855653,65.31882403084239,65.36882583880329,65.75453369424933,66.4902223098127,67.60710457248516,69.15399165577385,71.20018194989848,73.84094644770636,77.20651774986257,81.47631518476639,86.90155767366021,93.84205340054558,102.8281728992631,114.66998761183854,130.66026781991573,152.97827874677012,185.5628819110515,236.20977697759335,322.32571167284203,489.38171764600077,789.4700379593457,978.0762013560727,1164.237782950418,1339.6757870294962,1499.7943312285706
I3,0.0,0.0,5.858919489972327,14.471137063483951,24.036858758881664,33.543874389663756,42.452690551954205,50.50485208574691,57.60623176513008,63.75609895132662,69.00421221239971,73.42509266511979,77.10283310328388,80.1223587017585,82.56462284585878,84.50418484562773,86.00821005439748,87.13630007945757,87.94078847013645,88.46727880940894,88.75529025992677,88.83893050311528,88.74755014460163,88.50635379467607,88.13695600474665,87.65787807880207,87.08498638797212,86.43187539964515,85.71019995296535,84.9299618546981,84.09975594203203,83.22698055822964,82.31801703760937,81.37836379326197,80.41279570087116,79.42546752581634,78.42000389361365,77.39957652767208,76.36697004655562,75.32463776226736,74.27474887672498,73.21922834810623,72.1597905471954,71.09796767224603,70.0351337505565,69.0487347065976,68.19137687618252,67.50103319604423,67.00790324640082,66.73921588050135,66.72285248428324,66.99042267459451,67.5802980621144,68.54108332793486,69.93608032402994,71.84951316691688,74.39571317183241,77.73329294580216,82.08796397124442,87.7909708545471,95.34731063859684,105.56471602426315,119.81743642402067,140.64229332305342,173.2699180436171,230.22508302828732,331.18548157323175,447.79942965738366,576.7394474833366,713.7875192680574
A3,0.0,0.0,0.6603994980135004,1.6207145949130983,2.675263224098671,3.7109035987794927,4.6693883717419205,5.524595622229113,6.26878390186388,6.904333011993715,7.43882261256984,7.882140756829411,8.244824103122543,8.537141869375873,8.768625092891668,8.947858765197426,9.082425573673778,9.178933699192882,9.24308799599474,9.279780398123693,9.293185529226482,9.2868536819055,9.263797084772087,9.226567620434292,9.177325472443957,9.117898921699162,9.04983590556023,8.974448134516994,8.892848617786212,8.80598343415045,8.714658530622739,8.619562259248289,8.521284283600545,8.420329313687846,8.317133729319288,8.21207588090594,8.105484960824867,7.997648533429388,7.888818873251993,7.779218274699074,7.669043488809164,7.558469426397381,7.44765224836686,7.336731945980022,7.225834497617566,7.123663807453722,7.035991211088625,6.96687664090469,6.919480307952176,6.896622581211907,6.901198675830687,6.936523916107358,7.0066690815736745,7.116840968301318,7.273870840545286,7.486896376541021,7.768370104555802,8.135619226597806,8.613362050151265,9.23795517106137,10.064946533861889,11.18338347938278,12.745131336100176,15.031258276990872,18.622930351308593,24.91586033134675,36.09293294467079,48.89531074250799,62.947893063518094,77.78113048545553
IH3,0.0,0.0,0.0,0.4957779484961771,1.6540780619153073,3.467069418027028,5.84231477335564,8.65407531875161,11.771541185258476,15.07341428225794,18.45454064117634,21.82802585490387,25.124890912337758,28.29248857325485,31.292391808805665,34.09815782968167,36.69318587752713,39.068776615344845,41.22243642425343,43.15643327444628,44.876591070981945,46.39129970586282,47.710714315094734,48.84611689381889,49.809414911646634,50.61275395812912,51.26822418032552,51.787643031471056,52.182399457034585,52.46334701512705,52.64073552803985,52.72417268710649,52.72260859763271,52.64433757659282,52.497011056561256,52.28766225257818,52.02273628534945,51.708123893097216,51.34919717517039,50.95084612787598,50.5175150205802,50.0532379055405,49.561672756935,49.04613389674845,48.50962249286702,47.9548550134938,47.39073841861111,46.82944117376898,46.284719230177906,45.77104615341398,45.303265866063775,44.89659838332074,44.56690504585998,44.331175031497686,44.20824058703185,44.21977445129545,44.39168078155471,44.75607746928316,45.35421301251304,46.24092449050879,47.49175221485493,49.21487650622597,51.57237414241403,54.8209558340229,59.39769881381394,66.12389752382536,76.77095600599125,94.53872466102459,119.80043904830939,152.59789967458843
IN3,0.0,0.0,0.0,0.5834921584518943,2.0188436219810817,4.392495658160291,7.689218700576293,11.840207112484016,16.75160365972956,22.32111551205357,28.447400002888365,35.035083368223084,41.997167169805564,49.2558977890659,56.742756876086524,64.39797344479004,72.16979961076186,80.0136939930983,87.89149637284805,95.77064005256472,103.62342568102433,111.4263666298856,119.15960793486012,126.80641621997154,134.35273558032242,141.78680327196918,149.09881872255278,156.2806595037471,163.32563829000736,170.228295339182,176.9842215905166,183.58990803717128,190.0426175663684,196.34027595612025,202.4813773158396,208.46490634564302,214.2902716734081,219.95724881865294,225.46593141891572,230.81668949664677,236.01013370040528,241.0470846039599,245.92854628270405,250.65568350615607,255.22980198838204,259.65233122624096,263.9323992925222,268.0842820655186,272.125894404847,276.07797960991957,279.96378527964737,283.8091032554393,287.6426154747993,291.4965385000623,295.40760728776144,299.41849370187066,303.57983080150655,307.953131617058,312.6150903422079,317.66411292640254,323.23061004373506,329.4939811210295,336.7122740167683,345.27781816490335,355.83166278139083,369.5293672760878,388.7622826111241,417.85755566228795,458.27550617357116,511.1304656345169
D3,0.0,0.0,0.0,0.0,0.0010589527311396128,0.004591966828471613,0.011997424534702488,0.024476267541311054,0.04296086678998175,0.06810419098514413,0.10030012319675796,0.13971794376174695,0.18634133164043307,0.2400066306556636,0.30043773320119266,0.36727645378233026,0.44010812665139776,0.5184826278108022,0.6019312519874015,0.6899799676838174,0.7821595876544941,0.8780133641748072,0.9771024698392528,1.0790097680195003,1.1833422197696675,1.289732219803243,1.3978381051033661,1.5073440365009023,1.6179594162163689,1.7294179725923815,1.8414766165375396,1.95391415198199,2.066529904323219,2.179142315860717,2.2915875450704193,2.40371809344119,2.515401484998288,2.6265190101682307,2.7369645416502,2.846643426633711,2.9554714570546814,3.063373917548731,3.170284709251403,3.2761455465173603,3.3809052228993797,3.484518942269492,3.586947710717097,3.688171559077707,3.788196509318282,3.8870579653138484,3.984822245629855,4.081587374583109,4.17748388555361,4.272676190818307,4.3673649905453376,4.461791209481688,4.556242064078215,4.651060100552194,4.746656467060534,4.8435304161419115,4.942298329132343,5.04373793705979,5.1488580377965185,5.259013615742488,5.376107974376654,5.502977988610015,5.644214770295941,5.808193046823442,6.0101222390796,6.266008977299281
R3,0.0,0.0,0.0,0.13207977388396322,0.527236426037134,1.2999359489398037,2.541850893325889,4.320699481932667,6.681756825325109,9.6506138129179,13.236367503052335,17.43479303681824,22.23126556012947,27.603329005840223,33.522882165249236,39.957992912850926,46.87437201946963,54.236546838431295,62.00877725649051,70.15575469595784,78.64312146439768,87.43784345911772,96.50846477443568,105.82526847938067,115.3603639108,125.0877173384442,134.98313982134985,145.02424347196714,155.19037514165774,165.46253469628712,175.82328351949863,186.2566476210346,196.7480186983921,207.28405566632304,217.85258807962055,228.44252363144003,239.0437601772846,249.64710282688006,260.2441864037314,270.82740338373713,281.3898372817161,291.92520135000456,302.4277823790919,312.8923893402851,323.31430657933,333.68925125342355,344.01505272356343,354.2919568810313,364.52276412995957,374.71289453720624,384.87044249199624,395.00626540836913,405.1341426336374,415.2710397542675,425.4375194201339,435.6583537270679,445.96341830315475,456.3889911877564,466.9796534745687,477.791119728929,488.89456922949245,500.38352610182596,512.3853402076979,525.0816228944782,538.7478717243471,553.839689683403,571.2113518844191,592.4105070865694,618.7969877735284,651.7192782371816
G3,0.0,0.0,5.858919489972327,15.550407170432024,27.781853437211463,41.71669286174847,56.80461781055615,72.6769789478183,89.08184491085376,105.84334177116295,122.83595021629858,139.96807949600944,157.17143805351898,174.39405742582076,191.59564140576794,208.74441211398394,225.8149322664026,242.78657334600365,259.6424179751107,276.3684591598429,292.9530061107123,309.3862363721604,325.6598533803715,341.76682124398013,357.70115694775245,373.45776584019245,389.03231014176197,404.42110290947414,419.6210218055659,434.62943839492505,449.4441597032078,464.06337951497215,478.4856374528106,492.7097657221009,506.7348858521263,520.5603788405318,534.1858608934,547.611163006074,560.8363133314349,573.8615216696984,586.6871656349907,599.3137781858458,611.7420362894726,623.9727505443669,636.0068556239296,647.9216112079621,659.7837036821578,671.65487663321,683.5960952765602,695.6709171578667,707.9485681757841,720.5071384830696,733.4373030259961,746.8470382461409,760.8679712122191,775.6643120759502,791.4458930913994,808.4878887476602,827.1617903982426,847.986200776853,871.7144935405314,899.4958033843925,933.1945739557641,976.0909711183084,1034.6262778297216,1123.4994514673322,1266.8695554890867,1444.4910990401083,1655.9201388034307,1899.2092412477914
H3,84919.07438219691,84548.39588290954,84200.86473146727,83874.51950677579,83567.6585022162,83278.704646554,83006.1965615937,82748.78025905792,82505.20143102668,82274.29829153337,82054.99492994393,81846.29513955733,81647.27668747758,81457.08599423229,81274.93319386481,81100.0875473179,80931.8731838685,80769.66514717616,80612.88572418183,80461.00103664838,80313.51787657753,80169.98076807865,80029.96923950917,79893.09529086255,79759.00104245252,79627.35655193929,79497.85778766849,79370.22474715313,79244.19971032641,79119.54561793471,78996.0445661273,78873.49640893894,78751.71746095414,78630.539292993,78509.80761417001,78389.38123415205,78269.13109988287,78148.93940145103,78028.6987421583,77908.3113681988,77787.68845368699,77666.74943707719,77545.42140529971,77423.63852220173,77277.35511618588,77107.17377605927,76913.7185330284,76697.63407515649,76459.58512367922,76200.25595516499,75920.3500522103,75620.58986338906,75301.71665040772,74964.49039673414,74609.68974724227,74238.11194253714,73850.57270453076,73447.90602153887,73030.963771809,72600.61511432254,72157.74556559125,71703.25567204159,71238.05918100687,70763.08061144494,70279.25213093804,69789.81190890979,69304.04636580749,68821.9247283227,68343.4166628906,67868.4922575009
S4,1545129.1290224844,1570832.6189536278,1596429.5526997016,1621924.4820394048,1647322.320117132,1672628.0512494114,1697846.5434320376,1722982.4450597772,1748040.132197256,1773023.6860875944,1797936.8885607866,1822783.227825355,1847565.910063554,1872287.874047463,1896951.807095983,1921560.1613701412,1946115.1699201744,1970618.862152963,1995073.078544219,2019479.4845143924,2043839.5834439937,2068154.7288374552,2092426.135663723,2116654.8909120387,2140841.963406284,2164988.2129229517,2189094.398657559,2213161.187082994,2237189.1592413466,2261178.817508542,2285130.5918687275,2309044.6766518606,2332921.5720210555,2356761.506102492,2380564.6634328575,2404331.185543064,2428061.172951719,2451754.6877882755,2475411.7566382443,2499032.3734008064,2522616.502054304,2546164.0792806987,2569675.016929356,2596420.1548831966,2623144.9982122616,2649848.4696967336,2676529.2889328934,2703185.9657146093,2729816.78695038,2756419.79748459,2782992.7744136313,2809533.193590046,2836038.1857621763,2862504.47783137,2888928.3113512383,2915305.3243392287,2941630.3710433696,2967897.23170096,2994098.1171502452,3020222.7682401543,3046256.6979475548,3072177.458724032,3097945.8453978864,3123482.2294330075,3148117.546307996,3170247.426108568,3192480.5827134433,3214495.328745037,3236320.162091589,3257974.0197162637
E4,0.0,48.39336719160805,80.92393121684063,103.2885388520384,119.06737782713672,130.52430388746623,139.10033338641435,145.71962206491267,150.9800218297218,155.27223920042903,158.85465245049917,161.90049423189637,164.52775308414843,166.81822989269673,168.82976180996818,170.60412253558883,172.17217260639723,173.55725018449786,174.7774282714978,175.84703573659021,176.77769582411432,177.57904509622225,178.25923827269924,178.82530780849856,179.28342358659097,179.6390829681714,179.89725160065416,180.06246892559204,180.1389280463789,180.1305367430225,180.04096446987842,179.87367882861452,179.6317263979049,179.3183490221356,178.93659992394802,178.48938643027816,177.97949549319276,177.409609773562,176.78231840811935,176.10012467178262,175.3654517442699,174.58064725933156,173.74798703084207,172.86967819509874,173.10695148291143,174.32274126367656,176.4642274043988,179.54286067324975,183.6240985288499,188.8246470990425,195.31627291182187,203.33638934518308,213.20688333304713,225.3643564455331,240.40765274012014,259.1732521275039,282.85790637281065,313.22534557397825,352.9706442035508,406.3986955591695,480.77545516046416,589.2535174544059,757.9098674718648,1045.088806694224,1603.5774039029234,2612.368763813788,3258.162988009568,3905.5843550896907,4526.395242141001,5104.22258180925
I4,0.0,0.0,8.78837923495849,21.86550036883028,36.59516744100162,51.476970222045665,65.69801160713625,78.85683091595567,90.79374986836082,101.48707616280548,110.99006689578876,119.3930909492413,126.80132993993973,133.32201707437088,139.05748744042185,144.10172840349333,148.5390001676442,152.44364575079138,155.88055174151376,158.90593409676993,161.5682554112314,163.90916181271706,165.96437783447575,167.7645281236786,169.33587308354194,170.70095616399027,171.87916642874848,172.88722306323976,173.73958979195527,174.44882746031487,175.0258927479747,175.48039039115847,175.82078556677436,176.0545373513278,176.18831951526047,176.2281309297166,176.1793933944817,176.0470360797208,175.83556733356755,175.5491352173852,175.1915782813427,174.7664680338686,174.27714441397197,173.72674540588483,173.11823176904957,172.6649018123077,172.51587069022872,172.78319279866662,173.56036051450562,174.9355312759863,177.00181724099627,179.8663717116171,183.65972428139747,188.54681534318226,194.7414898029983,202.52695210945103,212.2861449264225,224.54880282011385,240.06737670855875,259.9451422426549,285.8639223497049,320.51525087841617,368.48340511587696,438.2438517100052,547.3062921597189,737.7015557372633,1076.223662590312,1469.6648455041918,1908.2039690722315,2378.701010605416
A4,0.0,0.0,0.9905992470202507,2.4489707539182595,4.073465757033804,5.696050670618431,7.228639114012408,8.63025918418374,9.887050571059854,11.000162892128042,11.978513499263109,12.834525209621692,13.581682305217669,14.233187407988016,14.80127706018116,15.296924408923195,15.729763070431314,16.108131646425306,16.439178745787245,16.728993206479263,16.98273940813948,17.204786780155725,17.39882812471273,17.567984609188123,17.71489712054493,17.84180466470592,17.950610976344777,18.042940689033614,18.120186431090477,18.183548137136775,18.234065746306726,18.27264632285217,18.30008649922337,18.31708594418052,18.32427075255008,18.32220429896099,18.311396795426255,18.292313459814743,18.265381379858617,18.230995224759422,18.1895219713197,18.141304802890264,18.086666321650316,18.025911194704257,17.959328335281636,17.91091895563172,17.897078333426336,17.929841479968353,18.01907080074444,18.173996118643302,18.404390236868625,18.721587414603015,19.139514849522094,19.675903241623004,20.35387427131998,21.204183464589057,22.26855776748892,23.6048759324661,25.29554405455784,27.4616544770992,30.28820110901475,34.071911273374894,39.319396965847865,46.96973676898859,58.96848593064281,79.99959933900384,117.47418264280643,160.67309098319384,208.48476762100873,259.44195038578863
IH4,0.0,0.0,0.0,0.7436669227442657,2.494554203115596,5.257930216091621,8.911395723351742,13.280117729703072,18.178650341287565,23.43281216374387,28.889857600048174,34.42195510472152,39.92599893415133,45.321559116755765,50.548025476194645,55.56154514561343,60.332077339964144,64.84072489623397,69.077406251637,73.03887744450392,76.72708487807702,80.14781578090208,83.30960825101513,86.2228826464377,88.8992585580861,91.35102528760409,93.59073784495533,95.63091452654135,97.48381589693008,99.16128836730678,100.674658507766,102.03466675686265,103.2514313307424,104.33443492597347,105.2925244921436,106.13392971831227,106.8662883921416,107.49667664907443,108.03164232549653,108.47723993208392,108.83906607701425,109.1222944530807,109.3317097441138,109.47174000300386,109.54648720985158,109.55975584005328,109.53289123854867,109.49700494729241,109.4885338419518,109.54695793840095,109.7139423770293,110.0334647458263,110.55269427987534,111.32354353008003,112.40494645511463,113.86605859908377,115.79076060289577,118.28413065057029,121.48203382112403,125.56585493910491,130.78610350043692,137.5021346115425,146.2530478262449,157.89383522822348,173.88244673367424,196.96370338828007,233.07232768209593,293.00220402606817,378.2179267954451,489.15735616139557
IN4,0.0,0.0,0.0,0.8752382376778415,3.044079868612847,6.658166576338891,11.718197166783035,18.143906706810412,25.815851281312774,34.599878989918686,44.36101910618782,54.970954506695385,66.31165111270275,78.27673026595679,90.77155649313293,103.7126322683762,117.02665528077233,130.64944775027152,144.52487752580635,158.6038358593846,172.8433036603534,187.20551843834403,201.65724288258198,216.16912987609606,230.715175694066,245.27225193308277,259.8197065850548,274.3390251266591,288.8135432502353,303.22820373936344,317.5693508894567,331.82455673312654,345.9824741222181,360.03271243044554,373.9657277902279,387.77273641615375,401.445639790666,414.9769603406138,428.3597861666253,441.5877234765341,454.6548555232019,467.55570700972356,480.28521308013,492.8386921528867,505.21182197539173,517.4006183807977,529.4223795086556,541.3090809555925,553.1035381048122,564.8574491292618,576.6307748550408,588.4921495774001,600.5201926892722,612.8057368846032,625.4551330107435,638.594965307134,652.3787566162456,666.9966319666929,682.6895716162145,699.7710829108172,718.6614137907388,739.9441031414414,764.4649054026482,793.5176674963183,829.2273730219382,875.4415539875292,940.1551343447079,1037.9351322505047,1173.9202964964088,1352.2198975440404
D4,0.0,0.0,0.0,0.0,0.0015884290967094193,0.006916651125094835,0.018147282861259377,0.03718150345968109,0.065547059012084,0.10437559401596984,0.15442671168739133,0.21613375957163464,0.2896570445016643,0.3749366454662538,0.4717408477341649,0.5797084767787709,0.6983846909120381,0.8272504830842651,0.9657464830096605,1.1132917867733587,1.2692985615479033,1.433183131909441,1.6043741836161614,1.7823186393048032,1.966485678888008,2.1563693010457166,2.3514897536881523,2.551394101493269,2.7556561474887267,2.963875882551754,3.175678600801721,3.3907137892499395,3.608653875856944,3.8291929005017784,4.05204515754931,4.276943837931824,4.503639710716599,4.7318998588391095,4.961506479446696,5.192255755482647,5.423956801971312,5.656430687965109,5.889509533221983,6.123035677304984,6.356860917839418,6.590845814040419,6.824859051260283,7.058814907260953,7.2926941122402305,7.526555223433442,7.760541125083121,7.9948836957372995,8.229908747502476,8.466042843215325,8.703823427888157,8.943913826025668,9.187125074334208,9.434447373668212,9.687095365743765,9.946573892147539,10.214775221853657,10.494126697483,10.78782322316771,11.100211188188887,11.4374631949637,11.808865941746582,12.229568904173721,12.727397778371673,13.353233366913836,14.161084760387192
R4,0.0,0.0,0.0,0.19811966082594484,0.7944344079580583,1.9675225643325052,3.8645648092444382,6.599039922001332,10.252444650397395,14.877928973807236,20.504631931406095,27.142045108701794,34.784055675768315,43.41251217139754,53.00026587219132,63.513700684884995,74.91479490324727,87.16277110622183,100.21539343443816,114.0299690207767,128.5641051987095,143.77626787621344,159.62618005892693,176.07509342896955,193.08596037768467,210.62352904476677,228.65437974112348,247.1469175908832,266.07133325940333,285.39954117083556,305.10510259226425,325.16313930709555,345.5502422597186,366.24437847479066,387.22479767901194,408.4719424733187,429.9673622394402,451.6936315437508,473.6342735083903,495.77368838736436,518.0970874071883,540.5904317991665,563.2403768552118,586.0342207736487,608.9598580192572,632.0057368975309,655.1655662783651,678.439313303228,701.8337620533174,725.3628875396336,749.0482180911688,772.9193138521629,797.0144698214157,821.3817538911192,846.0805132756196,871.1835309810629,896.780098722177,922.9804164747459,949.9219756621719,977.7790206746021,1006.7769957889772,1037.2154805839878,1069.5064792663748,1104.242650431041,1142.3298110977769,1185.275813104551,1235.924630851652,1299.4626360060913,1380.4970979040604,1483.6569100726429
G4,0.0,0.0,8.78837923495849,23.484405529252385,42.24191100438017,63.864900508578685,87.56850181824204,112.82953556009244,139.2926517886188,166.71107224050257,194.90897211697973,223.75744888126263,253.15905956074954,283.0377882521031,313.3324743357724,343.99246059089313,374.97467602454213,406.24165400895777,437.76016619594276,469.5002663480777,501.4346103931526,533.5379650746567,565.7868471643912,598.1592543554945,630.6344614558137,663.1928637422719,695.8158548289148,728.4857301061089,761.1856093402914,793.8993737779314,826.6116143299553,859.307588291101,891.9731826828695,924.5948377944992,957.1595826437987,989.655000722878,1022.0692035030547,1054.3908085744208,1086.608920706251,1118.7131148627418,1150.6934206102508,1182.5403075717704,1214.244671707556,1245.7978222724228,1277.1914693436936,1308.6282059488537,1340.285733589716,1372.332161475039,1404.9376783070948,1438.2843600570839,1472.5754768756995,1508.0454922253527,1544.9719845431373,1583.6909878895153,1624.6178244670116,1668.276568337861,1715.3432008008526,1766.7110368302851,1823.5936900254198,1887.6942075154766,1961.4974178402538,2048.8076686455056,2155.817857798464,2293.456541109902,2483.24777285192,2774.462192842785,3248.876120417896,3840.5681974449117,4549.833917905073,5371.84073957846
H4,42459.537191098454,43167.19614428343,43871.76610997434,44573.43998273657,45272.3943119597,45968.79146614484,46662.78067153279,47354.49897621274,48044.07214503822,48731.615490296776,49417.234642726224,50101.02626714242,50783.078726638734,51463.472699034384,52142.28174898632,52819.57285893519,53495.40692182951,54169.83919836175,54842.91974125488,55514.6937889564,56185.20213092847,56854.48144656661,57522.56461963394,58189.48102996318,58855.2568240537,59519.91516607414,60183.47647067363,60845.9586189042,61507.37715846381,62167.7454893832,62827.07503619932,63485.37540758371,64142.65454432487,64798.918856499484,65454.17335060776,66108.42174739251,66761.66659101045,67413.90935017614,68065.1505118549,68715.38966803954,69364.62559610787,70012.85633322193,70660.07924519757,68035.34052275954,65421.425306132136,62819.87166905798,60232.385206807936,57660.85285179341,55107.35735758295,52574.192289341925,50063.87727243065,47579.17313828504,45123.09646222377,42698.93280585077,40310.24775229251,37960.89455260991,35655.01688728355,33397.044895501866,31191.682255813455,29043.881749279975,26958.806457066275,24941.77362185187,22998.17834935056,21133.394880824588,19827.05341237923,20412.713846803716,20994.295612711296,21571.829332426358,22145.345371829048,22714.873844019803
E_Om,0.0,0.0,0.0,0.0,0.0,0.0,0.0,0.0,0.0,0.0,0.0,0.0,0.0,0.0,0.0,0.0,0.0,0.0,0.0,0.0,0.0,0.0,0.0,0.0,0.0,0.0,0.0,0.0,0.0,0.0,0.0,0.738964431958482,1.1897597051827642,1.491402290346254,1.717833536863707,1.9085600769679325,2.0848489961889713,2.2582991041791813,2.4353833012704498,2.619859141975206,2.814049981006745,3.019527004030392,3.23747304271917,3.4688771496049267,3.746904044147099,4.073662680480625,4.455165525242967,4.900930234108877,5.424208249938269,6.042757917894856,6.780211140289777,7.668215469288564,8.74970844053715,10.083955897073299,11.754463338735842,13.881750838678578,16.644695351490185,20.317651595286556,25.338173535442678,32.437836923638216,42.91320160353668,59.23777859987326,86.60435429474194,137.39884782466976,246.62195890476198,473.3226327312028,667.9927820314728,923.2960793646369,1221.3414783429776,1557.866276956267
I_Om,0.0,0.0,0.0,0.0,0.0,0.0,0.0,0.0,0.0,0.0,0.0,0.0,0.0,0.0,0.0,0.0,0.0,0.0,0.0,0.0,0.0,0.0,0.0,0.0,0.0,0.0,0.0,0.0,0.0,0.0,2.0,1.6315804957568485,1.465225593011691,1.4113806463746505,1.4222336535085072,1.4722080178722272,1.5476131232020207,1.6411424641687815,1.7489418432661967,1.8690425416833016,2.000520880874605,2.143045261008004,2.2966304981583145,2.4615034848803186,2.638028932785296,2.8325271816189685,3.0505372952447485,3.2976698697462363,3.58023040923604,3.905769383864083,4.283671361778633,4.725883805814095,5.247900629120285,5.870159198965959,6.620094973406697,7.535254378394938,8.668154225356135,10.094121803209864,11.924432011439006,14.329322927745707,17.58052944539478,22.13518935937271,28.815428174446314,39.23495329214662,56.959531181257056,91.25431039140112,160.40117260759303,252.16318585743437,373.3855785689474,526.4035541686779
A_Om,0.0,0.0,0.0,0.0,0.0,0.0,0.0,0.0,0.0,0.0,0.0,0.0,0.0,0.0,0.0,0.0,0.0,0.0,0.0,0.0,0.0,0.0,0.0,0.0,0.0,0.0,0.0,0.0,0.0,0.0,0.0,0.0,0.015126403727487673,0.03645518792595569,0.05969276216098396,0.08291781285868116,0.10540197896006756,0.12699790301614264,0.14782512356236727,0.1681117699835893,0.1881172619641863,0.20809669374888884,0.2282863025312108,0.24889929035803954,0.27012646454752876,0.29279934390288254,0.3176263133504665,0.34529715454571586,0.3765585168032607,0.412278973198169,0.45351689091844916,0.501602702618078,0.5582485715782733,0.6257031485885167,0.7069785106199915,0.8061936550080707,0.9291107939784271,1.0840012616930932,1.2830980945525385,1.545144336322536,1.9001095850076424,2.398509756971396,3.1313897021870307,4.277880262470075,6.234822588120428,10.036144610693903,17.717704943145492,27.847800415900128,41.177868745077795,57.94283532555357
R_Om,0.0,0.0,0.0,0.0,0.0,0.0,0.0,0.0,0.0,0.0,0.0,0.0,0.0,0.0,0.0,0.0,0.0,0.0,0.0,0.0,0.0,0.0,0.0,0.0,0.0,0.0,0.0,0.0,0.0,0.0,0.0,0.3684195042431515,0.6689725429329183,0.9388813862237909,1.1988714652416546,1.4608607740134198,1.7320558480570587,2.017141277862201,2.3194557243829244,2.641627867806042,2.985923731114203,3.35443918669415,3.749209023009752,4.172270757790346,4.625703704586545,5.111654360384469,5.633433490388126,6.195372209382782,6.802835158667524,7.4623485148910245,8.181829324936668,8.970923364660202,9.841477249084587,10.808191723133493,11.889532294089202,13.10901834816174,14.49708568937889,16.093844230583333,17.95327990583761,20.149876570855376,22.789477595445426,26.027982566747664,30.105500311801848,35.41358319309367,42.641044213541605,53.13354533340214,69.94347923062747,99.49093947668229,145.9418574376671,214.72312231162408
G_Om,0.0,0.0,0.0,0.0,0.0,0.0,0.0,0.0,0.0,0.0,0.0,0.0,0.0,0.0,0.0,0.0,0.0,0.0,0.0,0.0,0.0,0.0,0.0,0.0,0.0,0.0,0.0,0.0,0.0,0.0,0.0,0.0,0.13419813594460947,0.3502620325984413,0.621105118750162,0.9330687918856466,1.2796689712590796,1.6582837420309826,2.068397567649121,2.510670409489343,2.986444611988808,3.497484447702154,4.045839521168067,4.633774242670664,5.26373263737184,5.944181542003436,6.683970785632873,7.493042079129017,8.383065567903564,9.368117898755107,10.465500686715298,11.696807170474296,13.08937787820487,14.678350922099451,16.509627267495894,18.644272726556675,21.16523991473502,24.187966033793195,27.877711917276617,32.47919949860108,38.37000704084021,46.16317192612038,56.920928486248165,72.6485364852403,97.60057539479868,142.38785572480327,228.34465183822047,349.6541253341167,517.3274360066146,739.1266764803019
beta,1.0,1.0,0.996729185563945,0.9939503192795011,0.9914754188279838,0.9891926308946096,0.9870350681963449,0.984962634622014,0.9829512701852801,0.980986541988064,0.9790598063458911,0.9771659025360204,0.975301763392055,0.9734655767242213,0.9716562785917564,0.9698732469490162,0.9681161164979187,0.9663846669643031,0.9646787559030323,0.96299827852753,0.9613431439439192,0.9597132613382456,0.9581085321937153,0.9565288461494992,0.9549740790468471,0.9534440922761055,0.951938732886016,0.9504578341265442,0.949001216226966,0.9475686872889694,0.946160044223276,0.9447750736871502,0.9434071506164108,0.9420636772167255,0.9407437083919076,0.9394466162798601,0.9381719376077238,0.9369192934394521,0.9356883470397376,0.9344787818239101,0.9332902898983373,0.9321225661832538,0.9309753054752301,0.9298482010518526,0.9591829280462912,0.9914347503744101,1.0270602093162131,1.0666148050209143,1.1107818287413287,1.1604115120623029,1.2165751703728946,1.28064154153588,1.3543866984073447,1.4401560273163487,1.5411092748793729,1.6616024921710781,1.8078041423336844,1.9887293766998295,2.2180596223673748,2.5175272596182916,2.923648598848194,3.5022574008432565,4.383164377010924,5.853126358197255,8.633402872165576,12.024212627602076,7.902762596279773,6.062134523564683,4.80478345490039,3.9199739131519635
