series,2021-11-01,2021-11-02,2021-11-03,2021-11-04,2021-11-05,2021-11-06,2021-11-07,2021-11-08,2021-11-09,2021-11-10,2021-11-11,2021-11-12,2021-11-13,2021-11-14,2021-11-15,2021-11-16,2021-11-17,2021-11-18,2021-11-19,2021-11-20,2021-11-21,2021-11-22,2021-11-23,2021-11-24,2021-11-25,2021-11-26,2021-11-27,2021-11-28,2021-11-29,2021-11-30,2021-12-01,2021-12-02,2021-12-03,2021-12-04,2021-12-05,2021-12-06,2021-12-07,2021-12-08,2021-12-09,2021-12-10,2021-12-11,2021-12-12,2021-12-13,2021-12-14,2021-12-15,2021-12-16,2021-12-17,2021-12-18,2021-12-19,2021-12-20,2021-12-21,2021-12-22,2021-12-23,2021-12-24,2021-12-25,2021-12-26,2021-12-27,2021-12-28,2021-12-29,2021-12-30,2021-12-31,2022-01-01,2022-01-02,2022-01-03,2022-01-04,2022-01-05,2022-01-06,2022-01-07,2022-01-08,2022-01-09
S,754296.3816872744,754292.8944661277,754279.18138359,754260.7235322949,754239.9875136691,754218.0729164113,754195.4591752067,754172.3445022394,754148.7999012319,754124.8392229533,754100.4510344723,754075.6130922156,754050.2988798493,754024.4805243572,753998.1300601193,753971.2199417843,753943.7232182533,753915.6135565109,753886.8652015651,753857.452911744,753827.3518870102,753796.5376980554,753764.986219409,753732.6735677295,753699.5760455362,753665.6700902291,753630.9322280951,753595.3390329431,753558.8670890077,753521.4929577818,753483.1931484636,753442.5696520162,753401.4711157045,753359.5069312715,753316.5188062988,753272.4290078158,753227.1872214708,753180.7518495696,753133.0833543808,753084.1418170269,753033.8859687245,752982.2727309114,752929.2569246521,760667.851390351,768402.5131038624,776132.8587747281,783858.2797743594,791577.9680189185,799290.9026405641,806995.8079069229,814691.0835665162,822374.702085872,830044.060570991,837695.7663984454,845325.3221011322,852926.6527065496,860491.3800932085,868007.6800525723,875458.4316227369,882818.1321108892,890047.6033464844,897084.674321237,903827.5625995346,910105.8249331636,915635.136907249,912181.296051137,908287.7842519388,903649.6444441737,898322.7367845825,892367.3226628986
E,173.79397559968035,142.3957795126491,127.52596000497876,120.38570694943625,116.95687405243429,115.39488453192936,114.84557489058254,114.90745915389489,115.38684951740657,116.18608980695474,117.25240993388124,118.55444291575633,120.0713907810611,121.78798698716054,123.69212202716935,125.77369684931541,128.02404531755232,130.43562275379767,133.001820888736,135.71684460172798,138.57562038395778,141.5737223951983,144.70730935085288,147.9730688921058,151.36816768515175,154.89020624612442,158.53717784899493,162.30743105338613,166.19963548456323,170.21275055350225,174.34599684158889,178.59882990173156,182.9700023059755,187.45984787377546,192.0684858446102,196.79606834704413,201.64284469704995,206.60916785443456,211.6954840433114,216.90231839487666,222.23026032710874,227.67994953659138,233.2520626655424,238.94730051379528,247.10404155428998,257.553042581529,270.3590975880454,285.7460564678506,304.07118922306057,325.8289351848739,351.67585014493056,382.4755927910014,419.3679713415934,463.8713106782741,518.0344027603295,584.6652403674207,667.6821010612659,772.6645620489293,907.7391099650357,1085.036963363248,1323.1458444890175,1651.2882088176452,2116.377838658654,2794.130169259025,3802.2308058057597,5297.3070726198,6611.251349944776,7898.617428873268,9093.731145820626,10141.991383376893
I,9.554614798872121,37.49476444051921,49.679634311095064,54.78097662710895,56.75148966002035,57.39150447628066,57.518408555481805,57.500298774174894,57.49990223024286,57.586230911327895,57.78575061864775,58.105844061942264,58.54556414387694,59.10054930885873,59.765254954360394,60.533950618579084,61.401150168779736,62.36178241228174,63.41124387650245,64.54539911749481,65.76055865527134,67.05344834061574,68.42117642359203,69.86120110932538,71.3712997766973,72.9495402944785,74.59425453136973,76.30401400551983,78.07760755510343,79.91402088786558,81.8124178624576,83.77212335776146,85.79260759347238,87.87330670746432,90.01392064414131,92.21427918322945,94.4743010181282,96.79397921702949,99.17337309766911,101.61260116010588,104.11183397724552,106.67128701084673,109.29121349046014,111.97189745453369,114.71364699357682,117.93899063757522,121.88738609815876,126.72356552991275,132.59323325478118,139.65403035373453,148.0960002926036,158.1591735217895,170.15293017792746,184.48084459656064,201.67505104933701,222.44564936754944,247.75358981945843,278.92066035189873,317.7992940428891,367.0410365183957,430.531410436393,514.1106349818365,626.7888395869804,782.7971509195609,1004.9050994415217,1328.9190177556113,1806.0098588740543,2348.2132584854094,2927.227763572163,3513.1054881663395
A,1.0643840248780738,4.518493952608682,7.202657412523093,9.480232661986193,11.52300728795249,13.415050220565432,15.19995372217,16.902380044227137,18.537926723562897,20.1176701790853,21.650278768652157,23.143012250406873,24.602208776211025,26.033534417427475,27.442121350396306,28.832652739894037,30.209421156883824,31.576373038619934,32.937145103152474,34.29509558350408,35.65333173200125,37.01473438228064,38.3819800406914,39.757560823860985,41.14380247917191,42.54288068013197,43.956835760750636,45.38758603353514,46.836939820616834,48.306606314936346,49.79820537745848,51.31327636660442,52.8532860872464,54.41961755018492,56.01360513967959,57.63653224199225,59.28963394785869,60.97410094048788,62.691083357880025,64.44169429175501,66.22701285760205,68.04808684771962,69.90593499624887,71.80154888531182,73.73589451758046,75.75694698169411,77.90735644048834,80.22936999971498,82.76804801216018,85.5738358898704,88.7051084356907,92.23111429182096,96.23570768129258,100.82232002459037,106.12079221848964,112.29699072681379,119.56664095169597,128.21567078927706,138.63082642928651,151.34688132947292,167.121287181735,187.05516681939577,212.79353064470948,246.85945849914538,293.1984465268947,357.96591943326143,450.2222975746063,565.2232355566696,701.5238326191381,856.4156555253894
IH,0.0,1.537642031625278,6.904865691696516,11.90524590082341,15.557918175416194,17.943536360036163,19.397505185842537,20.24130727011137,20.71623599216862,20.985123209267947,21.151286452726367,21.27749339176794,21.400477325166207,21.540887816664444,21.70971675301178,21.91229651092151,22.150724589020534,22.42530590231296,22.735397006934512,23.07989267666379,23.4575014997255,23.866898397711232,24.306806066834255,24.7760357981967,25.273505372903372,25.798244242330195,26.349391845549825,26.92619239341503,27.527987996028536,28.15421117732953,28.80437734499123,29.478077513711803,30.17497142755915,30.89478114185276,31.637258513778143,32.402214732126716,33.18951547968194,33.99907160809235,34.830831517304475,35.68477553244189,36.56091158210381,37.4592716068544,38.37990836922488,39.32289250121955,40.28830971241734,41.276258121535946,42.35479159965383,43.60098527354657,45.08499726249491,46.87000641578115,49.017160243234656,51.591670488269116,54.66909495927793,58.34201099197899,62.727792889557385,67.97854681134635,74.29468781665251,81.94435801282063,91.29212345996473,102.84255259252758,117.30809954187745,135.71752985927228,159.5933084877121,191.247620776015,234.28009375803344,294.3935310013118,380.5797970199382,506.16600101495794,664.5429843261179,847.4133899623469
IN,1.9109229597744244,3.8027366899511046,11.263662211155436,21.086952451262896,31.832278252172056,42.864253401654395,53.91391176289399,64.8784543563614,75.72972956763276,86.47241271800502,97.12493477309054,107.7108355490892,118.25489600598675,128.78145987470225,139.31375513772696,149.8736685772218,160.48172201516536,171.15713482876967,181.91791996293836,192.78098953860945,203.7622594667223,214.87674860310935,226.13867078520138,237.5615193620678,249.1581443903122,260.94082290174856,272.92132273162673,285.1109604105844,297.5206536075825,310.1609685825274,323.0421630742752,336.17422501602397,349.5669074374161,363.22975988173636,377.1721236244119,391.403186516996,405.932010488472,420.7675505872129,435.9186709247467,451.394158835033,467.20273747870385,483.35307689936593,499.8538035325416,516.7135081953082,533.9407526042619,551.5440744769346,569.6164318596802,588.2977447607152,607.7594804190907,628.2005322658559,649.8493330139444,672.9700397423255,697.8721740492603,724.9240383443532,754.5709668802217,787.3602674212868,823.9757946205839,865.2867546382697,912.4180191622668,966.8536977792219,1030.5933681051088,1106.3937165113364,1198.15190634259,1311.5281551965604,1454.9723038285072,1641.4036006785261,1890.7733682228632,2233.0676063154456,2680.3795819493726,3239.0213388443117
D,3364.0,3364.0,3364.0243195719895,3364.1335279409172,3364.321823056936,3364.5678893736035,3364.851686977521,3365.158480765727,3365.4786202515083,3365.8062712796436,3366.1381750674586,3366.4727069175137,3366.809234875034,3367.14770796449,3367.4884018068833,3367.831765872506,3368.178333969303,3368.5286730795688,3368.883355008174,3369.24294138319,3369.6079763522657,3369.9789836378936,3370.356466004931,3370.740906016209,3371.13276743377,3371.532496903117,3371.940525719418,3372.3572715670803,3372.7831401768426,3373.2185268741564,3373.6638180091913,3374.119392267732,3374.5856218669937,3375.062873642651,3375.5515100343673,3376.051889557141,3376.564367739706,3377.089297986414,3377.6270322916357,3378.1779218336246,3378.7423174794562,3379.320570221604,3379.913031557719,3380.520053819953,3381.1419904575814,3381.779196275478,3382.432027630374,3383.101917229013,3383.791516809651,3384.5045877416546,3385.245890640341,3386.0211532390126,3386.837134669476,3387.7017890969228,3388.624534903268,3389.616646879628,3390.691805550457,3391.8668612341894,3393.162905224177,3394.60679484407,3396.233367745912,3398.088729860829,3400.235258226852,3402.7594094109445,3405.784209842811,3409.4896181814956,3414.1457894640357,3420.1650953759963,3428.1706911175474,3438.681200465727
R,0.0,0.061701902668530414,0.9231018642641969,4.209409831308587,9.774680503707316,17.055549882214674,25.51936835647029,34.772702053729255,44.556419143216345,54.71256360000288,65.15171457093524,75.82815735557266,86.72293290111313,97.83293393115979,109.16415250880145,120.727611704966,132.536969187662,144.60713613144836,156.95350124609865,169.59151001241443,182.53644955759285,195.80335084544836,209.40695657661072,223.36172492627986,237.68185198333364,252.38130316062683,267.4738481248097,282.9730962509187,298.89253100916375,315.2455424856505,332.04545768420195,349.30556850238196,367.03915740715854,385.25952090359874,403.97999018589064,423.2139395625991,442.97480767553577,463.276117080213,484.1314902754576,505.5546628624901,527.5594946357845,550.1599791168449,573.3702518038651,597.204597274062,621.6774552083742,646.8034253775725,672.5991537159133,699.1123612100636,726.4260672478983,754.6561271446578,783.9488053543957,814.4805392987316,846.4604301279645,880.135604304556,915.7996970426998,953.8050417451857,994.579645309591,1038.650736386976,1086.677730335454,1139.4991144836058,1198.2004690642343,1264.2154052041406,1339.4790706157978,1426.667628865469,1529.5810402130232,1653.7658817096017,1807.527362753663,2003.4903459980774,2259.958917771747,2592.53840152353
G,178108.0,178139.38871463304,178165.10663996762,178188.138945622,178209.88165901753,178231.00509515122,178251.84642229267,178272.58853930028,178293.34183314804,178314.1817090955,178335.1659348415,178356.34274734464,178377.75471841163,178399.44066355337,178421.43664100938,178443.77652193597,178466.49235351259,178489.61461773823,178513.1724339771,178537.1937280821,178561.7053792564,178586.73335038323,178612.30280500028,178638.43821287536,178665.16344553547,178692.50186278266,178720.47639105123,178749.109594343,178778.4237383953,178808.44084866822,178839.18276268218,178870.67117718785,178902.92769060403,178935.97367605302,178969.8305669479,179004.5198182374,179040.06291234604,179076.48137672694,179113.79680258088,179152.03086170068,179191.20532072234,179231.342052736,179272.46304636655,179314.59041244656,179357.7463883789,179402.3755432058,179448.89187916374,179497.72110085198,179549.3293421218,179604.24726291696,179663.09482325625,179726.6105628867,179795.68900588105,179871.43053566225,179955.20975842932,180048.77131015883,180154.3669749247,180274.9562120573,180414.5062014142,180578.45183753668,180774.41901932078,181013.39075115015,181311.6278688905,181693.8642485127,182198.50863694923,182885.22483249402,183841.9649004529,185036.01481659475,186462.57432543294,188104.98184215438
H,171447.32795515214,171447.32795515214,171447.32795515214,171447.3279551521,171447.32795515214,171447.3279551521,171447.32795515214,171447.3279551521,171447.3279551521,171447.3279551521,171447.32795515214,171447.32795515214,171447.3279551521,171447.3279551521,171447.3279551521,171447.3279551521,171447.3279551521,171447.3279551521,171447.3279551521,171447.3279551521,171447.3279551521,171447.3279551521,171447.32795515208,171447.32795515208,171447.32795515208,171447.32795515208,171447.32795515208,171447.32795515208,171447.32795515208,171447.3279551521,171447.3279551521,171447.3279551521,171447.3279551521,171447.3279551521,171447.3279551521,171447.3279551521,171447.3279551521,171447.3279551521,171447.3279551521,171447.3279551521,171447.3279551521,171447.3279551521,171447.3279551521,165785.82788012477,160192.96081697103,154671.90794031104,149226.0704045574,143859.08307530044,138574.82803046066,133377.4474155028,128271.35509876159,123261.2464016708,118352.10496983238,113549.20560094345,108858.11155357154,104284.66452999506,99834.96516742946,95515.34150663894,91332.30257279637,87292.47395946288,83402.51223821548,79668.99523884118,76098.28590062191,72696.3686420644,69468.65918112954,69468.65918112954,69468.65918112954,69468.65918112954,69468.65918112954,69468.65918112954
S0,264003.73359054606,263407.80742427486,262451.97959589155,261496.9565368471,260544.09406038513,259593.99359687223,258646.91330657576,257702.95527834576,256762.1508539594,255824.49954819094,254889.98680236746,253958.59207032874,253030.29248401383,252105.06449673668,251182.88460165937,250263.72962837853,249347.57684829802,248434.40399463166,247524.18924557092,246616.91119280996,245712.5488055014,244811.0813941384,243912.48857629223,243016.75024495836,242123.84653972663,241233.7578207528,240346.4646454043,239461.94774741473,238580.1880183698,237701.16649135156,236824.86432657458,235950.71946236404,235079.45666457686,234210.91129626054,233345.01179282935,232481.71888819523,231621.00440821834,230762.8438380856,229907.21369234112,229054.0905611197,228203.45074087087,227355.27006751072,226509.52381787763,228005.09933841147,229455.01238814168,230857.87184246187,232212.10013015397,233515.94534726127,234767.47428101426,235964.55227374655,237104.81130663244,238185.604556289,239203.94274914337,240156.40393241675,241039.00266498554,241846.99537129843,242574.58265414447,243214.44107559355,243756.965509686,244189.00793583624,244491.72062415257,244636.78544829035,244579.7673924072,244248.73509761822,243527.29451329945,241179.90959386248,238684.56179304916,235925.97258034814,232936.67948053352,229750.50798648904
E0,173.79397559968035,140.8306487617155,120.14894816508,106.26439136883984,96.44897793413475,89.27450497032551,83.94178808369907,79.96776459537024,77.03697014498073,74.92909183998356,73.48216592877668,72.57280113371296,72.10477885580842,72.00195801778656,72.20352631474847,72.66062548930769,73.3338448439185,74.1913031743269,75.20715260969777,76.36039753115189,77.6339552665898,79.0139055352153,80.48888881803323,82.04962299878001,83.6885143084912,85.39934365768102,87.17701334046323,89.01734214926587,90.91689935096133,92.87286988998045,94.8829447085387,96.94523129026027,99.05768459024829,101.21930067851613,103.42910114905801,105.68623738591052,107.99000112722878,110.33980850641623,112.73517891933365,115.17571492015915,117.66108453429041,120.19100596289196,122.76523431540207,125.3835499828756,129.25562144671994,134.2836421048765,140.4902647271296,147.97860701024786,156.91797207933973,167.54464527252318,180.17330521115497,195.21821277767492,213.22593686009378,234.9239176998628,261.2924957405404,293.67317986936456,333.93452904206634,384.73196002153674,449.9243371935858,535.2578607514466,649.5124545657195,806.4471691213768,1028.0660226229115,1349.7064124726994,1825.8976320557654,2528.234760516316,3140.2373765836523,3734.702698716971,4280.615732807663,4752.7418574039975
I0,9.554614798872121,37.49476444051921,49.39695798508926,53.26797422660791,53.23414473282668,51.43977572063439,48.99727899831547,46.473221796107836,44.14243382206335,42.12357435631413,40.45268432446614,39.12354426089893,38.109893957556174,37.37757343043074,36.89100037679837,36.61645204596214,36.52355307337326,36.585773614366225,36.78040126592997,37.088252903225495,37.49327720982833,37.98213102072983,38.54377301975668,39.16909542498164,39.85060131172525,40.58212813315038,41.35861437992928,42.175904712418536,43.03058842276506,43.91986621582084,44.841440727572774,45.79342674983232,46.77427770109058,47.7826358573702,48.81745222199742,49.877879705933466,50.96322369409295,52.07291236181817,53.20647482277201,54.363523347185634,55.543738367123375,56.74685569938069,57.97265561755263,59.22095347211561,60.49159159614446,62.002945955593816,63.87690894131825,66.1954693842277,69.02964769259933,72.45540837359528,76.56397312491673,81.47047254225416,87.32330206482351,94.31601161815013,102.70367487194028,112.8263593522168,125.14367963496565,140.28683886572696,159.13881039000046,182.96081904835074,213.59668753887217,253.81047535783495,307.85360990036753,382.4171613883442,488.1594231207712,641.74023878587,866.7370820775872,1121.0584281851052,1390.9527405234014,1662.0302706656694
A0,1.0643840248780738,4.518493952608682,7.171167271691113,9.301578527043361,11.067383970112637,12.5650441744499,13.858424544101497,14.992755386203845,16.001737928311044,16.91137771622523,17.742206996345388,18.510677710575052,19.230100845899734,19.91131883293299,20.56320828434026,21.19306707159178,21.806918013510394,22.409749982270228,23.00571077009015,23.59826213566301,24.190304883065593,24.78428003683162,25.382250867339053,25.985969529173587,26.596931307778835,27.216418867634893,27.84553841885166,28.485249340243975,29.136388494747955,29.799690231455674,30.475802875154752,31.165302349281415,31.868703453888145,32.5864592427276,33.318984441148075,34.06665749339085,34.82982462577619,35.60880395984309,36.40388913980697,37.2153523896723,38.04344704351934,38.888409618677194,39.750461498194475,40.629810279044364,41.52665083245325,42.46550853743296,43.46795950821384,44.55517223305672,45.74954282534978,47.07597753719626,48.56313998275885,50.24487804100384,52.16201997743697,54.36475712767416,56.91590832048005,59.89550287788435,63.407358557719746,67.5887337790373,72.6248208850961,78.77104115003897,86.3882073262853,95.9993442297353,108.3833767241719,124.73077678063444,146.89536001936048,177.7538785672676,221.50844740848152,275.82550112003526,339.92952140371176,412.4520073697334
IH0,0.0,1.537642031625278,6.904865691696516,11.859754270929209,15.288666064524396,17.22500661581855,18.032780616954778,18.097145593837503,17.727394084109,17.14290659339058,16.487013853045955,15.846683857349174,15.27016546949071,14.78055580437464,14.385437274472057,14.083377455842555,13.86813810478279,13.731298154119408,13.663819275519177,13.65692793511186,13.702568524855186,13.793596004224206,13.923816812839863,14.087946652161369,14.281527303800756,14.50082759491443,14.742742820786269,15.004700236173466,15.284574174831324,15.58061198530159,15.891370649324625,16.21566326991933,16.55251431999835,16.901122466579825,17.26081541559557,17.631043631477365,18.011359589884123,18.401398073114585,18.800860234419922,19.20950105696044,19.627119390191215,20.053549894359595,20.488656422449914,20.932326513741653,21.384466765996432,21.84499891211012,22.349022282279634,22.936029916240727,23.641581246707283,24.49724294509022,25.53311625441777,26.780927917236482,28.277172896374985,30.066399760238184,32.204984611331575,34.765902588518735,37.84520704672891,41.57125941148214,46.118331163189396,51.72721038907263,58.7372260971245,67.63726935316433,79.14902329868093,94.36536558573609,114.98199674020088,143.67444711362623,184.6389631451534,244.04623640321853,318.61684738888664,404.28060794178197
IN0,1.9109229597744244,3.8027366899511046,11.263662211155436,21.030417186061733,31.473707859522698,41.805799727492804,51.67569687434475,60.9583957052644,69.64345610743332,77.77550831077166,85.42246809892677,92.65878028283073,99.5569013321822,106.18331111037162,112.59699268535405,118.84922283386018,124.984021014714,131.0388914192415,137.04565722792233,143.0312809088291,149.0186186803859,155.0270879355477,161.0732432603382,167.17126543168615,173.33337186236562,179.57015840608702,185.8908824486562,192.3036965001555,198.81584047763764,205.43379975741428,212.1634350030043,219.01008879848882,225.9786732604704,233.07374206808382,240.29953181887703,247.66002694508774,255.15900261682356,262.80005732947393,270.5866392285428,278.5220678008118,286.6095517922408,294.852203947743,303.25305304814174,311.81505364117083,320.54109379918225,329.43400118041933,338.5402503597339,347.9302296444002,357.69002122480174,367.9190505510736,378.7309417202819,390.25642692806247,402.6479571672327,416.08613800852504,430.7884789520698,447.02132913693714,465.1163877160111,485.4939597658441,508.69638794133107,535.4371861399178,566.6749780881887,603.7275658150812,648.4523852284974,703.5385833562859,772.9866298003919,862.8886481265422,982.6078094024508,1146.1291477239438,1358.8795418837253,1623.4812945695685
D0,3364.0,3364.0,3364.0243195719895,3364.1335279409172,3364.3211035546424,3364.5629113404175,3364.83534457247,3365.1205536766493,3365.406780786747,3365.687159852713,3365.9582945787647,3366.2190556089963,3366.4696890860605,3366.71120426371,3366.944975703056,3367.172497889758,3367.395242654047,3367.6145831611775,3367.83175938757,3368.0478683581173,3368.2638683342134,3368.480590168574,3368.6987517069047,3368.9189728366514,3369.1417898680197,3369.3676685993782,3369.597015816319,3369.830189199968,3370.067505740536,3370.3092488083835,3370.555674053679,3370.807014303602,3371.063483613196,3371.3252806084233,3371.5925912412486,3371.8655908305327,3372.1444460036028,3372.4293163096745,3372.7203555216274,3373.017712685736,3373.321532973054,3373.6319583732075,3373.9491282607846,3374.273179857053,3374.604248604585,3374.9424684686887,3375.287972176789,3375.641447592467,3376.004207207015,3376.378125924931,3376.7655779138195,3377.1694134269615,3377.5929845124533,3378.0402204280786,3378.5157550183153,3379.0251137803502,3379.5749763968747,3380.173541744535,3380.8310388831183,3381.5604531757162,3382.3785783251387,3383.3075749115765,3384.3773358880508,3385.6291684540415,3387.121664922331,3388.9402370540283,3391.2126131908612,3394.1328901239526,3397.992761207695,3403.032052016497
R0,0.0,0.061701902668530414,0.9231018642641969,4.208149713492028,9.746695638939276,16.893230235991098,25.012186461511188,33.61915549583861,42.391240435767855,51.13603764906665,59.75430653050765,68.20820318729481,76.49762924229583,84.64390607184043,92.67910568941923,100.6394137334147,108.561222053376,116.47899682836726,124.42425986786365,132.42524019986092,140.5069086651967,148.6912144190223,156.9974126574628,165.44241848363433,174.04115068781076,182.80684704231209,191.7513433998971,200.8853150404077,210.21848204488003,219.75978209511797,229.51751470378596,239.4994609163422,249.71298226255342,260.1651023344466,270.86257352438605,281.81192624407566,293.0195162501514,304.4915638914002,316.23418561217113,328.253419204889,340.5552441610848,353.14559813920135,366.0303902964744,379.2155120429152,392.70684564548765,406.51027101839395,420.63264505974087,435.09682033365203,449.9437039663874,465.2308199101625,481.0308743023818,497.43143542544476,514.5359915164179,532.4664398573284,551.3671084864491,571.4105731056624,592.8057706842842,615.8092489509387,640.7408917191237,668.0062425767367,698.1288232682529,731.7979810545799,769.941471532931,813.83837572929,865.2990028410775,926.9564593417189,1002.7379569544041,1098.5860454241274,1223.0683909482686,1383.4054711028475
G0,178108.0,178139.38871463304,178164.82396364163,178186.5239163264,178205.71619640873,178223.13572683017,178239.25948457752,178254.42010693427,178268.86298583192,178282.77653757462,178296.30938802793,178309.58091098492,178322.6881946928,178335.71094947687,178348.71513391676,178361.75572335706,178374.87886891302,178388.12360378262,178401.52320313902,178415.10627380348,178428.89763060454,178442.9190030905,178457.18960668496,178471.7266051829,178486.54548594772,178501.6603648417,178517.08423450502,178532.82916688753,178548.90647877636,178565.32686733818,178582.10052131594,178599.23721241654,178616.74637054186,178634.63705624075,178652.91814874348,178671.59835057164,178690.68621097936,178710.19015130243,178730.11848742526,178750.47944843094,178771.2811916203,178792.53181433675,178814.2393630283,178836.41183991358,178859.05720754794,178882.40190521258,178906.65470745944,178932.0284801292,178958.75471302198,178987.0954735656,179017.35550439009,179049.8963818414,179085.15450141032,179123.6649737174,179166.09429146396,179213.28600542445,179266.3259546315,179326.63745623594,179396.12341892056,179477.38369608438,179574.05595522485,179691.36359501287,179837.0150191824,180022.69274993628,180266.46155304534,180596.23466240655,181052.85601046748,181620.0103928533,182294.53042063216,183067.6471252084
H0,60006.56478430324,59871.55001353856,59656.01243348982,59441.25078872926,59227.26228588983,59014.044141660626,58801.59358275065,58589.907845852744,58378.98417760767,58168.81983456828,57959.412083163836,57750.758199664444,57542.85547014565,57335.701190453125,57129.292666167494,56923.62721256929,56718.70215460404,56514.514826847466,56311.062573470816,56108.34274820632,55906.35271431278,55705.08984454125,55504.551521100904,55304.73513562494,55105.63808913669,54907.2577920158,54709.591663964544,54512.63713397427,54316.391640291964,54120.852630386915,53926.01756091752,53731.883897698215,53538.4491156665,53345.710698850104,53153.666140334244,52962.312942229044,52771.64861563702,52581.67068062073,52392.376666170494,52203.764110172284,52015.83055937567,51828.57356936191,51641.99070451221,49117.16683170432,46639.81628373956,44211.14929574645,41832.45352876445,39505.097472050984,37230.53345037566,35010.300030213264,32846.023561753325,30739.418524996858,28692.286266957908,26706.51162292571,24784.05680900432,22926.951859035747,21137.28076314721,19417.16235892752,17768.724947489452,16194.073581488838,14695.249036156123,13274.177672762575,11932.611789047902,10672.06067583217,9493.713504054185,9459.53613543959,9425.481805352007,9391.55007085274,9357.74049059767,9324.052624831518
S1,75429.63816872744,70635.3010044866,66536.27394329988,62726.06434478807,59184.41395026822,55892.30035606532,52831.96971707697,49986.89800125048,47341.72538540121,44882.18261914159,42595.017182431526,40467.92236747827,38489.47041731596,36649.05000933509,34936.808022604906,33343.59539026272,31860.916791097934,30480.8839255047,29196.172127736347,27999.98007920288,26885.992402277483,25848.344928975974,24881.59245323411,23980.678789066656,23140.90896957488,22357.923433581367,21627.674057650784,20946.401901451834,20310.616543881344,19717.076896156977,19162.77338623924,18644.868481963094,18160.8275085577,17708.22860370719,17284.82995034495,16888.552231401824,16517.465428706397,16169.777612104745,15843.824885231434,15538.06217065184,15251.054694516706,14981.470093453236,14728.071089862578,14639.886989521152,14559.078605686545,14485.033248202006,14417.154240896416,14354.86094136826,14297.58749533237,14244.780780852312,14195.897678224215,14150.401596971977,14107.758015162575,14067.428575127064,14028.86296720929,13991.487322113993,13954.686954931867,13917.779749769199,13879.973652722098,13840.296520738,13797.47683691392,13749.735993233788,13694.423303653499,13627.393161417733,13542.081385228237,13369.959679840118,13193.272389188349,13005.459608355217,12808.164731405552,12603.08902411404
E1,0.0,0.5491686845380975,2.4734702017325643,4.571164501714197,6.415711750482059,7.895937784454814,9.021110575102535,9.840301306759343,10.410169115794053,10.783059990929114,11.00345020937516,11.107666027698347,11.124760407955922,11.077684162977647,10.984420458674563,10.858972877227064,10.712186241216953,10.552412541530462,10.386044346162443,10.217938950218079,10.051754137115372,9.890213169482493,9.735313451708606,9.588490521561758,9.450746701286459,9.32275183962336,9.20492204592909,9.097481093032433,9.000508189549965,8.913975046575583,8.837774547962832,8.771742845400885,8.715637125807943,8.669249082961814,8.632336178729165,8.604641216736578,8.585901477265645,8.575853747981594,8.57423745748997,8.580796743199953,8.59528181849172,8.617449836385306,8.647065377696606,8.683900656217268,8.805419764183714,9.00319872593216,9.276677463940924,9.63036032285767,10.07275609093356,10.616298450755751,11.277921264890237,12.08020653356782,13.053186266323412,14.23702919051871,15.686031250552517,17.47461493304853,19.706517856494482,22.529174918169446,26.1567597425738,30.907970682167406,37.269289610529505,46.0021561742826,58.3224760232744,76.17922319684388,102.57178353703586,141.419205678543,175.09204832257282,207.64684340974847,237.38495910605852,262.9410933991098
I1,0.0,0.0,0.09918467579151084,0.5101161541743477,1.1515913342585835,1.894679071238586,2.6369045516116683,3.314453264839095,3.8954060768488885,4.3695976227637825,4.739985686041859,5.016493297153863,5.212022788818171,5.340066850156792,5.413393346641847,5.443409731495359,5.4399353141397615,5.411203972252173,5.363986157365447,5.303763203062744,5.2349153249957645,5.160902407119559,5.084427396091153,5.007578407707049,4.931949160921377,4.858739178903959,4.7888360192344335,4.722882044670445,4.661328184111365,4.60447691761556,4.552516441323852,4.5055476792774165,4.463605536374031,4.426668465051526,4.394685073020915,4.367578712596405,4.345253948766427,4.32760234257377,4.314507055683176,4.3058463589615315,4.30149624817387,4.301332362513742,4.30523136666098,4.313071922176027,4.324735345344376,4.354136482921102,4.408646426185232,4.492874649745369,4.610580446024274,4.765703020703908,4.963005426600034,5.208589982906245,5.510434994421694,5.8790631855085955,6.328454118029047,6.877348007688081,7.551162482195277,8.384877060109458,9.427474071078127,10.748938193884724,12.451554120918905,14.688551627743264,17.695377651695495,21.842102039740006,27.717226423566153,36.2385588013599,48.70045553265246,62.746066961803706,77.60185079637446,92.46667301922128
A1,0.0,0.0,0.011049172221747472,0.06037278796856929,0.14992787764604953,0.2730112561517434,0.4209511712330225,0.5856093516418142,0.7601604924883141,0.9391923834209979,1.1185625821294707,1.2951892658321265,1.466844812338243,1.631975280792441,1.7895506793516445,1.9389440505666713,2.0798352749635685,2.2121352388758293,2.3359264351427935,2.4514166728325857,2.558903173148516,2.65874485753641,2.751341076286152,2.8371153865870204,2.9165032792056342,2.989942984732664,3.057868674639986,3.1207055185220445,3.1788661745420446,3.2327483814875233,3.2827333929577938,3.3291850510501244,3.3724493416623784,3.4128535202748522,3.4507075557432496,3.4863041333051186,3.5199190512846172,3.551811785715036,3.5822261335845607,3.6113908933883256,3.639520560052342,3.6668160195563173,3.693465233137127,3.719643903934622,3.745516121088945,3.7727979706944685,3.802967378659704,3.8374318611625333,3.87763323742071,3.9251268256759713,3.9816558695341433,4.049234560681695,4.130250836039302,4.227601314680946,4.344874891159391,4.4866092702175475,4.658657941250532,4.868727340542164,5.127181884407611,5.448280377591467,5.8521231925564186,6.367794285131988,7.038533804531867,7.93031538718335,9.145685647706873,10.84343475585767,13.254849224583804,16.247259250673782,19.774920652240464,23.75974360079785
IH1,0.0,0.0,0.0,0.015961975401473687,0.09113317651524079,0.23693625395819806,0.4390906979775969,0.6730180256079531,0.9145297104112302,1.1447910400218926,1.3515000293321908,1.5281660943357838,1.6727105642202704,1.786032689064639,1.8708131158013912,1.9306246450432745,1.969326368274641,1.9906839198840378,1.9981548632270958,1.9947867898413496,1.9831876650117608,1.9655392897278485,1.9436340184257193,1.9189218475264087,1.892559951020718,1.8654601140278184,1.838331719853164,1.8117193269186274,1.7860346940354939,1.7615835680947227,1.7385877715330398,1.7172032086387894,1.6975344095435516,1.6796461867288612,1.6635717756631878,1.6493217268580358,1.636889679988152,1.6262566746811742,1.6173945224379942,1.610268457165112,1.604839200807334,1.6010645540596284,1.5989006059362412,1.59830264116402,1.5992258103654575,1.601625615449929,1.6077161995681442,1.6199376703576864,1.6404136664844948,1.6709517895605015,1.7132096239243682,1.768892382741144,1.8399477819130823,1.9287627719525662,2.038382519112503,2.1727812510177813,2.3372254615210046,2.538788060246077,2.787103738858047,3.0955114188305117,3.482827665716953,3.976169123814628,4.61555144028905,5.461526299342324,6.60794001197527,8.20264619481012,10.47707856589967,13.770600692994748,17.89610115372174,22.623131575570167
IN1,0.0,0.0,0.0,0.01983693515830217,0.12166179664158872,0.35076344552688954,0.7261916253193379,1.246310619388478,1.8967381661624123,2.656851999870566,3.5042030044246166,4.417158111588742,5.376285189903628,6.364926895768226,7.369290996841903,8.378276756201853,9.383175934938906,10.37733123841747,11.35579872048373,12.315037964751982,13.25264022571701,14.167096888458994,15.057606400998315,15.923915816206563,16.766192339585906,17.584920248374324,18.380818881671374,19.154777896701546,19.90780652666862,20.640994098224205,21.355479540765074,22.052428033622196,22.733013289141457,23.39840426352485,24.049753913899906,24.68819338936509,25.31482719799072,25.930729715764098,26.53694288712121,27.134474869386633,27.724299392485072,28.307355648194996,28.884548564215795,29.45674935190583,30.024796242821978,30.589495349462634,31.15442769255223,31.72461270086375,32.305941503804185,32.904998177970995,33.52908880033207,34.18639899764875,34.88625300425351,35.63947747309531,36.458895335466075,37.35999720571722,38.36186683519767,39.48848066328475,40.77057126867379,42.248360370202676,43.97566440527759,46.0262185854086,48.503666725103166,51.55770558819123,55.41054894025732,60.39988873556798,67.04360160848428,76.11325669892993,87.90133752430137,102.54269430833325
D1,0.0,0.0,0.0,0.0,0.00025245694504280906,0.0016938326367357448,0.0054412511948830865,0.0123859741016672,0.02303052594629917,0.03749486203467506,0.05560104509830917,0.07697656786718719,0.10114626704229021,0.12760210276202796,0.15585025783600603,0.1854393125790445,0.21597435524468997,0.2471215100436483,0.2786064590126443,0.3102095695177621,0.3417594100800151,0.3731257971820292,0.40421305499101523,0.4349538558149367,0.46530380531790944,0.4952368111976796,0.5247412020792238,0.5538165262979653,0.5824709450052302,0.6107191317901215,0.6385805959794314,0.6660783552761593,0.693237893188405,0.7200863464881668,0.7466518770311611,0.7729631723301499,0.7990490867663335,0.8249383741250746,0.8506594883117048,0.8762404373981174,0.90170867959057,0.9270910518678357,0.9524137237782876,0.9777021703677049,1.0029811594585456,1.0282747495289324,1.0536062952686576,1.079034170580465,1.1046553424675303,1.1306003657137704,1.1570283843954252,1.1841247591858508,1.2121018206600274,1.2412027047534324,1.2717082997610836,1.3039476567742698,1.3383126838515325,1.3752785846909352,1.4154324291669584,1.4595136708511507,1.5084727336543005,1.5635576470489359,1.626445321332603,1.6994455601498943,1.7858258614674634,1.8903380102767768,2.0200722660642905,2.1857792779593423,2.403577119073474,2.686624480807195
R1,0.0,0.0,0.0,0.00044214660230137466,0.009726698240606214,0.055026164226954465,0.16847107380391374,0.37606781494678576,0.6932097470652364,1.12476523300429,1.6673090706407045,2.3118849721462276,3.0464846706634057,3.8579477891101086,4.733260978233286,5.660351955317508,6.628505365757257,7.628518623543416,8.652692610267492,9.694726937032906,10.74956767288603,11.813238525732501,12.882674224489875,13.955566463198627,15.030227289059686,16.105471415053234,17.18051695567716,18.25490303421558,19.328422247658793,20.401065866681282,21.472979738642856,22.544429053071447,23.615770361136427,24.687429477890593,25.759884087730605,26.83364969706296,27.909269244867996,28.98730509373358,30.068332809991677,31.15293635567946,32.24170440179878,33.33522752618033,34.43409610277311,35.538898726515946,36.650221049550275,37.76864493063288,38.89481036586444,40.030377562434936,41.17813293260434,42.34186693538109,43.52625348028601,44.736801977282965,45.979896878034964,47.26292535640889,48.5944962382917,49.984762725909455,51.44587528439897,52.99261024615316,54.64324776188809,56.42081625776205,58.35489111207403,60.48425339189141,62.86091701838331,65.55638464577717,68.67159962602105,72.35304805695395,76.81873312744587,82.39780496578547,89.56363578421345,98.71250084264925
G1,0.0,0.0,0.09918467579151084,0.5459150647341235,1.3715074225240236,2.5302411738459356,3.956316715425294,5.585608320833364,7.362852949453475,9.243020697097874,11.190535803754544,13.177855314740235,15.183997115568301,17.193226311237773,19.193953124620865,21.177835695907017,23.139061334915315,25.07377602143652,26.979634177988714,28.855444780876272,30.700894076455185,32.516328938813224,34.30258808712779,36.060870989308576,37.7926363839632,39.49952403787814,41.183294698391116,42.84578426583525,44.48886905587707,46.1144396899532,47.724381680276,49.32056119294329,50.904814801612474,52.478935225771046,54.04467756297777,55.60375310627959,57.157826696805095,58.70851572619998,60.25739004765623,61.80597245288909,63.35573952258823,64.90812272379137,66.46450966324402,68.02624542892447,69.59463396862614,71.18496992387695,72.81102649239597,74.48647571699495,76.22580316459234,78.04503116381177,79.9624276752858,81.99931906358695,84.18111020037435,86.53863000134486,89.10996220628218,91.94299687822482,95.09906543332407,98.65823521049374,102.72720158279944,107.45134155630451,113.03359185169919,119.76475207819577,128.07314451629398,138.60669465962036,152.3653297886122,170.89069254492966,196.43224008913637,228.05539802858215,265.55823717908686,308.43204056523405
H1,17144.732795515214,16055.123795171667,15123.866818422428,14258.352261867103,13453.887031716022,12706.113245108367,12010.984286510606,11364.742574372036,10763.898915876247,10205.213336353045,9685.677278017987,9202.497070230378,8753.078580447,8335.012961536167,7946.063417140644,7584.152912371658,7247.352762310361,6933.872035616196,6642.047715020261,6370.335560640452,6117.30162591682,5881.614379551431,5662.037390166677,5457.422533487877,5266.703684726993,5088.890861510243,4923.064785167911,4768.371830503333,4624.019336292546,4489.271250748129,4363.444088021227,4245.903173524728,4136.059157447533,4033.3647773033945,3937.3118517261555,3847.428488993776,3763.2764949433886,3684.448966035154,3610.5680543400204,3541.2828921710898,3476.267664955489,3415.2198217581354,3357.8584136251143,3153.7442528614024,2959.328472986701,2774.001000611844,2597.215797373568,2428.485899937889,2267.378865555621,2113.5125771929,1966.5513620311285,1826.2023760689124,1692.2122056345745,1564.3636338426888,1442.4725164844006,1326.384707727842,1215.9729716974243,1111.1338121286453,1011.7841498310711,917.8577780427703,829.3015308307168,746.0711118865765,668.1265531470162,595.4273073878799,527.927028372259,524.3953235316927,520.992844795583,517.7108046665943,514.5410417311931,511.47597594511666
S2,75429.63816872744,79919.26843636131,84012.285803934,87763.41244153967,91197.5092727658,94337.60998158758,97205.07485525483,99819.72240131286,102199.94564829487,104362.81710055488,106324.18466024249,108098.75992895215,109700.19981912027,111141.18214490885,112433.47571740173,113588.00538337496,114614.91239189316,115523.61043397344,116322.83767024468,117020.70503626387,117624.74109308733,118141.93367088707,118578.76853534089,118941.26528991603,119235.01071182574,119465.18970523612,119636.61404213586,119753.74904907106,119820.73838661706,119841.42705794517,119819.38277308253,119757.72862640832,119659.78998489356,119528.3666496544,119366.0837576784,119175.38605356908,118958.54440832465,118717.6660098595,118454.70527264023,118171.47447360675,117869.65380389646,117550.80076214093,117216.35889546011,118076.93219433897,118901.42030227723,119689.87840725228,120442.26824618356,121158.46022372202,121838.23191539291,122481.2640793646,123087.13441543645,123655.3086873698,124185.12821152771,124675.79189868264,125126.32975562215,125535.56259215946,125902.03888972326,126223.9329570033,126498.87588133647,126723.66698031206,126893.76795222226,127002.3956438562,127038.87640999681,126985.72058132669,126813.96350764975,125931.80518314958,125000.16991416311,123987.0911869504,122897.41485325439,121736.45521325723
E2,0.0,0.19220903958833413,0.9593079429052588,1.9131950675817444,2.8817782985756244,3.7961740264982504,4.635162431187807,5.3983633091121845,6.093580117915975,6.731022271412407,7.32081073878754,7.872017552912315,8.39239891576657,8.888424296508028,9.36541724755364,9.827725313926376,10.278884169491107,10.721763096176716,11.15868870124146,11.591547846974956,12.021872239371966,12.450907443612165,12.879668941283075,13.30898752489656,13.73954597411736,14.17190863001267,14.606545197149847,15.043849861421794,15.484156610687867,15.92775148025584,16.37488231024097,16.8257664917527,17.28051182862356,17.739336441423035,18.202406924060632,18.669866147765838,19.141843105241136,19.618456677126733,20.099817283462382,20.586027723509766,21.077183632560146,21.573373703962744,22.074679736897124,22.58117654276446,23.31214084262463,24.250256215126427,25.39996406791021,26.780249409292544,28.422067536448615,30.368496659472342,32.676813067359596,35.42233971222063,38.7043888616912,42.655080864067834,47.45242602022688,53.33999326014612,60.65705626704516,69.88583258984671,81.72728004138395,97.2256393222222,117.97746573222253,146.4870106291458,186.76460114804485,245.26433682135388,331.9825741669161,460.1504872325104,572.3745576569213,681.9843844680984,783.394548141823,871.9953410808712
I2,0.0,0.0,0.034714636527028796,0.19544443698627673,0.4704421018086982,0.8211189625261355,1.2103732476042264,1.6106619118760774,2.0043144048976105,2.381447413867629,2.737588738142298,3.0717082725280793,3.384786198243941,3.678849755899061,3.956362933167613,4.219861866250691,4.471752523687209,4.714211056967591,4.949146392608945,5.178198670364542,5.402756835139238,5.623985156877541,5.84285264337917,6.060161961517668,6.276576118516873,6.492642137152565,6.7088115271878745,6.9254576668826004,7.142890363808611,7.36136792724489,7.581107094901774,7.8022911390385845,8.02507644585424,8.249582427101004,8.475924789509877,8.704207565884621,8.93452304407031,9.166953499499666,9.401572982664733,9.638448759701543,9.877642384701128,10.119210467492785,10.36320520441016,10.60967472611505,10.85866330297395,11.149802523712696,11.505292176198605,11.940121594470828,12.46729884302899,13.100727759195767,13.85707414444041,14.757333180934605,15.828526205545835,17.105858359109558,18.63569021755986,20.479799567358793,22.72165730564889,25.475882822159697,28.902818430017128,33.231532913560955,38.79701585162228,46.10170028260005,55.918964883936226,69.46735153618337,88.69125844071091,116.63871808601269,157.64729684680614,204.12322290190616,253.6210010652274,303.56901760160997
A2,0.0,0.0,0.0038672102776116154,0.02301355710528743,0.060585770926576986,0.11614220030451833,0.18787294158002138,0.2736135778266735,0.3712786543744457,0.47902317278231077,0.5952813760705995,0.7187537950312006,0.8483754879811727,0.9832801815733515,1.1227664320055366,1.2662679735251703,1.4133286720206966,1.5635817832673087,1.7167329681952332,1.8725464769920037,2.0308339569918963,2.1914454103402776,2.354261902077121,2.5191896878767284,2.6861554901026365,2.855102700816091,3.025988331754359,3.1987805652533177,3.3734567878200776,3.550002010643143,3.7284075996846853,3.9086702529060378,4.0907911742726455,4.274773688564899,4.460625376063356,4.648356865552663,4.837981235035882,5.029513634492524,5.2229709995129685,5.418371809619274,5.615735873154157,5.815084129968791,6.0164384664734785,6.219821539050472,6.425256602649768,6.637177788660757,6.859493387906223,7.096044656307306,7.35090111192187,7.628592240741209,7.934333001254031,8.274282057115336,8.655867109109954,9.088216773611954,9.582752610802427,10.154020666969405,10.820885471719658,11.608282790316153,12.549852679607316,13.691992188386516,15.100251658345343,16.869680748275734,19.141910658154355,22.13359207555201,26.182561423972974,31.814261016833957,39.799315700064746,49.7227658320262,61.45444596968879,74.75702179851365
IH2,0.0,0.0,0.0,0.00558669139051579,0.03461696920135498,0.09531263677389491,0.1861195356718237,0.30018669208526894,0.4292018616588576,0.565614084959248,0.7035567311585758,0.8389878212123345,0.969452615007775,1.0937187413100757,1.2114145587707839,1.3227261419016583,1.428167009409811,1.5284151627652864,1.624204764757755,1.7162587771871145,1.8052505624020627,1.8917849694403155,1.9763918910488765,2.0595273484989853,2.1415787602601175,2.2228722195055775,2.303680425441521,2.3842304693065777,2.464711040804181,2.54527885238774,2.6260642201515494,2.707175821802662,2.788704695621998,2.870727563900385,2.953307091449808,3.0364973861085858,3.1203458312137555,3.2048941118947036,3.2901790750827944,3.376233504193986,3.4630867896657858,3.550765481249787,3.63929372433445,3.728693592450861,3.818985331545904,3.9101875313652243,4.00868870494376,4.121679305780903,4.255643532579063,4.416346784174354,4.60929156310191,4.840275982387834,5.115962293928178,5.44447190980379,5.836069596003988,6.304029159901555,6.86580954255333,7.544730829392677,8.372445043493599,9.392680840476782,10.667066124527413,12.284411134357498,14.375866390823042,17.140163406844508,20.88594560134824,26.100912666113604,33.55177337508814,44.370765798663,57.97699382631908,73.64793922348619
IN2,0.0,0.0,0.0,0.0069429273054057595,0.04596238542960705,0.1395911819370506,0.3024190626229072,0.5414695215175234,0.8581872086775637,1.2504682175703101,1.7142530181681328,2.244628235614911,2.836523607764378,3.4851156113355226,4.18603440640198,4.9354466489714826,5.730064555731905,6.567114414912028,7.444285482156427,8.35967190585665,9.311714920870992,10.29914913869013,11.320954678678737,12.376315660567784,13.46458489626564,14.585254271006358,15.737930155726808,16.922313159607114,18.13818156138756,19.38537781853541,20.663797625799035,21.973381068521398,23.3141054856439,24.685979719958308,26.089036408178927,27.523331001999114,28.988939205156047,30.48595442191855,32.014485577599295,33.57465531835625,35.166598517112995,36.79046100888209,38.44639849229183,40.13457554825094,41.855164737991444,43.60834575120632,45.402222798436796,47.249259005692146,49.16479073452939,51.1666025957899,53.275082121671154,55.51374612934252,57.91007530423602,60.49667979230282,63.312884666201704,66.40689386305166,69.8387848378929,73.68472845064375,78.04305773056925,83.04319083926698,88.8590655135865,95.72987802877509,103.99291930500735,114.13678308874452,126.88888556509376,143.358248397585,165.2524095308117,195.12934480486481,234.00269593719742,282.3868691908709
D2,0.0,0.0,0.0,0.0,8.835993076498317e-05,0.0006358669949851318,0.002143345643379168,0.005087039528796173,0.009834836297068139,0.016623155917650796,0.025568991277653434,0.036696547770203876,0.04996610225478435,0.065299107061071,0.08259752315446478,0.10175743356626875,0.12267786430956658,0.14526596328466196,0.16943960176259168,0.19512826264079727,0.22227286328662732,0.25082497106513957,0.28074571972252144,0.3120046238663979,0.3445784106037316,0.37844993450884423,0.4136072076935339,0.4500425553202562,0.48775189425981813,0.5267341257270624,0.566990629523989,0.608524846551067,0.6513419365713258,0.6954484992226043,0.7408523475937505,0.7875622858894734,0.8355879740919921,0.8849398216053369,0.9356288971316608,0.9876668521495898,1.0410658566450672,1.0958385454475081,1.1519979733010945,1.209557576837015,1.2685311418046652,1.3289327741663066,1.390776873902346,1.4541788826527342,1.51936796732502,1.5866758498648532,1.6565254386118298,1.7294266702930206,1.8059811854418721,1.886895995745368,1.973006562335613,2.0653106953897438,2.1650161455699637,2.273606796711974,2.392935366544435,2.525355185837231,2.6739112041938293,2.8426230871929223,3.036915136179756,3.2642859483810893,3.535377287791812,3.8657124680076556,4.278528332509479,4.809188103245711,5.510962645618845,6.42793528691279
R2,0.0,0.0,0.0,0.00015475131080548113,0.0034796982649504316,0.020829691152397304,0.06670301303029527,0.15502195750853479,0.29682951403042934,0.4996260944517571,0.7676618000775501,1.1026318972622282,1.5044414315538839,1.9718763289395735,2.503124624250951,3.096147280978636,3.7489220272985673,4.459590053137347,5.226533463009343,6.048406272113626,6.924136119045934,7.85290890639528,8.834144638561238,9.86746979665624,10.952689516676047,12.089761427259704,13.278772080488514,14.519916329151048,15.813479657192206,17.159823277254795,18.559371714727444,20.012602563738227,21.520038102044474,23.082238472609923,24.69979610105601,26.373330229464283,28.10348369067497,29.89092039873987,31.73632322763825,33.6403922161247,35.60384306863308,37.62740591283981,39.71182426748016,41.85785417411204,44.066263450949684,46.337831032897135,48.6735228575292,51.0772119709894,53.556054554489826,56.12023265675053,58.78269670616588,61.55910910933804,64.46803683901933,67.53140296660598,70.77521578389728,74.23062338537133,77.93538492388106,81.93591106490392,86.29011715995702,91.0714749830615,96.37488072699063,102.32534649074412,109.09119243916403,116.90458518713788,126.09429398968075,137.13885903258392,150.7527399147736,168.01870613782938,190.50164846081327,219.52863687265508
G2,0.0,0.0,0.034714636527028796,0.2079740556821983,0.553513846727674,1.0739882552195628,1.7596105433569025,2.5967614879069103,3.5717531975478756,4.672307153776172,5.887988747669321,7.210191306011448,8.631946644204854,10.147687415682855,11.753014716688813,13.44449112367318,15.21946441780716,17.075920953938624,19.01236530437008,21.027722247058694,23.12125734382228,25.292512796000842,27.541255764918457,29.867436816770716,32.27115656615958,34.752638943676416,37.3122098048536,39.950279837983565,42.667330924784515,45.46390526810819,48.34059673128891,51.29804393975719,54.33692478168252,57.45793661555101,60.66181619433464,63.949330359324975,67.32127175560937,70.77845632548737,74.32172148214367,77.95192458158957,81.66994154628364,85.47666557125595,89.3730058703325,93.35988643098779,97.43824475229077,101.64862163025596,106.02843036348959,110.61588640772973,115.4526340775474,120.58590848538833,126.07072504585699,131.9724437731582,138.37002866656564,145.36038039098028,153.06426170373518,161.63458558208143,171.2682556859745,182.22345147499612,194.84544512285657,209.60610792547917,227.1659101980867,248.4736741307601,274.93051164898077,308.66183489400566,352.9587229281563,412.9176843807234,496.0248938346815,599.4007536222088,722.5731084429048,864.0610272954473
H2,17144.732795515214,18165.25260477207,19095.794154370382,19948.739472896144,20729.7082121617,21443.917902377583,22096.212682952257,22691.0899810012,23232.725284158714,23724.995143814653,24171.49853517541,24575.576691519847,24940.331521637254,25268.642711649693,25563.18360519216,25826.435949211824,26060.70358641442,26268.125169598323,26450.685967742356,26610.228828723062,26748.464358903057,26866.98037552922,26967.250683883736,27050.643227420835,27118.427655676864,27171.782351542162,27211.80095651263,27239.498429780426,27255.81667446185,27261.62976188201,27257.74878262733,27244.92635102614,27223.86078781331,27195.200003966547,27159.545107060047,27117.45374995644,27069.443240242228,27015.993427497204,26957.549384267608,26894.523895479186,26827.299769973797,26756.231986875693,26681.649688586087,25394.591757209044,24127.446108434735,22881.534228861332,21658.145586436014,20458.545399181494,19283.981676726104,18135.69147001071,17014.90623210629,15922.856155032297,14860.773303348209,13829.893315023868,12831.455384301624,11866.7001816935,10936.865306366555,10043.177811862337,9186.843306584251,8369.031119163034,7590.855053893233,6853.349365952505,6157.4397865978735,5503.909751530792,4893.362451195357,4872.817209755335,4852.264289891464,4831.713013449583,4811.171963622797,4790.64903846523
S3,226288.91450618234,225300.81639135504,224373.4327897288,223502.0517504101,222682.36912197038,221910.28397119045,221181.9452612745,220493.7617491675,219842.39599673313,219224.7519106755,218637.9600318473,218079.3624436686,217546.49810535889,217037.08893489745,216549.02675053643,216080.36108385585,215629.28783614933,215194.13873349738,214773.37153061444,214365.5609132376,213969.3900506295,213583.64275240854,213207.19618681533,212839.01412041736,212478.14064203465,212123.69433629335,211774.86287467173,211430.8979941938,211091.110836056,210754.86761845322,210421.58561970977,210090.43895216117,209761.3321245723,209433.73663546273,209107.21091330878,208781.365383519,208455.8486506254,208130.34116142683,207804.55158862864,207478.2142647361,207151.08707457877,206822.9495923546,206493.60138174077,208294.4207111553,210158.70684828795,212088.6380641979,214086.57046199474,216155.0512113543,218296.82710039735,220514.84901235686,222812.271723475,225192.44743678466,227658.91039155828,230215.34843251153,232865.5552096119,235613.35308612304,238462.47071809092,241416.34843261048,244477.82460164497,247648.61833139102,250928.45006495764,254313.49756718762,257793.6151086261,261347.3299388714,264933.5100973629,263737.22546231875,262457.1139677899,261039.61091165565,259488.59520949709,257808.6266344884
E3,0.0,0.3295012107228585,1.5612458751219083,2.9974835386699175,4.364162948880065,5.571112342536736,6.604833844805524,7.481150737965218,8.224770829576334,8.860872091752992,9.411986004619813,9.897153332422349,10.33200182785037,10.729152379070907,11.098700856325998,11.44867489766969,11.785431436167528,12.113988874675446,12.43829878623999,12.761465518500557,13.085922458330991,13.413572902153579,13.74590231695873,14.08406761348834,14.428968014179816,14.781301217977665,15.14160783730602,15.510306491032848,15.887721459762997,16.274104426070846,16.669651514735435,17.074516601946303,17.488736887724663,17.91245490988324,18.34575974175997,18.78871655515672,19.241377736513897,19.703787571402113,20.175984542018103,20.658002602535827,21.149871909257275,21.651619191689818,22.163267854461207,22.684837865504743,23.437274573843087,24.40645936605626,25.600407967510176,27.042281435954756,28.76811653247332,30.827382939946155,33.285610611184055,36.229013213497346,39.77154605820497,44.06536781629652,49.3163974715368,55.807797167464614,63.936136951981226,74.26837231592567,87.63382101384437,105.27633513742202,129.1117820875736,162.17024620432838,209.35108095092858,278.63411243967715,382.58780305538033,538.3513657870283,675.1281642937684,808.9683774989986,933.2822593336081,1042.5713605277008
I3,0.0,0.0,0.059510805474906496,0.3200061425371756,0.7458775155021764,1.264872612428338,1.8145314730246387,2.3525000928477766,2.8545692009120613,3.3097298702073528,3.715494008694109,4.07434093875942,4.391294045165842,4.672386122070548,4.923751978927932,5.151135579558181,5.359657569939816,5.553738509525937,5.737109804500417,5.9128697663461685,6.083559099568557,6.2512409784321505,6.417577663863991,6.583899742198348,6.751266496970867,6.920517289979712,7.092314541141238,7.2671792212525235,7.445519872381524,7.627656148661739,7.813837786940315,8.0042598079304,8.199074634542322,8.398386394050025,8.602287374453471,8.810852641497393,9.02414193790526,9.242202904797713,9.465073986458659,9.692786701626577,9.925367325344013,10.162838095645597,10.405218051733739,10.652523588036734,10.904768788094906,11.201867318024775,11.566776784493035,12.01561637247791,12.562870429320025,13.22430399455726,14.018926660659174,14.970722135924705,16.110588587604013,17.478853377253028,19.12876962545813,21.131560476942283,23.583883937536392,26.619135083297905,30.42495958480829,35.27105786204268,41.55443744328247,49.874835624876425,61.162785177898925,76.89782609934903,99.46671175615758,132.6647145792898,182.01276424757827,238.25261817889222,298.36643153596435,359.2354299895523
A3,0.0,0.0,0.006629503333048483,0.03777619322183237,0.0965733447039565,0.18051499040999866,0.2853812032493184,0.4068493471097617,0.5410881231396367,0.6849166632689269,0.8357879620225863,0.99171026477837,1.151154616144661,1.312967671303492,1.4762961679210402,1.6405241150744645,1.8052216860877075,1.970104154658748,2.1349991575046907,2.299820733595252,2.464548820639056,2.6292131184559073,2.7938804323612643,2.95864478169211,3.1236197003125925,3.2889322710745748,3.4547185290224025,3.6211199426079004,3.788280741777945,3.956345909401365,4.1254596904808905,4.295764503867244,4.467400165301129,4.640501644077072,4.815201376356952,4.991628290841176,5.169907468229712,5.350160037965581,5.532503173361407,5.717050133146174,5.903910327009254,6.093189393212124,6.284989280560344,6.479408329145843,6.676541345608502,6.880924722281788,7.096629258134852,7.327724128876808,7.578581673196046,7.854124318076521,8.160072834217463,8.503237518956292,8.891890749986992,9.336266635104728,9.849251155615459,10.447357695799228,11.152136005860442,11.99225241140659,13.006633158236827,14.249332528811829,15.797267828819257,17.76282531793863,20.314858713235083,23.71403892098064,28.37115839485748,34.93344634429752,44.36707007424815,56.17511927188508,70.20349474637834,86.17167931050749
IH3,0.0,0.0,0.0,0.00957718524088421,0.05692272488121334,0.15227067080650097,0.28978884315086656,0.4561226937427125,0.6368934637708539,0.8200624522099824,0.9970404833783484,1.1625631137048995,1.3140481029961175,1.4508415573263305,1.5735440469303437,1.6834829596997882,1.7823343791604338,1.8718715426606436,1.9538100392991,2.0297219053797244,2.1009959984773117,2.168827705743345,2.234226002642483,2.2980297804002134,2.360928234919291,2.4234821287215835,2.4861441003866966,2.5492770825685245,2.613170443991965,2.67805380093389,2.7441086270968933,2.8114778812357564,2.88027390560986,2.95058484908417,3.0224773875534154,3.0960041315025784,3.171206954597981,3.248119184307969,3.326767360875217,3.4071727008881103,3.489352291620976,3.573320038049375,3.6590873933372228,3.7466639073991352,3.8360576267156192,3.927275374480408,4.026744395599497,4.141799034537912,4.279186804143156,4.445059798399939,4.6454390311629625,4.886793437885636,5.1766461047482935,5.524229837855332,5.9412631116153465,6.442952195210429,7.049370437510099,7.78744068309555,8.693876795510178,9.819667919277675,11.237092481732422,13.050972752751338,15.417186185538469,18.57375819969359,22.893587177429794,28.971949291415292,37.75672834885537,50.67320229125043,67.03855641437988,85.98044692051792
IN3,0.0,0.0,0.0,0.0119021610949813,0.0757843679914666,0.22420202741198722,0.474934529623535,0.8330914789322275,1.2952605827124606,1.8532218170677481,2.4966355729385414,3.2147680189479777,3.9974885265103817,4.835772450278446,5.721891950189772,6.649423426473461,7.613156308120362,8.608956259027122,9.633614398342038,10.684700215258701,11.760427166375347,12.859534714625305,13.981187563165483,15.124891220306626,16.29042225654323,17.477771333371972,18.687097078034196,19.9186890154821,21.172937969577784,22.450312564358313,23.751340668447078,25.07659481915067,26.426680832545244,27.802228951128257,29.20388394042698,30.632302575913403,32.08815007845375,33.57209696525027,35.08481657655731,36.626983208083466,38.199270716327945,39.80235147423347,41.43689557862025,43.1035702331808,44.80303924845634,46.535962613590755,48.3109764510598,50.14122204344781,52.042933097508914,54.03507785239783,56.139587872785306,58.381977326189286,60.792301980112335,63.40649667783202,66.2682023865043,69.43127428773089,72.96327364024204,76.9504176913469,81.504740531093,86.77468504274373,92.96114976472482,100.34242575573407,109.31396862315202,120.45338597250029,134.62841733264509,153.17547551055014,178.1766636713026,212.79744988410525,258.31999902104263,315.41008533802506
D3,0.0,0.0,0.0,0.0,0.0001514741670256854,0.001051772335991455,0.003460107608070583,0.008043450471924583,0.015257553922826447,0.025330754396902983,0.03830098246843182,0.05407032104882234,0.07245758983751485,0.0932407674441581,0.11618749039612686,0.14107489392775094,0.16770110743502123,0.19589076949690312,0.22549656447445,0.25639831073762753,0.2885006902132484,0.3217303512033147,0.356032848428415,0.39136969471313315,0.4277156709087657,0.4650564582901325,0.5033866072343796,0.5427078271168435,0.5830275675089679,0.6243578546804082,0.6667143465455462,0.7101155712334717,0.7545823179299161,0.8001371526422696,0.8468040355533042,0.8946079814015265,0.9435748370205932,0.9937311115242115,1.0451038411382179,1.0977204818528217,1.1516088252229069,1.2067969330581956,1.2633130870915437,1.3211857502007278,1.3804435363063756,1.441115186593431,1.5032295501634714,1.5669171303665737,1.6324244316210388,1.7001046779984228,1.770408395991438,1.8438813413313835,1.9211715833818725,2.003046177741406,2.090418207424557,2.184386096556592,2.2862887738473683,2.397782651037818,2.5209499555291455,2.658453586575365,2.81376289522189,2.991490398726235,3.1979064987468093,3.441746977613723,3.735512262618833,4.097600596582281,4.5558251976157225,5.152991153208112,5.954445955901535,7.0147376006870426
R3,0.0,0.0,0.0,0.0002652879613808248,0.005898145013545977,0.03430771288523615,0.10740507669379028,0.24467306241534598,0.4598919352916174,0.7606458388781461,1.149278623334473,1.6243395233300457,2.1819907944638057,2.817153120492998,3.524337532939601,4.298194610550372,5.1338407434643765,6.027023428182467,6.974178435530441,7.972419471153464,9.01948942798394,10.113692915078884,11.253822660362335,12.439087348984543,13.669045044525236,14.943544124908422,16.2626722949583,17.626713440789562,19.036111669343217,20.49144169053165,21.993384655647663,23.542708602167583,25.140252732498173,26.786914848387497,28.483641291167455,30.231418012360226,32.03126467568195,33.88423010074603,35.791388586573945,37.753836945228485,39.77269213003974,41.84908935160557,43.98418058219896,46.17913336079032,48.43512982436741,50.75336590434399,53.13522851282076,55.58503967806887,58.11048059553731,60.72238945472597,63.43456197967872,66.26375823239827,69.22996921790387,72.3569613222388,75.67312807265527,79.21271204334073,83.01750965389012,87.1392436519337,91.64289676133826,96.61147194576111,102.15292730663985,108.41051202945431,115.57855926579774,123.92725265076115,133.84245050316454,145.89095599456567,160.92759380167064,180.26277957614653,205.81430309990546,239.22127050601588
G3,0.0,0.0,0.059510805474906496,0.3414854888730411,0.8828572774400227,1.6710633412108793,2.67725503977314,3.8701458982619723,5.221307265222666,6.706772935715413,8.307124067152875,10.007011199660505,11.794523802206003,13.660573852810344,15.598352772471305,17.602875384804076,19.670606375187962,21.799158546808126,23.987051070372623,26.233516805302145,28.538349283398798,30.901781527453437,33.3243903122659,35.80702070098892,38.35072670499114,40.95672474309162,43.62635724465148,46.36106427837203,49.16236151918973,52.031823209959356,54.971069049613654,57.98175415893875,61.06556145010873,64.22418055394743,67.45932684485648,70.7727317846627,74.16613860579132,77.64130000211767,81.19997666587916,84.84393623953503,88.57495249796584,92.3948046625445,96.30527678222712,100.30815713305064,104.4052375974357,108.63821472357768,113.04623511439266,117.66989308302499,122.55396603256676,127.74973992088619,133.31743536399225,139.32910826149106,145.87238545663823,153.0554751202961,161.01406661239682,169.92104006543303,180.00041717585415,191.5478436651808,204.96136238377642,220.78879823427502,239.80262670467692,263.12134572084074,292.41071298753883,330.221352369107,380.54511423843036,449.6438233896107,546.8747966422366,668.8088580308915,814.91563452218,983.4745872086946
H3,51434.19838654564,51209.68402850914,50999.18966880456,50801.52730435464,50615.666237209974,50440.65125918753,50275.59723562736,50119.68407631799,49972.15206593202,49832.297528289244,49699.468800598916,49573.06249553649,49452.520030591775,49337.32440559443,49226.997210686495,49121.095848278295,49019.21095369993,48920.9640003526,48826.00507617822,48734.010819207004,48644.68250081746,48557.744246154725,48472.94138190735,48390.03890234245,48308.82004514937,48229.084969245465,48150.64952725821,48073.34412591811,47997.01266808047,47921.51157054243,47846.70885223889,47772.48328778722,47698.72362171073,47625.327839003774,47552.20248801167,47479.2620518861,47406.42836514367,47333.63007210369,47260.80212421113,47187.88531346493,47114.825839370336,47041.574907018134,46968.08835406531,46894.32630455032,46805.8568205506,46703.03951500357,46586.246736055466,46455.863079760195,46312.28499932388,46155.92050143339,45987.18891951682,45806.52075271258,45614.35755780941,45411.151879391335,45197.36720081336,44973.4778953816,44739.96915317835,44497.336854358604,44246.08735452302,43986.73714212324,43719.81232211939,43445.84787483855,43165.386635000046,42878.97793431074,42587.17585332876,42290.537036112866,41996.12562283282,41703.92296037935,41413.910662060116,41126.070596586076
S4,113144.45725309117,115029.70120964985,116905.20925073576,118772.23845870995,120631.60110827952,122483.88501069584,124329.55603502465,126169.00707216281,128002.58201684328,129830.58804439048,131653.3023575835,133470.97628178788,135283.8380540403,137092.09493847916,138895.93496791692,140695.52845591225,142491.02935081485,144282.57646890366,146070.29462739872,147854.29569022974,149634.67953551444,151411.53495164547,153184.94046772644,154954.96512337125,156721.66918237443,158485.10479436547,160245.31660823245,162002.3423408118,163756.21330408356,165506.95489387476,167254.5870428574,168998.8141291196,170740.06483310406,172478.26374618665,174213.3823921374,175945.4064511306,177674.32432559604,179400.1232280929,181122.78791553937,182842.30034691247,184558.6396548616,186271.7822154518,187981.70173971113,191651.51215692415,195328.294959469,199011.43721261405,202700.18669513072,206393.65029521266,210090.78184842723,213790.36176060262,217490.968442748,221190.9398084564,224888.3212035991,228580.79355970732,232265.5715037034,235939.25433485463,239597.6008763179,243235.17783759566,246844.79197734734,250416.5423426119,253936.18786823793,257382.2596686691,260720.88038485104,263896.64615392947,266818.2874037087,267962.39613196615,268952.66618774825,269691.51015686436,270191.8825098918,270468.64380454994
E4,0.0,0.49425181608428786,2.382987820139015,4.6394724726305725,6.846243120361791,8.857155408114052,10.642679955787605,12.2198792046879,13.621359309139496,14.882043612876656,16.033997052322032,17.104804869010362,18.117450773679824,19.0907681308174,20.040057149866662,20.977698271184593,21.91369862675824,22.85615506708816,23.811636445394342,24.785494754882492,25.78211628254965,26.805123344734778,27.85753582286925,28.941900233379137,30.06039268707691,31.214900900829715,32.407089428146726,33.63845145863319,34.91034987360109,36.22404971061955,37.580743760110906,38.98157267237143,40.42743187357104,41.91950676099121,43.45888185100242,45.046607041474445,46.68372125080049,48.37126135150788,50.110265841007305,51.90177640547195,53.74683843250919,55.646500841661535,57.6018153810854,59.61383546643322,62.29358492691859,65.60948616953766,69.59178336155449,74.31455828949782,79.89027698386533,86.47211186217646,94.26219999034166,103.52582055404068,114.61291329528001,127.98991510752818,144.2870522774729,164.36965513739685,189.4478609436788,221.2492222034507,262.29691197364787,316.36915746998994,389.27485249297223,490.18162668851176,633.8736579134948,844.3460843284506,1159.191012990662,1629.1512534054023,2048.4192030878608,2465.3151247794513,2859.053646431473,3211.7417309652146
I4,0.0,0.0,0.08926620821235977,0.487435666803238,1.149433975624209,1.9710581094532091,2.8593202849257997,3.7494617085041044,4.603178725520945,5.4018816481749985,6.139997861303342,6.819757292601971,7.447567154092806,8.031673150301582,8.580746318824637,9.103091395312713,9.606251687639702,10.096855259169818,10.580600256097686,11.062314574495854,11.546050185739464,12.035188777456664,12.532545700501045,13.04046557292068,13.560906688562945,14.09551355529188,14.645678063876915,15.21259036029572,15.797280712036871,16.400653678522545,17.023515811718884,17.666597981682745,18.330573275611208,19.016033563891565,19.723571185159628,20.45376055731756,21.207158393293255,21.984308108340176,22.785744250090534,23.6119959926306,24.463589651903135,25.341050385813915,26.244903250102617,27.17567374609027,28.133887961019134,29.23023835732284,30.529761769963642,32.079483528990934,33.92283584380856,36.10788720568232,38.69302093598728,41.75205567976979,45.38007832553239,49.70105805653934,54.8784622163497,61.1305819633435,68.75320645911222,78.15392652060473,89.90523156698508,104.82868850055658,124.13171548169717,149.63507208878175,184.1581019730823,232.17270985594433,300.87047970031585,401.6367875030789,550.9122601694303,722.0329222577019,906.6857396511954,1095.8040968902865
A4,0.0,0.0,0.009944254999572728,0.05749159664714291,0.14853632456326837,0.2803375992492714,0.4473238620061379,0.6435523814450429,0.8636615252494545,1.1031602433878407,1.3584398520841132,1.6266812141901255,1.9057330138472117,2.1939924508251964,2.4902997867778236,2.7938495291359526,3.1041175103014558,3.420801879547818,3.743775772219609,4.073049564421226,4.408740898156186,4.751050959116428,5.100245762627812,5.456641438531539,5.82059270177221,6.192483855873751,6.57272180648223,6.961730666907914,7.359947621728814,7.767819781948645,8.18580181918036,8.614354209499604,9.053941952122102,9.5050294545405,9.968086390367958,10.443585458902442,10.93200156753229,11.433811522471649,11.94949391161412,12.479529065928947,13.024399053866956,13.5845876863052,14.160580517883453,14.75286483413652,15.361929615780005,16.00053796262414,16.680306907573726,17.412997120311605,18.211389164271775,19.090014968180434,20.065906747926224,21.159482114063792,22.39567900871936,23.805478173518598,25.428005240432316,27.313500215943257,29.527602975145594,32.15767446797486,35.322337821938675,39.186235084644125,43.98343717572867,50.05552223831413,57.91485074461627,68.35073533479493,82.60368104099689,102.62089874900468,131.29261516722806,167.2525900820492,210.1614498471188,259.275203445837
IH4,0.0,0.0,0.0,0.014365777861326319,0.0865792402939895,0.23401018267901696,0.4497254920874694,0.7148342648379322,1.0082168722186786,1.3117490386862425,1.6121753558112983,1.9010925051657486,2.174100573451332,2.429739024588754,2.6685077570372044,2.8920853084342353,3.102758727392856,3.303037122883583,3.4954080641313805,3.6821972691437415,3.865498748979177,4.047150428575522,4.228737341877315,4.411610169609723,4.596911122902489,4.7856021851607835,4.978492779082175,5.1762652784478345,5.379497642365575,5.588682970611584,5.804246076885125,6.026557332115269,6.25594409678539,6.492700075559523,6.7370868435161615,6.989347856180147,7.249713423997926,7.518403564093925,7.7956303244885525,8.081599813234234,8.376513909818504,8.680571639136017,8.993970223167054,9.31690584646388,9.649574177793927,9.992170688130264,10.362620017262797,10.781539346629344,11.268172012580909,11.840405098556136,12.516103770627641,13.314780768018018,14.259365882313393,15.378146712129116,16.70709305149397,18.29288161669784,20.197075328339167,22.502139028604198,25.320366718913505,28.807482024869984,33.18388717277617,38.76870749518449,46.03568117238061,55.70680728439848,68.91062422707924,87.44357573534661,114.15525358494166,153.30519582883124,203.01448554281058,260.8812643009906
IN4,0.0,0.0,0.0,0.017853241642471953,0.11516184258669485,0.3438970192856697,0.7346696709834548,1.2991870312587803,2.0360875026470135,2.9363623727247328,3.987375078632485,5.175500900106829,6.4876973496261545,7.912333806948454,9.439545098939286,11.06129891171482,12.771304201660215,14.564841497171553,16.4385641340338,18.390298543912998,20.41885847337304,22.523879925787202,24.705678882020663,26.965131233300667,29.303573035551796,31.722718642908866,34.22459416753816,36.81148383863816,39.48588707231092,42.25048434399519,45.10811023625975,48.061732296240926,51.114434569615064,54.269404879041154,57.52991754302906,60.89933260463069,64.3810913900479,67.97871215480608,71.69578665492605,75.5359776383949,79.50301706053706,83.60070482031232,87.83290784927198,92.20355942079978,96.71665857580983,101.37626958225556,106.20855455789757,111.25242136631132,116.55579385844639,122.17480308862365,128.17463249887388,134.6314903610826,141.63558659342573,149.29524639259796,157.74250553997985,167.14077292784998,177.6954815912402,189.66916806715022,203.40326169059966,219.35027538709068,238.1225103333311,260.5676283263372,287.8889664608302,321.8416971908384,365.0578221901189,421.5813399082809,497.69288400981384,602.8984072036018,741.2760075831061,915.2003954375141
D4,0.0,0.0,0.0,0.0,0.00022721125053852816,0.0015965612187592456,0.005297700604214004,0.01241062497507817,0.023716548595048494,0.03966265458124392,0.06040946984942157,0.08590787183066052,0.11597582983876614,0.15036172351322127,0.1887908324405749,0.2309963426747564,0.2767379882672617,0.3258116755660277,0.3780529953546293,0.43333688217650324,0.4915750544723444,0.5527123498690023,0.616722674883821,0.6836050051635828,0.7533796789196039,0.8260850997420246,0.9017748860916728,0.9805154583775273,1.0623840295324143,1.147466953575213,1.2358583834632146,1.3276591910695115,1.4229761061081536,1.5219210358746298,1.6246105329404905,1.7311652869871084,1.8417098382241588,1.9563723694851318,2.0752845434266405,2.198581376487902,2.326401144943333,2.4588853180229466,2.596178512763693,2.7384284654943,2.885786015427161,3.038405096500605,3.196442734250552,3.3603394529459143,3.530861861222373,3.7090809231469026,3.8963505075227065,4.09430704124094,4.304895567539398,4.530423790604078,4.773646815431306,5.037888650557596,5.327211550313157,5.64665145721348,6.002548589818101,6.40301922508987,6.858642587703426,7.383483816284124,7.996655382542077,8.724762470758174,9.605829508601706,10.695730052600492,12.078750476985244,13.884246717631047,16.308944189258717,19.519851080823255
R4,0.0,0.0,0.0,0.0003979319420712373,0.008880323248938643,0.05215607795898853,0.16460273143110382,0.37778372301997054,0.7152475110612082,1.1914887846020341,1.8131585463748703,2.581097775539328,3.492386762136203,4.5420506207766635,5.724323683958385,7.033504124704783,8.464478997765806,10.013007198217869,11.675836869427727,13.450717132253503,15.336347672480251,17.332296079219425,19.438902395734452,21.6571828338061,23.98873944526189,26.43567915109337,29.000543393788618,31.686248406354792,34.49603539008949,37.43342955606483,40.502206871398,43.70636736706253,47.05011394892603,50.537835770264195,54.174095181550555,57.963615379635925,61.911273814159486,66.02209759559332,70.30126003908263,74.75407814056845,79.38601087422819,84.20265818701776,89.20976055493843,94.41319896972855,99.81899523801914,105.4333124913045,111.26294691995801,117.32291166491832,123.6376951988795,130.2408181876377,137.17441888588343,144.4894345542677,152.24653567658845,160.51787480197373,169.38974846140655,178.9663704849018,189.37510476313665,200.77372247304646,213.3605769331468,227.38910872028444,243.1889466502769,261.197312237471,282.00693035952173,306.4410306525027,335.6736932530794,371.4265592837792,416.2903389553687,474.22500989418836,551.0109394785464,651.6705221993623
G4,0.0,0.0,0.08926620821235977,0.5196546863070364,1.3575840621026432,2.594075550786278,4.193755416596025,6.115916659011833,8.32293390390048,10.783070734268042,13.47089819496859,16.366778539300707,19.456056156863323,22.728226496779033,26.176186478799224,29.79559637454863,33.58435247164768,37.542158433427915,41.67018028535922,45.9707704453539,50.44724794818695,55.10372403049408,59.94496415097757,64.97627918538392,70.20343993263666,75.63261021633733,81.27029479829231,87.1232990732552,93.19869811910438,99.50381316202363,106.04619390506494,112.83360547968078,119.87401902876063,127.1755674170052,134.74659760224972,142.59565241548756,150.73146430846575,159.16295337069522,167.8992269599496,176.94957999573333,186.32349553520015,196.0306454416645,206.08089102249994,216.4842835400117,227.25106451260092,238.50183171551257,250.3514797340382,262.9203655150518,276.342225825118,290.7711097812442,306.3887307810123,323.41330994706635,342.11098014714185,362.8110764322647,385.9271764429574,411.98668220864187,441.67328199806263,475.88922547069245,515.8487734041851,563.221893736242,620.3609353414404,690.6673842074721,779.1984805553059,893.6816166536598,1046.177916948691,1255.5379697721978,1549.7769594193553,1919.7394140597926,2364.9969246566025,2881.3670618765627
H4,25717.09919327282,26145.7175131607,26572.46488006494,26997.45812730498,27420.804188174603,27842.60140681802,28262.940167311248,28681.903477608143,29099.567511577457,29516.00211212689,29931.271258195968,30345.43349820096,30758.54235233043,31170.646685918695,31581.791055965314,31992.016032721036,32401.358498123354,32809.85192273752,33217.52662274046,33624.409998375275,34030.526755202,34435.89910937548,34840.546978093436,35244.488156276,35647.73848046218,36050.31198083843,36452.22102224881,36853.47643497596,37254.08763602527,37654.062741592614,38053.40867134713,38452.131245115794,38850.23527251402,39247.72463602828,39644.60236801998,40040.87072208674,40436.531239185795,40831.58480889533,41226.03172616286,41619.87174386462,42013.10412147683,42405.72767013824,42797.740794363395,41225.998733799664,39660.513131259424,38102.18390008783,36552.008755927905,35011.09122436988,33480.64903847941,31962.022836652533,30456.68502335402,28966.248592860145,27492.475636082258,26037.285149759846,24602.759642967845,23191.149886156378,21804.876973039925,20446.530669361833,19118.86281436858,17824.774338645002,16567.29429521602,15349.549213400967,14174.721136829081,13045.992973002816,11966.480344178983,12321.373476290055,12673.794618257662,13023.762331781269,13371.295023117764,13716.410945301599
E_Om,0.0,0.0,0.0,0.0,0.0,0.0,0.0,0.0,0.0,0.0,0.0,0.0,0.0,0.0,0.0,0.0,0.0,0.0,0.0,0.0,0.0,0.0,0.0,0.0,0.0,0.0,0.0,0.0,0.0,0.0,0.0,1.357053857545656,1.948681315213378,2.291110867250631,2.5666387324363154,2.841157962853844,3.1400754536806654,3.4748735018588444,3.8524377033677855,4.278357466044436,4.758116227251288,5.297543262927319,5.903008582266867,6.581530337921163,7.4312687093961145,8.47192659273068,9.742880861826345,11.301039374692094,13.223769630489233,15.615441753255283,18.61786118390875,22.426050759612405,27.312146815252223,33.662131034259566,42.03343397673946,53.24734877367635,68.54105746339042,89.82467427157835,120.1289481032082,164.41009840016073,231.04440482346996,334.6896080242666,501.88334311189794,781.9539587922491,1266.7475825599095,2116.9139602271716,3088.7362835372633,4327.760486826695,5791.807466844384,7445.036854695999
I_Om,0.0,0.0,0.0,0.0,0.0,0.0,0.0,0.0,0.0,0.0,0.0,0.0,0.0,0.0,0.0,0.0,0.0,0.0,0.0,0.0,0.0,0.0,0.0,0.0,0.0,0.0,0.0,0.0,0.0,0.0,2.0,1.2781362589715726,1.0619119643104227,1.0305830109794765,1.0724074525592913,1.1488988666073618,1.2473626696296995,1.3642748657615473,1.4994571849834695,1.6540392995674058,1.8297526430842597,2.028694076376548,2.2532564546865856,2.506119455007484,2.790263113358944,3.12532046420333,3.527396869795827,4.013896562281908,4.606220089480142,5.332017107633788,6.227807789645429,7.342542319112839,8.74272603132698,10.520010572828022,12.802679263616152,15.773390727950765,19.69720900612187,24.966973993842714,32.17872051246339,42.2607352255367,56.70139320828429,77.96469702885099,110.27262858016063,161.1162513349077,244.19199716511275,384.8410344735404,628.2728479248534,959.3619875014983,1394.7291310479613,1937.3781084793784
A_Om,0.0,0.0,0.0,0.0,0.0,0.0,0.0,0.0,0.0,0.0,0.0,0.0,0.0,0.0,0.0,0.0,0.0,0.0,0.0,0.0,0.0,0.0,0.0,0.0,0.0,0.0,0.0,0.0,0.0,0.0,0.0,0.0,0.027303672274795406,0.06541818844107206,0.10889712319861013,0.15617976300351086,0.20709360424235684,0.2619842282773938,0.32141440928338527,0.3860629382304802,0.4566939012600386,0.5341511343841485,0.619361990401781,0.7133448763218735,0.8172186502402569,0.9340323623623173,1.0671094699119417,1.2204326931783709,1.3989703544240941,1.609048581965892,1.8588402636594876,2.1590443381229476,2.523855435776358,2.9723755036047987,3.530707980006354,4.235127140901938,5.136979966863241,6.3104505975601,7.865185744929681,9.96742257568635,12.876464283281365,17.009766911308226,23.06299249889588,32.23789759213305,46.68062616873448,70.2993686149699,110.0781672673338,167.8180521307669,248.176339958867,354.7753433389532
R_Om,0.0,0.0,0.0,0.0,0.0,0.0,0.0,0.0,0.0,0.0,0.0,0.0,0.0,0.0,0.0,0.0,0.0,0.0,0.0,0.0,0.0,0.0,0.0,0.0,0.0,0.0,0.0,0.0,0.0,0.0,0.0,0.7218637410284274,1.1831838517510767,1.5664617233510607,1.9384319772240535,2.3254980050296616,2.7401722219859166,3.1903851635449674,3.68279544273981,4.223997329271872,4.820992827568755,5.481408871615484,6.2136292193031775,7.026901286241431,7.931439668869345,8.938534553600801,10.066562314702061,11.33971226496345,12.788455459238433,14.45098709213465,16.3754820004067,18.623296315126417,21.27345384869358,24.42898230857374,28.225989402453862,32.84688437666438,38.54000379645521,45.64935428694419,54.66073091162157,66.27505669693907,81.52830291119795,101.99364282262594,130.13358675532308,169.93449285527961,228.08648281982605,316.22315712123174,455.1245515443917,681.8882457392012,1028.1525623883508,1531.5547565181553
G_Om,0.0,0.0,0.0,0.0,0.0,0.0,0.0,0.0,0.0,0.0,0.0,0.0,0.0,0.0,0.0,0.0,0.0,0.0,0.0,0.0,0.0,0.0,0.0,0.0,0.0,0.0,0.0,0.0,0.0,0.0,0.0,0.0,0.24509581606149924,0.597044734330537,1.0108394297833445,1.4743968716370233,1.9875348916156161,2.5546600293065147,3.1822526277232797,3.878036628839277,4.650745470653015,5.510102947992031,6.466885673989762,7.533020741248913,8.721702782228288,10.063855017804132,11.593959184497885,13.353608827245356,15.394675548718574,17.783004199768435,20.603289790052127,23.965838634239255,28.01617988002056,32.948992881401765,39.02866866607002,46.620275104615146,56.23721280257706,68.6163282807869,84.83945142408496,106.53579192247578,136.22969611948224,177.95833985147692,238.4062153354837,329.0507441901873,470.2784799849388,699.0641915947722,1081.3973994692449,1639.2502332406993,2420.881693436312,3466.932864997534
beta,1.0,1.0,0.9999468366650712,0.9997378329796881,0.9994566512820847,0.999140953222086,0.9988075284391292,0.9984636995841498,0.998112498907905,0.9977550198813325,0.9973914863274833,0.9970217384897206,0.9966454536280737,0.9962622456010211,0.9958717092537912,0.995473439652762,0.9950670398938544,0.9946521237640151,0.9942283161277676,0.9937952523502935,0.993352577353041,0.992899944569686,0.9924370149198122,0.9919634558490233,0.9914789404528634,0.9909831466881601,0.9904757566692146,0.989956456044058,0.9894249334451233,0.9888808800087294,0.9883239889580218,0.9877539552445,0.9871500551915736,0.9865398442714339,0.9859175585524103,0.9852809023347271,0.9846287838328752,0.9839605233770009,0.9832755752691892,0.9825734291089682,0.9818535738791468,0.9811154839509043,0.9803586126839435,0.9795823885820183,1.010860234417478,1.0447561171615385,1.0816448795558895,1.121972739290214,1.1662761999157802,1.2152062926270057,1.2695603837513063,1.3303245994534794,1.3987311969044096,1.4763371485079908,1.5651331094516179,1.6676962336057526,1.787406459650696,1.9287540301121968,2.097774388064123,2.3026463796283774,2.554447533348525,2.8678615133283443,3.2609039643958497,3.7503523401381567,4.332943809842434,4.931492522525977,4.013415057273893,3.317241913872532,2.7491658717759124,2.297327096605288
