series,2021-12-01,2021-12-02,2021-12-03,2021-12-04,2021-12-05,2021-12-06,2021-12-07,2021-12-08,2021-12-09,2021-12-10,2021-12-11,2021-12-12,2021-12-13,2021-12-14,2021-12-15,2021-12-16,2021-12-17,2021-12-18,2021-12-19,2021-12-20,2021-12-21,2021-12-22,2021-12-23,2021-12-24,2021-12-25,2021-12-26,2021-12-27,2021-12-28,2021-12-29,2021-12-30,2021-12-31,2022-01-01,2022-01-02,2022-01-03,2022-01-04,2022-01-05,2022-01-06,2022-01-07,2022-01-08,2022-01-09,2022-01-10,2022-01-11,2022-01-12,2022-01-13,2022-01-14,2022-01-15,2022-01-16,2022-01-17,2022-01-18,2022-01-19
S,49521.522402313814,49520.914730083576,49520.27892708031,49519.68232583659,49519.148032259276,49518.68006993575,49518.27471407784,49517.92552825903,49517.62554309013,49517.36814583281,49514.68127901622,49513.016421886496,49511.78082594186,49510.749297958115,49509.833783490605,49508.99786931943,49508.22487405387,49507.50586737551,49709.36111561235,49911.23989116251,50113.13984396518,50315.0573063438,50516.98815214433,50718.92807045882,50920.872596843226,51122.81703517138,51324.75631625615,51526.68480113936,51728.59601656682,51930.48229376298,52132.33426124957,52334.140110523804,52535.88449833262,52737.54684907337,52939.09862977811,53140.498786586104,53341.685714068604,53542.56225622783,53742.96555344598,53942.60045073923,54140.87280582212,54336.391242797676,54322.48002428713,54304.27562261297,54277.470165988234,54240.69392635284,54192.38666941323,54131.98827870447,54059.85777135159,53977.17797491055
E,7.641401350560302,5.956653175631935,4.805460226209356,3.9604234020703273,3.3065899587592975,2.7825752946613673,2.3531585641743806,1.9963968137295316,1.697462938515675,1.4456213142742698,1.2326846036589323,1.0519462206832788,0.8983919200658247,0.7677800905879137,0.6565582172242495,0.5617523386327602,0.48086748376576993,0.4118051225681453,0.35279594531656244,0.304155773487631,0.263685210616558,0.2297932622203625,0.2012799175883918,0.17721234426055266,0.15685038971543777,0.1395990045761229,0.12497610389075439,0.1125898460676453,0.10212208755890424,0.09331622800963021,0.08596847524306245,0.07992208289627835,0.0750645487624717,0.0713282694265007,0.06869593369306694,0.06721339405480302,0.06701577137573363,0.06837938850181255,0.07182919394171397,0.07837904442575719,0.09013666752530711,0.11211705581489331,0.15939227342596926,0.19790003797441563,0.23898383449404698,0.2798789356472382,0.31701786861440606,0.3468562349458303,0.36694244513371116,0.3763116792196121
I,4.765349407619415,4.922388009222931,4.56172916295438,4.034511758849154,3.490021373868481,2.986792113186099,2.5433705974702288,2.16137517080922,1.8358522421925056,1.5598263387147357,1.3262135580828942,1.1285529778376482,0.9611572662870744,0.8192601781900171,0.6988567313727471,0.5965847574741955,0.5096239859153626,0.4356086121659754,0.3725525503929845,0.31878643547126256,0.27339392012441793,0.2352313589411214,0.2031829961641707,0.1762553754473682,0.15360055821877014,0.13450994015443027,0.11839769532821136,0.1047821652474305,0.09326855758672253,0.08353409819293767,0.07531584047836276,0.06840099260264451,0.06261955794358187,0.05783916293201648,0.053962130504365075,0.05092518039974711,0.04870272463464509,0.047315893052235124,0.046851970726830464,0.047505064800361055,0.04966538087517107,0.05413612875693556,0.06275328232418254,0.08068788321952122,0.10184574018480495,0.12563307942427565,0.15094716027931968,0.17616312069348147,0.19934905585146306,0.21868389369697985
A,0.5294832675132684,0.6528286545274238,0.700962518890897,0.7049338218989984,0.6827597595813085,0.6454055064278257,0.5998016639821016,0.5504360881109126,0.5002407749006161,0.4511165080759632,0.4042618458889986,0.36039001482096683,0.3198703984772718,0.2828480763837922,0.24931186382467116,0.2191462375764644,0.19216956022015433,0.16816167268909657,0.14688349182832158,0.12809067182215414,0.11159721066235224,0.09718832484837854,0.0846444577453137,0.07375396372390272,0.06431954130693876,0.05616114473701413,0.04911688592689499,0.04304279185823863,0.03781192886862026,0.03331320572166334,0.029450051417619572,0.026139095391387535,0.023308938799998374,0.020899087502872855,0.018859118085093305,0.01714817247886665,0.015734939804737412,0.014598424985061937,0.013730121643103926,0.013138973132734558,0.012862549838960362,0.012994139896927503,0.013758823591988802,0.01578882707637012,0.018568062800328564,0.022023965275084264,0.026015540289484555,0.030322968290019826,0.03466406168039077,0.038739522698323946
IH,0.0,0.9530698815238831,1.4600594727250038,1.640915509480653,1.6257191910006767,1.5092381510830337,1.3504682600276536,1.182557781247845,1.0223713670045187,0.8773337605737559,0.7497548142692513,0.6393703639369354,0.5447564071720604,0.46406490043627296,0.3954204209557036,0.3370861363314455,0.2875229335242304,0.24539874101166348,0.2095756941980152,0.17908878148340648,0.15312258905447235,0.1310869559630653,0.11245866281379385,0.09675347197691729,0.08353105760595536,0.07240210938912575,0.06303064061605981,0.05513182873305612,0.0484672155872811,0.042838852095397784,0.03808340683419102,0.03406678810593387,0.030679525785389905,0.027832994955625936,0.02545649706926064,0.023495218138434075,0.021909149931028025,0.020673210742512008,0.019779110770960517,0.019240170420075392,0.01910185799968983,0.019464903316879438,0.020540212506509954,0.022800222505584975,0.027514887674191146,0.03409907698638237,0.04214205530105994,0.05121831765109285,0.060790564646591626,0.07020430292894182
IN,0.9530698815238831,1.8966090642325273,2.8621205754347883,3.7458452022713162,4.515289102018435,5.168140485771946,5.7138175035514465,6.165353448009977,6.535974947691722,6.837785646653306,7.08137305792972,7.275802038967002,7.428754614144862,7.546698521260828,7.6350835716862235,7.69850408224391,7.740835992916311,7.7653524301702195,7.774820628301712,7.771582932097292,7.757624389870572,7.73472692999675,7.704425932485006,7.668018272392991,7.626589164758534,7.581043384754704,7.532134938938042,7.480493128614304,7.426644630377648,7.371031895591216,7.3140283962738915,7.255951280406826,7.197071966123286,7.137625158050769,7.077816739056665,7.017830997766971,6.957837723869251,6.897999891557488,6.83848307125236,6.779468634685203,6.721174961298423,6.663896287860473,6.608084550733254,6.55455436169076,6.505146394717755,6.460464078807539,6.420986053904319,6.386965625421139,6.358328593305624,6.334615118542861
D,51.0,51.0,51.000953069881525,51.00241312935425,51.004054044863736,51.00567976405473,51.00718900220583,51.00853947046585,51.0097220282471,51.010744399614104,51.011621733374675,51.01237148818894,51.01301085855288,51.013555614960055,51.01401967986049,51.01441510028144,51.014752186417766,51.0150397093513,51.01528510809231,51.015494683786514,51.01567377256799,51.01582689515704,51.015957982113015,51.01607044077583,51.01616719424781,51.016250725305405,51.01632312741481,51.01638615805541,51.01644128988415,51.01648975709973,51.01653259595182,51.016570679358665,51.01660474614677,51.016635425672554,51.016663258667506,51.01668871516457,51.0167122103827,51.016734119532636,51.01675479274338,51.01677457185414,51.01679381202457,51.01681291388257,51.016832378785885,51.01685291899839,51.01687571922089,51.016903234108554,51.01693733318555,51.016979475240845,51.0170306935585,51.01709148412315
R,0.0,0.1154273523178925,0.741494114627644,1.6403375605226735,2.639240531665512,3.6338049701022967,4.569186551787099,5.4215191896328605,6.184538832359065,6.861132420318365,7.458400458686969,7.984943965578691,8.449465170901021,8.860105000323955,9.22417405103146,9.548097469991108,9.837454826494561,10.097058565229869,10.331043794575224,10.542956546322914,10.735834900750021,10.912291881308432,11.07462029355961,11.224822775840419,11.364630487297587,11.495525816009541,11.618769533499052,11.735429580381844,11.846408984406162,11.952471424277302,12.054263810425244,12.152335808088605,12.247156534023915,12.339128804337843,12.428601370896736,12.515879610438953,12.601235163981615,12.684915104146768,12.76715139343061,12.848171803857237,12.928214370040672,13.007549558621296,13.086519801137724,13.16562251761671,13.245725937901682,13.328248458246023,13.414307430582307,13.504791426829776,13.600334835567539,13.70124621615997
G,10394.0,10396.063178364651,10397.671474722074,10398.968948983149,10400.03826330171,10400.931042590573,10401.682337920134,10402.317690732461,10402.856717872166,10403.315032865567,10403.70535062042,10404.038175463407,10404.322200942992,10404.564766761412,10404.772067385871,10404.94933810452,10405.101011235953,10405.230845456568,10405.34203283966,10405.437287744895,10405.519409803735,10405.590604810604,10405.652648991401,10405.706994569151,10405.7548419021,10405.797191507323,10405.83488323856,10405.868626786612,10405.899026045048,10405.92659900869,10405.951794390252,10405.975005878568,10405.996584840952,10406.016852269116,10406.036110901863,10406.05465880396,10406.072806420354,10406.090900678624,10406.10936311352,10406.128756995886,10406.149919337879,10406.174256238111,10406.20452784318,10406.247563757006,10406.300996767257,10406.365522402572,10406.4410897152,10406.526684539725,10406.620335723159,10406.719410183345
H,4860.623584519503,4860.623584519503,4860.623584519504,4860.623584519502,4860.623584519503,4860.623584519502,4860.623584519503,4860.623584519502,4860.623584519503,4860.623584519502,4860.623584519502,4860.623584519502,4860.623584519502,4860.623584519502,4860.623584519503,4860.623584519503,4860.623584519502,4860.623584519503,4715.77440859482,4572.568843820396,4431.07612255678,4291.369143612035,4153.524694240451,4017.6236622917377,3883.7512326254387,3751.997060282158,3622.4554109688943,3495.2252571407157,3370.410315327497,3248.119007365942,3128.464324891718,3011.563572914343,2897.5379647035147,2786.5120368276166,2678.6128504043127,2573.968943015654,2472.7089960601925,2374.9601855109527,2280.8461912335915,2190.484852385055,2103.9854750626173,2021.445844331092,2021.445844331092,2021.4458443310923,2021.4458443310918,2021.445844331092,2021.4458443310923,2021.4458443310923,2021.4458443310923,2021.4458443310923
S0,17332.532840809836,17293.20045807754,17230.59443289535,17168.23473657384,17106.13346103352,17044.292105265835,16982.70783429727,16921.376276506864,16860.292742277412,16799.45272694404,16737.81563035414,16676.835721417585,16616.260135603963,16555.992123723314,16495.993109604933,16436.246419001123,16376.743766864169,16317.48019052653,16324.970830387798,16331.395854325192,16336.726122046173,16340.930434682085,16343.97585740853,16345.827803127459,16346.450026512613,16345.804589355717,16343.851822138371,16340.550291677131,16335.856777442319,16329.726253912098,16322.111869830167,16312.964904485863,16302.234661658615,16289.868225294287,16275.809930022831,16260.000256088137,16242.37355169169,16222.85328410941,16201.341768606262,16177.696432194145,16151.668861672555,16122.72035308298,16059.440880831151,15994.799590059758,15927.204585910082,15856.180875946846,15781.190792642321,15702.074722405363,15619.014424578992,15532.491610675546
E0,7.641401350560302,5.683918395130641,4.330512781360032,3.362105999427773,2.6501728032203156,2.1153330336772975,1.7063647871725471,1.38896517331766,1.1394571087034058,0.941097957997106,0.7818155079661488,0.6526309474234342,0.5470931857991999,0.46028591458703233,0.3884473097823205,0.32867545078690075,0.27871027772269324,0.23677420276683375,0.2014555808972391,0.1726235442048222,0.14884391581392226,0.12908349475132916,0.11257031162052432,0.09871165139450826,0.08704345485264922,0.07719744374822698,0.06887874788412815,0.06185010424391188,0.0559204183942901,0.05093640888702586,0.0467765907074177,0.04334719953753628,0.04057993380935984,0.03843168759376574,0.036886876288832054,0.03596372306871276,0.035727436489084614,0.03631673399036323,0.03799894080347895,0.04129340402386769,0.04728227562048549,0.0585418329268188,0.08281268042531521,0.10245734663534581,0.12331998808932679,0.14396548074554824,0.16256582793520968,0.17732705872376847,0.18703260978307143,0.19123510867383903
I0,4.765349407619415,4.922388009222931,4.4880907722190315,3.8620929142986276,3.225024368424675,2.6505612779242904,2.1614766858474446,1.7576045040450545,1.4295832992228008,1.1654033988836001,0.9533384879893787,0.7830932799444874,0.6460663237710197,0.5353549544283958,0.44549016959553617,0.3721748753985482,0.31204729695159217,0.2624801531560825,0.2214171266406946,0.18724328282667133,0.1589543266313048,0.13556045324854188,0.116188815531984,0.10010727345673195,0.08671650995055641,0.07553163878054914,0.06616229308035076,0.05829463777692506,0.05167631081201124,0.046104299453665065,0.041415410071696024,0.037478925534020394,0.03419109919554703,0.03147124164585538,0.02925930063782998,0.02751503698068264,0.02621922741696203,0.02537794430223006,0.02503228475873611,0.025279084872180984,0.026316670009752866,0.028556216423382803,0.032940024744270754,0.04212343856139756,0.052937546728381905,0.06505892482114738,0.07790603469398645,0.09063639435889849,0.10226014247075658,0.11185489012388324
A0,0.5294832675132684,0.6528286545274238,0.6927804754758582,0.6841397638214876,0.6481749910400232,0.598045176928628,0.5418961325532213,0.4847078496577535,0.4294352349257326,0.37773190120168826,0.33041845970126377,0.2877892329999955,0.2498103148226994,0.2162610474321355,0.18681741538331936,0.1611073516001251,0.1387461448037071,0.11935822417464648,0.1025898054227222,0.08811551176509493,0.0756711157382206,0.06500221006499415,0.0558742728945352,0.04807652766424389,0.04142257167323036,0.035749360984163765,0.03091541209977782,0.026798692116346102,0.023294456820394237,0.02031317800814409,0.01777863467312605,0.01562620545972337,0.013801380353904786,0.012258502297404624,0.010959752465736671,0.009874408261254299,0.00897843830106482,0.008254573735524394,0.007693161008130413,0.007294497030608698,0.007074399745202989,0.007077988064776956,0.007418645439626129,0.00841929676446036,0.009809157810628662,0.011546925891182733,0.013556505135312633,0.015722178946306398,0.01789755491875817,0.01992902222849868
IH0,0.0,0.9530698815238831,1.4600594727250038,1.6261878313335831,1.5838863106951835,1.4353641427218315,1.246358962803052,1.0542284596082119,0.8775809021535086,0.723829530019161,0.5942716152562814,0.4872092336107602,0.3997360635606668,0.3286815604709767,0.27108308956069654,0.2243684956098948,0.18639485438904715,0.15542049173045297,0.13005085600471253,0.10917880247449047,0.09192887900010502,0.07766337594731336,0.06586611524741774,0.05610495461485825,0.04801782704416066,0.041304197685147453,0.035717122400998405,0.031055302694168355,0.027155523599775022,0.023885868438689985,0.021139908241639315,0.018831896226917222,0.016892901324035772,0.015267777599803257,0.0139128693514729,0.012794381933950973,0.011887403981178064,0.01117566007000026,0.010652243235376141,0.010321926326199916,0.010206458211209956,0.010356356649344341,0.010879065252699388,0.012016658509951147,0.014421000308745133,0.017783588499740204,0.021885795625599835,0.02650221895597161,0.03135188613080953,0.03609661967342527
IN0,0.9530698815238831,1.8966090642325273,2.8621205754347883,3.7311175241242465,4.46622493174273,5.066567556110238,5.546014136133993,5.9228493319421425,6.215141739431732,6.438906981881975,6.607598591839875,6.732190303519352,6.821487056473056,6.8824854506625295,6.920731587041583,6.940622305090275,6.945651057119082,6.93860400593821,6.921713996510044,6.896780281873082,6.8652611356196855,6.82839938958975,6.787227486343561,6.742592974586522,6.695188499532003,6.645579916526795,6.594230445117637,6.5415205992825305,6.48776432084509,6.433221939799042,6.378110580291785,6.3226125565032065,6.266882216044978,6.211051613723638,6.155235345915572,6.099534852583982,6.044042511454279,5.988845931823128,5.934033061365343,5.879699187703437,5.8259580128008395,5.772961766674782,5.72094339229271,5.670321963318638,5.6220434313977306,5.57641050642943,5.533658186329365,5.493902811404869,5.4570910621626,5.422972180035125
D0,51.0,51.0,51.000953069881525,51.00241312935425,51.00403931718559,51.005623203496285,51.00705856763901,51.00830492660181,51.00935915506142,51.01023673596357,51.01096056549359,51.01155483710885,51.01204204634246,51.01244178240602,51.01277046396649,51.01304154705605,51.013265915551656,51.013452310406045,51.013607730897775,51.01373778175378,51.01384696055626,51.01393888943526,51.014016552811206,51.014082418926456,51.01413852388107,51.01418654170811,51.0142278459058,51.0142635630282,51.014294618330894,51.01432177385449,51.01434565972293,51.01436679963117,51.0143856315274,51.01440252442872,51.01441779220632,51.014431705075665,51.014444499457596,51.014456386861575,51.014467562521645,51.01447821476488,51.0144885366912,51.01449874314942,51.014509099506064,51.014519978571315,51.014531995229824,51.01454641623013,51.01456419981863,51.014586085614255,51.01461258783321,51.01464393971934
R0,0.0,0.1154273523178925,0.741494114627644,1.6387011518396655,2.625934195511997,3.5921745983850206,4.4801313806927645,5.2671502299662745,5.950434523021353,6.537263438477571,7.039113653546309,7.468409139033101,7.8368935054736735,8.154938470783277,8.431356315011818,8.673468658739246,8.88728059991512,9.077683766641577,9.248651697401115,9.403412226453117,9.544592532862112,9.674343806866005,9.794459930748559,9.906440117814611,10.011533830400754,10.1107791432528,10.205036913457475,10.295020861529107,10.381323457292286,10.464437753664702,10.544775542883666,10.622682329742029,10.698449644512463,10.772325193405711,10.84452129880233,10.91522203743037,10.984589458575437,11.052769273340783,11.119896477441118,11.186101561874086,11.251518416320343,11.316296105502996,11.380619499107372,11.444752194744574,11.509147602985628,11.574540369016104,11.641505653508505,11.710496434211661,11.781831007592958,11.85565737226374
G0,10394.0,10396.063178364651,10397.597836331337,10398.767074782305,10399.67484340215,10400.39039005902,10400.961529978113,10401.42224847065,10401.797269067445,10402.104922486795,10402.359018935455,10402.570109122606,10402.74631947841,10402.894034638577,10403.018311835516,10403.123192609157,10403.211934980869,10403.287186755853,10403.3511157906,10403.405508797441,10403.452117154377,10403.492305011647,10403.527157555229,10403.557551539367,10403.584203685243,10403.607705418053,10403.628548727866,10403.647145989795,10403.66384551794,10403.678944030906,10403.692696861306,10403.705326540798,10403.717030284673,10403.727986866801,10403.738363422452,10403.74832287905,10403.758033084277,10403.76767949213,10403.777485010307,10403.787744724325,10403.79889394341,10403.811660157828,10403.827466452718,10403.849825876432,10403.877489360024,10403.910785756809,10403.94965643661,10403.993549210154,10404.04142751601,10404.09192632065
H0,1701.2182545818262,1697.390513509017,1691.2799076603844,1685.191299992807,1679.124611312833,1673.0797627121067,1667.056675566343,1661.0552715343042,1655.0754725567808,1649.1172008555764,1643.1803789324963,1637.2649295683393,1631.3707758218934,1625.4978410289345,1619.6460488012303,1613.815323025546,1608.005587862654,1602.2167677463485,1529.9300872273425,1458.9537416840344,1389.3148713899361,1321.0421562680306,1254.1658571046082,1188.7178477790762,1124.7316352179953,1062.2423630551912,1001.2867941374564,941.9032660541017,884.1316127935397,828.0130444590574,773.5899757456416,720.9057926535107,670.0045457913709,620.9305577497499,573.727931606326,528.4399479320326,485.1083390402671,443.772432065921,404.46815721739796,367.22692463890667,332.07438307439367,299.0290938542083,297.9525891163332,296.87995979551437,295.8111919402505,294.7462716492656,293.68518507132825,292.62791840507145,291.5744578988132,290.5247898503775
S1,4952.152240231382,4637.335664541362,4368.264065518865,4118.196291974868,3885.777904494354,3669.748596662099,3468.9372262179986,3282.256150539395,3108.6955233381213,2947.317815627371,2797.0794510813803,2657.428865894099,2527.567140903344,2406.779826132164,2294.4132731274235,2189.8640731664505,2092.5732548130545,2002.0223111083646,1925.5760812589178,1854.2068196984776,1787.5729039101786,1725.3549305475894,1667.2543038825916,1612.99188509878,1562.3067180091582,1514.954833728742,1470.708132017908,1429.3533353424025,1390.6910111783864,1354.5346579243355,1320.7098496004674,1289.0534340732684,1259.4127785349147,1231.6450538586976,1205.6165451453876,1181.2019668506314,1158.2837416047562,1136.7511574866396,1116.4992075067485,1097.4266048930954,1079.431465288414,1062.3991813477614,1044.2147551663281,1027.0036025420836,1010.5921030954131,994.8861840601535,979.793308079186,965.2492843514774,951.21449855942,937.6702383577375
E1,0.0,0.09569641421098017,0.16131792514100005,0.19677284479725854,0.20891098105205022,0.20534667942153068,0.19232266212305946,0.17435700471604695,0.15447826233338788,0.1345892092393026,0.11579996104659994,0.09866684297052677,0.08344823541839957,0.07017532966543114,0.058753222860221783,0.049022279450494095,0.04079575101731309,0.03388239406850765,0.02809944933104568,0.023397470146724844,0.019558090591734686,0.016414441217213638,0.01383534564599298,0.011716015758727086,0.009972037312413477,0.008535141848848276,0.007350043588466621,0.006371979780093327,0.005564759889098337,0.0048992088516736565,0.004351930824948033,0.0039043447488678164,0.0035419625481395035,0.003253901796830762,0.00303265450258283,0.002874185413705226,0.0027785364167950384,0.002751343250592622,0.0028072388430255956,0.002977699476813362,0.0033310004329435167,0.004032163177420524,0.005579106545622019,0.00679809777859277,0.00807182200244599,0.009307667592774543,0.010392341805285372,0.011219032881616424,0.011720182794990755,0.011877209711480359
I1,0.0,0.0,0.025838031836964648,0.059058658890248805,0.08856386342940908,0.10954428294169902,0.1211701732088327,0.12462922269852567,0.12185392489244808,0.11482148576548357,0.10523197795390185,0.09440517625492309,0.08328315335499609,0.07250091557596554,0.06244788835524573,0.05333210318540732,0.045235277362877795,0.03815601919240121,0.032041857913937793,0.02681196606774501,0.022404496580262716,0.018723382407925995,0.01566592857340328,0.013135100468460071,0.011044384535932355,0.009319080795911051,0.007895936776735665,0.006722073834927386,0.00575367884158163,0.004954692475005529,0.004295601874955204,0.0037523824477090914,0.003305602550819765,0.002939691418489525,0.002642368336238021,0.0024042377174401768,0.002218572692164517,0.0020813484478333704,0.00199167174636003,0.0019529575354329289,0.001975753379999365,0.0020848221448943687,0.0023395773448401627,0.0029101051742220427,0.0035815495047532737,0.004328321643512382,0.005110063236156556,0.005871970229120984,0.0065523210155090245,0.007095841963952918
A1,0.0,0.0,0.002870892426329405,0.007136251695293525,0.011612186700152575,0.015557078791683566,0.018606063415992774,0.020654530596486004,0.021754334618670212,0.022037815564937807,0.021667928729129322,0.020808341814701457,0.019606678740876966,0.01818879005525356,0.01665629193416578,0.015087630233139276,0.013540772570026244,0.012056490586540389,0.01066166429128754,0.009372314912961402,0.008199776034770867,0.007146563545568734,0.006209684072971396,0.005382807627756906,0.004657726574967338,0.004025342379346274,0.0034763281589424676,0.003001563834807973,0.002592410461249178,0.0022408711656722925,0.0019396731980880436,0.0016822964832188757,0.001462967529041135,0.001276632899677093,0.0011189233736465974,0.0009861183339947626,0.0008751202296069669,0.0007834522761894246,0.0007093021184693183,0.0006516588600662225,0.0006106580723573788,0.0005884564708742086,0.0005917300720219825,0.0006407572539862466,0.0007165487365467804,0.000815393649310804,0.0009315449472318794,0.0010570062119440646,0.0011821759560037444,0.0012973462486527182
IH1,0.0,0.0,0.0,0.00516760636739293,0.014390367355378835,0.024893565996215856,0.03433074602045152,0.04136507690597185,0.04556701791578509,0.047108726918466376,0.04647155188541144,0.04423569998160068,0.04095464954180336,0.037093000792359096,0.0330095905105803,0.028961363335828716,0.025118140941659994,0.021581007802463893,0.018400126731909727,0.015590034822010513,0.013141820589732248,0.011038667790328936,0.009252971708959338,0.0077504185974513655,0.006494478973820246,0.005449621915122774,0.004583177494828474,0.0038661929252665414,0.003273645036693481,0.0027842846416263733,0.0023802965311726662,0.0020468883440462014,0.001771873773220873,0.0015452855230011686,0.0013590357596754883,0.0012066325113256728,0.0010829571666395462,0.000984110164586037,0.0009073406616951066,0.0008510973394578643,0.0008152890794760601,0.000801979926658427,0.0008171524123814289,0.0008756745227463656,0.001018982621694845,0.0012247822291763825,0.0014768306610614913,0.0017589511471009954,0.0020521106682275937,0.0023344674265473745
IN1,0.0,0.0,0.0,0.00516760636739293,0.01692766208176876,0.034471158146832895,0.05603530315370437,0.07970898476393387,0.10383773945599967,0.1271701470399293,0.14886274272262673,0.16842051088618082,0.18561734102830363,0.20041779828901982,0.2129138034213227,0.22327424305815863,0.2317079212646585,0.23843789752458747,0.24368472238782182,0.24765624674673117,0.2505420774928129,0.2525175560339373,0.2537370569551831,0.2543328721003119,0.2544165634730008,0.2540812747454573,0.2534042781571849,0.2524494227309602,0.2512693432706361,0.24990738560624606,0.24839925024518472,0.2467743781177239,0.24505711082608847,0.24326766022799154,0.24142292190940953,0.23953716635756303,0.23762264223747542,0.23569013035353356,0.2337494987395649,0.23181033810144128,0.22988282622751344,0.22797914864123817,0.22611632158380465,0.22432307383693464,0.22266186413340971,0.22115155539302628,0.2198057041677985,0.2186296597733518,0.21761775722144247,0.21675204385232985
D1,0.0,0.0,0.0,0.0,5.16760636739293e-06,1.9557973722771768e-05,4.445153971898763e-05,7.878228573943914e-05,0.00012014736264541099,0.00016571438056119607,0.00021282310747966244,0.00025929465936507385,0.00030353035934667453,0.0003444850088884779,0.000381578009680837,0.0004145876001914173,0.000443548963527246,0.000468667104468906,0.0004902481122713699,0.0005086482390032796,0.0005242382738252901,0.0005373800944150224,0.0005484187622053513,0.0005576717339143107,0.000565422152511762,0.0005719166314855823,0.000577366253400705,0.0005819494308955335,0.0005858156238208,0.0005890892688574934,0.0005918735534991198,0.0005942538500302925,0.0005963007383743387,0.0005980726121475596,0.0005996178976705607,0.0006009769334302362,0.0006021835659415619,0.0006032665231082015,0.0006042506332727875,0.0006051579739344826,0.0006060090712739404,0.0006068243603534165,0.000607626340280075,0.0006084434926924563,0.0006093191672152027,0.0006103381498368975,0.0006115629320660739,0.0006130397627271354,0.0006147987138742364,0.000616850824542464
R1,0.0,0.0,0.0,0.000574178485265881,0.004636908071694981,0.0143238057102326,0.03022671604814557,0.051673654773106925,0.07728418919302939,0.10545694246921597,0.13469057051183603,0.16374855962759388,0.19171228309019633,0.21796711701955646,0.24215555340967693,0.26412074508601346,0.2838516952311373,0.3014359994286191,0.317022180422405,0.3307914238704956,0.34293746673156045,0.35365375300830887,0.36312757517292643,0.3715333684115522,0.37902846795683237,0.385751418393466,0.39182211057435123,0.3973430077351258,0.4024009111920303,0.40706890923533323,0.4114082996453433,0.4154703750529991,0.41929802230284324,0.42292712380352276,0.4263877697472387,0.42970530152089986,0.4329012131069373,0.4359939421585532,0.43899958899961944,0.4419326147415565,0.4448065985643131,0.44763520298079773,0.45043367572471416,0.4532217611611473,0.4560309806116871,0.45891040031117797,0.46189738570955857,0.4650201670712137,0.4682973404848865,0.4717360085824155
G1,0.0,0.0,0.025838031836964648,0.06939387162503466,0.12252253972029448,0.17892850460434803,0.23437210804816133,0.28629922682138736,0.33337561809472005,0.37508474892473476,0.41142383541934646,0.44268982490192843,0.4693298725039707,0.49186089606693856,0.510808235076605,0.5266716052488649,0.5399076207004984,0.5509224734751729,0.56007071987367,0.5676575711930523,0.573974888132668,0.5792555725924363,0.583687471721084,0.5874230150455021,0.5905863393003584,0.59327878937471,0.5955832776738991,0.5975677894427851,0.5992882239834103,0.6007907091534669,0.6021134955434188,0.6032885168661547,0.604342689948349,0.6052990198363467,0.606177573321491,0.6069963900371884,0.6077724200988889,0.6085226249314235,0.6092654876090835,0.6100234420967005,0.6108274209554401,0.6117267910723349,0.6128154751302384,0.6143218338975563,0.6161573202977764,0.6183367122384368,0.6208497824884859,0.623655714775913,0.6266848536539494,0.629849303008597
H1,486.06235845195033,455.1713596353344,428.76972551001444,404.2319242125908,381.42490402023697,360.2251166195177,340.5178382924586,322.1965395893218,305.1623000247509,289.32326458133025,274.5941390343153,260.8957213245926,248.1544664049963,236.3020821690268,225.27515424180046,215.01479757164202,205.46633290798812,196.5789863880088,180.45954339346028,165.6442597794667,152.01954177004018,139.48205745621055,127.9378678286793,117.30162982463825,107.49586526790246,98.45029002425711,90.10119809244746,82.39089570869966,75.26718086243741,68.68286390683019,62.59532520469643,56.96610598406774,51.760528796135155,46.94734418137905,42.49840037027621,38.38833308911224,34.59427282835186,31.095567282589155,27.873517110168823,24.911123707935044,22.192848366111182,19.704383475777735,19.373432251097334,19.062244982552038,18.769423910490744,18.49367106501202,18.23378113830566,17.988634866112037,17.75719288193372,17.538490010231325
S2,4952.152240231382,5246.883276443748,5515.614993521743,5761.929167993994,5987.452130618758,6193.692783013888,6382.051419365272,6553.827730151081,6710.228129935144,6852.372504305224,6981.004419318687,7097.491989735653,7202.667019721323,7297.336938435032,7382.264698754021,7458.163639594427,7525.6978634672705,7585.48455044389,7669.342319005917,7746.547635464481,7817.494550605866,7882.549340036044,7942.052341035814,7996.319608939826,8045.644443677234,8090.298811776094,8130.534678486164,8166.585259995288,8198.666203282437,8226.976699253513,8251.700532419272,8273.007066479504,8291.052158202881,8305.978978977035,8317.918698243788,8326.990932273622,8333.30375356806,8336.95280913038,8338.018479895163,8336.558296264593,8332.58628037163,8326.008965484356,8300.947130574823,8274.326468214433,8245.674946360577,8214.901940687094,8181.888175736668,8146.640930179049,8109.282497147948,8070.036779814278
E2,0.0,0.03349374497384306,0.060800966562914366,0.07961660598063522,0.09058347282365517,0.09528603579890758,0.09539737594331689,0.09236183891179088,0.08731619169245267,0.08110731555064127,0.07434159834295048,0.06741936612363374,0.060637102430567115,0.0541766679558778,0.04814351847799458,0.04259123416286419,0.03753832544407449,0.03298005294736012,0.028896789623843476,0.025424415899945374,0.022446805435309386,0.01988187563780661,0.017667414183756686,0.01575381727066705,0.014100243357067544,0.012672463549535166,0.011441569688871802,0.010383134578122939,0.009476631821489879,0.008705028460210202,0.008054518723977451,0.00751440106245665,0.00707713020708744,0.006738615132039674,0.006498900948538526,0.006363503773358207,0.006345944794569361,0.006472663495298185,0.006793075118048214,0.007401971614893502,0.008495820698756918,0.010541380774879835,0.014940149264381575,0.018506563645419947,0.022297249180247933,0.026052628142029792,0.029441274961712262,0.03213724802826261,0.033918689027945224,0.034702881787501146
I2,0.0,0.0,0.009043311142937627,0.021842247657749454,0.03460183220942119,0.04521863698803961,0.05285841185852881,0.05747233861981285,0.05942109967807124,0.05922803156380496,0.057435794136956125,0.054533708034770305,0.050923453674243294,0.046926089860799096,0.04278335426456646,0.03866876254779841,0.03470089075265238,0.030955882321491542,0.027478143688682156,0.02428901941164703,0.02143800393997347,0.018923439831517615,0.016722170321118356,0.014803504022285318,0.013135633076451294,0.011688445552279013,0.010434632489741903,0.009350003309840527,0.00841344832199751,0.007606759585000774,0.006914413435257219,0.006323368116628243,0.0058229091568402416,0.005404570650017754,0.005062168475661365,0.004792004341502221,0.0045933486237080485,0.004469414268758557,0.004429267704985644,0.004491690904864404,0.004693546878939888,0.0051099997160283005,0.005912172638834536,0.007581143884683747,0.009545458515073633,0.011747532387711122,0.014082729030974718,0.016398781658247142,0.01851632596257919,0.020267841615092725
A2,0.0,0.0,0.0010048123492152918,0.0026278788762596644,0.0044908012804267886,0.006310145209051086,0.007906697241208096,0.009187279071265982,0.010120678424366512,0.01071602849026679,0.01100604225873267,0.01103508175727465,0.010850646389528732,0.010499630184539999,0.010025004186308334,0.009464308903386504,0.008849184147595128,0.008205497081398337,0.007553799253539472,0.006909943091546882,0.006290686950235867,0.005705953723247975,0.005161219247732578,0.0046589978236987635,0.0041998127770790225,0.0037828575223752443,0.0034064599243862504,0.003068415030175154,0.0027662260614838116,0.0024972798038317458,0.0022589746968717027,0.0020488153192166855,0.0018644842872470478,0.0017039013360102614,0.0015652795227693993,0.001447190646671675,0.0013486576305380862,0.0012693044482675498,0.0012096234634729854,0.0011714910243198348,0.0011592519679026728,0.0011822761952848457,0.0012620623794742717,0.0014578543815108645,0.00172148041457129,0.0020461018070644698,0.0024184602899124693,0.002818006480781343,0.0032185226254729526,0.0035923787712167188
IH2,0.0,0.0,0.0,0.0018086622285875256,0.005270971983615066,0.009550581461708157,0.013809467547000291,0.017462606677658907,0.020208308456114366,0.02196816585521532,0.022807721074513437,0.02286821164357343,0.022317979217097203,0.02132136236418016,0.02002457779188572,0.018548935171064266,0.01698967115992075,0.015418024059330931,0.013884770469904443,0.012424129202218748,0.011057444354236562,0.009805265520758739,0.008677515461162133,0.007674514279343576,0.006790283429849508,0.006015478046785164,0.005339412655801599,0.004751293413193379,0.004240896075151601,0.0037988968059001513,0.0034170014231443306,0.0030879663972004645,0.0028055688555286805,0.00256456069027686,0.002360629914451704,0.0021903880224436734,0.0020514044914998375,0.0019423205660000285,0.0018631008161857257,0.0018155408482738058,0.00180429306426151,0.0018390516148544711,0.0019396866990180413,0.00215033819057691,0.0025892475340346275,0.0032011262224980056,0.003946868462568729,0.00478603316901674,0.005667986882988782,0.00653159064712724
IN2,0.0,0.0,0.0,0.0018086622285875256,0.006159025137851541,0.013017801328357264,0.021931350712681614,0.03228371957726056,0.04345535010545053,0.054905016540010274,0.06620157268737116,0.07702671578788867,0.08716319023696384,0.09647624906944285,0.10489670455090824,0.11240440835831245,0.119014116784289,0.12476415376697658,0.12970768869360513,0.1339062405444055,0.13742498202129086,0.14033833298907264,0.14271963762548542,0.14463687531345423,0.14615120736477674,0.14731682190641923,0.14818134279781084,0.1487864558677811,0.1491685919710714,0.14935959571576019,0.14938735167560274,0.14927636084589815,0.14904827086076483,0.14872236998352523,0.14831606041369352,0.14784533350468887,0.14732528103794243,0.1467706979523046,0.14619687382653326,0.14562075862926505,0.14506288922394528,0.14455096970749381,0.14412745995362453,0.14386861988185518,0.14394616245997338,0.14441579253838838,0.14532114109054672,0.1466844754858362,0.14849738706262727,0.15071567838451683
D2,0.0,0.0,0.0,0.0,1.8086622285875257e-06,7.0796342122025925e-06,1.663021567391075e-05,3.043968322091104e-05,4.790228989856995e-05,6.811059835468432e-05,9.007876420989964e-05,0.00011288648528441308,0.00013575469692798651,0.0001580726761450837,0.00017939403850926385,0.00019941861630114958,0.00021796755147221385,0.0002349572226321346,0.00025037524669146554,0.00026426001716137,0.0002766841463635887,0.00028774159071782524,0.000297546856238584,0.00030622437169974614,0.0003138988859790897,0.0003206891694089392,0.0003267046474557244,0.000332044060111526,0.00033679535352471935,0.00034103624959987096,0.0003448351464057711,0.00034825214782891546,0.00035134011422611593,0.0003541456830816446,0.0003567102437719215,0.00035907087368637316,0.0003612612617088168,0.00036331266620031667,0.0003652549867663167,0.0003671180875825024,0.00036893362843077617,0.00037073792149503766,0.00037257697310989215,0.0003745166598089102,0.0003766669979994871,0.0003792562455335217,0.0003824573717560197,0.0003864042402185884,0.00039119027338760517,0.00039685826027059396
R2,0.0,0.0,0.0,0.00020096246984305837,0.0016489559816746293,0.0052441924809460356,0.011411690266893905,0.020117076995762484,0.031008673344617738,0.04357151675860273,0.05724785554966385,0.07151494026554081,0.08592632959666134,0.10012708038548533,0.11385245009517785,0.12691870687389145,0.139210080323684,0.1506648939010063,0.1612626468846212,0.17101286885721736,0.17994598448208016,0.1881070938694585,0.1955543007043782,0.20235249866076063,0.2085679241183067,0.21426454046229504,0.21950201920922685,0.22433483094998302,0.22881202522129254,0.23297740439087583,0.23686990471174985,0.24052407387945238,0.24397058375035494,0.24723674774417634,0.25034703205635206,0.2533235635222687,0.25618664899787175,0.2589553355801087,0.2616480637322853,0.26428350757133806,0.2668817837866316,0.26946640960458235,0.2720679003481415,0.2747314307730816,0.2775368569434908,0.2806152384180221,0.2840691798160679,0.28797951751624024,0.29240298015176325,0.2973656519889785
G2,0.0,0.0,0.009043311142937627,0.025459572114924507,0.04695605572969602,0.07141359339208292,0.09714082305778797,0.12289811456248353,0.14783581106866708,0.1714111828256293,0.19331015802430246,0.2133823895768991,0.2315856184302802,0.24795763608653332,0.26258533643462034,0.2755840864236789,0.2870837196476522,0.29721906751755234,0.30612368181333954,0.3139258150117773,0.32079040730476255,0.3268510447722961,0.3322191511945039,0.3369893530241182,0.3412428836871983,0.34504994939360656,0.34847151455198105,0.35156073836797647,0.35436418470406966,0.3569228752958719,0.35927323298012864,0.36144795303560256,0.3634768413224659,0.3653876664783795,0.3672070925640302,0.3689617958201356,0.3706799418389423,0.37239334693347603,0.37414096607720654,0.37597509635907955,0.3779736286951008,0.38026750028376516,0.3831136730929827,0.38714751339436576,0.3921442855786291,0.3981645428572961,0.40519875245564413,0.41314789669530644,0.4218249536629373,0.43098299970048254
H2,486.06235845195033,514.9946416931379,541.3759930755053,565.5574497419884,587.6983318316736,607.9465591208374,626.4394655565072,643.3045556064864,658.660206581837,672.616320790964,685.2749311087856,696.730763288513,707.0717581058825,716.3795562049789,724.7299483098502,732.1932932758139,738.8349062776476,744.71541926777,718.6456522117943,691.9308433499394,664.7194373521295,637.1484865521318,609.3447139168426,581.4254840834793,553.499687860854,525.6685446367444,498.02632616612476,470.6610042297036,443.6548236485077,417.08480112483767,391.0231493696583,365.53762500246916,340.69179782215474,316.5452383211561,293.15361985573645,270.56873183214833,248.83840079856074,228.00631765426152,208.11177152786132,189.1892944524268,171.26822593934574,154.37221700267082,153.94190847709936,153.49308329887896,153.02737361550317,152.5462923041632,152.05124151947163,151.54352063030927,151.02433358943264,150.49479577636325
S3,14856.456720694146,14791.549769922935,14730.689631578409,14673.539445922464,14619.803635998567,14569.206644028023,14521.492433049632,14476.423507247004,14433.77976683818,14393.357338020238,14354.433750644963,14317.583584678021,14282.517055957886,14249.03633077829,14216.984474626934,14186.226059422148,14156.639493862425,14128.113738446813,14158.223493439384,14190.728569122053,14225.598620577424,14262.811627895066,14302.353898052053,14344.2199562547,14388.412391565955,14434.941675855445,14483.825955075987,14535.090801791723,14588.76891118382,14644.899716517762,14703.528892628228,14764.707705827863,14828.492153435127,14894.94181134081,14964.118264151024,15036.082907916993,15110.89373847717,15188.600334716515,15269.235233932752,15352.797056067833,15439.211516017229,15528.219873471397,15494.919097220032,15460.670615664167,15424.533682546898,15386.209287220368,15345.359711085663,15301.865644598494,15255.807098066223,15207.441494947836
E3,0.0,0.05741784852658809,0.10036900168399132,0.12681040906519564,0.13948442448572082,0.14211728850437816,0.13805541801804658,0.12990289796258847,0.11953714879987272,0.10824176495492091,0.09685395254435979,0.08586923431040826,0.07560521340182849,0.06621585817593406,0.05775432342318723,0.050212089895729076,0.043544321880901245,0.0376864428397703,0.03256487604627117,0.028277389609436952,0.024661434652169113,0.02159819748666303,0.018996163113957586,0.016782325047903578,0.014897193494528392,0.013291735745133686,0.011925343747570032,0.010764388667727982,0.009781147491549737,0.008952997707006853,0.008261834343435281,0.007693700228977175,0.00723865305320955,0.0068909361324591524,0.006649593336821887,0.006519810841868484,0.006515567828191165,0.006664861660569933,0.007020481779357442,0.0076840876380393185,0.008866832664670768,0.011071159499938945,0.015807982706593254,0.019650510044220006,0.023730701951607966,0.027775950076723475,0.03143487664149709,0.03435970091421675,0.03631187096253058,0.03720026354313943
I3,0.0,0.0,0.015502819102178786,0.036401321915984934,0.056079603597193786,0.07130855676946089,0.08115680195785864,0.08596904403958776,0.08665520887365154,0.08426815550015655,0.07978616983792258,0.0740222690897307,0.06759805471764865,0.060972240449082886,0.05446162597695193,0.04827064291043171,0.04251965001810588,0.03726875691870686,0.032536593717962095,0.028314472763270475,0.024623578852510264,0.021432734667591817,0.018691154121954108,0.016343656513941013,0.014337421671298574,0.01262469524630181,0.01116358579896718,0.009917994291224218,0.008857181515021085,0.00795521873173108,0.007190440619930499,0.006544959644685825,0.0060042748486353326,0.005557001233547778,0.0051947534958926385,0.0049122422984774925,0.004707694306390986,0.004583819897446205,0.004549804586821605,0.004625412832519472,0.004849951361782299,0.005304015636530487,0.006171622446901807,0.007971128798921263,0.01008831499129216,0.012460278521709448,0.014975673633741006,0.01747282087344882,0.019760811770907816,0.021660692222427946
A3,0.0,0.0,0.0017225354557976428,0.0043890984151578535,0.007315591004082152,0.010037005537837346,0.012293123085401222,0.013976161008862375,0.015078015745967554,0.015648527060770225,0.015766074597263806,0.015518478254141838,0.014990859632625718,0.014260844108155429,0.013395151031802364,0.012448750528137507,0.011465363119381879,0.01047862015193254,0.00951348940673914,0.008587737806779447,0.007718511933706666,0.006914652586530406,0.006179667993824215,0.0055136192884781,0.004914365182219587,0.004378407950611521,0.0039014784328432273,0.003478943058701683,0.0031060861069931857,0.002778303310341041,0.0024912325794830383,0.002240841093889489,0.0020234838819809062,0.0018359466971810115,0.0016754854417185838,0.0015398761534795237,0.0014274952480396734,0.0013374632332774736,0.0012699164364390768,0.0012265476025319845,0.001211760711166767,0.0012354135488735368,0.0013204656240969979,0.0015306119804753958,0.0018140048857069168,0.0021631249671137725,0.0025637784759927223,0.0029940690800390906,0.003426046291457775,0.0038301931620421375
IH3,0.0,0.0,0.0,0.0031005638204357573,0.00882744572959443,0.01562081613850638,0.022056498607006862,0.027237553196468152,0.030785347852955162,0.03269293035335494,0.03316740334635543,0.03250776823741587,0.03102583016841666,0.029001500197569644,0.02666619668840383,0.024198757342903898,0.021729308496195386,0.019346854943222674,0.01710783200040949,0.015044126911796754,0.013169913881640676,0.011496502797440751,0.010023301829441299,0.00873985843728203,0.007629920662991936,0.006674814745092691,0.005855671607061615,0.005154697291717182,0.004555792806811718,0.004044776913603264,0.003609387426234245,0.0032391724496769877,0.002925338981325982,0.0026605991214087316,0.0024390392082925126,0.002256031264116491,0.0021082080604896275,0.0019935346834625213,0.0019115377865370393,0.0018638182728463039,0.0018551278846542,0.0018956990867989056,0.0020067569716187513,0.0022356962182181186,0.002709838172675094,0.003369872246423304,0.004173621955307119,0.005077772082446454,0.006028372443830544,0.006960320203653005
IN3,0.0,0.0,0.0,0.0031005638204357573,0.010349822565428386,0.02146224505921286,0.035509333962512914,0.05138560101445951,0.06806555381223248,0.08471594004884046,0.10072241174838337,0.11567242159848405,0.12932015120044535,0.14154656063197063,0.1523255431154675,0.16169461287970321,0.1697317953329925,0.17653840738328377,0.18222677469319232,0.18691182568985282,0.19070560198560838,0.19372326173625434,0.19607257605241016,0.1978500811162769,0.19914031160790233,0.20001639282608302,0.20054116794708254,0.20076847342740514,0.20074438755137594,0.2005083799788664,0.20009433992542394,0.1995314846501558,0.1988451617325914,0.19805756508499256,0.1971883896808522,0.1962554564832222,0.1952753503780855,0.19426413573558285,0.19323825835771627,0.19221583669150344,0.1912187608910923,0.19027656355453784,0.18943460104629856,0.18877457952521592,0.18848105948974803,0.18861391189310897,0.18921982847851976,0.19032276492048275,0.19191410144596768,0.19394712278568957
D3,0.0,0.0,0.0,0.0,3.1005638204357574e-06,1.1928009550030188e-05,2.7548825688536567e-05,4.960532429554343e-05,7.684287749201158e-05,0.00010762822534496675,0.0001403211556983217,0.00017348855904467713,0.000205996327282093,0.00023702215745050967,0.00026602365764807933,0.0002926898543364832,0.0003168886116793871,0.0003386179201755825,0.00035796477511880514,0.0003750726071192146,0.00039011673403101135,0.000403286647912652,0.00041478315071009274,0.000424806452539534,0.00043354631097681606,0.000441176231639808,0.00044785104638490073,0.00045370671799196234,0.00045886141528367954,0.0004634172080904913,0.0004674619850040945,0.00047107137243032875,0.00047431054488000573,0.00047723588386133173,0.00047989648298274045,0.00048233552219103295,0.0004845915534551494,0.00048669976151563906,0.0004886932961991016,0.0004906048339856386,0.000492468652258485,0.0004943237801431392,0.0004962194792299381,0.0004982262362015568,0.000500461932419775,0.00050317177059245,0.0005065416428388734,0.0005107152647941805,0.0005157930368766269,0.0005218214093204575
R3,0.0,0.0,0.0,0.0003445070911595286,0.0028036143226133356,0.008783953613881266,0.018816385241294052,0.032658352501502855,0.049586217311654,0.06867514992544742,0.08899847991476734,0.10974262062488165,0.13025692461040278,0.1500612131331407,0.16882959765987632,0.18636498164159337,0.20257105654746985,0.21742610137277385,0.23096063694860453,0.24323951857708903,0.2543482478512418,0.2643839631986596,0.2734523777320486,0.2816606880060582,0.2891118418935576,0.2959010783775765,0.302114331268506,0.3078278744380763,0.31310869642994926,0.3180152539302675,0.32259838684892606,0.326902270477194,0.33096533976731196,0.33482115765169707,0.3384992222026876,0.34202572279198606,0.34542426821957245,0.34871662480320603,0.3519235261489486,0.3550656609130821,0.3581650379369267,0.3612471416303981,0.36434483951911767,0.3675066571402094,0.3708183734406657,0.3744209040990421,0.3784246043346076,0.38291636929224493,0.3879572967986808,0.3935758332933473
G3,0.0,0.0,0.015502819102178786,0.04260244955685644,0.07684126000445926,0.1145020546156039,0.152873722511786,0.19014868537665858,0.22522246782655747,0.2574974980025231,0.2867227745403517,0.3128733417273289,0.3360580349911391,0.3564714426096328,0.37434972431713504,0.3899433916413956,0.4035006559132424,0.41525762282108575,0.42543296238782374,0.43422547892031693,0.4418603741148649,0.44851896147095055,0.4543504747923496,0.45947943883311815,0.4640106665960521,0.46803290883957477,0.47162167749076084,0.47484152030260474,0.4777479052428913,0.4803888150656097,0.48280612444650156,0.4850368197192291,0.48711411878105293,0.4890685551054195,0.4909291078611835,0.49272449806212537,0.49448484698942985,0.4962440503030415,0.49804356295139535,0.4999390930318219,0.5020137966940925,0.5044078415135537,0.5073970545785372,0.5116652099093174,0.5169708476212568,0.5233781371481909,0.5308776436689062,0.5393650603621104,0.5486421796089489,0.5584463847688321
H3,1458.187075355851,1451.8219730427898,1445.8543451923515,1440.250511280933,1434.9812504695678,1430.0194820946033,1425.340112114301,1420.9198905318783,1416.7372790108566,1412.7723279545976,1409.0065623739158,1405.422875914952,1402.0054324643336,1398.739574790296,1395.6117397171029,1392.6093793660061,1389.720888029335,1386.9355342752528,1384.24339790948,1381.2633416437081,1377.9900857413193,1374.4201616619525,1370.551761345152,1366.384600404381,1361.9197940210527,1357.159744402554,1352.1080387305892,1346.7693565764787,1341.1493857982186,1335.2547459600014,1329.0929183284875,1322.6721815015794,1316.0015517152863,1309.0907268536369,1301.9500331574893,1294.5903735937452,1287.0231768117992,1279.2603455859694,1271.314203630542,1263.1974396899047,1254.9230478645416,1246.5042632506625,1237.9544922117007,1229.4708465441877,1221.0525547670202,1212.698871258432,1204.4090746206139,1196.1824661597216,1188.018368473037,1179.916124135636
S4,7428.228360347073,7551.945561097997,7675.115803565948,7797.782683371426,7919.9809001140775,8041.739940965903,8163.085801147667,8284.04186381469,8404.629380701268,8524.867760935938,8644.348027617056,8763.676260161144,8882.769473755345,9001.604078889311,9120.178227377291,9238.497678135283,9356.570495046954,9474.405076849915,9631.248391520337,9788.361012552306,9945.747646825545,10103.410973183016,10261.351751765336,10419.568817038054,10578.05901707827,10736.817124455383,10895.835728537722,11055.105112332818,11214.613113479862,11374.344966155264,11534.283116771434,11694.40699965731,11854.692746501081,12015.112779602541,12175.635192215079,12336.222723456714,12496.830928726931,12657.404670784883,12817.870863505055,12978.122061319564,13137.974682472293,13297.042869411185,13422.958160494796,13547.47534613253,13669.46484807526,13788.51563843838,13904.154681869386,14016.157697170087,14124.539252999008,14229.537851115148
E4,0.0,0.08612677278988216,0.15245955146141812,0.19511754279946464,0.21743827717755626,0.22449225725925376,0.22101832091741067,0.21080989882144519,0.19667422698655596,0.18058506653229908,0.16387358375887318,0.14735982985527596,0.13160818301582963,0.1169263202036383,0.10345984268052531,0.09125128433677213,0.08027880770078791,0.07048202994567346,0.06177924941816296,0.05443295362670163,0.048174964123422544,0.04281525312735006,0.03821068302416024,0.034248534788746676,0.030837460698779164,0.02790221968437879,0.025380398981717782,0.02322023879778918,0.021379129962476196,0.019822584103713653,0.018523600643283986,0.017462437318440424,0.016626869144675364,0.016013128771405358,0.015627908616291635,0.015492170957158349,0.015648285847093445,0.016173786104988576,0.017209457397803767,0.019021881672143325,0.022160738108450408,0.02793051943583521,0.040252354484057194,0.050487519870837105,0.06156407327041831,0.07277720909016211,0.08318354727070165,0.09181319439796602,0.09795909256517316,0.1012962155036522
I4,0.0,0.0,0.023254228653268184,0.0551166160865438,0.08575170620778173,0.11015935856260924,0.12670852459756404,0.1357000614062393,0.1383387095255338,0.13610526700169037,0.13042112816473497,0.12249854451373673,0.11328628076916655,0.10350597787577392,0.09367369318044669,0.08413837343200985,0.07512087083013438,0.06674780057729336,0.05907882843170785,0.05212769440192871,0.04597351412036667,0.04059134878554409,0.03591492761571097,0.03186584098594984,0.028366608984531506,0.025346079779389276,0.02274124718241584,0.020497456034513306,0.018567938096111063,0.01691312794753521,0.015499974476523813,0.014301356859600965,0.013295672191739494,0.012466657984106046,0.011803539558743074,0.011301659061644587,0.010963881595419507,0.010803366135966934,0.010848941929927075,0.011155918655363261,0.011829459244696654,0.013081074836099603,0.015389885149335269,0.0201020668002966,0.02569287044530398,0.03203802205019533,0.03887265968446097,0.04578315357376603,0.052259454631710445,0.05780462777162302
A4,0.0,0.0,0.0025838031836964647,0.006640829090799716,0.011166189556623712,0.015456099960625658,0.01909964768627814,0.021910267776544833,0.02385251118587922,0.024982235758300057,0.025403340602609015,0.025238879994853407,0.024611898891541004,0.023637764603707694,0.022418001289075305,0.021038196311676003,0.019568095579443966,0.018062840694578808,0.01656473345403325,0.015105164245771489,0.01371712000541824,0.012418944928037268,0.011219613536250317,0.01012201131972506,0.009125065099442449,0.008225175900517334,0.007417207310945231,0.006695177818207718,0.006052749418499849,0.0054835734336741646,0.004981536270050741,0.004540937035339113,0.004156622747824503,0.0038241042725998637,0.0035396772812220515,0.00330057908346639,0.0031052283954878628,0.0029536312918030934,0.002848118616592132,0.0027947786152078186,0.0028064793423305547,0.002910005617117956,0.003165920076769421,0.003740306695937253,0.004506870952874916,0.005452418960412482,0.006545251441034849,0.007731707570948928,0.008939761888698123,0.010090582287913694
IH4,0.0,0.0,0.0,0.004650845730653637,0.013344095236904926,0.023809044764771907,0.03391258505014303,0.04226408485953418,0.04822979062615542,0.05173440742755832,0.05303652270668968,0.05254945046358515,0.05072188468407633,0.0479674766111874,0.0446369664041373,0.04100858487175385,0.037290958537407146,0.03363236247619304,0.030132108991079,0.02685168807288999,0.02382453122875785,0.021083143907223503,0.018638758566813345,0.016483726047982053,0.014598547495133014,0.012957996996977677,0.011535256457369716,0.010304342408710657,0.009241358068849279,0.008325025295578003,0.007536813212000466,0.006860864688092995,0.0062838428512785975,0.0057947720211359195,0.005384922835368034,0.005047784406597264,0.0047791762312209525,0.0045775852584631575,0.004444888271166503,0.0043877876332975,0.0044206897600881055,0.004571816039223296,0.0048975511707923455,0.0055218550640924345,0.006775819037041445,0.008519707788544478,0.010658938596522761,0.013093342296557052,0.015690208520735174,0.01828130497818894
IN4,0.0,0.0,0.0,0.004650845730653637,0.01562766049065586,0.03262172512730565,0.054327379588554436,0.0791258107121817,0.10547456488630774,0.13208756114255144,0.157987738931464,0.18249208717509635,0.20516687520609272,0.2257724626078651,0.24421593355694124,0.2605085128574612,0.27473110241528853,0.2870079655571625,0.2974874460170496,0.30632833724322067,0.3136905927511742,0.31974838964773583,0.32466917550836727,0.3286054692764258,0.3316925827808515,0.3340489787499493,0.3357777049183277,0.3369681773056276,0.337697986739474,0.33803459449130147,0.3380368741358955,0.33775650028984133,0.3372392066588631,0.3365259490306224,0.3356540211371374,0.33465818883751464,0.3335719387614684,0.3324289956929376,0.33126537896320163,0.330122513559555,0.32905247215503214,0.3281278392824212,0.3274627758568169,0.32726612512811576,0.3280138772368939,0.32987231255358573,0.33298119383808894,0.33742591383660026,0.3432082854129875,0.3502280934851997
D4,0.0,0.0,0.0,0.0,4.650845730653638e-06,1.7994940967558565e-05,4.180398573233047e-05,7.571657078247351e-05,0.00011798065564200769,0.00016621044626816313,0.00021794485369572145,0.00027098137640241114,0.0003235308268659963,0.0003742527115500726,0.00042222018816126,0.0004668571545653973,0.0005078657394371512,0.0005451566979745583,0.0005787890604507514,0.0006089211694418304,0.0006357728575147203,0.0006595973887434782,0.0006806805326507017,0.0006993192912175151,0.0007158030172654971,0.0007304015647606301,0.0007433595617576077,0.0007548948182149774,0.0007651991606236881,0.0007744405186925374,0.0007827655439881154,0.0007903023572001159,0.0007971632218882089,0.0008034470647394875,0.0008092418367606234,0.0008146267595959914,0.0008196745440025887,0.0008244537202338096,0.0008290313054922728,0.0008334761937634393,0.0008378639813967368,0.0008422846711568249,0.0008468564871960482,0.0008517540383668404,0.0008572758934309329,0.0008640517124679743,0.0008725714202565188,0.0008832303588530415,0.0008963237011495985,0.0009120139096703337
R4,0.0,0.0,0.0,0.0005167606367392929,0.004216857777532591,0.013278419912216356,0.028600379538000497,0.04991987539621319,0.07622522948841107,0.1061653726875277,0.1383498991643924,0.17152870602757367,0.2046761281300879,0.2370111190024952,0.26798013485490907,0.2972243776503622,0.3245413944771489,0.34984780388589415,0.37314663291847805,0.3945005085649947,0.4140106688230262,0.43180326436600047,0.44802610920169705,0.4628361029474375,0.47638842292813777,0.4888296355234013,0.5002941589894931,0.5109030057295503,0.5207638942706034,0.5299721030561227,0.5386116763355596,0.546756758936929,0.5544729436909417,0.5618185817327345,0.5688460480881287,0.5756029851734284,0.5821335750817955,0.5884799282641182,0.5946837371086398,0.6007884587571735,0.6068425334324593,0.6129046989025198,0.6190538864383792,0.6254104737976974,0.6321921239202123,0.6397615464016769,0.6484106072135675,0.6583789387384167,0.669846210539251,0.6829113500314881
G4,0.0,0.0,0.023254228653268184,0.06441830754785108,0.11710004410370653,0.17580837894164672,0.23642128840164522,0.2960962350493461,0.3530149077311363,0.4061169490175064,0.4548749169812272,0.4991207845961229,0.5389079386570474,0.5744421480713214,0.6060122545263038,0.6339464120500456,0.6585842588209742,0.6802595369001869,0.6992896849855188,0.7159700823284229,0.7306669798076323,0.7436742201209564,0.7552343384653409,0.7655512228818642,0.7747983272748258,0.7831244416634962,0.7906580409782784,0.7975107487033423,0.8037802131787454,0.8095525782686139,0.8149046759766166,0.8199060481503033,0.8246209062262823,0.8291101608953446,0.8334337056636241,0.8376532409900228,0.8418361271484556,0.8460611643271708,0.8504280865755177,0.8550746400729248,0.8602105481244035,0.866193947413685,0.8737351876613606,0.884603323372056,0.8982349537371821,0.9148572535201951,0.9345070999745388,0.9569666577376283,0.9817562202250791,1.008205175217676
H4,729.0935376779255,741.2450966392242,753.3436130812474,765.3923992911837,777.3944868851914,789.3526639724379,801.2694929898929,813.1473272575121,824.9883263452778,836.7944703370349,848.5675730699899,860.3092944231058,872.0211517223971,883.7045303262665,895.360693449519,906.9907912804948,918.5958694418782,930.1768768421226,902.4957278527424,874.776657363247,847.0321863033554,819.2762816737101,791.5244940451691,763.7941002001628,736.1042502576341,708.4761181634118,680.9330538422765,653.5007345717318,626.2073122247933,599.0835519152151,572.1629562432347,545.4818677727158,519.079540578568,492.99816972169435,467.28286541448455,441.9815565686159,417.14480658121397,392.8255229222116,369.07854174762156,345.96006989588176,323.5269698182253,301.83588674777275,312.2234222748616,322.5397097099591,332.7853000978273,342.9607380542191,353.06656198137273,363.10330426987787,373.07149148787556,382.97164455848423
E_Om,0.0,0.0,0.0,0.0,0.0,0.0,0.0,0.0,0.0,0.0,2.578569721188399,3.3437599197265593,3.456885511141931,3.345358546655957,3.1652391408055927,2.9722859246363553,2.7853727425158064,2.609999103058634,2.446976386087232,2.3146554163426956,2.2054072786764043,2.1152662401526854,2.0419828353600664,1.9842345348394923,1.9413087396417827,1.912986685638085,1.8995236212273112,1.9016890247917786,1.9208610216720667,1.9591865935476895,2.0198352469461236,2.1073962362451972,2.228507459755792,2.3928742415887516,2.614972794017179,2.9170141201308426,3.3343586862294035,3.9260181907642986,4.796600263836365,6.1467560935397625,8.404867714866551,12.638358418095283,22.24998808899025,33.0820623423901,48.88630838123566,69.44062419002402,94.76238788392384,123.89698518948192,155.29671142714426,187.09866139362512
I_Om,0.0,0.0,0.0,0.0,0.0,0.0,0.0,0.0,0.0,10.0,6.0,4.296213824720867,3.4805434731586913,3.021685171903536,2.7162579107392304,2.4843693144610484,2.2931387883284446,2.1279339134763346,1.9814601059116317,1.8495596877905314,1.7346927750868466,1.6362756302947372,1.5528872630180675,1.4830677233580583,1.425583958421498,1.37950373475618,1.3442086459759912,1.3193965653169686,1.3050939758839615,1.3016888613818351,1.3099936970869774,1.3313517349276398,1.3678080247427873,1.4223818289797363,1.4995051426168045,1.605745739954721,1.7510412564081603,1.950901599126835,2.2305658709824616,2.633421593825296,3.239677101550914,4.213120543944517,5.940229099252436,9.57163424357883,14.675137378592627,22.004385690089205,31.951599945360012,44.75680469587544,60.30626881868538,78.11387337654018
A_Om,0.0,0.0,0.0,0.0,0.0,0.0,0.0,0.0,0.0,0.0,0.0,0.07735709163565196,0.16219847090031833,0.23346534205451258,0.2871330300432888,0.32466359825879887,0.3488994563461297,0.3626807473523779,0.36844457097366135,0.36816494836154606,0.36397162117951765,0.35733951530390623,0.34932959944770553,0.3407231646189664,0.3321055677403579,0.32392371638153983,0.31652857367437437,0.31020856757631887,0.30521752480480846,0.30179985049400876,0.3002154782016377,0.30076743996969385,0.30383583906311096,0.30992389504316253,0.3197253432821926,0.3342294584462694,0.3548939903609408,0.3839459528756347,0.42493730802343666,0.4838478543338403,0.5714809662732652,0.7093308044646085,0.9466153961145454,1.4247919595613439,2.132295437920778,3.172425601773692,4.621159207119674,6.539799002213455,8.94874875745522,11.817900348778505
IH_Om,0.0,0.0,0.0,0.0,0.0,0.0,0.0,0.0,0.0,0.0,2.0,2.1980000000000004,1.9560447649441741,1.672175032338881,1.438752375517809,1.2611890175312326,1.1262071826402948,1.020605141803196,0.9348687484550618,0.8627915266614021,0.800444909362146,0.7463605647890803,0.6996890478886986,0.6597222875000741,0.6258149661341486,0.5973984597852398,0.5740025783840706,0.5552690158088495,0.5409585519520097,0.5309571126008451,0.5252853714641887,0.5241161397780256,0.5278043007347628,0.5369359510152041,0.5524074053525342,0.5755523237942755,0.6083497575642877,0.6537747803062116,0.7164139351981667,0.8036037278603775,0.9276825789673875,1.1108490272149092,1.396937773369143,1.88511776876169,2.855000615327849,4.359672782767122,6.576353856618636,9.6719205635247,13.777649300373914,18.93630076462366
IN_Om,0.0,0.0,0.0,0.0,0.0,0.0,0.0,0.0,0.0,0.0,4.0,6.36,7.9163484941221585,9.042305432979038,9.915783419976563,10.627803788921831,11.228305385558608,11.746518025540897,12.200573514275085,12.602325067820106,12.959906861377522,13.280475164577416,13.57004614882076,13.833657075182327,14.075584497108924,14.299541009512218,14.508836588344952,14.706510191350544,14.895441707048054,15.07845442116666,15.258417765900061,15.438360617380866,15.621607533221596,15.811954924938984,16.013912788873572,16.233053347372405,16.47653707420769,16.753942545503495,17.078639814036734,17.470191629210593,17.958840021339753,18.59462559330011,19.468127175233302,20.765830143667188,22.9605109755789,26.411874156626425,31.6647701126846,39.356612127038105,50.178197764023935,64.78447673186204
D_Om,0.0,0.0,0.0,0.0,0.0,0.0,0.0,0.0,0.0,0.0,0.0,0.002,0.004198,0.006154044764944174,0.007826219797283054,0.009264972172800864,0.010526161190332098,0.011652368372972392,0.012672973514775587,0.01360784226323065,0.014470633789892053,0.015271078699254197,0.016017439264043278,0.016717128311931978,0.01737685059943205,0.0180026655655662,0.018600064025351436,0.019174066603735513,0.019729335619544357,0.020270294171496367,0.02080125128409721,0.0213265366555614,0.021850652795339428,0.02237845709607419,0.0229153930470894,0.023467800452441928,0.024043352776236204,0.02465170253380049,0.025305477314106706,0.026021891249304867,0.026825494977165243,0.027753177556132637,0.028864026583347545,0.03026096435671669,0.03214608212547838,0.035001082740806225,0.039360755523573356,0.04593710938019199,0.05560902994371669,0.0693866792440906
R_Om,0.0,0.0,0.0,0.0,0.0,0.0,0.0,0.0,0.0,0.0,0.0,1.04,2.2180714183271304,3.307696979920503,4.280900618830636,5.156861246797964,5.958666513104559,6.703833049549518,7.404136950177001,8.067265973742014,8.698317977423226,9.300933824953978,9.878386762055072,10.43379766737717,10.970140014802823,11.49022445638906,11.99670383965311,12.492099209463468,12.978840532796664,13.45931773080411,13.935940801415002,14.411210760446428,14.887805924503187,15.368691318015404,15.85726362178103,16.357551521002474,16.874504108062585,17.414423155658998,17.985639161842265,18.5996199891864,19.272893340275466,20.03061922322721,20.91385615366059,21.9963293913204,23.431504969050184,25.51506947405405,28.59350972735862,33.12256619821871,39.66005240169414,48.84040878101237
G_Om,0.0,0.0,0.0,0.0,0.0,0.0,0.0,0.0,0.0,0.0,0.0,0.6962138247208678,1.5990290030470389,2.5323880910553607,3.435634898652469,4.290249466669979,5.092766666321795,5.844817306801064,6.549517064626894,7.210200688870446,7.835157651282974,8.430617616525604,9.001739501366828,9.553074866914045,10.08881819132071,10.61297155102399,11.129477956146271,11.642349333877647,12.155805370571429,12.674437846422887,13.203418226680764,13.748773743356216,14.31777072714242,14.919467741276481,15.565543786505447,16.271586440890086,17.05918025332541,17.959457098607352,19.019482010113713,20.314564081349527,21.974188226605268,24.243502509619233,27.655859282504963,33.66335606653233,42.59551289897767,55.79481616191129,74.54378469321777,100.12962942187721,133.58181542303734,175.51192750836628
beta,1.0,0.9999999999999972,0.9997055857929541,0.9993977278906924,0.9991090239924523,0.9988506132106184,0.9986243932857264,0.9984285210607353,0.9982598523847573,0.9981149948054266,0.9979907356895602,0.9966954892814769,0.9958946043974005,0.9953010485748716,0.994806064582407,0.9943671624770705,0.9939667592428195,0.9935967810515884,0.9932528905409302,1.0212142880954203,1.0515077663498258,1.0844455515307585,1.1203973698079839,1.1598049766173173,1.2032007861517284,1.251232356625492,1.3046951444167891,1.3645770375492101,1.4321199420895758,1.5089065521371074,1.596985170712838,1.6990535340002788,1.8187368687555423,1.9610216259364286,2.132956670184914,2.3448355506043477,2.612292652421003,2.960253931123431,3.4309716403219297,4.102037678165504,5.13236875386381,6.903170298158769,10.590512869370322,9.92058904779379,9.16215583986846,8.235119830836842,7.231292595045478,6.233250837130403,5.315923222098535,4.521291355072075
