series,2021-11-15,2021-11-16,2021-11-17,2021-11-18,2021-11-19,2021-11-20,2021-11-21,2021-11-22,2021-11-23,2021-11-24,2021-11-25,2021-11-26,2021-11-27,2021-11-28,2021-11-29,2021-11-30,2021-12-01,2021-12-02,2021-12-03,2021-12-04,2021-12-05,2021-12-06,2021-12-07,2021-12-08,2021-12-09,2021-12-10,2021-12-11,2021-12-12,2021-12-13,2021-12-14,2021-12-15,2021-12-16,2021-12-17,2021-12-18,2021-12-19,2021-12-20,2021-12-21,2021-12-22,2021-12-23,2021-12-24,2021-12-25,2021-12-26,2021-12-27,2021-12-28,2021-12-29,2021-12-30,2021-12-31,2022-01-01,2022-01-02,2022-01-03,2022-01-04,2022-01-05,2022-01-06,2022-01-07,2022-01-08,2022-01-09,2022-01-10,2022-01-11,2022-01-12,2022-01-13
S,4100418.150165123,4099212.108253919,4098294.9832049645,4097578.3314979076,4097004.472352972,4096535.179600222,4096144.652173412,4095815.099584941,4095533.953736454,4095292.0974767883,4095082.731645829,4094900.6447453485,4094741.7375934757,4094602.71022678,4094480.852616712,4094373.9022635072,4094279.9452378876,4094197.345749569,4094124.6946947677,4094060.7710369807,4094004.5120356865,4093954.8586454107,4207747.004337538,4321541.774350332,4435338.998015538,4549138.465578207,4662939.946913166,4776743.203135246,4890547.993088314,5004354.076089957,5118161.211828463,5231969.157912292,5345777.66521433,5459586.470780803,5573395.287613453,5687203.789962608,5801011.59166611,5914818.213090941,6028623.028425173,6142425.177212843,6256223.406550399,6370015.767774541,6483798.974927492,6597566.860051593,6711305.877502917,6824977.18817843,6824538.321872419,6824001.8313601585,6823187.054229373,6821961.23292039,6820134.028942576,6817448.710425009,6813577.975480877,6808137.929953974,6800724.141470663,6790965.182576018,6778575.860989979,6763390.8215136975,6745370.832774379,6724587.785131306
E,0.0,1206.0419112039988,1825.6320767745347,2091.8937749771467,2149.6751910970997,2088.6353315586284,1963.88889928069,1808.9430228159044,1643.8161121696432,1480.137016308866,1324.34771422544,1179.7132636058225,1047.5809042860337,928.166288745058,821.0419323342571,725.4382836246757,640.4270718093949,565.0308948389011,498.28679276995376,439.2813040637387,387.1680254538189,341.174600626093,300.60346539199537,267.43128414751266,239.99782279912,217.0934151788587,197.82838379027675,181.54202370519508,167.73931940159827,156.0471181543438,146.18402378239765,137.94009781738785,131.16378513190492,125.75449345375792,121.6601035837796,118.87953015328095,117.47151135885755,117.5724640716434,119.42929009217521,123.45929368388933,130.36355093816834,141.3554286222997,158.66522026230916,186.80769225406917,236.43488937827613,340.4110595111807,688.1541317243983,1044.0508493610657,1579.2742957905168,2374.2542466919485,3538.301858104507,5208.441977943415,7539.073092898724,10676.017867144437,14715.568317864645,19660.679545086692,25395.16232817234,31690.777348420772,38244.14725753357,44726.561848101446
I,17486.300747060468,13289.588567765955,10367.868706548163,8284.931224945667,6761.017686892723,5615.672793097644,4731.657795933454,4032.1085433523817,3466.0479761672577,2999.1782818609345,2608.015113952553,2276.140702594521,1991.802494044793,1746.367679487415,1533.3232062412276,1347.6242384662805,1185.2658349258659,1042.998133303745,918.1342224941798,808.4182409390849,711.9329150277775,627.0331871551944,552.2973247653996,486.4899286778731,429.11098071880906,379.41183991852046,336.55495303952364,299.70624164281816,268.0851076578211,240.98838664989574,217.79882133954428,197.98481688810034,181.0957478995091,166.75548879654949,154.65584931225948,144.55103264900728,136.25399225266452,129.6356145742892,124.62806239679176,121.23459984231339,119.55036306202422,119.80331772798917,122.43612550756404,128.28040856923474,138.97062797897772,158.1140821792257,195.74927347482713,301.5625404257609,461.00152519894544,701.0125504158245,1059.9329050836386,1591.1696391659386,2365.736181796927,3471.884335616007,5009.062949453937,7074.2331771373565,9741.741626012827,13042.293848366837,16948.549348146167,21372.369492280675
A,1942.922305228941,1601.732734215649,1350.2117202262295,1158.144915922614,1006.3750416530671,882.6824153793098,779.2051292877301,690.821576382176,614.1361695092017,546.8434697004705,487.32977569344814,434.4236884199578,387.2400641219215,345.082432832766,307.3819493864419,273.6591152624164,243.49964983316926,216.53912202125147,192.45298431433048,170.94992524828504,151.76725408824436,134.66752919739324,119.43595089900984,105.87823055227888,93.88296286570952,83.31734745574988,74.04206163466387,65.92030000459876,58.822981241127565,52.631479313930456,47.23879386943708,42.54977235469933,38.480792355409925,34.95917716793571,31.922530934580028,29.318129109517685,27.102479137615035,25.241175126779815,23.70921853275123,22.492091871715434,21.58812206925766,21.013225653206582,20.810458302582482,21.070336988655754,21.978864237290573,23.9521691237202,28.144078630795434,40.17880888510753,58.880263821444984,87.50177897765903,130.7096149191061,195.0473526318973,289.28993082238753,424.4804191705076,613.3201514083945,868.6555846563591,1201.1501594645576,1616.7283181670862,2114.643386971219,2686.7953843208843
IH,0.0,699.4520298824187,1199.7240095150426,1560.7320954252227,1822.2618490609964,2011.1274600413474,2145.724546083573,2238.935679577896,2299.992167558383,2335.6729874063903,2351.0817373332416,2350.154174790516,2335.993158917037,2311.092544582142,2277.489234775146,2236.8684266890114,2190.638084802137,2139.9829472199763,2085.9047217496795,2029.2527974549832,1970.748305315794,1911.0034033279353,1850.5370434113893,1789.7880768612606,1729.126293455173,1668.8849282909116,1609.3523532758231,1550.7705289748544,1493.337221245581,1437.2101188664844,1382.5117249668117,1329.3343684281974,1277.7449811580702,1227.78947378444,1179.496656684044,1132.8817229020026,1087.9493534819853,1044.6965380546092,1003.115236470271,963.1950550147963,924.9261958223233,888.3031050828077,853.3295962341037,820.0270184689806,788.4490301522342,758.7122660291101,731.0724315293041,706.1753253043704,686.6252898241503,674.3279876466687,672.1816256348727,684.4881615248255,717.493254266093,780.0035077559759,883.9613629080917,1044.7526010975878,1280.952692306126,1613.2794241481492,2062.7513570035,2648.352517736006
IN,3497.2601494120936,6607.241917493277,8533.48916744121,9662.084345338266,10249.114045580684,10466.354746890074,10430.469744013133,10221.75556270451,9896.244049492734,9493.566803883796,9042.107152561171,8562.408449927221,8069.455573560844,7574.22350011701,7084.745301329565,6606.861874884898,6144.758343999437,5701.355392919228,5278.600303708126,4877.687338763105,4499.227338354461,4143.380045012381,3809.958500233143,3498.512102347773,3208.3930684225106,2938.925345850657,2689.358018310634,2458.855813544516,2246.5091396961434,2051.3530113626985,1872.3886704732479,1708.6045076257792,1558.9946177016093,1422.574362074959,1298.3929135752044,1185.5430993477366,1083.169045371323,990.4722457943908,906.7167967195936,831.2347190766877,763.4326570544368,702.8019889018458,648.9360095813684,601.561583950304,560.6021476443387,526.3165070703716,499.65626870967344,483.47536083604507,490.2489421160417,528.1602298564433,609.8755156087129,754.3259133254932,989.0275598218846,1352.6522053257202,1897.2395417300545,2688.9562773442503,3806.034205249482,5332.911234830279,7350.815930008017,9926.513694957666
D,8377.0,8377.0,8377.699452029883,8378.899176039398,8380.459908134824,8382.282169983886,8384.293297443928,8386.43902199001,8388.677957669588,8390.977949837144,8393.313622824553,8395.664704561885,8398.014858736677,8400.350851895593,8402.661944440175,8404.939433674952,8407.176302101638,8409.366940186439,8411.506923133662,8413.592827855411,8415.622080652865,8417.592828958184,8419.503832361512,8421.354369404924,8423.144157481785,8424.873283775238,8426.54216870353,8428.151521056805,8429.702291585783,8431.195628807027,8432.63283892589,8434.01535065086,8435.344685019287,8436.622430000447,8437.850219474229,8439.029716130914,8440.162597853816,8441.250547207297,8442.295243745351,8443.298358981823,8444.261554036837,8445.18648023266,8446.074783337745,8446.928112933976,8447.748139952444,8448.536588982597,8449.295301248627,8450.026373680155,8450.73254900546,8451.419174295284,8452.09350228293,8452.765683908567,8453.45017207009,8454.16766532436,8454.947668832116,8455.831630195024,8456.876382796123,8458.15733548843,8459.770614912577,8461.83336626958
R,0.0,728.4679523442028,1772.0250293254608,3006.6163362693355,4348.257291433781,5739.698849651789,7141.741781370282,8527.530375061746,9878.765197804274,11183.159381039166,12432.70660440543,13622.48363757694,14749.808719681945,15813.639842385368,16814.1371816064,17752.339730715783,18629.922841466083,19449.01418676667,20212.052723887708,20921.6798955196,21580.655412245855,22191.792058405117,22757.90540319403,23281.775304638337,23766.116810564712,24213.569855520094,24626.690773293052,25007.94089784783,25359.675632766397,25684.135643448313,25983.44080496855,26259.586963784794,26514.445274559155,26749.76374508307,26967.170593401395,27168.17904898886,27354.193289296658,27526.515281594766,27686.352394843296,27834.825763943776,27972.97954911053,28101.7914811134,28222.18551911998,28335.04831248717,28441.253093951214,28541.699629326144,28637.394523583076,28729.66357091696,28821.164515054992,28915.844020789853,29019.209652638703,29139.11787816944,29286.85892553857,29478.584377179322,29737.052896467936,30093.53900653925,30589.57366823897,31278.03658706407,32223.105025898225,33498.74008258555
G,1045471.0,1045471.0,1045738.781395046,1046144.1324030152,1046608.602358949,1047085.9017100082,1047549.6481831875,1047985.6968016304,1048387.34228485,1048752.3241048236,1049080.963724562,1049375.0129405523,1049636.9485006256,1049869.5462846388,1050075.6300544695,1050257.9286561927,1050419.000069884,1050561.1961686441,1050686.6518098274,1050797.2880416708,1050894.823093585,1050980.7872653191,1051056.5393678464,1051123.2833297027,1051182.6619646263,1051235.9494591984,1051284.1514139,1051328.0758912326,1051368.3842552418,1051405.627960072,1051440.2756075573,1051472.7333202274,1051503.3606072918,1051532.4833276847,1051560.4050055114,1051587.417592683,1051613.8128001224,1051639.8953805845,1051666.000375905,1051692.517648326,1051719.9297155077,1051748.8747573085,1051780.2603613427,1051815.4893145263,1051856.9668319926,1051909.4632369082,1051985.0458079264,1052137.8389005114,1052369.652894987,1052720.3042862513,1053247.4676530194,1054033.0882843216,1055189.5355403523,1056863.4603778026,1059233.8912321883,1062501.2365677406,1066866.560979129,1072505.131191726,1079541.5372151136,1088033.0092028033
H,2732060.234471781,2732060.234471782,2732060.2344717816,2732060.234471781,2732060.234471781,2732060.2344717816,2732060.234471782,2732060.2344717816,2732060.2344717816,2732060.2344717816,2732060.2344717816,2732060.2344717816,2732060.234471782,2732060.234471782,2732060.234471782,2732060.234471782,2732060.234471782,2732060.2344717816,2732060.234471782,2732060.234471782,2732060.234471782,2732060.234471782,2650408.959164066,2569683.299582026,2489921.69933355,2411164.7408751496,2333455.270924952,2256838.5211569513,2181362.2208766034,2107076.697454247,2034034.9591871332,1962292.7539542026,1891908.595507542,1822943.7475096304,1755462.153494244,1689530.2988487564,1625216.9887770042,1562593.0241545278,1501730.7554596378,1442703.4938795003,1385584.758688339,1330447.3416316477,1277362.1729867596,1226396.9809239062,1177614.7464419808,1131071.9709844345,1131071.9709844345,1131071.9709844345,1131071.9709844345,1131071.9709844347,1131071.9709844347,1131071.9709844347,1131071.9709844347,1131071.9709844347,1131071.9709844347,1131071.9709844347,1131071.9709844347,1131071.9709844347,1131071.9709844345,1131071.9709844345
S0,1435146.352557793,1431254.0214363234,1425595.9552834006,1420067.9921452135,1414638.2826943249,1409285.6300984318,1403995.6619078822,1398758.417022135,1393566.8167864452,1388415.6910900169,1383301.1542197112,1378220.201915693,1373170.448837712,1368149.9555243768,1363157.1126730419,1358190.5623601342,1353249.1432556894,1348331.8515812154,1343437.8125311274,1338566.2587617254,1333716.513748621,1328887.9251261393,1360933.3718539209,1392286.3545798855,1422931.548290035,1452852.7499308982,1482032.8640058215,1510453.8889299505,1538096.907094646,1564942.0816584842,1590968.6632892224,1616155.010407941,1640478.626907207,1663916.2217931976,1686443.7956805278,1708036.7594537444,1728670.0905372635,1748318.5317869612,1766956.8364492045,1784560.0586900897,1801103.8799586503,1816564.939104621,1830921.0745932625,1844151.2012627076,1856233.8137345396,1867138.9845082895,1860201.3707444556,1853241.972725855,1846173.639405672,1838934.0237781384,1831434.944910229,1823559.03896868,1815159.4400840348,1806068.266308411,1796115.4693372347,1785155.0182436341,1773089.358394581,1759882.950223332,1745561.8656994542,1730203.1428032022
E0,0.0,664.7475101124402,1008.1301425041725,1156.6685965067265,1189.9259689078265,1157.2609431149526,1089.0827826678396,1003.9233166770774,912.8856346963723,822.4437897913067,736.2043042695605,656.0133595034465,582.6513759367973,516.2673699070882,456.6492505607893,403.39077773598933,355.9935344665799,313.9281402335601,276.6700023695281,243.7192576409135,214.61098585000894,188.91951951189844,166.2592415624811,147.7100993853045,132.34976682044376,119.50615013734352,108.68469654714183,99.51774266129888,91.72930286153424,85.11067687465946,79.50367068203713,74.78923912924216,70.8800956555176,67.71639079849827,65.26401894351648,63.51555664926335,62.49437820111797,62.2633272039493,62.9408405084458,64.73053028829825,67.9772460412555,73.28011824288997,81.74214041412003,95.59679999385162,120.11183081046804,171.5284569633236,343.386324685752,518.4906232674617,780.9767421301293,1169.46147781861,1736.1417757830945,2545.9587466942376,3671.2980247224946,5179.219049902779,7111.699468614968,9464.94165819958,12177.800008661543,15136.256824124968,18192.086590331186,21187.29427918011
I0,17486.300747060468,13289.588567765955,10247.683356015688,8012.077754063412,6345.997971023622,5087.161578114585,4123.193197940087,3375.4394110373,2788.2383007046137,2321.752065214152,1947.1414302411486,1643.2893151376456,1394.5566522458657,1189.23102942685,1018.4441000354507,875.4088294016328,754.8768723561541,652.7488214357385,565.7915868956245,491.4315435193322,427.6017498882322,372.6281027855855,325.14377143515225,284.0243446402329,248.65505410965866,218.3638888750437,192.49089345076283,170.42469450888925,151.61901482622466,135.59740573167753,121.9514278370401,110.33554287651526,100.46070978656383,92.0878768408633,85.02207615727185,79.10755956518037,74.22431020418831,70.286305128744,67.24212026953083,65.07897025175103,63.832346861511404,63.605791908101274,64.61102404821122,67.25385068783565,72.33859391165603,81.64615052181449,100.13609372221623,152.34661001881963,230.9055774358419,348.891036517979,524.816510596132,784.3417344015352,1161.387191645018,1697.804466946706,2440.290189468503,3433.6542302737757,4711.108892901239,6284.319170043707,8136.834737533012,10223.242357583165
A0,1942.922305228941,1601.732734215649,1336.857792389288,1126.9679559739886,957.6006130753672,818.7957291104882,703.5600117059198,606.8784427965879,525.0738604317836,455.3887530127757,395.70956281750284,344.3828605686984,300.09111569410385,261.76741766169107,228.53588853255098,199.66922777248288,174.55783137703304,152.68684957389488,133.61878349231375,116.9800199685678,102.45022289165766,89.75383946971749,78.65320437159664,68.94287450498462,60.48012658817479,53.124546341085896,46.7437963339839,41.21657763993219,36.43382181037896,32.298804848619305,28.72663939887468,25.643442164007503,22.985367339094534,20.697627459604444,18.733579582046687,17.053930164032728,15.626102721310948,14.423818060449488,13.426962156659819,12.6218750161887,12.002318613127331,11.57165792009055,11.347447763627317,11.371371478013216,11.732893477260761,12.635724543517915,14.648479392239556,20.547577125151797,29.7306417187664,43.77672858887328,64.94029121060493,96.36760406854752,142.25455633537973,207.84599190226686,299.1201071003467,422.04089244318266,581.4313348846789,779.7589898315291,1016.2452365708208,1286.5914083375487
IH0,0.0,699.4520298824187,1199.7240095150426,1555.9246814039238,1806.7555041685553,1979.714481188753,2094.5773472603396,2165.7395445502784,2203.8059542746823,2216.680244483674,2210.3187567576647,2189.25762102374,2156.985220281378,2116.2082144014985,2069.0436008457705,2017.1588740240009,1961.8754001583225,1904.2454595849767,1845.1102501203516,1785.1439890576685,1724.8877667727913,1664.775773615454,1605.15579890763,1546.3053896564068,1488.4446917939413,1431.759405501462,1376.4000374954217,1322.4839587120946,1270.0988309451739,1219.306540644915,1170.14714591532,1122.6425740498776,1076.7999492175627,1032.6145150253449,990.0721659351073,949.151629139819,909.8263542008656,872.0661785581093,835.8388489861651,801.1114991398523,767.8522225488028,736.0319607342876,705.6270977173838,676.6235434547531,649.0240709520317,622.8635019622951,598.2463352854079,575.4707746720261,555.8032019893437,540.1584235676636,529.9334152781735,527.2031571161374,534.9761302275168,557.4829578977681,600.4389393592692,671.1713887955927,778.4720018016894,932.067398407592,1141.7153779596613,1416.0789106776188
IN0,3497.2601494120936,6607.241917493277,8533.48916744121,9638.047275231771,10173.168090029454,10315.81492504748,10190.898105747381,9887.02060581814,9467.24302968951,8976.510415111423,8446.82313148796,7900.870047551154,7354.604103827887,6819.083836119014,6301.800701495959,5807.642901326503,5339.599922096924,4899.280532542099,4487.295468630118,4103.541216912334,3747.4110017331714,3417.9518520654055,3113.981506013519,2834.1752564344406,2577.130208905868,2341.47586858318,2125.8591038107975,1928.9446344599323,1749.4227715239433,1586.0196024384754,1437.5069949926246,1302.7111295766144,1180.5190649562933,1069.8832961851435,969.8245062108023,879.4328316765273,797.8680157242488,724.3588461963063,658.2023085703335,598.7629536884236,545.4731434661408,497.83519708556776,455.4272540964294,417.9165136160004,385.0881898314668,356.9121462237878,333.7177628817429,316.78985975687357,312.1786161557847,323.7898043324955,357.7122885968942,423.0633713811452,533.0826733894456,706.3277875430445,967.6715993993753,1348.5719553750514,1885.9651080146605,2619.339536648329,3586.1438576180562,4816.38965054553
D0,8377.0,8377.0,8377.699452029883,8378.899176039398,8380.455100720803,8382.261856224972,8384.241570706161,8386.33614805342,8388.501887597971,8390.705693552245,8392.92237379673,8395.132692553487,8397.32195017451,8399.47893539479,8401.595143609193,8403.664187210039,8405.681346084062,8407.64322148422,8409.547466943806,8411.392577193927,8413.177721182985,8414.902608949758,8416.567384723374,8418.172540522282,8419.718845911939,8421.207290603732,8422.639050009233,8424.015450046729,8425.337934005442,8426.608032836386,8427.82733937703,8428.997486522945,8430.120129096995,8431.196929046213,8432.229543561238,8433.219615727174,8434.168767356314,8435.078593710514,8435.950659889071,8436.786498738058,8437.587610237199,8438.355462459747,8439.091494420481,8439.797121518199,8440.473745061654,8441.122769132606,8441.745632634567,8442.343878969852,8442.919349744525,8443.475152946514,8444.015311370082,8444.54524478536,8445.072447942477,8445.607424072705,8446.164907030603,8446.765345969963,8447.43651735876,8448.214989360562,8449.14705675897,8450.28877213693
R0,0.0,728.4679523442028,1772.0250293254608,3004.271301216845,4337.565173728681,5711.352905434241,7084.131684619521,8427.868410837944,9724.091028524294,10961.12906393597,12132.15082540745,13233.757797178589,14264.972150390962,15226.503952633075,16120.21897075249,16948.751400397523,17715.222005849588,18423.033380462333,19075.721911894896,19676.85160741268,20229.938910277382,20738.400499049774,21205.51813639343,21634.416149808043,22028.048241793567,22389.197333367203,22720.47804984454,23024.33852167306,23303.062849484442,23558.774785499692,23793.442735013283,24008.885949255728,24206.781678716303,24388.67302944795,24555.977280067782,24709.99445378113,24851.915986440996,24982.833383186644,25103.746812048656,25215.573647138262,25319.157057212622,25415.274860268666,25504.649081439275,25587.95707918749,25665.84606158478,25738.955283711446,25807.95796031889,25873.66820679227,25937.543024536888,26001.65904081289,26068.842728428383,26143.051863003628,26229.897167994128,26337.323985056468,26476.438865048647,26662.402668191084,26915.2278237467,27260.24871823686,27728.03161197672,28353.580064756534
G0,1045471.0,1045471.0,1045618.5960445135,1045842.434448005,1046099.2533259405,1046363.4564460771,1046620.40684465,1046862.2194252529,1047085.1237735691,1047287.8147302477,1047470.4245909262,1047633.8864190805,1047779.5431918218,1047908.9111655417,1048023.5396832128,1048124.9309965875,1048214.4971585984,1048293.5395570435,1048363.2420396479,1048424.6719771265,1048478.78575394,1048526.4365268105,1048568.3829401287,1048605.298018478,1048638.0945706612,1048667.4806184128,1048694.0149563185,1048718.1465718048,1048740.2428188042,1048760.609773268,1048779.507172749,1048797.1596304693,1048813.7653276697,1048829.5030650727,1048844.5383548308,1048859.0291365164,1048873.131701451,1048887.0075308245,1048900.8320591962,1048914.807018043,1048929.1793475132,1048944.2725558067,1048960.5431780047,1048978.692650416,1048999.9183178048,1049026.5871369538,1049064.6721562794,1049140.9153350694,1049256.037488891,1049429.440286558,1049689.0996094004,1050074.5807957489,1050639.8682692486,1051455.018470545,1052604.977265134,1054184.0109514117,1056285.5426293048,1058989.4190407435,1062350.1712090434,1066389.4191661014
H0,956221.0820651235,954069.584630477,950634.9341258073,947212.6483629544,943802.6828288478,940404.993170664,937019.5351952496,933646.2648685467,930285.13831502,926936.1118170859,923599.1418145443,920274.184904012,916961.1978383575,913660.1375261395,910370.9610310454,907093.6255713337,903828.0885192769,900574.3074006075,897332.2398939653,894101.8438303471,890883.0771925579,887675.8981146646,847626.9205113914,808300.6994218928,769712.356961232,731877.8721869694,694814.1062064313,658538.8224954196,623070.7006155526,588429.3411083535,554635.2588677856,521709.861746587,489675.410537279,458554.95579484716,428372.2462540174,399151.60287388234,370917.75187097094,343695.60956013075,317510.0115257231,292385.3787477584,268345.31400483917,245412.12340300597,223606.26049673377,202945.69443123188,183445.2090456198,165115.64700844747,164521.23067921706,163928.9542487719,163338.8100134763,162750.79029742777,162164.88745235704,161581.09385752855,160999.40191964144,160419.80407273074,159842.29277806892,159266.86052406786,158693.4998261812,158122.20322680697,157552.96329519048,156985.7726273278
S1,410041.81501651235,383804.33597094606,361414.0886239348,340635.99603203504,321344.98390691995,303428.49860874977,286784.2316173463,271318.5583943177,256945.41554154563,243585.45295246525,231165.36342462042,219617.3308480506,208878.5609407252,198890.8721067423,189600.3321469613,180956.9314796722,172914.28653876804,165429.3688807929,158462.25670758449,151975.9062699434,145935.94112208643,140310.45190029577,138829.25680487804,137389.59070897812,135996.22630938693,134652.67397342986,133361.32808416363,132123.5983786038,130940.02794952906,129810.399408431,128733.83057100851,127708.86091885043,126733.5300049069,125805.44890011344,124921.865718014,124079.72619585454,123275.73024320629,122506.38527384504,121768.05697765859,121057.01789154361,120369.49351369309,119701.70429711365,119049.89817654999,118410.35685787139,117779.31422556774,117152.47157815211,115492.73300623831,113923.82978226733,112433.92732241625,111013.33563348408,109651.35181777115,108336.07171711733,107054.38148441743,105792.4582566906,104536.84886689569,103275.93182382848,102001.23470806939,100708.09602530747,99395.52970084091,98065.53022157887
E1,0.0,189.9278600321258,279.13025784167735,310.9772425039853,310.68438247470016,293.30132305931886,267.7337521652155,239.16944024985503,210.54789468071823,183.4538820267091,158.66219366142323,136.4703191174923,116.9015764524067,99.82880601407194,85.04919115155296,72.32894069639687,61.429372969856225,52.121541905556356,44.1938417059465,37.45535501125994,31.736670719769975,26.889248472461457,22.783998729354238,19.455032556086213,16.73558950407523,14.499959293076866,12.65231124317356,11.118818652012983,9.842067483228513,8.777057084576896,7.888319437556513,7.147834039598506,6.533519961336578,6.028160554546252,5.618671299106218,5.295666933007785,5.053330169799331,4.889644861374966,4.80715720420941,4.814626952556717,4.930371443597578,5.189197660604818,5.6578772731467595,6.474150448855905,7.965330192638326,11.142847057937367,21.83211554238698,32.57721062662685,48.53922318111837,71.9573463895596,105.83162286611719,153.85164662370892,220.0660416079267,308.1266988539554,420.15249642434543,555.5756003521122,710.5470703044584,878.2749019905101,1050.1543518256665,1217.1882480770853
I1,0.0,0.0,42.17029843244662,94.02562278495418,140.5067585325108,175.76739703901754,198.70586527309848,210.4622504856302,213.05487647860917,208.67033769105169,199.32231675507785,186.7132419113395,172.20301118800333,156.83032447036834,141.3563600015069,126.31458120769719,112.0585108819223,98.8038310800074,86.66362652711163,75.6768580931851,65.83074603912384,57.07796286712995,49.34955878145699,42.56446976831966,36.66866096771901,31.58403952308705,27.2233430024074,23.498974360841117,20.327967862270924,17.634521722640056,15.351034945373842,13.41825569395461,11.784931089612396,10.407206244157363,9.247928774350525,8.27595767051298,7.465541925141743,6.79581914156639,6.250486246417914,5.817718244192892,5.490473094941338,5.267465906052914,5.155448466470025,5.174377666029976,5.3700036369266275,5.849770847123347,6.919908296703207,10.106585690283097,14.91422880222176,22.11213495717523,32.78214544301968,48.41256882509249,70.9537321319138,102.78681300380444,146.5323476519081,204.65240496147007,278.89207926889844,369.7230495710604,475.9957411759339,594.9259382063854
A1,0.0,0.0,4.685588714716292,10.749013395418864,16.533338542392933,21.294674272467752,24.79104268923725,27.042665289313682,28.194196711003208,28.437408019360973,27.969490817157777,26.972122984019894,25.602417777007584,23.99047362625013,22.240405771870797,20.43304259275902,18.62925077568989,16.87332006535339,15.196114462365928,13.617857660390321,12.150511943234244,10.79975950833862,9.566620178809815,8.448750004854155,7.445058181513622,6.550531415820608,5.757935463193193,5.058942281231315,4.444864953654273,3.907125617228518,3.4375425540131257,3.028495799223105,2.6730122266864065,2.3647984912607525,2.098241658509151,1.8683916613211975,1.6709361582051931,1.502176567836878,1.3590140643045079,1.2389568109103648,1.1401666596948417,1.0615801485305416,1.0031792668486113,0.9665964479890633,0.9565755591134342,0.985102343720749,1.087010128217112,1.4347303581650421,1.9864740598599335,2.835116641071085,4.112465696888867,6.001194698366108,8.742922101061872,12.636717626889368,18.01922591086789,25.220248124106632,34.49766157633174,45.969103929674446,59.56399372897285,75.0118619501022
IH1,0.0,0.0,0.0,1.686811937297865,5.372325282328388,10.752098927977634,17.301467985937556,24.475187715154743,31.798025207675227,38.89675471162808,45.50232201988756,51.4382646702854,56.604116821994374,60.95830599384845,64.50266872745601,67.26940647980634,69.3106177194189,70.69020959442275,71.47785567751671,71.74463393385832,71.55999889803653,70.98978472395515,70.09498534389574,68.93110625322377,67.54792563619853,65.9908319200615,64.30005796636797,62.51054508123766,60.65216651180676,58.75013957453372,56.825520639965454,54.89571943250783,52.97499624203389,51.07492286930055,49.204798898066265,47.37202151300926,45.582411117177514,43.840497518042206,42.14977324653611,40.512922364549226,38.93203577984551,37.40882911733231,35.94488980480914,34.54200427908203,33.202677281192436,31.931131430613448,30.735698096396256,29.636584846796875,28.71414142933206,28.02529769792884,27.655206886327168,27.72848392308504,28.423697586454765,29.98943595308934,32.75840594926274,37.15324204208778,43.67614186387851,52.876625517656805,65.2984805330519,81.4151683422525
IN1,0.0,0.0,0.0,8.434059686489325,26.30521626744013,51.4935900594093,80.94479015279637,111.72232711279639,141.44290890323103,168.390828415131,191.47769080603598,210.1383640504425,224.2107831651903,233.82280946864216,239.2958851938991,241.0680924641661,239.63569390170193,235.5107017292368,229.19156554874706,221.14415476811433,211.7905416843165,201.50350335089212,190.60507086577053,179.3678243997123,168.01794643232108,156.74576555423036,145.70491524330967,135.01456348024388,124.76316245424071,115.0127762194374,105.80343564546092,97.1572184780681,89.0819072579607,81.57417212979375,74.62228100095055,68.20837048656924,62.31032714916872,56.90333613993663,51.96115806884674,47.45719861967013,43.36544346924294,39.661350651506275,36.322838941603706,33.33162269548614,30.675432556379903,28.352507873724626,26.38277186086365,24.84518728126848,24.11520668822251,24.427591055268618,26.144963941624237,29.80616108216466,36.18801052012999,46.3713815900704,61.793686221151965,84.25726796115262,115.85729684028445,158.80594754398717,215.16475952409485,286.5370672533061
D1,0.0,0.0,0.0,0.0,0.001686811937297865,0.007059137219626253,0.01781123614760389,0.03511270413354145,0.059587891848696194,0.09138591705637142,0.1302826717679995,0.17578499378788703,0.22722325845817243,0.2838273752801668,0.34478568127401527,0.4092883500014713,0.47655775648127763,0.5458683742006966,0.6165585837951193,0.688036439472636,0.7597810734064944,0.8313410723045309,0.902330857028486,0.9724258423723817,1.0413569486256056,1.1089048742618042,1.1748957061818657,1.2391957641482336,1.3017063092294712,1.3623584757412779,1.4211086153158117,1.4779341359557772,1.532829855388285,1.585804851630319,1.6368797744996195,1.6860845733976857,1.733456594910695,1.7790390060278725,1.8228795035459147,1.8650292767924508,1.905542199157,1.9444742349368456,1.9818830640541778,2.017827953858987,2.052369958138069,2.0855726354192616,2.1175037668498753,2.1482394649462715,2.1778760497930683,2.2065901912224004,2.2346154889203294,2.2622706958066567,2.2899991797297417,2.3184228773161966,2.348412313269286,2.3811707192185487,2.4183239612606364,2.462000103124515,2.5148767286421716,2.5801752091752235
R1,0.0,0.0,0.0,0.8228193166635125,3.7182074797093305,9.769669651681838,19.682004554384374,33.75631956021236,51.94823001879605,73.95403442061163,99.29737956033321,127.40423866203002,157.6621843227907,189.46403556292833,222.23779712578516,255.46543319241957,288.6930234339381,321.53457119231626,353.67135335411865,384.8483131837236,414.8686454276302,443.58742451801174,470.9048844608241,496.7597687686505,521.1230234749728,543.9926285623567,565.3887466515371,585.3490438197522,603.9244493051764,621.1754692838133,637.1690800890067,651.9761757666158,665.6695190370957,678.3221340293591,690.0060774300044,700.7915280782441,710.7461411446194,719.9346204696562,728.4184707121123,736.255899522221,743.5018494458485,750.2081509835907,756.4238052513526,762.195434454373,767.5680007392285,772.586050248221,777.2962237330029,781.7538497792273,786.0541655885984,790.3301632614579,794.759632875751,799.5873936506803,805.1554667168423,811.9421422777959,820.6088016925243,832.0496800931929,847.4350120552206,868.2343103744794,896.2067670180959,933.3512687616542
G1,0.0,0.0,42.17029843244662,104.14649440874138,173.19377962468695,242.1760401789963,307.29868370244145,366.7444765805168,419.848042690047,466.59667425735574,507.3295343672343,542.5578155447147,572.8587628801,598.8147988475858,620.9801122516128,639.8638598581648,655.9232890222372,669.5626518319837,681.1353667382897,690.94786867087,699.2642025591731,706.3107984365689,712.2811054390071,717.3399105334195,721.6595744772155,725.3754316648361,728.5949046296973,731.4041383087089,733.8728856567406,736.0581518040547,738.0069502402221,739.7584193756926,741.3454761378995,742.7961347539514,744.1345867827423,745.3821185847489,746.5579326803008,747.6799399587595,748.765603657587,749.8329523545023,750.901959583857,751.9966659377545,753.1488403156243,754.405077147137,755.8425537578809,757.61112184094,760.0852042938294,764.932659678618,772.1658833562246,782.9432044237113,798.9201272992779,822.4182655876754,856.5784454125188,905.4404219960688,973.8547917650856,1067.1426125111054,1190.4988640092865,1348.2639333359841,1543.270156837912,1776.4393317505876
H1,273206.0234471782,255842.804921312,241002.9693601737,227210.75731158562,214391.38303772185,202475.4024789256,191398.33170584528,181100.29262498778,171525.68399101542,162622.87591816267,154343.926212264,146644.31696477748,139482.70996151926,132820.71956220025,126622.70180285147,120855.55856235955,115488.55571710496,110493.15428455258,105842.85362801244,101513.0458610584,97480.8806516292,93725.13968297746,86466.69841162136,79762.40081507081,73565.01162422392,67831.59030854767,62523.129024847876,57604.220517941714,53042.75340312666,48809.63243825948,44878.5215518812,41225.607534372575,37829.38242297606,34670.442720350125,31731.303682299338,28996.22699634822,26451.060252827745,24083.086689395703,21880.883775370447,19834.189302810104,17933.773777821734,16171.31807079402,14539.295501685652,13030.857818988236,11639.724887830813,10360.078335764334,10214.489069583007,10077.159137915116,9947.506291931044,9824.989844270198,9709.107700464494,9599.393602402657,9495.41456868957,9396.768517836737,9303.082061224515,9214.008453709528,9129.22569061692,9048.434740661392,8971.357905087798,8897.73729401564
S2,410041.81501651235,434369.816249708,456550.3712895038,476879.34958693484,495490.89578974625,512509.57216694497,528051.057547011,542222.7752018055,555124.4705603435,566848.7487262991,577481.5766521957,587102.7525820965,595786.3445054071,603601.0991043984,610610.8226554021,616874.7353871957,622447.8008388045,627381.0317693757,631721.7741524134,635513.9707409891,638798.4056269551,641612.9135869946,661898.0865014936,681673.4754991779,700926.1097396398,719644.0224604746,737816.06572138,755431.7448430504,772481.071993528,788954.4386952431,804842.5073721486,820136.1224291505,834826.2417529933,848903.8899372583,862360.1349485472,875186.0903381396,887372.9454150134,898912.025949072,909794.8878199973,920013.4452833607,929560.1335768573,938428.1008899552,946611.4126518831,954105.2148612805,960905.6643972959,967008.6599333734,963824.4836104801,960550.8241738486,957178.7248899456,953702.9690019048,950112.394635432,946389.0927316127,942507.8723209599,938437.3446727525,934142.9724622893,929591.7779583931,924757.2034189408,919622.4362436755,914181.4629007604,908438.2838140585
E2,0.0,66.47475101124402,103.96948597212676,122.84666969475344,129.9879959178136,129.9027251199755,125.51672517614696,118.70948663041712,110.67488107850056,102.16090833615606,93.62757612825558,85.3500607307331,77.485665487694,70.11703666011523,63.27992544616302,56.9809568791798,51.20897248776815,45.942258951337294,41.15315155231174,36.81096533821167,32.883860825544744,29.340029158312575,26.148439526749343,23.52206536128501,21.331457459831807,19.48388075607584,17.912346874832586,16.568011118270622,15.414934111036152,14.426502480773873,13.583016497369274,12.87010795477708,12.277766240961014,11.799838722899905,11.433946062522157,11.181827775124002,11.050227696415366,11.05257731105882,11.212008058407473,11.566786087640786,12.18053393731654,13.162772119223128,14.714207261486616,17.24037623990407,21.69684528205366,31.02874758218515,62.19689242247263,93.96961014281061,141.608556027077,212.13136532057058,315.0286229527392,462.1209323855469,666.612963946834,940.8003144793939,1292.5133763100644,1721.3818668372965,2216.725045650054,2758.3117111304296,3319.660199578975,3872.378476793778
I2,0.0,0.0,14.759604451356317,34.301981380558935,53.345550140903136,69.4042742093699,81.58997154974712,89.87726374326284,94.66417256970477,96.51827376215822,96.03700570157461,93.77655856378988,90.22073516299542,85.77215220938245,80.75514861992679,75.42415992594991,69.97402810888482,64.550355523045,59.25897887875206,54.17419158892931,49.34564356793113,44.80399932693626,40.565501271031756,36.63560375680211,33.06573927638386,29.86625449783911,27.024422621511718,24.515697633571506,22.310579416913214,20.378668146526085,18.690950902068078,17.221003869143335,15.945554729446847,14.844693832426024,13.901923754606852,13.104178162004189,12.441912871009357,11.909371657783234,11.50516202828717,11.233361635514157,11.10556585288461,11.144713482672632,11.392555208860243,11.92538509452654,12.891229294731836,14.614755154391426,17.996627325694092,27.487214409326867,41.75466010266956,63.175348410540785,95.11347947845924,142.2330707535527,210.7033423999267,308.1447774994068,443.07897441855135,623.720955307246,856.2319219530749,1142.9229082984875,1481.0583008631265,1862.679223767859
A2,0.0,0.0,1.6399560501507018,3.916933955710488,6.259766913977828,8.367362525414357,10.102747219799545,11.42518307533555,12.347453718258066,12.909551130627243,13.162897871793893,13.161234927381663,12.955654720402636,12.592158248091412,12.110707351672497,11.545128312652519,10.923470743332771,10.268583281364295,9.598766522196641,8.928424861240789,8.268676181207606,7.6279005020411015,7.01222152270504,6.425922040244531,5.877786896415747,5.371864700191941,4.909205291455217,4.489021524152976,4.109459463820632,3.768104101396681,3.4623079573598727,3.1894024670715164,2.94683321407591,2.7322473883637715,2.5435535607239506,2.3789688711506587,2.23706645571552,2.116836389768806,2.0177774574464906,1.9400471205330316,1.8847192292002997,1.8542486496102888,1.8533610682143231,1.8909038155341742,1.9841753151135015,2.171010439801913,2.555257513704972,3.6409577055725935,5.319846396691242,7.879181459902076,11.728904039249201,17.44110314308572,25.77902383948175,37.69764445884582,54.28757983768331,76.64110447780804,105.64954749432867,141.78421720173168,184.93454613234084,234.3560709907075
IH2,0.0,0.0,0.0,0.5903841780542527,1.9360343850479347,3.983188170164601,6.58104834335495,9.550040997172044,12.717615865618676,15.934867912825968,19.08226099241334,22.06950763016774,24.8326097542339,27.329786333265147,29.537231367610563,31.445178110054165,33.05447445135171,34.37372400496779,35.416969330489096,36.20185782883069,36.74821863656204,37.07697921871809,37.209356785067406,37.16626843519986,36.96791307127309,36.63564267415149,36.19026725189742,35.651156162934384,35.0358298393825,34.35984439168086,33.636843554796634,32.878699773521035,32.0956970600135,31.29672816117867,30.489491346545087,29.680680369140667,28.876166677105005,28.081177110879857,27.30047427800999,26.53855188411438,25.799865576390154,25.089135356147203,24.41178748192636,23.77467532856405,23.187397236285367,22.665042913680644,22.235013259539482,21.959509134275617,22.07596166808307,22.75789893322573,24.266136230896933,26.984381250046738,31.465725377526333,38.485269201935616,49.08823460020745,64.6139171405295,86.67025857558733,117.03966785387861,157.51720423398262,209.70814508579295
IN2,0.0,0.0,0.0,2.9519208902712637,9.48542837476904,19.10414432579519,30.869451059974118,43.769034806131124,56.89760736058817,69.52973436670632,81.13382951261775,91.35666078325718,99.99535028308526,106.96624690142485,112.27548619731519,115.993392075782,118.23338804391385,119.13530575210113,118.85261269279943,117.54294907058234,115.36135706631472,112.45563983648721,108.96336606515118,105.0101188841594,100.70866551538744,96.1695721016377,91.49323028415542,86.76636920950925,82.06120463935284,77.43605530795423,72.93670190481299,68.59805288924642,64.44586627683344,60.49839323729753,56.767881918549534,53.2619246526507,49.98465974783098,46.9378584090573,44.121944457447476,41.537016282355694,39.18397690832854,37.06594843577769,35.19029499149721,33.571915352959046,32.23931725459921,31.247456782258276,30.710137782788692,30.908694662563054,32.98338123618495,37.6818110263322,46.14408538969679,60.056893563504055,81.85294826671495,114.92941335387432,163.83135534334184,234.30485042722606,333.10267223539245,467.46204845133394,644.2809799381961,869.1464764361796
D2,0.0,0.0,0.0,0.0,0.0005903841780542527,0.002526418563102187,0.006509606733266788,0.013090655076621738,0.022640696073793782,0.035358311939412454,0.05129317985223843,0.07037544084465176,0.0924449484748195,0.1172775582290534,0.14460734456231855,0.1741445759299291,0.20558975403998325,0.23864422849133496,0.27301795249630273,0.30843492182679183,0.3446367796556225,0.38138499829218453,0.41846197751090264,0.45567133429597007,0.49283760273116994,0.5298055158024431,0.5664411584765946,0.602631425728492,0.6382825818914264,0.6733184117308089,0.7076782561224897,0.7413150996772864,0.7741937994508075,0.8062894965108209,0.8375862246719996,0.8680757160185447,0.8977563963876853,0.9266325630647904,0.9547137401756702,0.9820142144536802,1.0085527663377947,1.034352631914185,1.059441767270332,1.0838535547522583,1.1076282300808225,1.1308156273171077,1.1534806702307883,1.1757156834903277,1.1976751926246034,1.2197511542926864,1.2425090532259122,1.2667751894568091,1.2937595707068559,1.3252252960843822,1.3637105652863177,1.4127987998865252,1.4774127170270548,1.5640829756026422,1.6811226434565207,1.8386398476905033
R2,0.0,0.0,0.0,0.28798676083222935,1.3285528461937832,3.562934176077643,7.3221722131380105,12.802714899607752,20.073895882814696,29.099492396781674,39.763454669825194,51.894664838850545,65.28837470900532,79.7235410894777,94.97610694855675,110.8286703568373,127.07712955030813,143.5349058177423,160.03529398790928,176.4324118055415,192.6011355789968,208.43633083409154,223.85161796461142,238.7778553473958,253.16147568169998,266.963825940699,280.1601423818853,292.7378735237324,304.69478155537826,316.0370669037525,326.77764481089025,336.93463238024805,346.53006338675146,355.5888255041801,364.1378035281518,372.2052082383989,379.82007104785527,387.01188803847884,393.8104028391904,400.24552643471503,406.3474050273155,412.14666839820194,417.67492972769884,422.96568502778985,428.05593375763925,432.9892900492176,437.8227582017718,442.64538053827846,447.6685888167881,453.22146324265015,459.7739119092469,468.0054981454886,478.8998210654743,493.8681099046423,514.8994110819436,544.7233449711478,586.9562647257312,646.189205824719,727.9754107460686,838.6911363310338
G2,0.0,0.0,14.759604451356317,37.84428644888445,65.12033074056279,93.98198684284631,122.82470999347231,150.69359535892735,177.05104748375237,201.62455009293495,224.30766773526932,245.0961019658625,264.0466526203776,281.2510461058835,296.81935904667966,310.8696060214852,323.5212725866481,334.8913667469406,345.0920754281785,354.2294430692562,362.4027010296011,369.7040112449097,376.2184730274699,382.02429581828784,387.2469762395021,391.98326888728946,396.3093380904435,400.2864745316661,403.965123747065,407.387751536737,410.5909146474453,413.6067958310169,416.4643876199148,419.19045985796123,421.8104162999243,424.3491324084273,426.8318698763135,429.2853877521296,431.73942732050153,434.22886581451746,436.7970768244113,439.50156025889163,442.4241332209207,445.6911763567134,449.5191129796051,454.3365338700003,461.22594727835695,475.0357249201563,495.9001020717375,527.3419088042494,574.4421234906977,644.3889498406213,746.9951584678479,895.0053957433104,1103.8943392623125,1390.8752740114594,1773.0792699310273,2265.265917545178,2877.702808101454,3614.777723213337
H2,273206.0234471782,289468.2867476055,304296.72178070387,317888.639570946,330333.5908125956,341714.7182818068,352109.2146698038,361588.7477122475,370219.8549507913,378064.31029597344,385179.464405652,391618.56074931787,397431.0290950244,402662.7580316207,407356.34802378237,411551.34639036964,415284.4654973195,418589.7853640494,421498.9417967074,424041.3010820808,426244.12220213166,428132.70746055595,411825.1030845497,395355.90916250163,378788.62475323724,362182.10580288456,345591.01219393976,329066.21591663285,312655.17237725557,296402.256407124,280349.0640696285,264534.68087871553,248995.91653993796,233767.50580847944,218882.27453647205,204371.26947156189,190263.84989788508,176587.73882128243,163369.03115202158,150632.15631012412,138399.7929718336,126692.73441174185,115529.70420691551,104927.12408725054,94898.83854113362,85455.80445039159,85178.47904044153,84894.0558901684,84603.20944894604,84306.564547787,84004.6999587136,83698.15169971446,83387.41610346091,83072.95266665945,82755.18669571137,82434.51176323084,82111.29198893353,81785.86415744267,81458.53968466322,81129.60644354255
S3,1230125.4450495369,1224642.0514100895,1219521.0252847369,1214725.5449901356,1210225.4675943423,1205994.3086920774,1202008.4465514263,1198246.582132656,1194689.3615509728,1191319.102971827,1188119.5916487472,1185075.9202442372,1182174.3599301265,1179402.2529888619,1176747.920919425,1174200.5841225625,1171750.2905531547,1169387.8515649028,1167104.7837102683,1164893.2556071002,1162746.0392119002,1160656.4369592965,1190802.8991127794,1221865.5015091419,1253868.963757589,1286839.7811377072,1320806.3487035357,1355799.0767850138,1391850.495079256,1428995.3415553086,1467270.6312710172,1506715.6988965918,1547372.2072402362,1589284.112371493,1632497.5740491068,1677060.79811711,1723023.7954003606,1770438.03950527,1819356.0039237286,1869830.5570018326,1921914.1914267342,1975658.0615750076,2031110.7920856741,2088316.9830506078,2147315.168278048,2208133.9768658867,2201192.3873938737,2194258.987252172,2187310.6507413937,2180330.0338363866,2173292.1845367914,2166163.2270632186,2158898.960930366,2151445.548290013,2143742.784552538,2135729.8884770246,2127352.0648499723,2118565.667166021,2109340.7951066974,2099661.5987162446
E3,0.0,113.95671601927545,172.67008045126005,198.03659369874055,203.68831155425457,198.07672341115335,186.4051333019046,171.84206040222728,156.28408101059904,140.83565674028182,126.11089275852063,112.42312777527617,99.90381987503244,88.57685462690239,78.4047555760444,69.31720042711547,61.228413128182595,54.047581738107056,47.68492248436653,42.0550433445538,37.07864880818828,32.68324056309442,28.80322342660779,25.62915091592783,23.00634284007717,20.821426372340476,18.990464120326788,17.450707180499982,16.154873659826162,15.067192842099383,14.160694859252484,13.41539626536601,12.817156140575504,12.357073093141958,12.031376472678913,11.841852419166257,11.796961656530106,11.913995513106403,12.222972393947964,12.773715197744522,13.649224695915821,14.9926463247752,17.06688320037494,20.40452332899439,26.26414023755855,38.536305956587995,79.68709770418093,121.51720432002767,183.9859664291193,276.3040799830708,410.93003415945503,603.4000568220865,871.1123424437834,1230.3495557527863,1691.6391676164694,2254.855547772213,2906.4178047723035,3620.218530804924,4361.872031964572,5094.34029302443
I3,0.0,0.0,25.302179059467967,57.56815377454228,87.72250372234107,111.89467891871756,129.01957296204563,139.44301144843115,144.13133841456053,144.24007831180185,140.89265691540646,135.07922957553,127.62188596778111,119.17460231025436,110.23970391903916,101.19063701561146,92.29560684110145,83.73940424390601,75.64230699914006,68.07579123383505,61.075218936993295,54.64985898102049,48.79065867368236,43.476173657840725,38.73241543719201,34.544808610332005,30.877103335968936,27.68311284339731,24.913802844422204,22.52140912803632,20.461688605800685,18.695028323269284,17.186885445787386,15.907867664740726,14.833660420719932,13.944947438845647,13.227444932659239,12.672175786411719,12.276156641815795,12.043785230354565,11.989466167657005,12.142575891934484,12.55722354147206,13.332905292449324,14.663490480232461,16.975764959670652,21.457922300051,34.00120556472656,52.82177501412967,80.99554954528728,122.905308199438,184.64816178541642,274.30747355272365,401.88957708770926,578.6145787474413,815.3472078457892,1120.3167645668411,1496.7621076985965,1941.3480575337915,2443.905110412517
A3,0.0,0.0,2.811353228829774,6.577494715425736,10.308078711643276,13.522978236842182,16.034880963302,17.817735189467253,18.92823256832578,19.45989855675935,19.517082409645862,19.20095918163451,18.602667120156852,17.800583132364167,16.859909905319295,15.83347555998807,14.7630963853972,13.681129336941211,12.612008918607737,11.573663781354794,10.578767538528801,9.63581198719105,8.750009151107287,7.924037532585771,7.164806295717639,6.474195295210109,5.850957322803164,5.291993422273593,4.793200795860647,4.350030661973994,3.957850557682194,3.6121761537843295,3.3088175991311664,3.0439719456198455,2.8142844665928557,2.616896523525483,2.4494955377997276,2.310383763485647,2.198588172984261,2.1140471734246917,2.0579391368934896,2.0332831647355794,2.0460996342809055,2.107837620698114,2.241074806343963,2.4954735505132573,3.0079569981822942,4.445649931949101,6.662838596944006,10.031801626806002,15.086674335060323,22.575149876620515,33.49690604824391,49.10529056226167,70.83525446800415,100.12947874003905,138.17420101202646,185.61230252619816,242.32969131697325,307.38400324331354
IH3,0.0,0.0,0.0,1.0120871623787187,3.2695063735398238,6.632044297898538,10.810942369337496,15.48776428768155,20.372161847531444,25.225438288512713,29.86580329113891,34.16454156469816,38.03830608159191,41.440364501593805,44.35223554602886,46.77635827897303,48.73000042659025,50.24038492028922,51.34090766781177,52.068280691782874,52.46043161509337,52.55500467800233,52.38832969933696,51.9947480550967,51.406206026185956,50.65426025130985,49.76847169343356,48.77562800030317,47.69947017707595,46.56071507115909,45.377241554282584,44.16435841178909,42.93510460008952,41.70055366227109,40.47010773253256,39.25177546818826,38.052434361223305,36.87808267540538,35.734091072509614,34.62547045775231,33.55718332818908,32.53454621511307,31.563812708315425,30.65312081587023,29.81422408806832,29.066104690972328,28.443966472082945,28.02896509159492,28.134272930308807,28.98768935232409,30.92985284597055,34.46146409052122,40.30469390722594,49.47271905828117,63.33361393265723,83.64301416380007,112.51255204023947,152.2885028483368,205.341663223725,273.8032918925099
IN3,0.0,0.0,0.0,5.060435811893594,16.013685781178033,31.784868544277607,50.64402258038278,70.83973696717842,90.88371303677398,109.64573163025486,126.3518362961608,140.53846185914136,151.99140833346834,160.68461367225527,166.72569712214252,170.31082549018384,171.689131775893,171.13580162332642,168.93250543382203,165.3537776445404,160.65804661877388,155.08219536716203,148.838728806161,142.1148090180531,135.07258332394622,127.86144553188666,120.61133084994471,113.43053579793164,106.40612703907156,99.60572282099834,93.0799006630926,86.86478863124987,80.98459146324704,75.45392495407404,70.27990791816212,65.46400793725749,61.00366682157211,56.89375291195962,53.12790739401439,49.6998789418573,46.60498803306265,43.84195426766172,41.41551432181569,39.340702170941015,37.65078619853522,36.41412459245715,35.776862886239755,36.10660151387455,38.90848231267388,45.164203297344834,56.36193532776886,74.70160852359543,103.35896006774098,146.7747261104284,210.89915281970528,303.26759133883763,432.7538915727497,608.8950941504843,840.8199019616186,1135.9790908201644
D3,0.0,0.0,0.0,0.0,0.0010120871623787186,0.004281593535918542,0.010913637833817082,0.021724580203154577,0.03721234449083613,0.05758450633836758,0.0828099446268803,0.11267574791801921,0.14684028948271738,0.1848785955643093,0.2263189600659031,0.270671195611932,0.317447553890905,0.36617755431749527,0.4164179392377845,0.4677588469055962,0.5198271275973791,0.5722875592124725,0.6248425638904749,0.6772308935898118,0.7292256416449086,0.7806318476710945,0.8312861079224043,0.8810545796158379,0.9298302076161411,0.9775296777932171,1.024090392864376,1.0694676344186587,1.1136319928304477,1.156567097430537,1.198267651092808,1.2387377588253405,1.2779895342935288,1.3160419686547522,1.3529200513301576,1.3886541424026673,1.4232796128604195,1.4568367961886086,1.4893713424037216,1.520935155112037,1.5515882759279072,1.5814025000159755,1.6104686047069479,1.6389125711790309,1.666941536270626,1.6950758092009348,1.7240634985532588,1.7549933513992293,1.7894548154897505,1.8297595093969765,1.8792322284552576,1.9425658423879149,2.026208856551715,2.1387214085919544,2.291009911440291,2.496351574664016
R3,0.0,0.0,0.0,0.4936915899981073,2.2534173269171216,5.9799925112191765,12.164752682722908,21.061930497414735,32.713299996196874,46.993072599474374,63.656278812203766,82.3826112067285,102.81256188803441,124.5752596626398,147.30866549234912,170.67329900140064,194.36078656915922,218.09844192288378,241.65092572501308,264.8198426124233,287.4419536397205,309.386523114014,330.5521859569874,350.86361465604614,370.2681809298956,388.7338237604683,406.2467368669348,422.80857743133146,438.4336233257401,453.14611254790947,466.97787887691806,479.96632592153014,492.1527405528477,503.5809249141774,514.2961164886766,524.3441634612441,533.7709250438235,542.6218720561106,550.9418714339768,558.7751501348112,566.1654513492596,573.1564241861945,579.7923388219866,586.1193208717932,592.1875274755016,598.0552790250846,603.798017536008,609.5329541424888,615.5387104087499,622.2487017620568,630.2803989029175,640.5247749864262,654.2696315512294,673.3616000452864,700.4035070224143,738.9689568408612,793.7961818389081,870.9068119526613,977.5941673960517,1122.246184163582
G3,0.0,0.0,25.302179059467967,63.64067674881459,107.61138360250354,152.8369596922419,196.8165766760622,238.20471267333866,276.35936238709155,311.0596235038274,342.3298209022645,370.3306312220856,395.2923027124639,417.4742716872046,437.1412778504504,454.5497398875921,469.94046259682887,483.5352056414978,495.5355654152693,506.12320332975787,515.4608209290366,523.6935135179422,530.9502793660489,537.3455524318911,543.0360758891242,548.1442487671902,552.7672975593068,556.9838118673678,560.858448950808,564.4453679170834,567.7907855855765,570.9349305684373,573.91359448854,576.7594292144822,579.5031102099992,582.1744757290977,584.8037606082343,587.423078245825,590.0683812899679,592.7822874725424,595.61847686513,598.6490584696452,601.9779243332471,605.7673397341777,610.2978221921486,616.1293343868426,624.6856753175439,642.3788599342316,669.3597187191691,710.2107192537178,771.5594097987374,862.799537352581,996.7744079483882,1190.1903051360275,1463.3688052968098,1838.9689332945436,2339.621819898585,2984.9431865263823,3788.7520422092402,4757.232628896076
H3,819618.0703415344,816040.3724154404,812686.0870113546,809536.2829741255,806574.5358489952,803785.6241313559,801155.4429574257,798670.9239645639,796319.9608804812,794091.3404320818,791974.6781939095,789960.3590233133,788039.4817546585,786203.8078483106,784445.7137118558,782758.1464312068,781134.582667975,779568.9904969004,778055.793973284,776589.8402353722,775166.3689605783,773780.9840073608,772429.6270865918,770895.3933261625,769177.8830146648,767277.4557127954,765195.1686509374,762932.7209621074,760492.4032388118,757877.0519305986,755090.0081217379,752135.0802453618,749016.5103013971,745738.9431505514,742307.3984553501,738727.2448317517,735004.1757613866,731144.1867954928,727153.5535581646,723038.8100303231,718806.7265694767,714464.287097729,710018.6648768163,705477.1962910204,700847.352084872,696136.7055620354,691352.8973543803,686605.6527221467,681894.5824719642,677219.3086828996,672579.4640218253,667974.6911068663,663404.6419154962,658868.9772340987,654367.3661460367,649899.4855554829,645465.0197444637,641063.6599607471,636695.104034377,632359.0560208127
S4,615062.7225247684,625141.8831868522,635213.5427233882,645269.4487435883,655304.8423676384,665317.1700340185,675305.2545497464,685268.7668340262,695207.8892971469,705123.1017361801,715015.0457005546,724884.4391552708,734732.023379505,744558.5305024002,754364.6642218814,764151.0889139425,773918.4240514706,783667.2419532822,793398.0675933742,803111.3796572231,812807.6123261235,822487.1310726848,855283.3900644653,888326.852053149,921616.1499188872,955149.2380756971,988923.3403982655,1022934.8941986285,1057179.4909713557,1091651.81477249,1126345.5793250664,1161253.465259758,1196367.0593089864,1231676.7977787403,1267171.9172172572,1302840.4158577607,1338669.0300702653,1374643.230575793,1410747.243254584,1446964.0983460161,1483275.7080744647,1519662.9619078431,1556105.7974201227,1592583.104019125,1629071.916867466,1665543.0952927284,1683827.3471173723,1702026.217426016,1720090.1118699466,1737980.8706704755,1755643.1530423514,1773001.2799443796,1789957.3206610987,1806394.3124261072,1822186.066251705,1837212.5660731385,1851375.9996184148,1864611.671855361,1876891.1793666265,1888219.229576222
E4,0.0,170.9350740289132,261.7321100052981,303.36467257294066,315.3885322425048,310.0936168532281,295.1505059695834,275.2987188563274,253.42362070345303,231.24277941441218,209.74274740768024,189.4563964788743,170.6384665341032,153.37622153688014,137.65880959970735,123.42040788599427,110.56677875700808,98.99137201034031,88.5848746578009,79.24068272879983,70.85785925030699,63.34256292032615,56.60856214680292,51.11493592890909,46.574666174692055,42.78199862002197,39.58856500480201,36.88674409311262,34.59814128597321,32.66568887223417,31.048322306182243,29.717520428404093,28.655247133514212,27.853030284671537,27.31209080595584,27.044626376719552,27.0766136349948,27.452919182153913,28.24631192716455,29.57363515764905,31.62617482008291,34.730694274806595,39.484112113180785,47.09184224246317,60.39674285555752,88.17470195114659,181.05170136960578,277.49620100413887,424.1638080230728,644.3999771801374,970.3698023431011,1443.110595417835,2109.9837201776845,3017.522248155523,4199.563808898798,5663.924871925492,7383.672398783979,9297.715380369938,11320.37408383317,13355.36055102604
I4,0.0,0.0,37.953268589201954,86.95771294219932,133.4449034733461,171.44486481595413,199.14918820847518,216.88660663775744,225.95928799976923,227.99752688177074,224.62170433934546,217.28235740621594,207.20020948014763,195.35957107055964,182.52789366530385,169.2860309153892,156.06081673780312,143.15572102104787,130.77772319355157,119.05985650380315,108.07955659549704,97.87326319452217,88.44783460407626,79.7893368546777,71.9891109278555,65.05284841221864,58.9391906288728,53.58376229611899,48.913742707990096,44.856381921015796,41.34371904926159,38.31498612521785,35.717666848098624,33.50784421436206,31.65026020531029,30.1183898124641,28.894782319665865,27.971942859783848,27.354137210740053,27.06076448050074,27.132511085029865,27.64277053922787,28.719874242550503,30.593889828393237,33.707310655430746,39.02764069622577,49.23872183016261,77.62092474260476,120.60528384408254,185.8384809848423,284.31546136658966,431.53410340034185,648.384442067345,961.2587010783803,1400.5468591675335,1996.8583787490759,2775.191967322773,3748.5666127549844,4913.312511040302,6247.61686231075
A4,0.0,0.0,4.217029843244661,9.933517882070369,15.673244409685957,20.701671234097272,24.716446709471533,27.65755003147149,29.592426079831057,30.647858980947294,30.970741777347754,30.70651075822331,29.988208810250512,28.9318001643692,27.6350378250283,26.178241024533875,24.626000551716334,23.029239763697692,21.427310918846437,19.849958976731347,18.31907553361603,16.850217730104962,15.453895674791061,14.136646469609804,12.915184903887727,11.796209703441328,10.780167223228396,9.86376513700869,9.041634217413046,8.307414084711954,7.654453401507206,7.076255770612872,6.566761976421907,6.120531883086894,5.732871666707382,5.399941889487616,5.118878264583645,4.887960345238999,4.7068766813561504,4.577165750658647,4.502978430341699,4.492455770239621,4.560370569611328,4.733627626421185,5.064145079458916,5.664858246166364,6.845374598451501,10.109893764269,15.180463049183405,22.97895066100657,34.841279637302776,52.662300845277436,79.01652249822027,117.19477462024386,171.05798409149247,244.62386087122266,341.39741449719196,463.60370467795263,611.5699192221111,783.4520397992123
IH4,0.0,0.0,0.0,1.5181307435680782,4.928478851525171,10.045647456553464,16.453740124603257,23.68314202760928,31.29841036287441,38.935682009749556,46.312594272136785,53.22423990162524,59.53290597783817,65.15587335193621,70.05349828827968,74.21860979617689,77.66759204645399,80.43316911531993,82.55873895351043,84.09403594284305,85.09188939331052,85.6058610918055,85.68857267545893,85.39056446133355,84.75955692757397,83.84478794392676,82.69351886870228,81.34924101828454,79.8509237721419,78.23287918419584,76.52497330244721,74.75301676050178,72.93923403837061,71.10275406634484,69.2600927717929,67.42561641184527,65.61198712561384,63.83060219217252,62.09204888705017,60.40661116852811,58.78488858909562,57.238633659927615,55.782008521669056,54.43367459071124,53.2206605946563,52.18648503154865,51.41141841587745,51.079491559676825,51.897711807082636,54.39867809552638,59.39701439350462,68.11067514503509,82.32300716736911,104.57312564490167,138.34216906669508,188.17103895557779,259.6217380247312,359.00722952068503,492.87863105307906,667.3470017378324
IN4,0.0,0.0,0.0,7.590653717840391,24.14162512784423,48.157218913112146,77.11337447259808,108.40385800026402,139.7767905026303,169.4900943602815,196.3206644583986,219.50491568322565,238.65392795121352,253.66599395567349,264.6475313202495,271.84666352826207,275.6002081810039,276.2930512724653,274.32815140263983,270.105240367535,264.0063912518847,256.38685439243415,247.5698284825416,237.84409361140763,227.46366424498777,216.67269407972236,205.68943812242676,194.69971059689883,183.85587403953505,173.2788545758331,163.06163726725677,153.2733180506004,143.96318774727493,135.16457556865024,126.89833652674001,119.17596459473201,112.00237592850219,105.37845213713086,99.30347822895146,93.77767154438098,88.80510517766194,84.39753846133229,80.5801072300224,77.40083011491741,74.94842180335755,73.3902715981438,73.06873329803842,74.82501762146549,82.06325572317569,97.09682014500203,123.51224235272886,166.69787877508384,234.54496757785293,338.24889672830244,493.04374794648015,718.5546122419826,1038.3552365863952,1478.4086080361435,2064.406430966052,2818.4614099024866
D4,0.0,0.0,0.0,0.0,0.0015181307435680783,0.00644660959509325,0.016492257051646714,0.03294599717624997,0.05662913920385925,0.08792754956673365,0.12686323157648322,0.17317582584862,0.22640006575024524,0.2859329717280834,0.3510888450800196,0.42114234336829925,0.49536095316447615,0.5730285452109302,0.6534617143262501,0.7360204532797605,0.8201144892226035,0.9052063786159141,0.9908122397077196,1.0765008123831785,1.161891376844512,1.2466509337720861,1.330495721716013,1.4131892405847153,1.4945384816029998,1.5743894053751417,1.6526222845593375,1.7291472578617846,1.8039002746222863,1.8768395086606569,1.9479422627270018,2.0172023554987946,2.0846279719106398,2.1502399590362535,2.214070561228426,2.276162610115476,2.3365692212840043,2.3953541098731,2.4525927435330277,2.5083747520546966,2.562808426645408,2.616029087240064,2.6682155722716128,2.71962699068749,2.7707064822471668,2.8226041940542492,2.8770028721497756,2.9363998865432803,3.004510561688315,3.0868335688556843,3.191406694500586,3.329748863567281,3.517919902522859,3.7775416405475903,4.1365488700682755,4.629427501121355
R4,0.0,0.0,0.0,0.740537384997161,3.39194005227987,9.033347878569568,18.44116730051536,32.040999266565805,49.93874338217276,71.98371768632816,97.83866595561634,127.04432569074197,159.07344837115124,193.37305343724853,229.39564128721656,266.62092776760346,304.56989606308906,342.81288737139755,380.9732389257705,418.72772050523486,455.8047673221259,491.9812808892234,527.0785784181743,560.9579160582043,593.5158886845783,624.6822438893671,654.4170975481538,682.7068813999551,709.5599290956563,735.0022092131446,759.073466178455,781.8238804606691,803.3112728661566,823.5988311874038,842.753315886781,860.8436954298401,877.9401656193619,894.1135178438732,909.4348378093587,923.9755407137658,937.8077860754803,951.0053772767432,963.6453638796655,975.8107929457261,987.5955703940659,999.1137262921774,1010.5195637934015,1022.0631796647009,1034.3600257039695,1048.384651710798,1065.5529805224087,1087.9483483832182,1118.6368382108965,1162.0885398951305,1224.7023116224066,1315.3943564429605,1446.1583858724116,1632.4575406753536,1893.2970687612917,2250.8714285727465
G4,0.0,0.0,37.953268589201954,96.06649740360778,163.42353904088242,233.45027721709351,302.30136816544353,367.8345917647598,428.9600587198334,485.22852672177953,536.5721106309792,583.1419727392926,625.2075905907161,663.0950024563635,697.1496221080421,727.7144538378003,755.1178870799076,779.6673873802251,801.6467625977804,821.3155494744843,838.909615127091,854.6424153090354,868.7065698852748,881.2755524408545,892.624767359155,902.9658914662035,912.4649173017901,921.2548947199658,929.4449780829054,937.1269155458488,944.3797843351383,951.2735439829173,957.8718213758503,964.2342387856575,970.4185373880525,976.4827294444808,982.4875355066739,988.4994438035117,994.594904440816,1000.8665246411542,1007.4328547210035,1014.4549168356087,1022.166285468346,1030.9330708724008,1041.3890252582526,1054.799109856351,1074.3768247573819,1114.576320909063,1176.189701948766,1270.3681672121056,1413.4463830302152,1628.9007357919488,1949.319259275034,2417.805784382232,3087.7960307301964,4020.238796511947,5277.818395985422,6917.2391135750995,8981.640998921614,11495.140352841734
H4,409809.0351707672,416639.1857569467,423439.52219374204,430211.90625217,436958.041943621,443679.4964090293,450377.7099434573,457054.0053014358,463709.59633447387,470345.5960084779,476963.0238454119,483562.81283036113,490145.8158222221,496712.8115035109,503264.5099022468,509801.5575165123,516324.5420701057,522833.9969256721,529330.4051798129,535814.2034629236,542285.7854648851,548745.5052062232,532060.6100699116,515368.8968563985,498677.822980192,481995.7168639524,465331.85484879575,448696.54126484966,432101.19124185666,415558.41556991154,399082.10657610005,382687.5235491658,366391.3757059518,350211.9000354023,334168.93056610506,318283.95467521227,302580.1509939339,287082.40228822624,271817.27544835827,256812.95948848443,242099.15136436783,227706.8786483768,213668.2479046082,200016.10829541512,186783.62188252452,174003.7356277956,179804.87484081255,185566.1489854324,191287.86275811697,196970.31761205,202613.81185107416,208218.6407179227,213785.0964771466,219313.46849310907,224804.04330339323,230257.10468794353,235672.93373423922,241051.80889877642,246394.00606511597,251699.79859873577
E_Om,0.0,0.0,0.0,0.0,0.0,0.0,0.0,0.0,0.0,0.0,0.0,0.0,0.0,0.0,0.0,0.0,0.0,0.0,0.0,0.0,0.0,0.13297525651861336,0.20088693256544435,0.2374128173613376,0.2559815892794808,0.26475628449326,0.26866472214770726,0.27067518660008066,0.2725932597773888,0.27555847156768176,0.2803559728593609,0.28761763755644304,0.2979614691812371,0.3121031856288895,0.3309666698149315,0.35581969828010074,0.38846924491674634,0.4315715543082874,0.48915859159907477,0.5675857047804785,0.6773481233431229,0.8368359757310019,1.0808844095913153,1.4829636294601705,2.2248685085098945,3.8965539516803753,10.067668153087649,18.353764600779492,35.62126564376514,67.56602113665704,127.1142464567235,235.31789941970183,426.69964044662504,753.160024600758,1286.1534320830474,2113.8428047127572,3332.3071735780773,5032.374758109432,7285.8220787341925,10134.537468342134
I_Om,0.0,0.0,0.0,0.0,0.0,0.0,0.0,0.0,0.0,0.0,0.0,0.0,0.0,0.0,0.0,0.0,0.0,0.0,0.0,0.0,1.0,0.76,0.6071249272569731,0.5060185215472116,0.43728761381121056,0.389175008553304,0.3545577025796329,0.3291163531216382,0.3102273174730375,0.2962975263852783,0.2863692607444006,0.27988898362068915,0.27657630395874955,0.27635534188185834,0.27932734184803387,0.2857743823639612,0.2961923316296811,0.31135925774802353,0.33245626707246917,0.3612762307226681,0.40059282926555345,0.45484434975709775,0.5314871101916393,0.6439224729984806,0.8186483012978116,1.1161674760570797,1.7134517867511883,3.5375803532802546,6.763706918305804,13.049522338572757,24.91953967207464,47.1624383446778,88.0918491558246,161.69130971491342,290.1119570864488,506.0539031017496,853.9443365134454,1388.8806594955108,2172.903781688754,3269.101567921207
A_Om,0.0,0.0,0.0,0.0,0.0,0.0,0.0,0.0,0.0,0.0,0.0,0.0,0.0,0.0,0.0,0.0,0.0,0.0,0.0,0.0,0.0,0.0,0.0032805474729970022,0.007660415357151077,0.012172257189591008,0.016349889059315757,0.020010376971295915,0.02312448238207486,0.025741329867447826,0.027945961770290254,0.02983659906746552,0.03151358445993173,0.03307522838602234,0.03461782371243558,0.0362384106814772,0.03803978117315765,0.04013795266045793,0.04267314790357052,0.045826496160643285,0.04984678926710992,0.05509591834645752,0.06213114522027993,0.07186556406612173,0.08591131952906579,0.10740998976200576,0.1434364167207812,0.21437745490269394,0.4251044035498911,0.803247337413509,1.540981426057499,2.937253318805449,5.55740711234141,10.38686824948469,19.089701635832903,34.31815713391049,60.0215378797614,101.63063567382554,165.99286487902617,260.9939550325307,394.9056037904882
R_Om,0.0,0.0,0.0,0.0,0.0,0.0,0.0,0.0,0.0,0.0,0.0,0.0,0.0,0.0,0.0,0.0,0.0,0.0,0.0,0.0,0.0,0.24000000000000002,0.4224,0.5681099825416736,0.6895544277130043,0.7945034550276949,0.8879054570804877,0.9729993056995998,1.051987230448793,1.1264417866423218,1.1975531929747887,1.2662818155534445,1.3334551716224103,1.39983348457251,1.4661587666241562,1.5331973286676845,1.601783180435035,1.6728693400261587,1.7475955618856842,1.8273850659830768,1.9140913613565176,2.01023364038025,2.1193962843219536,2.2469531907679468,2.4014945842875823,2.5979701765990573,2.8658503708527565,3.277078799673041,4.126098084460303,5.749387744853696,8.88127310611116,14.861962627409074,26.180947830131746,47.32299162752966,86.12890595910889,155.75577565985662,277.2087124042765,482.15535316750345,815.4867114464262,1336.983619051727
G_Om,0.0,0.0,0.0,0.0,0.0,0.0,0.0,0.0,0.0,0.0,0.0,0.0,0.0,0.0,0.0,0.0,0.0,0.0,0.0,0.0,0.0,0.0,0.029524927256973022,0.0741285040888851,0.12684204152421497,0.18367846358099887,0.24246315966012078,0.3021156588212379,0.36221454792183044,0.4227393130276002,0.4839224537191893,0.546170799174134,0.6100314755811598,0.6761888264543686,0.7454861084721901,0.8189717110316456,0.8979755120647162,0.984228597774182,1.0800518289581533,1.188661296705745,1.3146841906220703,1.4650779901373479,1.6508833945135928,1.8908756637664277,2.220142885585394,2.7141376526561367,3.5793021576039448,5.814659152953295,9.889805002766106,17.798910083426453,32.8008127781858,61.02440097208687,113.27279698595638,208.0143013424431,375.2408630455577,660.8096787616062,1130.153048917722,1870.036012663014,2987.39049313518,4605.085186972933
beta,1.0006627140785604,1.0006627140785591,0.9992277932839326,0.9981393706788861,0.9972905140975014,0.9966118320833257,0.9960575030779483,0.9955966816158032,0.9952081419216446,0.9948769129973847,0.9945921490412973,0.9943457712435005,0.9941315940040603,0.9939447570093082,0.993781351500726,0.99363817060607,0.9935125395100382,0.9934021974633593,0.9933052138201489,0.9932199267158542,0.9931448970584387,0.9930788730811706,0.9930206085552061,1.031586866775972,1.072849359031968,1.1172044627622884,1.1651246654119432,1.2171780199850966,1.2740538291455237,1.336597020179046,1.405854849467791,1.483141424474493,1.5701285103018245,1.6689760191566574,1.7825239974359521,1.9145827964995825,2.070385452453103,2.257318914384711,2.4861575830441156,2.773253728154928,3.144679247917432,3.6447002199633785,4.354988118688544,5.444681545240608,7.330197986509462,11.386915692215394,26.445050579377014,26.18498171017175,25.87392746667796,25.415408054246733,24.755393457963944,23.832838824032134,22.595326163528096,21.021909776225073,19.147965031615808,17.073761024898957,14.943020642169799,12.899340672852864,11.047488010804246,9.439361770383167
