series,2021-11-15,2021-11-16,2021-11-17,2021-11-18,2021-11-19,2021-11-20,2021-11-21,2021-11-22,2021-11-23,2021-11-24,2021-11-25,2021-11-26,2021-11-27,2021-11-28,2021-11-29,2021-11-30,2021-12-01,2021-12-02,2021-12-03,2021-12-04,2021-12-05,2021-12-06,2021-12-07,2021-12-08,2021-12-09,2021-12-10,2021-12-11,2021-12-12,2021-12-13,2021-12-14,2021-12-15,2021-12-16,2021-12-17,2021-12-18,2021-12-19,2021-12-20,2021-12-21,2021-12-22,2021-12-23,2021-12-24,2021-12-25,2021-12-26,2021-12-27,2021-12-28,2021-12-29,2021-12-30,2021-12-31,2022-01-01,2022-01-02,2022-01-03,2022-01-04,2022-01-05,2022-01-06,2022-01-07,2022-01-08,2022-01-09,2022-01-10,2022-01-11,2022-01-12,2022-01-13,2022-01-14,2022-01-15,2022-01-16,2022-01-17,2022-01-18,2022-01-19,2022-01-20,2022-01-21,2022-01-22
S,94223.63625615432,93391.2877501562,92696.50804264183,92104.88240013825,91593.40278419876,91146.03742972035,90751.22400003584,90400.36447049359,90086.88534246277,89805.63242469683,89552.47100856896,89324.01585360592,89117.44518037533,88930.3701228481,88760.74143329791,88606.78160323491,88466.93457857156,88339.82782588327,107253.78357055246,126150.52901954271,145033.72146379828,163906.24040286875,182770.1959357052,201627.0122980561,220477.53789383158,239322.1555655047,258160.88011433076,276993.4378937395,295819.32769933285,314637.8644378114,333448.2080061969,352245.6511396221,371033.1882385834,389809.2429630719,408572.1993976246,427320.3450059803,446051.82371704496,464764.59439259005,483456.3910517327,502124.68209704943,520766.62638855056,539379.0243777165,557958.2626907679,557470.710200969,556960.1719888675,556423.3863021843,555857.8163497449,555261.3198060883,554631.9570496237,553967.8791963009,553267.2621790383,552528.2674635346,551749.0182039762,550927.5843695727,550061.973107147,549150.122195059,548189.8953751676,547179.078901307,546115.3789756553,544996.4199512665,543819.743313469,542582.807545576,541282.98905278,539917.5843716904,538483.8139364333,536978.8277073223,535399.7129947646,533743.5048279802,532007.1992232295
E,2454.935646986915,2796.2970235876414,2931.817326384498,2937.0795036111904,2861.1432188284343,2736.279929541142,2583.837373317434,2417.929428196187,2247.8226705877664,2079.5110542361776,1916.7702595168132,1761.8713625764879,1616.0677632917805,1479.9292681606623,1353.5721040787116,1236.8175133259788,1129.3010353241252,1030.5475809475777,940.0227007778494,884.8130923210263,854.1984102902214,840.3801698507025,837.8889837330757,843.0352053245409,853.4429491731566,867.6770683543627,884.9574865464075,904.9485905174,927.6094475095229,953.0912002180123,981.6697724779146,1013.7042050387564,1049.6012444703808,1089.8316116501337,1134.909477489238,1185.3964564286966,1241.9089560236819,1305.127905456555,1375.8103043768963,1454.8023286489608,1543.0539319256911,1641.6350166160837,1751.7533341020041,1874.774325804523,1993.9428385152605,2112.8526132611296,2233.6322734667983,2357.5440337364557,2485.3326243699967,2617.428313235901,2754.0646014435015,2895.34596431472,3041.2863176477154,3191.8303173079225,3346.8645954459944,3506.223113605085,3669.6891058310775,3836.9950884760074,4007.8218326702727,4181.796857977631,4358.492810609848,4537.425977598366,4718.05512471826,4899.780810192438,5081.945306033482,5263.833246905944,5444.673118023237,5623.63968587262,5799.8574664838325
I,13732.16509826813,12150.87399008559,10864.001810333933,9791.120003904003,8877.254600427523,8084.3617626591795,7385.811568658866,6762.740113736175,6201.603237306216,5692.520243088759,5228.145083592526,4802.893637477536,4412.41329369406,4053.2183295815207,3722.4391441540856,3417.6498396846764,3136.7497530384408,2877.882111880604,2639.3781887575556,2419.718911322829,2222.4846198825453,2048.798495933026,1898.2145137640368,1769.3678715626786,1660.4307093288771,1569.4168089093555,1494.3742580657672,1433.4983088436888,1385.1896990043597,1348.077420005627,1321.0196616399078,1303.0925045209092,1293.572778961891,1291.9170752829584,1297.746774887503,1310.8315923623009,1331.0762611728094,1358.5105038992078,1393.2822313042518,1435.6538221833916,1486.0013103444378,1544.8163196539954,1612.710624764866,1690.423261943988,1778.8301636438612,1875.6622823584303,1979.6317459809036,2090.0235786604285,2206.455341589622,2328.734992671565,2456.776231862475,2590.5475040271335,2730.040708651471,2875.251443525411,3026.1659930785627,3182.7522562622544,3344.9529745989976,3512.680307712944,3685.811209819822,3864.1833024502193,4047.5910841083396,4235.7824064458055,4428.455202156707,4625.254485782862,4825.769672861494,5029.532279888236,5236.014079943101,5444.625797872142,5654.716435240376
A,1525.796122029792,1270.0762589472388,1072.270504140468,916.6921443494715,792.2999657241426,691.2397254004176,607.8717047033018,538.1098243237439,478.96658611951284,428.23665611787686,384.275153853909,345.8413213280882,311.9876966528015,281.98116678568175,255.24647374838958,231.32560726439243,209.8484817029487,190.5116567227886,173.06281052246493,157.2893403392269,143.5628504474223,131.96630032495298,122.41010637893196,114.71319398927933,108.65687010105731,104.01861373598851,100.59165549305138,98.19493216177356,96.6768404850688,95.91524535525389,95.81543427227162,96.30713456731763,97.34129323130247,98.88679183680426,100.92814311194977,103.46323719978533,106.50161803252254,110.0632510378071,114.17773159887292,118.88388262274732,124.22969461991764,130.272569786167,137.07984074188374,144.72954364365881,153.31143366749473,162.56223192871607,172.34313136062505,182.58562778836924,193.26014686994696,204.35791713500373,215.88052480631208,227.83390923841597,240.22491274740577,253.05928902972875,266.3405354444184,280.06918330253296,294.2423370024024,308.85334409713784,323.8915314710474,339.3419736713118,355.1852773947023,371.3973765931338,387.949338795794,404.807186882088,421.93174273428485,439.2785005515671,456.79753845023174,474.4334774820529,492.1254974543224
IH,0.0,549.2866039307252,997.8429974835756,1364.3188959489976,1662.874377177732,1904.50439899011,2097.9319649108334,2250.219699287959,2367.193777894194,2453.7410822455504,2514.0198274879085,2551.610666238081,2569.626573500436,2570.7940173529646,2557.5140063718895,2531.9089410395454,2495.8593716808623,2451.0335096095782,2398.911470937457,2340.805632358925,2277.8780624421124,2211.3547538611974,2142.422975416016,2072.1711459259905,2001.5588278535495,1931.4069970197227,1862.401164231529,1795.1019904792408,1729.9596921791772,1667.3297963846162,1607.4887317166495,1550.6483932903072,1496.9692615555928,1446.571940377427,1399.547068269118,1355.9639546120638,1315.8779682985328,1279.3368896651912,1246.3864278350788,1217.075089566614,1191.4585670884635,1169.603794025707,1151.5928019865473,1137.5264964379994,1127.528459381605,1121.7488779503126,1120.236929906123,1122.9869226617166,1129.9649530086524,1141.1241334478466,1156.4130939936585,1175.7805177021223,1199.177326848183,1226.5574683256166,1257.877855205366,1293.0977918148578,1332.1780751602162,1375.0798867816277,1421.7635432401291,1472.1871469199666,1526.3051637974581,1584.0669466369561,1645.4152179980981,1710.2845258653151,1778.5996846840376,1850.274215533009,1925.2088007242678,2003.2897700728954,2084.38763825789
IN,1473.892920709459,2933.046912211824,4207.887127483713,5331.857108974663,6329.433451855248,7218.947550477056,8014.464185783637,8727.049263299275,9365.633339622109,9937.603951656896,10449.21425167552,10905.866398643082,11312.309178204794,11672.776716180042,11991.086669531338,12270.710520273438,12514.824660528227,12726.348251317588,12907.9719720228,13062.180488327009,13191.270575048897,13297.900322304864,13384.82179198661,13454.711652789494,13510.07332059131,13553.188990282932,13586.104851171103,13610.637129137192,13628.390181624534,13640.780671398563,13649.063942289313,13654.360232565847,13657.679412525347,13659.94363492522,13662.007506057127,13664.676448474322,13668.723113641741,13674.902201416278,13683.964054823284,13696.66738893158,13713.791493150698,13736.14822424248,13764.594087093921,13800.042684191625,13843.477803816892,13895.967411451144,13958.325252806824,14031.21870698402,14115.23173991113,14210.901430153093,14318.738873336251,14439.240791423561,14572.895552300552,14720.185770734139,14881.588762848056,15057.575599493019,15248.609195359772,15455.141690357861,15677.611274964567,15916.43855107238,16172.022486241502,16444.73600158706,16734.92122557016,17042.884444051324,17368.890778935507,17713.15863229097,18075.853939160737,18457.08427988655,18856.892911261635
D,462.0,462.0,462.54928660393074,463.5471296014143,464.9114484973633,466.57432287454105,468.4788272735311,470.57675923844204,472.8269789377299,475.1941727156242,477.6479137978697,480.16193362535756,482.71354429159567,485.2831708650961,487.8539648824491,490.41147888882097,492.94338782986057,495.4392472015414,497.89028071115087,500.2891921820884,502.6299978144474,504.9078758768895,507.1192306307507,509.2616536061667,511.3338247520927,513.3353835799462,515.266790576966,517.1291917411974,518.9242937316766,520.6542534238558,522.3215832202405,523.9290719519571,525.4797203452474,526.9766896068031,528.4232615471807,529.8228086154498,531.1787725700618,532.4946505383604,533.7739874280255,535.0203738558607,536.2374489454272,537.4289075125158,538.5985113065414,539.7501041085279,540.887630604966,542.0151590643475,543.1369079422977,544.2571448722041,545.3801317948657,546.5100967478744,547.6512208813223,548.807633975316,549.983414493018,551.1825918198663,552.4091492881918,553.667027143397,554.9601249352119,556.2923030103722,557.6673828971539,559.0891464403938,560.5613335873139,562.0876387511114,563.6717056977484,565.3171209157464,567.0274054416117,568.8060051262958,570.6562793418288,572.5814881425531,574.584777912626
R,0.0,319.55750522938627,639.548949076671,962.9288576206461,1291.1061974394222,1624.4809244858136,1962.8064194651765,2305.436485573237,2651.4941112183087,2999.986459390919,3349.882545655126,3700.164870654079,4049.862814137836,4398.073252374572,4743.972248083861,5086.82054043688,5425.96477547261,5760.835860585675,6090.945430555861,6415.881129132782,6735.301206491643,7049.039245884181,7357.054409978906,7659.395307028257,7956.174313339887,8247.54966227346,8533.713149933863,8814.881814418466,9091.292377860223,9363.197587819031,9630.863861292166,9894.569832029794,10154.605543314503,10411.272126798749,10664.88182728511,10915.758435391914,11164.238034225906,11410.670062589466,11655.41870724811,11898.864643952807,12141.407152693851,12383.466638007068,12625.487590657393,12867.942033045752,13111.33349741764,13356.201593482556,13603.054110890958,13852.382552614354,14104.671027154165,14360.401295047002,14620.055582969544,14884.118091771716,15153.07572596058,15427.418341095992,15707.638672127745,15994.232029065475,16287.695802745955,16588.528799008825,16897.23040627125,17214.29959464375,17540.233741664237,17875.527278901456,18220.670154216685,18576.14610588151,18942.4307467604,19319.989459233948,19709.275104385055,20110.725552153675,20524.761042657545
G,128775.0,129216.88841645764,129720.22188070341,130247.94899945262,130776.62331010264,131291.62908949173,131784.15947680915,132249.25020400636,132684.47750108162,133089.08558178743,133463.39757154995,133808.41621826298,134125.55306352678,134416.44526091925,134682.8325291882,134926.47550792235,135149.10266032102,135352.37684667934,135537.87541124993,135707.07949738993,135866.3458540077,136020.10156785997,136171.36999843307,136322.19001550504,136473.93635246347,136627.55608331462,136783.73795561842,136943.03030319675,137105.92104948984,137272.8907500416,137444.4471660808,137621.14772512685,137803.61448203382,137992.54270603848,138188.7123961355,138392.9961020836,138606.36746424073,138829.91107632505,139064.8340993072,139312.479954095,139574.34437325186,139852.09408099845,140147.58838398932,140462.90398412768,140800.36336277254,141159.27307370526,141539.58654409228,141941.64035331632,142365.99827938885,142813.35815177544,143284.4952481579,143780.22687641773,144301.38914999436,144848.82068717096,145423.3501442864,146025.78577146668,146656.9059319156,147317.44997096522,148008.10908689088,148729.51701677157,149482.24045120753,150266.7691571173,151083.505833085,151932.75575553428,152814.71630136893,153729.46645645497,154676.95644089804,155656.99760214222,156669.25274559934
H,475738.5095172244,475738.5095172244,475738.5095172244,475738.5095172244,475738.50951722433,475738.5095172244,475738.5095172244,475738.5095172244,475738.5095172244,475738.5095172244,475738.5095172244,475738.5095172244,475738.5095172244,475738.5095172244,475738.50951722433,475738.5095172244,475738.5095172244,475738.50951722433,456708.9691365354,437679.42875584646,418649.8883751575,399620.34799446847,380590.8076137795,361561.26723309053,342531.7268524015,323502.1864717126,304472.6460910236,285443.10571033467,266413.56532964564,247384.02494895662,228354.4845682677,209324.9441875787,190295.40380688972,171265.86342620075,152236.3230455118,133206.78266482282,114177.24228413384,95147.70190344486,76118.16152275588,57088.621142066906,38059.08076137793,19029.54038068895,0.0,0.0,0.0,0.0,0.0,0.0,0.0,0.0,0.0,0.0,0.0,0.0,0.0,0.0,0.0,0.0,0.0,0.0,0.0,0.0,0.0,0.0,0.0,0.0,0.0,0.0,0.0
S0,32978.27268965401,32446.32905224266,31947.42251068076,31507.075042630964,31112.45121456641,30754.592055685484,30427.021646478923,30124.911097855605,29844.556838803575,29583.044807276558,29338.028716272962,29107.5803831981,28890.086669769134,28684.177171425985,28488.672543153465,28302.546889790872,28124.899880737634,27954.935682454867,34042.10911644379,40075.44908084693,46057.27379431169,51989.46442716554,57873.47012019928,63710.355837824165,69500.86519671141,75245.48333337352,80944.49248304061,86598.01739794515,92206.0602271646,97768.52575027457,103285.23838295738,108754.49644982402,114177.60275003465,119554.05083831567,124883.30792876008,130164.79180380201,135397.85147905213,140581.74978378334,145715.64645805882,150798.58070794336,155829.45239595757,160807.00118923924,165729.78306210847,164884.85279096372,164032.39322479093,163170.9193814321,162299.34153572266,161416.7947534386,160522.5407713601,159615.91155082567,158696.27692003935,157763.0261871902,156815.55788705827,155853.2742874097,154875.5787042162,153881.87449913536,152871.5651122781,151844.05476380794,150798.74962335383,149735.05934505173,148652.3989262361,147550.19088547755,146427.86777999328,145284.87509858294,144120.67457691586,142934.74798856056,141726.60146809323,140495.7704219416,139241.8250780244
E0,2454.935646986915,2422.723284675104,2321.6589137435235,2183.8393218933993,2029.285787011994,1870.171237506508,1713.7743623517467,1564.2885291186444,1423.9564948121279,1293.7934845965178,1174.0523807095312,1064.5243510713199,964.7331139857712,874.0598616542735,791.8227492746321,717.3265577168138,649.8928000172793,588.8770648955075,533.6781034394928,498.97202606507494,478.6094570273276,468.10085470784367,464.2810879854452,464.9980900612392,468.8485790322866,474.9663682638608,482.8601025817018,492.2934437171082,503.19963108019357,515.6226853950445,529.6785382071581,545.5306120502103,563.3690939689959,583.4187645247015,605.9266724966478,631.1633397629399,659.4258043127812,691.0419294518731,726.3756398876251,765.8329082593546,809.8684260657664,858.9929650031795,913.7814793285734,974.8820247692356,1033.5544966551547,1091.6449690389081,1150.2330695073388,1209.945879205667,1271.1404644917288,1334.009915764491,1398.6447963509372,1465.068574692942,1533.2578671576034,1603.1538129570085,1674.668279687935,1747.6870703576662,1822.0714128499617,1897.6584944325527,1974.2615021456093,2051.6694544294146,2129.647007459754,2207.934360571713,2286.2473508292737,2364.2778066280857,2441.694217914741,2518.1427723975366,2593.2488007066104,2666.618667387672,2737.8421379425945
I0,13732.16509826813,12150.87399008559,10796.758537329679,9623.955264212163,8599.135248216098,7697.4837946680445,6900.0333204658245,6191.920927669948,5561.228296515083,4998.196746594234,4494.6880983719,4043.8087007461336,3639.6429643172505,3277.061121227416,2951.5777942504965,2659.2457111379917,2396.574017464036,2160.464043724755,1948.1576577957228,1757.1948622991192,1588.1197946641119,1440.2895361400779,1312.3477726241588,1202.5682941083542,1109.0918435502892,1030.080500164354,963.8112130687551,908.7263470011769,863.4552144419738,826.8170563180445,797.8130002096682,775.6122066775688,759.5356611014458,749.0386227242453,743.6970687247904,743.1939169508933,747.3074953554202,755.9022579890493,768.9216444760658,786.3829340091395,808.3739350878473,835.0513637297004,866.640785662541,903.438025459165,945.8119734658604,992.5039520459818,1042.7730196688042,1096.181731744703,1152.469967627247,1211.4802025612964,1273.112876411004,1337.2993987765917,1403.9855090995209,1473.1207320530273,1544.651433970608,1618.5160192779767,1694.641411906216,1772.940323207237,1853.3090186025124,1935.625420544568,2019.7474606648539,2105.511639842396,2192.7317833958778,2281.197996697577,2370.6758383066967,2460.9057355656146,2551.602672815108,2642.4561856741016,2733.1306965410604
A0,1525.796122029792,1270.0762589472388,1064.799029362217,898.5101281967965,762.6854898609512,650.904384362318,558.2722527865852,481.01792902533066,416.2075055948116,361.5380566255986,315.1870317755006,275.7010415139553,241.9128730919871,212.87897008523169,187.83190054034895,166.14391066219687,147.29875288010209,130.86974414111296,116.50255451623946,103.90161597654885,93.12393031885996,84.09212419191837,76.65449080802156,70.62632824461187,65.81679239121803,62.04509971365552,59.14925929025206,56.98981511418262,55.450444479743524,54.436728040432286,53.87398965351848,53.704790363574084,53.88643463314134,54.388560240968275,55.191366242624596,56.28394843740479,57.66299146784082,59.33178306755748,61.2995114235862,63.58080763104978,66.19549928536287,69.16854671952908,72.53013920650758,76.3159339898454,80.56742593974204,85.1430181230782,89.96632286155847,94.99780551001322,100.21837114872855,105.61988090596904,111.19968367524575,116.95746924602265,122.89345874945101,129.00736146716338,135.29776754380194,141.7617861322525,148.39481996956044,155.19041477665493,162.14014943465523,169.23354890916585,176.45801120282582,183.7987450277472,191.23871803802672,198.7586172955895,206.3368247060929,213.94941076655107,221.57015028625392,229.17056387021478,236.71998893506483
IH0,0.0,549.2866039307252,997.8429974835756,1361.6291650288272,1653.6815806393943,1884.814065273493,2064.1100105090673,2199.2743325378465,2296.8917148072105,2362.620826138653,2401.343889529361,2417.284480133205,2414.1022468290334,2394.9705121393276,2362.640887795291,2319.497824258351,2267.605186828058,2208.746386313094,2144.459202216441,2076.0661639859354,2004.7011632057984,1931.4424900048475,1857.2691445716227,1783.0390760268772,1709.482646065042,1637.2060125350822,1566.700457486712,1498.3548200973134,1432.4691031121051,1369.2680121834678,1308.9136906310368,1251.5172636202062,1197.1490405188406,1145.847372806966,1097.6262055611026,1052.481571453539,1010.3970905665977,971.3486337245988,935.3082962800991,902.2478151423693,872.1415468171983,844.9691098405648,820.7177820439354,799.3847319386134,780.9791542151079,765.5243718116411,752.9917692054287,743.3250456881831,736.4542442413159,732.3037762821414,730.7969097487446,731.8581657058833,735.4144716319073,741.3955704195622,749.7339796857377,760.3646761147061,773.2246091963258,788.2521073990696,805.3862155772861,824.5659882540078,845.7297552424858,868.8143714612725,893.7544603381801,920.4816590454909,948.9238734583442,979.004550873652,1010.641978976233,1043.7486201660433,1078.2304910763478
IN0,1473.892920709459,2933.046912211824,4207.887127483713,5324.639792307038,6304.346277752358,7164.260300256404,7918.799642420509,8580.202091196863,9158.987799574317,9664.292508705003,10104.11318920389,10485.493359530457,10814.666197527029,11097.167620586342,11337.927601606072,11541.34539180193,11711.352583501373,11851.46677471019,11964.837802824322,12054.287972599963,12122.347330708719,12171.57902640402,12204.451572057707,12223.263219785349,12230.10396259225,12226.843336836062,12215.134916844221,12196.430803685313,12172.001394196695,12142.957263395414,12110.271147988222,12074.798846909342,12037.298425918307,11998.447490506685,11958.85840230655,11919.091888357787,11879.669035548975,11841.08192752194,11803.80317874148,11768.294606821722,11735.015265801116,11704.429043789576,11677.012010570224,11653.25968552054,11633.694384098735,11618.872792136919,11609.21093293789,11605.041143257182,11606.645484929299,11614.275280049378,11628.162430134333,11648.52583175413,11675.574830607326,11709.510855072134,11750.527901653973,11798.81227031507,11854.54178687694,11917.884655543894,11988.99802966275,12068.026357066175,12155.09953835074,12250.330926705852,12353.815193194525,12465.626079774314,12585.814062692603,12714.403950499145,12851.392443353592,12996.745683275649,13150.39682827875
D0,462.0,462.0,462.54928660393074,463.5471296014143,464.90875876644316,466.56244034708254,468.447254412356,470.5113644228651,472.71063875540295,475.00753047021016,477.3701512963488,479.77149518587817,482.1887796660114,484.6028819128404,486.9978524249797,489.360493312775,491.67999113703337,493.94759632386143,496.1563427101745,498.30080191239097,500.3768680763769,502.38156923958275,504.3130117295876,506.1702808741592,507.953319950186,509.6628025962511,511.3000086087862,512.8667090662728,514.3650638863702,515.7975329894823,517.1668010016658,518.4757146922968,519.7272319559171,520.924380996436,522.070228369243,523.1678545748041,524.2203361462576,525.2307332368242,526.2020818705488,527.1373901668289,528.0396379819713,528.9117795287884,529.756748638629,530.577466420673,531.3768511526116,532.1578303068267,532.9233546786384,533.6763464478438,534.419671493532,535.1561257377733,535.8884295140555,536.6192264238042,537.35108458951,538.0864990611419,538.8278946315614,539.5776286112472,540.3379932873619,541.1112178965582,541.8994700039573,542.7048562195346,543.5294222077886,544.375151963031,545.2439663344924,546.1377207948306,547.058202453876,548.0071263273344,548.9861308782081,549.9967728571843,551.0405214773504
R0,0.0,319.55750522938627,639.548949076671,961.4362307422509,1285.7282192319253,1612.3177469622278,1940.7144987765287,2270.2052069883675,2599.963602418124,2929.125188093677,3256.8371933696776,3582.2909525789555,3904.7418384715384,4223.520416748846,4538.0374584136725,4847.784713712542,5152.3328246185465,5451.327371219592,5744.483769348808,6031.58153332565,6312.458268338755,6587.064500737641,6855.433425868558,7117.6584362173935,7373.876688720008,7624.257217230045,7868.9923874294955,8108.291768280304,8342.377731871096,8571.482285277183,8795.844785798921,9015.710300661478,9231.328451206857,9442.952636853006,9650.839545828936,9855.248971758148,10056.443870400073,10254.690644807752,10450.259653446317,10643.425940444513,10834.470190893999,11023.67991747249,11211.350887959446,11397.788806618162,11583.31126602879,11768.24998980743,11952.915548687337,12137.6054892932,12322.608998342137,12508.209565144047,12694.68648435012,12882.315681197259,13071.370133364564,13262.120043400771,13454.83284657952,13649.773099551538,13847.202272837918,14047.378457820902,14250.555992249665,14456.985004966495,14666.910879177136,14880.573633337483,15098.207219151023,15320.038737010178,15546.287570325983,15777.164441494248,16012.870393696658,16253.595704304182,16499.518737316335
G0,128775.0,129216.88841645764,129652.97860769916,130070.877212173,130463.96829011381,130829.23973177598,131165.87055452715,131474.34993975048,131755.92187499182,132012.23404405802,132245.1168712854,132456.4462998131,132648.06068300596,132821.71264352338,132979.04341862115,133121.57151349058,133250.6902938796,133367.6709978827,133473.6688695639,133569.730928183,133659.5458928747,133745.69559513964,133829.95374898706,133913.52434482443,133997.22400103544,134081.61674526124,134167.11069154873,134254.02551001345,134342.63832988252,134433.21426347696,134526.02634684806,134621.36848372535,134719.56399389438,134820.9704308088,134925.98580842325,135035.05260947265,135148.66201062998,135267.35865540628,135391.7462027076,135522.49381788739,135660.34374137406,135806.1200580659,135960.73879176646,136125.2194580456,136300.69822250408,136486.738031902,136683.234126329,136890.27607884034,137108.06633709735,137336.87162070585,137576.99340554344,137828.7494688866,138092.46181233134,138368.4482284197,138657.01591475197,138958.4562050958,139273.0398777602,139601.0127320732,139942.59126107107,140297.95833145728,140667.25883325457,141050.59529459733,141448.02347950023,141859.5480026495,142285.11800784257,142724.62296706723,143177.8886660988,143644.673450226,144124.66481035578
H0,166508.4783310285,166133.8342547837,165535.75245146648,164939.8237426412,164346.0403771677,163754.3946318099,163164.8788111354,162577.48524741532,161992.20630052462,161409.03435784273,160827.9618341545,160248.98117155154,159672.08483933395,159097.26533391236,158524.51517871028,157953.82692406693,157385.1931471403,156818.6064518106,150003.8970898407,143236.2212661374,136515.32865785848,129840.97013493154,123212.89775471027,116630.86475665365,110094.62555702814,103603.93574363268,97158.55207054646,90758.23245289922,84402.73596166419,78091.82281847346,71825.25439045565,65602.79318509584,59424.202845117725,53289.24814338777,47197.6949778414,41149.310366431026,35143.86244209589,29181.120447753616,23260.85473131336,17382.836740710474,11546.839018962608,5752.635199247167,0.0,0.0,0.0,0.0,0.0,0.0,0.0,0.0,0.0,0.0,0.0,0.0,0.0,0.0,0.0,0.0,0.0,0.0,0.0,0.0,0.0,0.0,0.0,0.0,0.0,0.0,0.0
S1,9422.363625615433,8700.79076815006,8099.243371019621,7557.6972008148705,7067.410982125959,6621.666675285301,6215.111812690448,5843.358904125775,5502.730092470909,5190.087821203069,4902.718435295985,4638.2494628344475,4394.588985032402,4169.879909912826,3962.4645804885117,3770.856741440149,3593.718881027333,3429.8435964620635,4015.362217261197,4550.019585037843,5039.610387516981,5489.300572234135,5903.6915485154195,6286.881778083094,6642.522898131426,6973.869537531453,7283.822971009697,7574.96918967519,7849.612106734414,8109.802609286747,8357.36409225599,8593.799958522803,8820.676116512643,9039.247791774109,9250.623034966098,9455.77525657084,9655.554929659107,9850.700366300307,10041.847528147771,10229.538868072977,10414.23122127091,10596.302775031876,10776.059149763596,10587.024668078884,10407.96835067106,10238.057613182085,10076.540536883891,9922.72985402008,9775.992516341441,9635.74251839179,9501.435659011418,9372.565490937437,9248.660027328322,9129.278954621619,9014.011203939921,8902.472792156515,8794.304877745093,8689.171996401828,8586.760453220422,8486.77685537082,8388.946773741241,8293.013524964725,8198.737067295468,8105.893005278307,8014.271699257113,7923.677476591083,7833.9279420331,7744.853385080455,7656.2962822260615
E1,0.0,131.0785048815921,207.69667848177704,248.93402678264562,266.842824562411,269.5235694514209,262.4776184136691,249.45979000939354,233.03280774057663,214.9365619002851,196.33867668130657,178.00706374211535,160.43013950120704,143.90133136454705,128.5788695936298,114.52827237531407,101.75259307494439,90.21394603699983,79.84877927108103,72.37511000651216,66.91848751319466,62.858871560628685,59.76866078639498,57.36036326441299,55.44537383279829,53.90301532040891,52.658141696924325,51.6654488003796,50.898808617694264,50.34423355338635,49.995384402287655,49.85081188072107,49.911835074169346,50.18288803320195,50.670319478470105,51.38233873691211,52.329115239626766,53.52297239204095,54.97864192000307,56.71356122374074,58.74820658941362,61.10646132649197,63.81602142700414,66.90884312220355,69.81351240081003,72.65263937542443,75.49710194607857,78.38772729715814,81.34771309577316,84.38974630809255,87.5200797362527,90.74085978576065,94.05144736326429,97.44915840041364,100.9296698560529,104.48723344048994,108.11477981019286,111.80396178655741,115.54516548919709,119.32750696675554,123.13882540816984,126.96568028123752,130.79335759299124,134.6058892129892,138.38608844609786,142.1156045492578,145.7749985148879,149.3438421042367,152.80084175121212
I1,0.0,0.0,23.59413087868658,57.50337595705727,93.83944615279084,128.04565475653098,157.69474780256854,181.70732637711126,199.83888829301125,212.34224445041428,219.74613901071166,222.7115878564514,221.94044255329948,218.11906482724393,211.88551068257365,203.8123118669419,194.39944148037947,184.07376047675473,173.1924203570822,162.04851362263676,151.2011941385572,140.96983369987237,131.51514335677135,122.8971881253232,115.11543501017576,108.13548061380521,101.90626834964559,96.37073758559669,91.4720797649441,87.15715297453127,83.37812700808757,80.09307749511208,77.2659959715111,74.8664165870946,72.86916019805795,71.25390010958348,70.00478206672257,69.11011814218185,68.56216062068978,68.35695497959988,68.49426805378413,68.97758676217506,69.81418328665633,71.01524366671852,72.59605800828066,74.4668091820573,76.57298276515158,78.88085404456812,81.36901591070205,84.02339077410434,86.83425877062467,89.79445758198457,92.89826647749285,96.14069253308986,99.51699530705591,103.02235462632193,106.6516257886667,110.39914958636982,114.25859809872975,118.222845208183,122.28385558701484,126.4325888178441,130.6589171251162,134.95155635420036,139.2980105976274,143.6845313827241,148.09609268520944,152.5163832650865,156.92781795770128
A1,0.0,0.0,2.6215700976318423,6.251774938005903,9.981496253812535,13.324281957535469,16.052871726749302,18.095433704781883,19.469582740360337,20.240669115187238,20.495785450553093,20.32797777159569,19.827061904997965,19.074678892707098,18.142028343533234,17.089250445738973,15.965781140536166,14.811241285241604,13.656578698328607,12.525287504160389,11.470528592098983,10.517353527702294,9.673408351805081,8.93625957687754,8.298210031075154,7.749328155218375,7.279252941226407,6.878190348835368,6.537396875982935,6.249353208688292,6.0077624650993355,5.807458949792721,5.6442799674659785,5.514920814225773,5.416825670162496,5.348076283150571,5.3073018097604105,5.2936086578165895,5.306528222184418,5.345980148652594,5.412248883916793,5.505971574562157,5.628135746295192,5.780085559996105,5.963535769090732,6.168430278929021,6.389174170924917,6.6227078190918345,6.867399383237844,7.12240698022788,7.387310654918913,7.661899405480297,7.946047311449508,8.23964082647655,8.542535406764138,8.854528924180554,9.175344665299573,9.504619810730691,9.84189708038657,10.18661827049751,10.538119014396367,10.895624454202038,11.258245719971256,11.624977237441461,11.994694960089824,12.36615566584141,12.73799748461403,13.10874183613996,13.47679696132299
IH1,0.0,0.0,0.0,0.9437652351474632,3.1795058981644697,6.716141767246617,11.379716543714936,16.911053043212316,23.025482133784873,29.44797795492446,35.932392467639545,42.270522412182736,48.29481115341642,53.87720873410237,58.92585668738154,63.38068641369013,67.20862914495964,70.39887136378252,72.9584118117876,74.90805775706069,76.27892045976517,77.12235457141561,77.49898561817028,77.47173100675293,77.10161780498494,76.44548780170211,75.5549282578995,74.47596430269343,73.24919828326223,71.91018985158951,70.48994670010276,69.01544761629067,67.51015361375336,65.99448459091707,64.48624853498154,63.00103120440221,61.55254185251503,60.152920161607206,58.81300998997362,57.54260539621696,56.35067399620203,55.2455622066595,54.23518643380331,53.32721382404644,52.52923582563769,51.84893751630668,51.289886925389865,50.85322805385244,50.538677857410505,50.34511631988933,50.27093674175087,50.314253256168236,50.47302217882127,50.74511043950055,51.128330793292484,51.62045561628603,52.21921647143222,52.92229391211352,53.727300382375546,54.63175811559978,55.633073361824394,56.7285079330382,57.91514885479696,59.18987679781059,60.54933390264966,61.98989158486504,63.50761890431314,65.09825209322848,66.75716585687279
IN1,0.0,0.0,0.0,2.53239181320172,8.678987481930058,18.66411957849298,32.22080164766502,48.82419645900335,67.83886172511971,88.60946681204882,110.51436894766572,132.99489265465604,155.5688969905841,177.8343931548191,199.46708042046993,220.2143845314474,239.88770762557422,258.354000647218,275.5273606280081,291.36107721068475,305.8403651789242,319.0106019526525,330.95098980914526,341.7571883497822,351.5303474440133,360.3705482554403,368.37317857016694,375.6271923199747,382.214529498072,388.2102133540913,393.6828131076224,398.6950786016099,403.3046323779201,407.56465591304743,411.5245289254462,415.2304348228685,418.72591348576157,422.0523677359086,425.2495318849217,428.35591132793536,431.4092019615611,434.44669769749765,437.505693764323,440.6238929720121,443.8398217160577,447.1932622369351,450.7139587517656,454.4255069245195,458.3476467408461,462.4976231308464,466.8909976075101,471.54213282177557,476.4644790562071,481.67073807633585,487.1729487323573,492.982520687575,499.1102321525898,505.56620136764883,512.3598379797379,519.4997783545936,526.9938076379044,534.8487706806861,543.0704735645162,551.6635772815207,560.6314850694486,569.97622493005,579.6983289418216,589.7967110977978,600.2685455423642
D1,0.0,0.0,0.0,0.0,0.0009437652351474633,0.004123271133311933,0.010839412900558551,0.02221912944427349,0.03913018248748581,0.06215566462127068,0.09160364257619515,0.1275360350438347,0.16980655745601744,0.21810136860943385,0.27197857734353625,0.3309044340309178,0.39428512044460795,0.46149374958956757,0.5318926209533501,0.6048510327651377,0.6797590905221984,0.7560380109819635,0.8331603655533791,0.9106593511715494,0.9881310821783024,1.0652326999832873,1.1416781877849893,1.2172331160428889,1.2917090803455822,1.3649582786288443,1.4368684684804338,1.5073584151805366,1.5763738627968273,1.6438840164105808,1.7098785010014979,1.7743647495364794,1.8373657807408816,1.8989183225933968,1.9590712427550039,2.0178842527449774,2.0754268581411943,2.1317775321373964,2.187023094344056,2.2412582807778594,2.2945854946019058,2.3471147304275433,2.3989636679438497,2.4502535548692395,2.5011067829230917,2.5516454607805024,2.6019905771003917,2.6522615138421424,2.7025757670983106,2.753048789277132,2.8037938997166325,2.854922230509925,2.906542686126211,2.9587619025976433,3.0116841965097567,3.0654114968921324,3.120043255007732,3.1756763283695566,3.232404836302595,3.290319985157392,3.3495098619552026,3.410059195857852,3.4720490874427172,3.5355567063470303,3.6006549584402587
R1,0.0,0.0,0.0,0.5237287292614808,1.8614624772699164,4.156085610745826,7.456143698371013,11.750415801150115,16.990657441818247,23.106650067501157,30.016186925608057,37.631695051085885,45.86460536968467,54.62820545219813,63.839463991287616,73.42015492946615,83.29750258448418,93.4044981887807,103.67999080260721,114.06862364567554,124.52066531441795,134.99894851429985,145.47521708760496,155.92761033642188,166.3389680267845,176.69570663962224,186.98708092312992,197.20469789609513,207.34219182670725,217.39499938532373,227.36019601413773,237.2363695660018,247.02351722668456,256.72295811327035,266.33725581195654,275.870154367759,285.3265242891822,294.71231931250037,304.03454485049167,313.30123908986707,322.5214676861597,331.70533298461595,340.86399869752427,350.009731004796,359.15595711911897,368.31734246829404,377.50745800685877,386.73929428034916,396.02554346156234,405.3787500899881,414.8113876655501,424.33589338545477,433.96467913078874,443.71012872983067,453.5845869354069,463.6003429609305,473.76960996978744,484.10450111648004,494.6170023155124,505.31894170532536,516.2219556882947,527.3374514119364,538.6765655816207,550.2501195447917,562.0685706517495,574.1419599734014,586.4798565391905,599.0912983469692,611.9847304897148
G1,0.0,0.0,23.59413087868658,60.97953300540645,105.78765782628267,153.81936624751665,202.3336087487724,249.57958006323287,294.4823422649237,336.4282476582275,375.1168288002788,410.45779060291403,442.4990620764948,471.37648718671204,497.2787268323305,520.4229233591839,541.0380123867404,559.3534791402304,575.5919894268904,589.964769695685,602.9922894968572,615.0376172492322,626.3522141301454,637.1105730716965,647.4354384592908,657.4156057491945,667.1181485068681,676.5966140123145,685.8963947963828,695.0581803475677,704.1201423871772,713.119311579589,722.0924577181188,731.0765880314693,740.1095078774457,749.2301653835704,758.4789863562145,767.8982270993473,777.5323621299146,787.4285176755152,797.6369586957885,808.211635881883,819.2107989206515,830.6976827775123,842.7412745395089,855.3077067716547,868.3851818592311,881.9746602095253,896.0844511230138,910.727039480253,925.9171938157097,941.6708081682351,958.004162929672,974.9334234550596,992.4742719671341,1010.6416125412236,1029.4493145605118,1048.9099749263464,1069.0346880479267,1089.8328178359823,1111.3117690899983,1133.4767576634688,1156.3305801140916,1179.87338448083,1204.1024445391681,1229.0119404594657,1254.5927492783321,1280.832249011012,1307.7141405897746
H1,47573.850951722445,44550.362817129935,41966.27584779501,39564.61342463494,37332.35297406309,35257.40207841639,33328.53203634688,31535.31616889933,29868.072532297218,28317.810722672162,26876.18248045524,25535.43582302568,24288.372453598575,23128.308212334563,22049.03635236989,21044.793438986824,20110.227684557263,19240.369545275735,17693.3802414004,16262.515505015663,14937.576883771342,13709.241276367058,12568.987856297435,11509.030969269204,10522.258523745226,9602.175432241891,8742.85169617638,7938.874759463069,7185.3057859097335,6477.639542963405,5811.7675996862845,5183.944570173853,4590.757155116164,4029.095753993832,3496.128438625178,2989.2770955631577,2506.195560293215,2044.749580410323,1602.9984580514845,1179.178233917544,771.686286317137,379.06722888137466,0.0,0.0,0.0,0.0,0.0,0.0,0.0,0.0,0.0,0.0,0.0,0.0,0.0,0.0,0.0,0.0,0.0,0.0,0.0,0.0,0.0,0.0,0.0,0.0,0.0,0.0,0.0
S2,9422.363625615433,9928.5245367104,10383.886006051278,10796.171027545326,11169.202115007478,11506.413308738951,11810.901485403478,12085.467293750226,12332.648738705788,12554.749492467596,12753.86328084839,12931.895212896288,13090.580625151717,13231.501833455615,13356.103078532102,13465.703886954607,13561.511028589468,13644.629224673707,16651.925168019163,19681.270336625545,22726.741869058587,25783.010354986203,28845.273641438464,31909.204523659704,34970.90739500928,38026.88072754035,41073.98344471745,44109.40403347715,47130.63174585995,50135.42954650181,53121.80863507455,56087.49474496608,59031.483684459665,61952.34826968757,64848.83541579603,67719.84161738693,70564.39153114382,73381.61888913337,76170.74913552612,78931.08331153865,81661.98280960476,84362.85468173567,87033.13722470218,86719.43005054233,86393.78382797888,86056.74139138068,85708.85043476797,85350.63629796592,84982.58776069882,84605.15015567586,84218.72257266495,83823.65731591122,83420.26056811871,83008.79366669137,82589.47465823397,82162.47994798826,81727.94594882145,81285.9706863772,80836.615348391,80379.90578576972,79915.83398588562,79444.35954750115,78965.41119341116,78478.88836209392,77984.66292377787,77482.5810694445,76972.46542331295,76454.11743008006,75927.32006734158
E2,0.0,45.877476708557225,77.77250425958425,99.3622481134865,113.33590947519252,121.67147029696805,125.83630064766365,126.92657446923492,125.76601741079597,122.97674893925071,119.03058767908169,114.28649790858752,109.0181140330074,103.43411133404213,97.69338801403569,91.9164626607002,86.19409559012595,80.59386149663489,75.16520027910374,72.46396658592562,71.62446517025285,72.01640387339498,73.20019775088826,74.88371357900539,76.88448481568079,79.09880542301428,81.47768075506194,84.00889633958717,86.70417806995819,89.59037948831428,92.70372651318148,96.08630310231892,99.78305313168565,103.84343452112381,108.31971059929192,113.26744107148548,118.74625357812451,124.82080746746252,131.56189930659664,139.04768646813585,147.36502347244593,156.6109178713806,166.89412009098461,178.33686609575886,189.36086555919573,200.30232739734424,211.35822505882078,222.64336840204592,234.2236295969086,246.13525908628026,258.39608070827444,271.0119424341141,283.98039394716903,297.29274322327865,310.93516664327234,324.88926858240075,339.1323239417685,353.6373423704571,368.3730377757669,383.30375467379326,398.38938437776966,413.58529333219144,428.8422797787119,444.10657144386903,459.31987491791233,474.4194861572553,489.33847066641965,504.0059211299574,518.3472993925731
I2,0.0,0.0,8.2579458075403,21.040341607343255,35.82564264537843,50.94786317960523,65.34250628157619,78.36603549022382,89.66703880127298,99.09414886049319,106.63028098649175,112.34579496082813,116.36529792790483,118.8442926762607,119.95293309689417,119.86490574109874,118.7500010179352,116.76933072954746,114.07243329081402,110.79571458986675,107.51553747695247,104.56752329480373,102.12439322513463,100.25429590091584,98.96275553928055,98.2216384889788,97.98828898301598,98.21751675328818,98.86859087352298,99.90889202387817,101.31544037314346,103.07516240684281,105.18448586248323,107.64845468178679,110.480272100899,113.70060350345841,117.33707035952818,121.42395760375649,126.00213760501873,131.11920432970277,136.82980798412595,143.19618089521012,150.28884797147634,158.18751866249164,166.98216118422235,176.4653963479263,186.52091604223577,197.08500321693398,208.12399412046088,219.62104172050203,231.5683061618266,243.9623109371484,256.80114437279224,270.08273538770624,283.80375347182326,297.9588705524371,312.54023233695904,327.53705119916015,342.93527060604765,358.71727349705327,374.8616203712367,391.34281087637737,408.13106762362895,425.19214405293116,442.48716018967616,459.9724714877688,477.5995768866681,495.3150728472661,513.0606605334725
A2,0.0,0.0,0.9175495341711447,2.289694564121312,3.819511809486796,5.323180379150704,6.693162159516118,7.872750052183781,8.838489196878522,9.588084981843576,10.132143594717881,10.488588726033724,10.678942615415966,10.725900547712392,10.65179732337177,10.477683733254974,10.222815481592669,9.904416637108882,9.53762179410517,9.135530804941318,8.759743569138681,8.4422398541363,8.19600477049648,8.022637606828267,7.917575486600631,7.873517759042184,7.882548152838632,7.9373519906373815,8.031831608040875,8.16134203003731,8.322703310425522,8.5140953006621,8.73490315470216,8.98553373595879,9.267301784395402,9.582304652084003,9.933331883041749,10.323808288082793,10.757767667444863,11.239853893244058,11.77534624741371,12.370206424557312,13.031145262399319,13.765707937898043,14.582376996442115,15.456374561620596,16.37459697873097,17.330497867468978,18.32113485921844,19.345470845572624,20.403400917119345,21.4951975996691,22.62119593413871,23.781615021730072,24.976456351837903,26.205444643927088,27.467991699615563,28.76317232689894,30.089706358597486,31.44594365330402,32.82985061980506,34.23899775737606,35.67054825191833,37.121247983640465,38.58741748472713,40.06494649125516,41.54929179355906,43.03547911968244,44.518109795198086
IH2,0.0,0.0,0.0,0.33031783230161205,1.1493934652524924,2.503994504241064,4.371058108162439,6.686515167537412,9.364926636222027,12.312626609288934,15.436285438703152,18.648258096974153,21.869694086344857,25.03210727067659,28.07790452683834,30.960228543831427,33.642366610255415,36.09690258890173,38.30473545467749,40.254049007797,41.93928951925292,43.3783367124707,44.60127520693354,45.643045755217514,46.53893100052928,47.32202717241364,48.0220469539721,48.664969461171815,49.27319360912389,49.86596076769122,50.45989466931799,51.06956559350755,51.70802672935636,52.38729773875855,53.11877992352986,53.913624788727034,54.7830495725174,55.73861100457702,56.79244868071045,57.95750879047751,59.247757946113644,60.67839580731126,62.26607423355235,64.02912990182162,65.98783673087704,68.16468405128603,70.57233154870048,73.21792279688583,76.10556527192315,79.23773964119658,82.61608343151525,86.24180884481562,90.1159063125692,94.23922222082489,98.61246236232753,103.23615115222813,108.11056410121611,113.23564374981136,118.61090505402244,124.23533380374411,130.1072803073722,136.2243498539488,142.58329111278655,149.17988350032357,156.00882454670617,163.0636183777682,170.33646655975792,177.81816271415806,185.49799248451387
IN2,0.0,0.0,0.0,0.8863371346206016,3.135763721373062,6.949623549652052,12.34843433845461,19.238254651738853,27.45701077902565,36.80653219390754,47.074383600615306,58.048420333047815,69.52617098775326,81.32056313834501,93.26308541940523,105.20517443965727,117.01839446770633,128.59381797692228,139.84089907609888,150.68604750489126,161.07104954462858,171.00013546289844,180.5135159433575,189.6695379742972,198.53327956437386,207.1697608642832,215.64033219818663,224.00115208252308,232.30296711245722,240.59164470862902,248.90909253921888,257.2943327375743,265.7845940167018,274.41634938643534,283.2262484999896,292.2519916362669,301.5331201165635,311.1117445008509,321.0332340945731,331.34689139993,342.1066342225838,353.37170687494904,365.2074407109734,377.68608331036654,390.88771510626907,404.9012721447888,419.79254280663633,435.6141740727701,452.4114476122064,470.22557909866833,489.09556383306744,509.0591657004313,530.1533978084378,552.4146979510182,575.8789172520729,600.5811908558545,626.5557306855087,653.8355635324925,682.452228068996,712.4354388726965,743.8127225111868,776.6090291540834,810.8463224800304,846.5431504811509,883.7141999373736,922.3698377175444,962.515642590265,1004.1519318482532,1047.273287733066
D2,0.0,0.0,0.0,0.0,0.00033031783230161207,0.0014797112975541045,0.003983705801795169,0.008354763909957607,0.015041279077495018,0.024406205713717044,0.036718832323005976,0.05215511776170913,0.07080337585868328,0.09267306994502814,0.11770517721570473,0.14578308174254306,0.1767433102863745,0.2103856768966299,0.24648257948553162,0.2847873149402091,0.3250413639480061,0.366980653467259,0.4103589901797297,0.45496026538666323,0.5006033111418807,0.54714224214241,0.5944642693148237,0.6424863162687957,0.6911512857299675,0.7404244793390914,0.7902904401067826,0.8407503347761006,0.8918199003696081,0.9435279270989645,0.995915224837723,1.0490340047612527,1.1029476295499798,1.1577306791224973,1.2134692901270743,1.2702617388077848,1.3282192475982624,1.387467005544376,1.4481454013516872,1.5104114755852396,1.5744406054870612,1.6404284422179383,1.7085931262692242,1.7791654578179248,1.8523833806148107,1.9284889458867338,2.0077266855279303,2.0903427689594456,2.1765845778042614,2.266700484116831,2.3609397063376556,2.4595521686999833,2.5627883198522112,2.670898883953427,2.7841345277032383,2.9027454327572606,3.026980766561005,3.157088046868377,3.293312396722326,3.4358956878351123,3.585075571335436,3.741084395882142,3.9041480142599103,4.0744844808196685,4.2523026435338265
R2,0.0,0.0,0.0,0.18330505524151827,0.6718038570025183,1.5434863874175049,2.8447771772465664,4.599271774696634,6.813990101660782,9.483901425049694,12.5952376112957,16.12795036531761,20.05755818840304,24.356553285342407,28.995486711365324,33.943814318312725,39.170561502261734,44.64484789868594,50.33630161220881,56.2153846407741,62.25364570647511,68.4339842366699,74.74693285302344,81.18804303665748,87.75611835317784,94.45207369137998,101.27824074551492,108.23798084996622,115.33550223289798,122.57580832618974,129.9647269012148,137.5089871627009,145.21632449291434,153.09560131282623,161.15693415343785,169.41183522165022,177.8733624600441,186.55628066048016,195.4772368924881,204.65495393951954,214.1104457374734,223.86725907222586,233.95174607432097,244.3933723841079,255.2250662681251,266.48361445542224,278.20325498015796,290.4171170826181,303.15802893048044,316.4589598424596,330.3532508824854,344.87472220217296,360.0577075342775,375.9370442640573,392.54803482971,409.926387929617,428.10814387609236,447.1295861152813,467.02713966632234,487.8372565772873,509.59628819543934,532.3403439585011,556.1051364485069,580.9258125634547,606.8367708282913,633.8714650714735,662.0621949286334,691.4398838962479,722.0338459426347
G2,0.0,0.0,8.2579458075403,22.256996574265468,40.14220123469304,60.542664940227695,82.44352959368194,105.09406371026141,127.9408471147237,150.57873024866697,172.7145450577321,194.14005083996682,214.7116204635126,234.33488098945392,252.95302102958152,270.537830872108,287.082794151034,302.5977313572567,317.10462642665095,330.63436247688963,343.67787646235627,356.5702801930018,369.5332328902129,382.7092684853728,396.18833692959373,410.0275441964163,424.26532917255884,438.93131170847,454.0529130495957,469.65966510218817,485.78593341008474,502.4726041824574,519.7681387408749,537.7290883045782,556.4209065183805,575.9184544262531,596.3065938191205,617.6809194631829,640.1486648073262,663.8298066825137,688.8583902467781,715.3840944718183,743.5740596886668,773.6150013050441,805.7156372022807,839.800593002936,875.8550119344579,913.8994924450457,953.975298757414,996.1355520848575,1040.4398987203879,1086.9511932478772,1135.7333428860177,1186.8498137965082,1240.3625075766984,1296.3308375724873,1354.8109059173194,1415.8547242268378,1479.50944585352,1545.816592653158,1614.8112684944408,1686.5213576824394,1760.9667104822338,1838.158320842402,1918.0975037022984,2000.7750811875226,2086.1705886958284,2174.251513415784,2264.972579219176
H2,47573.850951722445,50405.62779408688,52987.72956919037,55354.5143967806,57521.575898578565,59503.3918741238,61313.40402408064,62964.091978771125,64467.04203870713,65833.01100483899,67071.98544925796,68193.23675203741,69205.37220663404,70116.38247466924,70933.68565085184,71664.16818017764,72314.22285224602,72889.78408147338,70460.50624038794,67931.94091578067,65315.92968886002,62623.26847134101,59863.79513355449,57046.46996501984,54179.44954412325,51270.15454773804,48325.331989419705,45351.11233592515,42353.061915984064,39336.2310022515,36305.19791697423,33264.10948390553,30216.718123216466,27166.415862403537,24116.26551432229,21069.029253338555,18027.194802045702,14992.999423924131,11968.45190160157,8955.35266590392,5955.3122275677015,2969.7680512263205,0.0,0.0,0.0,0.0,0.0,0.0,0.0,0.0,0.0,0.0,0.0,0.0,0.0,0.0,0.0,0.0,0.0,0.0,0.0,0.0,0.0,0.0,0.0,0.0,0.0,0.0,0.0
S3,28267.090876846294,28065.164910907395,27883.209216254163,27717.504650814193,27565.40804701853,27424.935843240404,27294.54504686019,27172.998458712842,27059.27838470939,26952.529585828768,26852.020507768866,26757.116273050324,26667.259424608183,26581.95588368674,26500.7644806767,26423.28897687202,26349.17185215627,26278.089365759653,31629.11713946957,36959.51714302418,42270.37434221296,47562.585811901605,52836.87391501103,58093.80502482522,63333.80953967986,68557.2009122706,73764.19260364538,78954.91257688982,84129.41534211069,89287.69176497785,94429.67693108658,99554.45541404738,104662.74997774482,109754.28864031931,114828.78273029512,119885.91914846386,124925.35507267299,129946.71404610363,134949.5826685452,139933.50732482006,144897.99053447353,149842.48660127132,154766.3962914148,154464.0945004115,154158.12452624197,153848.01247902997,153533.36256137732,153213.82169532654,152889.05853017708,152558.75058919578,152222.5760405012,151880.2080993139,151531.31092616078,151175.5363730153,150812.52120911787,150441.8846207877,150063.22587571654,149676.1221007734,149280.12615958805,148874.7646414417,148459.53599156684,148033.90882780892,147597.32050132932,147149.17597039344,146688.84706654437,146215.6722415171,145728.95689077344,145227.97435504026,144711.9677040864
E3,0.0,78.64710292895523,129.25762144345262,160.40104081532746,177.97493084946436,186.10237993455715,187.6968618107716,184.8318690767981,178.9895028377418,171.23108654835264,162.31610754470398,152.7861707176662,143.02485704465926,133.3007601281577,123.79864494252308,114.64213935620404,105.9103399820315,97.65001273437834,89.88458445799799,85.2924484868267,82.88513489929947,81.94949236039412,81.99038223621749,82.67825691445223,83.80501271083762,85.24883740806348,86.94742521430956,88.87834029758801,91.04514780836341,93.4679995470435,96.17753823097517,99.21119709837788,102.61011342721685,106.42071824030776,110.69301808719335,115.48108786836568,120.84385787089582,126.84610597756387,133.55960562019206,141.06440781813077,149.45025457073461,158.81813341827427,169.2819910386964,180.97062866299186,192.3001455439108,203.6123376811915,215.10891105906774,226.908963881417,239.0824494009455,251.66961966416937,264.69227884388465,278.1602472779252,292.0750229008742,306.4318019164964,321.22053928135017,336.4264486854228,352.03017781010874,368.0077990726345,384.33070043716987,400.9654286012677,417.8735182540115,435.0113304702621,452.32991731998953,469.7749264673714,487.2865577429725,504.7995826893855,522.2434374704584,539.5423990161466,556.6158536582911
I3,0.0,0.0,14.156478527211943,35.33715615802391,59.00306974632481,82.345550643145,103.71189127868865,122.21730512646691,137.48059119218698,149.44348956818467,158.24736208417445,164.14945124980648,167.4665885482144,168.53797080290258,167.7011673326707,165.27727058114928,161.5623189993204,156.82297266007743,151.2950220909654,145.1837352959175,139.14624865036714,133.5649571017906,128.63754956282023,124.44346420174082,120.99111687766859,118.25022486599224,116.17304084011415,114.70763711282828,113.80569812759745,113.42666845501708,113.5395950791754,114.12360102538855,115.16762313639205,116.66963291573826,118.6362583123693,121.08215194894757,124.02954113836995,127.50798586340599,131.55435101118542,136.21298933001836,141.5361281978531,147.58445381822926,154.4278891667701,162.14656576912185,170.8319934802259,180.27709774270627,190.3668358698508,201.0394216556848,212.26360962102882,224.0253493133275,236.31990572166933,249.14716620217607,262.5088023677632,276.40650917844954,290.8408671900476,305.8105633164324,321.3118163945334,337.3379189280943,353.87884468097667,370.92089443030306,388.44636568485566,406.4332403308022,424.85488920798815,443.679795841106,462.87130370178437,482.3873928899073,502.1804932350093,522.1973416573705,542.378892250379
A3,0.0,0.0,1.572942058579105,3.8438572498912698,6.283964793626308,8.588073406334287,10.594423692194919,12.231841495043598,13.48484145162039,14.370673836165963,14.92436918845437,15.18914950792492,15.210434141665743,15.032240327193616,14.69516355383513,14.235384575864895,13.684328631766414,13.068724860564167,12.410897859297737,11.72918082667083,11.091812281384765,10.533628874862584,10.068244679153471,9.696651218688977,9.413050982135182,9.208642592390618,9.073946738437407,9.000131739279196,8.97968156172302,9.006653004198451,9.07669321458147,9.186931793704478,9.335820446154084,9.522942935487318,9.748894800077402,10.015152734573329,10.323979922390155,10.678366021278398,11.081998982563386,11.539265459311759,12.055276773725534,12.635917964704339,13.287918128063756,14.018940976349336,14.837695215213484,15.719471738533851,16.651333664866197,17.62696272045893,18.643684839774085,19.700759238425047,20.79839816444574,21.9372075471056,23.117868671856286,24.34095667785419,25.60683572890497,26.915596336487315,28.26701520379148,29.660526597144425,31.095199251646875,32.56971570674912,34.08235263382696,35.63096167901331,37.21295090107146,38.82526720973608,40.46438040444727,42.126269533217794,43.80641236759425,45.499778838460685,47.200829306113064
IH3,0.0,0.0,0.0,0.5662591410884777,1.9411087622502632,4.168787082427971,7.178167141243437,10.836866763993473,14.986144929297389,19.4628436900554,24.112607189714648,28.79726595325107,33.39836769571743,37.81821555070247,41.97934651373707,45.823085758407444,49.30760561861178,52.405773924377044,55.102976173208276,57.39502665093456,59.2862359604673,60.806906041482996,62.000567089331504,62.91568673191095,63.60060311220976,64.10069283087,64.45702507286809,64.70595692421753,64.87928767041412,65.00471426654109,65.1064216498931,65.20570646622785,65.32157718344352,65.47130276973792,65.67089276845256,65.93552948814535,66.27994543288472,66.71875698062618,67.2667656134486,67.9392374838245,68.75217122397945,69.72256295299582,70.8686765699624,72.21032672251758,73.76918133918446,75.56909031068763,77.62399323523564,79.94227688597637,82.52928434697183,85.3887443172828,88.52356906370034,91.93628274468688,95.62923278621236,99.60467331072242,103.86477243724786,108.41157357336543,113.24692817875103,118.37241013896622,123.789217651387,129.4980661093204,135.4990741249078,141.79164411757543,148.37433855592505,155.24475282685893,162.39938572826284,169.8335086886316,177.5410349772687,185.51439036250625,193.74438688953296
IN3,0.0,0.0,0.0,1.5194350879210312,5.297028249178907,11.57694183291753,20.29943814153919,31.227989387136883,44.03346765631045,58.34912146685569,73.80561373217344,90.05247330389943,106.7703439516402,123.67706898354571,140.52971975489442,157.12402870521422,173.2922342608617,188.90002669428893,203.84306038224307,218.04334089226958,231.44568544468936,244.06599447467823,255.96105240970115,267.2082940666899,277.89290612662705,288.10012668988117,297.9110911876722,307.4009989080525,316.6387236732555,325.68726478950487,334.60463869771866,343.44495944293686,352.25955917419645,361.09806929455164,370.00940717160097,379.04271238650676,388.24820581156723,397.677991799642,407.3868263752914,417.4328747638927,427.87848098248185,438.790971247099,450.24351204864735,462.31604314610365,475.09630553211224,488.68098467300564,503.14357357203727,518.544482606321,534.9368864473415,552.3700743978984,570.891334812595,590.5469749469947,611.3828268938771,633.4444438416989,656.7771053695152,681.4257005724764,707.4345287193695,734.8470402486531,763.7055311692346,794.0507983996674,825.9217605321343,859.3550469391943,894.3845574640314,931.0409948055519,969.3513719273006,1009.3384972655684,1051.0204411163038,1094.4099872980617,1139.5140749886841
D3,0.0,0.0,0.0,0.0,0.0005662591410884778,0.002507367903338741,0.006676154985766711,0.013854322127010148,0.02469118889100362,0.03967733382030101,0.05914017751035641,0.08325278470007105,0.11205005065332213,0.14544841834903957,0.18326663389974204,0.22524598041347912,0.2710690661718866,0.3203766717904984,0.37278244571487545,0.42788542188808376,0.4852804485390183,0.5445666844994856,0.6053735905409686,0.6673741576303002,0.7302898443622111,0.7938904474744208,0.8579911403052909,0.922448165378159,0.9871541223023765,1.0520334099727906,1.1170381242393317,1.1821445458892248,1.2473502523554527,1.3126718295388962,1.3781431323086342,1.4438140250770868,1.5097495545652322,1.5760294999981168,1.642748256978743,1.7100150225921917,1.7779542600760163,1.8467064312999957,1.9164289942529915,1.987297670822954,2.0595079975454715,2.133277178884656,2.2088462691953437,2.2864702624305795,2.366412539316556,2.4489418236635276,2.5343305679808106,2.622854137044511,2.714790419789198,2.81041965257541,2.9100243258861327,3.0138890983233804,3.122300671896746,3.235547600075497,3.353920010214463,3.47770922786585,3.6072072939751707,3.7427063681000785,3.884498012217654,4.032872350773578,4.188117103600438,4.350516489328701,4.520349998017332,4.697891032994601,4.883405423357107
R3,0.0,0.0,0.0,0.3142372375568884,1.1354152270256928,2.5742788747118253,4.686018785699418,7.48813046173783,10.972624953559137,15.114456044331675,19.87738687705696,25.218107958443067,31.089150513667214,37.440962227796746,44.223394547084645,51.386771723577,58.88265861913493,66.66440838117536,74.68754678771974,82.91003354306817,91.29242954266648,99.80866613066007,108.44183044850548,117.18122385063536,126.02037866718402,134.9557707257459,143.98602065456993,153.1114278270733,162.33372358105407,171.65596437278498,181.08251144182,190.61906257947604,200.272715080757,210.0520482136879,219.96721542199464,230.03005464099212,240.25421093813807,250.65527420714386,261.25093532813975,272.0611646320062,283.1084168171559,294.4178667550904,306.01768094537704,317.93932977589753,330.2179462291297,342.89273725837535,356.0005438272464,369.5772945193735,383.65882363209585,398.28132221612043,413.48157690916037,429.2970854303207,445.76609932441534,462.92762238278794,480.8213803757859,499.48777038657283,518.9677938524002,539.3029750698305,560.5352656338313,582.7069346108191,605.8604439352787,630.0383084210956,655.2829398085995,681.6364743798047,709.1405838419099,737.8362693892461,767.7636390995837,798.961669098475,831.4679492330317
G3,0.0,0.0,14.156478527211943,37.42285038703342,66.29503773379237,98.33052528669596,131.82895367491625,165.61438880085512,198.88412523467878,231.1022357454723,261.9238313241758,291.1407306822225,318.64224141140244,344.3867156794411,368.3808525025095,390.6646085921637,411.3001936762804,430.3640548730461,447.9410571652342,464.12028236767384,479.47292309530263,494.39224737717655,509.1431560020475,523.9014248045667,538.783511049168,553.8684133371188,569.2132040705702,584.8637406091459,600.8618418627118,617.2499684682172,634.074208386685,651.3861652682605,669.2441807459685,687.7140011628675,706.8697304461228,726.7944737018177,747.5810695181235,769.3329639348848,792.1652630108463,816.2059920224808,841.5975854297444,868.4986312524767,897.0858952677661,927.5566536547315,960.13136681407,994.745393011974,1031.3956137945884,1070.1152177852205,1110.9588312838755,1153.9936721760457,1199.2942037155963,1246.9388139074956,1297.0076584175222,1349.5811625396796,1404.738886884649,1462.558583955292,1523.1153447186682,1586.480776724488,1652.722180557562,1721.9017066362526,1794.0754837844809,1869.292717070203,1947.5947565548502,2029.0141416724482,2113.573628436575,2201.28520883031,2292.1491337143993,2386.152952459082,2483.2705842819882
H3,142721.5528551673,142098.56194984715,141514.4742644804,140965.99328333818,140450.25898689107,139964.62082745958,139506.62270001796,139073.98898732828,138664.61160265733,138276.53795881028,137907.95979730636,137557.20281624855,137222.71703982787,136903.0678764797,136596.92781649317,136303.06872338968,136020.35467664927,135747.7353263944,130064.87013451575,124410.65294357522,118783.3671245047,113181.48194500116,107603.63621870677,102048.62330409806,96515.37734432016,91002.96064784516,85510.5521177954,80037.43664510912,74582.99538748349,69146.69686225652,63728.08878712329,58326.79060786487,52942.48665713257,47574.91989281099,42223.8861686091,36889.22899332771,31570.83473875038,26268.628259324923,20982.568889768478,15712.646789458176,10458.8796049823,5221.309424539243,0.0,0.0,0.0,0.0,0.0,0.0,0.0,0.0,0.0,0.0,0.0,0.0,0.0,0.0,0.0,0.0,0.0,0.0,0.0,0.0,0.0,0.0,0.0,0.0,0.0,0.0,0.0
S4,14133.545438423147,14250.47848214569,14382.746938636003,14526.43447833288,14678.930425480381,14838.429546770221,15003.6440086028,15173.62871604915,15347.671287773122,15525.22071792083,15705.840068382748,15889.174521626759,16074.929475813893,16262.855324366925,16452.736750447137,16644.385108177255,16837.632936060858,17032.329956532994,20915.26992935875,24884.272874008206,28939.72107069807,33081.87923658126,37310.886710541025,41626.76513366393,46029.4328642996,50518.721054788795,55094.388611917646,59756.134695752175,64503.6082774632,69336.41476677047,74254.11996482243,79255.40457226182,84340.67570983167,89509.30742297527,94760.65028780719,100094.01717975667,105508.67070451686,111003.81130726938,116578.56526145477,122231.97188467438,127962.96942724375,133770.37913043835,139652.88696277875,140815.30819097252,141967.90205918465,143109.65543715947,144239.7212809931,145357.33720533724,146461.7774710463,147552.3243822118,148628.2509868213,149688.8103701819,150733.2287953101,151760.70108783472,152770.3873316391,153761.41033499115,154732.85356060643,155683.7593539466,156613.12739110203,157519.9133236326,158403.02763603922,159261.3347598237,160093.6525107507,160898.75193534177,161675.35766993812,162422.14893120906,163137.76127055185,163820.78923583773,164469.7900915511
E4,0.0,117.97065439343285,195.43160845616063,244.5428660063311,273.703766929372,288.8112723516877,294.0522300935829,292.42266552211584,286.0778477865241,276.57317225177155,265.0325069021896,252.26727913679878,238.86153872713564,225.233203679642,211.6784522538911,198.40408121694665,185.55120665974408,173.21269578405713,161.44603333017383,155.70954117668683,154.1608656801468,155.45454734844114,158.6486549741299,163.11478150543098,168.45949878155335,174.46004193901533,181.01413629840988,188.10246136273705,195.76168193331358,204.06590223422353,213.11458512431224,223.02528090712838,233.927148868313,245.9658063307987,259.2997568276349,274.10224898899367,290.56392502225356,308.8960901676146,329.3345176424796,352.1437648795988,377.62202122733055,406.1065389967574,437.9797222167458,473.675963154333,508.9138183561894,544.6403397682612,581.4349658954923,619.6580949501674,659.5383677846406,701.2237724128676,744.8113658041525,790.3643401239779,837.9215862788045,887.502800810725,939.1109399773839,992.7330925391051,1048.3404114190457,1105.8874908138055,1165.3114268225295,1226.5307133063993,1289.444075110143,1353.9293129429618,1419.8422191972938,1487.0156164401228,1555.258567011758,1624.3558011125092,1694.0674106648605,1764.1288562346076,1834.2513337391624
I4,0.0,0.0,21.234717790817918,53.283865969412574,89.45119366693041,125.53889941185396,159.02910283020935,188.52851907242544,213.38842250466328,233.44361361543343,248.83320313924764,259.87810266431575,266.9980003473899,270.6558800476969,271.3217387914509,269.4496403574943,265.4639740767699,259.75200428946954,252.6606552229711,244.4960855152891,236.50184495255647,229.40664569648146,223.58965499515202,219.20462922634434,216.26955835146282,214.7289647762253,214.4954468242364,215.47607039079892,217.58811579632157,220.76765023415587,224.97349896983312,230.1884569159971,236.41901289005853,243.6939483740935,252.06401555138655,261.6010198494183,272.39737225276855,284.56618430081426,298.241937591292,313.5817395349312,330.7671710208274,350.0067344486804,371.53891867742226,395.63590838649094,422.6079775052717,451.94902703975856,483.39799163486117,516.8365679985387,552.2287543101837,589.5850083023348,628.9408847973505,670.3441705292327,713.8469863339019,759.5007743731385,807.3529431390282,857.4444484890867,909.8078881726223,964.4658647920824,1021.4294778315558,1080.6968687701117,1142.2517818003785,1206.0621265783861,1272.0785448040956,1340.2329928370473,1410.4373600657086,1482.5821485622214,1556.5352443211066,1632.140814428318,1709.2183679577627
A4,0.0,0.0,2.3594130878686577,5.796689400656538,9.529503006265752,13.099805295079145,16.25899433825623,18.891870046403962,20.96616713584194,22.499171559081503,23.535823844683044,24.134563808578612,24.35838489873469,24.26937693283694,23.925583987300485,23.379377847336727,22.676803568951364,21.857529798760954,20.955157654493945,19.99772522690549,19.116835685939932,18.380953876333432,17.817957769455372,17.431317342272663,17.2112412100283,17.14202551568181,17.206648370296882,17.38944296883899,17.677485959578433,18.061169071897556,18.534285628646817,19.093858159584247,19.73985502983891,20.474834110164096,21.303754614689872,22.23375509257264,23.274012949489425,24.435685003071853,25.731925303094048,27.177975490489118,28.79132342949873,30.591927102814115,32.6025023986179,34.84887517956992,37.36039974700636,40.07493722655438,42.961703684544496,46.00765387133629,49.20955663898803,52.56939916480914,56.09173139458236,59.782135440138305,63.64634208051025,67.68971503650455,71.91694041310943,76.3318272656855,80.93716546413532,85.73461058570884,90.72457934576124,95.90614713159526,101.27694392384817,106.83304767479515,112.56887588480623,118.47707715568046,124.54842517892772,130.77171809470167,137.13368651821048,143.61891381755504,150.20977245662337
IH4,0.0,0.0,0.0,0.8493887116327167,2.922788412670463,6.301410362701207,10.893012608645193,16.510931775369627,22.925509387679156,29.896807852628818,37.19465286249005,44.61013964246838,51.9614537359237,59.095973658155614,65.89001084864165,72.2471160652655,78.09558347897763,83.38557541942346,88.08614528134237,92.18233495719706,95.67245329682868,98.60466653098062,101.05300292995801,103.10160640523209,104.83502987078357,106.33277667965474,107.6667064600774,108.90027969384462,110.08890950427174,111.28091931532663,112.51877806629882,113.84040999407485,115.28046351019913,116.8714824710473,118.64494148105132,120.63219767725047,122.86534087401795,125.37796779378178,128.20590727084715,131.38792275372595,134.96641710497,138.9881632181756,143.50508270529386,148.57509405100018,154.26305127079797,160.64179426039112,167.75894899136824,175.6484492368187,184.33718129103093,193.84875688733646,204.20559500794758,215.43000715056826,227.54469393867285,240.5728919350066,254.53830992676043,269.46493535827227,285.376757212491,302.2974315816668,320.24990457505805,339.2560006372947,359.3359807608678,380.5080732711213,402.7879791364094,426.18835369483105,450.71826704807467,476.38264600809225,503.1817013066951,531.1103447369595,560.157601950623
IN4,0.0,0.0,0.0,2.2791526318815474,7.975394650407999,17.49656525959012,30.795869235468473,47.556731604534264,67.31619988733492,89.54632247907924,113.70669619117578,139.27725282102014,165.77756874778694,192.77707031699094,219.89918233049474,246.8215407951888,273.273740672712,299.03363128896837,323.92284911212863,347.8020501192018,370.5661441719345,392.24456401061434,412.9446617666978,432.81341261337576,452.01282486404733,470.7052176372655,489.0453323708555,507.1769821413287,525.2325671440535,543.3342851509223,561.5962499565298,580.1270148743835,599.0322010382215,618.4170698244983,638.3889191535403,659.059421270892,680.546838678875,702.9781698579354,726.4912837270164,751.2371046181017,777.3819101829552,805.109804633359,834.6254299997527,866.1569792426038,899.9595773637174,936.3191002594966,975.4642447384957,1017.5934001232274,1062.8902741814388,1111.5328734763013,1163.6985469487456,1219.5666862002295,1279.3200179347045,1343.1450357929496,1411.2318898401354,1483.7739170620434,1560.966916925363,1643.0082296651726,1730.095648083849,1822.4261783792479,1920.194657209536,2023.5922281072437,2132.8046788670595,2248.0106417087864,2369.3796593087773,2497.070121878665,2631.2270831587557,2771.9799663667873,2919.4401747187717
D4,0.0,0.0,0.0,0.0,0.0008493887116327167,0.0037721771243031796,0.010073587487004387,0.02096660009564958,0.03747753187101921,0.060403041258698366,0.09029984911132719,0.12749450197381723,0.1721046416162856,0.2240660953522093,0.28316206901036495,0.3490520798590066,0.4212991959242721,0.4993947794032497,0.5827803548226732,0.6708665001040156,0.7630488350612127,0.8587212883580414,0.9573259548890221,1.0583789578189802,1.1614805642242123,1.266315594094996,1.3726483707746506,1.480315077234728,1.5892153569285725,1.6993042664328444,1.810585185748171,1.9231039638144698,2.0369443738085447,2.1522248373187436,2.269096319789791,2.3877412612708424,2.508373458948093,2.631238799822111,2.756616767615893,2.88482267488674,3.016210597640466,3.151177014745436,3.290165177963612,3.433670260668906,3.582245354719906,3.736508405990704,3.897150200251095,4.064909149242464,4.240557598479283,4.424894779770314,4.618743536657651,4.822949131665599,5.038379138816167,5.26592383275484,5.506496724689847,5.761035034616608,6.03049996997488,6.315876727187371,6.618174158769038,6.938424063344096,7.27768006398139,7.637016044742258,8.017524118013378,8.420312097149788,8.84650045084462,9.297218717892694,9.773601363900786,10.276783065207482,10.807893409944441
R4,0.0,0.0,0.0,0.47135585633533267,1.70929664619868,3.889326650710611,7.104981027330654,11.393460547284558,16.753236303146362,23.15626376035982,30.556540871487982,38.89616470027705,48.109661594542,58.12711466038809,68.87644442045098,80.28508575298306,92.28122814818163,104.79473489744002,117.75782200451832,131.10555397761433,144.7761975893284,158.7331462649107,172.95700372121462,187.43999358714896,202.18215957273276,217.18889398666735,232.46942018115192,248.03593956502874,263.9032283484683,280.0885304575497,296.6116411360729,313.495112060138,330.7645353072913,348.44888230595853,366.5808760687824,385.197419403363,404.340066138467,424.0555436015913,444.3963367306742,465.4213458469009,487.1966315590638,509.7962617226471,533.3032769807228,557.8107932627885,583.4232617724756,610.2579094930354,638.4273053893584,668.043357438814,699.2196327878904,732.0726977543873,766.7228831622293,803.2947095565092,841.9171066065333,882.7235023185458,925.8518234073216,971.4444282368171,1019.6479822097563,1070.613278886334,1124.4950064059199,1181.4514567838255,1241.644174668087,1305.237541772439,1372.398293226936,1443.294962383284,1518.0972511124705,1596.9753233055822,1680.0990201209881,1767.6369965078015,1859.7557796758256
G4,0.0,0.0,21.234717790817918,56.41240731292684,100.43012319406645,149.69680124135343,201.6828302646572,254.61223168150215,307.248311475483,358.74232407705733,408.5254950823762,456.23134632477036,501.63945656939416,544.6345335402785,585.176510202614,623.2786316083144,658.9913662273648,692.3905834261187,723.568868667249,752.6291546666803,780.656872078484,808.4058279009104,836.3876464236298,864.9444043189732,894.3050649899508,924.6277747706304,956.0305823196531,988.6131268533669,1022.4715698986596,1057.708672646656,1094.4405350488162,1132.8011603711923,1172.9457109344753,1215.0525977307716,1259.3264428703153,1306.0003990992896,1355.3388039173085,1407.640310421314,1463.2416066514847,1522.5218198271311,1585.9076975054588,1653.8796613263783,1726.9788383457947,1805.815188344809,1891.0768617125889,1982.681349016703,2080.71661017499,2185.3749040361786,2296.9133611272086,2415.630267328444,2541.8505463627603,2675.9165922075076,2818.1821734298237,2969.0080589600084,3128.7585631059387,3297.798532301868,3476.490488958907,3665.1917630143353,3864.25151136082,4074.0075681888757,4294.783096584028,4526.883030103853,4770.590306433586,5026.161905889099,5293.824716848321,5573.771258910438,5866.15530311069,6171.0874370303645,6488.630631152594
H4,71360.77642758365,72550.12270137672,73734.27738429212,74913.56466982946,76088.28128052394,77258.7001054147,78425.07194564353,79587.62713481035,80746.57704303808,81902.11547306023,83054.41995605032,84203.6529543612,85349.96297782994,86493.48561982851,87634.34451879917,88772.65225060328,89908.51115663153,91042.01411227028,88486.31543039062,85838.09812533749,83097.68602016292,80265.38616682771,77341.49065051053,74326.27823804977,71220.01588318477,68022.9601002548,64735.35821708565,61357.449516938075,57889.46627860416,54331.63472301177,50684.175874028224,46947.30634053862,43121.23902630681,39206.18377360462,35202.34794611381,31109.93695616236,26929.154740948652,22660.204192031866,18303.28754202099,13858.606712076791,9326.363623548183,4706.760476794848,0.0,0.0,0.0,0.0,0.0,0.0,0.0,0.0,0.0,0.0,0.0,0.0,0.0,0.0,0.0,0.0,0.0,0.0,0.0,0.0,0.0,0.0,0.0,0.0,0.0,0.0,0.0
E_Om,0.0,0.0,0.0,0.0,0.0,0.0,0.0,0.0,0.0,0.0,0.0,0.0,0.0,0.0,0.0,0.0,0.0,0.0,0.0,0.0,0.0,0.0,0.0,0.0,0.0,0.0,0.0,0.0,0.0,0.0,0.0,3.6900170150682374,6.273021770284888,8.300266943578544,10.113804697148204,11.932838128117647,13.908242166368886,16.15678219528834,18.782844566933242,21.892838371200057,25.605619807737366,30.06111386556927,35.42857970930322,41.91554582203264,49.20099739616903,57.53126109861475,67.1203947436877,78.17993067604766,90.93414967427256,105.6286357100579,122.53572399420838,141.95851861375303,164.2342447655596,189.73726717091824,218.88189583546824,252.12499387338858,289.968344000123,332.9606945450394,381.6993804384325,436.8313942086527,499.05376440895225,569.1130835043292,647.8040143621956,735.9665948812686,834.4821550586632,944.2676612588089,1066.2683100827805,1201.4482105895554,1350.7790202182182
I_Om,0.0,0.0,0.0,0.0,0.0,0.0,0.0,0.0,0.0,0.0,0.0,0.0,0.0,0.0,0.0,0.0,0.0,0.0,0.0,0.0,0.0,0.0,0.0,0.0,0.0,0.0,0.0,0.0,0.0,0.0,10.0,8.526685697293763,7.934639960755684,7.894762025306385,8.225663494315926,8.83424957226018,9.68059781047262,10.75782507912742,12.081080118770291,13.68206932770585,15.606981391409127,17.916594066198538,20.687917132649805,24.017081059850945,28.023408404343474,32.75085909438416,38.28125517916753,44.72289415492983,52.20619371493089,60.88272746729394,70.92594257857135,82.53275233413581,95.92561723905195,111.35492290943077,129.10155094027456,149.4795760404724,172.8390352033931,199.56871486030465,230.09889568077278,264.90398475535136,304.5049527545154,349.47148013431536,400.423702158114,458.0334279900961,523.0246950111869,596.1735065388914,678.306590157649,770.2990058826333,873.0704295160253
A_Om,0.0,0.0,0.0,0.0,0.0,0.0,0.0,0.0,0.0,0.0,0.0,0.0,0.0,0.0,0.0,0.0,0.0,0.0,0.0,0.0,0.0,0.0,0.0,0.0,0.0,0.0,0.0,0.0,0.0,0.0,0.0,0.0,0.07380034030136477,0.1845171842692392,0.31366028148969777,0.45327434675267675,0.6013774377401013,0.7594010567078245,0.930826032724646,1.120525533214689,1.3345273618957987,1.5800322314992887,1.8656008196177658,2.201468762869525,2.5999774254135453,3.064582357751255,3.6029753051061064,4.225592537197929,4.945016046691487,5.775799852338755,6.734502097897259,7.83981969935097,9.11277644549059,10.576940565045295,12.258659197253703,14.187302135866982,16.395509035253276,18.91943456032684,21.798985481476578,25.078042823182617,28.804661052448896,33.03123504255688,37.81462423908162,43.21622215023923,49.301958047257045,56.14221666639122,63.811660837991894,72.38894142754216,81.95627886815603
IH_Om,0.0,0.0,0.0,0.0,0.0,0.0,0.0,0.0,0.0,0.0,0.0,0.0,0.0,0.0,0.0,0.0,0.0,0.0,0.0,0.0,0.0,0.0,0.0,0.0,0.0,0.0,0.0,0.0,0.0,0.0,0.0,0.4,0.713774888235859,0.9824586630596946,1.2312146640173727,1.4762337661834866,1.7288783275615716,1.998138539192512,2.292115854060417,2.6189649017041243,2.987552166219489,3.4079867069493783,3.8921189387319024,4.454071097835927,5.1108470600603475,5.883063406079351,6.791688416583355,7.859532560149907,9.112181816160444,10.57869310583455,12.292203701780064,14.290527762450097,16.61677586666481,19.32001552049186,22.45598171250543,26.087841821615086,30.28701621960134,35.13405364965682,40.71955836280531,47.145163786568084,54.52454504621111,62.984459886658826,72.66580441912757,83.72466663361138,96.33335679252988,110.68138969186418,126.97638941008384,145.44488265804821,166.33294232412538
IN_Om,0.0,0.0,0.0,0.0,0.0,0.0,0.0,0.0,0.0,0.0,0.0,0.0,0.0,0.0,0.0,0.0,0.0,0.0,0.0,0.0,0.0,0.0,0.0,0.0,0.0,0.0,0.0,0.0,0.0,0.0,0.0,2.1466286054124755,3.9555250620755715,5.566382863622904,7.070471778523455,8.531460689909917,9.997942298001437,11.511037477590081,13.109161992595482,14.831223165546625,16.719014648760325,18.819280381587568,21.18574893011541,23.88134842621517,26.980770325272616,30.573539352545865,34.75371406356879,39.62498596718264,45.304178897716696,51.92411326812187,59.636298950847845,68.61368519700626,79.0535846616523,91.18083508301709,105.25123541609304,121.55527859906556,140.42219366598974,162.22430224490367,187.38168692771916,216.36716070219936,249.7115171227598,288.0090298915352,331.9231578670697,382.19239714353705,439.6362057562137,505.16090886227573,579.7654731116404,664.5470186666536,760.7059163887529
D_Om,0.0,0.0,0.0,0.0,0.0,0.0,0.0,0.0,0.0,0.0,0.0,0.0,0.0,0.0,0.0,0.0,0.0,0.0,0.0,0.0,0.0,0.0,0.0,0.0,0.0,0.0,0.0,0.0,0.0,0.0,0.0,0.0,0.0004,0.001113774888235859,0.0020962335512955533,0.0033274482153129266,0.004803681981496414,0.0065325603090579856,0.008530698848250497,0.010822814702310914,0.01344177960401504,0.016429331770234527,0.019837318477183903,0.02372943741591581,0.028183508513751735,0.033294355573812086,0.03917741897989143,0.045969107396474786,0.053828639956624694,0.06294082177278515,0.0735195148786197,0.08581171858039977,0.10010224634284987,0.11671902220951466,0.13603903773000653,0.15849501944251196,0.18458286126412704,0.21486987748372838,0.2500039311333852,0.2907234894961905,0.33786865328275856,0.3923931983289697,0.45537765821562853,0.5280434626347561,0.6117681292683674,0.7081014860608973,0.8187828757527615,0.9457592651628453,1.0912041478208936
R_Om,0.0,0.0,0.0,0.0,0.0,0.0,0.0,0.0,0.0,0.0,0.0,0.0,0.0,0.0,0.0,0.0,0.0,0.0,0.0,0.0,0.0,0.0,0.0,0.0,0.0,0.0,0.0,0.0,0.0,0.0,0.0,0.0,0.048358825710016304,0.15064571648675137,0.30922380816561035,0.5253667775733359,0.8004842437935025,1.136839713593574,1.5379983060164195,2.00914935804404,2.5573930721335634,3.1920479079326793,3.925017945099933,4.771251492598627,5.749320439829194,6.8821523017622654,8.19564625977045,9.71958843837164,11.488420379697365,13.541985633619689,15.926317044583968,18.694498351293944,21.90762029078772,25.63584517302909,29.959590943912392,34.97084422295822,40.77461078884138,47.490511042290834,55.25452686210496,64.22090484355009,74.56421907226333,86.48159426624868,100.19508725174308,115.95422127392169,134.03866354001636,154.76103162393824,178.46980891978063,205.5523432319339,236.4378958763478
G_Om,0.0,0.0,0.0,0.0,0.0,0.0,0.0,0.0,0.0,0.0,0.0,0.0,0.0,0.0,0.0,0.0,0.0,0.0,0.0,0.0,0.0,0.0,0.0,0.0,0.0,0.0,0.0,0.0,0.0,0.0,0.0,0.0,0.6642030627122829,1.793346981363563,3.2873950312077005,5.107879876694378,7.255790739755556,9.759274329701956,12.667495124853858,16.04840714690184,19.98911805371785,24.598129619110576,30.009130114913045,36.38627446258763,43.93107271055351,52.78725224186394,63.1428792396146,75.22455029347837,89.29693781516696,105.66508475653602,124.67823918434644,146.73466950330393,172.2872028537795,201.8493669115802,236.00207500234546,275.4008162527298,320.7833151499397,372.97761706996187,432.910542088069,501.6164305669869,580.2460815245444,670.0757591181557,772.516114148935,889.1208367341302,1021.5948238127586,1171.801611723318,1341.7697907499037,1533.698086564804,1749.958764470924
beta,1.0003760499827008,1.0003760499827024,0.9662341475426363,0.9394702484584975,0.9178218750762271,0.8998945618219124,0.8847789543961776,0.871854636627419,0.8606819682661706,0.8509391037980805,0.842383664783223,0.834828540963264,0.8281261218809804,0.8221577326254027,0.8168263772547467,0.8120516391744369,0.8077660207948192,0.8039122639381532,0.800441351646442,0.8254655540921578,0.8438953015800744,0.8579733951121556,0.8690450577242194,0.8779597028856272,0.8852759434835944,0.8913736567964049,0.8965186278004657,0.9009014696713211,0.9046618867937154,0.9079042438766957,0.9107078052940513,0.9131336155036494,0.9151945825798146,0.9169691893058706,0.9184831754763908,0.9197574896068874,0.9208088682192025,0.9216503501096278,0.9222917119902941,0.9227398230305627,0.9229989221202594,0.9230708245817507,0.9229550658405941,0.9226489891640485,0.9197464592373311,0.9167265985881099,0.913572795234454,0.9102732660992553,0.9068190377709023,0.9032027945390846,0.899418223643442,0.8954596468279804,0.8913218174166683,0.8869998134940005,0.8824889872036922,0.8777849471112584,0.8728835603569152,0.8677809669977421,0.8624736022428876,0.8569582242206006,0.8512319460537334,0.8452922716889112,0.839137135310553,0.8327649443793939,0.8261746264237728,0.8193656797114366,0.8123382278553205,0.8050930782663785,0.7976317841642532
