series,2021-12-01,2021-12-02,2021-12-03,2021-12-04,2021-12-05,2021-12-06,2021-12-07,2021-12-08,2021-12-09,2021-12-10,2021-12-11,2021-12-12,2021-12-13,2021-12-14,2021-12-15,2021-12-16,2021-12-17,2021-12-18,2021-12-19,2021-12-20,2021-12-21,2021-12-22,2021-12-23,2021-12-24,2021-12-25,2021-12-26,2021-12-27,2021-12-28,2021-12-29,2021-12-30,2021-12-31,2022-01-01,2022-01-02,2022-01-03,2022-01-04,2022-01-05,2022-01-06,2022-01-07,2022-01-08,2022-01-09,2022-01-10,2022-01-11,2022-01-12,2022-01-13,2022-01-14,2022-01-15,2022-01-16,2022-01-17,2022-01-18,2022-01-19
S,679439.9380990383,679439.9380779966,679439.9380570502,679439.9380360085,679439.9380147995,679439.9379933977,679439.9379717957,679439.9379499932,679439.9379279937,679439.9379058012,679439.9378834203,679439.9378608564,686957.9483178757,694475.9587739172,701993.9692289296,709475.127945442,716968.7899936953,724461.6631925035,731949.684709276,739430.5797514876,746902.004622456,754360.9450316951,761803.3175580685,769223.4922722207,776613.6110359484,783962.5760645517,791254.5279887692,798466.5343160613,805565.0566811509,812500.5438972446,819199.2138142863,825550.834243566,831391.4446568994,836481.4349553515,840484.136635105,842960.0167220884,843402.9249950966,833820.487020116,822392.2244839717,809004.075707427,793982.569431072,777712.0152206628,760599.698812065,743036.554129675,725372.4788150158,707903.6955983313,690868.8896063822,674451.0970260785,658782.9443365673,643953.5033543793
E,6.794399380990383e-05,6.860243013946816e-05,6.896808492428606e-05,6.931950986843852e-05,6.973267070042279e-05,7.021469241023869e-05,7.075232559876029e-05,7.132892893274456e-05,7.19298124973972e-05,7.254342381406395e-05,7.316116444570095e-05,7.377684843641269e-05,7.43861473959972e-05,7.57905238738208e-05,7.780264729074612e-05,8.03751877753981e-05,8.351443429613898e-05,8.728488478345581e-05,9.177153836403251e-05,9.708534130651892e-05,0.00010336797558719789,0.00011079879724971166,0.00011960470227289556,0.00013007363265564502,0.00014257275837186294,0.00015757275600100304,0.00017567994319794936,0.00019767811547746842,0.0002245812305325411,0.0002576952999743729,0.00029868009235860303,0.000349582667437871,0.00041277534320271786,0.000490660058716684,0.0005849134062798133,0.0006950552571000071,0.0008165264899996608,0.0009394700014695814,0.0010200256539008722,0.0010661305716029952,0.0010786781327054116,0.0010612553852824805,0.0010194332911028958,0.0009595621488136368,0.0008878031172330342,0.0008095487950617129,0.0007291683521335632,0.0006499715586318395,0.000574299107614865,0.000503672362458585
I,4.1242693469681746e-05,3.867449683776967e-05,3.715658493768359e-05,3.625515435001633e-05,3.5744280881523574e-05,3.549371956407804e-05,3.5421706801075884e-05,3.547368676612552e-05,3.561183715329968e-05,3.580936247819017e-05,3.604707072417274e-05,3.631115677149885e-05,3.659169020448036e-05,3.688154988948978e-05,3.7322143237676826e-05,3.796953648042905e-05,3.885086580269611e-05,3.998458199469977e-05,4.139419694199869e-05,4.31101834709662e-05,4.5172178659894686e-05,4.763126096821298e-05,5.0552665925744276e-05,5.40193146128439e-05,5.813652337598672e-05,6.303831834240487e-05,6.889588358585454e-05,7.592880055723724e-05,8.441983440861178e-05,9.473395764524597e-05,0.00010734175274693682,0.00012284557302254717,0.00014200233285226342,0.00016572674531036282,0.00019503955046585686,0.0002308970170938177,0.00027382155323884676,0.0003233160841636829,0.0003772686020198861,0.00042634515223044094,0.0004660385696273121,0.0004936371881859523,0.0005080649104307123,0.0005096499661782995,0.0004997580860263647,0.0004803822026522611,0.00045377527696472997,0.00042216972807641254,0.00038759195508698954,0.0003517605001301989
A,2.670130034022209e-05,2.93714303742443e-05,3.1585162040954964e-05,3.339925696068773e-05,3.4891964827928165e-05,3.613484152647458e-05,3.718597177800374e-05,3.809026129602085e-05,3.8881672688783876e-05,3.958564414664951e-05,4.02211642198264e-05,4.08024100189209e-05,4.13399939270432e-05,4.184189554664887e-05,4.240898855525048e-05,4.309988618966488e-05,4.395589899154535e-05,4.501081684444576e-05,4.629927576493259e-05,4.785900570462455e-05,4.9733270852257126e-05,5.1973386432653914e-05,5.464155015740036e-05,5.7814270541176415e-05,6.158670188112671e-05,6.607825583751323e-05,7.143995307489353e-05,7.786409313127008e-05,8.559692274297822e-05,9.495498182539831e-05,0.00010634547710532279,0.00012028985562586439,0.00013744661713670838,0.00015862225050921613,0.00018474512814645324,0.00021675561310081817,0.0002553493900907758,0.0003005455003786405,0.00035119705446780633,0.0004012155640126896,0.0004466660011385402,0.0004845056701082805,0.00051272331638406,0.000530366735774498,0.0005374228458116501,0.0005346075623961165,0.0005231293892243487,0.0005044702410806042,0.0004802058616245552,0.00045187280637228587
IH,0.0,6.692465978880246e-06,9.6152643562743e-06,1.0827428663273495e-05,1.1286023202616528e-05,1.1431962265241255e-05,1.146412718678947e-05,1.1468491946953352e-05,1.1479104768986621e-05,1.150681827777066e-05,1.1552699820699344e-05,1.1614167709018818e-05,1.1687693518536429e-05,1.1769905153629035e-05,1.1857964389790743e-05,1.197340118197732e-05,1.2136056864259797e-05,1.2360235660354968e-05,1.2656069393939009e-05,1.3032429126739599e-05,1.3498686354519513e-05,1.4065949375919147e-05,1.4748049751046045e-05,1.5562475220136033e-05,1.6531407797644213e-05,1.768300602835598e-05,1.9053069491636934e-05,2.068724027580279e-05,2.2643925340081963e-05,2.4998154155090935e-05,2.7846590639958035e-05,3.13138316703161e-05,3.555979516460646e-05,4.0787104919552465e-05,4.7245301013214916e-05,5.522453978475043e-05,6.502478330867866e-05,7.68804839923036e-05,9.082797309920011e-05,0.00010654266369378588,0.00012234796289274988,0.0001366758716135547,0.00014830393534052172,0.00015644753056480952,0.00016076839212015418,0.00016131934325990145,0.00015845013665482803,0.00015270088762507438,0.00014470336912853252,0.00013510166034634823
IN,8.24853869393635e-06,1.6409488104235996e-05,2.3970138994426106e-05,3.1146922739033704e-05,3.806721179507115e-05,4.481184124287328e-05,5.1434738800529003e-05,5.797290682110875e-05,6.445204357315938e-05,7.089000998019987e-05,7.72991182079405e-05,8.36877112787878e-05,9.006128259861469e-05,9.642328115697743e-05,0.00010277569509270145,0.00010914877291526568,0.0001155836551786507,0.000122126472812004,0.00012882655704907943,0.00013573741766402606,0.00014291809078861782,0.00015043491307955144,0.00015836373247212423,0.00016679263859629265,0.0001758253698951152,0.00018558562650692738,0.00019622260025296674,0.0002079181355365195,0.0002208960620882953,0.00023543438587438602,0.00025188115528226315,0.00027067483935175915,0.0002923697217853353,0.00031766558335380565,0.0003474377166361609,0.00038275626770008936,0.0004248712727400281,0.000475123975720312,0.0005347419633050418,0.0006045173851358665,0.0006833671882891365,0.0007693183874907154,0.0008598766149260563,0.0009523587703880003,0.0010441758908399346,0.001133039650951609,0.0012170846111142978,0.0012949157325635114,0.0013655992739443428,0.0014286166889006702
D,8955.0,8955.0,8955.000000006692,8955.000000016307,8955.000000027134,8955.00000003842,8955.000000049853,8955.000000061318,8955.000000072789,8955.000000084267,8955.000000095773,8955.000000107326,8955.00000011894,8955.000000130627,8955.000000142398,8955.000000154254,8955.000000166228,8955.000000178365,8955.000000190725,8955.000000203383,8955.000000216412,8955.000000229913,8955.00000024398,8955.000000258726,8955.000000274289,8955.00000029082,8955.000000308502,8955.000000327558,8955.000000348246,8955.00000037089,8955.000000395887,8955.000000423735,8955.00000045505,8955.000000490607,8955.000000531396,8955.00000057864,8955.000000633867,8955.00000069889,8955.000000775772,8955.000000866601,8955.000000973141,8955.00000109549,8955.000001232165,8955.00000138047,8955.000001536919,8955.000001697686,8955.000001859007,8955.00000201746,8955.000002170158,8955.000002314862
R,0.0,5.427849351681121e-06,1.482261689333393e-05,2.6201814722591195e-05,3.86261222603313e-05,5.1651753555727783e-05,6.507054934880324e-05,7.878598063743412e-05,9.275387947128945e-05,0.00010695416741715897,0.00012137746965327161,0.0001360188734815738,0.00015087509937434027,0.00016594328440155045,0.00018122051212986865,0.0001967226428607853,0.0002124883457224077,0.0002285749094800326,0.00024505402284096374,0.0002620098914643729,0.0002795392707382691,0.0002977528815270255,0.0003167779663025857,0.00033676192827056934,0.00035787715161261877,0.0003803272439510514,0.00040435508805517374,0.00043025325484958904,0.000458377527173416,0.0004891645174876844,0.0005231546130514816,0.0005610216702724164,0.0006036107894036806,0.0006519846154153079,0.0007074758337566447,0.0007717368689217857,0.0008467646598131493,0.0009348585371531293,0.0010384531084730159,0.0011597848044893298,0.0012997184764315787,0.0014574821728295456,0.0016308904528598283,0.0018167179104310997,0.0020111278956521294,0.002210084517968135,0.0024096971824450726,0.0026064720625610886,0.0027974669588241973,0.0029803607917744455
G,954785.0,954785.0000123729,954785.0000248655,954785.0000374247,954785.0000500481,954785.0000627466,954785.0000755328,954785.0000884171,954785.0001014061,954785.0001145048,954785.0001277152,954785.0001410381,954785.0001544731,954785.0001680192,954785.0001818208,954785.0001959889,954785.0002106255,954785.0002258337,954785.0002417286,954785.0002584405,954785.0002761199,954785.0002949436,954785.0003151206,954785.0003369008,954785.0003605876,954785.0003865504,954785.000415245,954785.0004472367,954785.0004832346,954785.0005241316,954785.0005710585,954785.0006254491,954785.0006891093,954785.0007642768,954785.0008536277,954785.0009601421,954785.0010867139,954785.0012354057,954785.0014064861,954785.0015922359,954785.0017863816,954785.001982812,954785.0021760699,954785.0023617117,954785.0025364509,954785.0026981225,954785.0028455438,954785.0029783277,954785.0030966894,954785.0032012709
H,187950.26199404264,187950.26199404264,187950.2619940426,187950.2619940426,187950.2619940426,187950.26199404267,187950.26199404264,187950.26199404264,187950.26199404264,187950.26199404267,187950.26199404267,187950.26199404264,182600.75754044583,177309.04664536967,172077.5431020773,166908.76807281148,161805.35739597146,156770.06853208362,151805.78699057107,146915.53203698812,142102.46143052948,137369.87488357798,132721.2158684078,128160.07132095293,123690.16870853835,119315.36983948572,115039.66070088797,110867.13652202002,106801.98118292438,102848.4400321426,99010.78515973316,95293.27221123545,91700.08794874203,88235.28799330276,84902.72454560696,81705.96440277406,78648.1982818401,78648.1982818401,78648.1982818401,78648.1982818401,78648.1982818401,78648.19828184009,78648.19828184009,78648.19828184009,78648.19828184009,78648.19828184009,78648.19828184009,78648.19828184009,78648.19828184009,78648.19828184007
S0,237803.9783346634,237268.91937183874,236414.7512505528,235563.65813442745,234715.6289534082,233870.65267731802,233028.71831569853,232189.81491766078,231353.93157174074,230521.05740575618,229691.1815866649,228864.29332042366,230563.65121754532,232217.95002182777,233826.26874245532,235372.34317651033,236875.71694595885,238329.7832360731,239731.74848130308,241079.52246710987,242370.94923231765,243603.56519546267,244774.44627786468,245880.02870394837,246915.85462470184,247876.1956379858,248753.48738332486,249537.47265671907,250213.8955358938,250762.5105325717,251154.07338854208,251345.90297084893,251275.68484840987,250853.7897156192,249956.20863920383,248423.90807194985,246078.3866559587,241631.8821430429,236541.63742392266,230779.27902598062,224479.30549045815,217794.60550630736,210882.54867014242,203890.11683527828,196945.05722295042,190151.88480490533,183591.3185147344,177321.87036082696,171382.59177242807,165796.2774902726
E0,6.794399380990383e-05,5.915854695100735e-05,5.299999965607316e-05,4.876537570317003e-05,4.591346384845058e-05,4.4040144238966574e-05,4.2852560295248514e-05,4.2141738571638474e-05,4.1759819074779604e-05,4.1602705777908826e-05,4.1597360404011636e-05,4.169267819670517e-05,4.185300249471181e-05,4.2501322108330946e-05,4.3515889084050325e-05,4.4857718210305973e-05,4.652076453522236e-05,4.853351658272945e-05,5.0936949228887e-05,5.378690455865315e-05,5.71561787745039e-05,6.113782897909905e-05,6.58500724225481e-05,7.144310771677971e-05,7.810835447777288e-05,8.609080040375067e-05,9.570530109860801e-05,0.00010735768602853667,0.0001215710952028375,0.00013901641941929842,0.00016054153168800026,0.00018718415250148937,0.0002201326134778308,0.00026056251270572216,0.0003092337280186496,0.0003657419861627894,0.0004275361372594728,0.0004893365502910289,0.0005288119588340903,0.0005501702501104972,0.0005540275384610757,0.0005424172138387771,0.0005183849338828386,0.00048534232385022814,0.0004465568988598923,0.0004048534576915477,0.0003624893731566897,0.0003211456901473618,0.0002819837588322483,0.00024573142619395004
I0,4.1242693469681746e-05,3.867449683776967e-05,3.5436825069306256e-05,3.2250575555859745e-05,2.9447471835007596e-05,2.714050763035671e-05,2.5328150935561466e-05,2.3956094670392516e-05,2.295165089874897e-05,2.2241538613248602e-05,2.1760068138863687e-05,2.1452046729096467e-05,2.127297000094489e-05,2.118796300293298e-05,2.1251812493788067e-05,2.1477286941570545e-05,2.18654298513822e-05,2.241580589324198e-05,2.3133325291214324e-05,2.4028581090437813e-05,2.511849780357498e-05,2.642712510430136e-05,2.7986746164369447e-05,2.9839476640861898e-05,3.2039526561680566e-05,3.465632536397415e-05,3.777876326433938e-05,4.1520864353838526e-05,4.6029247957875365e-05,5.1492682956400405e-05,5.81537241185862e-05,6.63214560697915e-05,7.638196330210358e-05,8.879786215057497e-05,0.00010407825676184135,0.00012268619401511566,0.00014484335324845384,0.0001702265337936746,0.00019766818412386345,0.00022235713042867238,0.0002419914135485797,0.0002552152021527401,0.0002615341288888512,0.00026118754455915067,0.0002549493576104652,0.0002439081368587358,0.00022927249937679565,0.00021222429057566429,0.00019382333171561023,0.00017495698764632327
A0,2.670130034022209e-05,2.93714303742443e-05,3.0471756952794065e-05,3.0625944231339194e-05,3.0250044776995405e-05,2.9613093484827365e-05,2.8882673770047447e-05,2.8158325465331376e-05,2.7495043103527597e-05,2.691939006766772e-05,2.644034445940815e-05,2.6056477769485137e-05,2.576062209523284e-05,2.554283930266482e-05,2.54450479780807e-05,2.548642927730618e-05,2.5677731887198766e-05,2.6026842075814424e-05,2.6543427567872593e-05,2.7240053356340952e-05,2.8133355047470777e-05,2.9245223577000587e-05,3.0604142842732096e-05,3.2246837416934186e-05,3.422039491668181e-05,3.658505322582798e-05,3.941788595552557e-05,4.2817672512223095e-05,4.691128248011741e-05,5.186188814163549e-05,5.787912330611379e-05,6.523065666865088e-05,7.425296727339118e-05,8.535533903707254e-05,9.9003798530146e-05,0.00011566075429306945,0.00013564847057187345,0.00015892398595638272,0.00018483047888852134,0.00021020970376933867,0.0002330311612176274,0.00025174308973423726,0.0002653438106072599,0.00027339105463424645,0.0002759332266887282,0.0002733942807583058,0.0002664464152127209,0.00025589352613257326,0.00024257692045933512,0.00022730656339683492
IH0,0.0,6.692465978880246e-06,9.6152643562743e-06,1.0548362641084142e-05,1.0496944886608142e-05,1.0016426827370964e-05,9.40229644508643e-06,8.801753643435923e-06,8.279438745868615e-06,7.855812177527253e-06,7.529192356419961e-06,7.2880806870929175e-06,7.117783224558463e-06,7.003745948812601e-06,6.933047233566243e-06,6.908129453382942e-06,6.932283296850294e-06,7.007320147503372e-06,7.13407324458122e-06,7.313755158202899e-06,7.548689897916445e-06,7.842783490946131e-06,8.201887593651845e-06,8.634160783881854e-06,9.15050831406545e-06,9.7651685849383e-06,1.0496512896986158e-05,1.1368132775008832e-05,1.241030311814693e-05,1.3661923069164887e-05,1.5173034891031521e-05,1.7007969118342418e-05,1.9248981955758807e-05,2.1999769312021175e-05,2.538714435654586e-05,2.9556999364916016e-05,3.465727335815069e-05,4.079775988976352e-05,4.798080005996173e-05,5.601810309204478e-05,6.403500106828124e-05,7.122149499738335e-05,7.695338416879822e-05,8.083897126857364e-05,8.272163887361095e-05,8.264881727821265e-05,8.082081663340914e-05,7.753371441045376e-05,7.312703172666964e-05,6.794216717808071e-05
IN0,8.24853869393635e-06,1.6409488104235996e-05,2.3970138994426106e-05,3.080297076535824e-05,3.692599640731264e-05,4.242338234239693e-05,4.740099999408843e-05,5.1963290160962034e-05,5.62027231933813e-05,6.0196249933685636e-05,6.400534789992318e-05,6.767770385989673e-05,7.124945965758841e-05,7.474747247867739e-05,7.819133932843804e-05,8.161140646792106e-05,8.50402516120126e-05,8.851031524156138e-05,9.205360629361801e-05,9.570277585470569e-05,9.949224690620153e-05,0.00010345946180250848,0.00010764627524124911,0.0001121005541092508,0.000116878080137595,0.00012204488472991986,0.00012768018400541827,0.0001338801309493479,0.000140762662339345,0.00014847378647534794,0.0001571957150056433,0.00016715723566990728,0.00017864652368993237,0.000192025911121331,0.00020774640576823005,0.00022635604711876425,0.0002484896645350631,0.00027481968214385213,0.0003059467436252822,0.0003422316042607864,0.0003830689537946248,0.0004273995177857515,0.00047390410371198283,0.0005211786537744024,0.0005678818896925933,0.0006128415575926804,0.0006551155652509135,0.0006940135477128594,0.0007290888399286382,0.0007601114841310617
D0,8955.0,8955.0,8955.000000006692,8955.000000016307,8955.000000026856,8955.000000037353,8955.00000004737,8955.000000056772,8955.000000065575,8955.000000073855,8955.00000008171,8955.00000008924,8955.000000096528,8955.000000103646,8955.00000011065,8955.000000117581,8955.00000012449,8955.000000131422,8955.000000138429,8955.000000145563,8955.000000152877,8955.000000160426,8955.00000016827,8955.000000176471,8955.000000185106,8955.000000194257,8955.000000204021,8955.000000214519,8955.000000225888,8955.000000238299,8955.000000251961,8955.000000267133,8955.00000028414,8955.00000030339,8955.00000032539,8955.000000350778,8955.000000380334,8955.000000414992,8955.00000045579,8955.000000503771,8955.000000559789,8955.000000623824,8955.000000695045,8955.000000772,8955.000000852839,8955.00000093556,8955.00000101821,8955.000001099032,8955.000001176566,8955.000001249693
R0,0.0,5.427849351681121e-06,1.482261689333393e-05,2.5979133704959017e-05,3.770559334098647e-05,4.939618317160685e-05,6.0777499156637645e-05,7.175852215342904e-05,8.234284996987251e-05,9.25783814029578e-05,0.00010252937526166714,0.00011226169799955795,0.00012183568744512905,0.00013130328465555484,0.00014070745124132003,0.0001500932798129939,0.00015951124263936917,0.00016901595300596172,0.00017866485162146807,0.0001885180692544884,0.00019863920267144974,0.00020909670329431016,0.000219965751337303,0.00023133059406754754,0.00024328741124270348,0.00025594784510308383,0.000269443405838015,0.00028393104518655146,0.0002996002875572711,0.00031668242106794016,0.00033546236829183444,0.0003562939345580262,0.0003796190536448608,0.0004059911433064405,0.00043610117355308156,0.00047080151543921775,0.000511115787367014,0.0005582127712013657,0.0006133146936148289,0.0006775199656117825,0.0007512050344635687,0.000833896485959824,0.0009243943059096798,0.0010209720358308814,0.0011216040053856568,0.0012241816737822138,0.0013266925582864954,0.0014273487670591572,0.0015246638953902527,0.0016174848174861532
G0,954785.0,954785.0000123729,954785.0000231458,954785.0000327972,954785.0000416775,954785.0000500384,954785.0000580583,954785.0000658619,954785.000073536,954785.0000811405,954785.0000887165,954785.0000962915,954785.0001038839,954785.0001115055,954785.0001192451,954785.0001271695,954785.0001353383,954785.0001438098,954785.000152648,954785.0001619237,954785.0001717184,954785.0001821268,954785.0001932601,954785.0002052516,954785.0002182616,954785.0002324854,954785.0002481628,954785.000265591,954785.0002851412,954785.0003072796,954785.000332595,954785.0003618301,954785.0003959169,954785.0004360037,954785.0004834529,954785.0005397653,954785.0006063681,954785.0006842237,954785.0007733334,954785.0008696317,954785.0009698194,954785.0010707094,954785.0011694853,954785.0012638847,954785.001352267,954785.0014335864,954785.0015073114,954785.0015733218,954785.0016318033,954785.0016831534
H0,65782.59169791492,65634.58086659461,65398.29637547487,65162.86250852316,64928.27620349248,64694.53440915991,64461.63408528693,64229.5722025799,63998.34574265061,63767.95169797706,63538.387071864345,63309.648878405635,60558.46477674564,57856.126341727046,55203.54093247529,52601.66645657978,50051.51241332645,47554.140660200566,45110.66580858465,42722.255135415246,40390.127875560866,38115.553734790854,35899.85043555642,33744.3800778176,31650.544065648886,29619.776318737684,27653.534458311693,25753.288632637003,23920.507632375804,22156.641946559674,20463.103433041506,18841.241331847817,17292.314445816886,15817.459460573593,14417.655584480493,13093.685964695269,11846.09667764514,11803.450729605618,11760.958306979039,11718.618857073914,11676.431829188448,11634.39667460337,11592.512846574797,11550.779800327127,11509.196993045949,11467.763883870985,11426.47993388905,11385.34460612705,11344.357365544993,11303.517679029032
S1,67943.99380990384,63625.910343060656,59935.37056822464,56505.36577220816,53317.29738366862,50353.895260800055,47599.122803648235,45038.08884411974,42656.9658295623,40442.913850375,38384.01009421737,36469.183339203024,35071.9779269383,33758.017834367674,32522.691482949955,31359.55892845325,30267.298374583657,29241.129014347054,28277.031891211678,27371.285261558427,26520.35287278326,25720.84949440272,24969.52103929232,24263.224584529245,23598.903605215553,22973.554999708915,22384.183406932294,21827.73605956614,21301.007968813527,20800.50247891393,20322.226752081275,19861.398664305572,19412.05086303194,18966.564067424824,18515.289991274414,18046.666925324113,17548.45703534746,16931.38173053866,16301.029538053963,15655.091670354,15002.166508470553,14351.474535599336,13711.97606208612,13091.497854258188,12496.299554616113,11930.961468305106,11398.477318076491,10900.458155470684,10437.381108892734,10008.840753294184
E1,0.0,3.3136432240213342e-06,5.4272549878868325e-06,6.756460069100294e-06,7.554674706074457e-06,7.991604006300506e-06,8.183068269080752e-06,8.2089098062229e-06,8.124438017216782e-06,7.96803684079459e-06,7.766337817286126e-06,7.5377828375762665e-06,7.295095224945899e-06,7.115114503725586e-06,6.9816222207684e-06,6.88954549675789e-06,6.837225570715799e-06,6.82652845194109e-06,6.859852093194023e-06,6.940503480502264e-06,7.072917873623993e-06,7.262934176790283e-06,7.518164332564102e-06,7.848478590696865e-06,8.266638567052251e-06,8.78912098343983e-06,9.437180873962326e-06,1.0238195289069286e-05,1.1227285619328855e-05,1.2449089022671439e-05,1.3959231500394524e-05,1.582434339103245e-05,1.8118031377953883e-05,2.0907830497096778e-05,2.422560316131565e-05,2.801558885897958e-05,3.207068561143763e-05,3.600321700708155e-05,3.825481914626658e-05,3.9183022229728835e-05,3.888614560502414e-05,3.755222978837215e-05,3.5425664142211265e-05,3.2761379008958455e-05,2.9791552230678188e-05,2.6708277348791363e-05,2.3658369413660987e-05,2.074565906149709e-05,1.8037080782754753e-05,1.557008389589616e-05
I1,0.0,0.0,6.034245152201185e-07,1.3731413592466952e-06,2.106064909204252e-06,2.71882930850895e-06,3.18917349448503e-06,3.52399215621694e-06,3.7422217693731955e-06,3.866010696068956e-06,3.9164734357524134e-06,3.911925015472709e-06,3.86740379561689e-06,3.794817140499052e-06,3.715751440709314e-06,3.6410195480595004e-06,3.576593352074993e-06,3.5259792383976642e-06,3.4917531391153393e-06,3.475994477012262e-06,3.48063157388874e-06,3.5077018520461936e-06,3.5595679183414005e-06,3.639122635142346e-06,3.750008269094305e-06,3.8968715307440166e-06,4.0856762264024775e-06,4.324096258621849e-06,4.622010946852485e-06,4.992116338212012e-06,5.4506376407848625e-06,6.018051815090012e-06,6.719551213571335e-06,7.58460574757663e-06,8.644307589155642e-06,9.924287380897649e-06,1.1430736384873435e-05,1.3129889051957307e-05,1.4929615035720692e-05,1.6487377273294118e-05,1.7649837058354335e-05,1.833711000257333e-05,1.8532494212563104e-05,1.8269842442196424e-05,1.7617167187780924e-05,1.666012232692592e-05,1.5488312696170638e-05,1.4185617424727231e-05,1.2824436595804944e-05,1.1463130864107841e-05
A1,0.0,0.0,3.9066845198628176e-07,9.523916083618946e-07,1.5584793674817862e-06,2.137456651338903e-06,2.6521511132518333e-06,3.0864797366972214e-06,3.4369892740412604e-06,3.707437937058411e-06,3.905357644734223e-06,4.03991370981654e-06,4.120612625316342e-06,4.156559626737431e-06,4.164098048562299e-06,4.154390452107141e-06,4.135768809391362e-06,4.114703135159114e-06,4.0965894380234e-06,4.086027236207574e-06,4.087086027879115e-06,4.1035443152000485e-06,4.139113288939806e-06,4.197659326577331e-06,4.283439202504192e-06,4.401362891907638e-06,4.557300930296626e-06,4.758455649915411e-06,5.013816587493175e-06,5.334716077479335e-06,5.73548257251299e-06,6.234136970976561e-06,6.8529515057187956e-06,7.618421966986962e-06,8.559707162192384e-06,9.703890618775521e-06,1.1066065164058637e-05,1.2633888366872255e-05,1.4351780413134513e-05,1.5991551090246824e-05,1.7412799950756144e-05,1.851479818857005e-05,1.9239132163429353e-05,1.956788372522902e-05,1.9516773865448367e-05,1.9125752438283376e-05,1.844942657104257e-05,1.7548791013220933e-05,1.6484882880444758e-05,1.531442323794375e-05
IH1,0.0,0.0,0.0,9.791790252258009e-08,2.716811514896893e-07,4.773207679166696e-07,6.793684252219892e-07,8.565131181853269e-07,9.99239458758221e-07,1.1058720966895842e-06,1.1791690545017366e-06,1.223932842482264e-06,1.2455318989696978e-06,1.2490853545797505e-06,1.2390798675705443e-06,1.2212571113988704e-06,1.200236786282361e-06,1.179293183185944e-06,1.1606291556987966e-06,1.145761925143062e-06,1.1357860136050816e-06,1.1315604970441745e-06,1.1338446675779162e-06,1.143400792995898e-06,1.1610786706912574e-06,1.1878933814177563e-06,1.2251054737816295e-06,1.2743117104277535e-06,1.337554122708383e-06,1.4174548048153202e-06,1.5173823736595015e-06,1.6416506391461575e-06,1.7957349958067942e-06,1.986455637162267e-06,2.221997932375853e-06,2.5114917180554953e-06,2.8636518758100305e-06,3.283831789776589e-06,3.769223651431426e-06,4.303476341487478e-06,4.822847045043173e-06,5.270645773128787e-06,5.605621354225156e-06,5.804479231790259e-06,5.861088720061937e-06,5.783427017888499e-06,5.589373831517997e-06,5.302391341848178e-06,4.947798272140197e-06,4.549977051572556e-06
IN1,0.0,0.0,0.0,1.206849030440237e-07,3.9403165042028705e-07,8.110605032570666e-07,1.346213905091446e-06,1.9697534765793498e-06,2.6536355610180223e-06,3.373901585803497e-06,4.111277061177001e-06,4.850915068522463e-06,5.581789350554775e-06,6.295998407287343e-06,6.98810611575799e-06,7.657051356027984e-06,8.303946846302899e-06,8.931087867001638e-06,9.541446602630988e-06,1.0138478863190209e-05,1.072601964680548e-05,1.130824889302398e-05,1.188970964006264e-05,1.2475369206060246e-05,1.3070720734851407e-05,1.3681927493203191e-05,1.4316016643718315e-05,1.4981133490482212e-05,1.568687162503103e-05,1.6444698630709e-05,1.7268499528725602e-05,1.817525694014739e-05,1.9185868543703816e-05,2.0326048581099858e-05,2.1627132222852494e-05,2.3126340333115997e-05,2.486562466499964e-05,2.6887729748271887e-05,2.922819310881302e-05,3.1903748838626195e-05,3.4862445921771194e-05,3.8022217256607754e-05,4.128589031499361e-05,4.45539840422278e-05,4.7734844300200934e-05,5.075139270370403e-05,5.3544500120212395e-05,5.607358626279794e-05,5.831527758285462e-05,6.026092874660877e-05
D1,0.0,0.0,0.0,0.0,9.791790252258009e-11,3.695990540122694e-10,8.46919821928939e-10,1.5262882471509281e-09,2.382801365336255e-09,3.3820408240944758e-09,4.48791292078406e-09,5.667081975285796e-09,6.8910148177680605e-09,8.136546716737758e-09,9.385632071317508e-09,1.0624711938888052e-08,1.1845969050286922e-08,1.3046205836569284e-08,1.4225499019755227e-08,1.5386128175454025e-08,1.6531890100597087e-08,1.766767611420217e-08,1.8799236611246342e-08,1.9933081278824257e-08,2.1076482071820156e-08,2.2237560742511413e-08,2.342545412392917e-08,2.46505595977108e-08,2.5924871308138553e-08,2.7262425430846938e-08,2.867988023566226e-08,3.019726260932176e-08,3.183891324846792e-08,3.363464824427471e-08,3.562110388143698e-08,3.784310181381283e-08,4.0354593531868325e-08,4.321824540767835e-08,4.6502077197454944e-08,5.027130084888637e-08,5.457477719037385e-08,5.939762423541702e-08,6.46682700085458e-08,7.027389136277096e-08,7.607837059456122e-08,8.193945931462315e-08,8.772288633251165e-08,9.331226016402964e-08,9.861465150587782e-08,1.0356244977801801e-07
R1,0.0,0.0,0.0,7.813369039725635e-08,3.1885248780400097e-07,7.705730660492738e-07,1.4453372401427997e-06,2.329746802813263e-06,3.3962156560500866e-06,4.611411569326614e-06,5.9416618689233756e-06,7.355974604926109e-06,8.827434489192778e-06,1.0333594666131705e-05,1.1856304988398231e-05,1.338286957976783e-05,1.490568464522568e-05,1.6421134449961392e-05,1.792855878063637e-05,1.9429509613354296e-05,2.0927254134954523e-05,2.2426461415892136e-05,2.393303015082481e-05,2.54540291600724e-05,2.6997734420123125e-05,2.8573756491436668e-05,3.0193260916160754e-05,3.186929223762749e-05,3.361722034e-05,3.545533590254536e-05,3.7405628890074686e-05,3.949478670814222e-05,4.1755438181372184e-05,4.422762618573756e-05,4.696037590547878e-05,5.001296971167281e-05,5.345506683875155e-05,5.7364148003170736e-05,6.181835602128381e-05,6.688369120695738e-05,7.257251796726432e-05,7.883669755677143e-05,8.557872902317864e-05,9.266777124825553e-05,9.995669583966261e-05,0.00010729748000683635,0.00011455326105231408,0.00012160640967893017,0.00012836279571738722,0.0001347529075849531
G1,0.0,0.0,6.034245152201185e-07,1.591744164813299e-06,2.8221161047511167e-06,4.19784535921998e-06,5.653140768929421e-06,7.143302403557892e-06,8.638169860741278e-06,1.0117654748080909e-05,1.1568658505231792e-05,1.2982932256388467e-05,1.4355585450198238e-05,1.568404449119765e-05,1.697972849514297e-05,1.825110314811619e-05,1.950571034943791e-05,2.0750789933006623e-05,2.1993921538692843e-05,2.3243121480862195e-05,2.4507008286099818e-05,2.5795008155290258e-05,2.7117610571547577e-05,2.848669117589132e-05,2.9915923011858054e-05,3.1421303052069445e-05,3.302182873033088e-05,3.4740368086841466e-05,3.660477460600141e-05,3.864929748431527e-05,4.091631448058718e-05,4.345833301773937e-05,4.633999410611156e-05,4.96393427570858e-05,5.344672231761202e-05,5.78582783769851e-05,6.296000236564076e-05,6.88001718134467e-05,7.535646719593445e-05,8.232278618007521e-05,8.945813377043518e-05,9.653941922397729e-05,0.00010337779454791562,0.00010982891579609347,0.00011579486261351585,0.00012121999493679462,0.00012608365352101617,0.00013039191458872758,0.00013416976223730868,0.00013745436953854716
H1,18795.026199404263,17600.535159338553,16579.638567648395,15630.812536910933,14748.912232162264,13929.160295626103,13167.12059838293,12458.673866919755,11799.99505064049,11187.532305982568,10617.987481667958,10088.297997864673,9211.795218905992,8410.668273868854,7678.212290556522,7008.321524602041,6395.438417433668,5834.506889279386,5320.929513024534,4850.528242140782,4419.508390875606,4024.425587621222,3662.155443058339,3329.865693482632,3024.990596870129,2745.2073749405104,2488.414508982942,2252.7117108072116,2036.3814032151076,1837.8715572556061,1655.779746698443,1488.8382941560117,1335.9003986567525,1195.927151760245,1067.9753689427043,951.1861851928077,844.7743883938306,827.0793086909366,810.4946378395929,794.9416136133179,780.3470976692614,766.6431738493926,753.7667751744367,741.6593374810748,730.2664777993185,719.5376957029041,709.426095991775,699.8881311829344,690.8833623947821,682.3742373111168
S2,67943.99380990384,71988.2791543488,75675.98371129195,79056.1770395281,82151.1296283608,84981.5183728421,87566.54043295514,89924.01895963933,92070.50126860208,94021.35000136479,95790.82777445928,97392.17578191042,99931.32688792655,102341.68747446375,104628.3537366592,106791.40780758242,108841.61235030218,110781.58060597308,112614.80589500867,114344.7520602592,115974.62869552788,117507.32233581031,118945.35290224744,120290.81969466439,121545.3206911834,122709.82876916009,123784.50123224825,124768.38626616893,125658.97026517752,126451.48164501591,127137.83098447166,127705.03705545228,128133.01054090168,128391.76762993581,128438.7718161269,128218.39230180377,127666.9014663602,126145.8005589036,124357.43336913791,122288.91837175496,119984.81781635218,117497.32216177204,114881.77001571603,112191.5297036338,109474.73929765007,106772.58199635109,104118.69127410857,101539.30973445345,99053.90096467921,96675.99416610008
E2,0.0,1.1597751284074666e-06,2.0424954807626126e-06,2.7366706995201986e-06,3.2990959654795417e-06,3.7672170234639197e-06,4.166315549385584e-06,4.513742582142976e-06,4.821548496458269e-06,5.098184381465211e-06,5.34963390398577e-06,5.58017983114189e-06,5.79292865738192e-06,6.05809927896516e-06,6.363913461752118e-06,6.709414426203459e-06,7.09769485448473e-06,7.536532248037249e-06,8.035339653525866e-06,8.605729015418172e-06,9.262016005418269e-06,1.0021911334687617e-05,1.0907473330702364e-05,1.1946391143141738e-05,1.3173696386187841e-05,1.4634035200171654e-05,1.638466231703299e-05,1.849932422220922e-05,2.1073129285186868e-05,2.4228237602754596e-05,2.8119473546857437e-05,3.293722691751125e-05,3.890134301911924e-05,4.623317015402058e-05,5.508491189617312e-05,6.54065248889915e-05,7.676814143054613e-05,8.824940931536802e-05,9.581104613007228e-05,0.00010018917411436709,0.00010145874979936253,9.994268553212338e-05,9.614792461446335e-05,9.065524259775103e-05,8.40305232860187e-05,7.67714884626742e-05,6.928392258256302e-05,6.187777685534751e-05,5.477478599335085e-05,4.8121580588359516e-05
I2,0.0,0.0,2.111985803270414e-07,5.0663224117668e-07,8.214504684989685e-07,1.1246387414183217e-06,1.4032371642348817e-06,1.653584697218867e-06,1.8765062637422168e-06,2.0747223518134812e-06,2.2515068663693746e-06,2.410037317623011e-06,2.5531200030018232e-06,2.683110283696917e-06,2.814297318094857e-06,2.953648874004547e-06,3.105434271141216e-06,3.2729393681403188e-06,3.4596759611863824e-06,3.66959777130233e-06,3.907340774068681e-06,4.17846839598936e-06,4.489753773545391e-06,4.84953322530928e-06,5.26816534729293e-06,5.758635486938489e-06,6.337354983449854e-06,7.025216095487681e-06,7.848971895444664e-06,8.843003134543921e-06,1.0051481162885501e-05,1.1530769349752137e-05,1.3351482849333824e-05,1.5598689538722123e-05,1.8366947925538275e-05,2.174427750850391e-05,2.577769788489954e-05,3.0418914629712136e-05,3.5469530018355446e-05,4.006745431792435e-05,4.379695743801161e-05,4.6406565782711306e-05,4.779471050283003e-05,4.798893404891669e-05,4.7112562053865884e-05,4.5347292094172334e-05,4.2899634754565936e-05,3.997518254371339e-05,3.676149096035879e-05,3.341854827445178e-05
A2,0.0,0.0,1.3673395819519858e-07,3.501911679869927e-07,6.027980815881229e-07,8.711918397451253e-07,1.141096894414474e-06,1.4040734398138493e-06,1.6554152660005959e-06,1.8927781075284628e-06,2.115282909730845e-06,2.3229318849831883e-06,2.5162317283961493e-06,2.695954042299987e-06,2.8709947027367422e-06,3.047081792578691e-06,3.228684976727651e-06,3.4197446049207007e-06,3.624329900698832e-06,3.8468060124507075e-06,4.092034071802353e-06,4.36559075818285e-06,4.67402545408391e-06,5.025178275180131e-06,5.428585780494358e-06,5.8960073379482345e-06,6.442114085956336e-06,7.085393093907615e-06,7.849328503519955e-06,8.763920615494994e-06,9.867571974046093e-06,1.1209257936832543e-05,1.2850605168006726e-05,1.4866834091243346e-05,1.734421733671768e-05,2.0369717346751513e-05,2.400700411575351e-05,2.8256333545372564e-05,3.3009403632731813e-05,3.7703353671392955e-05,4.197468166808934e-05,4.554142317511677e-05,4.821607701733939e-05,4.9908409327195366e-05,5.061470468071721e-05,5.039870671712076e-05,4.937009023136853e-05,4.7664435811767814e-05,4.542675023333575e-05,4.279918076388275e-05
IH2,0.0,0.0,0.0,3.4271265882903024e-08,9.931274877547486e-08,1.8285411018905045e-07,2.7373971430491406e-07,3.6429989214059527e-07,4.5011340070441e-07,5.291079003412872e-07,6.006907480832012e-07,6.650974727632248e-07,7.229612189384026e-07,7.750533045863132e-07,8.221408226440423e-07,8.669252591070537e-07,9.118853175531804e-07,9.589506550385301e-07,1.0096173678390023e-06,1.0652018683645562e-06,1.1270026180707598e-06,1.196419830567409e-06,1.2750549915678886e-06,1.3648063216171147e-06,1.4679737700337027e-06,1.5873859044462758e-06,1.7265613168733778e-06,1.8899188583593682e-06,2.0830537295357066e-06,2.3130991657271576e-06,2.589193627623768e-06,2.923064907202085e-06,3.32971127587441e-06,3.8280756163040724e-06,4.441414420458327e-06,5.1966767192099825e-06,6.121593033134518e-06,7.237630778135699e-06,8.547665441880618e-06,1.002093782607261e-05,1.1502207494873252e-05,1.2846548806803193e-05,1.3940837160324846e-05,1.4712141767364586e-05,1.5128539487546794e-05,1.5194112766464835e-05,1.4940382872368225e-05,1.4416589461347018e-05,1.3680664688506834e-05,1.2791951394191268e-05
IN2,0.0,0.0,0.0,4.223971606540828e-08,1.431176307351678e-07,3.0588799212636595e-07,5.275675880890485e-07,8.026129053583126e-07,1.1248070879809796e-06,1.488164280002865e-06,1.8873062854616867e-06,2.3175667991748064e-06,2.7749645683945068e-06,3.256121875840897e-06,3.758167943654102e-06,4.281120309763418e-06,4.826389879428796e-06,5.39622643978361e-06,5.993513059730275e-06,6.621804552780578e-06,7.2854087289260485e-06,7.989514849657759e-06,8.740369758225778e-06,9.545508591423756e-06,1.0414053735922437e-05,1.1357102429126097e-05,1.2388231138985217e-05,1.352415443598539e-05,1.4785587854269252e-05,1.6198377569095048e-05,1.7794971451536858e-05,1.961630708641179e-05,2.171416002585201e-05,2.415387906047181e-05,2.7017132632935185e-05,3.0403633669532282e-05,3.442964016829092e-05,3.9219579530480433e-05,4.488689900719e-05,5.1504161635034655e-05,5.897074197430594e-05,6.7103937084985e-05,7.567268938722747e-05,8.442808107720227e-05,9.312934604053906e-05,0.00010156293992793284,0.000109553925482372,0.00011697052518119341,0.00012372347931784744,0.00012976198711326905
D2,0.0,0.0,0.0,0.0,3.427126588290302e-11,1.3358401465837789e-10,3.164381248474283e-10,5.901778391523423e-10,9.544777312929377e-10,1.4045911319973478e-09,1.933699032338635e-09,2.534389780421836e-09,3.1994872531850606e-09,3.9224484721234635e-09,4.697501776709777e-09,5.519642599353819e-09,6.386567858460873e-09,7.2984531760140535e-09,8.257403831052584e-09,9.267021198891586e-09,1.0332223067256143e-08,1.1459225685326902e-08,1.265564551589431e-08,1.39307005074622e-08,1.5295506829079314e-08,1.6763480599113018e-08,1.8350866503559294e-08,2.007742782043267e-08,2.196734667879204e-08,2.4050400408327746e-08,2.6363499574054904e-08,2.8952693201678673e-08,3.187575810888076e-08,3.520546938475517e-08,3.903354500105924e-08,4.347495942151757e-08,4.867163614072755e-08,5.479322917386207e-08,6.203085995199777e-08,7.057852539387839e-08,8.0599463219951e-08,9.210167071482425e-08,1.0494821952162745e-07,1.1888905668195229e-07,1.3360119844931687e-07,1.4872973793686366e-07,1.639238507033285e-07,1.7886423357569672e-07,1.9328082303704373e-07,2.0696148772555057e-07
R2,0.0,0.0,0.0,2.7346791639039715e-08,1.1496919174346625e-07,2.8670491475742383e-07,5.55618490121956e-07,9.2630984173502e-07,1.3977972325891941e-06,1.9658810468680764e-06,2.624793083448287e-06,3.368235898996812e-06,4.189980706679964e-06,5.08417435498237e-06,6.045467804661703e-06,7.070644254040727e-06,8.158983447245523e-06,9.311913395241074e-06,1.0532638897425879e-05,1.182595726067212e-05,1.3198234775459535e-05,1.4657504932937412e-05,1.6213671770487536e-05,1.787881627859936e-05,1.9667616595007118e-05,2.1597905012377766e-05,2.369139781971913e-05,2.5974648995036883e-05,2.8480296843811764e-05,3.124869407354675e-05,3.43300345239763e-05,3.7787106330299575e-05,4.169879130177733e-05,4.616434550856285e-05,5.13082344702446e-05,5.728467369632786e-05,6.42798045282253e-05,7.250760208273366e-05,8.219414763010888e-05,9.354650445342199e-05,0.00010664455462505047,0.00012141679108302822,0.00013766091097575296,0.00015507809536997446,0.00017331236996554237,0.00019198849916883862,0.0002107437697598905,0.0002292513064944401,0.00024723457075955587,0.0002644740435471266
G2,0.0,0.0,2.111985803270414e-07,5.831432231249913e-07,1.081499285782522e-06,1.6822747009517577e-06,2.36829638537256e-06,3.1269951259059647e-06,3.948961386399341e-06,4.826980040608835e-06,5.755374931340323e-06,6.729559545337542e-06,7.74572727427051e-06,8.800637211902019e-06,9.903835526694815e-06,1.1062723534831153e-05,1.2284528320027491e-05,1.357704015283433e-05,1.4949465610483234e-05,1.641272541464935e-05,1.7979854857433016e-05,1.966649615831753e-05,2.1491516711186186e-05,2.3477800798483893e-05,2.565327498107616e-05,2.8052245183379765e-05,3.0717147527833514e-05,3.3700844397800866e-05,3.7069627636069765e-05,4.0907108608946794e-05,4.531914440812308e-05,5.043978611458464e-05,5.643775537129732e-05,6.352180832019512e-05,7.194100930267829e-05,8.197213939415286e-05,9.388286662249801e-05,0.0001078625787988921,0.00012393306479706873,0.00014138054787088292,0.00015962530137421805,0.00017810124847338153,0.00019630111565577257,0.00021380994532678771,0.0002303185408871521,0.00024562075490041073,0.00025960107658154106,0.00027221788972963697,0.00028348602120231974,0.00029346067642311083
H2,18795.026199404263,19913.77775889261,20933.89005885855,21868.936979656548,22725.079101582847,23508.036176480357,24223.11862406698,24875.25677842687,25469.02804536844,26008.68211987409,26498.16440220768,26941.137741348157,26247.362520218114,25498.001329973988,24701.483016073114,23865.5482105801,22997.31093105701,22103.314927538147,21189.585146645542,20261.67463783862,19324.70718402609,18383.41589705569,17442.17797781028,16505.045800816784,15575.774444690014,14657.845752973191,13754.488976003275,12868.698014853386,12003.245265366008,11160.692046720555,10343.395598621206,9553.512648569045,8792.999590910007,8063.609387702914,7366.885402616024,6704.152515985904,6076.506041520913,6064.5077116261755,6051.388284727597,6037.240422136049,6022.150056178239,6006.196872009636,5989.454754998764,5971.992206142191,5953.872727793909,5935.1551818296475,5915.894122215216,5896.1401038073045,5875.939969084569,5855.33711438557
S3,203831.98142971148,202942.23865164397,202108.0566508324,201324.72741140693,200588.16631238864,199894.5878961838,199240.48440419283,198622.60584675742,198037.94149783498,197483.70271262038,196957.30697360486,196456.36307731277,198147.16340639122,199911.8952805101,201750.82317624806,203656.44287875982,205639.99008240653,207699.36563705688,209834.63340051577,212046.4150337247,214335.48889918285,216702.65792290732,219148.658764829,221674.0504677543,224279.05401434333,226963.31345990073,229725.5361013074,232562.94580582238,235470.4471331987,238439.3440913295,241455.38624468673,244495.8454537695,247525.33620896988,250490.39958212836,253313.9274990327,255892.8054914643,258104.94541252812,255228.87782515778,251923.92952213745,248161.00027010814,244013.54740162744,239568.59430342948,234919.1326500769,230155.28360111927,225358.6586992604,220599.34288480127,215934.79896934537,211410.05388751227,207058.66006364528,202904.06269298718
E3,0.0,1.9881859344127997e-06,3.374207266923924e-06,4.356462306821859e-06,5.0626884918980604e-06,5.577954853733131e-06,5.9600843971822e-06,6.2488546028952205e-06,6.471820578267634e-06,6.648149965863336e-06,6.7912114733085494e-06,6.910347678679678e-06,7.012099286441705e-06,7.178019619023787e-06,7.3946113696988364e-06,7.660572493379633e-06,7.978986071600438e-06,8.357935095882707e-06,8.807218707057902e-06,9.339034160298923e-06,9.968588884561296e-06,1.0714918984582023e-05,1.1602004517827996e-05,1.2660269684632594e-05,1.3928592260145943e-05,1.54569917930841e-05,1.7310210850246797e-05,1.9572428687479305e-05,2.235329891369879e-05,2.5795249513016432e-05,3.0081222330213232e-05,3.544012986438148e-05,4.214315453787866e-05,5.0476327822691914e-05,6.066467488783168e-05,7.272200583919482e-05,8.624008818068159e-05,0.00010023808063336954,0.00010951834247531555,0.00011500431834462086,0.00011682904707374283,0.00011539055009429159,0.00011128512270010144,0.00010518607365880039,9.774575058599404e-05,8.953695752002828e-05,8.10271296554414e-05,7.257451292054394e-05,6.443702795668412e-05,5.678714606446621e-05
I3,0.0,0.0,3.6205470913207094e-07,8.453464375341392e-07,1.3324275381266728e-06,1.771659539271903e-06,2.1456023856524406e-06,2.453663781909054e-06,2.7027096040026793e-06,2.902136293573798e-06,3.061426726177298e-06,3.1890628951391843e-06,3.2921553310606495e-06,3.3764297123772437e-06,3.460388582237427e-06,3.5533736605231575e-06,3.661105332686072e-06,3.7877930967131042e-06,3.937593411669681e-06,4.1149414281399215e-06,4.324886730474368e-06,4.573418907465642e-06,4.867824230128911e-06,5.217116211027138e-06,5.632583373911551e-06,6.128504506340329e-06,6.723094326659422e-06,7.439758719407867e-06,8.308753609990274e-06,9.369342355247285e-06,1.0672500931649973e-05,1.2284052497899653e-05,1.4287660097190576e-05,1.6786061277814486e-05,1.989686202279977e-05,2.3736040923545458e-05,2.838007582977789e-05,3.380339855456053e-05,3.981108932498367e-05,4.533233582795424e-05,4.985241137221743e-05,5.30672862573088e-05,5.485555264032356e-05,5.524837232680239e-05,5.438822969993977e-05,5.2484785762720184e-05,4.9776056913397835e-05,4.64989546396343e-05,4.286980209717051e-05,3.907352311180798e-05
A3,0.0,0.0,2.3440107119176895e-07,5.85329625288562e-07,9.818773485575604e-07,1.382377445195748e-06,1.7635258585007872e-06,2.1134964994154433e-06,2.4275181406111667e-06,2.7050224635309497e-06,2.947814620056228e-06,3.1589148616374422e-06,3.341840850958688e-06,3.5001778473188988e-06,3.6464089466873964e-06,3.78892933445171e-06,3.934301651768481e-06,4.088139497493434e-06,4.255886710813257e-06,4.4430536519604434e-06,4.655486628387014e-06,4.899655595648981e-06,5.182980817008704e-06,5.514225678874965e-06,5.903987811006743e-06,6.365328888588024e-06,6.914595404339424e-06,7.572497504037632e-06,8.365527782392656e-06,9.327808141964427e-06,1.0503427930688744e-05,1.1949226913682724e-05,1.3737664990053292e-05,1.595868166141576e-05,1.871795076915465e-05,2.2126541169004135e-05,2.627493611500969e-05,3.1187392841456425e-05,3.67676789338975e-05,4.2326022437191964e-05,4.7419477099819424e-05,5.170937079404465e-05,5.497169133320184e-05,5.709753036844717e-05,5.807914227538617e-05,5.798724035314971e-05,5.6945927093998106e-05,5.510959367867031e-05,5.264398915648622e-05,4.9712120825608986e-05
IH3,0.0,0.0,0.0,5.875074151354803e-08,1.66491275635746e-07,2.992926189913908e-07,4.368348164175364e-07,5.661482065450953e-07,6.806648163803201e-07,7.782213554403994e-07,8.59263105574032e-07,9.255510518842006e-07,9.793403018960828e-07,1.0229099824979842e-06,1.0583264858057203e-06,1.0896233554916965e-06,1.1203292139295878e-06,1.1531330925880988e-06,1.190059894848566e-06,1.2327945175327907e-06,1.2828974175574484e-06,1.3419666607040375e-06,1.4117716144200059e-06,1.49437753875197e-06,1.5922776242304e-06,1.708547765541034e-06,1.8470398578740426e-06,2.0126317055067634e-06,2.2115554136651344e-06,2.4518304422231717e-06,2.743829780004943e-06,3.1010014375750334e-06,3.5407371186864194e-06,4.085291314152967e-06,4.7624402719996806e-06,5.605128303091288e-06,6.64861450425309e-06,7.922903251639877e-06,9.438817770511552e-06,1.1170129152038664e-05,1.2929988090333662e-05,1.4541631905475374e-05,1.586752101667705e-05,1.6819322280923044e-05,1.735801409669442e-05,1.748724567443959e-05,1.7242859732853812e-05,1.6681364790938618e-05,1.586940230782851e-05,1.4875329204120082e-05
IN3,0.0,0.0,0.0,7.241094182641419e-08,2.4071131464939665e-07,5.046407656935954e-07,8.536140124807168e-07,1.2736701640828055e-06,1.7508781179025015e-06,2.2728278776218275e-06,2.829120514069886e-06,3.4113640969588293e-06,4.012952206591106e-06,4.628770681399376e-06,5.254904801576848e-06,5.891181925431183e-06,6.539299588487774e-06,7.202081377633651e-06,7.88316279635116e-06,8.58697203538316e-06,9.31877729367801e-06,1.0084800745294187e-05,1.0892396410252378e-05,1.1750297472175123e-05,1.2668947081583925e-05,1.3660935200402382e-05,1.4741573858234496e-05,1.592965543352863e-05,1.7248453929814e-05,1.872704739455585e-05,2.0402057773671334e-05,2.2319913328580233e-05,2.4539713941703455e-05,2.713666453641194e-05,3.0205718962421207e-05,3.386434397355559e-05,3.825195469021242e-05,4.352178138650824e-05,4.982031358309278e-05,5.725350130842286e-05,6.571200707001566e-05,7.498470906613861e-05,8.480192140750038e-05,9.487254036697256e-05,0.00010491478574023871,0.00011467836635703905,0.00012395758103051535,0.00013259651614576552,0.00014048829599526126,0.0001475704443905108
D3,0.0,0.0,0.0,0.0,5.875074151354804e-11,2.2524201714929404e-10,5.245346361406849e-10,9.613694525582213e-10,1.5275176591033164e-09,2.2081824754836365e-09,2.986403830924036e-09,3.845666936498068e-09,4.771217988382268e-09,5.750558290278351e-09,6.7734682727763355e-09,7.831794758582055e-09,8.921418114073752e-09,1.004174732800334e-08,1.1194880420591439e-08,1.2384940315440005e-08,1.3617734832972795e-08,1.4900632250530244e-08,1.6242598911234282e-08,1.7654370525654286e-08,1.9148748064406255e-08,2.0741025688636656e-08,2.244957345417769e-08,2.429661331205173e-08,2.6309245017558493e-08,2.8520800431223627e-08,3.09726308734468e-08,3.371646065345174e-08,3.681746209102678e-08,4.03581992097132e-08,4.444349052386617e-08,4.9205930795865846e-08,5.4811059098957135e-08,6.145967360321023e-08,6.93825768548501e-08,7.882139462536165e-08,8.999152377740031e-08,1.0292151186773397e-07,1.1746314377320934e-07,1.333306647898864e-07,1.5014998707080945e-07,1.6750800116750386e-07,1.8499524684194346e-07,2.0223810657479727e-07,2.189194713657359e-07,2.347888736735644e-07
R3,0.0,0.0,0.0,4.688021423835379e-08,1.9409042473668561e-07,4.7626758884720654e-07,9.077480484493109e-07,1.4879349538866358e-06,2.207233159604387e-06,3.0516613569979907e-06,4.005911149691081e-06,5.055147388835859e-06,6.185930356501008e-06,7.386581269044647e-06,8.647223652055396e-06,9.961469276888887e-06,1.1326623890573118e-05,1.2743088105282945e-05,1.4213759751700792e-05,1.5743676484589664e-05,1.7339867501081282e-05,1.9011367430016105e-05,2.076936999603286e-05,2.262751575074764e-05,2.4602323288695245e-05,2.6713788218975647e-05,2.898619012289972e-05,3.144916642274237e-05,3.4139135023899484e-05,3.710117554446679e-05,4.0391510485905236e-05,4.408075559346655e-05,4.825811158144732e-05,5.303659456353081e-05,5.8559134382444076e-05,6.500469206570042e-05,7.259216191909915e-05,8.15776448638874e-05,9.223872257232618e-05,0.00010484069738402812,0.00011949892785148389,0.00013614559759493513,0.00015455453261658175,0.00017438312296015317,0.00019521971926639845,0.00021662862009301048,0.00023818743347992798,0.0002595143250325839,0.00028028493724221835,0.00030024024825161443
G3,0.0,0.0,3.6205470913207094e-07,9.765081208741013e-07,1.7698331645939482e-06,2.6917641458136667e-06,3.7075266995894172e-06,4.792876206129264e-06,5.930811645919017e-06,7.109349868357291e-06,8.319998208884823e-06,9.556698485284927e-06,1.0815093827240096e-05,1.2092018446620659e-05,1.3399157663495518e-05,1.4745738897303376e-05,1.6140752461110152e-05,1.7593750106511633e-05,1.9115755522457936e-05,2.0719576851265468e-05,2.2420243392536484e-05,2.4235553764965504e-05,2.6186773119850592e-05,2.829953344993099e-05,3.0605007087414e-05,3.314144612567515e-05,3.595621137013138e-05,3.9108453444639325e-05,4.2672652271720564e-05,4.67432560297799e-05,5.1440649466567625e-05,5.6918531596499865e-05,6.33722870967072e-05,7.104668378869767e-05,8.023857669548321e-05,9.12857986081523e-05,0.00010452869718010436,0.00012023327968486016,0.00013848693921413867,0.00015843056266665937,0.00017937319901997978,0.00020064812402791353,0.00022166109435823488,0.00024192645386637962,0.0002610811579833913,0.0002788809566263488,0.0002951859090708789,0.0003099411959640395,0.0003231572356266527,0.00033489141451323795
H3,56385.07859821279,56138.95325512535,55908.197427509935,55691.50875917186,55487.75734069849,55295.896018830565,55114.95445886984,54944.033631522914,54782.30069386054,54628.98423623751,54483.36986902927,54344.796124908884,54212.650654122124,54073.34716676894,53926.28357525984,53770.963152800214,53606.98546236712,53434.03809459807,53251.88914532807,53060.38036848183,52859.42094443303,52648.98180780117,52429.090481986816,52199.826370563234,51961.31645796112,51713.73137372442,51457.28177600259,51192.21501091689,50918.81200505036,50637.38434864358,50348.2715272468,50051.838259741424,49748.47190101226,49438.57986839561,49122.58705267925,48800.9331772714,48474.07007360349,48142.45884729395,47813.468210609666,47487.062978910864,47163.20936387394,46841.87488174854,46523.028268115035,46206.639398678344,45892.67921566724,45581.119659438984,45271.933604917824,44965.09480252226,44660.57782326085,44358.35800769897
S4,101915.99071485574,103614.59055710449,105305.77587614846,106990.0096784378,108667.71573697317,110339.28378625361,112005.07201530083,113665.40938181599,115320.59776025361,116970.91393568477,118616.61145447395,120257.92234200645,123243.82887907427,126246.40816274789,129265.83209061706,132295.37515413624,135344.17224044408,138409.80469905338,141491.46504123686,144588.60492883527,147700.58492264428,150826.55008311197,153965.33857383512,157115.3688213244,160274.47810050432,163439.68319779605,166606.81986495646,169769.99352778483,172920.73577806738,176046.7051494135,179129.69644450457,182142.65009918972,185045.36219558615,187778.9139602433,190259.93868946718,192378.2439315464,194004.23442490207,193882.54476247297,193268.19463071966,192119.78636922938,190502.7322141636,188500.01871355454,186204.27141404344,183708.12613538545,181097.72404053874,178448.92444396846,175825.6035301174,173279.40488781512,170850.410426922,168568.32825172532
E4,0.0,2.9822789016192004e-06,5.12412753263954e-06,6.704541089826141e-06,7.902747688520137e-06,8.837772287774547e-06,9.590297087863238e-06,1.0215683369844981e-05,1.0752186330674917e-05,1.1226346848031982e-05,1.1656620847108871e-05,1.2055859892309683e-05,1.2433021732515862e-05,1.2937968363775328e-05,1.3546611154476438e-05,1.4257937148751138e-05,1.507976326411565e-05,1.60303724048653e-05,1.7132178681367728e-05,1.8413170091646403e-05,1.9908274049090424e-05,2.1661203774552687e-05,2.3726987669253e-05,2.617538552039412e-05,2.9095476680704015e-05,3.2601807620556784e-05,3.684258805809924e-05,4.201048125017394e-05,4.835642151148905e-05,5.6206304416631975e-05,6.597863329313753e-05,7.819681476345647e-05,9.348020078993528e-05,0.00011248021753715256,0.00013570448831584327,0.0001631691513500517,0.0001939114375175226,0.00022564274422273335,0.0002476294873151274,0.00026158380680378125,0.0002674766517662063,0.0002659527060289162,0.0002581896457632813,0.00024561712969789885,0.00022967839227045088,0.0002116786140386714,0.00019270955732520812,0.0001736279196470892,0.00015506645404982685,0.00013746212571591314
I4,0.0,0.0,5.430820636981065e-07,1.2794587561990609e-06,2.0368661306860845e-06,2.738084344522154e-06,3.355542821142063e-06,3.886351460388146e-06,4.338748617432624e-06,4.724954523485334e-06,5.0575955570099666e-06,5.348084814167478e-06,5.6060410738561026e-06,5.8392297499835875e-06,6.079893402847158e-06,6.344207456271305e-06,6.642302995411625e-06,6.982064398206705e-06,7.371849138812964e-06,7.821068704073879e-06,8.340821777887919e-06,8.94454670841043e-06,9.648773839359128e-06,1.047406590050324e-05,1.1446239824007364e-05,1.2597981454407894e-05,1.3970994785003416e-05,1.5618865129881306e-05,1.761084999844899e-05,2.003681286084235e-05,2.3013408893030293e-05,2.6691243290013846e-05,3.126167539006411e-05,3.695952659567463e-05,4.405317616652181e-05,5.280621726575502e-05,6.338968989084207e-05,7.573734813377829e-05,8.939018351696287e-05,0.00010210085438259587,0.00011274795021014902,0.0001206110239906187,0.00012534802418614447,0.00012695527280123334,0.00012569076947431296,0.00012198186560970678,0.00011633877322379989,0.00010928568289267335,0.00010131289371804511,9.284831023350806e-05
A4,0.0,0.0,3.516016067876535e-07,8.854003277110867e-07,1.498765253305288e-06,2.1307221053674364e-06,2.746524141789191e-06,3.327886154762957e-06,3.866706904603257e-06,4.361015570863962e-06,4.812364585896946e-06,5.22417179299859e-06,5.600686627139183e-06,5.94636472762773e-06,6.282438879183343e-06,6.623055333221162e-06,6.979411666459097e-06,7.361387531058087e-06,7.779042147524507e-06,8.243065447664866e-06,8.765309076717866e-06,9.35937218662145e-06,1.0041287754635833e-05,1.0830369843609798e-05,1.1750294170439607e-05,1.2830503493241353e-05,1.410805669877558e-05,1.563007437118633e-05,1.7456967389455028e-05,1.9666648848824056e-05,2.2359871321961167e-05,2.566657713572168e-05,2.9752428199538377e-05,3.482297375249749e-05,4.111945434824254e-05,4.8894709673217554e-05,5.835291412408051e-05,6.954389966855649e-05,8.223771259952113e-05,9.498493304451918e-05,0.00010682788120224786,0.00011699698821631175,0.00012495260526282953,0.00013040185771938,0.00013327899830137014,0.00013370158212925687,0.00013191753011521863,0.00012825389444437186,0.00012307331889495338,0.00011674051814801546
IH4,0.0,0.0,0.0,8.812611227032207e-08,2.515931401074787e-07,4.5606794077318054e-07,6.71887785758599e-07,8.797770866464114e-07,1.0696483472750558e-06,1.237804747772136e-06,1.384384556120415e-06,1.5115056547962104e-06,1.6220768741737822e-06,1.7191105631523868e-06,1.8053699802041922e-06,1.887466002596757e-06,1.9713222496443733e-06,2.0615385820390225e-06,2.1616897309714246e-06,2.2749156574962905e-06,2.404310407369779e-06,2.5532188966573945e-06,2.725490883828389e-06,2.9257297828891966e-06,3.1595694186234044e-06,3.434010392012613e-06,3.757849946121729e-06,4.142245226500074e-06,4.601458956025811e-06,5.1538466731604025e-06,5.823149967638297e-06,6.640145568050409e-06,7.644629818480026e-06,8.887513039911986e-06,1.0432304031835194e-05,1.2354243679477647e-05,1.473365053733033e-05,1.763835828298791e-05,2.1091466175414787e-05,2.5030017282142344e-05,2.905791919421855e-05,3.2795550130764e-05,3.5936571640496436e-05,3.8272616016157994e-05,3.969911094224007e-05,4.020574052289589e-05,3.985670358467887e-05,3.876682762048678e-05,3.707847213338736e-05,3.494223551838361e-05
IN4,0.0,0.0,0.0,1.0861641273962132e-07,3.633547919536654e-07,7.668696393993232e-07,1.3063433007793593e-06,1.9635801141262513e-06,2.71999961287657e-06,3.5588663030860486e-06,4.466066447308747e-06,5.430161454234968e-06,6.442116815485905e-06,7.49491771377243e-06,8.583176903274473e-06,9.708012856122016e-06,1.0873767252418633e-05,1.2086761886023736e-05,1.3354828296749017e-05,1.4687386357966428e-05,1.6095638213006763e-05,1.759288678906704e-05,1.9194981422334317e-05,2.09209092173827e-05,2.279356820516246e-05,2.484077665427588e-05,2.709659460661044e-05,2.9603061227175356e-05,3.241248633983603e-05,3.559047580467817e-05,3.9219911522686065e-05,4.340612632671246e-05,4.828345558414361e-05,5.402308005449103e-05,6.084132704972192e-05,6.900590260512128e-05,7.883438868146204e-05,9.06752029111994e-05,0.0001048598139806638,0.00012162436909299637,0.00014075303952841892,0.0001618080062972324,0.00018421201010435198,0.00020732551112719516,0.00023051502506636265,0.0002532053943702526,0.00027491303923028466,0.000295261557260895,0.00031398338111974144,0.0003309118445192199
D4,0.0,0.0,0.0,0.0,8.812611227032207e-11,3.397192523778008e-10,7.957871931509813e-10,1.4676749789095803e-09,2.3474520655559917e-09,3.4171004128310477e-09,4.654905160603184e-09,6.0392897167235985e-09,7.55079537151981e-09,9.172872245693592e-09,1.0891982808845979e-08,1.2697352789050171e-08,1.4584818791646928e-08,1.6556141041291303e-08,1.8617679623330324e-08,2.0779369354301748e-08,2.3054285011798038e-08,2.5458595419167816e-08,2.801181431582521e-08,3.07373051996536e-08,3.36630349825428e-08,3.6822604401166203e-08,4.0256614793178815e-08,4.401446473930054e-08,4.8156709965800614e-08,5.275816892182642e-08,5.791201559498682e-08,6.373516556262512e-08,7.037531113067553e-08,7.801994094915555e-08,8.690745398906754e-08,9.733975802090273e-08,1.0969400170038037e-07,1.244276522377107e-07,1.420660105206986e-07,1.631574766961134e-07,1.8818749397825575e-07,2.172454131724743e-07,2.500409633032383e-07,2.8597753494373475e-07,3.2425015095989275e-07,3.639492619021328e-07,4.041550024250287e-07,4.440117060097076e-07,4.827785336301943e-07,5.198570057635817e-07
R4,0.0,0.0,0.0,7.03203213575307e-08,2.926168150606772e-07,7.220248144670333e-07,1.3843464134515056e-06,2.283466885570164e-06,3.409783453173272e-06,4.746832041008498e-06,6.275728289541726e-06,7.977817589257094e-06,9.836066376837476e-06,1.18356494558369e-05,1.3964064443433312e-05,1.6214379937093964e-05,1.858581109999422e-05,2.1082820523585446e-05,2.3714213789732635e-05,2.649267885126843e-05,2.9434711655323992e-05,3.256084445386976e-05,3.589614304793755e-05,3.9470973013602355e-05,4.3322066066089803e-05,4.749394912517748e-05,5.204083335837908e-05,5.702910200763083e-05,6.254058740843371e-05,6.867689089918528e-05,7.556507085969088e-05,8.336508708248192e-05,9.227939469422308e-05,0.00010256490585103617,0.00011454691544539569,0.0001286330180088668,0.00014532183916005938,0.0001651963710019717,0.0001888871886344682,0.00021699394583313982,0.00024979744152421146,0.00028718660063498666,0.0003287019743346352,0.00037361688502183507,0.00042103510519486925,0.000469988244917236,0.0005195201598664446,0.0005687512542959774,0.0006169207597147835,0.0006634087749045984
G4,0.0,0.0,5.430820636981065e-07,1.4762012812090044e-06,2.697118617020428e-06,4.136233020853263e-06,5.745618249690385e-06,7.492040534717752e-06,9.352347564878355e-06,1.1310353416899473e-05,1.3354705342103292e-05,1.547741147195492e-05,1.767282024690751e-05,1.9936911340745887e-05,2.2292954752797326e-05,2.475983386926577e-05,2.735624761400894e-05,3.0102318395352825e-05,3.3021497994134375e-05,3.614131986889943e-05,3.949441417780738e-05,4.311977146728735e-05,4.7064342594314485e-05,5.1385099255189256e-05,5.615171661575572e-05,6.145009146307725e-05,6.738697984506179e-05,7.409612725032569e-05,8.17463637328719e-05,9.055221524905859e-05,0.00010078755433114626,0.00011280246424093478,0.0001270423421790107,0.00014406537122312448,0.0001645483611380257,0.00018926056143815515,0.0002189741604576642,0.0002542860233436289,0.00029537625374577295,0.0003404703369754089,0.00038810554424991074,0.00043681385652525917,0.0004852446536441539,0.0005322617738640219,0.0005769894006475254,0.0006188145348405,0.0006573618546402883,0.0006924548514856538,0.0007240730240403247,0.00075231109722322
H4,28192.539299106396,28662.414954091502,29130.23956455088,29596.14120978013,30060.23711610656,30522.635093945715,30983.43422743597,31442.725514593218,31900.592461522574,32357.111633971414,32812.353169273396,33266.381251515304,32370.48437045396,31470.903533030854,30568.02328771255,29662.268728249364,28754.110171787215,27844.067960467448,26932.71737698828,26020.693653111655,25108.697035633897,24197.497856309044,23287.94152999595,22380.953378272676,21477.543143368202,20578.809019109915,19685.940981587475,18800.22315280554,17923.034876917118,17055.850132963187,16200.234854125214,15357.841676921144,14530.401612346126,13719.7121248704,12927.621136888485,12156.00655962867,11406.751100676724,11810.70168462342,12211.888841684204,12610.33441010595,13006.059934930207,13399.086679629156,13789.43563697706,14177.127539211351,14562.182867533671,14944.621860997564,15324.464524826222,15701.730638200537,16076.43976155489,16448.6112434154
E_Om,0.0,0.0,0.0,0.0,0.0,0.0,0.0,0.0,0.0,0.0,0.0,0.0,0.0,0.0,0.0,38.0094548920902,51.65764814119832,61.96126076775807,74.08295462440383,89.7823113509618,110.34798885658893,137.35201891620423,172.9656503115715,220.25730200251263,283.60473579345523,369.312567617735,486.5538117122816,648.8164960243195,876.1340501750107,1198.5151931473692,1661.147516989392,2332.0292689281905,3312.3588341982604,4748.449894186229,6839.603952948198,9828.173644184611,13950.892904440214,19343.11914474963,24933.935643454737,30769.80713492773,36446.22454416471,41625.42757097967,46050.785685703624,49561.0223969884,52085.50804018267,53629.044178039585,54252.612231331485,54054.31483128276,53152.82057811014,51674.25774296284
I_Om,0.0,0.0,0.0,0.0,0.0,0.0,0.0,0.0,0.0,0.0,0.0,0.0,0.0,0.0,50.0,31.886482894479236,27.256593234357624,26.78935281037867,28.36769895003831,31.581654433919844,36.490189801538165,43.36558084180311,52.667737670669794,65.08534961978036,81.61638273143461,103.69447329542663,133.38198344014148,173.66457646815,228.90250935212066,305.5245957795735,413.09535995385056,565.9431806504842,785.5883777173894,1104.183631288408,1568.8778257098936,2246.0326132716878,3222.101939913386,4595.330021279106,6453.019103872192,8655.827225445384,11123.353253616386,13730.660668171167,16336.566566274927,18804.3012231686,21017.273589198543,22888.268217281948,24362.53960937753,25416.279840050604,26052.17067685192,26293.53227571757
A_Om,0.0,0.0,0.0,0.0,0.0,0.0,0.0,0.0,0.0,0.0,0.0,0.0,0.0,0.0,0.0,0.0,4.4811990608677785,9.675238759257502,15.045235090541286,20.770342972357,27.20133565936675,34.77076060112791,44.00999351952003,55.60011861584175,70.44776050863912,89.79434368702444,115.37630277453164,149.66425593307548,196.22489514020845,260.27345436429187,349.52005742515473,475.4602829656012,655.3073803147254,914.7629305865948,1291.638136444087,1839.679000828567,2630.4549640754544,3749.131789139652,5279.800313224481,7163.47538363799,9358.446929006961,11783.656503297594,14334.436438167824,16896.79664047768,19360.531028184134,21629.147713131555,23626.01927443186,25297.033299304116,26610.465859197626,27554.928478103415
IH_Om,0.0,0.0,0.0,0.0,0.0,0.0,0.0,0.0,0.0,0.0,0.0,0.0,0.0,0.0,0.0,8.113517105520762,9.22287552363991,9.025151595199956,8.85066809146154,9.019719591147291,9.625605945387584,10.724452949517989,12.388449660825737,14.728248190753234,17.91081779636361,22.181416428029927,27.895064454195133,35.56357724684087,45.92683528212066,60.06157930827935,79.54830875512911,106.72773145274589,145.0929315341308,199.8790676456982,278.915910357094,393.7613807755787,560.9514095537605,802.7663374717043,1146.2661770616028,1619.1204399841258,2212.5251446737475,2909.0403850715315,3679.690156176852,4487.105633551253,5290.446103772945,6050.412781330143,6733.243091817026,7313.205939908929,7773.598188833617,8106.520144679664
IN_Om,0.0,0.0,0.0,0.0,0.0,0.0,0.0,0.0,0.0,0.0,0.0,0.0,0.0,0.0,0.0,20.0,32.54221788288127,42.10511860227856,50.38689034981938,58.30658065384759,66.5286227133828,75.6357492239655,86.21619446786312,98.93153058060916,114.58656310863708,134.21386895444655,159.18603120911501,191.37302544503632,233.3703003201631,288.83628592790836,362.99881024522375,463.4214630013331,601.1662001674307,792.5454509199064,1061.7056402904384,1444.2552073529184,1991.8745662057613,2777.043938928453,3895.5778407391126,5463.394888794595,7560.413213917969,10245.405864931705,13545.114177151747,17450.638720444305,21919.093022523335,26879.19660025763,32239.084732179654,37894.75895959155,43738.00221913264,49663.03575283389
D_Om,0.0,0.0,0.0,0.0,0.0,0.0,0.0,0.0,0.0,0.0,0.0,0.0,0.0,0.0,0.0,0.0,0.008113517105520761,0.017336392629160674,0.026361544224360628,0.03521221231582217,0.04423193190696946,0.05385753785235704,0.06458199080187503,0.07697044046270077,0.09169868865345399,0.10960950644981761,0.13179092287784752,0.15968598733204267,0.1952495645788836,0.24117639986100423,0.3012379791692836,0.3807862879244127,0.4875140193771586,0.6326069509112895,0.8324860185569876,1.1114019289140815,1.5051633096896602,2.066114719243421,2.868881056715125,4.015147233776728,5.634267673760854,7.846792818434601,10.755833203506132,14.435523359682986,18.922628993234238,24.213075097007184,30.263487878337326,36.99673097015435,44.30993691006328,52.0835350988969
R_Om,0.0,0.0,0.0,0.0,0.0,0.0,0.0,0.0,0.0,0.0,0.0,0.0,0.0,0.0,0.0,0.0,4.269133827670811,10.122369525117925,17.017097381484163,24.98652492981942,34.26959712463686,45.229118956112345,58.34865570282173,74.26038863723078,93.79506700599407,118.05679564796561,148.5315579651851,187.24470960418583,236.99149435868782,301.6779951121111,386.8305599205115,500.36332438900644,653.7402097387146,863.731793420096,1155.0397662611704,1564.0993500900665,2144.252045478689,2971.969988499912,4152.6682885621085,5823.1276604809045,8123.397456773164,11181.631656648544,15101.67669420052,19952.2414272758,25760.45778192781,32510.540709773395,40147.00048143233,48581.165106370085,57699.57022877076,67372.90600729316
G_Om,0.0,0.0,0.0,0.0,0.0,0.0,0.0,0.0,0.0,0.0,0.0,0.0,0.0,0.0,0.0,0.0,6.92163740675928,16.3286523385555,27.611986485747636,41.10271797314481,57.4523500969522,77.54705468029435,102.55927531653792,134.05684660978363,174.16637159457167,225.81165705249515,293.0645995129035,381.66752931313783,499.8189877266856,659.3656645270636,877.6189285375532,1180.1189466088933,1604.788573345106,2207.9791972697694,3072.6863735508273,4318.199067761989,6107.939397604771,8648.439451057548,12170.880312569676,16711.42587254769,22314.70139092944,28951.669794086833,36531.786829850986,44917.77504561865,53942.988048913176,63427.91757038374,73193.92971986899,83073.49550950981,92916.9507391403,102596.24112182803
beta,49.204085029925686,49.204085029925686,49.20408501875108,49.20408500762706,49.20408499645245,49.204084985188985,49.20408497382314,49.204084962351004,49.20408495077229,49.204084939089064,49.204084927303356,49.2040849154175,49.204084903434506,50.373881667432215,51.61462116225082,52.934174083720485,54.31843245364184,55.80696606543778,57.403578752395205,59.1190509298169,60.96724348170925,62.96433009880001,65.12877650267636,67.48143258180059,70.04549841487993,72.8461453194419,75.90943963145793,79.25993682154956,82.91580878591093,86.87950277834419,91.12056051215237,95.5454158470968,99.94780720561732,103.93709430341082,106.8613017322607,107.79362848069943,105.72301934900872,100.05105848832545,84.70574190848015,71.60740155002868,60.62503907969244,51.724311113954265,44.6274764379584,38.999690283631836,34.53047489284382,30.961962298496264,28.09102314697721,25.76162708912241,23.855134095804857,22.28148097163969
