series,2021-12-01,2021-12-02,2021-12-03,2021-12-04,2021-12-05,2021-12-06,2021-12-07,2021-12-08,2021-12-09,2021-12-10,2021-12-11,2021-12-12,2021-12-13,2021-12-14,2021-12-15,2021-12-16,2021-12-17,2021-12-18,2021-12-19,2021-12-20,2021-12-21,2021-12-22,2021-12-23,2021-12-24,2021-12-25,2021-12-26,2021-12-27,2021-12-28,2021-12-29,2021-12-30,2021-12-31,2022-01-01,2022-01-02,2022-01-03,2022-01-04,2022-01-05,2022-01-06,2022-01-07,2022-01-08,2022-01-09,2022-01-10,2022-01-11,2022-01-12,2022-01-13
S,1102102.6095382057,1102102.5303066738,1102093.9147770624,1102564.3205170336,1103031.6309525275,1103496.2779919489,1103958.3312997068,1104417.6544815765,1104873.9819821466,1105326.9529620523,1105776.1220804537,1106220.9573601626,1106660.8299788502,1107094.9979958627,1107522.5844969,1107942.5497548988,1108353.6564131614,1108754.4262111443,1109143.086294244,1109517.5026177003,1109875.0973321497,1110212.7462941892,1110484.5230010531,1110286.894272439,1110055.6580642369,1109784.0580508471,1109463.8886447423,1109085.1501175528,1108635.6437792985,1108100.4904991174,1107461.5594243603,1106696.7963303854,1105779.4448081888,1104677.1600172508,1103351.0255237056,1101754.5004746339,1099832.3487063313,1097519.6346157277,1094740.9127871778,1091409.787027145,1087429.0630786782,1082691.7556863644,1077083.2165771013,1070484.603072891
E,77.52579866324822,62.01583725505561,57.10466285356181,57.58601007780981,61.007745390173994,66.2177354904115,72.69914012570864,80.24576208267739,88.80632222230652,98.40992420414776,109.13065547855959,121.0711265269658,134.3552304824327,149.12544164663726,165.5423964834301,183.78567013905345,204.05522568920426,226.57328456230243,251.58649512023672,279.36833422592184,310.22169799845364,344.48163857984883,382.5181901237602,424.72150586068256,471.32818385337254,522.8170078915646,579.683474576215,642.4485142759357,711.6610854232351,787.8964778329062,871.7507592481054,963.8309972177534,1064.740369018691,1175.0568965923135,1295.3042719344453,1425.9130994006518,1567.1709615018522,1719.160156855302,1881.6829553348925,2054.175980558177,2235.6180343084407,2424.4393284153584,2618.4443599383353,2814.764718882786
I,0.1473969241335143,14.14514712944564,22.263083961639687,27.710100080001098,32.04844510188442,36.053637389568195,40.122440451616505,44.47098205502666,49.23062727678234,54.49462248924616,60.34101069950024,66.84411001054696,74.08049325883161,82.13234462720976,91.08959048487417,101.05148661547786,112.12799753095999,124.44113526012124,138.1263427301424,153.3339659101436,170.23083739529233,189.00198120486797,209.85243860842758,233.0092045576062,258.7200492175025,287.22116778656937,318.78355072335603,353.70836972583413,392.3249548868124,434.98968542257774,482.08481686535447,534.0165606944233,591.2118159651641,654.1129237346147,723.1697246356836,798.8280802214889,881.5139001040229,971.6116388479552,1069.4362456608164,1175.1977451305884,1288.958099052141,1410.5808570378554,1539.675433701492,1675.5396611174212
A,0.016379367080838966,1.5748089156231464,2.7589877733495314,3.7970331678156306,4.803236893200469,5.838005372428242,6.936158762831637,8.120730485217722,9.409685888785146,10.819240458217942,12.365546348765017,14.065599567189647,15.937779830915874,18.002223224957923,20.281125624323078,22.799025553077843,25.583091345282824,28.6634259646135,32.073397246395075,35.84999854125924,40.03424322984552,44.67159555836796,49.81243927858256,55.51258437428038,61.8334546172587,68.83877494034314,76.59934987372273,85.19311646450895,94.7053704625482,105.22903563146855,116.86488816612183,129.72166045043895,143.91594402176554,159.57179696930103,176.81993938495344,195.7963942793545,216.64040342354082,239.4914223537657,264.48498345345627,291.74722135352,321.38789550327033,353.4918381390012,388.10891893903664,425.2428600718164
IH,0.0,0.005946335149016481,0.5765240062496448,1.4678331115921701,2.568319745173744,3.8307774247447077,5.2398455872394605,6.796352155597211,8.509834333905097,10.3950158217122,12.470207523157335,14.756651676202164,17.278336826034643,20.062056224737947,23.13760095212842,26.538036709905224,30.300041366475124,34.46429414441632,39.07591420339879,44.18494983188803,49.84692122845793,56.12342073309982,63.08277471742666,70.8007712852702,79.36145746548091,88.85787941066165,99.39150873815552,111.07354635553344,124.02602468696668,138.38281522481657,154.29057938462233,171.90966077251147,191.41488940130947,212.99624451778456,236.85929795240892,263.2253317966021,292.3309916090386,324.427299351286,359.7778105411729,398.6556616410092,441.3392235578572,488.1060663836036,539.2249644803405,594.9457483691091
IN,0.026411676347038254,0.05158166887178654,2.583789268082414,6.451583244476083,11.113578672043799,16.333778081166365,22.026242020888102,28.18016631887943,34.823982115553484,42.00832289789606,49.79815031473925,58.26935631941575,67.50758185079846,77.60816252720944,88.67667835626251,100.82985942110481,114.19673339924832,128.91996628916223,145.15737999979564,163.08364647872358,182.8921659844049,204.79714081418712,229.03585701917788,255.8711860146758,285.5943155674198,318.5271412250301,355.0187485722255,395.45036982748104,440.2392806422514,489.8421512328724,544.7580411992681,605.5310433968157,672.7524594067295,747.0622870807383,829.1496982112819,919.7520705622637,1019.6520085758074,1129.6716420075786,1250.6633395121862,1383.4958325448815,1529.0346449292156,1688.1157126647156,1861.5112219604484,2049.8870684860094
D,3384.0,3384.0,3384.00001103839,3384.0010812600776,3384.003806050048,3384.008573711867,3384.015684918056,3384.025411826784,3384.038028133122,3384.053825236391,3384.073121868026,3384.096270750636,3384.1236640395396,3384.1557384208304,3384.192980317856,3384.2359314561845,3384.2851949424053,3384.341441969519,3384.405419244789,3384.4779572317543,3384.5599793003435,3384.6525118845716,3384.756695754472,3384.8737985167095,3385.0052284660615,3385.1525499167437,3385.317499907802,3385.502003843597,3385.708193554624,3385.938427404439,3386.1953122669343,3386.4817272687173,3386.800849187847,3387.156179345449,3387.551571727776,3387.9912619312613,3388.47989632603,3389.0225605756364,3389.624806324489,3390.292674464325,3391.0327129196567,3391.85198636465,3392.7580747365487,3393.7590569078484
R,0.0,0.0018968585055235262,0.06737367208061722,0.3049693761132863,0.7748354937059674,1.5151277057951529,2.5548510039901298,3.9202093340381694,5.637828324714632,7.736484216408761,10.248129524161632,13.208599982404682,16.65819147573807,20.642201176806417,25.21148162138153,30.42303469491276,36.34066228016292,43.03568571471907,50.58774436437537,59.08568313804687,68.62853896592915,79.32663678875855,91.3028062744147,104.69373116866086,119.6514437994763,136.34496344671248,154.96192203628175,175.7102098565471,198.81986945285203,224.5451927908982,253.16699681393217,284.99505827978396,320.37068596653535,359.66939931374196,403.30366792142814,451.7256457572351,505.42980667016604,564.9553530054371,630.8882261122743,703.8624963669768,784.560852332815,873.7138472985782,972.0975031787369,1080.5288270037536
G,178928.0,178942.0301082168,178953.25332581464,178963.5877514295,178974.00928809337,178985.05006786794,178997.0337173217,179010.1903286797,179024.71267795403,179040.78426099606,179058.59384064563,179078.34358760132,179100.25424233035,179124.568966663,179151.5567064897,179181.5154786298,179214.77579822933,179251.70436843426,179292.7081085602,179338.23857471842,179388.79681506063,179444.9386938825,179507.28071100859,179576.50633260646,179653.3696322045,179738.66750128954,179833.28347848405,179938.19077412027,180054.45687307624,180183.2486071098,180325.8369201391,180483.60062849458,180658.0284115919,180850.71810789572,181063.3721624732,181297.7877947181,181555.84015196312,181839.45642632904,182150.57870379792,182491.11328645662,182862.8645202464,183267.45194138397,183706.2109961666,184180.07980323557
H,9621.72123781184,9621.72123781184,9621.72123781184,9281.703414977894,8946.352681518447,8615.939011289986,8290.746608445404,7971.074909557448,7657.239464465207,7349.572639037653,7048.424066621407,6754.160755502101,6467.1667373493665,6187.842116870294,5916.601357005369,5653.870609247933,5400.0838787804305,5155.677804679875,4921.084844191166,4696.724686884145,4482.9938007782475,4280.253139422167,4105.5055448613975,4105.505544861398,4105.505544861398,4105.5055448613975,4105.5055448613975,4105.505544861398,4105.505544861398,4105.505544861398,4105.505544861398,4105.505544861398,4105.505544861398,4105.505544861398,4105.505544861398,4105.505544861398,4105.505544861398,4105.505544861398,4105.505544861398,4105.505544861398,4105.505544861398,4105.505544861398,4105.505544861398,4105.505544861398
S0,385735.91333837196,384867.9639606972,383477.82139987574,382257.8660291519,381037.4088664905,379816.5857094134,378595.32060985,377373.41710811417,376150.603029357,374926.55085857835,373700.8854244436,372473.1848488218,371242.97766341723,370009.73741504777,368772.8752592097,367531.7305920437,366285.55949270993,365033.5205365168,363774.6573369117,362507.8769479167,361231.9229854137,359945.34198990965,358639.3976647123,357251.4806602699,355853.41877201834,354442.429798805,353015.1729236094,351567.61948237306,350094.90347538836,348591.14576688415,347049.2477026777,345460.65119919716,343815.06413021986,342100.1526687342,340301.20669845014,338400.7910808333,336378.40500107553,334210.18416241364,331868.6960672751,329322.89582543145,326538.32608223805,323477.6548860223,320101.64260552655,316370.6052464463
E0,77.52579866324822,61.98027664627653,53.69932895134919,49.53405472063726,47.903999579061896,47.989812973659916,49.359158966984936,51.780532177281174,55.13134341593214,59.3519198520204,64.42206577548983,70.34885678007899,77.16014220863387,84.90103934557199,93.63206829183113,103.42824397881287,114.37877041582098,126.58714533951176,140.17156472814696,155.26555664368482,172.01879201462023,190.59802539278047,211.18811536020775,233.98381705503292,259.0991900953267,286.7737920141173,317.25371433595205,350.7959427838861,387.6693454282485,428.1533169119239,472.5343391756743,521.1002869247764,574.132034053851,631.8917286582301,694.6069772901902,762.4501286205285,835.5119180931753,913.7690025668331,997.0454750701664,1084.9694102214191,1176.9269278714178,1272.0181616236187,1369.0216859213783,1466.3759305086505
I0,0.1473969241335143,14.14514712944564,22.256648436975272,27.088802452991153,30.106350968911407,32.16646114203727,33.78984576437925,35.30466436402388,36.92513936777826,38.79627962073357,41.02046101515668,43.673930001640144,46.81747516004995,50.50358015842157,54.78137196655287,59.700145251408415,65.31194874151002,71.67354847428737,78.84797899097535,86.90582720439076,95.9263491280883,105.99848818036818,117.22184019221464,129.70759123378662,143.57776422549577,158.94823618335317,175.95279921362294,194.7404100960763,215.4738327471073,238.3287575312484,263.49286855084324,291.1644932761248,321.5505180625538,354.86324226020827,391.3158010286011,431.11573075077,474.45619792404796,521.5043839535932,572.3865444627797,627.1693837235804,685.8376538301615,748.2683582613301,814.2026500016323,883.2174611098517
A0,0.016379367080838966,1.5748089156231464,2.7582726307408514,3.7278635690665105,4.574905006970632,5.3552835182447485,6.106172641718924,6.854564470814578,7.6217157198185665,8.425567501170121,9.282143230690462,10.206419241180997,11.212915106055114,12.31612968077102,13.530889198967639,14.872643936106012,16.357734746486294,18.00364278993869,19.829231374002443,21.854986257412744,24.10325908834712,26.59851741041274,29.367603587509862,32.44000389262164,35.84794177641637,39.624645550646854,43.80683202300487,48.43469835930121,53.55200195722201,59.20615699732802,65.4482998666688,72.3332827998236,79.91955325422961,88.26886931127078,97.44579066561431,107.51687191202006,118.54947148417955,130.61007821609715,143.76205194552688,158.062680534689,173.55948071561446,190.28572309729466,208.25525067624721,227.45678921661113
IH0,0.0,0.005946335149016481,0.5765240062496448,1.4675734875414013,2.5429986063181484,3.727407905692713,4.980883924985509,6.28498925053761,7.634743790979126,9.033868732816288,10.491891136872542,12.02235518848076,13.641720446016418,15.368703668343692,17.223917012887576,19.229710145861056,21.410156406826285,23.79114347725745,26.40054217606367,29.26843583260594,32.42739873437389,35.912816324708636,39.76324268486362,44.0207927082549,48.73156745901098,53.94604409380527,59.71877603672042,66.10906738553544,73.181528363714,81.0065694204898,89.6608539436416,99.22770797698288,109.79747060297859,121.46775607817372,134.3435859480666,148.53733494125643,164.1684179189164,181.36262668897234,200.25100609885277,220.9681407116093,243.64971039717253,268.4291712041842,295.43343489663516,324.7774660207456
IN0,0.026411676347038254,0.05158166887178654,2.583789268082414,6.450430079336721,11.001150993889162,15.878637069294491,20.895965279835387,25.9683055412398,31.073617922456023,36.229284615345264,41.47785439085252,46.87822016120687,52.50016853039655,58.42109779630656,64.7241719687252,71.49744822960835,78.83367694114207,86.83057449995694,95.5914351529847,105.22599200483913,115.85146759989831,127.59377521753218,140.58884615849615,154.98406754932208,170.93982059838498,188.6308115365952,208.24429689079736,229.98270361967988,254.0656332299459,280.7315284200534,310.2391035622502,342.86854080383864,378.9223879671899,418.7260407239716,462.62763839701057,510.99714448672955,564.2243174275793,622.7152050721188,686.8867226797901,757.1588086251927,833.9436114195828,917.6311711329616,1008.571151573555,1107.0503957830645
D0,3384.0,3384.0,3384.00001103839,3384.0010812600776,3384.003805568099,3384.008526225402,3384.015445543135,3384.0246917322665,3384.03635877775,3384.050531419821,3384.0673013064825,3384.086777771155,3384.109095289804,3384.1344188928488,3384.1629483552833,3384.194921715171,3384.2306184990425,3384.270362921611,3384.3145272537995,3384.363535504106,3384.417867525767,3384.478063640808,3384.5447298584913,3384.618543757369,3384.700261095345,3384.7907232093403,3384.890865138789,3385.001723192556,3385.124443767776,3385.260293199805,3385.4106685293787,3385.577109110162,3385.7613089768715,3385.965129863824,3386.1906147100963,3386.440001409935,3386.7157364627287,3387.0204880418505,3387.3571578324095,3387.72889078265,3388.1390816748512,3388.591377158583,3389.0896716225475,3389.638095046196
R0,0.0,0.0018968585055235262,0.06737367208061722,0.3049407704089391,0.7719832943847406,1.497603489013366,2.4955868021144667,3.7720186894439016,5.32989182370263,7.171963188204522,9.302561806666432,11.728753243368057,14.461106273613757,17.514215909201468,20.90708298819802,24.6634172859191,28.811909893098907,33.38650671502619,38.426705694055634,43.97789415689188,50.09173854604448,56.82663606401376,64.24823599585294,72.4300373628935,81.45406885686533,91.41164907595494,102.40414393856886,114.54373700953467,127.95432942457204,142.77254278319538,159.14880919812467,177.24853573963432,197.25332895470882,219.36226027777815,243.79314534719327,270.78379938380834,300.5932165330481,333.5026030337905,369.8161720140355,409.86158176817406,453.9898704003864,502.5747097102665,556.0107737321861,614.71099799054
G0,178928.0,178942.0301082168,178953.24689028997,178962.96504101332,178971.9293878518,178980.59873805134,178989.2836181936,178998.216313551,179007.58721307732,179017.56452034277,179028.30563972183,179039.96432070242,179052.6955932668,179066.65952738782,179082.0243580671,179098.96927283547,179117.68703493167,179138.38655114835,179161.29545861649,179186.66278479647,179214.7617221775,179245.89254970723,179280.3857244733,179318.6051580515,179360.95000751928,179407.84007171215,179459.73850300958,179517.15298981353,179580.6377281089,179650.7955718523,179728.27993800186,179813.7960891297,179908.10138547525,180012.00401798473,180126.3596194393,180252.0650133542,180390.04821377154,180541.2536554362,180706.6215486051,180887.06026905062,181083.41088394017,181296.40336445672,181526.60482989205,181774.36135398885
H0,3367.602433234144,3360.025327759367,3347.929236579433,3168.3525456825114,2992.6002544643598,2820.778422623815,2653.000373586165,2489.386845085359,2330.0660582777123,2175.173673951023,2024.852596805666,1879.2525800924768,1738.5295732877116,1602.8447454110903,1472.3631068655384,1347.2516446375544,1227.6768813745143,1113.801771112442,1005.7818570209909,903.7606439801109,807.8641859141,718.1949586980396,641.8686658588923,639.5579386618003,637.2555300826178,634.9614101743205,632.675549097693,630.3979171209413,628.1284846193059,625.8672220746764,623.6141000752076,621.3690893149369,619.1321605934031,616.9032848152668,614.6824329899318,612.469576231168,610.2646857567358,608.0677328880116,605.8786890496148,603.6975257690361,601.5242146762675,599.358727503433,597.2010360844206,595.0511123545167
S1,110210.26095382057,103205.9935777076,97218.49084593984,91693.34824540239,86555.31348050953,81777.01800625006,77332.97976681533,73199.49625331968,69354.53100444497,65777.60126226585,62449.67028887704,59353.04572902695,56471.28439103853,53789.10335472682,51292.29711374185,48967.660380278,46802.91615537971,44786.648666552406,42908.24078118593,41157.81551233593,39526.18123925658,38004.780267092036,36584.9218400131,35253.26133279627,34010.57635586574,32850.28090033132,31766.213447995673,30752.596487614534,29803.997546972663,28915.291110509537,28081.621017717483,27298.36307335253,26561.087740737097,25865.52298222411,25207.517591600197,24583.005763411657,23987.974189837874,23418.43367729765,22870.39810945768,22339.874468163005,21822.86838681982,21315.410067848054,20813.604959350858,20313.71193474927
E1,0.0,0.012477406589150149,1.1314892381695323,2.585498011386282,4.0638455194813226,5.454305431638435,6.730065966587524,7.8987320877847,8.980055348712616,9.996537347800023,10.969749634603984,11.919144754692155,12.861912331832293,13.813238965248472,14.786693945229734,15.794625678680898,16.848525781154432,17.95934878908748,19.137787981002084,20.394512117531328,21.74036863223892,23.186557971201893,24.744782254728708,26.426426322234583,28.23375009832875,30.18089394608041,32.281466658366135,34.54907854399174,36.99751265163462,39.64067986495317,42.492412658258424,45.5661066080069,48.87419424382803,52.42742184008512,56.23389229566861,60.297835996532314,64.61807857861926,69.18619369299061,73.98436531551108,78.98304297699673,84.13855741740244,89.39097054620898,94.6625484472295,99.85734084637991
I1,0.0,0.0,0.0022580788296203704,0.20653183015210705,0.629098340878373,1.2264405176224575,1.9442845822190846,2.7354192465319684,3.5643738013923394,4.407038919934584,5.248670181071023,6.081663879850062,6.903605944371297,7.715723128206482,8.521721246670763,9.326948259076717,10.137812821825069,10.961396377373188,11.805208260633592,12.677044483109604,13.584920361765956,14.537054710002996,15.541889050011484,16.60812951126193,17.744631321926295,18.958714710319136,20.258651926520184,21.653362045193077,23.15226924268208,24.765223173484706,26.502428699867068,28.37435372318036,30.39159237205849,32.56466300590375,34.903719681120954,37.418153745791685,40.11606045497519,43.00354538565501,46.083848813851105,49.356275451907464,52.81493479929897,56.447326520729874,60.232847275837614,64.14134899868597
A1,0.0,0.0,0.00025092723111590107,0.02299573583378033,0.07407163583485935,0.1528348483809166,0.25641041503558015,0.3814991766294113,0.5250868801881615,0.6846770570204274,0.8583256162014634,1.0446000456888984,1.2425163348789672,1.451475525997376,1.6712080301055088,1.901727927410827,2.143297067891881,2.396397929981223,2.6617139944828105,2.9401164504426034,3.2326561937512,3.5405602320769756,3.8652317396629066,4.208253099597125,4.571372354772915,4.956313074644333,5.365014256050783,5.799611015964506,6.262426777171404,6.755969209928473,7.282925432893882,7.846153258337578,8.448665578150397,9.093604793279315,9.784203721881926,10.523728822962289,11.315400972458301,12.16228859418942,13.067167916698391,14.032345829738974,15.059442671945039,16.149135756540346,17.30086991758868,18.512548925714828
IH1,0.0,0.0,0.0,9.109615816446052e-05,0.008421991038404712,0.03370142788877964,0.08277931406168129,0.16023481054684813,0.26868817231698594,0.4092976163467035,0.5822350008507546,0.7870753221302823,1.0230918643692366,1.2894691387590618,1.5854508154112399,1.910439033064403,2.264058768117459,2.646197983550473,3.057031652586489,3.49703561793921,3.9669945897620225,4.468007330861283,5.001491142658328,5.569187073034907,6.173166752714544,6.815834490703476,7.499861404429575,8.228220663109322,9.004210000887625,9.831468245619176,10.713988439478198,11.65612796913302,12.66261485751316,13.738548461671526,14.889392013362672,16.12095360793952,17.439351346056217,18.850957370686796,20.362314586831488,21.980019043967655,23.71056053614045,25.560114274793147,27.534277962482207,29.637751746005
IN1,0.0,0.0,0.0,0.00040461934714465064,0.037393505414049184,0.1483620526124076,0.36114988123348285,0.6925626173230377,1.1501561398309765,1.7347752002560668,2.4429047476882113,3.2685529682450416,4.204647250937896,5.244014915866213,6.38004030889315,7.607082831076801,8.920725350273559,10.317906746266383,11.796978715809043,13.357716025257094,15.001300977087027,16.730296534626383,18.548617877483736,20.461508736846795,22.47552635100441,24.598506430464358,26.83922800085866,29.20753964550225,31.714425125450695,34.37204051961972,37.1937353513126,40.19406012996293,43.38875702285015,46.79472645040719,50.42995905673566,54.31341917674522,58.46486239258832,62.90456609142221,67.65294840864934,72.73004818504232,78.15483759485366,83.94434137581923,90.11254398405828,96.66908056920468
D1,0.0,0.0,0.0,0.0,1.6910498623585416e-07,1.5803141671479314e-05,7.836428161518447e-05,0.00023203041910192736,0.00052947990520551,0.0010282551619992366,0.0017880486502572287,0.0028688718571716924,0.0043299473206959895,0.006229148550783328,0.00862283523697423,0.011565963067170025,0.015112377898490894,0.019315229418622674,0.02422745933701045,0.029902334172016293,0.036394003765483435,0.04375807464417314,0.0520521930066944,0.061336636037881934,0.0716749128906799,0.08313437835863954,0.09578685043825722,0.10970910561478416,0.1249834395715318,0.14169826969110624,0.15994876823959805,0.17983751990701907,0.20147519815273665,0.22498125323053553,0.25048460150914553,0.2781243009455838,0.30805019126752065,0.3404234694469685,0.37541716128793046,0.41321643841792516,0.4540187169419393,0.49803346019675065,0.5454815947802356,0.5965944385014131
R1,0.0,0.0,0.0,1.0037089244636043e-05,0.0009497997390571909,0.005754855372776146,0.019180166829604096,0.04724301395898284,0.09666458010858242,0.17442690358650337,0.2874634603236189,0.4424664292389265,0.6457847474133209,0.9033882218091294,1.2208773391325158,1.6035232194613174,2.0563263876824722,2.5840864311504013,3.1914772044899866,3.883124160153937,4.663681767813128,5.537909963401038,6.51074924272977,7.5873944649026015,8.773367716955365,10.074589997619714,11.49744366962743,13.048828092704806,14.736220771717266,16.56774150235091,18.552218265807266,20.699254055957987,23.019293812168733,25.52369035193427,28.224767717225447,31.135879684318294,34.271460333932176,37.64706252666162,41.27937887680523,45.18623838915205,49.386570385223344,53.900325831801204,58.74834491982179,63.952159058235864
G1,0.0,0.0,0.0022580788296203704,0.20702754565741616,0.6749339396522744,1.410381924682102,2.397466182734241,3.6154291762872894,5.044889663996264,6.670040910520504,8.479148371537695,10.464381379627255,12.621429660890662,14.949093806274727,17.448922777387804,20.12492121658535,22.983328499539557,26.0324636787859,29.282628286683703,32.74605905468013,36.43692347622418,40.37135214181639,44.567502624887446,49.04565027149503,53.82813078091833,58.93768883870144,64.39962816012445,70.24171529013256,76.49417987767893,83.1897459370485,90.36365498259048,98.0536518387113,106.29990557297975,115.14483521025774,124.63280456533317,134.80964386224431,145.72194891240494,157.41610299855978,169.9369644583447,183.3261674027391,197.61999809352045,212.84683981752448,229.0242286609028,246.15563293785203
H1,962.172123781184,901.0226489858762,848.7599795239616,760.0022894318103,679.790086536552,607.3322138571164,541.9095615904835,482.8688370163709,429.6168539403196,381.615295779084,338.3759096809974,299.4560920348987,264.4548284072113,233.0089534259691,204.78969849280736,179.49949756749214,156.869023786926,136.65443254000164,118.6347900382613,102.6096706240332,88.3969112287857,75.83051760958021,65.4772317958072,63.11101386462727,60.90549288205066,58.84922044163018,56.93156577242701,55.142657336862484,53.47332860015055,51.91506767334073,50.45997055328523,49.10069770260703,47.83043373109744,46.642849957012444,45.5320696425608,44.49263571257021,43.519480778961686,42.607899306331525,41.75352176570469,40.95229063444726,40.200438110469555,39.49446541827058,38.83112359312075,38.20739563780175
S2,110210.26095382057,116770.39032805868,122751.50418616441,128289.64067042063,133368.22935329884,138020.10717680326,142275.75576899239,146163.4708380201,149709.51817554963,152938.2773667981,155872.3744011329,158532.80420421436,160939.04392602036,163109.1576697691,165059.89323122465,166806.77132275645,168364.16766975768,169745.38827919474,170962.7380835681,172027.58305174005,172950.40572475892,173740.85397447902,174404.36047043878,174919.29583745633,175328.87537680892,175639.83919717057,175858.18480651433,175989.16061178074,176037.24859206917,176006.13425851174,175898.66245073624,175716.77785188748,175461.44960790826,175132.58030886363,174728.90102566517,174247.8563064456,173685.48623359794,173036.3169779676,172293.27675012013,171447.66030266997,170489.17131171396,169406.07646412586,168185.50553367657,166813.9252972944
E2,0.0,0.004367092306202552,0.4476118782178985,1.1007114153324236,1.8579001662927994,2.6748730766026583,3.5384940041319375,4.450917930138958,5.421645447839371,6.463672057161552,7.591721867917255,8.821526924699691,10.169622347971254,11.653390869228991,13.291225141706654,15.102744423140585,17.109036253477683,19.3329103321682,21.7991594962734,24.534825827725236,27.569470599941084,30.93544599957376,34.66816471840393,38.804787105704015,43.368726656043215,48.40481358552802,53.95920593301261,60.08015506180847,66.81820549791887,74.22599420634008,82.35768886646531,91.26803246224591,101.01091484963005,111.63735868139308,123.19278376063922,135.71340322834158,149.22161484066743,163.72029380689435,179.18598732336164,195.56117376262748,212.7459957097858,230.59020462886477,248.88643437583897,267.3662739396455
I2,0.0,0.0,0.0007903275903671297,0.08162267552380435,0.2629035683400098,0.5414189410768205,0.9066422748520746,1.347980642508411,1.857556573962122,2.4309412930124044,3.06703011158679,3.7676255258961993,4.5369814123600065,5.381410212074531,6.308984409661996,7.329332920317741,8.453521389779484,9.694002509254837,11.064623182740537,12.580677351000105,14.25899537744478,16.118062664313022,18.178161403480413,20.461529997712503,22.992249893693447,25.79335316385064,28.89092873238118,32.31369160592582,36.09278520638544,40.261663262974004,44.85596130682841,49.9132947191598,55.47292821006855,61.575259348283076,68.2610509774383,75.57033706054706,83.54091652993985,92.20634372570464,101.5933271481065,111.71846765286261,122.58431182868706,134.1747756753035,146.45011511913128,159.34178333516633
A2,0.0,0.0,8.782453089056537e-05,0.00908602263547244,0.030858469162559,0.06698748319590939,0.11810109302923666,0.18453803107403216,0.26666681825566446,0.3650322966057309,0.48041886083614216,0.6138756394888907,0.7667261756832126,0.9405736008120281,1.1373064969162048,1.359107788717723,1.6084676375762854,1.8882006799539075,2.2014676819472605,2.5518015760461883,2.9431378079793076,3.3798488984546626,3.8667830868985402,4.409306851079959,5.013319323891398,5.684954530641251,6.431002694929392,7.258910693931689,8.176797890116504,9.193475348544869,10.318460248819163,11.561978423975768,12.93494758402598,14.448932484022645,16.11606138128961,17.948890819067252,19.96020334424178,22.162720632520287,24.568713314557463,27.189489547523625,30.03474837201896,33.11179268170889,36.424611677164286,39.97286474834506
IH2,0.0,0.0,0.0,3.188365535756119e-05,0.003324354425272548,0.01389108143924624,0.03556848298607319,0.07172282666540036,0.1252531246541134,0.19870622157110643,0.29442009828573235,0.4146604497616426,0.5617388246966487,0.7381109762448856,0.9464581995526437,1.189755661879203,1.4713317083425106,1.794921635529672,2.1647188231303427,2.585425548475433,3.062305329636664,3.60123825395595,4.208780435826234,4.892228488070262,5.659689660340508,6.520146580505623,7.483404541547625,8.560205068170474,9.762320758671056,11.102641027965234,12.595252069254059,14.255510683419654,16.100109085856722,18.14712561092907,20.416053979636942,22.927801254158176,25.70464167585943,28.7701102890253,32.14881675544243,35.86615643610207,39.947893309657694,44.41958862006041,49.305851678935106,54.6293966496921
IN2,0.0,0.0,0.0,0.00014161677150062774,0.014760716621772363,0.06117579102219919,0.15531522261128627,0.3104723381025587,0.5374173898105975,0.8450027479333956,1.2408710279415678,1.7321075992124253,2.325787713551688,3.0294162373725464,3.8512763232778613,4.80070819841657,5.888338361368722,7.126276555128399,8.528294576917267,10.109997965962199,11.888999085162405,13.885098082549113,16.12047659978978,18.619907773899,21.410984932490102,24.524319259349824,27.993209882238013,31.854065254843288,36.14672753999215,40.91474632325738,46.20561829509506,52.07099263832981,58.566830572589765,65.75349817288676,73.69576227956601,82.46264905918395,92.1271131558994,102.76545251378444,114.4563906217339,127.27973579363146,141.31451900494216,156.6365120894632,173.31504259292348,191.40905714848847
D2,0.0,0.0,0.0,0.0,5.9186745182548975e-08,6.230302197866188e-06,3.201680278051429e-05,9.804382243738371e-05,0.00023118541545772325,0.00046369717388328245,0.0008325624865465977,0.0013791048179837037,0.002148853521577794,0.0031916289594505556,0.00456181019424076,0.006318753670596956,0.008527338740264626,0.011258623278504402,0.014590599122345189,0.018609042426277676,0.02340845834675425,0.029093122893016323,0.035778227486206925,0.043591133892042534,0.05267274883396147,0.06317902880663846,0.07528260507120052,0.0891743107972653,0.10506491902264929,0.12318705667135986,0.14379727773936718,0.16717828491601527,0.1936412882575243,0.22352848416368193,0.2572156284789918,0.29511466392441715,0.33767634373206723,0.38539276958776914,0.43879973210364487,0.4984787056681859,0.5650583069671816,0.639214979261585,0.7216726160439901,0.8132007939333432
R2,0.0,0.0,0.0,3.512981235622615e-06,0.0003739305124159898,0.0023354542173041025,0.00802990452983501,0.02041142378015695,0.04310632173132827,0.08029097799715067,0.13660520837286833,0.21710288445720805,0.327235602501167,0.47286364288075,0.6602887930292051,0.8963046102384278,1.1882608300418067,1.5441396585821892,1.9726425524909863,2.4832867826016214,3.086511618789342,3.793794389157195,4.617776982468894,5.5724035976743975,6.6730707116877115,7.9367890768077185,9.382343747843183,11.030454924275888,12.90395975661454,15.028010984575173,17.43029006940767,20.141232970429066,23.19426641723418,26.626051659537662,30.476731294441166,34.79017285238628,39.61420030456547,45.00080146333435,51.00629533307866,57.69143884611474,65.12144722138932,73.36589674127943,82.49847365733838,92.59652915982805
G2,0.0,0.0,0.0007903275903671297,0.08179617595066255,0.28099567519956137,0.6172262054046112,1.1013071098010565,1.7416804391768017,2.547178238628495,3.52835190801259,4.698104687133926,6.072004488172434,7.668466305078508,9.508897548952255,11.617851443103557,14.023209792033501,16.756404964235042,19.852685612232804,23.351428337662526,27.296496586448793,31.736647702321253,36.72598883349043,42.32448201373548,48.59849803245622,55.621132714210546,63.469719103529606,72.22970332206472,81.99488486919908,92.86779545811491,104.96011401726757,118.39304536620719,133.2975972341842,149.81468437497756,168.09497417341004,188.2983677578103,210.59298603319718,235.1535035202308,262.1586481379014,291.78766814162924,324.2155674529609,359.6069401083243,398.1083086071682,439.839004458904,484.8808314145535
H2,962.172123781184,1019.4442740062545,1071.6667932908856,1063.3127441539643,1047.4184974351967,1024.9855232822738,996.9331939994931,964.1063277990969,927.2820585780704,887.1760678351143,844.4482064001395,799.7075249666167,753.5167235567902,706.3960212067979,658.8264387282476,611.2524800601441,564.0841925152869,517.6985846440115,472.4403844698259,428.62213290863383,386.52362986693845,346.3907861021988,311.856104481203,312.82047693707966,313.60435320196876,314.22136039352034,314.6841456584758,315.0044462415245,315.19315454842507,315.26037856095456,315.2154979357056,315.067216095039,314.82360859647474,314.492168046357,314.0798458046394,313.59309071000513,313.0378850381648,312.4197778909696,311.7439161998627,311.01507351408134,310.23767673185046,309.41583092150483,308.55334236898244,307.6537399783841
S3,330630.7828614617,329187.545777687,327833.4938756103,326704.7369408359,325655.68092633266,324680.4852322273,323773.734104759,322930.4156613488,322145.8986074278,321415.907641711,320736.4984865262,320104.0330130592,319515.15455263807,318966.7632344889,318455.9910253453,317980.1760276713,317536.8354973819,317123.63695764955,316738.3667098096,316378.89497782657,316043.13687431824,315729.0083490287,315408.93864451774,314828.4388475919,314253.24628393445,313680.78807039186,313108.30037193984,312532.75006929185,311950.74399881426,311358.42228236655,310751.33290800935,310124.28517248394,309471.18029329187,308784.8187515425,308056.6860461625,307276.72186882084,306433.0826003565,305511.9137640524,304497.15769548557,303370.4317625479,302111.02273519064,300696.0509670972,299100.8602609799,297299.6811367938
E3,0.0,0.007486443953490088,0.721425326609662,1.71042827433362,2.7904471356247647,3.89053329306131,4.992150596164782,6.1000836905588445,7.228949690639428,8.397124802236327,9.624173577067424,10.929914231881334,12.334233083729272,13.857230222275213,15.519502768325463,17.342478772683425,19.348765087158455,21.56249572753,24.009677419375862,26.718532889654636,29.719843200265892,33.04728944158995,36.73779198154213,40.829515539769815,45.338594129049916,50.31160163463754,55.79646679124401,61.84336049192194,68.50499177589766,75.83649387186753,83.89494716277488,92.73850938746715,102.42507423453148,113.01034417610059,124.54517787617951,137.0720590822314,150.6205402264108,165.20155281958907,180.8005654100322,197.36972774256594,214.81938229904065,233.00965259135856,251.7432025863974,270.7606291780587
I3,0.0,0.0,0.001354847297772222,0.13161622006053708,0.4122645816600752,0.826756972735684,1.3493422925444218,1.9565680229524578,2.6309960651602395,3.3616618110760363,4.143333315048051,4.975467862858994,5.861228452496822,6.8066826043848065,7.820203419424997,8.912053384888384,10.094119974113081,11.379772245340542,12.783811965808813,14.322498000169068,16.013627471567492,17.876661058726338,19.93288262403212,22.20558519356628,24.71985508045716,27.49819123283671,30.56658204500893,33.95398451189378,37.69207830388691,41.81512739553415,46.359851447696705,51.365239094467384,56.87224480879255,62.923309556262595,69.56163791382158,76.83015383387087,84.77004661249522,93.41881147391025,102.80769063753746,112.9584379194566,123.8793719018159,135.56075936354213,147.96968989010026,161.04476530737804
A3,0.0,0.0,0.0001505563386695406,0.014652778115613784,0.04846428221930864,0.10264307540966487,0.17677803003866355,0.27010169179614085,0.3819735262927966,0.5120725783991846,0.6604602863878111,0.8275890844599824,1.0142918642462861,1.221768126042443,1.4515736135427566,1.7056160596627379,1.986157817410997,2.295825381395831,2.6376255342345925,3.014967796215643,3.4316928807487157,3.892106896105812,4.401021050729872,4.9637965928086025,5.586347833254693,6.2746769740555495,7.035482754529649,7.876159836570848,8.80481605873284,9.830294952621763,10.962195066903634,12.210878924921426,13.587464131903756,15.103787861499391,16.77233400652118,18.606109898641865,20.618456946848386,22.82277721877432,25.23215653780032,27.85886505920888,30.71371983818798,33.8053021877138,37.139037178251854,40.7161643456843
IH3,0.0,0.0,0.0,5.46576948986763e-05,0.0053637144468533645,0.021931832915968646,0.05502510011478962,0.10880830644800249,0.18645073338531526,0.29038059237144065,0.42255496699519257,0.5846966678580311,0.7784861847417996,1.0057116854440569,1.2683849142946875,1.5688315538111866,1.9097637247435109,2.294340959999952,2.726224670500189,3.209629993487312,3.7493780099870406,4.350950617378872,5.020549806147863,5.7651626735917665,6.592633169562138,7.51172428258705,8.532002762981223,9.663970365446994,10.91917252347782,12.3102958140734,13.851258684645146,15.557295915477232,17.44503454831984,19.532556685590084,21.83944220705335,24.386781817320724,27.197147811741406,30.294506529881005,33.70405279960707,37.451943110771566,41.56490142900209,46.06967045881619,50.99228316966664,56.357136188944125
IN3,0.0,0.0,0.0,0.00024277160828679035,0.023815330769296678,0.0965683398913233,0.24017286192345402,0.47066687133921287,0.7991319578664222,1.2330040477989175,1.7774047646006323,2.4362774515578782,3.2132828172339174,4.1124762399406505,5.138809667170919,6.298502596519636,7.599321039041882,9.050795990583339,10.664405936500565,12.45374201839611,14.434669806019654,16.625498006883568,19.04716169604865,21.7234255351329,24.681110762733145,27.950272831035242,31.56358573345935,35.55684416490483,39.96934874511597,44.844229064968516,50.22872675108036,56.17444217609531,62.737536113815935,69.97886759611633,77.96403939601485,86.76331184122336,96.45133356560387,107.1066243745026,118.81073131933145,131.6469659187297,145.69862100359157,161.04656417055833,177.766117142527,195.9231634332845
D3,0.0,0.0,0.0,0.0,1.0146299174151249e-07,1.0058313818213048e-05,5.07711427465887e-05,0.00015291616164781586,0.0003549008285644773,0.0007010158496377743,0.001240059504886992,0.0020244630770838616,0.0031098559626079455,0.004554987109828201,0.006421924905571655,0.008776472208064238,0.011688749121374456,0.015233910354227394,0.019492975766851054,0.024553762024691707,0.030511910499965236,0.03747201210630533,0.04554883399528573,0.05486865629045115,0.06557072950856785,0.0778088651650041,0.09175314181738643,0.10759139711673113,0.1255309634888087,0.14580060555160657,0.16865263845995293,0.19436521466967047,0.22324476749235198,0.2556285955990408,0.2918875641002654,0.3324288849225447,0.37769892140541883,0.42818593863018367,0.4844226912329531,0.5469887038904838,0.6165120564869695,0.6936704375391817,0.7791911789821266,0.8738499386630083
R3,0.0,0.0,0.0,6.022253546781625e-06,0.000604093308048138,0.003715925148437495,0.012580906560190204,0.031493457698529674,0.06551293728496298,0.12022575121822932,0.20157933251229038,0.3157839240968322,0.4692704817763531,0.6686921818959028,0.9209587169677389,1.2332949313288966,1.613317631070264,2.0691263390277777,2.6094053113056592,3.243535324359227,3.9817146434863764,4.835089257050521,5.815892958998706,6.937598226492211,8.215079099137675,9.664785568034238,11.304908330998744,13.155537796445405,15.238847983021333,17.57930030654971,20.203864429562977,23.142254098705642,26.427175783591302,30.09458719959393,34.183961519125134,38.73855123439538,43.80564316758349,49.43679295610202,55.68802341374915,62.619966484962,70.2979231871912,78.79181028317441,88.17595702186524,98.5287110648656
G3,0.0,0.0,0.001354847297772222,0.13191364936372255,0.44145568826909376,0.946452424338288,1.650535504602272,2.5539820257149737,3.6579349779687815,4.966182660705827,6.485838977916651,8.227558497248905,10.205582356633187,12.43775058862708,14.945540807574051,17.754158159024595,20.89268569597203,24.394297710491315,28.296536109811722,32.64164932699667,37.47699335827217,42.8554947536273,48.83617544486009,55.484738968681874,62.87379566129461,71.07887568622398,80.18393784186915,90.28161475323007,101.47361864295034,113.87120066828757,127.59558963495046,142.77834438024442,159.5615487458443,178.09776379171814,198.54963124421135,221.0889968955682,245.89539496671904,273.15370788304176,303.0507963827228,335.77089139756305,371.4895642354721,410.3661605774871,452.5347121794896,498.0935382223535
H3,2886.516371343552,2873.9164982940365,2862.1034354988037,2851.0105115516812,2839.9105756715358,2828.713922034216,2817.3435146277675,2805.733904315387,2793.830244729415,2781.587398149266,2768.9691230198687,2755.947335166133,2742.501435051256,2728.6176936110287,2714.288689273875,2699.5127887528815,2684.2936640854186,2668.6398382241746,2652.564251294259,2636.0838394914476,2619.219118601741,2601.993764397523,2584.4341828620936,2566.609804010638,2548.945442274086,2531.4376154123015,2514.0830324314074,2496.878580323747,2479.8213117524956,2462.908433613468,2446.1372964114626,2429.5053843929827,2413.0103063813153,2396.64978726381,2380.4216600847826,2364.323858700798,2348.3544109581726,2332.511432355404,2316.7931201559063,2301.1977479188913,2285.7236604185446,2270.369268923769,2255.1330468127558,2240.0135254984707
S4,165315.39143073084,168070.6366625234,170812.60446947196,173618.72863122285,176414.998325896,179202.08186725478,181980.5410492902,184750.8546207738,187513.4311653674,190268.61583269894,193016.69347947396,195757.88956504027,198492.36944573605,201220.23632183028,203941.52786737855,206656.21143214923,209364.1775979322,212065.23177123093,214759.0833827688,217445.3321278811,220123.4505084022,222792.76171367982,225446.90438137128,228034.41759432454,230609.54127560937,233170.72008414852,235716.01709468308,238243.02346649245,240748.7501660541,243229.49708084553,245680.6953452195,248096.71903346427,250470.66303603197,252794.0853058864,255056.71416182764,257246.12545512264,259347.40068146354,261342.78603399626,263211.3841648392,264928.9246683328,266467.67456271563,267796.56330127077,268881.6032175674,269686.67945760716
E4,0.0,0.011229665930235134,1.1048074592155308,2.6553176561202196,4.391552989713208,6.208210715449182,8.079270591839455,10.015496196913698,12.044328319182968,14.20067014492946,16.52294462348109,19.05168383561363,21.829320510265987,24.900542244312597,28.312906336337136,32.11757728573568,36.37012815159273,41.13138437400495,46.46830549543841,52.454906747325836,59.173223551387494,66.71431977470273,75.17933580887771,84.67695983794123,95.28792287462392,107.14590671120133,120.39262085764017,135.17997739432747,151.67103006953548,170.03999297782156,190.47137138493244,213.15806183525706,238.29815163685038,266.09004323650447,296.7254407117676,330.37967247301793,367.1988097629794,407.2831139689948,450.66656221582105,497.2926258545674,546.9871710107942,599.4303390253076,654.1304886074914,710.4045444100511
I4,0.0,0.0,0.002032270946658333,0.20152690127349954,0.6378276420945548,1.2925598160959588,2.132325537621672,3.1263497790099404,4.252561468489383,5.498700844489567,6.8615160766377,8.345422740301554,9.96120228955352,11.724948524122375,13.657309442563527,15.783006799786607,18.130594603732334,20.732415653865285,23.624720329984104,26.84791887147409,30.446945056425776,34.47171459145744,38.977665338688915,44.0263686212789,49.68554869592978,56.02267249620973,63.1145888058228,71.04692146674518,79.91398938675069,89.81891405933649,100.87370686011899,113.19917988149098,126.92453251169069,142.18644956395696,159.12751503470164,177.89370483050925,198.6306785825646,221.478554309092,246.56483459854172,273.99518038278137,303.8418266921777,336.1296372169498,370.82013141479064,407.79430236633897
A4,0.0,0.0,0.00022583450800431093,0.022435062164253367,0.07493749901310981,0.16025644719700294,0.27869658300923184,0.4300271149035595,0.6142429442299573,0.8318910250224765,1.0841983546491374,1.3731155563708788,1.701330350052293,2.0722762913350556,2.4901482847909704,2.9599298411805424,3.4874340759173683,4.079359183343844,4.743358661727967,5.488126461142063,6.323497259019178,7.260562121317771,8.311799813781377,9.491223938173048,10.814473328923334,12.29818481035515,13.961018145208037,15.823736558740686,17.909327779305443,20.243139123045445,22.853007550836352,25.76936704338054,29.025313473455796,32.656602519228905,36.701549609646406,41.20079282666303,46.196870675812775,51.73355769218451,57.85489373887323,64.60384038235946,72.02050390550392,80.13988441574348,88.98914948978461,98.58449283546103
IH4,0.0,0.0,0.0,8.198654234801445e-05,0.008211078945064815,0.03384517680800016,0.08558876509140789,0.1705969613993499,0.29469851256955704,0.46276265860666127,0.6791063201531117,0.9478640479714474,1.2732995062105372,1.6600607559462515,2.113390009982271,2.6393003152893764,3.2447307584453595,3.937690088078777,4.727396881118095,5.6244228393801325,6.640844564698311,7.790408206195083,9.088710647930613,10.55340034231836,12.20440042385275,14.064129963060244,16.15746399247667,18.512082873271197,21.158793040216175,24.131840716668947,27.46922624760334,31.21301822749868,35.409660306641136,40.11025768142017,45.37082380428938,51.252460175927276,57.82143285646519,65.14909847272062,73.31162030043922,82.38940233855868,92.4661578858845,103.62752182574974,115.95911677262146,129.54399776372233
IN4,0.0,0.0,0.0,0.00036415741243018553,0.03645812534951661,0.14903482834594273,0.37363877528448897,0.7381589508748201,1.263658705589461,1.966256286562417,2.8591153836563206,3.954198139193533,5.263695538678402,6.801157337723481,8.582380088195382,10.626117565483455,12.95467170742208,15.594412497227172,18.576265617584042,21.936198464269072,25.715728516237515,29.962472972595865,34.73075468735957,40.08227641947503,46.08687292280718,52.82323116758548,60.37842806487211,68.84921714255081,78.34314600174675,88.97960690497351,100.89085723952982,114.22300764858898,129.1369477302837,145.80915413735653,164.43229908195482,185.21554599838174,208.3843820341366,234.17979395575048,262.85654648268144,294.6802740222855,329.92305590624517,368.8571238959132,411.7463666673848,458.83537155196706
D4,0.0,0.0,0.0,0.0,1.5219448761226873e-07,1.5394707673293557e-05,7.8222693766123e-05,0.00023710411351377656,0.0005537892228598087,0.0011008483844748573,0.00195989090164521,0.0032205397285128214,0.004980092930485352,0.007343763361933431,0.0104253922356579,0.014348552067534,0.019247977602950474,0.02527128485653804,0.03258095676326619,0.041356589025053236,0.051797401963848085,0.06412503412019376,0.07858664149228448,0.09545833311999549,0.11504897948301024,0.13770443507276786,0.16381217168586273,0.19380583751226677,0.22817046476504171,0.2674482727201631,0.31224505311644307,0.36323713906285965,0.42117895707247854,0.48691114863164914,0.5613692235911629,0.6455926715337457,0.7407344068960294,0.8480703561209944,0.9690089074550485,1.1050998336986377,1.258042164409108,1.4296903290698555,1.6220577241949303,1.8373166905539107
R4,0.0,0.0,0.0,9.033380320172438e-06,0.0009243757617055147,0.005717982043268838,0.019473223956033764,0.049042749156598446,0.10265266188712913,0.1895773954023553,0.31991971628642213,0.5044935012436564,0.7547943704334727,1.083041221019167,1.502273784054049,2.0264946479650248,2.6708475382694608,3.451826570932516,4.387513602033106,5.497842714040197,6.80489238979582,8.333207115136021,10.110151094364392,12.166297516698148,14.535857414830204,17.25714972829588,20.373082349243536,23.93165203358631,27.986511516926846,32.59759721422702,37.83181485102961,43.76378141505691,50.47662099883231,58.062809824897975,66.62506204344312,76.2772426023268,87.1452863310368,99.36809302554865,113.09835647460584,128.50327087857403,145.7650411386247,165.08110473205664,186.66395384752545,210.74042973028398
G4,0.0,0.0,0.002032270946658333,0.20197304522827775,0.682514938478439,1.4772692621734291,2.6007903309320737,4.0629234875185585,5.8754619961265835,8.05516517404447,10.625108887233296,13.615322533850835,17.063170740963713,21.013697331328412,25.52003339453269,30.64391662670216,36.456344137935126,43.03837028438654,50.48205720957511,58.89158495381192,68.38452834629896,79.09330844632153,91.16682645179999,104.7722872823034,120.09656552878897,137.3411459489532,156.73170615041587,178.51956939417232,202.98355098856243,230.43197463491086,261.2046921534611,295.67494591172783,334.2508874228145,377.37651673561925,425.53173946656693,479.23115457287975,539.0210907922336,605.4743118733346,679.1817262101378,760.7403911527579,850.7371338689064,949.7272679250843,1058.2082209752327,1176.5884466719904
H4,1443.258185671776,1467.3124887663055,1491.2617929187559,1439.0253241579267,1386.6332674108037,1334.1289294925639,1281.5599646414964,1228.9789953412344,1176.4442489396895,1124.020203323165,1071.778230714736,1019.7972232419755,968.1641770463963,916.974703215408,866.3334236449008,816.3541982298611,767.1601170182846,718.8831781592457,671.6635613678284,625.6483998799196,580.9899551666822,537.8431126148254,501.869359863402,523.4063113872528,544.7947264206748,566.0359384396255,587.1312519013946,608.081943838323,628.8892653410209,649.5544429389583,670.0786798857373,690.4631573558328,710.7090355591076,730.817454778952,750.7895363394837,770.6263835068569,790.3290823293636,809.8987024206817,829.3362976903101,848.6429070249426,867.8195549242666,886.8672520944211,905.7869960021192,924.5797713922254
E_Om,0.0,0.0,1.1304166267151081,1.7807744617409873,2.3595933503948654,3.017719401236026,3.830726176737528,4.857522317836225,6.160934785743901,7.816720142901266,9.919526703265088,12.588686134915566,15.974961985742052,20.268877470940804,25.71114963419746,32.605808987239115,41.33670287008814,52.38824580353279,66.37148923980908,84.05684140640929,106.41508299303402,134.66870456422467,170.3560442818208,215.3979453146442,272.03763872388026,343.24794226475893,432.6994373108008,544.9385721084559,685.5897116317456,861.5913663792761,1081.4719831305683,1355.667546735991,1696.8794926601681,2120.465786016064,2644.8494497522543,3291.9163410430697,4087.356762950656,5060.883270590722,6246.230687455816,7680.816931327419,9404.921059008404,11460.228354188761,13887.615425099793,16724.116290714763
I_Om,0.0,1.0,0.7804702392110681,0.8137091469685004,0.9573486009670088,1.1742057485622135,1.4625596146431192,1.8347438347277596,2.3110453419610413,2.9186674933743864,3.69255162304038,4.677097230533667,5.9285526629089365,7.518102274548065,9.535782971653195,12.095429264403206,15.340907038912711,19.453965500120496,24.664120641597936,31.26108693129678,39.61040129403669,50.17303991362277,63.530019269757716,80.41320373760587,101.74141322118678,128.63772448736128,162.51666649816065,205.14651464210317,258.7301414812957,326.0046840047302,410.36208208445504,515.993065947163,648.0570115898187,812.8792805303075,1018.1760125165615,1273.3035022855215,1589.524817651958,1980.2797096197182,2461.434686315546,3051.47819120611,3771.611552396157,4645.671213800631,5699.804738477465,6961.8171004389005
A_Om,0.0,0.0,0.0,0.022733274909519402,0.05763625809348548,0.10278347525666838,0.15936006592365892,0.23002358826126618,0.3185099819662816,0.4296692324927947,0.5696808303258558,0.746380513872828,0.9696904148238774,1.2521677141109344,1.6096988278296336,2.062375662212101,2.635600661275749,3.3614795438500167,4.280575631660656,5.444118280734452,6.916780988873731,8.780173225941416,11.137225013394605,14.117685964082352,17.8847448761369,22.640175556209122,28.637465792564324,36.193781190407044,45.705032204232744,57.66440181808854,72.68488280439469,91.52645979006397,115.12859117957747,144.64858961126384,181.50633200108388,227.4353969020994,284.54015586268457,355.3574511212091,442.9201863898684,550.8183743354305,683.2509211908547,845.0588100282523,1041.7276976501173,1279.3458647498815
IH_Om,0.0,0.0,0.040342328606736755,0.07134999757230762,0.10333095976231525,0.14072749046282138,0.18642915236508256,0.24322181998322787,0.3143559047511856,0.40386170179773456,0.5168191679186032,0.6596576442995724,0.8405214219921509,1.0697274187485364,1.3603419726387094,1.7289087994521992,2.1963678140087097,2.789214542361811,3.5409625531186752,4.4939872716632525,5.701849456390026,7.232221434530843,9.170570030611103,11.624788291464496,14.73101514561168,18.660842727992794,23.629136227320828,29.905278680344274,37.82679553681497,47.81607939252203,60.40093723499652,76.23975687327807,96.15218377237909,121.15628653155858,152.5132428560245,191.78056437177887,240.87475082082528,302.1439573929017,378.4506892810664,473.26360433599837,590.7561012080047,735.9074076874592,914.5993331180454,1133.6988028872165
IN_Om,0.0,0.0,0.35837486436439026,0.6212276158465173,0.8586406519737149,1.1023674397930074,1.3728032251326825,1.688095791397739,2.0677131662979065,2.534358323646375,3.1155092776057716,3.845043264827103,4.765153843054542,5.928704177353239,7.4021570314116385,9.26924430508744,11.635575493881973,14.634433181363043,18.43406578736484,23.246865899899298,29.340920187851594,37.0545385639507,46.81452128372698,59.159109309486524,74.76679274870564,94.4919030775531,119.40258959995522,150.8364925799082,190.4678088080333,240.38938708701144,303.21336548288855,382.1941482241389,481.37790769548866,605.7831251372507,761.6168078933244,956.5307578936106,1199.921362658097,1503.2744947251472,1880.5538009240308,2348.6254253928464,2927.704513083985,3641.7982812490827,4519.106981786326,5592.328362139873
D_Om,0.0,0.0,0.0,7.488887633931018e-05,0.00020733837366729405,0.00039915525025606977,0.0006603926154450439,0.001006467574915273,0.0014579687506977798,0.002041518617313865,0.002791221227169245,0.003750610734238459,0.004975156303528723,0.0065354456325289354,0.008521218074183453,0.011046468482041705,0.01425590238820695,0.018333096821437366,0.02351081338269353,0.0300840260831213,0.03842637191889993,0.04901091459633105,0.06243634033089425,0.07945999039527686,0.10103949170063209,0.12838519061519593,0.1630259659920194,0.20688955845299217,0.2624037737779579,0.3326229780505605,0.42138563951128855,0.5335100129817564,0.6750365416132387,0.8535272051165317,1.0784338595697103,1.3615495293589035,1.717558502205427,2.16470273136801,2.7255831327558537,3.42811439083905,4.3066501810387345,5.4032914047352625,6.769382078100247,8.467184825819057
R_Om,0.0,0.0,0.0,0.017251593651703825,0.04808001301901271,0.09178579017712428,0.14912967735943108,0.22190756368670597,0.3129026757731779,0.4259954266526248,0.5663678600587676,0.7407918148604153,0.9580095136454618,1.2292251407789379,1.5687335778370888,1.994720421254779,2.5302768446622252,3.204684507525224,4.055040229213269,5.128308312386369,6.4839111400698055,8.196997124528373,10.362560647088973,13.100632996322698,16.562818543960606,20.94050826402716,26.47504444516948,33.47027413680486,42.30831094165731,53.46918866953252,67.55528287721168,85.32157060147547,107.71301051687186,135.9105576332616,171.38757257471687,215.9786310796225,271.9629591203211,342.16487220800025,430.0736231372092,539.9848748403149,677.1655005502555,848.0424325718652,1060.4146792620686,1323.6852637401541
G_Om,0.0,0.0,0.0,0.20457535267431856,0.5268481810585876,0.9538718380156983,1.4999988111954554,2.1932583936222523,3.072340776002286,4.187306158508714,5.601924664817618,7.3970952468177416,9.675312715398643,12.566356074950756,16.234483965974146,20.887518413426356,26.788302880989743,34.26914699473528,43.7500265288503,55.7615013230685,70.97355462183799,90.23185516225756,114.60330996868363,145.43322436973793,184.41452523410712,233.6461046070566,295.7648555029989,374.0719485674973,472.69134069275384,596.7648492844638,752.6899776598183,948.4076512393747,1193.7474312181587,1500.8375008905502,1884.5854268819019,2363.232853119651,2958.982181754537,3698.685076709502,4614.570384353322,5744.972057128318,7134.995695686484,8837.03633897726,10911.032953923772,13424.322086666787
beta,1.0082566549941716,1.0082566549941716,1.0082562744489627,1.008214896191456,1.0088413000931167,1.0094756637698614,1.0101213982514297,1.0107802515573243,1.0114530596659228,1.012140117993017,1.0128413459934316,1.013556339591038,1.014284359513293,1.0150242779805083,1.0157744924835328,1.0165328078964286,1.0172962837607382,1.0180610405882875,1.018822016613457,1.0195726641621634,1.020304572494693,1.0210070015480632,1.0216663084522808,1.0221405064980986,1.0211707628897684,1.0200384443213277,1.0187116747939038,1.0171520688623672,1.0153133161236996,1.0131395987833847,1.0105638167836828,1.0075056362669437,1.0038694216419453,0.9995421713960216,0.9943916607589763,0.9882651050952029,0.9809887962757021,0.9723693205988801,0.9621971151641595,0.9502532100037108,0.9363199567181311,0.920196257719283,0.9017171817294688,0.8807768354343768
