series,2021-11-15,2021-11-16,2021-11-17,2021-11-18,2021-11-19,2021-11-20,2021-11-21,2021-11-22,2021-11-23,2021-11-24,2021-11-25,2021-11-26,2021-11-27,2021-11-28,2021-11-29,2021-11-30,2021-12-01,2021-12-02,2021-12-03,2021-12-04,2021-12-05,2021-12-06,2021-12-07,2021-12-08,2021-12-09,2021-12-10,2021-12-11,2021-12-12,2021-12-13,2021-12-14,2021-12-15,2021-12-16,2021-12-17,2021-12-18,2021-12-19,2021-12-20,2021-12-21,2021-12-22,2021-12-23,2021-12-24,2021-12-25,2021-12-26,2021-12-27,2021-12-28,2021-12-29,2021-12-30,2021-12-31,2022-01-01,2022-01-02,2022-01-03,2022-01-04,2022-01-05,2022-01-06,2022-01-07,2022-01-08,2022-01-09,2022-01-10,2022-01-11,2022-01-12,2022-01-13
S,1099920.4245729165,1099838.444594278,1099786.60622404,1099749.9688283168,1099721.3532667658,1099697.2787397755,1099676.0335306884,1099656.7552734239,1099638.991368014,1099622.4883883311,1099607.0909424406,1099592.6929507542,1099579.2140742603,1099566.5882330153,1099554.7579495094,1099543.6715062812,1099533.2814687472,1099523.543874568,1099514.4177519528,1099505.8648033096,1099497.8491746434,1099489.933299137,1099482.6471707432,1099475.8637091161,1099469.5168505765,1099463.565459383,1099457.9791326819,1099452.7325750305,1099447.8033339644,1120391.161299109,1141334.5526374972,1162277.97146468,1183221.3994802642,1204164.8107146546,1225108.1734309718,1246051.4503603734,1266994.5978183514,1287937.5638729942,1308880.2854711926,1329822.6841799242,1350764.659880925,1371706.0812544315,1392646.7710025834,1413586.4820949181,1434524.85798766,1455461.3626970414,1476395.1504758727,1497324.8046708815,1518247.763543511,1539158.89051521,1560046.218325675,1580874.0767813486,1582947.019311839,1582305.6577291507,1581011.7053238137,1578616.2970181683,1574475.2506100622,1568070.4221004648,1559081.4335387482,1547499.106090005
E,0.0,81.97997863832184,115.89894221072694,127.20283197244777,128.01405259779233,124.10691985249093,118.22450090409801,111.66092526375604,105.01768198130829,98.56561115340648,92.41831772047891,86.61526219920675,81.1615391417187,76.04687045187463,71.25462221395863,66.76603635017261,62.56217209657848,58.62475656860375,54.936520470128315,51.48129507555931,48.244002267056146,45.210599990051264,42.3679920228459,39.70401010232115,37.20730035387285,34.86726590203148,32.67401070036134,30.618287335865173,28.691449352580925,26.885407895178222,25.427324054941774,24.24568220930567,23.295895550846616,22.54986554659566,21.990415086988648,21.608437782864655,21.401634094778636,21.374280327276143,21.53781661825792,21.91227327329511,22.52876771666891,23.43357624826435,24.694724597817263,26.412849368848384,28.73968845934645,31.910974021234004,36.3083213402131,42.58426914209373,51.93935414329398,66.81760867610464,92.99592042331518,147.96603895487095,321.68877924279036,579.313724796456,1013.2125208150466,1684.0482177204426,2607.913886798937,3708.9582429721113,4853.234158762803,5903.882178599371
I,386.64097701308503,236.06557840594095,160.19781601296012,120.52396350072898,98.51628113307459,85.23836741994357,76.36573376987867,69.79564052413885,64.49787871396441,59.9613315956535,55.927014730210274,52.259068674406066,48.88227741363892,45.751715887617785,42.83794052979998,40.11971443529322,37.58039501475876,35.20610895751352,32.98480464373242,30.905739383740325,28.959185356378406,27.136248115657153,25.428745089219202,23.829113711215623,22.330351829292816,20.92595906181716,19.609889745811326,18.376513200617108,17.220579237152776,16.137187755585614,15.121761685859434,14.216026510414025,13.431441982797029,12.766266593010206,12.213930178659787,11.767054848394633,11.419351283398564,11.166528834764325,11.006805914464158,10.941336853860824,10.974752063609959,11.115977194493432,11.379531281080475,11.78761097579103,12.373491762229111,13.18722841738938,14.305581964993255,15.850209882806068,18.023278176800048,21.183506806703786,26.028906300948094,34.117830471116136,49.82985046241019,93.46985371482143,170.6049518371939,302.7375761981946,514.8851565335513,825.4762007318249,1230.8966559272965,1702.688393609311
A,44.582254282111286,38.42411219536231,34.969201478888,32.75802800661975,31.107732343933442,29.703724051359846,28.405356732624533,27.15340010813308,25.926050492788814,24.718108570024437,23.53121372909196,22.369346188690212,21.236828120778917,20.137499804359198,19.074438793635807,18.0499216424185,17.065486543777986,16.122031191341463,15.21991634434911,14.359062673733655,13.539036422490865,12.75912300865032,12.018389228863295,11.315734830762192,10.649936557706901,10.019683543145021,9.423606519050589,8.860301720455679,8.328350308520031,7.826334033288624,7.352847753173346,6.911813872307377,6.504996862321311,6.132909882677515,5.795360231200642,5.491793650234027,5.221526652791713,4.983918196199236,4.778512422136649,4.605174967572369,4.464242679807629,4.356709078237237,4.284476213065802,4.250720670104093,4.260454469490313,4.321426339536476,4.445641822559448,4.652071991901677,4.971813712054319,5.458798525398608,6.214739383001688,7.45784745659683,9.771476172351889,15.691361566452759,26.615418683533242,45.83591052365095,77.56122173693393,125.78210923942058,192.2239772954984,275.34692337732326
IH,0.0,74.61498362955031,112.84268035741657,132.6744069208945,142.9018525670074,147.87763525050732,149.80227880328783,149.82561550356542,148.57874629857798,146.43197154804886,143.6205832237838,140.3067828910334,136.6106217976584,132.62584410143037,128.4283164397772,124.08077155964787,119.63568210116483,115.13715499172179,110.62228756799222,106.12220762857623,101.66291237640496,97.26596820952689,92.94910675178713,88.72673889232972,84.61040060621009,80.60914348507461,76.72987559198981,72.9776597565027,69.35597490205754,65.86694504912398,62.511539957995,59.289750841983775,56.20962206982206,53.28061940710024,50.51094278917244,47.90671880796456,45.47204848285725,43.20941629260914,41.1202346641948,39.20543347728639,37.466074042528206,35.90400701492988,34.522623769297894,33.32778449300516,32.32905734029361,31.541492249028703,30.9883206191809,30.705305552058217,30.74817519273996,31.206198463558426,32.22910280251421,34.0866129683036,37.3226959191507,43.273069993470045,57.060746334803845,84.379897952009,134.51499844448688,220.6665080328436,358.2946891028322,560.6438124455233
IN,75.96041497759374,145.16854561182106,178.6422124902813,194.23517044683427,200.64761654577222,202.16636441010962,200.94149669770334,198.08237118837658,194.18662318385324,189.59636557265128,184.5228848711846,179.10780517896362,173.45347005276062,167.63834839201405,161.72510774200487,155.76506044159197,149.8007853123444,143.86780660990902,137.99576517865455,132.20929933449045,126.5287467059213,120.97072591488816,115.54863089413266,110.27305739314544,105.15217352264972,100.19204565280384,95.39692382051233,90.76949252230727,86.3110914070156,82.02190957444738,77.90115662954256,73.94721321497812,70.16680141007593,66.56829716480334,63.158989731718364,59.944229616187975,56.92744222741672,54.11051286795166,51.49431630055989,49.07929951340541,46.86609654362687,44.856194769039305,43.05270290604125,41.46130577496066,40.091543667889844,38.95864620130779,38.08632308010271,37.51125705768506,37.2907711990502,37.516811017992126,38.34362377907539,40.04887820130746,43.1917183678968,49.14200591027388,63.136979473620315,91.04205643548582,142.42568394326184,230.92073367055633,372.5687309850427,581.2752101236293
D,817.0,817.0,817.2049827426661,817.514984849271,817.8794687972573,818.2720496469252,818.6782999974326,819.0898377405643,819.501439594423,819.9096160415207,820.3118948557992,820.7064502067549,821.0919018650229,821.4671994067663,821.8315499426758,822.184369004736,822.5252444647199,822.8539083475611,823.1702138490157,823.4741160788715,823.7656556613966,824.0449446405349,824.3121543075727,824.5675046662209,824.8112553098752,825.0436975236327,825.2651474591787,825.475940246072,825.6764249225079,825.8669600840014,826.0479101611901,826.2196422488427,826.382523417589,826.5369428375985,826.68331568345,826.8220796566351,826.9536892896565,827.078610381363,827.1973155559782,827.3102813179541,827.417986726314,827.52091375572,827.6195494649652,827.7143902296485,827.8059485245117,827.8947631099884,827.981414091795,828.0665453970925,828.150899201654,828.2353707779569,828.3211006386105,828.4096406283655,828.5032835814903,828.6058167216327,828.7246967660869,828.8814543999201,829.113263375366,829.4828038077243,830.0890201979292,831.073329574979
R,0.0,12.910426430115418,38.24615985611215,69.73000517574029,104.18794843850473,139.96441878247052,176.1570215957061,212.24515543689577,247.90843091078102,282.93682637701903,317.1853676181778,350.55055309632917,382.9575065376905,414.35250813008054,444.69829401813536,473.97083947431133,502.1569849089229,529.2525779548738,555.2609591829723,580.191695704977,604.0595057566517,626.8833375993269,648.685577107667,669.4913647966205,689.3280069630426,708.2244684144672,726.2109363426331,743.3184461451793,759.5785613225327,775.0231006257994,789.6839065038727,803.5926496416099,816.7813977380802,829.283827795408,841.1353359992402,852.3727227640492,863.0337724994913,873.1568712423518,882.7807212766463,891.9441745298418,900.6861928839237,909.0459424391955,917.0630354383248,924.7779469862138,932.2326558069437,939.4715945117049,946.5430567299717,953.5013200417509,960.409957792913,967.3472549551192,974.4156422495158,981.7596066054133,989.6042109985458,998.3567357563342,1009.0240199083046,1023.7606656045854,1046.2410760777614,1082.4579539161327,1141.4274147081226,1235.3059392995183
G,84671.0,84671.0,84687.06679881287,84709.78118613103,84734.71095976206,84759.79971999928,84784.12274307972,84807.2929036766,84829.17670568863,84849.75853549897,84869.07585993077,84887.18841060599,84904.16365279307,84920.07005021343,84934.97405224164,84948.93884826398,84962.0239513756,84974.28516257701,84985.77470166798,84996.5414039352,85006.63093584708,85016.0860087957,85024.94658214928,85033.25004862052,85041.03141613213,85048.32346742423,85055.15690841446,85061.5605055494,85067.56121292687,85073.18429007393,85078.45341122802,85083.43677066195,85088.18854670055,85092.75417934888,85097.17360173729,85101.48338055017,85105.71829776147,85109.91268467128,85114.10171066874,85118.32278723187,85122.61725146644,85127.03253900883,85131.62515492919,85136.4649362812,85141.64144332515,85147.27397458573,85153.52802841738,85160.64389382617,85168.98974724385,85179.16905159781,85192.26426208195,85210.49001388965,85239.4890526612,85302.5350424541,85416.07150855765,85614.6453798493,85944.69259814222,86455.8030965403,87182.70113780577,88133.8594342066
H,484235.9007105336,484235.9007105336,484235.9007105336,484235.9007105336,484235.9007105336,484235.90071053355,484235.9007105336,484235.9007105336,484235.9007105336,484235.90071053366,484235.9007105336,484235.9007105336,484235.9007105336,484235.90071053355,484235.9007105336,484235.9007105336,484235.90071053355,484235.9007105336,484235.90071053355,484235.9007105336,484235.9007105335,484235.90071053355,484235.90071053355,484235.90071053355,484235.9007105336,484235.9007105336,484235.9007105336,484235.9007105336,484235.9007105336,469143.11593654106,454227.49448170466,439496.6727843131,424958.7575160195,410622.352999995,396496.58776108397,382591.13940876175,368916.25681705005,355482.7782788452,342302.1439697044,329386.4006541674,316748.19610586506,304400.7601966463,292357.869054795,280633.78812696476,269243.1894509058,258201.03803005654,247522.442001849,237222.46145023796,227315.87140629624,217816.8760125482,208738.77320576008,200093.57277199154,199141.29781959116,199141.29781959113,199141.29781959116,199141.29781959116,199141.29781959116,199141.29781959116,199141.29781959116,199141.29781959116
S0,384972.14860052074,384060.87711925583,382649.68114057597,381251.904702749,379863.56505932397,378482.71819252684,377108.39783003926,375740.10801745154,374377.57994146814,373020.65518744854,371669.22959690954,370323.22621289606,368982.58220561576,367647.24252555415,366317.1567979749,364992.27778134285,363672.5605816717,362357.96223323245,361048.4414576328,359743.958510478,358444.47507172916,357149.7893195204,355860.0955409462,354575.31902336265,353295.41061783116,352020.3318007222,350750.0488072153,349484.53030551196,348223.74645569635,353580.32977102126,358811.61690958374,363914.5709348341,368885.9707733845,373722.4076517987,378420.2810212057,382975.7950321157,387384.956388958,391643.5743374384,395747.263544147,399691.45066809485,403471.38545441057,407082.15714435966,410518.71679614135,413775.9055580663,416848.48762704746,419731.1836361337,422418.6932287191,424905.6781631148,427186.62920388364,429255.38642402453,431103.47784815344,432713.1451260475,431349.8713906937,429527.7866146203,427454.36113167333,424963.5617185445,421829.2566369351,417885.1078767303,413046.5840015645,407342.25999724714
E0,0.0,45.18581499750023,63.98904597795484,70.31285055373371,70.83366693306,68.73687437747935,65.53732897991513,61.950239447145556,58.30831233199133,54.76170398231637,51.37386933119603,48.16746967776876,45.14631279443801,42.30579275684124,39.6378176421245,37.1331017648459,34.78220378331355,32.57597304823135,30.50572088625107,28.56326741741202,26.74093483675333,25.031520006606005,23.428249845768523,21.924778874042932,20.515134045104844,19.193691369100037,17.955153142440118,16.794527068004673,15.707107403625816,14.688457928916693,13.861006631507443,13.185224183887733,12.636275395297684,12.19829640897467,11.86133481129341,11.619767939487279,11.471578397902814,11.418179728918634,11.464668877975353,11.620505470275951,11.900727205757631,12.327946792280699,12.935593266573939,13.773258160895864,14.915795670903027,16.479501622575167,18.652529629509694,21.75628675344553,26.38134695543467,33.72828371270422,46.63062244500489,73.65518811886837,158.80073992371948,284.57020734398606,495.62950684854854,820.6011903984942,1266.046927952541,1793.9388635160944,2338.709617312907,2834.27271350885
I0,386.64097701308503,236.06557840594095,152.98673308119822,105.94766976077452,78.46710204948619,61.79077616368694,51.19802347622762,44.10350439125922,39.06889667973865,35.28123082723234,32.27357254402344,29.77326894730315,27.618291720181944,25.710459929107728,23.988926025608528,22.414953344416947,20.963071171499,19.615877879361946,18.360955432758548,17.18901909365188,16.092796889834904,15.066344152203751,14.104619630584647,13.203217946109593,12.358205757446198,11.566010919373408,10.823350226389735,10.127180833607241,9.474666504420751,8.863153308250439,8.290151444440966,7.778134731292119,7.333077538298678,6.953760236044575,6.636329104887592,6.376480719022572,6.170485646025767,6.015671484192509,5.910683617610408,5.855693900684042,5.852661199165345,5.905728663262487,6.021857652518291,6.211850030224259,6.492020095766254,6.886998882412571,7.434617160823823,8.194847874257004,9.267298580118736,10.828528466776792,13.221630328202718,17.211408026789798,24.943780626390783,46.35202115611077,84.07178577549917,148.46611137640588,251.47177619104318,401.6628248515845,596.8213156890258,822.74288825208
A0,44.582254282111286,38.42411219536231,34.13771606470149,30.868320366126415,28.193433160839316,25.899797406277166,23.875597377261023,22.058695609876914,20.411700179867765,18.909902706815238,17.535401053933892,16.274199878089252,15.114749118173226,14.047180170970886,13.062883496345874,12.154255925362996,11.314534673339498,10.537677740090754,9.818270917196388,9.151451511059408,8.532843660085511,7.95850243466949,7.424865039277112,6.9287077468496605,6.467108726365342,6.037414758342556,5.637212019637714,5.26430038916802,4.916670830934207,4.592485475111818,4.2900600656186,4.010709656434419,3.7546743578135633,3.5215998806053035,3.310822377445475,3.121544790543804,2.952953097019089,2.804300125180095,2.674973853732161,2.564561982101159,2.472922932161594,2.400274508359248,2.3473154385084296,2.315403374503023,2.3068291200666624,2.325258627743056,2.3764795599779447,2.469732081134068,2.620243264676906,2.85448283541145,3.2223951730817495,3.8310586926924186,4.96635672850304,7.868980579463648,13.212841001219722,22.588135145192474,38.01222730955074,61.372106036837266,93.4347455814175,133.37946704513365
IH0,0.0,74.61498362955031,112.84268035741657,131.2827933390611,138.8339552837881,140.3401532781068,138.48016822744938,134.7586581263922,130.0335644530728,124.80098854269384,119.3514145490948,113.85668441322254,108.41914410437431,103.09981829022637,97.93479044384597,92.9448573187138,88.14129746108472,83.5293662078723,79.11044449337018,74.8833811485414,70.84534628184917,66.99238459600834,63.31978207431892,59.822314847958644,56.49442198692395,53.33032970198256,50.32414195675975,47.46990823547196,44.761675279436396,42.19352722828985,39.75961712853241,37.45419183955878,35.27640036340216,33.226628238456954,31.304987767392642,29.510836521391926,27.84276468613201,26.29878120687914,24.876574867791764,23.573800048612487,22.388374686169257,21.31879924930515,20.364521050162818,19.52638510845874,18.807238015880532,18.212795141407543,17.752963838443222,17.44397901826963,17.31205469706049,17.400052616583608,17.78069739294153,18.585781406232545,20.08174593126859,22.922986827702072,29.61657262348035,42.93195765086867,67.36645999124212,109.27925146093725,176.05953299265784,273.94269717648467
IN0,75.96041497759374,145.16854561182106,178.6422124902813,192.81846377449432,196.49315029316,194.44228770379152,189.29745965566332,182.5288887819466,174.9681844435176,167.09045622036084,159.16886223863528,151.36054398026698,143.75510824332108,136.40236401293802,129.3284037846332,122.54504638046932,116.05544972374967,109.85748698554171,103.94580162976973,98.31307359731778,92.9508094229031,87.84984197447837,83.00065110207193,78.3935725061618,74.01893547624262,69.8671561983396,65.92880099204504,62.19462973061453,58.65562585738975,55.3030171029331,52.128289586091825,49.12319709066795,46.28464168464334,43.610974556807115,41.100453850991876,38.75073543734723,36.558838099387444,34.52131293410833,32.63449259243966,30.894769592746712,29.298890893110134,27.844277464960168,26.529393508353657,25.354207389316684,24.320812445893324,23.434321081256375,22.704230318041024,22.14662529222004,21.787943725976533,21.67184237558311,21.87278449674035,22.526018980850687,23.905027358745947,26.680573214278155,33.41530919349036,46.96189558716884,71.95536070705074,114.96384336996178,183.65610383574847,284.5834676557205
D0,817.0,817.0,817.2049827426661,817.514984849271,817.8756457478528,818.2570512450453,818.6425945786463,819.0230281498583,819.3932379655956,819.7504669748864,820.0933210194028,820.4212039606738,820.7339917454672,821.031841486028,821.3150779419445,821.5841250015442,821.8394636861237,822.0816060014718,822.3110783908709,822.5284110913146,822.7341311772982,822.9287579490211,823.112799840666,823.2867523360394,823.4510965679037,823.6062983919999,823.7528078022796,823.8910585950671,824.021468219393,824.1444377694589,824.2603520873786,824.369579952479,824.4724743390237,824.5693858834097,824.6606662811872,824.746667536425,824.8277398883075,824.9042297029687,824.9764778767045,825.0448189564246,825.1095810451361,825.1710865259895,825.229653662614,825.2855992002914,825.3392422057466,825.390909565879,825.4409438688849,825.4897149205027,825.5376371271191,825.5851969104276,825.6329984421627,825.6818456835722,825.7329046567424,825.7880733528713,825.8510475234932,825.9324103542467,826.0503532927721,826.235422846647,826.5356354794362,827.0193073130255
R0,0.0,12.910426430115418,38.24615985611215,69.615152183085,103.5532718191282,138.16950809928014,172.43042350409766,205.77681934938792,237.9152624915698,268.7029904133981,298.08342645467087,326.04953674372575,352.6227294996167,377.8405543624822,401.7494517857208,424.4004374781226,445.84651309563264,466.1411036861003,485.3371124118271,503.4863502618923,520.6391959383019,536.8443985192907,552.148969652029,566.5981325174464,580.235307173792,593.102119506674,605.2384257340115,616.6823471479655,627.4703116375571,637.6370996949759,647.2158933445688,656.2383269090674,664.7349340540761,672.7359249806813,680.2713511949854,687.3710283906969,694.0643924533412,700.3803672186865,706.3472766392612,711.9928134671176,717.344068878215,722.4276265373229,727.2697277712792,731.8965211336524,736.3344205766338,740.610614340761,744.7537971719894,748.7952533815238,752.7705234951494,756.7221042437626,760.704121589382,764.7911628928161,769.0972116968205,773.8254894402355,779.47269822945,787.0957896450095,798.4893619915562,816.5680712926649,845.6982214703746,891.7392356002123
G0,84671.0,84671.0,84679.85571588112,84692.3965721369,84706.17679558379,84720.05909092826,84733.53044759354,84746.37474320014,84758.51602513433,84769.94354608416,84780.6759870429,84790.74446518223,84800.1845389355,84809.03251300013,84817.32378938411,84825.0921842046,84832.36969372904,84839.18646386897,84845.57084715125,84851.54949325805,84857.1474487425,84862.38825542758,84867.29404343346,84871.88561546193,84876.18253059947,84880.20317730855,84883.96484183721,84887.48377216612,84890.77523786349,84893.85358624536,84896.73229519765,84899.44883658485,84902.03293513897,84904.50944828147,84906.90012436506,84909.22476122434,84911.50205473961,84913.7503054131,84915.98809077924,84918.23498729445,84920.51242535427,84922.84478250924,84925.26086804838,84927.79604283119,84930.495386885,84933.41865049349,84936.6483761107,84940.30398136805,84944.56787467455,84949.73820773618,84956.34842595918,84965.48730159427,84979.9225711404,85011.04504252998,85066.81637042583,85163.95203335874,85324.77708419101,85572.90256088588,85924.4866339907,86382.83728895821
H0,169482.56524868676,169101.22947687723,168492.46505076048,167885.89217657773,167281.50296474205,166679.28955406896,166079.2441116743,165481.3588328723,164885.62594107396,164292.0376876861,163700.58635201043,163111.2642411432,162524.06368987507,161938.9770605915,161355.99674317337,160775.11515489794,160196.3247403403,159619.61797127506,159044.98734657848,158472.4253921308,157901.92466071912,157333.47773194054,156767.07721210556,156202.715734142,155640.3859574991,155080.0805680521,154521.7922780071,153965.5138258063,153411.2379760334,146246.29625997524,139213.18704094423,132314.92098742677,125554.68653493212,118935.85605679186,112461.99103111294,106136.84578319581,99964.36928027296,93948.70433473418,88094.18343216954,82405.32024189831,76886.79569251656,71543.43730886822,66380.19031976849,61402.0788741692,56614.15557203443,52021.437460253735,47628.8267108848,43441.014448926566,39462.36670036489,35696.792263699295,32147.59353747787,28817.30300362068,28364.549796168336,28262.43741690213,28160.69264220128,28059.314148689355,27958.300617754074,27857.65073553016,27757.36319288225,27657.436685387875
S1,109992.04245729165,102989.56558895728,97008.54246894116,91452.04526534483,86288.66664651831,81489.82752523758,77029.25660124447,72882.68166797161,69027.62155984943,65443.22844920157,62110.157481927476,59010.4530312857,56127.44641318064,53445.66244240443,50950.73337792525,48629.3193543594,46469.034663800296,44458.37938996663,42586.67597448402,40844.01034457789,39221.177266958875,37709.61221636557,36301.404324564806,34989.18006046582,33766.09554703403,32625.797054956718,31562.385336099887,30570.3828895646,29644.703713582632,29329.13899401256,29033.377566752795,28756.59514499719,28497.915473325073,28256.419790172124,28031.15505644717,27821.141157654056,27625.377245486627,27442.847361898464,27272.525475401726,27113.380050734006,26964.378265361578,26824.489975647877,26692.691515938513,26567.969374079497,26449.323703409253,26335.771450000477,26226.348459459634,26120.108903735832,26016.117550286082,25913.42140033205,25810.95181718817,25707.115218944124,25440.13085868416,25160.068023561784,24878.540778675993,24585.26423707249,24266.743697516027,23913.18898012799,23519.638469821555,23087.59805138665
E1,0.0,12.910232856428639,17.779111557459437,19.042032035662146,18.69135286967738,17.646520343084354,16.335328256882363,14.958131477723576,13.608724257404436,12.330123823626217,11.140631432255473,10.046223264708518,9.046588569082772,8.13817029905163,7.315759585095339,6.5733701559864155,5.90473884150647,5.303621634945874,4.76397148750097,4.280043870905176,3.846456194106027,3.458216804149444,3.110732430611001,2.799806469220342,2.521622265281041,2.2727238708167645,2.049993156138419,1.8506251483770821,1.6721028436226062,1.5121723335902415,1.3793209961602564,1.2682995820255953,1.1754342503605257,1.0980500655120742,1.0341547962194426,0.9822633090957245,0.9413010656601262,0.9105561426534858,0.8896661613863053,0.8786368280548038,0.8778967609270074,0.8884021109965068,0.9118177786297921,0.9508258313107416,1.009658615650902,1.0950534228089355,1.2180526250662977,1.3976403923707157,1.6687919007324945,2.1026453968975867,2.8669963273964427,4.468582979080656,9.50672420684133,16.89353320799502,29.207491049299733,48.04245455973797,73.68840056666394,103.86954788677713,134.77862202587787,162.64538787245482
I1,0.0,0.0,2.5302045374603117,5.029257930131209,6.80258019411607,7.816563299790716,8.230884846304,8.226877710097181,7.954522016932145,7.523771093529022,7.010188198891983,6.463495619046197,5.9152227823763015,5.3845592362270756,4.882524128841133,4.414824398891857,3.9837712303594746,3.5895482443576787,3.2310438236216257,2.9063941373109317,2.6133353761449567,2.3494304560659787,2.11221311701389,1.899277362144911,1.7083317290101314,1.5372291489051417,1.3839814063453864,1.2467634815947073,1.1239113687544282,1.0139158071582688,0.9154135792583327,0.8292357596331921,0.7548609939182959,0.691250951029555,0.6372474270202522,0.5917528283954516,0.5538059509583162,0.5226093338845111,0.4975365576180869,0.47813413799405324,0.46412631631751566,0.4554287292448327,0.4521772590162523,0.4547811637495217,0.4640159614795508,0.48118462262219364,0.5084030863890016,0.5491273829875324,0.6091882105053131,0.6990001204537022,0.8388637574848199,1.074059075294389,1.5315447863952578,2.7982621724461714,5.01936229530073,8.788809984429136,14.781624542206579,23.466773314207558,34.68456899195347,47.59134719714892
A1,0.0,0.0,0.2917492681356168,0.653227604417967,0.9933148274379688,1.278501086454839,1.5006831624812276,1.6625445444096827,1.7709257297480598,1.833841929102916,1.8591733289442938,1.8541252036191833,1.8250426152069146,1.7773871605667344,1.7157856435721157,1.6441080565878787,1.565554550809962,1.4827417039100474,1.3977835620476302,1.3123655054079784,1.2278102962367397,1.1451363463821629,1.0651085917184284,0.9882825075217087,0.9150420052198068,0.8456317167015284,0.780184384342087,0.7187439504075984,0.6612848998154225,0.607728361878301,0.5579554258213153,0.512055406282995,0.46998665678876395,0.43163026094344076,0.3968232792723577,0.365380258080871,0.33710779888923037,0.3118149345902802,0.28932098809046125,0.2694620500630923,0.2520969809098303,0.23711382267282563,0.22443768951866638,0.21404166349810755,0.20596315499124915,0.20033005070934548,0.19740482368795076,0.19766323039118014,0.20194432099146922,0.21176162714197966,0.23002721971041673,0.2630428167505052,0.32769110264719664,0.4972629361809394,0.8103411291602525,1.3584483329628165,2.2564836337474308,3.610028101289079,5.458650125693525,7.750414602175417
IH1,0.0,0.0,0.0,0.4882854673099635,1.4108842599444444,2.5850836469622367,3.8396315936377468,5.050911830218075,6.142444050245526,7.0742035731234925,7.831316113333242,8.41495076632156,8.835757332684476,9.109424196580534,9.25380204214495,9.287114722534444,9.226897442363988,9.08940907674541,8.8893469526557,8.639750269279563,8.352017798968344,8.035991824824979,7.700077583611692,7.351378785259901,6.99583708155819,6.638368309300984,6.282991113659387,5.932945728298266,5.59080192667166,5.258555949024748,4.937716699272755,4.629381796069063,4.334701430396762,4.054612206531541,3.789758353500509,3.5404973094687984,3.306939587755462,3.088999351117618,2.8864452973735797,2.698947955290933,2.52612270049727,2.3675694706719668,2.2229112178704957,2.091834151566797,1.9741342821547514,1.869777317844832,1.7789837856927329,1.702360891548318,1.641123153835786,1.597491021524438,1.5754766733178176,1.5826158738956237,1.6344424514329996,1.7694652893471143,2.1356802992068076,2.894558526714456,4.306335844111923,6.735954147009736,10.603012446079852,16.25507890658789
IN1,0.0,0.0,0.0,0.4970900604701593,1.4409627501617184,2.6493237215018555,3.9494804485653887,5.215462059399148,6.368120595696555,7.364809186792443,8.188273628553635,8.837638819441745,9.321876007308022,9.655353313752382,9.854931671764005,9.938138058134637,9.922062637944428,9.822730455569696,9.654778129437936,9.431322806548046,9.163949449861583,8.862768456705776,8.536512694099178,8.192654218390292,7.8375281908806995,7.476456440568536,7.113865909374004,6.753399409257793,6.398017387045082,6.050090214492428,5.711481042947292,5.383619583240797,5.067971731047065,4.765770648896415,4.477935887836109,4.205077714517773,3.9475365118261636,3.7054335647956176,3.4787227061045325,3.26723880445313,3.0707423148291078,2.8889608096749955,2.7216295038785825,2.5685338453959488,2.4295587580076816,2.3047517550023104,2.194412110807526,2.099228199204282,2.0205061829457494,1.9605816301246073,1.9236285629758378,1.9174382793444407,1.95800530034161,2.0848449733527388,2.4492719356200006,3.2176668677056623,4.658312271306772,7.148258354056271,11.123172972334192,16.948623979405486
D1,0.0,0.0,0.0,0.0,0.0013414208437020022,0.005217410773869505,0.012319168493287862,0.022867428060007335,0.036743324154319176,0.05361788428748447,0.07305217992167158,0.09456641979024406,0.1176840243727787,0.14195767134665396,0.16698313761485137,0.19240523958977143,0.21791885836546837,0.24326704785813402,0.2682375284658244,0.29265839717380426,0.3163935723356621,0.33933828708260794,0.36141481332662206,0.3825685138978955,0.40276426698230255,0.4219832737081127,0.4402202400207193,0.4574809119122851,0.4737799369648574,0.48913902245794644,0.5035853597545613,0.517150285487842,0.5298681516756546,0.5417764701476192,0.5529153257783918,0.56332657327258,0.5730530492911207,0.5821378940978217,0.5906240121438883,0.5985536724457474,0.6059682388944267,0.6129080187385088,0.6194122201729042,0.625519015564088,0.6312657152312687,0.6366890690921528,0.641825732857831,0.6467129680726798,0.651389704400727,0.6558982080384972,0.6602868452136015,0.664615004435701,0.6689627765136064,0.6734529268845816,0.6783140128276344,0.6841811669017104,0.6921331159171934,0.7039635082757802,0.722468563002883,0.7515972241108214
R1,0.0,0.0,0.0,0.040299295668524686,0.22133605038290777,0.6213370765611843,1.2802514267608522,2.2052075464237597,3.380704457085761,4.777848462512246,6.3612406753714605,8.093616810877595,9.938741677853434,11.863070791876801,13.836589141162882,15.833123913806737,17.830334793893297,19.80951685850484,21.755303430249747,23.655324153548108,25.499852404092195,27.281462381464316,28.994707386014948,30.635825152518663,32.202472577864036,33.693490014326855,35.10869401385408,36.44869666490552,37.714749304611246,38.908608255494194,40.032420244300006,41.08862525487994,42.07990749339582,43.00918553457078,43.879560568047495,44.694254525337854,45.456552095603044,46.169752062525404,46.83712941749068,47.46190800747106,48.047242903494094,48.59621166527803,49.1118139751494,49.596979635464386,50.05458569923964,50.48748468168841,50.8985477125489,51.29072983491571,51.667170972121326,52.0313590092597,52.38741050658757,52.74059836926613,53.098478021001775,53.47384176965438,53.89679482430181,54.43035243754615,55.18037827236013,56.31730123748558,58.09449380119321,60.8495827076253
G1,0.0,0.0,2.5302045374603117,6.014633457911332,9.746575119606897,13.409789127290736,16.86823223509453,20.069702118411648,23.001262885576136,25.668360857243247,28.08487306061932,30.268263283982296,32.23716655407688,34.01015699511543,35.605111605638335,37.03888652689855,38.32716468423644,39.48440151919085,40.523828745248245,41.457492948524354,42.29631487707702,43.0501603749623,43.72791700001213,44.3375721006045,44.88629055605083,45.380489240794,45.82590771730672,46.227674443213694,46.590368145150315,46.91807425619288,47.214436478502975,47.48476190809901,47.733328869902664,47.96369567326109,48.17889638180089,48.38157461285447,48.5740829207443,48.75856326698868,48.937018087236716,49.11137879655914,49.28357792835226,49.45563201851634,49.629744993652444,49.808447074899355,49.9947941268442,50.19267148808279,50.40728490133141,50.646004242266734,50.91991998815921,51.24697720596979,51.65906295090282,52.2209495719368,53.096722228822514,54.95989208733952,58.270761445929054,63.99497472717678,73.41054746467783,87.85232613322641,108.20913954548087,134.62365001906346
H1,48423.59007105336,45346.09798064481,42715.85540814408,40271.295753173676,37999.16383978267,35887.15126189984,33923.82875701593,32098.58341031682,30401.560344235386,28823.60857303501,27356.230724922465,25991.536355438097,24722.19859560349,23541.41389662965,22442.864650002804,21420.684477563744,20469.426000866824,19584.030912727278,18759.80218651478,17992.37827049712,17277.70912544471,16612.033973834394,15991.860638395494,15413.94635647368,14875.279964797042,14373.065356758536,13904.70612132077,13467.791279141542,13060.082037547192,12130.985773858209,11264.487634047824,10455.54896222902,9699.601306742026,8992.507294278697,8330.52472780454,7710.273617461462,7128.705869780621,6583.077374033093,6070.922235500291,5590.028914019459,5138.41803261869,4714.321625829867,4316.1636010246875,3942.541189858653,3592.2071720687914,3264.0526624331396,2957.0902662646604,2670.4374326085976,2403.2998710715597,2154.9549518188196,1924.735082110971,1712.011148627127,1672.882980666524,1655.5037184565497,1638.9982275533582,1623.3054190971857,1608.3685629540971,1594.1349763955761,1580.5557350152294,1567.585404294232
S2,109992.04245729165,116533.80089330165,122499.33240522681,127967.57216749148,132974.3208822401,137552.93168382265,141734.4306211615,145547.65330051671,149019.38567763133,152174.5023705539,155036.09912697092,157625.61793691124,159962.96429032157,162066.61660331232,163953.72809493786,165640.2215122857,167140.87714362345,168469.41456398217,169638.56854408132,170660.1595318854,171545.15909137824,172303.69655860506,172945.2981068223,173478.72342923778,173912.1091547723,174253.00934770275,174508.43558591846,174684.89514845054,174788.4268561766,178155.54881956356,181418.00806157116,184575.3003825333,187626.87839247566,190572.13769650878,193410.40472710843,196140.92641452138,198762.86189266175,201275.27647560358,203677.13819622635,205967.31726439035,208144.58886740406,210207.63978597143,212155.07930840537,213985.4548443565,215697.2723618536,217289.0210624149,218759.1999868842,220106.33990816877,221329.0018872499,222425.69562777004,223394.51012441004,224231.42597859574,223541.58502959067,222629.70434809287,221636.88474492033,220513.16512429496,219184.27953190956,217588.90559136824,215687.55732948918,213477.30408071738
E2,0.0,4.518581499750023,6.576688555606143,7.414892496294842,7.660846887418396,7.626402704154621,7.463578009343621,7.244739654769146,7.003284502899111,6.7539970116347945,6.503073448037784,6.2529547107257875,6.004585994864012,5.758422675938408,5.514839885457679,5.274269020377032,5.037217227939276,4.804243154965884,4.5759218521495075,4.352812384979153,4.135432726254262,3.9242425554765368,3.7196312222700696,3.5219179627160058,3.3313474698804066,3.14809295572323,2.9722608004765614,2.8038962926623316,2.6429899811492854,2.4894842545668974,2.3656056001608055,2.2650944412317906,2.1841533546442595,2.120472172918307,2.072709720264229,2.040230132381571,2.0229873832713303,2.021505410736017,2.036933026076668,2.071174439200998,2.127115697553679,2.2089918479325323,2.3229789733577366,2.4781673187870394,2.6882147304651327,2.974283514021083,3.37055907331295,3.935386841801037,4.775923778867759,6.109954393768394,8.45141812827351,13.354070185649267,28.797918775555722,51.61164552411398,89.90243537230367,148.8864747771866,229.81801658012938,325.9146025741554,425.4166564364625,516.429713388017
I2,0.0,0.0,0.8855715881111089,1.8296186653607927,2.570286236210126,3.070707748015378,3.369492076482574,3.520005235722249,3.569012887715041,3.551613305632216,3.4921334388004874,3.406640599382456,3.305423143125079,3.1949479205123477,3.079252545887952,2.9608757247751853,2.84145202358642,2.72207882796332,2.6035356382619055,2.4864110832935724,2.3711741214445117,2.258212592198425,2.147853382909875,2.0403723827462574,1.9360006025149774,1.8349270430469402,1.7373010465888719,1.6432346436633485,1.5528051109099614,1.466057777692228,1.3830090291480897,1.3080249145839673,1.2425443676689523,1.1867017007548386,1.1401261620777885,1.1023285377344922,1.0728855162363629,1.0515296222622563,1.0382002310676888,1.033085477032308,1.036673422020745,1.0498276749838378,1.0739055198803082,1.1109460692731916,1.163975859929115,1.2375194840936863,1.3384869364051877,1.4777969552316952,1.67355082689668,1.9578014769736727,2.3928013505512142,3.1172831136709016,4.520462505089718,8.403934441537459,15.246142690227797,26.928085444349662,45.620506832789495,72.8945795379922,108.38033472524765,149.5471922952309
A2,0.0,0.0,0.10211224384746587,0.23662944739491892,0.3715077848490725,0.49331354198269617,0.5975159028558596,0.6836452418928171,0.752932170412198,0.8071920277163134,0.8483235040420525,0.8781030488232997,0.898116890871148,0.9097535131786001,0.9142198984393131,0.9125647862876447,0.9057018028989974,0.8944298360251154,0.8794500476031977,0.8613797433119059,0.8407635943891526,0.8180827419949712,0.7937622552852627,0.768177287296401,0.7416583854069421,0.7144959681672922,0.6869442529392931,0.6592247460793906,0.6315293807377936,0.6040233647794296,0.5768477840054256,0.5506265167958297,0.5257558095064647,0.5024913597323587,0.4810013397373327,0.46140038388016147,0.4437729226378153,0.42819068400521076,0.4147273282986179,0.4034723023208212,0.3945457294969824,0.388116360371659,0.38442534083709395,0.3838200762832616,0.3868054090797407,0.3941250918298355,0.40689837472233487,0.4268624379228656,0.4568330124802583,0.5016584575351439,0.5704389877731392,0.6826319619991534,0.8901193166470461,1.417951132195647,2.388424952761468,4.090153943500013,6.889762090885832,11.131575626186287,16.959087034027885,24.23022180647133
IH2,0.0,0.0,0.0,0.1708999135584872,0.5071983135007974,0.9534006757477028,1.4523486715808387,1.9599490352414422,2.4467381546699887,2.8951713603755285,3.2962006165910602,3.6463612843660353,3.945629741278874,4.195970158867614,4.400401772923632,4.562426452350212,4.685692030505456,4.773803485117933,4.830223481118965,4.8582250025992515,4.860873148805643,4.841022458754286,4.801321938399714,4.744223485860418,4.671991410037197,4.586712195311297,4.490303860679738,4.384524853392835,4.2709825219415105,4.151141250427311,4.026330335582359,3.8977516696269436,3.7673316637612317,3.637085201851701,3.5088551812212976,3.384231936970589,3.264555188083112,3.1509513715320745,3.0443846649959405,2.9457128429001287,2.8557457337715726,2.7753078103821753,2.705309225413314,2.6468326664695314,2.6012479903660934,2.570374572410596,2.5567262523222793,2.5639034635247,2.597260123247366,2.6651175081725973,2.781165217329843,2.9697618652236297,3.2796464991932055,3.8298827739890227,5.075516123871225,7.519227707530984,11.97732412779963,19.60484835080921,31.74660138671589,49.54389727149322
IN2,0.0,0.0,0.0,0.17398152116455573,0.5179672076525226,0.9768885979748003,1.4933294929151586,2.0225627349067774,2.5343214747364557,3.0102170426625254,3.44039086831582,3.820640061702764,4.150291959481106,4.430754967877625,4.664582789844478,4.854895363608149,5.005034049573496,5.118364318289727,5.1981680714235,5.247588617869566,5.269605494477673,5.267025513362045,5.242482178959467,5.198439118919077,5.137195165588334,5.060890188110742,4.971510969625391,4.870897023989811,4.760746356511588,4.6426212151158115,4.517953881671627,4.388052538501862,4.254966845327644,4.120846959582363,3.987678293916871,3.85719693460762,3.7308885313568405,3.6100235064838944,3.4957068028970815,3.388933232274813,3.290646136682037,3.20180088828873,3.123437600870581,3.0567705855235108,3.0033068195751644,2.9650139225859697,2.9445735204496812,2.945786417721051,2.974260678843582,3.0386620775609137,3.15318326312957,3.3429855346277417,3.65824930202592,4.221160589789317,5.496989708793075,8.00364430486536,12.582539524272311,20.426764920003947,32.93203011244154,51.297292131934114
D2,0.0,0.0,0.0,0.0,0.00046949729529570074,0.00186287562655899,0.004482063836057123,0.008471965053298815,0.0138563491164795,0.020578043247244642,0.028531675843136504,0.037587018482101046,0.04760432466461662,0.058443782995499495,0.0699709780637148,0.08205978892139268,0.09459371497648637,0.10746627698722169,0.12058089932884752,0.13385051903104261,0.1471970646855417,0.16055088534361195,0.17385017206369002,0.18704039326968916,0.20007375325513774,0.21290867683692488,0.22550932083468492,0.23784511126165606,0.24989030494819484,0.2616235744423336,0.2730276152571292,0.2840887747578098,0.2947967021553147,0.30514633890929954,0.31513816178078974,0.3247777103496889,0.33407489317428557,0.34304329929711275,0.3516996123152952,0.36006316462081545,0.36815564508884163,0.3760009673604596,0.3836253100734332,0.39105735224257904,0.3983287472487706,0.4054749117519627,0.4125362606111628,0.41956011472134064,0.42660368611034644,0.43373889512042413,0.4410605223563796,0.44870095657380227,0.45685950466410097,0.4658693697297744,0.47639084727910075,0.4903343364405025,0.510991205118146,0.5438953837440608,0.5977539439020638,0.6849684027952389
R2,0.0,0.0,0.0,0.014104753483983639,0.07857262721042214,0.2243569727820025,0.47036204662491127,0.8243052190709581,1.2856532901818418,1.848539518438412,2.5040382279717788,3.2417457974120496,4.050799595582534,4.920494047084172,5.840628093206735,6.801682661535599,7.794895221156595,8.812274738108291,9.846583878133636,10.891304491881014,11.94059560224646,12.989248965516145,14.03264483883691,15.066709206020137,16.087872963035508,17.093033197533295,18.079516537463647,19.045044458221337,19.98770043807086,20.90589886803829,21.79835564304938,22.664060379512904,23.502319907978208,24.312861915369822,25.09583291139384,25.85175507372748,26.581472576279978,27.286101227696093,27.966987221623448,28.625677202085335,29.263900495406343,29.88356419468827,30.48676234421124,31.07580165255456,31.653248127768542,32.222002257359634,32.78541587422488,33.34747379769183,33.913082416931054,34.48854673628629,35.0824062571907,35.70702612333678,36.38202140379165,37.14328762263522,38.08003543731612,39.383172826185906,41.377505317806936,44.59121230669468,49.81636903962662,58.117333967753716
G2,0.0,0.0,0.8855715881111089,2.1745001000838355,3.6277035277480785,5.129110184846655,6.623766318561781,8.08651134841047,9.506367469602568,10.878902142169474,12.202580349594083,13.477081447184245,14.702563168355063,15.879368490050737,17.00792963571734,18.088752348733234,19.12242691956014,20.109643031619555,21.05119985440795,21.94800925840001,22.80109268219771,23.611573079003264,24.38066349204081,25.10965327099591,25.799894330853302,26.45278654262709,27.069763724177417,27.652280542232827,28.201800539366705,28.719785405877932,29.20768554113418,29.671307389781777,30.115230616939293,30.543290651943096,30.95887016728891,31.36508898590915,31.76494231123818,32.16141632633151,32.55759989789257,32.95680704174479,33.362724969191675,33.77960651187999,34.21253450465966,34.66780219844784,35.15348439057488,35.68033260348714,36.263245841889514,36.92382291713784,37.6950974367007,38.63110410290413,39.82855998946394,41.48490629506012,44.102096035403825,49.7460395308956,59.86111810020895,77.48059502501638,106.66002488015829,151.7007762599153,215.57496160019582,298.94999955628845
H2,48423.59007105336,51305.94662290177,53934.16854267519,56343.22763679649,58548.99605206132,60566.210182854586,62408.5518184325,64088.7234937142,65618.51845762118,67008.88564342822,68269.989998128,69411.26850231142,70441.48218838662,71368.76444297274,72200.66585888709,72944.19588318626,73605.86149011717,74191.70309148722,74707.32788178336,75157.9408012751,75548.3732872478,75883.10997135994,76166.31346983193,76401.84740269552,76593.29776860203,76743.9927926518,76857.02135631727,76935.25011074117,76981.33936745675,73666.84353467572,70367.48217693542,67090.7106906541,63843.52486752043,60632.51104417572,57463.89176948102,54343.567091406156,51277.15148692819,48270.00637247716,45327.26803884123,42453.870753134004,39654.5646626051,36933.9280235596,34296.37316864673,31746.145525783602,29287.31492484514,26923.758392227246,24659.13366296264,22496.842766142472,20439.98529820701,18491.30142857482,16653.105317289548,14927.21048478841,14691.026725807187,14635.62519197614,14579.641824342369,14523.145961734961,14466.201754030772,14408.868535265221,14351.201170064129,14293.250375302548
S3,329976.1273718749,328528.0200061287,327172.6916673752,325901.1065999875,324705.971327779,323580.82691015245,322519.83189968247,321517.6430106314,320569.34346381,319670.39514640416,318816.6031370333,318004.0870559722,317229.25652412424,316488.7893685601,315779.6118651575,315098.8806258948,314443.96589429246,313812.4360909166,313202.043491787,312610.71094519977,312036.51954614144,311477.61087103334,310932.46912641753,310399.56382036174,309877.49433710426,309364.97371895413,308860.8177592535,308363.9364979985,307873.3269612012,313243.27233668254,318785.71818723885,324505.616436997,330408.340663303,336499.7099543679,342786.01122902957,349274.01937558013,355971.0142665735,362884.79338691017,370023.67845095997,377396.513965763,385012.65520986123,392881.9425301102,401014.6581959588,409421.46125647845,418113.29482392065,427101.2586883863,436396.4373689029,446009.6672498347,455951.2084614952,466230.2277011632,476853.7570100621,487823.45274063095,487848.33589524304,486333.5089239842,484695.75479390536,482842.35246458126,480631.38433822984,477940.2414122867,474683.573055905,470844.6010211819
E3,0.0,7.74613971385718,10.959588720048519,12.03721902778004,12.122701898367295,11.761387537062113,11.212514863448044,10.598416389158983,9.975939451149921,9.370670464008331,8.793342268031576,8.247696966913068,7.734247723104211,7.252071647062117,6.79965787770102,6.375303055840563,5.977290782371502,5.603968712241565,5.253777775741425,4.925259551446222,4.6170541283538755,4.3278942281263,4.05659638011314,3.8020589669622424,3.563251726191892,3.3392105408172927,3.129032441822188,2.9318710421351386,2.746932425648203,2.573471452948924,2.4332176899950264,2.319638950385538,2.2286972372900293,2.1578768988129915,2.1056762522205226,2.0713560309584147,2.05483794091074,2.0567023334433148,2.0782671139557953,2.1217532414378755,2.1905642654134443,2.2897365871682815,2.4266653274365213,2.612299947685224,2.8631818197572203,3.205075411628613,3.679815026201043,4.359169347385427,5.375634176386943,6.99990064495225,9.874077107763089,15.94914266496174,35.29091487071259,63.87701183130447,111.79473711124787,185.62493156753067,287.03311817800284,407.6509159811244,532.8530457525492,647.780443301126
I3,0.0,0.0,1.5181227224761864,3.0748060776766826,4.236445624360153,4.962443758898312,5.334893557077671,5.454724146161065,5.4075335752888165,5.256725353153571,5.046025347161826,4.8042340734262154,4.549669224848257,4.293615332107372,4.042781349761228,3.800967358264109,3.5701596838390453,3.3512347003870078,3.144403648475888,2.9494899487113693,2.7660999617813915,2.5937268278660497,2.431812714358447,2.279785091963486,2.1370785002211536,2.0031457790270912,1.8774639051374808,1.759536576238518,1.6488948937934016,1.545096974269671,1.4477269877531305,1.3607897036608483,1.2854500471670605,1.2216278846725563,1.1687812616230884,1.1262849785362665,1.0936124320183922,1.070426757311804,1.0566360197848557,1.0524423772186609,1.0584045314216877,1.075530643261486,1.1054233065880066,1.1505103215458339,1.2144199175194685,1.30260917928629,1.4234593915865648,1.5902866613697921,1.8252867483077817,2.1679784974088663,2.6955415820211774,3.5809416723547765,5.3121453349735095,10.159826438351057,18.722032052171844,33.34085716888948,56.736021874908296,90.89448140411503,135.38930887791878,187.09351504928668
A3,0.0,0.0,0.17504956088137003,0.3985380173336762,0.615508645901317,0.8044409116482236,0.959110894418594,1.0800127414241687,1.170336849726471,1.2341175801447108,1.2754102370427827,1.2979525099258673,1.3050503668098663,1.2995647192941222,1.2839404458287942,1.2602505711747443,1.2302432803854721,1.1953864942014898,1.1569080294429075,1.1158308724025048,1.0730037465446487,1.0291274095791514,0.9847771852957493,0.9404221836492321,0.8964418218103638,0.8531398259191986,0.81075618105472,0.7694773176208058,0.7294447875034148,0.6907626488899219,0.6535037475399734,0.6182219182073461,0.5852468782254777,0.5547715492582126,0.5269053552732271,0.5017086700456158,0.4792168217626013,0.4594584894189924,0.4424715055352231,0.4283182592464584,0.4171027117726438,0.40899137860217594,0.4042415885454154,0.4032422427412107,0.4065759626302652,0.41511869903812987,0.4302076408779341,0.45394065527401095,0.489747681174059,0.5435790598020904,0.6266803707923733,0.7632543979419516,1.0182496009645798,1.6751134438476627,2.887241844144726,5.014798032879811,8.51691172389146,13.826931073864046,21.129234751254756,30.252226824248247
IH3,0.0,0.0,0.0,0.292971280385978,0.8575790648639199,1.590906012173634,2.3923089257925256,3.186872549390218,3.9265175401472874,4.584405952670293,5.148571700192276,5.616662364170527,5.992114584655637,6.281562443196275,6.493166124859254,6.635579014251954,6.717337890230732,6.746524356164284,6.73059534681624,6.67631612555657,6.589753379396992,6.476301945966261,6.340728954500978,6.187225643934978,6.019461091953842,5.840634867026486,5.653526676322177,5.460542263439766,5.263755296637686,5.064945274483998,4.865631633300633,4.6671043189658326,4.471299426771672,4.280187694609317,4.095530825606199,3.918812896585758,3.75125156233333,3.5938432515069096,3.4474215122288037,3.312720277837732,3.1904404060006395,3.0813217342764823,2.986225989203144,2.9062395293102723,2.842810531714305,2.7979451154351778,2.774505476350475,2.776690121104483,2.8108549464691444,2.887014954092181,3.021827899031776,3.2452097081841984,3.617517263757739,4.287348117290552,5.826904791982296,8.867599455926687,14.430809130148818,23.962447525869536,39.14985521061639,61.43224884895382
IN3,0.0,0.0,0.0,0.29825403628209546,0.875825381851362,1.6302736660682382,2.460288760020914,3.289694412468068,4.068914621413993,4.76959710042317,5.378366264262312,5.89162600111283,6.31175808382359,6.6445313022850625,6.897418632271561,7.078546818025346,7.196066772981255,7.25779509680275,7.271025729351615,7.242445737347538,7.178113068583169,7.083469831543244,6.96337479510971,6.822145228635049,6.663602149651173,6.491115825519323,6.307649436912136,6.115800006608847,5.917836197714505,5.715732886068119,5.511202583056015,5.305723876307642,5.101430705242468,4.900496182821913,4.704884506092105,4.516278796714019,4.336089731859298,4.165499132810127,4.0055175849586595,3.8570477788936834,3.720951879503062,3.5981251758862394,3.4895814386782296,3.3965591717030152,3.3206637569685946,3.2640706812893283,3.2298341597689477,3.222383519104686,3.248370467989605,3.3182160627073936,3.449178976685559,3.6721466268192833,4.049242032211362,4.732933047108132,6.30823637280647,9.425659083931468,15.138016892328576,24.93886120164548,40.57934042272924,63.57106454522561
D3,0.0,0.0,0.0,0.0,0.0008048525062212011,0.0031607989960246263,0.00753134579287581,0.01410351161077698,0.022858507510050894,0.033645460684251186,0.046239768958021066,0.06038395684872475,0.0758140862950147,0.09227566039426052,0.10953240743352925,0.12737047341057134,0.14559977695463677,0.1640536889864374,0.1825877822572435,0.2010781152554437,0.21941933204263156,0.23752274312033098,0.2553144797212325,0.2727337693648316,0.2897313537680416,0.30626805436059545,0.3223134824464338,0.3378448857581562,0.35284612110199653,0.3673067420784024,0.3812211909372496,0.3945880841332374,0.40740958186832815,0.419693163197397,0.431451721198594,0.44270298871175295,0.4534687756416993,0.46377423704198567,0.47364726536111207,0.4831180429761149,0.49221876853021973,0.5009835660671523,0.5094485921169377,0.5176523705500543,0.5256364096878252,0.5334461962926688,0.541132728349533,0.5487548668855121,0.5563830070910173,0.5641050051152244,0.5720362303815301,0.5803378146006407,0.5892530747019187,0.5991911404133359,0.6109693695718319,0.6269770783109296,0.651338202161928,0.6909826099001137,0.7568123933552745,0.8643651167585678
R3,0.0,0.0,0.0,0.024179577401114805,0.13371348846955597,0.37846505735450753,0.7863927935773902,1.3659809055744003,2.111857848013177,3.010095468633121,4.042240230535024,5.188067308059463,6.427323898766877,7.740753687602071,9.110641726483136,10.521054161276904,11.957892070834054,13.40883761242304,14.863242133067102,16.31198690338089,17.74733484071625,19.162783817893413,20.552927336558113,21.91332541619159,23.240386804578883,24.531262622279677,25.783751012855884,26.99621206522659,28.167492163405036,29.29685689391907,30.383931665556297,31.428649246392673,32.43127349814918,33.392488365667845,34.31338577106531,35.195415551610786,36.040327192641335,36.8501167131777,37.626984282399484,38.373304711463376,39.09161174377603,39.78459703702295,40.45512546987342,41.106269855452645,41.74137053918561,42.36412931460832,42.978753888310386,43.59018143675026,44.204433499649525,44.82920350822574,45.47488934680729,46.15656681140819,46.898256700197635,47.74423596166831,48.80567467000005,50.321565930963224,52.69876125434533,56.59863478605311,63.01323271875066,73.27683176102028
G3,0.0,0.0,1.5181227224761864,3.6660313943447562,6.025138820306234,8.400999557338107,10.706048307739646,12.903526563889816,14.980651084877113,16.935779822323553,18.772285266551307,20.49564337739562,22.112063508724987,23.627855586254856,25.0491486637261,26.38177568964143,27.63123578063739,28.802691665861428,29.90098224056928,30.930640846639257,31.895914998068182,32.80078568747978,33.648985540683874,34.44401524167772,35.189159574617406,35.88750140826099,36.541934659455535,37.15517627718644,37.72977733175727,38.26813329828122,38.77249361615369,39.24936638121683,39.70397948252992,40.14076942467325,40.56367968364187,40.976359429006635,41.38231294560932,41.78502917386457,42.188110794014605,42.595418775230996,43.01124936005147,43.440565833703424,43.88931853761435,44.364907141682025,44.87687723969224,45.43801627664743,46.06616113194081,46.78734755668235,47.64167684608942,48.69521740853157,50.06708889765117,52.00225420250116,55.1280377254059,62.044507314297874,74.56340662249224,96.47343367225304,132.85302878420757,189.10704883882863,269.0002784022047,373.4311751300897
H3,145270.77021316008,144636.65177175342,144042.1314191662,143483.85375903832,142958.9076876749,142464.5953147069,141998.41666545166,141558.05547679233,141141.3660084585,140746.36079716924,140371.19928628125,140014.1772683971,139673.71708285462,139348.35851416877,139036.750341348,138737.64249158543,138449.87875514585,138172.39002135437,137904.187998456,137644.35938277582,137392.0604450774,137146.51200431184,136906.9947610778,136672.84496509063,136443.4503927946,136218.24661295707,135996.71351966637,135778.37211362532,135562.7815139968,135349.53618432608,135098.6096153457,134810.49598970514,134485.7741265844,134125.1013049048,133729.20773503266,133298.89162021072,132835.01475065426,132338.4985740051,131810.32068556073,131251.5116803101,130663.15230622578,130046.37085441919,129402.34071662712,128732.2780340915,128037.43935435245,127319.11920407624,126578.64747728307,125817.38653000764,125036.72786566404,124238.08829176216,123422.90543014718,122592.63247200655,121748.73208813017,120909.05249603631,120075.71069180717,119248.64693395095,118427.80280428391,117613.12113512954,116804.54594156615,116002.02235836338
S4,164988.06368593746,167726.1809866347,170456.3585419211,173177.34009274395,175888.82935090456,178590.974428036,181284.11657856088,183968.6692768527,186645.06072525485,189313.7072347229,191975.0015995995,194629.30871368892,197276.96464101798,199918.2772931844,202553.52781351397,205182.97223239858,207806.84318535935,210425.35159647017,213038.68828396758,215647.02547116854,218250.51819843557,220849.2243336127,223443.38007199235,226033.07737568807,228618.4071938347,231199.45353704714,233776.29164419466,236348.98773350497,238917.5993473075,246082.871377829,253285.83191235067,260525.88856531837,267802.294177776,275114.13562180713,282460.321397181,289839.568380502,297250.3880246715,304691.07231114357,312159.6798044575,319654.0222309421,327171.65208388737,334709.8518183421,342265.6251861394,349835.6910619374,357416.47947142896,365004.12786010606,372594.4714319069,380183.0104460275,387764.80644059624,395334.15936192044,402883.5215258611,410398.9377171301,414767.09613762755,418654.58981889166,422346.1638746388,425711.95347367506,428563.5864054716,430742.9782399518,432144.080681968,432747.34293947177
E4,0.0,11.619209570785772,16.594507399658013,18.395837858977025,18.70548400926925,18.335734890710487,17.67575079450884,16.90939829495877,16.121421437863486,15.349115871820775,14.607401240958048,13.900917579090637,13.229804060229707,12.592413072981227,11.98654722358009,11.4099923531227,10.860721461447676,10.33695001821908,9.837128468485343,9.359911850816736,8.90412438158865,8.468726395692986,8.05278214408316,7.655447829379622,7.275944847414664,6.9135471655741485,6.567571159484052,6.23736778468595,5.922316698535012,5.62182192515547,5.388173137118243,5.20742505177501,5.071335313254119,4.975170000377622,4.916539506991041,4.894820370941664,4.910929307033628,4.967336711524692,5.0682814388638,5.220203294325482,5.432463787017149,5.718498909886332,6.097669251819272,6.598298110169515,7.262837622570167,8.15706005020021,9.387364986123107,11.135785807091025,13.737657331872114,17.876824527782183,25.172806414877257,40.539055006310925,89.29248146596123,162.3613268890565,286.67835043364676,480.8931664174931,751.3274235215997,1077.58431301396,1421.4762172350065,1742.7539205289245
I4,0.0,0.0,2.27718408371428,4.642611066785779,6.439867028902049,7.597876449552214,8.232439813786812,8.49052904089913,8.497913554289763,8.34799101610635,8.105095201332546,7.811429435248045,7.493670543107331,7.16813346966326,6.844456479701135,6.528093608945117,6.221940905474819,5.927369305443567,5.644866100614448,5.37442512077257,5.11577900717264,4.8685340873229475,4.632246244352342,4.406460928251378,4.190735240100354,3.9846461714645773,3.7877931613498523,3.599797665513294,3.420301359274232,3.2489638882150076,3.0854606452589164,2.939841401243899,2.8155090357440433,2.7129258205086817,2.631446223051067,2.5702077847058495,2.5285617381597247,2.506291637113244,2.5037494883831175,2.52198096093176,2.5628865946846644,2.6294614837407897,2.726167543077615,2.8595233909982243,3.0390599275347245,3.278916248974639,3.6006153897886786,4.038151008960044,4.64795381097154,5.530198245090754,6.880069282688165,9.134138583006276,13.521917209560929,25.75580950637597,47.54562902399438,85.21371222412043,146.27522709260367,236.55754162392554,355.62112764315077,495.71345081556456
A4,0.0,0.0,0.2625743413220551,0.6013125713467777,0.9339679249057671,1.2276711049969184,1.4724493956078295,1.6685019705294966,1.8201555630343202,1.9330543262452595,2.012905605128937,2.0649655482326095,2.093869129717764,2.1036142403488567,2.097609309449708,2.0787423030052365,2.0494522363440573,2.0117954171140573,1.9675037880589858,1.9180350415518588,1.8646151252348135,1.8082740760245446,1.749876157286744,1.6901451054451897,1.6296856189044475,1.5690012740144457,1.5085096810767746,1.4485553171798642,1.3894204095291935,1.3313341826291532,1.2744807301880314,1.220200374586788,1.1693331599870407,1.1224168321381989,1.07980787947225,1.041759547683575,1.008476012482977,0.9801539630046572,0.9570187464801869,0.9393603738408376,0.9275743254665789,0.922213008231328,0.9240561556561971,0.9342133130784906,0.9542808227223949,0.9865938702161096,1.0346514232932835,1.1038735871795515,1.2030454327316265,1.3473165455079439,1.5651976316440097,1.917859587212802,2.5690594235900264,4.232053474764863,7.316569756247074,12.784375069115843,21.885836978858478,35.8414684012439,55.24225980310473,79.73459309929459
IH4,0.0,0.0,0.0,0.439456920578967,1.2922356449101373,2.4080916375169545,3.637821384827369,4.869223962323493,6.029482100442339,7.077202119185701,7.993080244572443,8.77212406295275,9.41797603466511,9.939069012559576,10.346156056003394,10.650794051797465,10.864457276979934,10.998051865821857,11.06167729403113,11.06453508259945,11.014921767384813,10.920267383973044,10.787196200955828,10.621596129315774,10.428689035736914,10.213098411453286,9.97891198456876,9.729738675899876,9.468759877370289,9.198775346898074,8.922244161306839,8.641321217763155,8.35988918549023,8.082106065650718,7.811810661451797,7.5523401435474895,7.306537458553328,7.076841111573393,6.865408321804709,6.674252352645116,6.505390516089468,6.361008750294106,6.243656286648122,6.156493037199818,6.103626520177928,6.090600101930554,6.125141266372194,6.218372057611089,6.386882272127174,6.656522363185605,7.069935619893241,7.703244114767599,8.709343773498167,10.463386985141286,14.406072496263164,22.16655461096822,36.434069351184384,61.08400654821789,100.73568706676224,159.46989024200366
IN4,0.0,0.0,0.0,0.4473810544231433,1.3197109129465852,2.4675907207732077,3.74093834053855,5.025763199655997,6.247082048488643,7.361286022412296,8.346991871417504,9.197356316439299,9.914435758826844,10.505344795160969,10.97977086349165,11.348433821354512,11.622172128095539,11.811429753705148,11.925991618671764,11.974868575407513,11.966269270095749,11.907620138798734,11.805610123892384,11.666246321039207,11.49491254028689,11.296427000265625,11.075096512555756,10.834766351836295,10.578865608354658,10.310448155837923,10.032229535775794,9.746620126259863,9.457790443815407,9.17020881669553,8.888037192881395,8.614940733001335,8.354089352986978,8.108243729753694,7.879876614159948,7.6713101050370724,7.484865319502523,7.323030430229171,7.188660854260197,7.0852347830214955,7.017201887445083,6.990488761173808,7.013272971035533,7.097233629434993,7.25969014329473,7.527508872016097,7.944848479544075,8.590288779665306,9.621194374571957,11.422494085745539,15.467172262910406,23.433190591814487,38.09145454830345,63.44300582488887,104.27808364178925,164.8747618113436
D4,0.0,0.0,0.0,0.0,0.0012072787593318019,0.004757316483384677,0.01137284066415895,0.021366685982054903,0.034743448046463586,0.05130767841526786,0.07075021167366853,0.09270885096007145,0.11680768422334971,0.14268080600185634,0.16998547761924168,0.19840850127009008,0.2276684282995974,0.25751533225752193,0.2877292480928747,0.3181179560965457,0.348514515034576,0.3787747759674235,0.4087750017950777,0.4384096536490096,0.46758936796601186,0.4962391267271991,0.5242966135972854,0.5517107420728128,0.5784403400998219,0.6044529755638439,0.6297239078626095,0.6542351519848473,0.6779746428660565,0.7009409819345441,0.723144193505025,0.7446048478760324,0.7653526832418778,0.7854252479573276,0.8048667894533919,0.8237274814869475,0.8420630286644799,0.8599346775644137,0.8774096799879422,0.8945622910004345,0.9114754465971044,0.9282433669725465,0.9449755010915348,0.9618025269102557,0.978885676932983,0.9964317592550759,1.0147185984963458,1.0341411691831275,1.0553035688682986,1.0792299317336516,1.1079750129151869,1.1475514640203808,1.2084475593967683,1.308539459157402,1.4763498182328525,1.7530915182888513
R4,0.0,0.0,0.0,0.03626936610167222,0.20105445331366495,0.570751576492684,1.1895918246452917,2.072842416438733,3.214952823930434,4.597352514037221,6.194422029628682,7.977586436254281,9.917911865870936,11.987635241035337,14.16098327156174,16.41454125956948,18.727349727406235,21.080845059737335,23.458717329694743,25.8467298942746,28.232526971294888,30.605443915162216,32.95632789422802,35.27737250444369,37.561967443772325,39.804563073653526,42.00054904444799,44.1461458088604,46.238307778888434,48.274636913372,50.2533056063982,52.17298785175706,54.03296278448087,55.83336699911832,57.575205553748155,59.26026922267604,60.89102818162579,62.47053402026604,64.00234371587153,65.4904711417046,66.93936886303226,68.35394300488342,69.73960587781154,71.10237470908974,72.44903086411621,73.78736391728746,75.12654208289814,76.47768159086917,77.85474740906174,79.27604145758481,80.76681454954826,82.36425240858618,84.12824317673417,86.16988096214068,88.76881674723668,92.52978476488053,98.4950692416929,108.38273429323442,124.80509767817746,151.32295526290685
G4,0.0,0.0,2.27718408371428,5.52944904178789,9.13474671060497,12.80073020152838,16.39424862478777,19.8584204457487,23.172399114253036,26.331946593064043,29.340134211116684,32.202957315191945,34.927320626420915,37.52015614187296,39.98807295244902,42.33724949410084,44.57343026212494,46.70196249136075,48.72784367649946,50.65576762359912,52.49016454722799,54.23523422667906,55.894972683078976,57.47319254531738,58.97354107114136,60.399512924009414,61.75446047629706,63.041602120651326,64.26402904711553,65.42471086823765,66.52650039457755,67.58249839800393,68.6030725922118,69.5969753175363,70.57203113950187,71.53559629804951,72.49490484424996,73.4573704909959,74.43089111036525,75.42419532387937,76.44727385458074,77.51195213547288,78.63268884488485,79.827737034988,81.12090068304362,82.54430372401309,84.1429604315159,85.98273774202796,88.1651782983389,90.85754514421414,94.36112428477574,99.29460222586624,107.23962553117754,124.7395609915798,156.55985196318736,212.74434306612363,306.99191282218067,454.2403844224516,665.4301242671758,944.0173205429576
H4,72635.38510658004,73845.97485835638,75051.28028978765,76251.63138494737,77447.33016627269,78638.65439700331,79825.8593579592,81009.17949683795,82188.82995914455,83365.00800921505,84537.89434919145,85707.6543432438,86874.43915381379,88038.3867961709,89199.6231171223,90358.2627033002,91514.40972406341,92668.15871368963,93819.59529720091,94968.79686385472,96115.83319204452,97260.76702908683,98403.65462912276,99544.54625213174,100683.48662684082,101820.51538011411,102955.66743522209,104088.9733812193,105220.45981549952,101749.4541837058,98283.7280144315,94824.9961542981,91375.17068024052,87936.37729984394,84510.97249765278,81101.5612964876,77711.015429414,74342.49162359565,70999.44957763258,67685.6690648055,64405.265411898916,61162.70238396942,57962.80124872803,54810.744503061826,51712.07242760498,48672.670311066184,45698.74388445383,42796.780272552685,39973.49167098874,37235.7390766931,34590.43383873452,32044.41566294879,32664.10622881893,33678.67899622001,34686.25443368698,35686.885356118706,36680.6240805683,37667.522437270665,38647.63178006341,39621.00299624313
E_Om,0.0,0.0,0.0,0.0,0.0,0.0,0.0,0.0,0.0,0.0,0.0,0.0,0.0,0.0,0.0,0.0,0.0,0.0,0.0,0.0,0.0,0.4097978333238428,0.5695797480432984,0.6332774144381342,0.6608337175056092,0.6754900922454468,0.6861592533961536,0.6961704007714613,0.706689003905634,0.7180532984176167,0.7397873781409902,0.7709123186585959,0.8117621647951179,0.863499305775231,0.9279879354808844,1.0078597963980764,1.1067168864159997,1.229475517520564,1.3829001094973556,1.576425139729152,1.8234407560533716,2.143353663094004,2.5649917375557463,3.1324306407328466,3.9153867741049395,5.028687777748764,6.670975937011564,9.207492832176046,13.364531542537325,20.747074010299194,35.486786648005776,71.23017861134082,204.34113430108022,463.15012672595356,1069.6606014641714,2281.4743973942614,4513.915115586031,8050.5427353246905,12991.415266816117,19146.90325807359
I_Om,0.0,0.0,0.0,0.0,0.0,0.0,0.0,0.0,0.0,0.0,0.0,0.0,0.0,0.0,0.0,0.0,0.0,0.0,0.0,0.0,1.0,0.6105549914280085,0.45309138947772243,0.3882659677045518,0.361170233265823,0.3500274035151764,0.34609651433928323,0.34578747972445245,0.3475608260399919,0.35070503385073415,0.35485197032666466,0.36164344416570104,0.37189001592624704,0.38615204498532,0.4049994717390777,0.42914562910356746,0.45954182658389553,0.4974748264248411,0.544693788305695,0.6035923913082166,0.6774811187500387,0.7710054631428905,0.8908051649359614,1.0465839655852398,1.252904675920318,1.5323220215016553,1.9211113313880164,2.480351482483682,3.318916148329108,4.645620823830807,6.902510311596675,11.169219530279921,20.7794281915396,52.73466290723593,122.96762201872207,284.7153112160013,620.9677978140696,1263.7920379745638,2349.3955099173127,3980.550180738288
A_Om,0.0,0.0,0.0,0.0,0.0,0.0,0.0,0.0,0.0,0.0,0.0,0.0,0.0,0.0,0.0,0.0,0.0,0.0,0.0,0.0,0.0,0.0,0.009260732884167826,0.02085308077218752,0.03228363761029864,0.042758018339938,0.05211678306288478,0.06042392746627247,0.0678098417637379,0.07441324300837747,0.08036133083011433,0.08597896308238145,0.09152400301345383,0.09722624409223596,0.10331000645616599,0.11001075253154471,0.11759089324117222,0.12635799173050963,0.13668822775538494,0.14905868376459047,0.16409374597440823,0.18263414872795375,0.20584305428452668,0.23537441832423583,0.2736497706594454,0.32433162734629734,0.3931715105244875,0.4896154624199771,0.6300585819146599,0.8450443008576896,1.1971669476535571,1.8337433247608028,3.1901292383831246,7.367238533791619,16.81600647316803,38.66572054475428,84.88226320443962,175.16427664651548,332.89740414149924,580.4981730864782
R_Om,0.0,0.0,0.0,0.0,0.0,0.0,0.0,0.0,0.0,0.0,0.0,0.0,0.0,0.0,0.0,0.0,0.0,0.0,0.0,0.0,0.0,0.3894450085719915,0.6272226024423444,0.8036767825013914,0.9548850256223032,1.0955409702124599,1.2318573953748597,1.366642955368458,1.5013081633738348,1.6366639922502682,1.7732443171645076,1.9114396457901637,2.0522798800032795,2.197110590443515,2.347495576912915,2.505220599655992,2.672349222860863,2.8513154934540172,3.0450545814953895,3.2571828585512113,3.492248902558229,3.7560905426572,4.056354771859936,4.403274396954395,4.810861298403048,5.298798770656724,5.895553933455488,6.643721152375644,7.609681656733054,8.902216984568803,10.711430826127815,13.399579013595842,17.74937580930816,25.84182039948338,46.37907164743296,94.26819825859158,205.1491550756844,446.98196441831544,939.159465480534,1854.1198199792802
G_Om,0.0,0.0,0.0,0.0,0.0,0.0,0.0,0.0,0.0,0.0,0.0,0.0,0.0,0.0,0.0,0.0,0.0,0.0,0.0,0.0,0.0,0.0,0.08031399192006689,0.19194275020594345,0.3160552588881263,0.44556837372763636,0.577953909714143,0.7124304350929108,0.848868989413827,0.9873690261010023,1.1280962874911724,1.2730830899558647,1.4241698959295266,1.583262635428835,1.7524950486519928,1.9343662287595598,2.1318910494447594,2.348790319878859,2.589748369801085,2.8607752498594285,3.169730021308268,3.5270960058000913,3.947159936795897,4.4498583625396355,5.063765974323367,5.83112079215838,6.816665264843504,8.124072634859326,9.928597805062163,12.54783780839961,16.61394113772449,23.568798543875758,37.528804000847764,77.57648330671931,168.346693666155,377.98350947459284,825.116952889754,1709.7740023928793,3287.5549753978466,5833.670000717569
beta,1.0,1.0,0.9995014532787047,0.9991864638746685,0.998963961017687,0.998790244538293,0.9986441421055628,0.9985152456122445,0.998398311575263,0.9982905872209205,0.9981905302340474,0.9980971941447375,0.9980099323280304,0.9979282548141188,0.9978517585361953,0.9977800929515733,0.99771294275132,0.9976500188601332,0.9975910534850359,0.997535797163717,0.9974840168195103,0.9974354943397237,0.997387580346856,0.9973434822178603,0.9973024299043047,0.9972640228958114,0.9972280116826219,0.9971942118007482,0.9971624697664403,0.9971326493603725,1.033355111580445,1.0724475400058577,1.114835092506169,1.1610288655668277,1.211648838101665,1.2674545141688642,1.329386471681154,1.398623636595186,1.4766636929686887,1.5654383130879994,1.6674821556343873,1.7861873521188827,1.9261985495266924,2.0940482125706503,2.2992218023127458,2.556035134527633,2.887151131076324,3.3306893592478337,3.956085033819096,4.904483565748363,6.5132459816766755,9.836657111282777,20.67591783001734,22.93328064985087,21.411547179192723,18.883576568225532,15.496539517011657,11.828745560636454,8.658941505665958,6.292402989567995
